Measurements-streak-laser-independent/Photodiode-on-Tek-6GHz/Tek000_ch1_20190613132801130.csv

Model,MSO64
Waveform Type,ANALOG
Horizontal Units,s
Sample Interval,4.000000e-12
Record Length,1000
Zero Index,310.914062
Vertical Units,V

TIME,CH1
-1.243656e-09,4.250000e-03
-1.239656e-09,4.359375e-03
-1.235656e-09,3.875000e-03
-1.231656e-09,3.718750e-03
-1.227656e-09,3.578125e-03
-1.223656e-09,3.453125e-03
-1.219656e-09,3.343750e-03
-1.215656e-09,3.562500e-03
-1.211656e-09,3.203125e-03
-1.207656e-09,3.062500e-03
-1.203656e-09,3.156250e-03
-1.199656e-09,3.468750e-03
-1.195656e-09,3.203125e-03
-1.191656e-09,3.250000e-03
-1.187656e-09,3.312500e-03
-1.183656e-09,3.406250e-03
-1.179656e-09,3.500000e-03
-1.175656e-09,3.921875e-03
-1.171656e-09,3.734375e-03
-1.167656e-09,3.765625e-03
-1.163656e-09,4.000000e-03
-1.159656e-09,4.421875e-03
-1.155656e-09,4.234375e-03
-1.151656e-09,4.359375e-03
-1.147656e-09,4.453125e-03
-1.143656e-09,4.546875e-03
-1.139656e-09,4.625000e-03
-1.135656e-09,5.000000e-03
-1.131656e-09,4.734375e-03
-1.127656e-09,4.656250e-03
-1.123656e-09,4.750000e-03
-1.119656e-09,5.031250e-03
-1.115656e-09,4.687500e-03
-1.111656e-09,4.640625e-03
-1.107656e-09,4.562500e-03
-1.103656e-09,4.453125e-03
-1.099656e-09,4.343750e-03
-1.095656e-09,4.531250e-03
-1.091656e-09,4.093750e-03
-1.087656e-09,3.843750e-03
-1.083656e-09,3.796875e-03
-1.079656e-09,3.953125e-03
-1.075656e-09,3.515625e-03
-1.071656e-09,3.375000e-03
-1.067656e-09,3.234375e-03
-1.063656e-09,3.125000e-03
-1.059656e-09,3.015625e-03
-1.055656e-09,3.234375e-03
-1.051656e-09,2.859375e-03
-1.047656e-09,2.718750e-03
-1.043656e-09,2.796875e-03
-1.039656e-09,3.093750e-03
-1.035656e-09,2.812500e-03
-1.031656e-09,2.859375e-03
-1.027656e-09,2.937500e-03
-1.023656e-09,3.031250e-03
-1.019656e-09,3.140625e-03
-1.015656e-09,3.562500e-03
-1.011656e-09,3.406250e-03
-1.007656e-09,3.468750e-03
-1.003656e-09,3.718750e-03
-9.996562e-10,4.203125e-03
-9.956562e-10,4.062500e-03
-9.916562e-10,4.218750e-03
-9.876562e-10,4.375000e-03
-9.836562e-10,4.531250e-03
-9.796562e-10,4.656250e-03
-9.756562e-10,5.078125e-03
-9.716562e-10,4.859375e-03
-9.676562e-10,4.828125e-03
-9.636563e-10,4.984375e-03
-9.596563e-10,5.296875e-03
-9.556563e-10,4.984375e-03
-9.516563e-10,4.937500e-03
-9.476563e-10,4.875000e-03
-9.436563e-10,4.781250e-03
-9.396562e-10,4.656250e-03
-9.356562e-10,4.812500e-03
-9.316562e-10,4.343750e-03
-9.276563e-10,4.062500e-03
-9.236562e-10,3.968750e-03
-9.196562e-10,4.062500e-03
-9.156562e-10,3.546875e-03
-9.116562e-10,3.328125e-03
-9.076562e-10,3.125000e-03
-9.036563e-10,2.937500e-03
-8.996563e-10,2.750000e-03
-8.956563e-10,2.906250e-03
-8.916562e-10,2.468750e-03
-8.876562e-10,2.265625e-03
-8.836562e-10,2.296875e-03
-8.796562e-10,2.562500e-03
-8.756562e-10,2.265625e-03
-8.716563e-10,2.312500e-03
-8.676563e-10,2.406250e-03
-8.636562e-10,2.531250e-03
-8.596562e-10,2.703125e-03
-8.556562e-10,3.218750e-03
-8.516562e-10,3.171875e-03
-8.476562e-10,3.375000e-03
-8.436563e-10,3.796875e-03
-8.396563e-10,4.453125e-03
-8.356563e-10,4.531250e-03
-8.316562e-10,4.921875e-03
-8.276562e-10,5.312500e-03
-8.236562e-10,5.734375e-03
-8.196562e-10,6.140625e-03
-8.156562e-10,6.843750e-03
-8.116563e-10,6.921875e-03
-8.076563e-10,7.187500e-03
-8.036562e-10,7.609375e-03
-7.996562e-10,8.218750e-03
-7.956562e-10,8.171875e-03
-7.916562e-10,8.390625e-03
-7.876562e-10,8.562500e-03
-7.836563e-10,8.671875e-03
-7.796563e-10,8.734375e-03
-7.756563e-10,9.046875e-03
-7.716562e-10,8.687500e-03
-7.676562e-10,8.484375e-03
-7.636562e-10,8.437500e-03
-7.596562e-10,8.531250e-03
-7.556562e-10,7.968750e-03
-7.516563e-10,7.687500e-03
-7.476563e-10,7.359375e-03
-7.436562e-10,7.000000e-03
-7.396562e-10,6.625000e-03
-7.356562e-10,6.531250e-03
-7.316562e-10,5.828125e-03
-7.276562e-10,5.328125e-03
-7.236563e-10,5.031250e-03
-7.196563e-10,4.968750e-03
-7.156563e-10,4.312500e-03
-7.116562e-10,3.984375e-03
-7.076562e-10,3.703125e-03
-7.036562e-10,3.468750e-03
-6.996562e-10,3.281250e-03
-6.956562e-10,3.453125e-03
-6.916563e-10,3.078125e-03
-6.876563e-10,2.953125e-03
-6.836562e-10,3.093750e-03
-6.796562e-10,3.500000e-03
-6.756562e-10,3.359375e-03
-6.716562e-10,3.578125e-03
-6.676562e-10,3.828125e-03
-6.636563e-10,4.156250e-03
-6.596563e-10,4.500000e-03
-6.556563e-10,5.187500e-03
-6.516562e-10,5.296875e-03
-6.476562e-10,5.640625e-03
-6.436562e-10,6.187500e-03
-6.396562e-10,6.921875e-03
-6.356562e-10,7.062500e-03
-6.316563e-10,7.484375e-03
-6.276563e-10,7.875000e-03
-6.236562e-10,8.250000e-03
-6.196562e-10,8.562500e-03
-6.156562e-10,9.140625e-03
-6.116562e-10,9.062500e-03
-6.076562e-10,9.125000e-03
-6.036563e-10,9.312500e-03
-5.996563e-10,9.640625e-03
-5.956563e-10,9.281250e-03
-5.916562e-10,9.171875e-03
-5.876562e-10,8.968750e-03
-5.836562e-10,8.718750e-03
-5.796562e-10,8.390625e-03
-5.756562e-10,8.296875e-03
-5.716563e-10,7.531250e-03
-5.676563e-10,6.937500e-03
-5.636562e-10,6.484375e-03
-5.596562e-10,6.187500e-03
-5.556562e-10,5.265625e-03
-5.516562e-10,4.625000e-03
-5.476562e-10,3.968750e-03
-5.436563e-10,3.312500e-03
-5.396563e-10,2.671875e-03
-5.356563e-10,2.343750e-03
-5.316562e-10,1.421875e-03
-5.276562e-10,7.500000e-04
-5.236562e-10,3.281250e-04
-5.196562e-10,1.406250e-04
-5.156562e-10,-5.781250e-04
-5.116563e-10,-9.375000e-04
-5.076563e-10,-1.250000e-03
-5.036563e-10,-1.468750e-03
-4.996562e-10,-1.625000e-03
-4.956562e-10,-1.406250e-03
-4.916562e-10,-1.734375e-03
-4.876562e-10,-1.765625e-03
-4.836563e-10,-1.531250e-03
-4.796563e-10,-1.031250e-03
-4.756563e-10,-1.062500e-03
-4.716562e-10,-7.500000e-04
-4.676562e-10,-3.906250e-04
-4.636562e-10,3.125000e-05
-4.596562e-10,4.687500e-04
-4.556563e-10,1.250000e-03
-4.516563e-10,1.437500e-03
-4.476562e-10,1.859375e-03
-4.436562e-10,2.484375e-03
-4.396563e-10,3.312500e-03
-4.356562e-10,3.531250e-03
-4.316562e-10,4.031250e-03
-4.276562e-10,4.484375e-03
-4.236563e-10,4.921875e-03
-4.196562e-10,5.328125e-03
-4.156562e-10,5.984375e-03
-4.116562e-10,6.000000e-03
-4.076563e-10,6.156250e-03
-4.036562e-10,6.484375e-03
-3.996562e-10,6.953125e-03
-3.956563e-10,6.781250e-03
-3.916563e-10,6.843750e-03
-3.876562e-10,6.828125e-03
-3.836562e-10,6.765625e-03
-3.796563e-10,6.671875e-03
-3.756563e-10,6.828125e-03
-3.716562e-10,6.312500e-03
-3.676562e-10,5.968750e-03
-3.636563e-10,5.812500e-03
-3.596562e-10,5.812500e-03
-3.556562e-10,5.187500e-03
-3.516562e-10,4.843750e-03
-3.476563e-10,4.437500e-03
-3.436562e-10,4.000000e-03
-3.396562e-10,3.593750e-03
-3.356563e-10,3.468750e-03
-3.316563e-10,2.718750e-03
-3.276562e-10,2.187500e-03
-3.236562e-10,1.875000e-03
-3.196563e-10,1.750000e-03
-3.156563e-10,1.062500e-03
-3.116562e-10,6.875000e-04
-3.076562e-10,2.812500e-04
-3.036563e-10,-1.093750e-04
-2.996562e-10,-4.531250e-04
-2.956562e-10,-5.000000e-04
-2.916562e-10,-1.093750e-03
-2.876563e-10,-1.500000e-03
-2.836562e-10,-1.625000e-03
-2.796562e-10,-1.546875e-03
-2.756563e-10,-2.015625e-03
-2.716563e-10,-2.156250e-03
-2.676562e-10,-2.312500e-03
-2.636562e-10,-2.453125e-03
-2.596563e-10,-2.500000e-03
-2.556563e-10,-2.250000e-03
-2.516562e-10,-2.531250e-03
-2.476562e-10,-2.609375e-03
-2.436563e-10,-2.406250e-03
-2.396562e-10,-1.984375e-03
-2.356562e-10,-2.093750e-03
-2.316562e-10,-1.875000e-03
-2.276562e-10,-1.656250e-03
-2.236562e-10,-1.437500e-03
-2.196562e-10,-1.093750e-03
-2.156563e-10,-4.687500e-04
-2.116562e-10,-3.593750e-04
-2.076563e-10,-6.250000e-05
-2.036562e-10,5.156250e-04
-1.996563e-10,1.296875e-03
-1.956562e-10,1.515625e-03
-1.916563e-10,2.078125e-03
-1.876562e-10,2.609375e-03
-1.836563e-10,3.125000e-03
-1.796562e-10,3.734375e-03
-1.756562e-10,4.578125e-03
-1.716562e-10,4.921875e-03
-1.676562e-10,5.390625e-03
-1.636563e-10,6.093750e-03
-1.596562e-10,6.968750e-03
-1.556563e-10,7.250000e-03
-1.516562e-10,7.812500e-03
-1.476563e-10,8.328125e-03
-1.436562e-10,8.781250e-03
-1.396563e-10,9.296875e-03
-1.356562e-10,1.001563e-02
-1.316563e-10,1.021875e-02
-1.276562e-10,1.051563e-02
-1.236563e-10,1.101563e-02
-1.196562e-10,1.168750e-02
-1.156562e-10,1.175000e-02
-1.116562e-10,1.209375e-02
-1.076562e-10,1.239063e-02
-1.036563e-10,1.267188e-02
-9.965625e-11,1.303125e-02
-9.565625e-11,1.362500e-02
-9.165625e-11,1.376563e-02
-8.765625e-11,1.404688e-02
-8.365625e-11,1.456250e-02
-7.965625e-11,1.534375e-02
-7.565625e-11,1.559375e-02
-7.165625e-11,1.618750e-02
-6.765625e-11,1.684375e-02
-6.365625e-11,1.757813e-02
-5.965625e-11,1.846875e-02
-5.565625e-11,1.970313e-02
-5.165625e-11,2.059375e-02
-4.765625e-11,2.171875e-02
-4.365625e-11,2.314063e-02
-3.965625e-11,2.493750e-02
-3.565625e-11,2.631250e-02
-3.165625e-11,2.809375e-02
-2.765625e-11,3.001563e-02
-2.365625e-11,3.209375e-02
-1.965625e-11,3.435938e-02
-1.565625e-11,3.704688e-02
-1.165625e-11,3.940625e-02
-7.656250e-12,4.206250e-02
-3.656250e-12,4.500000e-02
3.437500e-13,4.832813e-02
4.343750e-12,5.125000e-02
8.343750e-12,5.453125e-02
1.234375e-11,5.795313e-02
1.634375e-11,6.150000e-02
2.034375e-11,6.515625e-02
2.434375e-11,6.921875e-02
2.834375e-11,7.287500e-02
3.234375e-11,7.676563e-02
3.634375e-11,8.085938e-02
4.034375e-11,8.525000e-02
4.434375e-11,8.917188e-02
4.834375e-11,9.335938e-02
5.234375e-11,9.757813e-02
5.634375e-11,1.018594e-01
6.034375e-11,1.061250e-01
6.434375e-11,1.107188e-01
6.834375e-11,1.148281e-01
7.234375e-11,1.190625e-01
7.634375e-11,1.234219e-01
8.034375e-11,1.279531e-01
8.434375e-11,1.319844e-01
8.834375e-11,1.361875e-01
9.234375e-11,1.403438e-01
9.634375e-11,1.444688e-01
1.003437e-10,1.485156e-01
1.043437e-10,1.528125e-01
1.083438e-10,1.565625e-01
1.123438e-10,1.603750e-01
1.163438e-10,1.642344e-01
1.203438e-10,1.682031e-01
1.243437e-10,1.716250e-01
1.283437e-10,1.751250e-01
1.323437e-10,1.785313e-01
1.363437e-10,1.818438e-01
1.403438e-10,1.850313e-01
1.443437e-10,1.883594e-01
1.483438e-10,1.911094e-01
1.523437e-10,1.938594e-01
1.563438e-10,1.965781e-01
1.603437e-10,1.993125e-01
1.643438e-10,2.014531e-01
1.683437e-10,2.036406e-01
1.723438e-10,2.056563e-01
1.763437e-10,2.075000e-01
1.803438e-10,2.091563e-01
1.843437e-10,2.108906e-01
1.883437e-10,2.120000e-01
1.923437e-10,2.130625e-01
1.963437e-10,2.140469e-01
2.003437e-10,2.150000e-01
2.043437e-10,2.153438e-01
2.083438e-10,2.157031e-01
2.123437e-10,2.158750e-01
2.163438e-10,2.158750e-01
2.203437e-10,2.156875e-01
2.243438e-10,2.155625e-01
2.283437e-10,2.148281e-01
2.323438e-10,2.140938e-01
2.363437e-10,2.132969e-01
2.403437e-10,2.125156e-01
2.443438e-10,2.111250e-01
2.483437e-10,2.098594e-01
2.523437e-10,2.084531e-01
2.563437e-10,2.069219e-01
2.603438e-10,2.052969e-01
2.643437e-10,2.037500e-01
2.683437e-10,2.016719e-01
2.723438e-10,1.996875e-01
2.763438e-10,1.976875e-01
2.803437e-10,1.957656e-01
2.843437e-10,1.933125e-01
2.883438e-10,1.910625e-01
2.923438e-10,1.886875e-01
2.963437e-10,1.862813e-01
3.003437e-10,1.838125e-01
3.043438e-10,1.814531e-01
3.083437e-10,1.786094e-01
3.123437e-10,1.758750e-01
3.163437e-10,1.731563e-01
3.203438e-10,1.705313e-01
3.243437e-10,1.673750e-01
3.283437e-10,1.644375e-01
3.323438e-10,1.614063e-01
3.363438e-10,1.583125e-01
3.403437e-10,1.551719e-01
3.443437e-10,1.521406e-01
3.483438e-10,1.485938e-01
3.523438e-10,1.451719e-01
3.563437e-10,1.417813e-01
3.603437e-10,1.384844e-01
3.643438e-10,1.346563e-01
3.683437e-10,1.310625e-01
3.723437e-10,1.273906e-01
3.763437e-10,1.237188e-01
3.803438e-10,1.200000e-01
3.843437e-10,1.164688e-01
3.883437e-10,1.124375e-01
3.923437e-10,1.086250e-01
3.963438e-10,1.049063e-01
4.003437e-10,1.013750e-01
4.043437e-10,9.739063e-02
4.083438e-10,9.373438e-02
4.123438e-10,9.012500e-02
4.163437e-10,8.660938e-02
4.203437e-10,8.317188e-02
4.243438e-10,8.004688e-02
4.283437e-10,7.650000e-02
4.323437e-10,7.331250e-02
4.363437e-10,7.035938e-02
4.403438e-10,6.767188e-02
4.443437e-10,6.467188e-02
4.483437e-10,6.207813e-02
4.523437e-10,5.965625e-02
4.563438e-10,5.739063e-02
4.603437e-10,5.528125e-02
4.643437e-10,5.357813e-02
4.683438e-10,5.146875e-02
4.723438e-10,4.976563e-02
4.763437e-10,4.834375e-02
4.803437e-10,4.718750e-02
4.843437e-10,4.571875e-02
4.883437e-10,4.462500e-02
4.923438e-10,4.368750e-02
4.963438e-10,4.284375e-02
5.003438e-10,4.210938e-02
5.043437e-10,4.171875e-02
5.083437e-10,4.085938e-02
5.123437e-10,4.026563e-02
5.163437e-10,3.990625e-02
5.203437e-10,3.970313e-02
5.243438e-10,3.909375e-02
5.283438e-10,3.871875e-02
5.323438e-10,3.842188e-02
5.363437e-10,3.809375e-02
5.403437e-10,3.775000e-02
5.443437e-10,3.767188e-02
5.483437e-10,3.700000e-02
5.523438e-10,3.651563e-02
5.563438e-10,3.618750e-02
5.603438e-10,3.593750e-02
5.643437e-10,3.518750e-02
5.683437e-10,3.462500e-02
5.723437e-10,3.409375e-02
5.763437e-10,3.350000e-02
5.803437e-10,3.285938e-02
5.843438e-10,3.243750e-02
5.883438e-10,3.143750e-02
5.923437e-10,3.060938e-02
5.963437e-10,2.996875e-02
6.003437e-10,2.942188e-02
6.043437e-10,2.839063e-02
6.083437e-10,2.756250e-02
6.123438e-10,2.682813e-02
6.163438e-10,2.606250e-02
6.203438e-10,2.525000e-02
6.243437e-10,2.475000e-02
6.283437e-10,2.370313e-02
6.323437e-10,2.284375e-02
6.363437e-10,2.223438e-02
6.403437e-10,2.179688e-02
6.443438e-10,2.084375e-02
6.483438e-10,2.017188e-02
6.523437e-10,1.959375e-02
6.563437e-10,1.901563e-02
6.603437e-10,1.842188e-02
6.643437e-10,1.812500e-02
6.683437e-10,1.728125e-02
6.723438e-10,1.665625e-02
6.763438e-10,1.625000e-02
6.803438e-10,1.603125e-02
6.843437e-10,1.528125e-02
6.883437e-10,1.478125e-02
6.923437e-10,1.434375e-02
6.963437e-10,1.390625e-02
7.003437e-10,1.340625e-02
7.043438e-10,1.320313e-02
7.083438e-10,1.242188e-02
7.123437e-10,1.182813e-02
7.163437e-10,1.143750e-02
7.203437e-10,1.123438e-02
7.243437e-10,1.045313e-02
7.283437e-10,9.937500e-03
7.323438e-10,9.453125e-03
7.363438e-10,8.968750e-03
7.403438e-10,8.437500e-03
7.443437e-10,8.203125e-03
7.483437e-10,7.406250e-03
7.523437e-10,6.796875e-03
7.563437e-10,6.437500e-03
7.603437e-10,6.281250e-03
7.643438e-10,5.562500e-03
7.683438e-10,5.156250e-03
7.723437e-10,4.812500e-03
7.763437e-10,4.500000e-03
7.803437e-10,4.187500e-03
7.843437e-10,4.218750e-03
7.883437e-10,3.718750e-03
7.923438e-10,3.453125e-03
7.963438e-10,3.468750e-03
8.003438e-10,3.734375e-03
8.043437e-10,3.468750e-03
8.083437e-10,3.546875e-03
8.123437e-10,3.703125e-03
8.163437e-10,3.937500e-03
8.203437e-10,4.171875e-03
8.243438e-10,4.781250e-03
8.283438e-10,4.843750e-03
8.323437e-10,5.156250e-03
8.363437e-10,5.734375e-03
8.403437e-10,6.546875e-03
8.443437e-10,6.812500e-03
8.483437e-10,7.406250e-03
8.523438e-10,8.031250e-03
8.563438e-10,8.671875e-03
8.603438e-10,9.312500e-03
8.643437e-10,1.026563e-02
8.683437e-10,1.062500e-02
8.723437e-10,1.118750e-02
8.763437e-10,1.193750e-02
8.803437e-10,1.285938e-02
8.843438e-10,1.317188e-02
8.883438e-10,1.375000e-02
8.923437e-10,1.429688e-02
8.963437e-10,1.481250e-02
9.003437e-10,1.526563e-02
9.043437e-10,1.596875e-02
9.083437e-10,1.601563e-02
9.123438e-10,1.620313e-02
9.163438e-10,1.654688e-02
9.203438e-10,1.703125e-02
9.243437e-10,1.684375e-02
9.283437e-10,1.690625e-02
9.323438e-10,1.690625e-02
9.363438e-10,1.684375e-02
9.403438e-10,1.671875e-02
9.443438e-10,1.682813e-02
9.483438e-10,1.628125e-02
9.523437e-10,1.589063e-02
9.563437e-10,1.565625e-02
9.603437e-10,1.556250e-02
9.643437e-10,1.484375e-02
9.683437e-10,1.437500e-02
9.723437e-10,1.387500e-02
9.763437e-10,1.335938e-02
9.803437e-10,1.281250e-02
9.843437e-10,1.254688e-02
9.883438e-10,1.167188e-02
9.923438e-10,1.098438e-02
9.963438e-10,1.050000e-02
1.000344e-09,1.021875e-02
1.004344e-09,9.343750e-03
1.008344e-09,8.781250e-03
1.012344e-09,8.234375e-03
1.016344e-09,7.703125e-03
1.020344e-09,7.187500e-03
1.024344e-09,7.000000e-03
1.028344e-09,6.234375e-03
1.032344e-09,5.703125e-03
1.036344e-09,5.406250e-03
1.040344e-09,5.328125e-03
1.044344e-09,4.687500e-03
1.048344e-09,4.390625e-03
1.052344e-09,4.125000e-03
1.056344e-09,3.906250e-03
1.060344e-09,3.703125e-03
1.064344e-09,3.828125e-03
1.068344e-09,3.390625e-03
1.072344e-09,3.187500e-03
1.076344e-09,3.218750e-03
1.080344e-09,3.484375e-03
1.084344e-09,3.171875e-03
1.088344e-09,3.187500e-03
1.092344e-09,3.234375e-03
1.096344e-09,3.296875e-03
1.100344e-09,3.375000e-03
1.104344e-09,3.781250e-03
1.108344e-09,3.593750e-03
1.112344e-09,3.640625e-03
1.116344e-09,3.890625e-03
1.120344e-09,4.359375e-03
1.124344e-09,4.234375e-03
1.128344e-09,4.437500e-03
1.132344e-09,4.625000e-03
1.136344e-09,4.843750e-03
1.140344e-09,5.046875e-03
1.144344e-09,5.562500e-03
1.148344e-09,5.484375e-03
1.152344e-09,5.609375e-03
1.156344e-09,5.937500e-03
1.160344e-09,6.453125e-03
1.164344e-09,6.375000e-03
1.168344e-09,6.609375e-03
1.172344e-09,6.828125e-03
1.176344e-09,7.031250e-03
1.180344e-09,7.250000e-03
1.184344e-09,7.750000e-03
1.188344e-09,7.656250e-03
1.192344e-09,7.734375e-03
1.196344e-09,8.031250e-03
1.200344e-09,8.500000e-03
1.204344e-09,8.359375e-03
1.208344e-09,8.515625e-03
1.212344e-09,8.656250e-03
1.216344e-09,8.796875e-03
1.220344e-09,8.921875e-03
1.224344e-09,9.328125e-03
1.228344e-09,9.125000e-03
1.232344e-09,9.109375e-03
1.236344e-09,9.281250e-03
1.240344e-09,9.640625e-03
1.244344e-09,9.390625e-03
1.248344e-09,9.421875e-03
1.252344e-09,9.437500e-03
1.256344e-09,9.437500e-03
1.260344e-09,9.421875e-03
1.264344e-09,9.703125e-03
1.268344e-09,9.359375e-03
1.272344e-09,9.203125e-03
1.276344e-09,9.234375e-03
1.280344e-09,9.453125e-03
1.284344e-09,9.062500e-03
1.288344e-09,8.968750e-03
1.292344e-09,8.843750e-03
1.296344e-09,8.734375e-03
1.300344e-09,8.593750e-03
1.304344e-09,8.750000e-03
1.308344e-09,8.312500e-03
1.312344e-09,8.062500e-03
1.316344e-09,8.000000e-03
1.320344e-09,8.140625e-03
1.324344e-09,7.687500e-03
1.328344e-09,7.515625e-03
1.332344e-09,7.359375e-03
1.336344e-09,7.203125e-03
1.340344e-09,7.031250e-03
1.344344e-09,7.187500e-03
1.348344e-09,6.734375e-03
1.352344e-09,6.500000e-03
1.356344e-09,6.468750e-03
1.360344e-09,6.640625e-03
1.364344e-09,6.218750e-03
1.368344e-09,6.109375e-03
1.372344e-09,6.031250e-03
1.376344e-09,5.937500e-03
1.380344e-09,5.859375e-03
1.384344e-09,6.109375e-03
1.388344e-09,5.750000e-03
1.392344e-09,5.609375e-03
1.396344e-09,5.687500e-03
1.400344e-09,5.984375e-03
1.404344e-09,5.671875e-03
1.408344e-09,5.687500e-03
1.412344e-09,5.703125e-03
1.416344e-09,5.718750e-03
1.420344e-09,5.765625e-03
1.424344e-09,6.093750e-03
1.428344e-09,5.843750e-03
1.432344e-09,5.796875e-03
1.436344e-09,5.953125e-03
1.440344e-09,6.328125e-03
1.444344e-09,6.078125e-03
1.448344e-09,6.156250e-03
1.452344e-09,6.218750e-03
1.456344e-09,6.296875e-03
1.460344e-09,6.375000e-03
1.464344e-09,6.750000e-03
1.468344e-09,6.515625e-03
1.472344e-09,6.484375e-03
1.476344e-09,6.656250e-03
1.480344e-09,7.031250e-03
1.484344e-09,6.796875e-03
1.488344e-09,6.875000e-03
1.492344e-09,6.937500e-03
1.496344e-09,7.015625e-03
1.500344e-09,7.093750e-03
1.504344e-09,7.484375e-03
1.508344e-09,7.250000e-03
1.512344e-09,7.234375e-03
1.516344e-09,7.421875e-03
1.520344e-09,7.812500e-03
1.524344e-09,7.593750e-03
1.528344e-09,7.687500e-03
1.532344e-09,7.765625e-03
1.536344e-09,7.859375e-03
1.540344e-09,7.953125e-03
1.544344e-09,8.343750e-03
1.548344e-09,8.109375e-03
1.552344e-09,8.093750e-03
1.556344e-09,8.250000e-03
1.560344e-09,8.609375e-03
1.564344e-09,8.343750e-03
1.568344e-09,8.375000e-03
1.572344e-09,8.390625e-03
1.576344e-09,8.375000e-03
1.580344e-09,8.343750e-03
1.584344e-09,8.593750e-03
1.588344e-09,8.203125e-03
1.592344e-09,8.000000e-03
1.596344e-09,7.968750e-03
1.600344e-09,8.093750e-03
1.604344e-09,7.593750e-03
1.608344e-09,7.375000e-03
1.612344e-09,7.125000e-03
1.616344e-09,6.828125e-03
1.620344e-09,6.531250e-03
1.624344e-09,6.500000e-03
1.628344e-09,5.843750e-03
1.632344e-09,5.375000e-03
1.636344e-09,5.093750e-03
1.640344e-09,5.015625e-03
1.644344e-09,4.312500e-03
1.648344e-09,3.937500e-03
1.652344e-09,3.562500e-03
1.656344e-09,3.203125e-03
1.660344e-09,2.859375e-03
1.664344e-09,2.843750e-03
1.668344e-09,2.265625e-03
1.672344e-09,1.921875e-03
1.676344e-09,1.828125e-03
1.680344e-09,1.984375e-03
1.684344e-09,1.593750e-03
1.688344e-09,1.562500e-03
1.692344e-09,1.578125e-03
1.696344e-09,1.671875e-03
1.700344e-09,1.828125e-03
1.704344e-09,2.343750e-03
1.708344e-09,2.312500e-03
1.712344e-09,2.546875e-03
1.716344e-09,3.046875e-03
1.720344e-09,3.796875e-03
1.724344e-09,3.984375e-03
1.728344e-09,4.515625e-03
1.732344e-09,5.093750e-03
1.736344e-09,5.687500e-03
1.740344e-09,6.296875e-03
1.744344e-09,7.218750e-03
1.748344e-09,7.546875e-03
1.752344e-09,8.062500e-03
