Measurements-streak-laser-independent/Photodiode-on-Tek-6GHz/Tek000_ch1_20190613132725728.csv

Model,MSO64
Waveform Type,ANALOG
Horizontal Units,s
Sample Interval,4.000000e-12
Record Length,1000
Zero Index,310.203125
Vertical Units,V

TIME,CH1
-1.240812e-09,-2.125000e-03
-1.236812e-09,-2.343750e-03
-1.232812e-09,-2.468750e-03
-1.228812e-09,-2.500000e-03
-1.224813e-09,-2.406250e-03
-1.220813e-09,-1.921875e-03
-1.216813e-09,-1.937500e-03
-1.212813e-09,-1.656250e-03
-1.208813e-09,-1.078125e-03
-1.204813e-09,-2.187500e-04
-1.200812e-09,9.375000e-05
-1.196812e-09,7.812500e-04
-1.192812e-09,1.500000e-03
-1.188812e-09,2.265625e-03
-1.184812e-09,3.046875e-03
-1.180812e-09,4.140625e-03
-1.176812e-09,4.625000e-03
-1.172812e-09,5.265625e-03
-1.168812e-09,6.093750e-03
-1.164813e-09,7.046875e-03
-1.160813e-09,7.343750e-03
-1.156813e-09,7.859375e-03
-1.152813e-09,8.296875e-03
-1.148813e-09,8.625000e-03
-1.144813e-09,8.859375e-03
-1.140812e-09,9.281250e-03
-1.136812e-09,8.984375e-03
-1.132812e-09,8.781250e-03
-1.128812e-09,8.671875e-03
-1.124812e-09,8.640625e-03
-1.120812e-09,7.906250e-03
-1.116812e-09,7.359375e-03
-1.112812e-09,6.750000e-03
-1.108812e-09,6.031250e-03
-1.104813e-09,5.250000e-03
-1.100813e-09,4.718750e-03
-1.096813e-09,3.531250e-03
-1.092813e-09,2.515625e-03
-1.088813e-09,1.687500e-03
-1.084813e-09,1.062500e-03
-1.080812e-09,-1.562500e-04
-1.076812e-09,-1.031250e-03
-1.072812e-09,-1.875000e-03
-1.068812e-09,-2.671875e-03
-1.064812e-09,-3.390625e-03
-1.060812e-09,-3.734375e-03
-1.056812e-09,-4.593750e-03
-1.052812e-09,-5.140625e-03
-1.048812e-09,-5.390625e-03
-1.044813e-09,-5.328125e-03
-1.040813e-09,-5.750000e-03
-1.036813e-09,-5.765625e-03
-1.032813e-09,-5.671875e-03
-1.028813e-09,-5.453125e-03
-1.024813e-09,-5.140625e-03
-1.020812e-09,-4.421875e-03
-1.016812e-09,-4.218750e-03
-1.012812e-09,-3.718750e-03
-1.008812e-09,-2.953125e-03
-1.004812e-09,-1.906250e-03
-1.000812e-09,-1.421875e-03
-9.968125e-10,-5.937500e-04
-9.928125e-10,2.500000e-04
-9.888125e-10,1.125000e-03
-9.848125e-10,2.000000e-03
-9.808125e-10,3.171875e-03
-9.768125e-10,3.703125e-03
-9.728125e-10,4.406250e-03
-9.688125e-10,5.281250e-03
-9.648125e-10,6.296875e-03
-9.608125e-10,6.640625e-03
-9.568125e-10,7.234375e-03
-9.528125e-10,7.750000e-03
-9.488125e-10,8.171875e-03
-9.448125e-10,8.531250e-03
-9.408125e-10,9.125000e-03
-9.368125e-10,9.015625e-03
-9.328125e-10,9.031250e-03
-9.288125e-10,9.171875e-03
-9.248125e-10,9.437500e-03
-9.208125e-10,9.031250e-03
-9.168125e-10,8.859375e-03
-9.128125e-10,8.640625e-03
-9.088125e-10,8.359375e-03
-9.048125e-10,8.046875e-03
-9.008125e-10,7.984375e-03
-8.968125e-10,7.296875e-03
-8.928125e-10,6.796875e-03
-8.888125e-10,6.468750e-03
-8.848125e-10,6.359375e-03
-8.808125e-10,5.625000e-03
-8.768125e-10,5.203125e-03
-8.728125e-10,4.796875e-03
-8.688125e-10,4.390625e-03
-8.648125e-10,4.015625e-03
-8.608125e-10,3.968750e-03
-8.568125e-10,3.328125e-03
-8.528125e-10,2.921875e-03
-8.488125e-10,2.734375e-03
-8.448125e-10,2.796875e-03
-8.408125e-10,2.250000e-03
-8.368125e-10,2.046875e-03
-8.328125e-10,1.859375e-03
-8.288125e-10,1.703125e-03
-8.248125e-10,1.562500e-03
-8.208125e-10,1.734375e-03
-8.168125e-10,1.312500e-03
-8.128125e-10,1.109375e-03
-8.088125e-10,1.109375e-03
-8.048125e-10,1.328125e-03
-8.008125e-10,9.375000e-04
-7.968125e-10,8.593750e-04
-7.928125e-10,7.812500e-04
-7.888125e-10,7.187500e-04
-7.848125e-10,6.406250e-04
-7.808125e-10,8.750000e-04
-7.768125e-10,5.000000e-04
-7.728125e-10,3.437500e-04
-7.688125e-10,3.906250e-04
-7.648125e-10,6.406250e-04
-7.608125e-10,2.968750e-04
-7.568125e-10,2.812500e-04
-7.528125e-10,2.812500e-04
-7.488125e-10,2.812500e-04
-7.448125e-10,3.125000e-04
-7.408125e-10,6.875000e-04
-7.368125e-10,4.687500e-04
-7.328125e-10,4.687500e-04
-7.288125e-10,7.187500e-04
-7.248125e-10,1.203125e-03
-7.208125e-10,1.109375e-03
-7.168125e-10,1.343750e-03
-7.128125e-10,1.625000e-03
-7.088125e-10,1.921875e-03
-7.048125e-10,2.250000e-03
-7.008125e-10,2.921875e-03
-6.968125e-10,2.984375e-03
-6.928125e-10,3.296875e-03
-6.888125e-10,3.812500e-03
-6.848125e-10,4.546875e-03
-6.808125e-10,4.671875e-03
-6.768125e-10,5.109375e-03
-6.728125e-10,5.531250e-03
-6.688125e-10,5.953125e-03
-6.648125e-10,6.359375e-03
-6.608125e-10,7.046875e-03
-6.568125e-10,7.109375e-03
-6.528125e-10,7.328125e-03
-6.488125e-10,7.718750e-03
-6.448125e-10,8.265625e-03
-6.408125e-10,8.171875e-03
-6.368125e-10,8.328125e-03
-6.328125e-10,8.437500e-03
-6.288125e-10,8.515625e-03
-6.248125e-10,8.531250e-03
-6.208125e-10,8.796875e-03
-6.168125e-10,8.421875e-03
-6.128125e-10,8.187500e-03
-6.088125e-10,8.125000e-03
-6.048125e-10,8.234375e-03
-6.008125e-10,7.687500e-03
-5.968125e-10,7.437500e-03
-5.928125e-10,7.140625e-03
-5.888125e-10,6.843750e-03
-5.848125e-10,6.531250e-03
-5.808125e-10,6.515625e-03
-5.768125e-10,5.890625e-03
-5.728125e-10,5.484375e-03
-5.688125e-10,5.281250e-03
-5.648125e-10,5.296875e-03
-5.608125e-10,4.734375e-03
-5.568125e-10,4.500000e-03
-5.528125e-10,4.296875e-03
-5.488125e-10,4.109375e-03
-5.448125e-10,3.968750e-03
-5.408125e-10,4.156250e-03
-5.368125e-10,3.765625e-03
-5.328125e-10,3.625000e-03
-5.288125e-10,3.703125e-03
-5.248125e-10,4.031250e-03
-5.208125e-10,3.765625e-03
-5.168125e-10,3.828125e-03
-5.128125e-10,3.890625e-03
-5.088125e-10,3.984375e-03
-5.048125e-10,4.078125e-03
-5.008125e-10,4.468750e-03
-4.968125e-10,4.265625e-03
-4.928125e-10,4.250000e-03
-4.888125e-10,4.421875e-03
-4.848125e-10,4.796875e-03
-4.808125e-10,4.515625e-03
-4.768125e-10,4.531250e-03
-4.728125e-10,4.500000e-03
-4.688125e-10,4.453125e-03
-4.648125e-10,4.359375e-03
-4.608125e-10,4.546875e-03
-4.568125e-10,4.093750e-03
-4.528125e-10,3.812500e-03
-4.488125e-10,3.703125e-03
-4.448125e-10,3.765625e-03
-4.408125e-10,3.218750e-03
-4.368125e-10,2.937500e-03
-4.328125e-10,2.640625e-03
-4.288125e-10,2.343750e-03
-4.248125e-10,2.046875e-03
-4.208125e-10,2.046875e-03
-4.168125e-10,1.468750e-03
-4.128125e-10,1.093750e-03
-4.088125e-10,9.687500e-04
-4.048125e-10,1.078125e-03
-4.008125e-10,6.250000e-04
-3.968125e-10,5.156250e-04
-3.928125e-10,4.218750e-04
-3.888125e-10,4.062500e-04
-3.848125e-10,4.375000e-04
-3.808125e-10,8.437500e-04
-3.768125e-10,6.875000e-04
-3.728125e-10,7.812500e-04
-3.688125e-10,1.171875e-03
-3.648125e-10,1.796875e-03
-3.608125e-10,1.875000e-03
-3.568125e-10,2.312500e-03
-3.528125e-10,2.765625e-03
-3.488125e-10,3.234375e-03
-3.448125e-10,3.765625e-03
-3.408125e-10,4.609375e-03
-3.368125e-10,4.859375e-03
-3.328125e-10,5.296875e-03
-3.288125e-10,5.968750e-03
-3.248125e-10,6.781250e-03
-3.208125e-10,7.000000e-03
-3.168125e-10,7.500000e-03
-3.128125e-10,7.906250e-03
-3.088125e-10,8.265625e-03
-3.048125e-10,8.593750e-03
-3.008125e-10,9.140625e-03
-2.968125e-10,9.046875e-03
-2.928125e-10,9.062500e-03
-2.888125e-10,9.218750e-03
-2.848125e-10,9.500000e-03
-2.808125e-10,9.109375e-03
-2.768125e-10,8.953125e-03
-2.728125e-10,8.703125e-03
-2.688125e-10,8.375000e-03
-2.648125e-10,8.031250e-03
-2.608125e-10,7.906250e-03
-2.568125e-10,7.156250e-03
-2.528125e-10,6.546875e-03
-2.488125e-10,6.125000e-03
-2.448125e-10,5.875000e-03
-2.408125e-10,5.015625e-03
-2.368125e-10,4.468750e-03
-2.328125e-10,3.906250e-03
-2.288125e-10,3.343750e-03
-2.248125e-10,2.859375e-03
-2.208125e-10,2.656250e-03
-2.168125e-10,1.968750e-03
-2.128125e-10,1.484375e-03
-2.088125e-10,1.265625e-03
-2.048125e-10,1.328125e-03
-2.008125e-10,8.437500e-04
-1.968125e-10,7.500000e-04
-1.928125e-10,6.875000e-04
-1.888125e-10,7.031250e-04
-1.848125e-10,8.281250e-04
-1.808125e-10,1.281250e-03
-1.768125e-10,1.281250e-03
-1.728125e-10,1.484375e-03
-1.688125e-10,1.968750e-03
-1.648125e-10,2.718750e-03
-1.608125e-10,2.906250e-03
-1.568125e-10,3.453125e-03
-1.528125e-10,4.015625e-03
-1.488125e-10,4.593750e-03
-1.448125e-10,5.250000e-03
-1.408125e-10,6.171875e-03
-1.368125e-10,6.578125e-03
-1.328125e-10,7.156250e-03
-1.288125e-10,7.921875e-03
-1.248125e-10,8.921875e-03
-1.208125e-10,9.296875e-03
-1.168125e-10,9.968750e-03
-1.128125e-10,1.062500e-02
-1.088125e-10,1.126563e-02
-1.048125e-10,1.193750e-02
-1.008125e-10,1.287500e-02
-9.681250e-11,1.328125e-02
-9.281250e-11,1.385938e-02
-8.881250e-11,1.462500e-02
-8.481250e-11,1.564063e-02
-8.081250e-11,1.607813e-02
-7.681250e-11,1.684375e-02
-7.281250e-11,1.762500e-02
-6.881250e-11,1.848438e-02
-6.481250e-11,1.940625e-02
-6.081250e-11,2.068750e-02
-5.681250e-11,2.150000e-02
-5.281250e-11,2.256250e-02
-4.881250e-11,2.389063e-02
-4.481250e-11,2.553125e-02
-4.081250e-11,2.670313e-02
-3.681250e-11,2.825000e-02
-3.281250e-11,2.990625e-02
-2.881250e-11,3.167188e-02
-2.481250e-11,3.356250e-02
-2.081250e-11,3.585938e-02
-1.681250e-11,3.773438e-02
-1.281250e-11,3.987500e-02
-8.812500e-12,4.228125e-02
-4.812500e-12,4.500000e-02
-8.125000e-13,4.726563e-02
3.187500e-12,4.984375e-02
7.187500e-12,5.250000e-02
1.118750e-11,5.521875e-02
1.518750e-11,5.798438e-02
1.918750e-11,6.109375e-02
2.318750e-11,6.368750e-02
2.718750e-11,6.646875e-02
3.118750e-11,6.940625e-02
3.518750e-11,7.253125e-02
3.918750e-11,7.509375e-02
4.318750e-11,7.785938e-02
4.718750e-11,8.059375e-02
5.118750e-11,8.328125e-02
5.518750e-11,8.589063e-02
5.918750e-11,8.871875e-02
6.318750e-11,9.093750e-02
6.718750e-11,9.325000e-02
7.118750e-11,9.560938e-02
7.518750e-11,9.807813e-02
7.918750e-11,9.992188e-02
8.318750e-11,1.019063e-01
8.718750e-11,1.037969e-01
9.118750e-11,1.055781e-01
9.518750e-11,1.072656e-01
9.918750e-11,1.091406e-01
1.031875e-10,1.103906e-01
1.071875e-10,1.117031e-01
1.111875e-10,1.130938e-01
1.151875e-10,1.145781e-01
1.191875e-10,1.154531e-01
1.231875e-10,1.165000e-01
1.271875e-10,1.174688e-01
1.311875e-10,1.183594e-01
1.351875e-10,1.191563e-01
1.391875e-10,1.201719e-01
1.431875e-10,1.205781e-01
1.471875e-10,1.210938e-01
1.511875e-10,1.216719e-01
1.551875e-10,1.223750e-01
1.591875e-10,1.224688e-01
1.631875e-10,1.227344e-01
1.671875e-10,1.229219e-01
1.711875e-10,1.230156e-01
1.751875e-10,1.230313e-01
1.791875e-10,1.232031e-01
1.831875e-10,1.227656e-01
1.871875e-10,1.224063e-01
1.911875e-10,1.220781e-01
1.951875e-10,1.218281e-01
1.991875e-10,1.209219e-01
2.031875e-10,1.201875e-01
2.071875e-10,1.193281e-01
2.111875e-10,1.183438e-01
2.151875e-10,1.172344e-01
2.191875e-10,1.162500e-01
2.231875e-10,1.146563e-01
2.271875e-10,1.131094e-01
2.311875e-10,1.115938e-01
2.351875e-10,1.101406e-01
2.391875e-10,1.080469e-01
2.431875e-10,1.061563e-01
2.471875e-10,1.041406e-01
2.511875e-10,1.020625e-01
2.551875e-10,9.992188e-02
2.591875e-10,9.793750e-02
2.631875e-10,9.539063e-02
2.671875e-10,9.300000e-02
2.711875e-10,9.071875e-02
2.751875e-10,8.859375e-02
2.791875e-10,8.592188e-02
2.831875e-10,8.356250e-02
2.871875e-10,8.118750e-02
2.911875e-10,7.885938e-02
2.951875e-10,7.656250e-02
2.991875e-10,7.456250e-02
3.031875e-10,7.207813e-02
3.071875e-10,6.985938e-02
3.111875e-10,6.785938e-02
3.151875e-10,6.609375e-02
3.191875e-10,6.387500e-02
3.231875e-10,6.203125e-02
3.271875e-10,6.026563e-02
3.311875e-10,5.857813e-02
3.351875e-10,5.698438e-02
3.391875e-10,5.571875e-02
3.431875e-10,5.398438e-02
3.471875e-10,5.254688e-02
3.511875e-10,5.131250e-02
3.551875e-10,5.032813e-02
3.591875e-10,4.885938e-02
3.631875e-10,4.773438e-02
3.671875e-10,4.665625e-02
3.711875e-10,4.562500e-02
3.751875e-10,4.464063e-02
3.791875e-10,4.393750e-02
3.831875e-10,4.270313e-02
3.871875e-10,4.170313e-02
3.911875e-10,4.087500e-02
3.951875e-10,4.020313e-02
3.991875e-10,3.903125e-02
4.031875e-10,3.814063e-02
4.071875e-10,3.726563e-02
4.111875e-10,3.639063e-02
4.151875e-10,3.551563e-02
4.191875e-10,3.492188e-02
4.231875e-10,3.375000e-02
4.271875e-10,3.279688e-02
4.311875e-10,3.203125e-02
4.351875e-10,3.142188e-02
4.391875e-10,3.032813e-02
4.431875e-10,2.950000e-02
4.471875e-10,2.873438e-02
4.511875e-10,2.798438e-02
4.551875e-10,2.726563e-02
4.591875e-10,2.687500e-02
4.631875e-10,2.592188e-02
4.671875e-10,2.523438e-02
4.711875e-10,2.478125e-02
4.751875e-10,2.451563e-02
4.791875e-10,2.379688e-02
4.831875e-10,2.337500e-02
4.871875e-10,2.303125e-02
4.911875e-10,2.273438e-02
4.951875e-10,2.248438e-02
4.991875e-10,2.254688e-02
5.031875e-10,2.207813e-02
5.071875e-10,2.184375e-02
5.111875e-10,2.185938e-02
5.151875e-10,2.203125e-02
5.191875e-10,2.170313e-02
5.231875e-10,2.165625e-02
5.271875e-10,2.164063e-02
5.311875e-10,2.162500e-02
5.351875e-10,2.157813e-02
5.391875e-10,2.181250e-02
5.431875e-10,2.145313e-02
5.471875e-10,2.125000e-02
5.511875e-10,2.123438e-02
5.551875e-10,2.134375e-02
5.591875e-10,2.085938e-02
5.631875e-10,2.059375e-02
5.671875e-10,2.034375e-02
5.711875e-10,2.001563e-02
5.751875e-10,1.960938e-02
5.791875e-10,1.945313e-02
5.831875e-10,1.867188e-02
5.871875e-10,1.801563e-02
5.911875e-10,1.754688e-02
5.951875e-10,1.721875e-02
5.991875e-10,1.628125e-02
6.031875e-10,1.559375e-02
6.071875e-10,1.492188e-02
6.111875e-10,1.421875e-02
6.151875e-10,1.350000e-02
6.191875e-10,1.304688e-02
6.231875e-10,1.203125e-02
6.271875e-10,1.121875e-02
6.311875e-10,1.065625e-02
6.351875e-10,1.028125e-02
6.391875e-10,9.375000e-03
6.431875e-10,8.796875e-03
6.471875e-10,8.281250e-03
6.511875e-10,7.812500e-03
6.551875e-10,7.375000e-03
6.591875e-10,7.281250e-03
6.631875e-10,6.656250e-03
6.671875e-10,6.296875e-03
6.711875e-10,6.187500e-03
6.751875e-10,6.343750e-03
6.791875e-10,5.937500e-03
6.831875e-10,5.890625e-03
6.871875e-10,5.906250e-03
6.911875e-10,5.953125e-03
6.951875e-10,6.000000e-03
6.991875e-10,6.375000e-03
7.031875e-10,6.171875e-03
7.071875e-10,6.187500e-03
7.111875e-10,6.421875e-03
7.151875e-10,6.843750e-03
7.191875e-10,6.640625e-03
7.231875e-10,6.734375e-03
7.271875e-10,6.812500e-03
7.311875e-10,6.875000e-03
7.351875e-10,6.859375e-03
7.391875e-10,7.125000e-03
7.431875e-10,6.734375e-03
7.471875e-10,6.500000e-03
7.511875e-10,6.437500e-03
7.551875e-10,6.531250e-03
7.591875e-10,5.953125e-03
7.631875e-10,5.656250e-03
7.671875e-10,5.312500e-03
7.711875e-10,4.921875e-03
7.751875e-10,4.484375e-03
7.791875e-10,4.328125e-03
7.831875e-10,3.546875e-03
7.871875e-10,2.937500e-03
7.911875e-10,2.531250e-03
7.951875e-10,2.312500e-03
7.991875e-10,1.500000e-03
8.031875e-10,1.000000e-03
8.071875e-10,5.312500e-04
8.111875e-10,9.375000e-05
8.151875e-10,-3.281250e-04
8.191875e-10,-4.218750e-04
8.231875e-10,-1.046875e-03
8.271875e-10,-1.437500e-03
8.311875e-10,-1.562500e-03
8.351875e-10,-1.437500e-03
8.391875e-10,-1.843750e-03
8.431875e-10,-1.875000e-03
8.471875e-10,-1.843750e-03
8.511875e-10,-1.750000e-03
8.551875e-10,-1.609375e-03
8.591875e-10,-1.093750e-03
8.631875e-10,-1.140625e-03
8.671875e-10,-9.218750e-04
8.711875e-10,-4.375000e-04
8.751875e-10,2.812500e-04
8.791875e-10,4.375000e-04
8.831875e-10,9.218750e-04
8.871875e-10,1.421875e-03
8.911875e-10,1.953125e-03
8.951875e-10,2.500000e-03
8.991875e-10,3.328125e-03
9.031875e-10,3.562500e-03
9.071875e-10,3.984375e-03
9.111875e-10,4.593750e-03
9.151875e-10,5.375000e-03
9.191875e-10,5.531250e-03
9.231875e-10,5.953125e-03
9.271875e-10,6.343750e-03
9.311875e-10,6.687500e-03
9.351875e-10,6.968750e-03
9.391875e-10,7.531250e-03
9.431875e-10,7.421875e-03
9.471875e-10,7.468750e-03
9.511875e-10,7.687500e-03
9.551875e-10,8.046875e-03
9.591875e-10,7.750000e-03
9.631875e-10,7.718750e-03
9.671875e-10,7.656250e-03
9.711875e-10,7.546875e-03
9.751875e-10,7.390625e-03
9.791875e-10,7.515625e-03
9.831875e-10,7.015625e-03
9.871875e-10,6.687500e-03
9.911875e-10,6.546875e-03
9.951875e-10,6.593750e-03
9.991875e-10,6.031250e-03
1.003187e-09,5.750000e-03
1.007187e-09,5.484375e-03
1.011187e-09,5.203125e-03
1.015187e-09,4.937500e-03
1.019187e-09,4.984375e-03
1.023187e-09,4.421875e-03
1.027188e-09,4.093750e-03
1.031188e-09,3.968750e-03
1.035188e-09,4.078125e-03
1.039188e-09,3.593750e-03
1.043188e-09,3.437500e-03
1.047188e-09,3.312500e-03
1.051187e-09,3.187500e-03
1.055187e-09,3.109375e-03
1.059187e-09,3.343750e-03
1.063187e-09,3.000000e-03
1.067187e-09,2.875000e-03
1.071187e-09,2.984375e-03
1.075187e-09,3.328125e-03
1.079187e-09,3.078125e-03
1.083187e-09,3.156250e-03
1.087188e-09,3.250000e-03
1.091188e-09,3.390625e-03
1.095188e-09,3.531250e-03
1.099188e-09,4.000000e-03
1.103188e-09,3.890625e-03
1.107188e-09,4.000000e-03
1.111187e-09,4.328125e-03
1.115187e-09,4.890625e-03
1.119187e-09,4.859375e-03
1.123187e-09,5.140625e-03
1.127187e-09,5.437500e-03
1.131187e-09,5.765625e-03
1.135187e-09,6.093750e-03
1.139187e-09,6.750000e-03
1.143187e-09,6.796875e-03
1.147188e-09,7.046875e-03
1.151188e-09,7.515625e-03
1.155188e-09,8.187500e-03
1.159188e-09,8.250000e-03
1.163188e-09,8.609375e-03
1.167188e-09,8.968750e-03
1.171187e-09,9.296875e-03
1.175187e-09,9.625000e-03
1.179187e-09,1.023438e-02
1.183187e-09,1.021875e-02
1.187187e-09,1.037500e-02
1.191187e-09,1.070313e-02
1.195187e-09,1.120313e-02
1.199187e-09,1.104688e-02
1.203187e-09,1.117188e-02
1.207188e-09,1.125000e-02
1.211188e-09,1.126563e-02
1.215188e-09,1.125000e-02
1.219188e-09,1.150000e-02
1.223188e-09,1.107813e-02
1.227188e-09,1.082813e-02
1.231187e-09,1.071875e-02
1.235187e-09,1.078125e-02
1.239187e-09,1.018750e-02
1.243187e-09,9.843750e-03
1.247187e-09,9.484375e-03
1.251187e-09,9.078125e-03
1.255187e-09,8.640625e-03
1.259187e-09,8.484375e-03
1.263187e-09,7.718750e-03
1.267188e-09,7.125000e-03
1.271188e-09,6.734375e-03
1.275188e-09,6.531250e-03
1.279188e-09,5.750000e-03
1.283188e-09,5.265625e-03
1.287188e-09,4.796875e-03
1.291187e-09,4.375000e-03
1.295187e-09,3.968750e-03
1.299187e-09,3.890625e-03
1.303187e-09,3.265625e-03
1.307187e-09,2.875000e-03
1.311187e-09,2.734375e-03
1.315187e-09,2.859375e-03
1.319187e-09,2.421875e-03
1.323187e-09,2.359375e-03
1.327188e-09,2.343750e-03
1.331188e-09,2.375000e-03
1.335188e-09,2.468750e-03
1.339188e-09,2.937500e-03
1.343188e-09,2.828125e-03
1.347188e-09,2.984375e-03
1.351187e-09,3.375000e-03
1.355187e-09,4.015625e-03
1.359187e-09,4.093750e-03
1.363187e-09,4.500000e-03
1.367187e-09,4.921875e-03
1.371187e-09,5.359375e-03
1.375187e-09,5.796875e-03
1.379187e-09,6.562500e-03
1.383187e-09,6.687500e-03
1.387187e-09,7.031250e-03
1.391188e-09,7.531250e-03
1.395188e-09,8.234375e-03
1.399188e-09,8.281250e-03
1.403188e-09,8.593750e-03
1.407188e-09,8.875000e-03
1.411187e-09,9.093750e-03
1.415187e-09,9.281250e-03
1.419187e-09,9.703125e-03
1.423187e-09,9.468750e-03
1.427187e-09,9.375000e-03
1.431187e-09,9.437500e-03
1.435187e-09,9.640625e-03
1.439187e-09,9.187500e-03
1.443187e-09,8.984375e-03
1.447187e-09,8.734375e-03
1.451188e-09,8.437500e-03
1.455188e-09,8.093750e-03
1.459188e-09,8.031250e-03
1.463188e-09,7.328125e-03
1.467188e-09,6.812500e-03
1.471187e-09,6.484375e-03
1.475187e-09,6.343750e-03
1.479187e-09,5.593750e-03
1.483187e-09,5.156250e-03
1.487187e-09,4.718750e-03
1.491187e-09,4.312500e-03
1.495187e-09,3.937500e-03
1.499187e-09,3.890625e-03
1.503187e-09,3.265625e-03
1.507187e-09,2.890625e-03
1.511188e-09,2.750000e-03
1.515188e-09,2.875000e-03
1.519188e-09,2.437500e-03
1.523188e-09,2.343750e-03
1.527188e-09,2.312500e-03
1.531187e-09,2.343750e-03
1.535187e-09,2.406250e-03
1.539187e-09,2.843750e-03
1.543187e-09,2.703125e-03
1.547187e-09,2.812500e-03
1.551187e-09,3.171875e-03
1.555187e-09,3.765625e-03
1.559187e-09,3.781250e-03
1.563187e-09,4.125000e-03
1.567187e-09,4.500000e-03
1.571188e-09,4.875000e-03
1.575188e-09,5.250000e-03
1.579188e-09,5.953125e-03
1.583188e-09,6.031250e-03
1.587188e-09,6.296875e-03
1.591187e-09,6.750000e-03
1.595187e-09,7.375000e-03
1.599187e-09,7.359375e-03
1.603187e-09,7.625000e-03
1.607187e-09,7.859375e-03
1.611187e-09,8.031250e-03
1.615187e-09,8.171875e-03
1.619187e-09,8.562500e-03
1.623187e-09,8.296875e-03
1.627187e-09,8.187500e-03
1.631188e-09,8.218750e-03
1.635188e-09,8.421875e-03
1.639188e-09,7.953125e-03
1.643188e-09,7.750000e-03
1.647188e-09,7.515625e-03
1.651187e-09,7.218750e-03
1.655187e-09,6.906250e-03
1.659187e-09,6.859375e-03
1.663187e-09,6.187500e-03
1.667187e-09,5.687500e-03
1.671187e-09,5.390625e-03
1.675187e-09,5.281250e-03
1.679187e-09,4.578125e-03
1.683187e-09,4.171875e-03
1.687187e-09,3.781250e-03
1.691188e-09,3.406250e-03
1.695188e-09,3.046875e-03
1.699188e-09,3.031250e-03
1.703188e-09,2.437500e-03
1.707188e-09,2.078125e-03
1.711187e-09,1.968750e-03
1.715187e-09,2.093750e-03
1.719187e-09,1.671875e-03
1.723187e-09,1.609375e-03
1.727187e-09,1.578125e-03
1.731187e-09,1.609375e-03
1.735187e-09,1.687500e-03
1.739187e-09,2.125000e-03
1.743187e-09,2.000000e-03
1.747187e-09,2.125000e-03
1.751188e-09,2.484375e-03
