Measurements-streak-laser-independent/Photodiode-on-Tek-6GHz/Tek000_ch1_20190613132753407.csv

Model,MSO64
Waveform Type,ANALOG
Horizontal Units,s
Sample Interval,4.000000e-12
Record Length,1000
Zero Index,310.929688
Vertical Units,V

TIME,CH1
-1.243719e-09,2.593750e-03
-1.239719e-09,2.546875e-03
-1.235719e-09,2.828125e-03
-1.231719e-09,3.093750e-03
-1.227719e-09,3.390625e-03
-1.223719e-09,3.671875e-03
-1.219719e-09,4.250000e-03
-1.215719e-09,4.218750e-03
-1.211719e-09,4.359375e-03
-1.207719e-09,4.703125e-03
-1.203719e-09,5.234375e-03
-1.199719e-09,5.140625e-03
-1.195719e-09,5.312500e-03
-1.191719e-09,5.484375e-03
-1.187719e-09,5.609375e-03
-1.183719e-09,5.734375e-03
-1.179719e-09,6.140625e-03
-1.175719e-09,5.906250e-03
-1.171719e-09,5.875000e-03
-1.167719e-09,6.015625e-03
-1.163719e-09,6.343750e-03
-1.159719e-09,6.062500e-03
-1.155719e-09,6.062500e-03
-1.151719e-09,6.062500e-03
-1.147719e-09,6.031250e-03
-1.143719e-09,6.015625e-03
-1.139719e-09,6.296875e-03
-1.135719e-09,5.953125e-03
-1.131719e-09,5.828125e-03
-1.127719e-09,5.890625e-03
-1.123719e-09,6.156250e-03
-1.119719e-09,5.812500e-03
-1.115719e-09,5.781250e-03
-1.111719e-09,5.750000e-03
-1.107719e-09,5.703125e-03
-1.103719e-09,5.671875e-03
-1.099719e-09,5.937500e-03
-1.095719e-09,5.609375e-03
-1.091719e-09,5.484375e-03
-1.087719e-09,5.546875e-03
-1.083719e-09,5.828125e-03
-1.079719e-09,5.500000e-03
-1.075719e-09,5.484375e-03
-1.071719e-09,5.468750e-03
-1.067719e-09,5.468750e-03
-1.063719e-09,5.468750e-03
-1.059719e-09,5.781250e-03
-1.055719e-09,5.500000e-03
-1.051719e-09,5.437500e-03
-1.047719e-09,5.578125e-03
-1.043719e-09,5.937500e-03
-1.039719e-09,5.703125e-03
-1.035719e-09,5.781250e-03
-1.031719e-09,5.875000e-03
-1.027719e-09,6.000000e-03
-1.023719e-09,6.125000e-03
-1.019719e-09,6.578125e-03
-1.015719e-09,6.437500e-03
-1.011719e-09,6.515625e-03
-1.007719e-09,6.796875e-03
-1.003719e-09,7.296875e-03
-9.997187e-10,7.203125e-03
-9.957187e-10,7.406250e-03
-9.917187e-10,7.609375e-03
-9.877187e-10,7.796875e-03
-9.837188e-10,7.984375e-03
-9.797188e-10,8.468750e-03
-9.757188e-10,8.312500e-03
-9.717188e-10,8.343750e-03
-9.677188e-10,8.546875e-03
-9.637188e-10,8.921875e-03
-9.597187e-10,8.640625e-03
-9.557187e-10,8.625000e-03
-9.517187e-10,8.578125e-03
-9.477187e-10,8.468750e-03
-9.437187e-10,8.312500e-03
-9.397187e-10,8.406250e-03
-9.357187e-10,7.843750e-03
-9.317187e-10,7.437500e-03
-9.277187e-10,7.187500e-03
-9.237188e-10,7.093750e-03
-9.197188e-10,6.343750e-03
-9.157187e-10,5.859375e-03
-9.117187e-10,5.343750e-03
-9.077187e-10,4.796875e-03
-9.037187e-10,4.234375e-03
-8.997187e-10,3.968750e-03
-8.957187e-10,3.093750e-03
-8.917188e-10,2.421875e-03
-8.877188e-10,1.968750e-03
-8.837187e-10,1.750000e-03
-8.797187e-10,9.687500e-04
-8.757187e-10,5.312500e-04
-8.717187e-10,1.250000e-04
-8.677187e-10,-1.875000e-04
-8.637188e-10,-4.531250e-04
-8.597188e-10,-3.281250e-04
-8.557188e-10,-7.343750e-04
-8.517187e-10,-8.593750e-04
-8.477187e-10,-6.875000e-04
-8.437187e-10,-2.187500e-04
-8.397187e-10,-2.812500e-04
-8.357187e-10,6.250000e-05
-8.317188e-10,4.687500e-04
-8.277188e-10,9.687500e-04
-8.237187e-10,1.546875e-03
-8.197187e-10,2.484375e-03
-8.157187e-10,2.875000e-03
-8.117187e-10,3.515625e-03
-8.077187e-10,4.406250e-03
-8.037188e-10,5.500000e-03
-7.997188e-10,6.015625e-03
-7.957188e-10,6.828125e-03
-7.917187e-10,7.640625e-03
-7.877187e-10,8.406250e-03
-7.837187e-10,9.156250e-03
-7.797187e-10,1.014063e-02
-7.757187e-10,1.046875e-02
-7.717188e-10,1.093750e-02
-7.677188e-10,1.151563e-02
-7.637187e-10,1.220313e-02
-7.597187e-10,1.220313e-02
-7.557187e-10,1.239063e-02
-7.517187e-10,1.250000e-02
-7.477187e-10,1.248438e-02
-7.437188e-10,1.237500e-02
-7.397188e-10,1.246875e-02
-7.357188e-10,1.185938e-02
-7.317187e-10,1.134375e-02
-7.277187e-10,1.095313e-02
-7.237187e-10,1.068750e-02
-7.197187e-10,9.750000e-03
-7.157188e-10,9.031250e-03
-7.117188e-10,8.296875e-03
-7.077188e-10,7.500000e-03
-7.037187e-10,6.687500e-03
-6.997187e-10,6.156250e-03
-6.957187e-10,5.031250e-03
-6.917187e-10,4.109375e-03
-6.877187e-10,3.406250e-03
-6.837188e-10,2.953125e-03
-6.797188e-10,1.921875e-03
-6.757188e-10,1.250000e-03
-6.717187e-10,6.406250e-04
-6.677187e-10,1.093750e-04
-6.637187e-10,-3.593750e-04
-6.597187e-10,-4.531250e-04
-6.557188e-10,-1.078125e-03
-6.517188e-10,-1.406250e-03
-6.477188e-10,-1.468750e-03
-6.437187e-10,-1.234375e-03
-6.397187e-10,-1.531250e-03
-6.357187e-10,-1.468750e-03
-6.317187e-10,-1.328125e-03
-6.277187e-10,-1.109375e-03
-6.237188e-10,-8.593750e-04
-6.197188e-10,-2.500000e-04
-6.157188e-10,-2.031250e-04
-6.117187e-10,6.250000e-05
-6.077187e-10,5.781250e-04
-6.037187e-10,1.296875e-03
-5.997187e-10,1.421875e-03
-5.957188e-10,1.843750e-03
-5.917188e-10,2.265625e-03
-5.877188e-10,2.656250e-03
-5.837187e-10,3.046875e-03
-5.797187e-10,3.703125e-03
-5.757187e-10,3.718750e-03
-5.717187e-10,3.906250e-03
-5.677187e-10,4.265625e-03
-5.637188e-10,4.796875e-03
-5.597188e-10,4.671875e-03
-5.557188e-10,4.812500e-03
-5.517187e-10,4.906250e-03
-5.477187e-10,4.968750e-03
-5.437187e-10,5.000000e-03
-5.397187e-10,5.312500e-03
-5.357188e-10,4.968750e-03
-5.317188e-10,4.812500e-03
-5.277188e-10,4.828125e-03
-5.237187e-10,5.046875e-03
-5.197187e-10,4.625000e-03
-5.157187e-10,4.515625e-03
-5.117187e-10,4.390625e-03
-5.077187e-10,4.250000e-03
-5.037188e-10,4.125000e-03
-4.997188e-10,4.296875e-03
-4.957188e-10,3.875000e-03
-4.917187e-10,3.656250e-03
-4.877187e-10,3.656250e-03
-4.837187e-10,3.859375e-03
-4.797187e-10,3.484375e-03
-4.757188e-10,3.421875e-03
-4.717188e-10,3.343750e-03
-4.677188e-10,3.296875e-03
-4.637187e-10,3.250000e-03
-4.597188e-10,3.515625e-03
-4.557187e-10,3.187500e-03
-4.517187e-10,3.062500e-03
-4.477187e-10,3.156250e-03
-4.437188e-10,3.437500e-03
-4.397187e-10,3.140625e-03
-4.357187e-10,3.156250e-03
-4.317187e-10,3.125000e-03
-4.277188e-10,3.125000e-03
-4.237187e-10,3.125000e-03
-4.197187e-10,3.421875e-03
-4.157188e-10,3.109375e-03
-4.117188e-10,3.015625e-03
-4.077187e-10,3.125000e-03
-4.037187e-10,3.437500e-03
-3.997188e-10,3.156250e-03
-3.957187e-10,3.187500e-03
-3.917187e-10,3.187500e-03
-3.877187e-10,3.218750e-03
-3.837188e-10,3.250000e-03
-3.797187e-10,3.593750e-03
-3.757187e-10,3.343750e-03
-3.717187e-10,3.312500e-03
-3.677188e-10,3.500000e-03
-3.637187e-10,3.890625e-03
-3.597187e-10,3.718750e-03
-3.557188e-10,3.843750e-03
-3.517188e-10,3.953125e-03
-3.477187e-10,4.062500e-03
-3.437187e-10,4.203125e-03
-3.397188e-10,4.640625e-03
-3.357187e-10,4.484375e-03
-3.317187e-10,4.515625e-03
-3.277187e-10,4.781250e-03
-3.237188e-10,5.203125e-03
-3.197187e-10,5.046875e-03
-3.157187e-10,5.187500e-03
-3.117187e-10,5.265625e-03
-3.077188e-10,5.312500e-03
-3.037187e-10,5.390625e-03
-2.997187e-10,5.718750e-03
-2.957188e-10,5.437500e-03
-2.917188e-10,5.312500e-03
-2.877187e-10,5.390625e-03
-2.837187e-10,5.640625e-03
-2.797188e-10,5.265625e-03
-2.757187e-10,5.187500e-03
-2.717187e-10,5.031250e-03
-2.677187e-10,4.859375e-03
-2.637188e-10,4.718750e-03
-2.597187e-10,4.828125e-03
-2.557187e-10,4.375000e-03
-2.517187e-10,4.078125e-03
-2.477188e-10,4.015625e-03
-2.437187e-10,4.140625e-03
-2.397187e-10,3.703125e-03
-2.357188e-10,3.593750e-03
-2.317187e-10,3.453125e-03
-2.277188e-10,3.343750e-03
-2.237187e-10,3.312500e-03
-2.197188e-10,3.562500e-03
-2.157187e-10,3.328125e-03
-2.117187e-10,3.281250e-03
-2.077187e-10,3.515625e-03
-2.037187e-10,3.984375e-03
-1.997187e-10,3.906250e-03
-1.957187e-10,4.187500e-03
-1.917188e-10,4.500000e-03
-1.877187e-10,4.812500e-03
-1.837188e-10,5.250000e-03
-1.797187e-10,5.968750e-03
-1.757188e-10,6.187500e-03
-1.717187e-10,6.593750e-03
-1.677188e-10,7.250000e-03
-1.637187e-10,8.125000e-03
-1.597188e-10,8.406250e-03
-1.557187e-10,9.000000e-03
-1.517188e-10,9.578125e-03
-1.477187e-10,1.014063e-02
-1.437187e-10,1.075000e-02
-1.397187e-10,1.157813e-02
-1.357187e-10,1.189063e-02
-1.317188e-10,1.231250e-02
-1.277187e-10,1.292188e-02
-1.237188e-10,1.371875e-02
-1.197187e-10,1.387500e-02
-1.157187e-10,1.431250e-02
-1.117187e-10,1.470313e-02
-1.077187e-10,1.506250e-02
-1.037187e-10,1.545313e-02
-9.971875e-11,1.609375e-02
-9.571875e-11,1.620313e-02
-9.171875e-11,1.646875e-02
-8.771875e-11,1.692188e-02
-8.371875e-11,1.762500e-02
-7.971875e-11,1.775000e-02
-7.571875e-11,1.820313e-02
-7.171875e-11,1.871875e-02
-6.771875e-11,1.928125e-02
-6.371875e-11,1.993750e-02
-5.971875e-11,2.096875e-02
-5.571875e-11,2.157813e-02
-5.171875e-11,2.245313e-02
-4.771875e-11,2.360938e-02
-4.371875e-11,2.512500e-02
-3.971875e-11,2.618750e-02
-3.571875e-11,2.767188e-02
-3.171875e-11,2.928125e-02
-2.771875e-11,3.107813e-02
-2.371875e-11,3.301563e-02
-1.971875e-11,3.540625e-02
-1.571875e-11,3.743750e-02
-1.171875e-11,3.978125e-02
-7.718750e-12,4.240625e-02
-3.718750e-12,4.542188e-02
2.812500e-13,4.801563e-02
4.281250e-12,5.098438e-02
8.281250e-12,5.406250e-02
1.228125e-11,5.726563e-02
1.628125e-11,6.054688e-02
2.028125e-11,6.423438e-02
2.428125e-11,6.743750e-02
2.828125e-11,7.087500e-02
3.228125e-11,7.450000e-02
3.628125e-11,7.834375e-02
4.028125e-11,8.168750e-02
4.428125e-11,8.525000e-02
4.828125e-11,8.879688e-02
5.228125e-11,9.232813e-02
5.628125e-11,9.579688e-02
6.028125e-11,9.950000e-02
6.428125e-11,1.026250e-01
6.828125e-11,1.058281e-01
7.228125e-11,1.090938e-01
7.628125e-11,1.124375e-01
8.028125e-11,1.152031e-01
8.428125e-11,1.180625e-01
8.828125e-11,1.208281e-01
9.228125e-11,1.234688e-01
9.628125e-11,1.260000e-01
1.002812e-10,1.286875e-01
1.042812e-10,1.307500e-01
1.082812e-10,1.328438e-01
1.122812e-10,1.349688e-01
1.162812e-10,1.371563e-01
1.202813e-10,1.387344e-01
1.242812e-10,1.404375e-01
1.282813e-10,1.420156e-01
1.322812e-10,1.435000e-01
1.362813e-10,1.448594e-01
1.402812e-10,1.464063e-01
1.442813e-10,1.473438e-01
1.482812e-10,1.483281e-01
1.522813e-10,1.493594e-01
1.562812e-10,1.504688e-01
1.602812e-10,1.510000e-01
1.642812e-10,1.516563e-01
1.682812e-10,1.522188e-01
1.722813e-10,1.526875e-01
1.762812e-10,1.530469e-01
1.802813e-10,1.535469e-01
1.842812e-10,1.534688e-01
1.882813e-10,1.534375e-01
1.922812e-10,1.534219e-01
1.962813e-10,1.534688e-01
2.002812e-10,1.528906e-01
2.042813e-10,1.524688e-01
2.082812e-10,1.518906e-01
2.122813e-10,1.512031e-01
2.162812e-10,1.503906e-01
2.202812e-10,1.496719e-01
2.242812e-10,1.483594e-01
2.282812e-10,1.470625e-01
2.322812e-10,1.457813e-01
2.362813e-10,1.445469e-01
2.402813e-10,1.426563e-01
2.442812e-10,1.409375e-01
2.482812e-10,1.390781e-01
2.522813e-10,1.371094e-01
2.562813e-10,1.350313e-01
2.602812e-10,1.330625e-01
2.642812e-10,1.305156e-01
2.682813e-10,1.280625e-01
2.722813e-10,1.256563e-01
2.762812e-10,1.233438e-01
2.802812e-10,1.204375e-01
2.842813e-10,1.177813e-01
2.882812e-10,1.150625e-01
2.922812e-10,1.122969e-01
2.962812e-10,1.095313e-01
3.002813e-10,1.069531e-01
3.042812e-10,1.038750e-01
3.082812e-10,1.009844e-01
3.122813e-10,9.823438e-02
3.162813e-10,9.567188e-02
3.202812e-10,9.262500e-02
3.242812e-10,8.989063e-02
3.282813e-10,8.718750e-02
3.322812e-10,8.453125e-02
3.362812e-10,8.195313e-02
3.402812e-10,7.964063e-02
3.442813e-10,7.687500e-02
3.482812e-10,7.439063e-02
3.522812e-10,7.209375e-02
3.562812e-10,7.003125e-02
3.602813e-10,6.753125e-02
3.642812e-10,6.539063e-02
3.682812e-10,6.331250e-02
3.722813e-10,6.132813e-02
3.762813e-10,5.940625e-02
3.802812e-10,5.781250e-02
3.842812e-10,5.575000e-02
3.882813e-10,5.396875e-02
3.922812e-10,5.240625e-02
3.962812e-10,5.107813e-02
4.002812e-10,4.929688e-02
4.042813e-10,4.787500e-02
4.082812e-10,4.653125e-02
4.122812e-10,4.525000e-02
4.162812e-10,4.403125e-02
4.202813e-10,4.314063e-02
4.242812e-10,4.173438e-02
4.282812e-10,4.062500e-02
4.322813e-10,3.973438e-02
4.362813e-10,3.903125e-02
4.402812e-10,3.790625e-02
4.442812e-10,3.709375e-02
4.482813e-10,3.634375e-02
4.522812e-10,3.565625e-02
4.562812e-10,3.501563e-02
4.602812e-10,3.468750e-02
4.642813e-10,3.382813e-02
4.682812e-10,3.321875e-02
4.722813e-10,3.284375e-02
4.762813e-10,3.262500e-02
4.802813e-10,3.195313e-02
4.842812e-10,3.156250e-02
4.882812e-10,3.121875e-02
4.922812e-10,3.089063e-02
4.962812e-10,3.056250e-02
5.002813e-10,3.053125e-02
5.042813e-10,2.993750e-02
5.082813e-10,2.953125e-02
5.122812e-10,2.931250e-02
5.162812e-10,2.923438e-02
5.202812e-10,2.862500e-02
5.242812e-10,2.823438e-02
5.282812e-10,2.789063e-02
5.322813e-10,2.748438e-02
5.362813e-10,2.703125e-02
5.402813e-10,2.682813e-02
5.442812e-10,2.601563e-02
5.482812e-10,2.535938e-02
5.522812e-10,2.487500e-02
5.562812e-10,2.448438e-02
5.602813e-10,2.353125e-02
5.642813e-10,2.278125e-02
5.682813e-10,2.206250e-02
5.722812e-10,2.126563e-02
5.762812e-10,2.042188e-02
5.802812e-10,1.982813e-02
5.842812e-10,1.864063e-02
5.882812e-10,1.762500e-02
5.922813e-10,1.679688e-02
5.962813e-10,1.612500e-02
6.002813e-10,1.490625e-02
6.042812e-10,1.393750e-02
6.082812e-10,1.304688e-02
6.122812e-10,1.214063e-02
6.162812e-10,1.123438e-02
6.202813e-10,1.064063e-02
6.242813e-10,9.515625e-03
6.282813e-10,8.609375e-03
6.322812e-10,7.984375e-03
6.362812e-10,7.578125e-03
6.402812e-10,6.671875e-03
6.442812e-10,6.093750e-03
6.482812e-10,5.625000e-03
6.522813e-10,5.218750e-03
6.562813e-10,4.843750e-03
6.602813e-10,4.843750e-03
6.642812e-10,4.328125e-03
6.682812e-10,4.078125e-03
6.722812e-10,4.109375e-03
6.762812e-10,4.390625e-03
6.802812e-10,4.156250e-03
6.842813e-10,4.281250e-03
6.882813e-10,4.468750e-03
6.922812e-10,4.703125e-03
6.962812e-10,4.953125e-03
7.002812e-10,5.531250e-03
7.042812e-10,5.562500e-03
7.082812e-10,5.812500e-03
7.122813e-10,6.281250e-03
7.162813e-10,6.968750e-03
7.202813e-10,7.046875e-03
7.242812e-10,7.421875e-03
7.282812e-10,7.796875e-03
7.322812e-10,8.156250e-03
7.362812e-10,8.453125e-03
7.402812e-10,9.015625e-03
7.442813e-10,8.968750e-03
7.482813e-10,9.078125e-03
7.522812e-10,9.343750e-03
7.562812e-10,9.765625e-03
7.602812e-10,9.546875e-03
7.642812e-10,9.578125e-03
7.682812e-10,9.562500e-03
7.722813e-10,9.515625e-03
7.762813e-10,9.406250e-03
7.802813e-10,9.546875e-03
7.842812e-10,9.062500e-03
7.882812e-10,8.734375e-03
7.922812e-10,8.593750e-03
7.962812e-10,8.625000e-03
8.002812e-10,8.031250e-03
8.042813e-10,7.734375e-03
8.082813e-10,7.437500e-03
8.122812e-10,7.156250e-03
8.162812e-10,6.859375e-03
8.202812e-10,6.875000e-03
8.242812e-10,6.328125e-03
8.282812e-10,6.000000e-03
8.322813e-10,5.906250e-03
8.362813e-10,6.062500e-03
8.402813e-10,5.671875e-03
8.442812e-10,5.609375e-03
8.482812e-10,5.625000e-03
8.522812e-10,5.687500e-03
8.562812e-10,5.781250e-03
8.602812e-10,6.250000e-03
8.642813e-10,6.171875e-03
8.682813e-10,6.343750e-03
8.722812e-10,6.781250e-03
8.762812e-10,7.453125e-03
8.802812e-10,7.593750e-03
8.842812e-10,8.062500e-03
8.882812e-10,8.562500e-03
8.922813e-10,9.109375e-03
8.962813e-10,9.656250e-03
9.002813e-10,1.053125e-02
9.042812e-10,1.081250e-02
9.082812e-10,1.129688e-02
9.122812e-10,1.198438e-02
9.162812e-10,1.284375e-02
9.202812e-10,1.307813e-02
9.242813e-10,1.357813e-02
9.282813e-10,1.404688e-02
9.322812e-10,1.446875e-02
9.362812e-10,1.482813e-02
9.402812e-10,1.543750e-02
9.442812e-10,1.537500e-02
9.482812e-10,1.543750e-02
9.522812e-10,1.565625e-02
9.562812e-10,1.598438e-02
9.602812e-10,1.564063e-02
9.642812e-10,1.553125e-02
9.682813e-10,1.534375e-02
9.722813e-10,1.509375e-02
9.762813e-10,1.478125e-02
9.802813e-10,1.468750e-02
9.842813e-10,1.395313e-02
9.882813e-10,1.335938e-02
9.922812e-10,1.292188e-02
9.962812e-10,1.265625e-02
1.000281e-09,1.175000e-02
1.004281e-09,1.114063e-02
1.008281e-09,1.051563e-02
1.012281e-09,9.890625e-03
1.016281e-09,9.265625e-03
1.020281e-09,8.953125e-03
1.024281e-09,8.062500e-03
1.028281e-09,7.406250e-03
1.032281e-09,6.984375e-03
1.036281e-09,6.812500e-03
1.040281e-09,6.078125e-03
1.044281e-09,5.718750e-03
1.048281e-09,5.390625e-03
1.052281e-09,5.140625e-03
1.056281e-09,4.937500e-03
1.060281e-09,5.109375e-03
1.064281e-09,4.734375e-03
1.068281e-09,4.609375e-03
1.072281e-09,4.750000e-03
1.076281e-09,5.156250e-03
1.080281e-09,4.984375e-03
1.084281e-09,5.171875e-03
1.088281e-09,5.390625e-03
1.092281e-09,5.625000e-03
1.096281e-09,5.906250e-03
1.100281e-09,6.484375e-03
1.104281e-09,6.484375e-03
1.108281e-09,6.687500e-03
1.112281e-09,7.078125e-03
1.116281e-09,7.656250e-03
1.120281e-09,7.609375e-03
1.124281e-09,7.859375e-03
1.128281e-09,8.062500e-03
1.132281e-09,8.250000e-03
1.136281e-09,8.390625e-03
1.140281e-09,8.796875e-03
1.144281e-09,8.562500e-03
1.148281e-09,8.484375e-03
1.152281e-09,8.578125e-03
1.156281e-09,8.812500e-03
1.160281e-09,8.421875e-03
1.164281e-09,8.312500e-03
1.168281e-09,8.156250e-03
1.172281e-09,7.968750e-03
1.176281e-09,7.765625e-03
1.180281e-09,7.859375e-03
1.184281e-09,7.328125e-03
1.188281e-09,7.000000e-03
1.192281e-09,6.875000e-03
1.196281e-09,6.953125e-03
1.200281e-09,6.437500e-03
1.204281e-09,6.250000e-03
1.208281e-09,6.093750e-03
1.212281e-09,5.953125e-03
1.216281e-09,5.843750e-03
1.220281e-09,6.062500e-03
1.224281e-09,5.718750e-03
1.228281e-09,5.625000e-03
1.232281e-09,5.750000e-03
1.236281e-09,6.125000e-03
1.240281e-09,5.937500e-03
1.244281e-09,6.078125e-03
1.248281e-09,6.250000e-03
1.252281e-09,6.437500e-03
1.256281e-09,6.656250e-03
1.260281e-09,7.203125e-03
1.264281e-09,7.140625e-03
1.268281e-09,7.296875e-03
1.272281e-09,7.656250e-03
1.276281e-09,8.218750e-03
1.280281e-09,8.156250e-03
1.284281e-09,8.390625e-03
1.288281e-09,8.593750e-03
1.292281e-09,8.796875e-03
1.296281e-09,8.953125e-03
1.300281e-09,9.390625e-03
1.304281e-09,9.187500e-03
1.308281e-09,9.156250e-03
1.312281e-09,9.296875e-03
1.316281e-09,9.609375e-03
1.320281e-09,9.265625e-03
1.324281e-09,9.203125e-03
1.328281e-09,9.125000e-03
1.332281e-09,9.000000e-03
1.336281e-09,8.875000e-03
1.340281e-09,9.015625e-03
1.344281e-09,8.546875e-03
1.348281e-09,8.281250e-03
1.352281e-09,8.203125e-03
1.356281e-09,8.328125e-03
1.360281e-09,7.875000e-03
1.364281e-09,7.718750e-03
1.368281e-09,7.593750e-03
1.372281e-09,7.484375e-03
1.376281e-09,7.390625e-03
1.380281e-09,7.640625e-03
1.384281e-09,7.312500e-03
1.388281e-09,7.218750e-03
1.392281e-09,7.359375e-03
1.396281e-09,7.734375e-03
1.400281e-09,7.546875e-03
1.404281e-09,7.671875e-03
1.408281e-09,7.843750e-03
1.412281e-09,8.015625e-03
1.416281e-09,8.218750e-03
1.420281e-09,8.734375e-03
1.424281e-09,8.656250e-03
1.428281e-09,8.796875e-03
1.432281e-09,9.109375e-03
1.436281e-09,9.640625e-03
1.440281e-09,9.531250e-03
1.444281e-09,9.703125e-03
1.448281e-09,9.859375e-03
1.452281e-09,9.968750e-03
1.456281e-09,1.004688e-02
1.460281e-09,1.039063e-02
1.464281e-09,1.007813e-02
1.468281e-09,9.921875e-03
1.472281e-09,9.921875e-03
1.476281e-09,1.007813e-02
1.480281e-09,9.578125e-03
1.484281e-09,9.328125e-03
1.488281e-09,9.046875e-03
1.492281e-09,8.734375e-03
1.496281e-09,8.390625e-03
1.500281e-09,8.312500e-03
1.504281e-09,7.609375e-03
1.508281e-09,7.093750e-03
1.512281e-09,6.781250e-03
1.516281e-09,6.687500e-03
1.520281e-09,5.984375e-03
1.524281e-09,5.609375e-03
1.528281e-09,5.265625e-03
1.532281e-09,4.953125e-03
1.536281e-09,4.687500e-03
1.540281e-09,4.765625e-03
1.544281e-09,4.296875e-03
1.548281e-09,4.109375e-03
1.552281e-09,4.171875e-03
1.556281e-09,4.500000e-03
1.560281e-09,4.296875e-03
1.564281e-09,4.468750e-03
1.568281e-09,4.687500e-03
1.572281e-09,4.984375e-03
1.576281e-09,5.343750e-03
1.580281e-09,6.062500e-03
1.584281e-09,6.203125e-03
1.588281e-09,6.609375e-03
1.592281e-09,7.234375e-03
1.596281e-09,8.078125e-03
1.600281e-09,8.343750e-03
1.604281e-09,8.906250e-03
1.608281e-09,9.468750e-03
1.612281e-09,1.000000e-02
1.616281e-09,1.051563e-02
1.620281e-09,1.129688e-02
1.624281e-09,1.142188e-02
1.628281e-09,1.168750e-02
1.632281e-09,1.210938e-02
1.636281e-09,1.265625e-02
1.640281e-09,1.251563e-02
1.644281e-09,1.260938e-02
1.648281e-09,1.262500e-02
1.652281e-09,1.256250e-02
1.656281e-09,1.242188e-02
1.660281e-09,1.251563e-02
1.664281e-09,1.192188e-02
1.668281e-09,1.145313e-02
1.672281e-09,1.112500e-02
1.676281e-09,1.095313e-02
1.680281e-09,1.012500e-02
1.684281e-09,9.562500e-03
1.688281e-09,8.984375e-03
1.692281e-09,8.375000e-03
1.696281e-09,7.765625e-03
1.700281e-09,7.453125e-03
1.704281e-09,6.562500e-03
1.708281e-09,5.890625e-03
1.712281e-09,5.453125e-03
1.716281e-09,5.265625e-03
1.720281e-09,4.515625e-03
1.724281e-09,4.140625e-03
1.728281e-09,3.812500e-03
1.732281e-09,3.562500e-03
1.736281e-09,3.390625e-03
1.740281e-09,3.593750e-03
1.744281e-09,3.250000e-03
1.748281e-09,3.203125e-03
1.752281e-09,3.406250e-03
