Measurements-streak-laser-independent/Photodiode-on-Tek-6GHz/Tek000_ch1_20190613132734152.csv

Model,MSO64
Waveform Type,ANALOG
Horizontal Units,s
Sample Interval,4.000000e-12
Record Length,1000
Zero Index,310.593750
Vertical Units,V

TIME,CH1
-1.242375e-09,2.390625e-03
-1.238375e-09,2.250000e-03
-1.234375e-09,2.140625e-03
-1.230375e-09,2.093750e-03
-1.226375e-09,2.093750e-03
-1.222375e-09,2.453125e-03
-1.218375e-09,2.234375e-03
-1.214375e-09,2.281250e-03
-1.210375e-09,2.562500e-03
-1.206375e-09,3.093750e-03
-1.202375e-09,3.062500e-03
-1.198375e-09,3.359375e-03
-1.194375e-09,3.687500e-03
-1.190375e-09,4.062500e-03
-1.186375e-09,4.437500e-03
-1.182375e-09,5.140625e-03
-1.178375e-09,5.250000e-03
-1.174375e-09,5.578125e-03
-1.170375e-09,6.093750e-03
-1.166375e-09,6.828125e-03
-1.162375e-09,6.937500e-03
-1.158375e-09,7.328125e-03
-1.154375e-09,7.718750e-03
-1.150375e-09,8.062500e-03
-1.146375e-09,8.406250e-03
-1.142375e-09,9.000000e-03
-1.138375e-09,8.953125e-03
-1.134375e-09,9.078125e-03
-1.130375e-09,9.359375e-03
-1.126375e-09,9.812500e-03
-1.122375e-09,9.609375e-03
-1.118375e-09,9.656250e-03
-1.114375e-09,9.671875e-03
-1.110375e-09,9.656250e-03
-1.106375e-09,9.578125e-03
-1.102375e-09,9.781250e-03
-1.098375e-09,9.328125e-03
-1.094375e-09,9.046875e-03
-1.090375e-09,8.953125e-03
-1.086375e-09,9.031250e-03
-1.082375e-09,8.468750e-03
-1.078375e-09,8.203125e-03
-1.074375e-09,7.937500e-03
-1.070375e-09,7.656250e-03
-1.066375e-09,7.375000e-03
-1.062375e-09,7.406250e-03
-1.058375e-09,6.828125e-03
-1.054375e-09,6.468750e-03
-1.050375e-09,6.343750e-03
-1.046375e-09,6.421875e-03
-1.042375e-09,5.937500e-03
-1.038375e-09,5.781250e-03
-1.034375e-09,5.640625e-03
-1.030375e-09,5.546875e-03
-1.026375e-09,5.484375e-03
-1.022375e-09,5.750000e-03
-1.018375e-09,5.453125e-03
-1.014375e-09,5.390625e-03
-1.010375e-09,5.562500e-03
-1.006375e-09,5.953125e-03
-1.002375e-09,5.781250e-03
-9.983750e-10,5.921875e-03
-9.943750e-10,6.093750e-03
-9.903750e-10,6.265625e-03
-9.863750e-10,6.468750e-03
-9.823750e-10,6.968750e-03
-9.783750e-10,6.875000e-03
-9.743750e-10,6.984375e-03
-9.703750e-10,7.281250e-03
-9.663750e-10,7.765625e-03
-9.623750e-10,7.640625e-03
-9.583750e-10,7.781250e-03
-9.543750e-10,7.906250e-03
-9.503750e-10,8.015625e-03
-9.463750e-10,8.078125e-03
-9.423750e-10,8.421875e-03
-9.383750e-10,8.125000e-03
-9.343750e-10,7.984375e-03
-9.303750e-10,8.015625e-03
-9.263750e-10,8.218750e-03
-9.223750e-10,7.781250e-03
-9.183750e-10,7.593750e-03
-9.143750e-10,7.406250e-03
-9.103750e-10,7.171875e-03
-9.063750e-10,6.906250e-03
-9.023750e-10,6.937500e-03
-8.983750e-10,6.343750e-03
-8.943750e-10,5.937500e-03
-8.903750e-10,5.718750e-03
-8.863750e-10,5.703125e-03
-8.823750e-10,5.093750e-03
-8.783750e-10,4.781250e-03
-8.743750e-10,4.500000e-03
-8.703750e-10,4.218750e-03
-8.663750e-10,3.968750e-03
-8.623750e-10,4.046875e-03
-8.583750e-10,3.531250e-03
-8.543750e-10,3.265625e-03
-8.503750e-10,3.234375e-03
-8.463750e-10,3.453125e-03
-8.423750e-10,3.093750e-03
-8.383750e-10,3.062500e-03
-8.343750e-10,3.078125e-03
-8.303750e-10,3.140625e-03
-8.263750e-10,3.234375e-03
-8.223750e-10,3.656250e-03
-8.183750e-10,3.500000e-03
-8.143750e-10,3.593750e-03
-8.103750e-10,3.890625e-03
-8.063750e-10,4.421875e-03
-8.023750e-10,4.359375e-03
-7.983750e-10,4.625000e-03
-7.943750e-10,4.890625e-03
-7.903750e-10,5.156250e-03
-7.863750e-10,5.421875e-03
-7.823750e-10,5.984375e-03
-7.783750e-10,5.937500e-03
-7.743750e-10,6.078125e-03
-7.703750e-10,6.406250e-03
-7.663750e-10,6.921875e-03
-7.623750e-10,6.796875e-03
-7.583750e-10,6.968750e-03
-7.543750e-10,7.125000e-03
-7.503750e-10,7.234375e-03
-7.463750e-10,7.343750e-03
-7.423750e-10,7.718750e-03
-7.383750e-10,7.468750e-03
-7.343750e-10,7.390625e-03
-7.303750e-10,7.500000e-03
-7.263750e-10,7.781250e-03
-7.223750e-10,7.453125e-03
-7.183750e-10,7.406250e-03
-7.143750e-10,7.359375e-03
-7.103750e-10,7.281250e-03
-7.063750e-10,7.218750e-03
-7.023750e-10,7.437500e-03
-6.983750e-10,7.046875e-03
-6.943750e-10,6.859375e-03
-6.903750e-10,6.875000e-03
-6.863750e-10,7.093750e-03
-6.823750e-10,6.703125e-03
-6.783750e-10,6.625000e-03
-6.743750e-10,6.562500e-03
-6.703750e-10,6.484375e-03
-6.663750e-10,6.421875e-03
-6.623750e-10,6.656250e-03
-6.583750e-10,6.281250e-03
-6.543750e-10,6.109375e-03
-6.503750e-10,6.156250e-03
-6.463750e-10,6.375000e-03
-6.423750e-10,6.000000e-03
-6.383750e-10,5.906250e-03
-6.343750e-10,5.812500e-03
-6.303750e-10,5.718750e-03
-6.263750e-10,5.593750e-03
-6.223750e-10,5.765625e-03
-6.183750e-10,5.312500e-03
-6.143750e-10,5.046875e-03
-6.103750e-10,4.953125e-03
-6.063750e-10,5.062500e-03
-6.023750e-10,4.531250e-03
-5.983750e-10,4.296875e-03
-5.943750e-10,4.031250e-03
-5.903750e-10,3.765625e-03
-5.863750e-10,3.484375e-03
-5.823750e-10,3.500000e-03
-5.783750e-10,2.906250e-03
-5.743750e-10,2.515625e-03
-5.703750e-10,2.312500e-03
-5.663750e-10,2.343750e-03
-5.623750e-10,1.765625e-03
-5.583750e-10,1.500000e-03
-5.543750e-10,1.250000e-03
-5.503750e-10,1.046875e-03
-5.463750e-10,8.593750e-04
-5.423750e-10,1.000000e-03
-5.383750e-10,5.781250e-04
-5.343750e-10,4.062500e-04
-5.303750e-10,4.687500e-04
-5.263750e-10,7.812500e-04
-5.223750e-10,5.468750e-04
-5.183750e-10,6.562500e-04
-5.143750e-10,7.968750e-04
-5.103750e-10,1.000000e-03
-5.063750e-10,1.250000e-03
-5.023750e-10,1.859375e-03
-4.983750e-10,1.890625e-03
-4.943750e-10,2.156250e-03
-4.903750e-10,2.687500e-03
-4.863750e-10,3.421875e-03
-4.823750e-10,3.593750e-03
-4.783750e-10,4.093750e-03
-4.743750e-10,4.593750e-03
-4.703750e-10,5.109375e-03
-4.663750e-10,5.625000e-03
-4.623750e-10,6.437500e-03
-4.583750e-10,6.640625e-03
-4.543750e-10,7.015625e-03
-4.503750e-10,7.593750e-03
-4.463750e-10,8.328125e-03
-4.423750e-10,8.437500e-03
-4.383750e-10,8.812500e-03
-4.343750e-10,9.109375e-03
-4.303750e-10,9.375000e-03
-4.263750e-10,9.593750e-03
-4.223750e-10,1.007813e-02
-4.183750e-10,9.890625e-03
-4.143750e-10,9.843750e-03
-4.103750e-10,9.968750e-03
-4.063750e-10,1.023438e-02
-4.023750e-10,9.859375e-03
-3.983750e-10,9.718750e-03
-3.943750e-10,9.515625e-03
-3.903750e-10,9.281250e-03
-3.863750e-10,9.000000e-03
-3.823750e-10,9.000000e-03
-3.783750e-10,8.343750e-03
-3.743750e-10,7.875000e-03
-3.703750e-10,7.609375e-03
-3.663750e-10,7.515625e-03
-3.623750e-10,6.828125e-03
-3.583750e-10,6.437500e-03
-3.543750e-10,6.000000e-03
-3.503750e-10,5.562500e-03
-3.463750e-10,5.156250e-03
-3.423750e-10,5.078125e-03
-3.383750e-10,4.390625e-03
-3.343750e-10,3.937500e-03
-3.303750e-10,3.734375e-03
-3.263750e-10,3.734375e-03
-3.223750e-10,3.203125e-03
-3.183750e-10,2.984375e-03
-3.143750e-10,2.750000e-03
-3.103750e-10,2.546875e-03
-3.063750e-10,2.406250e-03
-3.023750e-10,2.578125e-03
-2.983750e-10,2.203125e-03
-2.943750e-10,2.031250e-03
-2.903750e-10,2.140625e-03
-2.863750e-10,2.437500e-03
-2.823750e-10,2.218750e-03
-2.783750e-10,2.296875e-03
-2.743750e-10,2.359375e-03
-2.703750e-10,2.406250e-03
-2.663750e-10,2.546875e-03
-2.623750e-10,2.968750e-03
-2.583750e-10,2.828125e-03
-2.543750e-10,2.875000e-03
-2.503750e-10,3.187500e-03
-2.463750e-10,3.656250e-03
-2.423750e-10,3.578125e-03
-2.383750e-10,3.812500e-03
-2.343750e-10,4.000000e-03
-2.303750e-10,4.156250e-03
-2.263750e-10,4.406250e-03
-2.223750e-10,4.875000e-03
-2.183750e-10,4.828125e-03
-2.143750e-10,4.921875e-03
-2.103750e-10,5.265625e-03
-2.063750e-10,5.781250e-03
-2.023750e-10,5.718750e-03
-1.983750e-10,5.953125e-03
-1.943750e-10,6.140625e-03
-1.903750e-10,6.296875e-03
-1.863750e-10,6.531250e-03
-1.823750e-10,6.984375e-03
-1.783750e-10,6.921875e-03
-1.743750e-10,7.000000e-03
-1.703750e-10,7.281250e-03
-1.663750e-10,7.765625e-03
-1.623750e-10,7.640625e-03
-1.583750e-10,7.812500e-03
-1.543750e-10,7.937500e-03
-1.503750e-10,8.046875e-03
-1.463750e-10,8.218750e-03
-1.423750e-10,8.609375e-03
-1.383750e-10,8.500000e-03
-1.343750e-10,8.515625e-03
-1.303750e-10,8.734375e-03
-1.263750e-10,9.171875e-03
-1.223750e-10,9.015625e-03
-1.183750e-10,9.156250e-03
-1.143750e-10,9.281250e-03
-1.103750e-10,9.406250e-03
-1.063750e-10,9.625000e-03
-1.023750e-10,1.009375e-02
-9.837500e-11,1.010938e-02
-9.437500e-11,1.029688e-02
-9.037500e-11,1.070313e-02
-8.637500e-11,1.140625e-02
-8.237500e-11,1.156250e-02
-7.837500e-11,1.206250e-02
-7.437500e-11,1.262500e-02
-7.037500e-11,1.326563e-02
-6.637500e-11,1.404688e-02
-6.237500e-11,1.518750e-02
-5.837500e-11,1.595313e-02
-5.437500e-11,1.696875e-02
-5.037500e-11,1.828125e-02
-4.637500e-11,1.995313e-02
-4.237500e-11,2.120313e-02
-3.837500e-11,2.285938e-02
-3.437500e-11,2.467188e-02
-3.037500e-11,2.664063e-02
-2.637500e-11,2.881250e-02
-2.237500e-11,3.142188e-02
-1.837500e-11,3.373438e-02
-1.437500e-11,3.635938e-02
-1.037500e-11,3.931250e-02
-6.375000e-12,4.268750e-02
-2.375000e-12,4.570313e-02
1.625000e-12,4.912500e-02
5.625000e-12,5.273438e-02
9.625000e-12,5.653125e-02
1.362500e-11,6.050000e-02
1.762500e-11,6.493750e-02
2.162500e-11,6.903125e-02
2.562500e-11,7.342188e-02
2.962500e-11,7.809375e-02
3.362500e-11,8.312500e-02
3.762500e-11,8.778125e-02
4.162500e-11,9.273438e-02
4.562500e-11,9.779688e-02
4.962500e-11,1.029688e-01
5.362500e-11,1.081875e-01
5.762500e-11,1.137813e-01
6.162500e-11,1.189375e-01
6.562500e-11,1.242500e-01
6.962500e-11,1.297031e-01
7.362500e-11,1.353438e-01
7.762500e-11,1.405156e-01
8.162500e-11,1.458281e-01
8.562500e-11,1.510781e-01
8.962500e-11,1.562813e-01
9.362500e-11,1.613750e-01
9.762500e-11,1.666563e-01
1.016250e-10,1.713438e-01
1.056250e-10,1.760469e-01
1.096250e-10,1.807031e-01
1.136250e-10,1.853750e-01
1.176250e-10,1.894375e-01
1.216250e-10,1.934688e-01
1.256250e-10,1.973125e-01
1.296250e-10,2.009375e-01
1.336250e-10,2.043125e-01
1.376250e-10,2.077344e-01
1.416250e-10,2.104688e-01
1.456250e-10,2.130625e-01
1.496250e-10,2.155313e-01
1.536250e-10,2.178906e-01
1.576250e-10,2.195469e-01
1.616250e-10,2.211406e-01
1.656250e-10,2.224688e-01
1.696250e-10,2.235313e-01
1.736250e-10,2.243281e-01
1.776250e-10,2.251094e-01
1.816250e-10,2.252031e-01
1.856250e-10,2.251875e-01
1.896250e-10,2.250313e-01
1.936250e-10,2.248281e-01
1.976250e-10,2.239375e-01
2.016250e-10,2.230781e-01
2.056250e-10,2.220000e-01
2.096250e-10,2.207500e-01
2.136250e-10,2.193281e-01
2.176250e-10,2.179531e-01
2.216250e-10,2.160156e-01
2.256250e-10,2.140781e-01
2.296250e-10,2.121406e-01
2.336250e-10,2.102500e-01
2.376250e-10,2.077969e-01
2.416250e-10,2.055313e-01
2.456250e-10,2.031719e-01
2.496250e-10,2.007656e-01
2.536250e-10,1.982969e-01
2.576250e-10,1.959844e-01
2.616250e-10,1.932344e-01
2.656250e-10,1.906094e-01
2.696250e-10,1.880625e-01
2.736250e-10,1.856563e-01
2.776250e-10,1.827813e-01
2.816250e-10,1.801719e-01
2.856250e-10,1.775156e-01
2.896250e-10,1.748906e-01
2.936250e-10,1.722500e-01
2.976250e-10,1.697813e-01
3.016250e-10,1.668750e-01
3.056250e-10,1.641563e-01
3.096250e-10,1.614844e-01
3.136250e-10,1.589688e-01
3.176250e-10,1.559531e-01
3.216250e-10,1.532031e-01
3.256250e-10,1.503906e-01
3.296250e-10,1.475781e-01
3.336250e-10,1.447188e-01
3.376250e-10,1.420313e-01
3.416250e-10,1.388125e-01
3.456250e-10,1.357813e-01
3.496250e-10,1.327813e-01
3.536250e-10,1.299063e-01
3.576250e-10,1.265000e-01
3.616250e-10,1.233594e-01
3.656250e-10,1.201406e-01
3.696250e-10,1.169219e-01
3.736250e-10,1.136875e-01
3.776250e-10,1.106406e-01
3.816250e-10,1.070781e-01
3.856250e-10,1.037344e-01
3.896250e-10,1.004844e-01
3.936250e-10,9.740625e-02
3.976250e-10,9.387500e-02
4.016250e-10,9.065625e-02
4.056250e-10,8.746875e-02
4.096250e-10,8.434375e-02
4.136250e-10,8.129688e-02
4.176250e-10,7.856250e-02
4.216250e-10,7.535938e-02
4.256250e-10,7.248438e-02
4.296250e-10,6.984375e-02
4.336250e-10,6.742188e-02
4.376250e-10,6.467188e-02
4.416250e-10,6.229688e-02
4.456250e-10,6.006250e-02
4.496250e-10,5.796875e-02
4.536250e-10,5.600000e-02
4.576250e-10,5.442188e-02
4.616250e-10,5.242188e-02
4.656250e-10,5.076563e-02
4.696250e-10,4.940625e-02
4.736250e-10,4.826563e-02
4.776250e-10,4.681250e-02
4.816250e-10,4.571875e-02
4.856250e-10,4.476563e-02
4.896250e-10,4.389063e-02
4.936250e-10,4.310938e-02
4.976250e-10,4.267188e-02
5.016250e-10,4.175000e-02
5.056250e-10,4.110938e-02
5.096250e-10,4.068750e-02
5.136250e-10,4.042188e-02
5.176250e-10,3.975000e-02
5.216250e-10,3.931250e-02
5.256250e-10,3.896875e-02
5.296250e-10,3.860938e-02
5.336250e-10,3.823438e-02
5.376250e-10,3.812500e-02
5.416250e-10,3.743750e-02
5.456250e-10,3.693750e-02
5.496250e-10,3.660938e-02
5.536250e-10,3.637500e-02
5.576250e-10,3.562500e-02
5.616250e-10,3.507813e-02
5.656250e-10,3.457813e-02
5.696250e-10,3.401563e-02
5.736250e-10,3.339063e-02
5.776250e-10,3.301563e-02
5.816250e-10,3.204688e-02
5.856250e-10,3.121875e-02
5.896250e-10,3.059375e-02
5.936250e-10,3.007813e-02
5.976250e-10,2.903125e-02
6.016250e-10,2.820313e-02
6.056250e-10,2.743750e-02
6.096250e-10,2.662500e-02
6.136250e-10,2.576563e-02
6.176250e-10,2.517188e-02
6.216250e-10,2.403125e-02
6.256250e-10,2.306250e-02
6.296250e-10,2.231250e-02
6.336250e-10,2.171875e-02
6.376250e-10,2.059375e-02
6.416250e-10,1.971875e-02
6.456250e-10,1.893750e-02
6.496250e-10,1.814063e-02
6.536250e-10,1.728125e-02
6.576250e-10,1.675000e-02
6.616250e-10,1.565625e-02
6.656250e-10,1.476563e-02
6.696250e-10,1.410938e-02
6.736250e-10,1.362500e-02
6.776250e-10,1.262500e-02
6.816250e-10,1.190625e-02
6.856250e-10,1.125000e-02
6.896250e-10,1.062500e-02
6.936250e-10,9.953125e-03
6.976250e-10,9.609375e-03
7.016250e-10,8.750000e-03
7.056250e-10,8.093750e-03
7.096250e-10,7.703125e-03
7.136250e-10,7.546875e-03
7.176250e-10,6.859375e-03
7.216250e-10,6.500000e-03
7.256250e-10,6.218750e-03
7.296250e-10,6.000000e-03
7.336250e-10,5.796875e-03
7.376250e-10,5.953125e-03
7.416250e-10,5.609375e-03
7.456250e-10,5.515625e-03
7.496250e-10,5.703125e-03
7.536250e-10,6.156250e-03
7.576250e-10,6.109375e-03
7.616250e-10,6.406250e-03
7.656250e-10,6.796875e-03
7.696250e-10,7.250000e-03
7.736250e-10,7.718750e-03
7.776250e-10,8.562500e-03
7.816250e-10,8.859375e-03
7.856250e-10,9.390625e-03
7.896250e-10,1.018750e-02
7.936250e-10,1.120313e-02
7.976250e-10,1.165625e-02
8.016250e-10,1.240625e-02
8.056250e-10,1.318750e-02
8.096250e-10,1.395313e-02
8.136250e-10,1.467188e-02
8.176250e-10,1.567188e-02
8.216250e-10,1.604688e-02
8.256250e-10,1.656250e-02
8.296250e-10,1.725000e-02
8.336250e-10,1.804688e-02
8.376250e-10,1.820313e-02
8.416250e-10,1.856250e-02
8.456250e-10,1.887500e-02
8.496250e-10,1.907813e-02
8.536250e-10,1.918750e-02
8.576250e-10,1.950000e-02
8.616250e-10,1.912500e-02
8.656250e-10,1.885938e-02
8.696250e-10,1.870313e-02
8.736250e-10,1.867188e-02
8.776250e-10,1.796875e-02
8.816250e-10,1.746875e-02
8.856250e-10,1.692188e-02
8.896250e-10,1.632813e-02
8.936250e-10,1.565625e-02
8.976250e-10,1.525000e-02
9.016250e-10,1.421875e-02
9.056250e-10,1.335938e-02
9.096250e-10,1.270313e-02
9.136250e-10,1.223438e-02
9.176250e-10,1.118750e-02
9.216250e-10,1.046875e-02
9.256250e-10,9.781250e-03
9.296250e-10,9.125000e-03
9.336250e-10,8.515625e-03
9.376250e-10,8.250000e-03
9.416250e-10,7.453125e-03
9.456250e-10,6.921875e-03
9.496250e-10,6.671875e-03
9.536250e-10,6.671875e-03
9.576250e-10,6.156250e-03
9.616250e-10,6.000000e-03
9.656250e-10,5.906250e-03
9.696250e-10,5.890625e-03
9.736250e-10,5.921875e-03
9.776250e-10,6.296875e-03
9.816250e-10,6.125000e-03
9.856250e-10,6.203125e-03
9.896250e-10,6.500000e-03
9.936250e-10,7.031250e-03
9.976250e-10,6.968750e-03
1.001625e-09,7.203125e-03
1.005625e-09,7.453125e-03
1.009625e-09,7.671875e-03
1.013625e-09,7.875000e-03
1.017625e-09,8.359375e-03
1.021625e-09,8.203125e-03
1.025625e-09,8.203125e-03
1.029625e-09,8.375000e-03
1.033625e-09,8.703125e-03
1.037625e-09,8.375000e-03
1.041625e-09,8.296875e-03
1.045625e-09,8.171875e-03
1.049625e-09,8.015625e-03
1.053625e-09,7.796875e-03
1.057625e-09,7.843750e-03
1.061625e-09,7.265625e-03
1.065625e-09,6.859375e-03
1.069625e-09,6.625000e-03
1.073625e-09,6.593750e-03
1.077625e-09,5.953125e-03
1.081625e-09,5.625000e-03
1.085625e-09,5.312500e-03
1.089625e-09,5.015625e-03
1.093625e-09,4.750000e-03
1.097625e-09,4.843750e-03
1.101625e-09,4.359375e-03
1.105625e-09,4.156250e-03
1.109625e-09,4.187500e-03
1.113625e-09,4.500000e-03
1.117625e-09,4.296875e-03
1.121625e-09,4.453125e-03
1.125625e-09,4.671875e-03
1.129625e-09,4.984375e-03
1.133625e-09,5.343750e-03
1.137625e-09,6.093750e-03
1.141625e-09,6.296875e-03
1.145625e-09,6.765625e-03
1.149625e-09,7.468750e-03
1.153625e-09,8.421875e-03
1.157625e-09,8.812500e-03
1.161625e-09,9.531250e-03
1.165625e-09,1.025000e-02
1.169625e-09,1.096875e-02
1.173625e-09,1.168750e-02
1.177625e-09,1.268750e-02
1.181625e-09,1.304688e-02
1.185625e-09,1.356250e-02
1.189625e-09,1.423438e-02
1.193625e-09,1.504688e-02
1.197625e-09,1.517188e-02
1.201625e-09,1.553125e-02
1.205625e-09,1.581250e-02
1.209625e-09,1.598438e-02
1.213625e-09,1.607813e-02
1.217625e-09,1.637500e-02
1.221625e-09,1.596875e-02
1.225625e-09,1.567188e-02
1.229625e-09,1.550000e-02
1.233625e-09,1.542188e-02
1.237625e-09,1.467188e-02
1.241625e-09,1.414063e-02
1.245625e-09,1.354688e-02
1.249625e-09,1.289063e-02
1.253625e-09,1.220313e-02
1.257625e-09,1.176563e-02
1.261625e-09,1.071875e-02
1.265625e-09,9.843750e-03
1.269625e-09,9.171875e-03
1.273625e-09,8.718750e-03
1.277625e-09,7.687500e-03
1.281625e-09,7.000000e-03
1.285625e-09,6.343750e-03
1.289625e-09,5.765625e-03
1.293625e-09,5.234375e-03
1.297625e-09,5.078125e-03
1.301625e-09,4.406250e-03
1.305625e-09,4.015625e-03
1.309625e-09,3.906250e-03
1.313625e-09,4.109375e-03
1.317625e-09,3.781250e-03
1.321625e-09,3.859375e-03
1.325625e-09,4.015625e-03
1.329625e-09,4.250000e-03
1.333625e-09,4.578125e-03
1.337625e-09,5.265625e-03
1.341625e-09,5.421875e-03
1.345625e-09,5.828125e-03
1.349625e-09,6.500000e-03
1.353625e-09,7.390625e-03
1.357625e-09,7.718750e-03
1.361625e-09,8.343750e-03
1.365625e-09,8.984375e-03
1.369625e-09,9.625000e-03
1.373625e-09,1.025000e-02
1.377625e-09,1.114063e-02
1.381625e-09,1.139063e-02
1.385625e-09,1.179688e-02
1.389625e-09,1.235938e-02
1.393625e-09,1.306250e-02
1.397625e-09,1.310938e-02
1.401625e-09,1.337500e-02
1.405625e-09,1.359375e-02
1.409625e-09,1.371875e-02
1.413625e-09,1.379688e-02
1.417625e-09,1.409375e-02
1.421625e-09,1.371875e-02
1.425625e-09,1.348438e-02
1.429625e-09,1.339063e-02
1.433625e-09,1.345313e-02
1.437625e-09,1.287500e-02
1.441625e-09,1.254688e-02
1.445625e-09,1.218750e-02
1.449625e-09,1.182813e-02
1.453625e-09,1.143750e-02
1.457625e-09,1.134375e-02
1.461625e-09,1.065625e-02
1.465625e-09,1.018750e-02
1.469625e-09,9.921875e-03
1.473625e-09,9.890625e-03
1.477625e-09,9.296875e-03
1.481625e-09,9.046875e-03
1.485625e-09,8.828125e-03
1.489625e-09,8.656250e-03
1.493625e-09,8.531250e-03
1.497625e-09,8.750000e-03
1.501625e-09,8.406250e-03
1.505625e-09,8.328125e-03
1.509625e-09,8.500000e-03
1.513625e-09,8.890625e-03
1.517625e-09,8.734375e-03
1.521625e-09,8.906250e-03
1.525625e-09,9.093750e-03
1.529625e-09,9.312500e-03
1.533625e-09,9.546875e-03
1.537625e-09,1.007813e-02
1.541625e-09,1.001563e-02
1.545625e-09,1.014063e-02
1.549625e-09,1.045313e-02
1.553625e-09,1.093750e-02
1.557625e-09,1.078125e-02
1.561625e-09,1.090625e-02
1.565625e-09,1.098438e-02
1.569625e-09,1.100000e-02
1.573625e-09,1.098438e-02
1.577625e-09,1.121875e-02
1.581625e-09,1.079688e-02
1.585625e-09,1.051563e-02
1.589625e-09,1.037500e-02
1.593625e-09,1.039063e-02
1.597625e-09,9.750000e-03
1.601625e-09,9.375000e-03
1.605625e-09,8.953125e-03
1.609625e-09,8.484375e-03
1.613625e-09,7.984375e-03
1.617625e-09,7.765625e-03
1.621625e-09,6.921875e-03
1.625625e-09,6.265625e-03
1.629625e-09,5.812500e-03
1.633625e-09,5.546875e-03
1.637625e-09,4.703125e-03
1.641625e-09,4.171875e-03
1.645625e-09,3.671875e-03
1.649625e-09,3.187500e-03
1.653625e-09,2.750000e-03
1.657625e-09,2.640625e-03
1.661625e-09,1.984375e-03
1.665625e-09,1.578125e-03
1.669625e-09,1.421875e-03
1.673625e-09,1.531250e-03
1.677625e-09,1.078125e-03
1.681625e-09,9.843750e-04
1.685625e-09,9.531250e-04
1.689625e-09,9.531250e-04
1.693625e-09,1.015625e-03
1.697625e-09,1.421875e-03
1.701625e-09,1.265625e-03
1.705625e-09,1.343750e-03
1.709625e-09,1.671875e-03
1.713625e-09,2.218750e-03
1.717625e-09,2.171875e-03
1.721625e-09,2.437500e-03
1.725625e-09,2.718750e-03
1.729625e-09,3.015625e-03
1.733625e-09,3.296875e-03
1.737625e-09,3.875000e-03
1.741625e-09,3.828125e-03
1.745625e-09,3.968750e-03
1.749625e-09,4.281250e-03
1.753625e-09,4.781250e-03
1.757625e-09,4.640625e-03
