Measurements-streak-laser-independent/Photodiode-on-Tek-6GHz/Tek000_ch1_20190613132708478.csv

Model,MSO64
Waveform Type,ANALOG
Horizontal Units,s
Sample Interval,4.000000e-12
Record Length,1000
Zero Index,310.718750
Vertical Units,V

TIME,CH1
-1.242875e-09,8.500000e-03
-1.238875e-09,8.703125e-03
-1.234875e-09,9.187500e-03
-1.230875e-09,9.046875e-03
-1.226875e-09,9.078125e-03
-1.222875e-09,9.265625e-03
-1.218875e-09,9.625000e-03
-1.214875e-09,9.328125e-03
-1.210875e-09,9.296875e-03
-1.206875e-09,9.218750e-03
-1.202875e-09,9.093750e-03
-1.198875e-09,8.906250e-03
-1.194875e-09,9.000000e-03
-1.190875e-09,8.437500e-03
-1.186875e-09,8.031250e-03
-1.182875e-09,7.781250e-03
-1.178875e-09,7.718750e-03
-1.174875e-09,7.000000e-03
-1.170875e-09,6.578125e-03
-1.166875e-09,6.140625e-03
-1.162875e-09,5.671875e-03
-1.158875e-09,5.203125e-03
-1.154875e-09,5.031250e-03
-1.150875e-09,4.265625e-03
-1.146875e-09,3.703125e-03
-1.142875e-09,3.359375e-03
-1.138875e-09,3.250000e-03
-1.134875e-09,2.546875e-03
-1.130875e-09,2.171875e-03
-1.126875e-09,1.843750e-03
-1.122875e-09,1.531250e-03
-1.118875e-09,1.281250e-03
-1.114875e-09,1.359375e-03
-1.110875e-09,8.750000e-04
-1.106875e-09,6.250000e-04
-1.102875e-09,6.406250e-04
-1.098875e-09,8.906250e-04
-1.094875e-09,5.781250e-04
-1.090875e-09,6.093750e-04
-1.086875e-09,6.718750e-04
-1.082875e-09,7.812500e-04
-1.078875e-09,9.218750e-04
-1.074875e-09,1.406250e-03
-1.070875e-09,1.296875e-03
-1.066875e-09,1.421875e-03
-1.062875e-09,1.765625e-03
-1.058875e-09,2.343750e-03
-1.054875e-09,2.328125e-03
-1.050875e-09,2.625000e-03
-1.046875e-09,2.937500e-03
-1.042875e-09,3.250000e-03
-1.038875e-09,3.562500e-03
-1.034875e-09,4.203125e-03
-1.030875e-09,4.218750e-03
-1.026875e-09,4.437500e-03
-1.022875e-09,4.843750e-03
-1.018875e-09,5.468750e-03
-1.014875e-09,5.468750e-03
-1.010875e-09,5.750000e-03
-1.006875e-09,6.031250e-03
-1.002875e-09,6.296875e-03
-9.988750e-10,6.562500e-03
-9.948750e-10,7.109375e-03
-9.908750e-10,7.031250e-03
-9.868750e-10,7.125000e-03
-9.828750e-10,7.421875e-03
-9.788750e-10,7.890625e-03
-9.748750e-10,7.734375e-03
-9.708750e-10,7.859375e-03
-9.668750e-10,7.968750e-03
-9.628750e-10,8.046875e-03
-9.588750e-10,8.109375e-03
-9.548750e-10,8.437500e-03
-9.508750e-10,8.156250e-03
-9.468750e-10,8.031250e-03
-9.428750e-10,8.109375e-03
-9.388750e-10,8.343750e-03
-9.348750e-10,7.968750e-03
-9.308750e-10,7.859375e-03
-9.268750e-10,7.734375e-03
-9.228750e-10,7.593750e-03
-9.188750e-10,7.453125e-03
-9.148750e-10,7.578125e-03
-9.108750e-10,7.109375e-03
-9.068750e-10,6.828125e-03
-9.028750e-10,6.734375e-03
-8.988750e-10,6.859375e-03
-8.948750e-10,6.375000e-03
-8.908750e-10,6.187500e-03
-8.868750e-10,6.031250e-03
-8.828750e-10,5.875000e-03
-8.788750e-10,5.750000e-03
-8.748750e-10,5.953125e-03
-8.708750e-10,5.562500e-03
-8.668750e-10,5.406250e-03
-8.628750e-10,5.484375e-03
-8.588750e-10,5.796875e-03
-8.548750e-10,5.546875e-03
-8.508750e-10,5.625000e-03
-8.468750e-10,5.734375e-03
-8.428750e-10,5.890625e-03
-8.388750e-10,6.078125e-03
-8.348750e-10,6.593750e-03
-8.308750e-10,6.546875e-03
-8.268750e-10,6.718750e-03
-8.228750e-10,7.109375e-03
-8.188750e-10,7.734375e-03
-8.148750e-10,7.765625e-03
-8.108750e-10,8.109375e-03
-8.068750e-10,8.453125e-03
-8.028750e-10,8.796875e-03
-7.988750e-10,9.125000e-03
-7.948750e-10,9.750000e-03
-7.908750e-10,9.750000e-03
-7.868750e-10,9.937500e-03
-7.828750e-10,1.028125e-02
-7.788750e-10,1.079688e-02
-7.748750e-10,1.067188e-02
-7.708750e-10,1.079688e-02
-7.668750e-10,1.087500e-02
-7.628750e-10,1.092188e-02
-7.588750e-10,1.090625e-02
-7.548750e-10,1.112500e-02
-7.508750e-10,1.070313e-02
-7.468750e-10,1.043750e-02
-7.428750e-10,1.031250e-02
-7.388750e-10,1.034375e-02
-7.348750e-10,9.734375e-03
-7.308750e-10,9.375000e-03
-7.268750e-10,9.000000e-03
-7.228750e-10,8.578125e-03
-7.188750e-10,8.140625e-03
-7.148750e-10,8.000000e-03
-7.108750e-10,7.234375e-03
-7.068750e-10,6.671875e-03
-7.028750e-10,6.312500e-03
-6.988750e-10,6.156250e-03
-6.948750e-10,5.437500e-03
-6.908750e-10,5.031250e-03
-6.868750e-10,4.656250e-03
-6.828750e-10,4.328125e-03
-6.788750e-10,4.046875e-03
-6.748750e-10,4.093750e-03
-6.708750e-10,3.609375e-03
-6.668750e-10,3.359375e-03
-6.628750e-10,3.375000e-03
-6.588750e-10,3.640625e-03
-6.548750e-10,3.359375e-03
-6.508750e-10,3.437500e-03
-6.468750e-10,3.546875e-03
-6.428750e-10,3.734375e-03
-6.388750e-10,3.937500e-03
-6.348750e-10,4.500000e-03
-6.308750e-10,4.484375e-03
-6.268750e-10,4.718750e-03
-6.228750e-10,5.156250e-03
-6.188750e-10,5.812500e-03
-6.148750e-10,5.875000e-03
-6.108750e-10,6.250000e-03
-6.068750e-10,6.609375e-03
-6.028750e-10,6.968750e-03
-5.988750e-10,7.312500e-03
-5.948750e-10,7.921875e-03
-5.908750e-10,7.906250e-03
-5.868750e-10,8.046875e-03
-5.828750e-10,8.359375e-03
-5.788750e-10,8.828125e-03
-5.748750e-10,8.640625e-03
-5.708750e-10,8.703125e-03
-5.668750e-10,8.718750e-03
-5.628750e-10,8.671875e-03
-5.588750e-10,8.578125e-03
-5.548750e-10,8.734375e-03
-5.508750e-10,8.234375e-03
-5.468750e-10,7.875000e-03
-5.428750e-10,7.687500e-03
-5.388750e-10,7.656250e-03
-5.348750e-10,6.984375e-03
-5.308750e-10,6.562500e-03
-5.268750e-10,6.125000e-03
-5.228750e-10,5.671875e-03
-5.188750e-10,5.187500e-03
-5.148750e-10,5.000000e-03
-5.108750e-10,4.187500e-03
-5.068750e-10,3.578125e-03
-5.028750e-10,3.187500e-03
-4.988750e-10,3.000000e-03
-4.948750e-10,2.234375e-03
-4.908750e-10,1.781250e-03
-4.868750e-10,1.343750e-03
-4.828750e-10,9.531250e-04
-4.788750e-10,5.781250e-04
-4.748750e-10,5.468750e-04
-4.708750e-10,-6.250000e-05
-4.668750e-10,-4.062500e-04
-4.628750e-10,-5.312500e-04
-4.588750e-10,-3.906250e-04
-4.548750e-10,-8.125000e-04
-4.508750e-10,-8.906250e-04
-4.468750e-10,-9.531250e-04
-4.428750e-10,-9.531250e-04
-4.388750e-10,-9.218750e-04
-4.348750e-10,-5.468750e-04
-4.308750e-10,-7.500000e-04
-4.268750e-10,-7.031250e-04
-4.228750e-10,-4.218750e-04
-4.188750e-10,7.812500e-05
-4.148750e-10,3.125000e-05
-4.108750e-10,2.968750e-04
-4.068750e-10,5.468750e-04
-4.028750e-10,8.437500e-04
-3.988750e-10,1.140625e-03
-3.948750e-10,1.750000e-03
-3.908750e-10,1.765625e-03
-3.868750e-10,1.984375e-03
-3.828750e-10,2.421875e-03
-3.788750e-10,3.062500e-03
-3.748750e-10,3.109375e-03
-3.708750e-10,3.437500e-03
-3.668750e-10,3.718750e-03
-3.628750e-10,4.000000e-03
-3.588750e-10,4.281250e-03
-3.548750e-10,4.859375e-03
-3.508750e-10,4.796875e-03
-3.468750e-10,4.921875e-03
-3.428750e-10,5.250000e-03
-3.388750e-10,5.734375e-03
-3.348750e-10,5.625000e-03
-3.308750e-10,5.781250e-03
-3.268750e-10,5.875000e-03
-3.228750e-10,5.937500e-03
-3.188750e-10,5.984375e-03
-3.148750e-10,6.312500e-03
-3.108750e-10,6.015625e-03
-3.068750e-10,5.875000e-03
-3.028750e-10,5.937500e-03
-2.988750e-10,6.156250e-03
-2.948750e-10,5.781250e-03
-2.908750e-10,5.671875e-03
-2.868750e-10,5.484375e-03
-2.828750e-10,5.281250e-03
-2.788750e-10,5.078125e-03
-2.748750e-10,5.156250e-03
-2.708750e-10,4.625000e-03
-2.668750e-10,4.250000e-03
-2.628750e-10,4.109375e-03
-2.588750e-10,4.140625e-03
-2.548750e-10,3.593750e-03
-2.508750e-10,3.343750e-03
-2.468750e-10,3.046875e-03
-2.428750e-10,2.718750e-03
-2.388750e-10,2.484375e-03
-2.348750e-10,2.500000e-03
-2.308750e-10,2.000000e-03
-2.268750e-10,1.656250e-03
-2.228750e-10,1.593750e-03
-2.188750e-10,1.718750e-03
-2.148750e-10,1.312500e-03
-2.108750e-10,1.234375e-03
-2.068750e-10,1.140625e-03
-2.028750e-10,1.062500e-03
-1.988750e-10,1.093750e-03
-1.948750e-10,1.406250e-03
-1.908750e-10,1.218750e-03
-1.868750e-10,1.234375e-03
-1.828750e-10,1.515625e-03
-1.788750e-10,2.031250e-03
-1.748750e-10,1.984375e-03
-1.708750e-10,2.281250e-03
-1.668750e-10,2.593750e-03
-1.628750e-10,2.890625e-03
-1.588750e-10,3.312500e-03
-1.548750e-10,3.984375e-03
-1.508750e-10,4.187500e-03
-1.468750e-10,4.546875e-03
-1.428750e-10,5.140625e-03
-1.388750e-10,5.953125e-03
-1.348750e-10,6.187500e-03
-1.308750e-10,6.750000e-03
-1.268750e-10,7.281250e-03
-1.228750e-10,7.796875e-03
-1.188750e-10,8.406250e-03
-1.148750e-10,9.234375e-03
-1.108750e-10,9.593750e-03
-1.068750e-10,1.009375e-02
-1.028750e-10,1.079688e-02
-9.887500e-11,1.173438e-02
-9.487500e-11,1.209375e-02
-9.087500e-11,1.275000e-02
-8.687500e-11,1.342188e-02
-8.287500e-11,1.410938e-02
-7.887500e-11,1.487500e-02
-7.487500e-11,1.592188e-02
-7.087500e-11,1.653125e-02
-6.687500e-11,1.732813e-02
-6.287500e-11,1.835938e-02
-5.887500e-11,1.970313e-02
-5.487500e-11,2.053125e-02
-5.087500e-11,2.170313e-02
-4.687500e-11,2.296875e-02
-4.287500e-11,2.432813e-02
-3.887500e-11,2.584375e-02
-3.487500e-11,2.773438e-02
-3.087500e-11,2.926563e-02
-2.687500e-11,3.107813e-02
-2.287500e-11,3.317188e-02
-1.887500e-11,3.564063e-02
-1.487500e-11,3.771875e-02
-1.087500e-11,4.017188e-02
-6.875000e-12,4.279688e-02
-2.875000e-12,4.557813e-02
1.125000e-12,4.853125e-02
5.125000e-12,5.193750e-02
9.125000e-12,5.501563e-02
1.312500e-11,5.837500e-02
1.712500e-11,6.203125e-02
2.112500e-11,6.606250e-02
2.512500e-11,6.971875e-02
2.912500e-11,7.370313e-02
3.312500e-11,7.782813e-02
3.712500e-11,8.209375e-02
4.112500e-11,8.643750e-02
4.512500e-11,9.120313e-02
4.912500e-11,9.556250e-02
5.312500e-11,1.001406e-01
5.712500e-11,1.049063e-01
6.112500e-11,1.099219e-01
6.512500e-11,1.145000e-01
6.912500e-11,1.192969e-01
7.312500e-11,1.241250e-01
7.712500e-11,1.289531e-01
8.112500e-11,1.337500e-01
8.512500e-11,1.388281e-01
8.912500e-11,1.433906e-01
9.312500e-11,1.480313e-01
9.712500e-11,1.527344e-01
1.011250e-10,1.575625e-01
1.051250e-10,1.618281e-01
1.091250e-10,1.661875e-01
1.131250e-10,1.704375e-01
1.171250e-10,1.745938e-01
1.211250e-10,1.785938e-01
1.251250e-10,1.827344e-01
1.291250e-10,1.862500e-01
1.331250e-10,1.897656e-01
1.371250e-10,1.932188e-01
1.411250e-10,1.966719e-01
1.451250e-10,1.995156e-01
1.491250e-10,2.023438e-01
1.531250e-10,2.050000e-01
1.571250e-10,2.074531e-01
1.611250e-10,2.096875e-01
1.651250e-10,2.119688e-01
1.691250e-10,2.136094e-01
1.731250e-10,2.151563e-01
1.771250e-10,2.166094e-01
1.811250e-10,2.180000e-01
1.851250e-10,2.187344e-01
1.891250e-10,2.194688e-01
1.931250e-10,2.199688e-01
1.971250e-10,2.202656e-01
2.011250e-10,2.203438e-01
2.051250e-10,2.204219e-01
2.091250e-10,2.198906e-01
2.131250e-10,2.192813e-01
2.171250e-10,2.185938e-01
2.211250e-10,2.178594e-01
2.251250e-10,2.165000e-01
2.291250e-10,2.152031e-01
2.331250e-10,2.137188e-01
2.371250e-10,2.120781e-01
2.411250e-10,2.102969e-01
2.451250e-10,2.085625e-01
2.491250e-10,2.062969e-01
2.531250e-10,2.040625e-01
2.571250e-10,2.018125e-01
2.611250e-10,1.996094e-01
2.651250e-10,1.968750e-01
2.691250e-10,1.943125e-01
2.731250e-10,1.916719e-01
2.771250e-10,1.889688e-01
2.811250e-10,1.862344e-01
2.851250e-10,1.836406e-01
2.891250e-10,1.805938e-01
2.931250e-10,1.776875e-01
2.971250e-10,1.748750e-01
3.011250e-10,1.721875e-01
3.051250e-10,1.690313e-01
3.091250e-10,1.661563e-01
3.131250e-10,1.632656e-01
3.171250e-10,1.603906e-01
3.211250e-10,1.575313e-01
3.251250e-10,1.548594e-01
3.291250e-10,1.517656e-01
3.331250e-10,1.488594e-01
3.371250e-10,1.460625e-01
3.411250e-10,1.434375e-01
3.451250e-10,1.403438e-01
3.491250e-10,1.375469e-01
3.531250e-10,1.347188e-01
3.571250e-10,1.319375e-01
3.611250e-10,1.291563e-01
3.651250e-10,1.265781e-01
3.691250e-10,1.235156e-01
3.731250e-10,1.206719e-01
3.771250e-10,1.179219e-01
3.811250e-10,1.153125e-01
3.851250e-10,1.122500e-01
3.891250e-10,1.094688e-01
3.931250e-10,1.066719e-01
3.971250e-10,1.039063e-01
4.011250e-10,1.011563e-01
4.051250e-10,9.862500e-02
4.091250e-10,9.559375e-02
4.131250e-10,9.282813e-02
4.171250e-10,9.018750e-02
4.211250e-10,8.770313e-02
4.251250e-10,8.481250e-02
4.291250e-10,8.221875e-02
4.331250e-10,7.968750e-02
4.371250e-10,7.721875e-02
4.411250e-10,7.481250e-02
4.451250e-10,7.268750e-02
4.491250e-10,7.010938e-02
4.531250e-10,6.782813e-02
4.571250e-10,6.575000e-02
4.611250e-10,6.387500e-02
4.651250e-10,6.164063e-02
4.691250e-10,5.971875e-02
4.731250e-10,5.792188e-02
4.771250e-10,5.621875e-02
4.811250e-10,5.457813e-02
4.851250e-10,5.328125e-02
4.891250e-10,5.150000e-02
4.931250e-10,5.003125e-02
4.971250e-10,4.879688e-02
5.011250e-10,4.773438e-02
5.051250e-10,4.629688e-02
5.091250e-10,4.514063e-02
5.131250e-10,4.410938e-02
5.171250e-10,4.310938e-02
5.211250e-10,4.212500e-02
5.251250e-10,4.146875e-02
5.291250e-10,4.026563e-02
5.331250e-10,3.929688e-02
5.371250e-10,3.854688e-02
5.411250e-10,3.793750e-02
5.451250e-10,3.685938e-02
5.491250e-10,3.603125e-02
5.531250e-10,3.528125e-02
5.571250e-10,3.450000e-02
5.611250e-10,3.371875e-02
5.651250e-10,3.320313e-02
5.691250e-10,3.212500e-02
5.731250e-10,3.125000e-02
5.771250e-10,3.057813e-02
5.811250e-10,3.004688e-02
5.851250e-10,2.903125e-02
5.891250e-10,2.825000e-02
5.931250e-10,2.756250e-02
5.971250e-10,2.687500e-02
6.011250e-10,2.615625e-02
6.051250e-10,2.573438e-02
6.091250e-10,2.476563e-02
6.131250e-10,2.403125e-02
6.171250e-10,2.353125e-02
6.211250e-10,2.318750e-02
6.251250e-10,2.237500e-02
6.291250e-10,2.181250e-02
6.331250e-10,2.137500e-02
6.371250e-10,2.092188e-02
6.411250e-10,2.046875e-02
6.451250e-10,2.029688e-02
6.491250e-10,1.960938e-02
6.531250e-10,1.910938e-02
6.571250e-10,1.884375e-02
6.611250e-10,1.875000e-02
6.651250e-10,1.812500e-02
6.691250e-10,1.775000e-02
6.731250e-10,1.743750e-02
6.771250e-10,1.707813e-02
6.811250e-10,1.667188e-02
6.851250e-10,1.653125e-02
6.891250e-10,1.579688e-02
6.931250e-10,1.521875e-02
6.971250e-10,1.482813e-02
7.011250e-10,1.457813e-02
7.051250e-10,1.373438e-02
7.091250e-10,1.312500e-02
7.131250e-10,1.251563e-02
7.171250e-10,1.187500e-02
7.211250e-10,1.114063e-02
7.251250e-10,1.068750e-02
7.291250e-10,9.625000e-03
7.331250e-10,8.750000e-03
7.371250e-10,8.062500e-03
7.411250e-10,7.562500e-03
7.451250e-10,6.484375e-03
7.491250e-10,5.703125e-03
7.531250e-10,4.968750e-03
7.571250e-10,4.250000e-03
7.611250e-10,3.546875e-03
7.651250e-10,3.156250e-03
7.691250e-10,2.265625e-03
7.731250e-10,1.609375e-03
7.771250e-10,1.250000e-03
7.811250e-10,1.156250e-03
7.851250e-10,5.468750e-04
7.891250e-10,3.125000e-04
7.931250e-10,2.031250e-04
7.971250e-10,1.718750e-04
8.011250e-10,1.875000e-04
8.051250e-10,6.093750e-04
8.091250e-10,5.312500e-04
8.131250e-10,7.187500e-04
8.171250e-10,1.218750e-03
8.211250e-10,1.968750e-03
8.251250e-10,2.218750e-03
8.291250e-10,2.812500e-03
8.331250e-10,3.468750e-03
8.371250e-10,4.156250e-03
8.411250e-10,4.875000e-03
8.451250e-10,5.890625e-03
8.491250e-10,6.343750e-03
8.531250e-10,6.984375e-03
8.571250e-10,7.828125e-03
8.611250e-10,8.859375e-03
8.651250e-10,9.250000e-03
8.691250e-10,9.906250e-03
8.731250e-10,1.053125e-02
8.771250e-10,1.109375e-02
8.811250e-10,1.157813e-02
8.851250e-10,1.229688e-02
8.891250e-10,1.235938e-02
8.931250e-10,1.254688e-02
8.971250e-10,1.285938e-02
9.011250e-10,1.331250e-02
9.051250e-10,1.309375e-02
9.091250e-10,1.309375e-02
9.131250e-10,1.303125e-02
9.171250e-10,1.292188e-02
9.211250e-10,1.275000e-02
9.251250e-10,1.281250e-02
9.291250e-10,1.225000e-02
9.331250e-10,1.184375e-02
9.371250e-10,1.160938e-02
9.411250e-10,1.156250e-02
9.451250e-10,1.090625e-02
9.491250e-10,1.053125e-02
9.531250e-10,1.015625e-02
9.571250e-10,9.812500e-03
9.611250e-10,9.453125e-03
9.651250e-10,9.406250e-03
9.691250e-10,8.796875e-03
9.731250e-10,8.406250e-03
9.771250e-10,8.250000e-03
9.811250e-10,8.328125e-03
9.851250e-10,7.843750e-03
9.891250e-10,7.671875e-03
9.931250e-10,7.546875e-03
9.971250e-10,7.437500e-03
1.001125e-09,7.359375e-03
1.005125e-09,7.593750e-03
1.009125e-09,7.265625e-03
1.013125e-09,7.140625e-03
1.017125e-09,7.234375e-03
1.021125e-09,7.546875e-03
1.025125e-09,7.250000e-03
1.029125e-09,7.265625e-03
1.033125e-09,7.265625e-03
1.037125e-09,7.281250e-03
1.041125e-09,7.265625e-03
1.045125e-09,7.546875e-03
1.049125e-09,7.234375e-03
1.053125e-09,7.093750e-03
1.057125e-09,7.140625e-03
1.061125e-09,7.390625e-03
1.065125e-09,7.031250e-03
1.069125e-09,6.953125e-03
1.073125e-09,6.875000e-03
1.077125e-09,6.796875e-03
1.081125e-09,6.703125e-03
1.085125e-09,6.937500e-03
1.089125e-09,6.562500e-03
1.093125e-09,6.406250e-03
1.097125e-09,6.453125e-03
1.101125e-09,6.750000e-03
1.105125e-09,6.437500e-03
1.109125e-09,6.468750e-03
1.113125e-09,6.531250e-03
1.117125e-09,6.625000e-03
1.121125e-09,6.750000e-03
1.125125e-09,7.218750e-03
1.129125e-09,7.093750e-03
1.133125e-09,7.234375e-03
1.137125e-09,7.593750e-03
1.141125e-09,8.187500e-03
1.145125e-09,8.203125e-03
1.149125e-09,8.546875e-03
1.153125e-09,8.921875e-03
1.157125e-09,9.296875e-03
1.161125e-09,9.687500e-03
1.165125e-09,1.039063e-02
1.169125e-09,1.048438e-02
1.173125e-09,1.078125e-02
1.177125e-09,1.126563e-02
1.181125e-09,1.192188e-02
1.185125e-09,1.195313e-02
1.189125e-09,1.226563e-02
1.193125e-09,1.253125e-02
1.197125e-09,1.276563e-02
1.201125e-09,1.295313e-02
1.205125e-09,1.340625e-02
1.209125e-09,1.320313e-02
1.213125e-09,1.314063e-02
1.217125e-09,1.323438e-02
1.221125e-09,1.346875e-02
1.225125e-09,1.306250e-02
1.229125e-09,1.290625e-02
1.233125e-09,1.268750e-02
1.237125e-09,1.245313e-02
1.241125e-09,1.215625e-02
1.245125e-09,1.214063e-02
1.249125e-09,1.150000e-02
1.253125e-09,1.101563e-02
1.257125e-09,1.071875e-02
1.261125e-09,1.062500e-02
1.265125e-09,9.906250e-03
1.269125e-09,9.500000e-03
1.273125e-09,9.093750e-03
1.277125e-09,8.687500e-03
1.281125e-09,8.312500e-03
1.285125e-09,8.250000e-03
1.289125e-09,7.609375e-03
1.293125e-09,7.187500e-03
1.297125e-09,7.000000e-03
1.301125e-09,7.046875e-03
1.305125e-09,6.531250e-03
1.309125e-09,6.343750e-03
1.313125e-09,6.203125e-03
1.317125e-09,6.078125e-03
1.321125e-09,6.000000e-03
1.325125e-09,6.250000e-03
1.329125e-09,5.921875e-03
1.333125e-09,5.828125e-03
1.337125e-09,5.953125e-03
1.341125e-09,6.312500e-03
1.345125e-09,6.078125e-03
1.349125e-09,6.171875e-03
1.353125e-09,6.281250e-03
1.357125e-09,6.390625e-03
1.361125e-09,6.515625e-03
1.365125e-09,6.937500e-03
1.369125e-09,6.765625e-03
1.373125e-09,6.781250e-03
1.377125e-09,7.015625e-03
1.381125e-09,7.437500e-03
1.385125e-09,7.250000e-03
1.389125e-09,7.359375e-03
1.393125e-09,7.453125e-03
1.397125e-09,7.546875e-03
1.401125e-09,7.640625e-03
1.405125e-09,8.015625e-03
1.409125e-09,7.781250e-03
1.413125e-09,7.750000e-03
1.417125e-09,7.890625e-03
1.421125e-09,8.250000e-03
1.425125e-09,7.984375e-03
1.429125e-09,8.015625e-03
1.433125e-09,8.046875e-03
1.437125e-09,8.062500e-03
1.441125e-09,8.078125e-03
1.445125e-09,8.390625e-03
1.449125e-09,8.093750e-03
1.453125e-09,8.000000e-03
1.457125e-09,8.093750e-03
1.461125e-09,8.375000e-03
1.465125e-09,8.062500e-03
1.469125e-09,8.031250e-03
1.473125e-09,7.984375e-03
1.477125e-09,7.937500e-03
1.481125e-09,7.890625e-03
1.485125e-09,8.125000e-03
1.489125e-09,7.734375e-03
1.493125e-09,7.546875e-03
1.497125e-09,7.546875e-03
1.501125e-09,7.718750e-03
1.505125e-09,7.281250e-03
1.509125e-09,7.140625e-03
1.513125e-09,6.984375e-03
1.517125e-09,6.812500e-03
1.521125e-09,6.625000e-03
1.525125e-09,6.734375e-03
1.529125e-09,6.218750e-03
1.533125e-09,5.906250e-03
1.537125e-09,5.796875e-03
1.541125e-09,5.875000e-03
1.545125e-09,5.359375e-03
1.549125e-09,5.140625e-03
1.553125e-09,4.937500e-03
1.557125e-09,4.718750e-03
1.561125e-09,4.531250e-03
1.565125e-09,4.656250e-03
1.569125e-09,4.171875e-03
1.573125e-09,3.921875e-03
1.577125e-09,3.890625e-03
1.581125e-09,4.078125e-03
1.585125e-09,3.687500e-03
1.589125e-09,3.625000e-03
1.593125e-09,3.578125e-03
1.597125e-09,3.546875e-03
1.601125e-09,3.546875e-03
1.605125e-09,3.875000e-03
1.609125e-09,3.609375e-03
1.613125e-09,3.578125e-03
1.617125e-09,3.750000e-03
1.621125e-09,4.156250e-03
1.625125e-09,3.953125e-03
1.629125e-09,4.078125e-03
1.633125e-09,4.218750e-03
1.637125e-09,4.343750e-03
1.641125e-09,4.484375e-03
1.645125e-09,4.937500e-03
1.649125e-09,4.765625e-03
1.653125e-09,4.796875e-03
1.657125e-09,5.031250e-03
1.661125e-09,5.453125e-03
1.665125e-09,5.250000e-03
1.669125e-09,5.359375e-03
1.673125e-09,5.437500e-03
1.677125e-09,5.515625e-03
1.681125e-09,5.593750e-03
1.685125e-09,5.937500e-03
1.689125e-09,5.671875e-03
1.693125e-09,5.593750e-03
1.697125e-09,5.718750e-03
1.701125e-09,6.031250e-03
1.705125e-09,5.718750e-03
1.709125e-09,5.718750e-03
1.713125e-09,5.718750e-03
1.717125e-09,5.703125e-03
1.721125e-09,5.687500e-03
1.725125e-09,5.968750e-03
1.729125e-09,5.656250e-03
1.733125e-09,5.546875e-03
1.737125e-09,5.640625e-03
1.741125e-09,5.937500e-03
1.745125e-09,5.640625e-03
1.749125e-09,5.640625e-03
1.753125e-09,5.640625e-03
1.757125e-09,5.656250e-03
