Measurements-streak-laser-independent/Photodiode-on-Tek-6GHz/Tek000_ch1_20190613132829511.csv

Model,MSO64
Waveform Type,ANALOG
Horizontal Units,s
Sample Interval,4.000000e-12
Record Length,1000
Zero Index,310.156250
Vertical Units,V

TIME,CH1
-1.240625e-09,2.296875e-03
-1.236625e-09,2.031250e-03
-1.232625e-09,1.796875e-03
-1.228625e-09,1.843750e-03
-1.224625e-09,1.296875e-03
-1.220625e-09,9.687500e-04
-1.216625e-09,8.593750e-04
-1.212625e-09,9.531250e-04
-1.208625e-09,4.843750e-04
-1.204625e-09,3.281250e-04
-1.200625e-09,1.875000e-04
-1.196625e-09,9.375000e-05
-1.192625e-09,1.562500e-05
-1.188625e-09,2.812500e-04
-1.184625e-09,-3.125000e-05
-1.180625e-09,-1.093750e-04
-1.176625e-09,4.687500e-05
-1.172625e-09,4.375000e-04
-1.168625e-09,2.343750e-04
-1.164625e-09,3.750000e-04
-1.160625e-09,5.468750e-04
-1.156625e-09,7.343750e-04
-1.152625e-09,9.375000e-04
-1.148625e-09,1.453125e-03
-1.144625e-09,1.375000e-03
-1.140625e-09,1.515625e-03
-1.136625e-09,1.843750e-03
-1.132625e-09,2.390625e-03
-1.128625e-09,2.312500e-03
-1.124625e-09,2.515625e-03
-1.120625e-09,2.718750e-03
-1.116625e-09,2.906250e-03
-1.112625e-09,3.062500e-03
-1.108625e-09,3.500000e-03
-1.104625e-09,3.296875e-03
-1.100625e-09,3.265625e-03
-1.096625e-09,3.406250e-03
-1.092625e-09,3.734375e-03
-1.088625e-09,3.390625e-03
-1.084625e-09,3.343750e-03
-1.080625e-09,3.250000e-03
-1.076625e-09,3.125000e-03
-1.072625e-09,2.968750e-03
-1.068625e-09,3.093750e-03
-1.064625e-09,2.578125e-03
-1.060625e-09,2.250000e-03
-1.056625e-09,2.109375e-03
-1.052625e-09,2.156250e-03
-1.048625e-09,1.578125e-03
-1.044625e-09,1.296875e-03
-1.040625e-09,1.015625e-03
-1.036625e-09,7.500000e-04
-1.032625e-09,4.687500e-04
-1.028625e-09,5.156250e-04
-1.024625e-09,-3.125000e-05
-1.020625e-09,-3.750000e-04
-1.016625e-09,-4.843750e-04
-1.012625e-09,-3.593750e-04
-1.008625e-09,-8.281250e-04
-1.004625e-09,-9.531250e-04
-1.000625e-09,-1.046875e-03
-9.966250e-10,-1.125000e-03
-9.926250e-10,-1.156250e-03
-9.886250e-10,-8.593750e-04
-9.846250e-10,-1.140625e-03
-9.806250e-10,-1.171875e-03
-9.766250e-10,-9.843750e-04
-9.726250e-10,-5.625000e-04
-9.686250e-10,-7.187500e-04
-9.646250e-10,-5.312500e-04
-9.606250e-10,-3.437500e-04
-9.566250e-10,-1.093750e-04
-9.526250e-10,1.250000e-04
-9.486250e-10,6.875000e-04
-9.446250e-10,6.562500e-04
-9.406250e-10,8.281250e-04
-9.366250e-10,1.218750e-03
-9.326250e-10,1.812500e-03
-9.286250e-10,1.812500e-03
-9.246250e-10,2.109375e-03
-9.206250e-10,2.406250e-03
-9.166250e-10,2.687500e-03
-9.126250e-10,2.968750e-03
-9.086250e-10,3.546875e-03
-9.046250e-10,3.500000e-03
-9.006250e-10,3.640625e-03
-8.966250e-10,3.968750e-03
-8.926250e-10,4.484375e-03
-8.886250e-10,4.375000e-03
-8.846250e-10,4.562500e-03
-8.806250e-10,4.718750e-03
-8.766250e-10,4.875000e-03
-8.726250e-10,5.000000e-03
-8.686250e-10,5.406250e-03
-8.646250e-10,5.187500e-03
-8.606250e-10,5.171875e-03
-8.566250e-10,5.328125e-03
-8.526250e-10,5.671875e-03
-8.486250e-10,5.390625e-03
-8.446250e-10,5.406250e-03
-8.406250e-10,5.390625e-03
-8.366250e-10,5.390625e-03
-8.326250e-10,5.359375e-03
-8.286250e-10,5.625000e-03
-8.246250e-10,5.281250e-03
-8.206250e-10,5.140625e-03
-8.166250e-10,5.187500e-03
-8.126250e-10,5.437500e-03
-8.086250e-10,5.078125e-03
-8.046250e-10,5.031250e-03
-8.006250e-10,4.968750e-03
-7.966250e-10,4.937500e-03
-7.926250e-10,4.890625e-03
-7.886250e-10,5.156250e-03
-7.846250e-10,4.828125e-03
-7.806250e-10,4.703125e-03
-7.766250e-10,4.781250e-03
-7.726250e-10,5.093750e-03
-7.686250e-10,4.796875e-03
-7.646250e-10,4.812500e-03
-7.606250e-10,4.843750e-03
-7.566250e-10,4.890625e-03
-7.526250e-10,4.937500e-03
-7.486250e-10,5.312500e-03
-7.446250e-10,5.078125e-03
-7.406250e-10,5.062500e-03
-7.366250e-10,5.250000e-03
-7.326250e-10,5.640625e-03
-7.286250e-10,5.437500e-03
-7.246250e-10,5.531250e-03
-7.206250e-10,5.640625e-03
-7.166250e-10,5.734375e-03
-7.126250e-10,5.828125e-03
-7.086250e-10,6.218750e-03
-7.046250e-10,6.000000e-03
-7.006250e-10,5.968750e-03
-6.966250e-10,6.125000e-03
-6.926250e-10,6.468750e-03
-6.886250e-10,6.203125e-03
-6.846250e-10,6.218750e-03
-6.806250e-10,6.203125e-03
-6.766250e-10,6.187500e-03
-6.726250e-10,6.156250e-03
-6.686250e-10,6.390625e-03
-6.646250e-10,6.015625e-03
-6.606250e-10,5.828125e-03
-6.566250e-10,5.812500e-03
-6.526250e-10,6.000000e-03
-6.486250e-10,5.546875e-03
-6.446250e-10,5.406250e-03
-6.406250e-10,5.250000e-03
-6.366250e-10,5.078125e-03
-6.326250e-10,4.906250e-03
-6.286250e-10,5.031250e-03
-6.246250e-10,4.546875e-03
-6.206250e-10,4.281250e-03
-6.166250e-10,4.218750e-03
-6.126250e-10,4.359375e-03
-6.086250e-10,3.906250e-03
-6.046250e-10,3.781250e-03
-6.006250e-10,3.656250e-03
-5.966250e-10,3.562500e-03
-5.926250e-10,3.484375e-03
-5.886250e-10,3.718750e-03
-5.846250e-10,3.375000e-03
-5.806250e-10,3.250000e-03
-5.766250e-10,3.359375e-03
-5.726250e-10,3.687500e-03
-5.686250e-10,3.421875e-03
-5.646250e-10,3.468750e-03
-5.606250e-10,3.531250e-03
-5.566250e-10,3.625000e-03
-5.526250e-10,3.718750e-03
-5.486250e-10,4.109375e-03
-5.446250e-10,3.921875e-03
-5.406250e-10,3.921875e-03
-5.366250e-10,4.125000e-03
-5.326250e-10,4.531250e-03
-5.286250e-10,4.312500e-03
-5.246250e-10,4.390625e-03
-5.206250e-10,4.453125e-03
-5.166250e-10,4.500000e-03
-5.126250e-10,4.531250e-03
-5.086250e-10,4.859375e-03
-5.046250e-10,4.531250e-03
-5.006250e-10,4.406250e-03
-4.966250e-10,4.453125e-03
-4.926250e-10,4.671875e-03
-4.886250e-10,4.281250e-03
-4.846250e-10,4.171875e-03
-4.806250e-10,4.031250e-03
-4.766250e-10,3.890625e-03
-4.726250e-10,3.734375e-03
-4.686250e-10,3.875000e-03
-4.646250e-10,3.406250e-03
-4.606250e-10,3.140625e-03
-4.566250e-10,3.093750e-03
-4.526250e-10,3.250000e-03
-4.486250e-10,2.828125e-03
-4.446250e-10,2.718750e-03
-4.406250e-10,2.625000e-03
-4.366250e-10,2.562500e-03
-4.326250e-10,2.531250e-03
-4.286250e-10,2.843750e-03
-4.246250e-10,2.578125e-03
-4.206250e-10,2.562500e-03
-4.166250e-10,2.796875e-03
-4.126250e-10,3.265625e-03
-4.086250e-10,3.187500e-03
-4.046250e-10,3.437500e-03
-4.006250e-10,3.687500e-03
-3.966250e-10,3.984375e-03
-3.926250e-10,4.312500e-03
-3.886250e-10,4.984375e-03
-3.846250e-10,5.062500e-03
-3.806250e-10,5.359375e-03
-3.766250e-10,5.875000e-03
-3.726250e-10,6.593750e-03
-3.686250e-10,6.718750e-03
-3.646250e-10,7.125000e-03
-3.606250e-10,7.484375e-03
-3.566250e-10,7.843750e-03
-3.526250e-10,8.156250e-03
-3.486250e-10,8.765625e-03
-3.446250e-10,8.718750e-03
-3.406250e-10,8.828125e-03
-3.366250e-10,9.125000e-03
-3.326250e-10,9.546875e-03
-3.286250e-10,9.343750e-03
-3.246250e-10,9.390625e-03
-3.206250e-10,9.343750e-03
-3.166250e-10,9.234375e-03
-3.126250e-10,9.109375e-03
-3.086250e-10,9.234375e-03
-3.046250e-10,8.718750e-03
-3.006250e-10,8.359375e-03
-2.966250e-10,8.203125e-03
-2.926250e-10,8.203125e-03
-2.886250e-10,7.609375e-03
-2.846250e-10,7.312500e-03
-2.806250e-10,6.953125e-03
-2.766250e-10,6.562500e-03
-2.726250e-10,6.265625e-03
-2.686250e-10,6.234375e-03
-2.646250e-10,5.656250e-03
-2.606250e-10,5.281250e-03
-2.566250e-10,5.203125e-03
-2.526250e-10,5.312500e-03
-2.486250e-10,4.921875e-03
-2.446250e-10,4.875000e-03
-2.406250e-10,4.812500e-03
-2.366250e-10,4.781250e-03
-2.326250e-10,4.875000e-03
-2.286250e-10,5.250000e-03
-2.246250e-10,5.156250e-03
-2.206250e-10,5.250000e-03
-2.166250e-10,5.625000e-03
-2.126250e-10,6.203125e-03
-2.086250e-10,6.250000e-03
-2.046250e-10,6.609375e-03
-2.006250e-10,6.937500e-03
-1.966250e-10,7.250000e-03
-1.926250e-10,7.640625e-03
-1.886250e-10,8.250000e-03
-1.846250e-10,8.328125e-03
-1.806250e-10,8.531250e-03
-1.766250e-10,8.937500e-03
-1.726250e-10,9.484375e-03
-1.686250e-10,9.406250e-03
-1.646250e-10,9.593750e-03
-1.606250e-10,9.687500e-03
-1.566250e-10,9.687500e-03
-1.526250e-10,9.734375e-03
-1.486250e-10,9.937500e-03
-1.446250e-10,9.625000e-03
-1.406250e-10,9.359375e-03
-1.366250e-10,9.281250e-03
-1.326250e-10,9.375000e-03
-1.286250e-10,8.843750e-03
-1.246250e-10,8.578125e-03
-1.206250e-10,8.281250e-03
-1.166250e-10,7.953125e-03
-1.126250e-10,7.703125e-03
-1.086250e-10,7.703125e-03
-1.046250e-10,7.281250e-03
-1.006250e-10,7.000000e-03
-9.662500e-11,6.984375e-03
-9.262500e-11,7.281250e-03
-8.862500e-11,7.046875e-03
-8.462500e-11,7.203125e-03
-8.062500e-11,7.453125e-03
-7.662500e-11,7.812500e-03
-7.262500e-11,8.359375e-03
-6.862500e-11,9.296875e-03
-6.462500e-11,9.921875e-03
-6.062500e-11,1.082813e-02
-5.662500e-11,1.206250e-02
-5.262500e-11,1.371875e-02
-4.862500e-11,1.498438e-02
-4.462500e-11,1.667188e-02
-4.062500e-11,1.854688e-02
-3.662500e-11,2.060938e-02
-3.262500e-11,2.287500e-02
-2.862500e-11,2.560938e-02
-2.462500e-11,2.803125e-02
-2.062500e-11,3.078125e-02
-1.662500e-11,3.384375e-02
-1.262500e-11,3.731250e-02
-8.625000e-12,4.040625e-02
-4.625000e-12,4.387500e-02
-6.250000e-13,4.750000e-02
3.375000e-12,5.128125e-02
7.375000e-12,5.520313e-02
1.137500e-11,5.956250e-02
1.537500e-11,6.354688e-02
1.937500e-11,6.779688e-02
2.337500e-11,7.226563e-02
2.737500e-11,7.707813e-02
3.137500e-11,8.146875e-02
3.537500e-11,8.614063e-02
3.937500e-11,9.090625e-02
4.337500e-11,9.575000e-02
4.737500e-11,1.006563e-01
5.137500e-11,1.059219e-01
5.537500e-11,1.107500e-01
5.937500e-11,1.157500e-01
6.337500e-11,1.209063e-01
6.737500e-11,1.262969e-01
7.137500e-11,1.312344e-01
7.537500e-11,1.363438e-01
7.937500e-11,1.414688e-01
8.337500e-11,1.465938e-01
8.737500e-11,1.516719e-01
9.137500e-11,1.570156e-01
9.537500e-11,1.618594e-01
9.937500e-11,1.667656e-01
1.033750e-10,1.717188e-01
1.073750e-10,1.767813e-01
1.113750e-10,1.813125e-01
1.153750e-10,1.859063e-01
1.193750e-10,1.903750e-01
1.233750e-10,1.947500e-01
1.273750e-10,1.989375e-01
1.313750e-10,2.032656e-01
1.353750e-10,2.069844e-01
1.393750e-10,2.106563e-01
1.433750e-10,2.142344e-01
1.473750e-10,2.177969e-01
1.513750e-10,2.207344e-01
1.553750e-10,2.236406e-01
1.593750e-10,2.263125e-01
1.633750e-10,2.287813e-01
1.673750e-10,2.310000e-01
1.713750e-10,2.332500e-01
1.753750e-10,2.348281e-01
1.793750e-10,2.363125e-01
1.833750e-10,2.376563e-01
1.873750e-10,2.389375e-01
1.913750e-10,2.395781e-01
1.953750e-10,2.401875e-01
1.993750e-10,2.405625e-01
2.033750e-10,2.407500e-01
2.073750e-10,2.407188e-01
2.113750e-10,2.407031e-01
2.153750e-10,2.401094e-01
2.193750e-10,2.394531e-01
2.233750e-10,2.387344e-01
2.273750e-10,2.380156e-01
2.313750e-10,2.366875e-01
2.353750e-10,2.354688e-01
2.393750e-10,2.340938e-01
2.433750e-10,2.326094e-01
2.473750e-10,2.310000e-01
2.513750e-10,2.294531e-01
2.553750e-10,2.274219e-01
2.593750e-10,2.254375e-01
2.633750e-10,2.234375e-01
2.673750e-10,2.215156e-01
2.713750e-10,2.190469e-01
2.753750e-10,2.167656e-01
2.793750e-10,2.143750e-01
2.833750e-10,2.119063e-01
2.873750e-10,2.093750e-01
2.913750e-10,2.069375e-01
2.953750e-10,2.040000e-01
2.993750e-10,2.011719e-01
3.033750e-10,1.983281e-01
3.073750e-10,1.955625e-01
3.113750e-10,1.922656e-01
3.153750e-10,1.891719e-01
3.193750e-10,1.859531e-01
3.233750e-10,1.826875e-01
3.273750e-10,1.793438e-01
3.313750e-10,1.761094e-01
3.353750e-10,1.723594e-01
3.393750e-10,1.687344e-01
3.433750e-10,1.651250e-01
3.473750e-10,1.616250e-01
3.513750e-10,1.575938e-01
3.553750e-10,1.538125e-01
3.593750e-10,1.499688e-01
3.633750e-10,1.461250e-01
3.673750e-10,1.422813e-01
3.713750e-10,1.385938e-01
3.753750e-10,1.344531e-01
3.793750e-10,1.305313e-01
3.833750e-10,1.267188e-01
3.873750e-10,1.230781e-01
3.913750e-10,1.190313e-01
3.953750e-10,1.153281e-01
3.993750e-10,1.116563e-01
4.033750e-10,1.080781e-01
4.073750e-10,1.045938e-01
4.113750e-10,1.014063e-01
4.153750e-10,9.781250e-02
4.193750e-10,9.453125e-02
4.233750e-10,9.146875e-02
4.273750e-10,8.862500e-02
4.313750e-10,8.546875e-02
4.353750e-10,8.267188e-02
4.393750e-10,8.000000e-02
4.433750e-10,7.745313e-02
4.473750e-10,7.501563e-02
4.513750e-10,7.292188e-02
4.553750e-10,7.039063e-02
4.593750e-10,6.818750e-02
4.633750e-10,6.623438e-02
4.673750e-10,6.446875e-02
4.713750e-10,6.237500e-02
4.753750e-10,6.059375e-02
4.793750e-10,5.893750e-02
4.833750e-10,5.734375e-02
4.873750e-10,5.581250e-02
4.913750e-10,5.460938e-02
4.953750e-10,5.292188e-02
4.993750e-10,5.150000e-02
5.033750e-10,5.031250e-02
5.073750e-10,4.926563e-02
5.113750e-10,4.785938e-02
5.153750e-10,4.670313e-02
5.193750e-10,4.567188e-02
5.233750e-10,4.467188e-02
5.273750e-10,4.368750e-02
5.313750e-10,4.303125e-02
5.353750e-10,4.185938e-02
5.393750e-10,4.095313e-02
5.433750e-10,4.028125e-02
5.473750e-10,3.975000e-02
5.513750e-10,3.884375e-02
5.553750e-10,3.818750e-02
5.593750e-10,3.765625e-02
5.633750e-10,3.715625e-02
5.673750e-10,3.667188e-02
5.713750e-10,3.650000e-02
5.753750e-10,3.581250e-02
5.793750e-10,3.535938e-02
5.833750e-10,3.515625e-02
5.873750e-10,3.507813e-02
5.913750e-10,3.456250e-02
5.953750e-10,3.429688e-02
5.993750e-10,3.410938e-02
6.033750e-10,3.390625e-02
6.073750e-10,3.365625e-02
6.113750e-10,3.367188e-02
6.153750e-10,3.312500e-02
6.193750e-10,3.273438e-02
6.233750e-10,3.253125e-02
6.273750e-10,3.242188e-02
6.313750e-10,3.176563e-02
6.353750e-10,3.128125e-02
6.393750e-10,3.082813e-02
6.433750e-10,3.029688e-02
6.473750e-10,2.964063e-02
6.513750e-10,2.920313e-02
6.553750e-10,2.815625e-02
6.593750e-10,2.721875e-02
6.633750e-10,2.643750e-02
6.673750e-10,2.576563e-02
6.713750e-10,2.448438e-02
6.753750e-10,2.342188e-02
6.793750e-10,2.237500e-02
6.833750e-10,2.126563e-02
6.873750e-10,2.009375e-02
6.913750e-10,1.917188e-02
6.953750e-10,1.768750e-02
6.993750e-10,1.639063e-02
7.033750e-10,1.531250e-02
7.073750e-10,1.445313e-02
7.113750e-10,1.304688e-02
7.153750e-10,1.196875e-02
7.193750e-10,1.096875e-02
7.233750e-10,1.003125e-02
7.273750e-10,9.109375e-03
7.313750e-10,8.546875e-03
7.353750e-10,7.500000e-03
7.393750e-10,6.734375e-03
7.433750e-10,6.265625e-03
7.473750e-10,6.062500e-03
7.513750e-10,5.390625e-03
7.553750e-10,5.078125e-03
7.593750e-10,4.890625e-03
7.633750e-10,4.781250e-03
7.673750e-10,4.703125e-03
7.713750e-10,4.984375e-03
7.753750e-10,4.781250e-03
7.793750e-10,4.812500e-03
7.833750e-10,5.109375e-03
7.873750e-10,5.656250e-03
7.913750e-10,5.625000e-03
7.953750e-10,5.937500e-03
7.993750e-10,6.281250e-03
8.033750e-10,6.625000e-03
8.073750e-10,6.937500e-03
8.113750e-10,7.546875e-03
8.153750e-10,7.562500e-03
8.193750e-10,7.734375e-03
8.233750e-10,8.109375e-03
8.273750e-10,8.656250e-03
8.313750e-10,8.578125e-03
8.353750e-10,8.765625e-03
8.393750e-10,8.921875e-03
8.433750e-10,9.062500e-03
8.473750e-10,9.140625e-03
8.513750e-10,9.484375e-03
8.553750e-10,9.203125e-03
8.593750e-10,9.109375e-03
8.633750e-10,9.187500e-03
8.673750e-10,9.468750e-03
8.713750e-10,9.125000e-03
8.753750e-10,9.078125e-03
8.793750e-10,9.031250e-03
8.833750e-10,9.000000e-03
8.873750e-10,8.937500e-03
8.913750e-10,9.187500e-03
8.953750e-10,8.859375e-03
8.993750e-10,8.734375e-03
9.033750e-10,8.828125e-03
9.073750e-10,9.140625e-03
9.113750e-10,8.859375e-03
9.153750e-10,8.890625e-03
9.193750e-10,8.937500e-03
9.233750e-10,8.984375e-03
9.273750e-10,9.031250e-03
9.313750e-10,9.359375e-03
9.353750e-10,9.093750e-03
9.393750e-10,9.031250e-03
9.433750e-10,9.140625e-03
9.473750e-10,9.437500e-03
9.513750e-10,9.109375e-03
9.553750e-10,9.046875e-03
9.593750e-10,8.968750e-03
9.633750e-10,8.859375e-03
9.673750e-10,8.703125e-03
9.713750e-10,8.796875e-03
9.753750e-10,8.281250e-03
9.793750e-10,7.906250e-03
9.833750e-10,7.718750e-03
9.873750e-10,7.687500e-03
9.913750e-10,7.046875e-03
9.953750e-10,6.671875e-03
9.993750e-10,6.296875e-03
1.003375e-09,5.906250e-03
1.007375e-09,5.515625e-03
1.011375e-09,5.437500e-03
1.015375e-09,4.781250e-03
1.019375e-09,4.343750e-03
1.023375e-09,4.156250e-03
1.027375e-09,4.203125e-03
1.031375e-09,3.718750e-03
1.035375e-09,3.578125e-03
1.039375e-09,3.515625e-03
1.043375e-09,3.531250e-03
1.047375e-09,3.625000e-03
1.051375e-09,4.093750e-03
1.055375e-09,4.046875e-03
1.059375e-09,4.281250e-03
1.063375e-09,4.812500e-03
1.067375e-09,5.609375e-03
1.071375e-09,5.890625e-03
1.075375e-09,6.531250e-03
1.079375e-09,7.234375e-03
1.083375e-09,7.984375e-03
1.087375e-09,8.765625e-03
1.091375e-09,9.875000e-03
1.095375e-09,1.039063e-02
1.099375e-09,1.112500e-02
1.103375e-09,1.203125e-02
1.107375e-09,1.310938e-02
1.111375e-09,1.354688e-02
1.115375e-09,1.421875e-02
1.119375e-09,1.481250e-02
1.123375e-09,1.534375e-02
1.127375e-09,1.576563e-02
1.131375e-09,1.637500e-02
1.135375e-09,1.628125e-02
1.139375e-09,1.628125e-02
1.143375e-09,1.634375e-02
1.147375e-09,1.650000e-02
1.151375e-09,1.592188e-02
1.155375e-09,1.553125e-02
1.159375e-09,1.503125e-02
1.163375e-09,1.440625e-02
1.167375e-09,1.370313e-02
1.171375e-09,1.321875e-02
1.175375e-09,1.204688e-02
1.179375e-09,1.101563e-02
1.183375e-09,1.014063e-02
1.187375e-09,9.453125e-03
1.191375e-09,8.140625e-03
1.195375e-09,7.156250e-03
1.199375e-09,6.187500e-03
1.203375e-09,5.250000e-03
1.207375e-09,4.375000e-03
1.211375e-09,3.890625e-03
1.215375e-09,2.875000e-03
1.219375e-09,2.156250e-03
1.223375e-09,1.750000e-03
1.227375e-09,1.671875e-03
1.231375e-09,1.093750e-03
1.235375e-09,9.687500e-04
1.239375e-09,9.375000e-04
1.243375e-09,1.046875e-03
1.247375e-09,1.281250e-03
1.251375e-09,1.921875e-03
1.255375e-09,2.062500e-03
1.259375e-09,2.500000e-03
1.263375e-09,3.234375e-03
1.267375e-09,4.218750e-03
1.271375e-09,4.656250e-03
1.275375e-09,5.421875e-03
1.279375e-09,6.218750e-03
1.283375e-09,7.000000e-03
1.287375e-09,7.781250e-03
1.291375e-09,8.812500e-03
1.295375e-09,9.203125e-03
1.299375e-09,9.734375e-03
1.303375e-09,1.037500e-02
1.307375e-09,1.112500e-02
1.311375e-09,1.118750e-02
1.315375e-09,1.142188e-02
1.319375e-09,1.154688e-02
1.323375e-09,1.156250e-02
1.327375e-09,1.145313e-02
1.331375e-09,1.153125e-02
1.335375e-09,1.089063e-02
1.339375e-09,1.034375e-02
1.343375e-09,9.906250e-03
1.347375e-09,9.578125e-03
1.351375e-09,8.562500e-03
1.355375e-09,7.796875e-03
1.359375e-09,6.984375e-03
1.363375e-09,6.125000e-03
1.367375e-09,5.265625e-03
1.371375e-09,4.703125e-03
1.375375e-09,3.562500e-03
1.379375e-09,2.656250e-03
1.383375e-09,2.000000e-03
1.387375e-09,1.609375e-03
1.391375e-09,6.875000e-04
1.395375e-09,1.562500e-04
1.399375e-09,-2.812500e-04
1.403375e-09,-5.937500e-04
1.407375e-09,-8.125000e-04
1.411375e-09,-6.250000e-04
1.415375e-09,-9.062500e-04
1.419375e-09,-8.750000e-04
1.423375e-09,-5.468750e-04
1.427375e-09,9.375000e-05
1.431375e-09,2.187500e-04
1.435375e-09,7.343750e-04
1.439375e-09,1.343750e-03
1.443375e-09,2.000000e-03
1.447375e-09,2.703125e-03
1.451375e-09,3.750000e-03
1.455375e-09,4.218750e-03
1.459375e-09,4.906250e-03
1.463375e-09,5.781250e-03
1.467375e-09,6.828125e-03
1.471375e-09,7.250000e-03
1.475375e-09,7.921875e-03
1.479375e-09,8.531250e-03
1.483375e-09,9.093750e-03
1.487375e-09,9.578125e-03
1.491375e-09,1.029688e-02
1.495375e-09,1.032813e-02
1.499375e-09,1.046875e-02
1.503375e-09,1.073438e-02
1.507375e-09,1.110938e-02
1.511375e-09,1.081250e-02
1.515375e-09,1.073438e-02
1.519375e-09,1.060938e-02
1.523375e-09,1.040625e-02
1.527375e-09,1.015625e-02
1.531375e-09,1.018750e-02
1.535375e-09,9.562500e-03
1.539375e-09,9.125000e-03
1.543375e-09,8.875000e-03
1.547375e-09,8.828125e-03
1.551375e-09,8.187500e-03
1.555375e-09,7.875000e-03
1.559375e-09,7.593750e-03
1.563375e-09,7.328125e-03
1.567375e-09,7.125000e-03
1.571375e-09,7.250000e-03
1.575375e-09,6.828125e-03
1.579375e-09,6.656250e-03
1.583375e-09,6.734375e-03
1.587375e-09,7.078125e-03
1.591375e-09,6.843750e-03
1.595375e-09,6.953125e-03
1.599375e-09,7.109375e-03
1.603375e-09,7.281250e-03
1.607375e-09,7.484375e-03
1.611375e-09,7.984375e-03
1.615375e-09,7.906250e-03
1.619375e-09,8.015625e-03
1.623375e-09,8.312500e-03
1.627375e-09,8.781250e-03
1.631375e-09,8.625000e-03
1.635375e-09,8.734375e-03
1.639375e-09,8.781250e-03
1.643375e-09,8.796875e-03
1.647375e-09,8.750000e-03
1.651375e-09,8.968750e-03
1.655375e-09,8.500000e-03
1.659375e-09,8.187500e-03
1.663375e-09,8.015625e-03
1.667375e-09,8.000000e-03
1.671375e-09,7.312500e-03
1.675375e-09,6.906250e-03
1.679375e-09,6.453125e-03
1.683375e-09,5.984375e-03
1.687375e-09,5.500000e-03
1.691375e-09,5.296875e-03
1.695375e-09,4.500000e-03
1.699375e-09,3.906250e-03
1.703375e-09,3.531250e-03
1.707375e-09,3.406250e-03
1.711375e-09,2.718750e-03
1.715375e-09,2.375000e-03
1.719375e-09,2.078125e-03
1.723375e-09,1.859375e-03
1.727375e-09,1.718750e-03
1.731375e-09,1.937500e-03
1.735375e-09,1.625000e-03
1.739375e-09,1.593750e-03
1.743375e-09,1.828125e-03
1.747375e-09,2.343750e-03
1.751375e-09,2.312500e-03
1.755375e-09,2.656250e-03
