Measurements-streak-laser-independent/Photodiode-on-Tek-6GHz/Tek000_ch1_20190613132708679.csv

Model,MSO64
Waveform Type,ANALOG
Horizontal Units,s
Sample Interval,4.000000e-12
Record Length,1000
Zero Index,310.835938
Vertical Units,V

TIME,CH1
-1.243344e-09,2.781250e-03
-1.239344e-09,3.062500e-03
-1.235344e-09,2.734375e-03
-1.231344e-09,2.718750e-03
-1.227344e-09,2.687500e-03
-1.223344e-09,2.656250e-03
-1.219344e-09,2.625000e-03
-1.215344e-09,2.890625e-03
-1.211344e-09,2.546875e-03
-1.207344e-09,2.390625e-03
-1.203344e-09,2.437500e-03
-1.199344e-09,2.687500e-03
-1.195344e-09,2.343750e-03
-1.191344e-09,2.281250e-03
-1.187344e-09,2.250000e-03
-1.183344e-09,2.218750e-03
-1.179344e-09,2.187500e-03
-1.175344e-09,2.484375e-03
-1.171344e-09,2.187500e-03
-1.167344e-09,2.109375e-03
-1.163344e-09,2.250000e-03
-1.159344e-09,2.625000e-03
-1.155344e-09,2.406250e-03
-1.151344e-09,2.531250e-03
-1.147344e-09,2.671875e-03
-1.143344e-09,2.843750e-03
-1.139344e-09,3.046875e-03
-1.135344e-09,3.562500e-03
-1.131344e-09,3.515625e-03
-1.127344e-09,3.671875e-03
-1.123344e-09,4.062500e-03
-1.119344e-09,4.656250e-03
-1.115344e-09,4.656250e-03
-1.111344e-09,4.968750e-03
-1.107344e-09,5.281250e-03
-1.103344e-09,5.578125e-03
-1.099344e-09,5.875000e-03
-1.095344e-09,6.453125e-03
-1.091344e-09,6.406250e-03
-1.087344e-09,6.531250e-03
-1.083344e-09,6.828125e-03
-1.079344e-09,7.281250e-03
-1.075344e-09,7.093750e-03
-1.071344e-09,7.156250e-03
-1.067344e-09,7.171875e-03
-1.063344e-09,7.140625e-03
-1.059344e-09,7.046875e-03
-1.055344e-09,7.218750e-03
-1.051344e-09,6.718750e-03
-1.047344e-09,6.359375e-03
-1.043344e-09,6.156250e-03
-1.039344e-09,6.125000e-03
-1.035344e-09,5.421875e-03
-1.031344e-09,5.000000e-03
-1.027344e-09,4.546875e-03
-1.023344e-09,4.062500e-03
-1.019344e-09,3.562500e-03
-1.015344e-09,3.359375e-03
-1.011344e-09,2.546875e-03
-1.007344e-09,1.937500e-03
-1.003344e-09,1.546875e-03
-9.993437e-10,1.390625e-03
-9.953437e-10,6.562500e-04
-9.913437e-10,2.812500e-04
-9.873437e-10,-6.250000e-05
-9.833437e-10,-3.437500e-04
-9.793438e-10,-5.625000e-04
-9.753438e-10,-4.062500e-04
-9.713438e-10,-7.812500e-04
-9.673438e-10,-8.906250e-04
-9.633438e-10,-7.187500e-04
-9.593438e-10,-2.656250e-04
-9.553437e-10,-3.437500e-04
-9.513437e-10,-3.125000e-05
-9.473437e-10,3.437500e-04
-9.433437e-10,7.812500e-04
-9.393437e-10,1.281250e-03
-9.353437e-10,2.140625e-03
-9.313437e-10,2.437500e-03
-9.273437e-10,2.984375e-03
-9.233437e-10,3.750000e-03
-9.193438e-10,4.750000e-03
-9.153438e-10,5.140625e-03
-9.113437e-10,5.843750e-03
-9.073437e-10,6.531250e-03
-9.033437e-10,7.187500e-03
-8.993437e-10,7.812500e-03
-8.953437e-10,8.703125e-03
-8.913438e-10,8.937500e-03
-8.873438e-10,9.312500e-03
-8.833438e-10,9.828125e-03
-8.793437e-10,1.046875e-02
-8.753437e-10,1.043750e-02
-8.713437e-10,1.060938e-02
-8.673437e-10,1.071875e-02
-8.633437e-10,1.071875e-02
-8.593438e-10,1.065625e-02
-8.553438e-10,1.081250e-02
-8.513437e-10,1.028125e-02
-8.473437e-10,9.890625e-03
-8.433437e-10,9.625000e-03
-8.393437e-10,9.500000e-03
-8.353437e-10,8.703125e-03
-8.313438e-10,8.171875e-03
-8.273438e-10,7.609375e-03
-8.233438e-10,7.000000e-03
-8.193437e-10,6.390625e-03
-8.153437e-10,6.062500e-03
-8.113437e-10,5.125000e-03
-8.073437e-10,4.406250e-03
-8.033437e-10,3.890625e-03
-7.993438e-10,3.609375e-03
-7.953438e-10,2.750000e-03
-7.913437e-10,2.250000e-03
-7.873437e-10,1.765625e-03
-7.833437e-10,1.343750e-03
-7.793437e-10,9.687500e-04
-7.753437e-10,9.531250e-04
-7.713438e-10,3.906250e-04
-7.673438e-10,7.812500e-05
-7.633438e-10,1.562500e-05
-7.593437e-10,2.187500e-04
-7.553437e-10,-1.406250e-04
-7.513437e-10,-1.406250e-04
-7.473437e-10,-1.093750e-04
-7.433437e-10,-4.687500e-05
-7.393438e-10,6.250000e-05
-7.353438e-10,4.843750e-04
-7.313438e-10,3.281250e-04
-7.273437e-10,3.906250e-04
-7.233437e-10,6.562500e-04
-7.193437e-10,1.125000e-03
-7.153437e-10,9.843750e-04
-7.113438e-10,1.140625e-03
-7.073438e-10,1.281250e-03
-7.033438e-10,1.406250e-03
-6.993437e-10,1.515625e-03
-6.953437e-10,1.906250e-03
-6.913437e-10,1.656250e-03
-6.873437e-10,1.578125e-03
-6.833437e-10,1.687500e-03
-6.793438e-10,1.968750e-03
-6.753438e-10,1.625000e-03
-6.713438e-10,1.562500e-03
-6.673437e-10,1.484375e-03
-6.633437e-10,1.375000e-03
-6.593437e-10,1.265625e-03
-6.553437e-10,1.453125e-03
-6.513438e-10,1.031250e-03
-6.473438e-10,7.968750e-04
-6.433438e-10,7.812500e-04
-6.393437e-10,9.843750e-04
-6.353437e-10,5.937500e-04
-6.313437e-10,5.156250e-04
-6.273437e-10,4.531250e-04
-6.233437e-10,4.218750e-04
-6.193438e-10,4.218750e-04
-6.153438e-10,7.500000e-04
-6.113438e-10,5.000000e-04
-6.073437e-10,4.843750e-04
-6.033437e-10,7.031250e-04
-5.993437e-10,1.156250e-03
-5.953437e-10,1.031250e-03
-5.913438e-10,1.250000e-03
-5.873438e-10,1.484375e-03
-5.833438e-10,1.734375e-03
-5.793437e-10,2.015625e-03
-5.753437e-10,2.625000e-03
-5.713437e-10,2.625000e-03
-5.673437e-10,2.859375e-03
-5.633437e-10,3.281250e-03
-5.593438e-10,3.921875e-03
-5.553438e-10,3.968750e-03
-5.513438e-10,4.296875e-03
-5.473437e-10,4.625000e-03
-5.433437e-10,4.953125e-03
-5.393437e-10,5.265625e-03
-5.353437e-10,5.875000e-03
-5.313438e-10,5.843750e-03
-5.273438e-10,6.015625e-03
-5.233438e-10,6.359375e-03
-5.193437e-10,6.906250e-03
-5.153437e-10,6.812500e-03
-5.113437e-10,7.000000e-03
-5.073437e-10,7.171875e-03
-5.033437e-10,7.343750e-03
-4.993438e-10,7.484375e-03
-4.953438e-10,7.906250e-03
-4.913438e-10,7.718750e-03
-4.873437e-10,7.718750e-03
-4.833437e-10,7.906250e-03
-4.793437e-10,8.296875e-03
-4.753437e-10,8.062500e-03
-4.713438e-10,8.125000e-03
-4.673438e-10,8.171875e-03
-4.633437e-10,8.218750e-03
-4.593437e-10,8.250000e-03
-4.553438e-10,8.593750e-03
-4.513437e-10,8.312500e-03
-4.473437e-10,8.234375e-03
-4.433437e-10,8.359375e-03
-4.393438e-10,8.671875e-03
-4.353437e-10,8.375000e-03
-4.313437e-10,8.375000e-03
-4.273438e-10,8.328125e-03
-4.233438e-10,8.281250e-03
-4.193437e-10,8.218750e-03
-4.153437e-10,8.453125e-03
-4.113438e-10,8.046875e-03
-4.073437e-10,7.843750e-03
-4.033437e-10,7.812500e-03
-3.993437e-10,7.968750e-03
-3.953438e-10,7.531250e-03
-3.913437e-10,7.343750e-03
-3.873437e-10,7.093750e-03
-3.833437e-10,6.859375e-03
-3.793438e-10,6.593750e-03
-3.753437e-10,6.625000e-03
-3.713437e-10,6.000000e-03
-3.673438e-10,5.593750e-03
-3.633438e-10,5.406250e-03
-3.593437e-10,5.390625e-03
-3.553437e-10,4.812500e-03
-3.513438e-10,4.515625e-03
-3.473438e-10,4.156250e-03
-3.433437e-10,3.828125e-03
-3.393437e-10,3.531250e-03
-3.353438e-10,3.562500e-03
-3.313437e-10,2.984375e-03
-3.273437e-10,2.656250e-03
-3.233437e-10,2.593750e-03
-3.193438e-10,2.750000e-03
-3.153437e-10,2.390625e-03
-3.113437e-10,2.359375e-03
-3.073438e-10,2.281250e-03
-3.033438e-10,2.250000e-03
-2.993437e-10,2.312500e-03
-2.953437e-10,2.718750e-03
-2.913438e-10,2.578125e-03
-2.873438e-10,2.656250e-03
-2.833437e-10,3.062500e-03
-2.793437e-10,3.640625e-03
-2.753438e-10,3.750000e-03
-2.713437e-10,4.171875e-03
-2.673437e-10,4.531250e-03
-2.633437e-10,4.906250e-03
-2.593438e-10,5.406250e-03
-2.553437e-10,6.156250e-03
-2.513437e-10,6.375000e-03
-2.473438e-10,6.750000e-03
-2.433438e-10,7.421875e-03
-2.393437e-10,8.218750e-03
-2.353437e-10,8.468750e-03
-2.313438e-10,9.015625e-03
-2.273437e-10,9.453125e-03
-2.233438e-10,9.812500e-03
-2.193437e-10,1.028125e-02
-2.153437e-10,1.092188e-02
-2.113437e-10,1.101563e-02
-2.073437e-10,1.118750e-02
-2.033437e-10,1.159375e-02
-1.993437e-10,1.210938e-02
-1.953438e-10,1.201563e-02
-1.913437e-10,1.218750e-02
-1.873438e-10,1.220313e-02
-1.833437e-10,1.212500e-02
-1.793438e-10,1.215625e-02
-1.753437e-10,1.229688e-02
-1.713438e-10,1.193750e-02
-1.673437e-10,1.162500e-02
-1.633438e-10,1.151563e-02
-1.593437e-10,1.153125e-02
-1.553438e-10,1.093750e-02
-1.513437e-10,1.060938e-02
-1.473437e-10,1.018750e-02
-1.433437e-10,9.687500e-03
-1.393437e-10,9.312500e-03
-1.353438e-10,9.062500e-03
-1.313437e-10,8.406250e-03
-1.273438e-10,7.812500e-03
-1.233437e-10,7.437500e-03
-1.193438e-10,7.281250e-03
-1.153437e-10,6.531250e-03
-1.113437e-10,6.125000e-03
-1.073437e-10,5.687500e-03
-1.033437e-10,5.265625e-03
-9.934375e-11,5.015625e-03
-9.534375e-11,4.984375e-03
-9.134375e-11,4.640625e-03
-8.734375e-11,4.453125e-03
-8.334375e-11,4.531250e-03
-7.934375e-11,4.968750e-03
-7.534375e-11,4.921875e-03
-7.134375e-11,5.281250e-03
-6.734375e-11,5.750000e-03
-6.334375e-11,6.359375e-03
-5.934375e-11,7.218750e-03
-5.534375e-11,8.468750e-03
-5.134375e-11,9.515625e-03
-4.734375e-11,1.085938e-02
-4.334375e-11,1.254688e-02
-3.934375e-11,1.475000e-02
-3.534375e-11,1.662500e-02
-3.134375e-11,1.898438e-02
-2.734375e-11,2.160938e-02
-2.334375e-11,2.451563e-02
-1.934375e-11,2.773438e-02
-1.534375e-11,3.151563e-02
-1.134375e-11,3.518750e-02
-7.343750e-12,3.926563e-02
-3.343750e-12,4.375000e-02
6.562500e-13,4.882813e-02
4.656250e-12,5.370313e-02
8.656250e-12,5.906250e-02
1.265625e-11,6.475000e-02
1.665625e-11,7.075000e-02
2.065625e-11,7.706250e-02
2.465625e-11,8.396875e-02
2.865625e-11,9.073438e-02
3.265625e-11,9.787500e-02
3.665625e-11,1.053750e-01
4.065625e-11,1.133438e-01
4.465625e-11,1.211094e-01
4.865625e-11,1.292188e-01
5.265625e-11,1.375313e-01
5.665625e-11,1.460313e-01
6.065625e-11,1.546875e-01
6.465625e-11,1.637656e-01
6.865625e-11,1.725469e-01
7.265625e-11,1.815000e-01
7.665625e-11,1.905938e-01
8.065625e-11,1.999219e-01
8.465625e-11,2.088750e-01
8.865625e-11,2.179063e-01
9.265625e-11,2.269063e-01
9.665625e-11,2.358750e-01
1.006562e-10,2.447031e-01
1.046562e-10,2.537188e-01
1.086562e-10,2.621875e-01
1.126562e-10,2.705938e-01
1.166563e-10,2.788594e-01
1.206562e-10,2.870938e-01
1.246563e-10,2.947500e-01
1.286562e-10,3.022344e-01
1.326563e-10,3.094688e-01
1.366562e-10,3.164219e-01
1.406563e-10,3.230313e-01
1.446562e-10,3.295781e-01
1.486563e-10,3.354219e-01
1.526562e-10,3.410000e-01
1.566562e-10,3.462656e-01
1.606562e-10,3.512969e-01
1.646562e-10,3.556406e-01
1.686563e-10,3.596719e-01
1.726562e-10,3.633281e-01
1.766563e-10,3.665781e-01
1.806562e-10,3.693906e-01
1.846563e-10,3.720156e-01
1.886562e-10,3.739219e-01
1.926563e-10,3.754844e-01
1.966562e-10,3.766875e-01
2.006563e-10,3.776250e-01
2.046562e-10,3.778438e-01
2.086563e-10,3.778125e-01
2.126562e-10,3.773906e-01
2.166562e-10,3.766094e-01
2.206562e-10,3.754375e-01
2.246562e-10,3.740938e-01
2.286562e-10,3.721250e-01
2.326562e-10,3.699375e-01
2.366562e-10,3.674688e-01
2.406563e-10,3.648438e-01
2.446563e-10,3.615938e-01
2.486562e-10,3.583125e-01
2.526562e-10,3.547500e-01
2.566563e-10,3.510000e-01
2.606563e-10,3.470313e-01
2.646562e-10,3.430156e-01
2.686562e-10,3.385781e-01
2.726563e-10,3.341250e-01
2.766562e-10,3.295625e-01
2.806562e-10,3.250313e-01
2.846562e-10,3.200469e-01
2.886563e-10,3.152813e-01
2.926562e-10,3.103750e-01
2.966562e-10,3.054844e-01
3.006563e-10,3.005938e-01
3.046563e-10,2.957656e-01
3.086562e-10,2.906563e-01
3.126562e-10,2.857188e-01
3.166563e-10,2.808281e-01
3.206563e-10,2.760938e-01
3.246562e-10,2.710000e-01
3.286562e-10,2.662344e-01
3.326563e-10,2.614531e-01
3.366562e-10,2.567500e-01
3.406562e-10,2.520938e-01
3.446562e-10,2.475938e-01
3.486563e-10,2.427813e-01
3.526562e-10,2.382031e-01
3.566562e-10,2.336563e-01
3.606563e-10,2.292656e-01
3.646563e-10,2.245156e-01
3.686562e-10,2.200625e-01
3.726562e-10,2.155625e-01
3.766563e-10,2.111094e-01
3.806563e-10,2.066875e-01
3.846562e-10,2.023750e-01
3.886562e-10,1.976250e-01
3.926563e-10,1.931094e-01
3.966562e-10,1.886094e-01
4.006562e-10,1.841719e-01
4.046562e-10,1.793594e-01
4.086563e-10,1.747969e-01
4.126562e-10,1.701719e-01
4.166562e-10,1.655781e-01
4.206562e-10,1.610000e-01
4.246563e-10,1.565625e-01
4.286562e-10,1.516719e-01
4.326562e-10,1.470313e-01
4.366563e-10,1.424688e-01
4.406563e-10,1.380000e-01
4.446562e-10,1.332344e-01
4.486562e-10,1.287500e-01
4.526563e-10,1.243281e-01
4.566562e-10,1.200000e-01
4.606562e-10,1.157656e-01
4.646562e-10,1.118125e-01
4.686562e-10,1.074688e-01
4.726562e-10,1.034688e-01
4.766563e-10,9.970313e-02
4.806563e-10,9.612500e-02
4.846563e-10,9.235938e-02
4.886562e-10,8.892188e-02
4.926562e-10,8.571875e-02
4.966562e-10,8.267188e-02
5.006562e-10,7.975000e-02
5.046563e-10,7.725000e-02
5.086563e-10,7.437500e-02
5.126563e-10,7.189063e-02
5.166562e-10,6.971875e-02
5.206562e-10,6.775000e-02
5.246562e-10,6.559375e-02
5.286562e-10,6.375000e-02
5.326562e-10,6.215625e-02
5.366563e-10,6.065625e-02
5.406563e-10,5.923438e-02
5.446563e-10,5.818750e-02
5.486562e-10,5.671875e-02
5.526562e-10,5.551563e-02
5.566562e-10,5.459375e-02
5.606562e-10,5.379688e-02
5.646563e-10,5.268750e-02
5.686563e-10,5.178125e-02
5.726563e-10,5.103125e-02
5.766562e-10,5.026563e-02
5.806562e-10,4.946875e-02
5.846562e-10,4.893750e-02
5.886562e-10,4.787500e-02
5.926562e-10,4.698438e-02
5.966563e-10,4.629688e-02
6.006563e-10,4.567188e-02
6.046563e-10,4.459375e-02
6.086562e-10,4.368750e-02
6.126562e-10,4.287500e-02
6.166562e-10,4.200000e-02
6.206562e-10,4.101563e-02
6.246563e-10,4.026563e-02
6.286563e-10,3.896875e-02
6.326563e-10,3.781250e-02
6.366562e-10,3.689063e-02
6.406562e-10,3.603125e-02
6.446562e-10,3.470313e-02
6.486562e-10,3.357813e-02
6.526562e-10,3.256250e-02
6.566563e-10,3.150000e-02
6.606563e-10,3.037500e-02
6.646563e-10,2.950000e-02
6.686562e-10,2.814063e-02
6.726562e-10,2.695313e-02
6.766562e-10,2.601563e-02
6.806562e-10,2.525000e-02
6.846563e-10,2.400000e-02
6.886563e-10,2.300000e-02
6.926563e-10,2.212500e-02
6.966562e-10,2.126563e-02
7.006562e-10,2.034375e-02
7.046562e-10,1.973438e-02
7.086562e-10,1.864063e-02
7.126562e-10,1.775000e-02
7.166563e-10,1.712500e-02
7.206563e-10,1.668750e-02
7.246563e-10,1.575000e-02
7.286562e-10,1.509375e-02
7.326562e-10,1.453125e-02
7.366562e-10,1.401563e-02
7.406562e-10,1.342188e-02
7.446563e-10,1.315625e-02
7.486563e-10,1.237500e-02
7.526563e-10,1.179688e-02
7.566562e-10,1.148438e-02
7.606562e-10,1.135938e-02
7.646562e-10,1.071875e-02
7.686562e-10,1.035938e-02
7.726562e-10,1.007813e-02
7.766563e-10,9.828125e-03
7.806563e-10,9.531250e-03
7.846563e-10,9.546875e-03
7.886562e-10,9.031250e-03
7.926562e-10,8.734375e-03
7.966562e-10,8.687500e-03
8.006562e-10,8.843750e-03
8.046562e-10,8.453125e-03
8.086563e-10,8.375000e-03
8.126563e-10,8.375000e-03
8.166562e-10,8.375000e-03
8.206562e-10,8.375000e-03
8.246562e-10,8.656250e-03
8.286562e-10,8.421875e-03
8.326562e-10,8.390625e-03
8.366563e-10,8.609375e-03
8.406563e-10,9.031250e-03
8.446563e-10,8.890625e-03
8.486562e-10,9.062500e-03
8.526562e-10,9.265625e-03
8.566562e-10,9.484375e-03
8.606562e-10,9.671875e-03
8.646562e-10,1.015625e-02
8.686563e-10,1.009375e-02
8.726563e-10,1.020313e-02
8.766562e-10,1.054688e-02
8.806562e-10,1.107813e-02
8.846562e-10,1.101563e-02
8.886562e-10,1.125000e-02
8.926562e-10,1.148438e-02
8.966563e-10,1.173438e-02
9.006563e-10,1.193750e-02
9.046563e-10,1.242188e-02
9.086562e-10,1.232813e-02
9.126562e-10,1.242188e-02
9.166562e-10,1.271875e-02
9.206562e-10,1.320313e-02
9.246562e-10,1.309375e-02
9.286563e-10,1.326563e-02
9.326563e-10,1.343750e-02
9.366562e-10,1.364063e-02
9.406562e-10,1.379688e-02
9.446562e-10,1.425000e-02
9.486562e-10,1.412500e-02
9.526562e-10,1.418750e-02
9.566562e-10,1.446875e-02
9.606562e-10,1.493750e-02
9.646562e-10,1.482813e-02
9.686562e-10,1.501563e-02
9.726563e-10,1.520313e-02
9.766563e-10,1.540625e-02
9.806563e-10,1.559375e-02
9.846563e-10,1.607813e-02
9.886563e-10,1.598438e-02
9.926563e-10,1.607813e-02
9.966562e-10,1.635938e-02
1.000656e-09,1.684375e-02
1.004656e-09,1.673438e-02
1.008656e-09,1.690625e-02
1.012656e-09,1.706250e-02
1.016656e-09,1.720313e-02
1.020656e-09,1.731250e-02
1.024656e-09,1.770313e-02
1.028656e-09,1.748438e-02
1.032656e-09,1.742188e-02
1.036656e-09,1.754688e-02
1.040656e-09,1.782813e-02
1.044656e-09,1.748438e-02
1.048656e-09,1.740625e-02
1.052656e-09,1.731250e-02
1.056656e-09,1.717188e-02
1.060656e-09,1.698438e-02
1.064656e-09,1.706250e-02
1.068656e-09,1.653125e-02
1.072656e-09,1.617188e-02
1.076656e-09,1.596875e-02
1.080656e-09,1.596875e-02
1.084656e-09,1.532813e-02
1.088656e-09,1.498438e-02
1.092656e-09,1.464063e-02
1.096656e-09,1.428125e-02
1.100656e-09,1.392188e-02
1.104656e-09,1.384375e-02
1.108656e-09,1.320313e-02
1.112656e-09,1.276563e-02
1.116656e-09,1.254688e-02
1.120656e-09,1.254688e-02
1.124656e-09,1.196875e-02
1.128656e-09,1.173438e-02
1.132656e-09,1.153125e-02
1.136656e-09,1.134375e-02
1.140656e-09,1.121875e-02
1.144656e-09,1.140625e-02
1.148656e-09,1.104688e-02
1.152656e-09,1.092188e-02
1.156656e-09,1.103125e-02
1.160656e-09,1.137500e-02
1.164656e-09,1.115625e-02
1.168656e-09,1.128125e-02
1.172656e-09,1.140625e-02
1.176656e-09,1.157813e-02
1.180656e-09,1.176563e-02
1.184656e-09,1.226563e-02
1.188656e-09,1.217188e-02
1.192656e-09,1.229688e-02
1.196656e-09,1.260938e-02
1.200656e-09,1.312500e-02
1.204656e-09,1.301563e-02
1.208656e-09,1.320313e-02
1.212656e-09,1.335938e-02
1.216656e-09,1.350000e-02
1.220656e-09,1.362500e-02
1.224656e-09,1.400000e-02
1.228656e-09,1.373438e-02
1.232656e-09,1.364063e-02
1.236656e-09,1.370313e-02
1.240656e-09,1.392188e-02
1.244656e-09,1.350000e-02
1.248656e-09,1.332813e-02
1.252656e-09,1.312500e-02
1.256656e-09,1.287500e-02
1.260656e-09,1.257813e-02
1.264656e-09,1.256250e-02
1.268656e-09,1.190625e-02
1.272656e-09,1.140625e-02
1.276656e-09,1.109375e-02
1.280656e-09,1.095313e-02
1.284656e-09,1.020313e-02
1.288656e-09,9.734375e-03
1.292656e-09,9.250000e-03
1.296656e-09,8.781250e-03
1.300656e-09,8.296875e-03
1.304656e-09,8.125000e-03
1.308656e-09,7.375000e-03
1.312656e-09,6.828125e-03
1.316656e-09,6.500000e-03
1.320656e-09,6.406250e-03
1.324656e-09,5.718750e-03
1.328656e-09,5.375000e-03
1.332656e-09,5.078125e-03
1.336656e-09,4.796875e-03
1.340656e-09,4.562500e-03
1.344656e-09,4.656250e-03
1.348656e-09,4.203125e-03
1.352656e-09,3.984375e-03
1.356656e-09,4.015625e-03
1.360656e-09,4.281250e-03
1.364656e-09,3.984375e-03
1.368656e-09,4.031250e-03
1.372656e-09,4.109375e-03
1.376656e-09,4.250000e-03
1.380656e-09,4.406250e-03
1.384656e-09,4.906250e-03
1.388656e-09,4.828125e-03
1.392656e-09,4.984375e-03
1.396656e-09,5.375000e-03
1.400656e-09,6.000000e-03
1.404656e-09,6.031250e-03
1.408656e-09,6.390625e-03
1.412656e-09,6.781250e-03
1.416656e-09,7.171875e-03
1.420656e-09,7.578125e-03
1.424656e-09,8.312500e-03
1.428656e-09,8.437500e-03
1.432656e-09,8.765625e-03
1.436656e-09,9.296875e-03
1.440656e-09,1.003125e-02
1.444656e-09,1.015625e-02
1.448656e-09,1.056250e-02
1.452656e-09,1.096875e-02
1.456656e-09,1.135938e-02
1.460656e-09,1.173438e-02
1.464656e-09,1.239063e-02
1.468656e-09,1.240625e-02
1.472656e-09,1.260938e-02
1.476656e-09,1.296875e-02
1.480656e-09,1.350000e-02
1.484656e-09,1.339063e-02
1.488656e-09,1.354688e-02
1.492656e-09,1.367188e-02
1.496656e-09,1.375000e-02
1.500656e-09,1.376563e-02
1.504656e-09,1.406250e-02
1.508656e-09,1.368750e-02
1.512656e-09,1.348438e-02
1.516656e-09,1.343750e-02
1.520656e-09,1.353125e-02
1.524656e-09,1.300000e-02
1.528656e-09,1.271875e-02
1.532656e-09,1.239063e-02
1.536656e-09,1.204688e-02
1.540656e-09,1.165625e-02
1.544656e-09,1.154688e-02
1.548656e-09,1.081250e-02
1.552656e-09,1.025000e-02
1.556656e-09,9.890625e-03
1.560656e-09,9.718750e-03
1.564656e-09,8.921875e-03
1.568656e-09,8.453125e-03
1.572656e-09,7.984375e-03
1.576656e-09,7.531250e-03
1.580656e-09,7.078125e-03
1.584656e-09,6.968750e-03
1.588656e-09,6.281250e-03
1.592656e-09,5.812500e-03
1.596656e-09,5.593750e-03
1.600656e-09,5.609375e-03
1.604656e-09,5.062500e-03
1.608656e-09,4.859375e-03
1.612656e-09,4.687500e-03
1.616656e-09,4.578125e-03
1.620656e-09,4.500000e-03
1.624656e-09,4.765625e-03
1.628656e-09,4.468750e-03
1.632656e-09,4.406250e-03
1.636656e-09,4.593750e-03
1.640656e-09,5.000000e-03
1.644656e-09,4.828125e-03
1.648656e-09,4.984375e-03
1.652656e-09,5.171875e-03
1.656656e-09,5.359375e-03
1.660656e-09,5.562500e-03
1.664656e-09,6.062500e-03
1.668656e-09,5.953125e-03
1.672656e-09,6.046875e-03
1.676656e-09,6.328125e-03
1.680656e-09,6.796875e-03
1.684656e-09,6.640625e-03
1.688656e-09,6.765625e-03
1.692656e-09,6.859375e-03
1.696656e-09,6.937500e-03
1.700656e-09,6.984375e-03
1.704656e-09,7.296875e-03
1.708656e-09,6.984375e-03
1.712656e-09,6.843750e-03
1.716656e-09,6.875000e-03
1.720656e-09,7.093750e-03
1.724656e-09,6.671875e-03
1.728656e-09,6.546875e-03
1.732656e-09,6.406250e-03
1.736656e-09,6.250000e-03
1.740656e-09,6.078125e-03
1.744656e-09,6.218750e-03
1.748656e-09,5.750000e-03
1.752656e-09,5.484375e-03
1.756656e-09,5.437500e-03
