Measurements-streak-laser-independent/Photodiode-on-Tek-6GHz/Tek000_ch1_20190613132751903.csv

Model,MSO64
Waveform Type,ANALOG
Horizontal Units,s
Sample Interval,4.000000e-12
Record Length,1000
Zero Index,310.312500
Vertical Units,V

TIME,CH1
-1.241250e-09,3.937500e-03
-1.237250e-09,3.890625e-03
-1.233250e-09,3.859375e-03
-1.229250e-09,4.125000e-03
-1.225250e-09,3.781250e-03
-1.221250e-09,3.656250e-03
-1.217250e-09,3.734375e-03
-1.213250e-09,4.031250e-03
-1.209250e-09,3.718750e-03
-1.205250e-09,3.718750e-03
-1.201250e-09,3.718750e-03
-1.197250e-09,3.734375e-03
-1.193250e-09,3.765625e-03
-1.189250e-09,4.093750e-03
-1.185250e-09,3.828125e-03
-1.181250e-09,3.765625e-03
-1.177250e-09,3.906250e-03
-1.173250e-09,4.265625e-03
-1.169250e-09,4.000000e-03
-1.165250e-09,4.046875e-03
-1.161250e-09,4.093750e-03
-1.157250e-09,4.125000e-03
-1.153250e-09,4.156250e-03
-1.149250e-09,4.484375e-03
-1.145250e-09,4.187500e-03
-1.141250e-09,4.093750e-03
-1.137250e-09,4.187500e-03
-1.133250e-09,4.484375e-03
-1.129250e-09,4.140625e-03
-1.125250e-09,4.109375e-03
-1.121250e-09,4.046875e-03
-1.117250e-09,3.984375e-03
-1.113250e-09,3.921875e-03
-1.109250e-09,4.140625e-03
-1.105250e-09,3.734375e-03
-1.101250e-09,3.531250e-03
-1.097250e-09,3.515625e-03
-1.093250e-09,3.703125e-03
-1.089250e-09,3.281250e-03
-1.085250e-09,3.156250e-03
-1.081250e-09,3.031250e-03
-1.077250e-09,2.921875e-03
-1.073250e-09,2.796875e-03
-1.069250e-09,2.984375e-03
-1.065250e-09,2.562500e-03
-1.061250e-09,2.359375e-03
-1.057250e-09,2.359375e-03
-1.053250e-09,2.578125e-03
-1.049250e-09,2.187500e-03
-1.045250e-09,2.109375e-03
-1.041250e-09,2.031250e-03
-1.037250e-09,1.984375e-03
-1.033250e-09,1.921875e-03
-1.029250e-09,2.187500e-03
-1.025250e-09,1.843750e-03
-1.021250e-09,1.703125e-03
-1.017250e-09,1.781250e-03
-1.013250e-09,2.062500e-03
-1.009250e-09,1.718750e-03
-1.005250e-09,1.687500e-03
-1.001250e-09,1.656250e-03
-9.972500e-10,1.625000e-03
-9.932500e-10,1.593750e-03
-9.892500e-10,1.843750e-03
-9.852500e-10,1.484375e-03
-9.812500e-10,1.312500e-03
-9.772500e-10,1.343750e-03
-9.732500e-10,1.578125e-03
-9.692500e-10,1.171875e-03
-9.652500e-10,1.078125e-03
-9.612500e-10,9.687500e-04
-9.572500e-10,8.437500e-04
-9.532500e-10,7.187500e-04
-9.492500e-10,8.906250e-04
-9.452500e-10,4.375000e-04
-9.412500e-10,2.031250e-04
-9.372500e-10,1.562500e-04
-9.332500e-10,3.281250e-04
-9.292500e-10,-1.093750e-04
-9.252500e-10,-2.343750e-04
-9.212500e-10,-3.593750e-04
-9.172500e-10,-4.531250e-04
-9.132500e-10,-5.468750e-04
-9.092500e-10,-3.125000e-04
-9.052500e-10,-6.562500e-04
-9.012500e-10,-7.968750e-04
-8.972500e-10,-6.875000e-04
-8.932500e-10,-3.593750e-04
-8.892500e-10,-6.093750e-04
-8.852500e-10,-5.312500e-04
-8.812500e-10,-4.062500e-04
-8.772500e-10,-2.656250e-04
-8.732500e-10,-9.375000e-05
-8.692500e-10,4.218750e-04
-8.652500e-10,3.437500e-04
-8.612500e-10,5.000000e-04
-8.572500e-10,8.906250e-04
-8.532500e-10,1.500000e-03
-8.492500e-10,1.531250e-03
-8.452500e-10,1.875000e-03
-8.412500e-10,2.234375e-03
-8.372500e-10,2.609375e-03
-8.332500e-10,3.000000e-03
-8.292500e-10,3.687500e-03
-8.252500e-10,3.765625e-03
-8.212500e-10,4.046875e-03
-8.172500e-10,4.515625e-03
-8.132500e-10,5.171875e-03
-8.092500e-10,5.203125e-03
-8.052500e-10,5.531250e-03
-8.012500e-10,5.812500e-03
-7.972500e-10,6.093750e-03
-7.932500e-10,6.328125e-03
-7.892500e-10,6.828125e-03
-7.852500e-10,6.703125e-03
-7.812500e-10,6.734375e-03
-7.772500e-10,6.937500e-03
-7.732500e-10,7.296875e-03
-7.692500e-10,7.015625e-03
-7.652500e-10,7.000000e-03
-7.612500e-10,6.937500e-03
-7.572500e-10,6.859375e-03
-7.532500e-10,6.734375e-03
-7.492500e-10,6.890625e-03
-7.452500e-10,6.406250e-03
-7.412500e-10,6.093750e-03
-7.372500e-10,5.968750e-03
-7.332500e-10,6.031250e-03
-7.292500e-10,5.468750e-03
-7.252500e-10,5.203125e-03
-7.212500e-10,4.937500e-03
-7.172500e-10,4.656250e-03
-7.132500e-10,4.390625e-03
-7.092500e-10,4.437500e-03
-7.052500e-10,3.875000e-03
-7.012500e-10,3.546875e-03
-6.972500e-10,3.437500e-03
-6.932500e-10,3.562500e-03
-6.892500e-10,3.093750e-03
-6.852500e-10,2.968750e-03
-6.812500e-10,2.890625e-03
-6.772500e-10,2.828125e-03
-6.732500e-10,2.812500e-03
-6.692500e-10,3.125000e-03
-6.652500e-10,2.890625e-03
-6.612500e-10,2.875000e-03
-6.572500e-10,3.109375e-03
-6.532500e-10,3.593750e-03
-6.492500e-10,3.500000e-03
-6.452500e-10,3.734375e-03
-6.412500e-10,4.015625e-03
-6.372500e-10,4.312500e-03
-6.332500e-10,4.625000e-03
-6.292500e-10,5.281250e-03
-6.252500e-10,5.328125e-03
-6.212500e-10,5.609375e-03
-6.172500e-10,6.093750e-03
-6.132500e-10,6.765625e-03
-6.092500e-10,6.843750e-03
-6.052500e-10,7.218750e-03
-6.012500e-10,7.578125e-03
-5.972500e-10,7.937500e-03
-5.932500e-10,8.250000e-03
-5.892500e-10,8.859375e-03
-5.852500e-10,8.828125e-03
-5.812500e-10,8.968750e-03
-5.772500e-10,9.281250e-03
-5.732500e-10,9.750000e-03
-5.692500e-10,9.562500e-03
-5.652500e-10,9.656250e-03
-5.612500e-10,9.703125e-03
-5.572500e-10,9.687500e-03
-5.532500e-10,9.640625e-03
-5.492500e-10,9.859375e-03
-5.452500e-10,9.406250e-03
-5.412500e-10,9.140625e-03
-5.372500e-10,9.015625e-03
-5.332500e-10,9.062500e-03
-5.292500e-10,8.453125e-03
-5.252500e-10,8.125000e-03
-5.212500e-10,7.765625e-03
-5.172500e-10,7.375000e-03
-5.132500e-10,6.968750e-03
-5.092500e-10,6.843750e-03
-5.052500e-10,6.093750e-03
-5.012500e-10,5.546875e-03
-4.972500e-10,5.187500e-03
-4.932500e-10,5.031250e-03
-4.892500e-10,4.265625e-03
-4.852500e-10,3.812500e-03
-4.812500e-10,3.359375e-03
-4.772500e-10,2.937500e-03
-4.732500e-10,2.515625e-03
-4.692500e-10,2.437500e-03
-4.652500e-10,1.750000e-03
-4.612500e-10,1.312500e-03
-4.572500e-10,1.093750e-03
-4.532500e-10,1.125000e-03
-4.492500e-10,5.781250e-04
-4.452500e-10,3.593750e-04
-4.412500e-10,1.562500e-04
-4.372500e-10,5.551115e-17
-4.332500e-10,-1.250000e-04
-4.292500e-10,9.375000e-05
-4.252500e-10,-2.812500e-04
-4.212500e-10,-4.062500e-04
-4.172500e-10,-2.968750e-04
-4.132500e-10,3.125000e-05
-4.092500e-10,-2.031250e-04
-4.052500e-10,-9.375000e-05
-4.012500e-10,5.551115e-17
-3.972500e-10,1.093750e-04
-3.932500e-10,2.656250e-04
-3.892500e-10,7.343750e-04
-3.852500e-10,5.937500e-04
-3.812500e-10,6.875000e-04
-3.772500e-10,1.000000e-03
-3.732500e-10,1.515625e-03
-3.692500e-10,1.453125e-03
-3.652500e-10,1.703125e-03
-3.612500e-10,1.906250e-03
-3.572500e-10,2.125000e-03
-3.532500e-10,2.359375e-03
-3.492500e-10,2.890625e-03
-3.452500e-10,2.812500e-03
-3.412500e-10,2.937500e-03
-3.372500e-10,3.265625e-03
-3.332500e-10,3.781250e-03
-3.292500e-10,3.703125e-03
-3.252500e-10,3.921875e-03
-3.212500e-10,4.093750e-03
-3.172500e-10,4.250000e-03
-3.132500e-10,4.437500e-03
-3.092500e-10,4.890625e-03
-3.052500e-10,4.734375e-03
-3.012500e-10,4.765625e-03
-2.972500e-10,5.000000e-03
-2.932500e-10,5.406250e-03
-2.892500e-10,5.218750e-03
-2.852500e-10,5.328125e-03
-2.812500e-10,5.375000e-03
-2.772500e-10,5.406250e-03
-2.732500e-10,5.453125e-03
-2.692500e-10,5.765625e-03
-2.652500e-10,5.484375e-03
-2.612500e-10,5.359375e-03
-2.572500e-10,5.453125e-03
-2.532500e-10,5.718750e-03
-2.492500e-10,5.375000e-03
-2.452500e-10,5.328125e-03
-2.412500e-10,5.218750e-03
-2.372500e-10,5.093750e-03
-2.332500e-10,5.015625e-03
-2.292500e-10,5.171875e-03
-2.252500e-10,4.765625e-03
-2.212500e-10,4.531250e-03
-2.172500e-10,4.500000e-03
-2.132500e-10,4.656250e-03
-2.092500e-10,4.234375e-03
-2.052500e-10,4.093750e-03
-2.012500e-10,3.937500e-03
-1.972500e-10,3.781250e-03
-1.932500e-10,3.671875e-03
-1.892500e-10,3.828125e-03
-1.852500e-10,3.468750e-03
-1.812500e-10,3.265625e-03
-1.772500e-10,3.296875e-03
-1.732500e-10,3.562500e-03
-1.692500e-10,3.234375e-03
-1.652500e-10,3.250000e-03
-1.612500e-10,3.265625e-03
-1.572500e-10,3.296875e-03
-1.532500e-10,3.421875e-03
-1.492500e-10,3.812500e-03
-1.452500e-10,3.734375e-03
-1.412500e-10,3.843750e-03
-1.372500e-10,4.187500e-03
-1.332500e-10,4.796875e-03
-1.292500e-10,4.859375e-03
-1.252500e-10,5.250000e-03
-1.212500e-10,5.671875e-03
-1.172500e-10,6.140625e-03
-1.132500e-10,6.703125e-03
-1.092500e-10,7.578125e-03
-1.052500e-10,7.968750e-03
-1.012500e-10,8.578125e-03
-9.725000e-11,9.437500e-03
-9.325000e-11,1.056250e-02
-8.925000e-11,1.115625e-02
-8.525000e-11,1.207813e-02
-8.125000e-11,1.306250e-02
-7.725000e-11,1.410938e-02
-7.325000e-11,1.525000e-02
-6.925000e-11,1.671875e-02
-6.525000e-11,1.771875e-02
-6.125000e-11,1.895313e-02
-5.725000e-11,2.042188e-02
-5.325000e-11,2.217188e-02
-4.925000e-11,2.342188e-02
-4.525000e-11,2.500000e-02
-4.125000e-11,2.665625e-02
-3.725000e-11,2.837500e-02
-3.325000e-11,3.018750e-02
-2.925000e-11,3.235938e-02
-2.525000e-11,3.406250e-02
-2.125000e-11,3.601563e-02
-1.725000e-11,3.818750e-02
-1.325000e-11,4.065625e-02
-9.250000e-12,4.264063e-02
-5.250000e-12,4.493750e-02
-1.250000e-12,4.731250e-02
2.750000e-12,4.975000e-02
6.750000e-12,5.225000e-02
1.075000e-11,5.512500e-02
1.475000e-11,5.751563e-02
1.875000e-11,6.012500e-02
2.275000e-11,6.295313e-02
2.675000e-11,6.601563e-02
3.075000e-11,6.860938e-02
3.475000e-11,7.145313e-02
3.875000e-11,7.434375e-02
4.275000e-11,7.726563e-02
4.675000e-11,8.020313e-02
5.075000e-11,8.346875e-02
5.475000e-11,8.618750e-02
5.875000e-11,8.909375e-02
6.275000e-11,9.212500e-02
6.675000e-11,9.534375e-02
7.075000e-11,9.804688e-02
7.475000e-11,1.009375e-01
7.875000e-11,1.037813e-01
8.275000e-11,1.066094e-01
8.675000e-11,1.093750e-01
9.075000e-11,1.123750e-01
9.475000e-11,1.147969e-01
9.875000e-11,1.173125e-01
1.027500e-10,1.198906e-01
1.067500e-10,1.225625e-01
1.107500e-10,1.246719e-01
1.147500e-10,1.269063e-01
1.187500e-10,1.290313e-01
1.227500e-10,1.310625e-01
1.267500e-10,1.329844e-01
1.307500e-10,1.350625e-01
1.347500e-10,1.365156e-01
1.387500e-10,1.380156e-01
1.427500e-10,1.395469e-01
1.467500e-10,1.411094e-01
1.507500e-10,1.420625e-01
1.547500e-10,1.431250e-01
1.587500e-10,1.440469e-01
1.627500e-10,1.448438e-01
1.667500e-10,1.455000e-01
1.707500e-10,1.462969e-01
1.747500e-10,1.464531e-01
1.787500e-10,1.466406e-01
1.827500e-10,1.468438e-01
1.867500e-10,1.470781e-01
1.907500e-10,1.466875e-01
1.947500e-10,1.464375e-01
1.987500e-10,1.460313e-01
2.027500e-10,1.455156e-01
2.067500e-10,1.448750e-01
2.107500e-10,1.443594e-01
2.147500e-10,1.432344e-01
2.187500e-10,1.421719e-01
2.227500e-10,1.411250e-01
2.267500e-10,1.401406e-01
2.307500e-10,1.385469e-01
2.347500e-10,1.371406e-01
2.387500e-10,1.356094e-01
2.427500e-10,1.340000e-01
2.467500e-10,1.323125e-01
2.507500e-10,1.307500e-01
2.547500e-10,1.286406e-01
2.587500e-10,1.266406e-01
2.627500e-10,1.246875e-01
2.667500e-10,1.228594e-01
2.707500e-10,1.204531e-01
2.747500e-10,1.182969e-01
2.787500e-10,1.160625e-01
2.827500e-10,1.138125e-01
2.867500e-10,1.115313e-01
2.907500e-10,1.094531e-01
2.947500e-10,1.068438e-01
2.987500e-10,1.044219e-01
3.027500e-10,1.021094e-01
3.067500e-10,9.998438e-02
3.107500e-10,9.731250e-02
3.147500e-10,9.496875e-02
3.187500e-10,9.259375e-02
3.227500e-10,9.026563e-02
3.267500e-10,8.795313e-02
3.307500e-10,8.589063e-02
3.347500e-10,8.334375e-02
3.387500e-10,8.103125e-02
3.427500e-10,7.887500e-02
3.467500e-10,7.693750e-02
3.507500e-10,7.450000e-02
3.547500e-10,7.239063e-02
3.587500e-10,7.031250e-02
3.627500e-10,6.828125e-02
3.667500e-10,6.629688e-02
3.707500e-10,6.459375e-02
3.747500e-10,6.237500e-02
3.787500e-10,6.042188e-02
3.827500e-10,5.864063e-02
3.867500e-10,5.706250e-02
3.907500e-10,5.500000e-02
3.947500e-10,5.325000e-02
3.987500e-10,5.154688e-02
4.027500e-10,4.987500e-02
4.067500e-10,4.825000e-02
4.107500e-10,4.690625e-02
4.147500e-10,4.504688e-02
4.187500e-10,4.343750e-02
4.227500e-10,4.201563e-02
4.267500e-10,4.078125e-02
4.307500e-10,3.909375e-02
4.347500e-10,3.770313e-02
4.387500e-10,3.639063e-02
4.427500e-10,3.510938e-02
4.467500e-10,3.389063e-02
4.507500e-10,3.300000e-02
4.547500e-10,3.157813e-02
4.587500e-10,3.043750e-02
4.627500e-10,2.953125e-02
4.667500e-10,2.884375e-02
4.707500e-10,2.771875e-02
4.747500e-10,2.693750e-02
4.787500e-10,2.625000e-02
4.827500e-10,2.564063e-02
4.867500e-10,2.510938e-02
4.907500e-10,2.493750e-02
4.947500e-10,2.426563e-02
4.987500e-10,2.387500e-02
5.027500e-10,2.376563e-02
5.067500e-10,2.387500e-02
5.107500e-10,2.354688e-02
5.147500e-10,2.354688e-02
5.187500e-10,2.364063e-02
5.227500e-10,2.379688e-02
5.267500e-10,2.398438e-02
5.307500e-10,2.451563e-02
5.347500e-10,2.450000e-02
5.387500e-10,2.470313e-02
5.427500e-10,2.514063e-02
5.467500e-10,2.573438e-02
5.507500e-10,2.581250e-02
5.547500e-10,2.612500e-02
5.587500e-10,2.648438e-02
5.627500e-10,2.678125e-02
5.667500e-10,2.701563e-02
5.707500e-10,2.750000e-02
5.747500e-10,2.735938e-02
5.787500e-10,2.732813e-02
5.827500e-10,2.745313e-02
5.867500e-10,2.764063e-02
5.907500e-10,2.721875e-02
5.947500e-10,2.696875e-02
5.987500e-10,2.668750e-02
6.027500e-10,2.628125e-02
6.067500e-10,2.576563e-02
6.107500e-10,2.546875e-02
6.147500e-10,2.450000e-02
6.187500e-10,2.362500e-02
6.227500e-10,2.290625e-02
6.267500e-10,2.229688e-02
6.307500e-10,2.106250e-02
6.347500e-10,2.003125e-02
6.387500e-10,1.901563e-02
6.427500e-10,1.796875e-02
6.467500e-10,1.684375e-02
6.507500e-10,1.601563e-02
6.547500e-10,1.460938e-02
6.587500e-10,1.339063e-02
6.627500e-10,1.242188e-02
6.667500e-10,1.167188e-02
6.707500e-10,1.039063e-02
6.747500e-10,9.453125e-03
6.787500e-10,8.593750e-03
6.827500e-10,7.812500e-03
6.867500e-10,7.062500e-03
6.907500e-10,6.687500e-03
6.947500e-10,5.812500e-03
6.987500e-10,5.234375e-03
7.027500e-10,4.937500e-03
7.067500e-10,4.937500e-03
7.107500e-10,4.437500e-03
7.147500e-10,4.312500e-03
7.187500e-10,4.281250e-03
7.227500e-10,4.328125e-03
7.267500e-10,4.406250e-03
7.307500e-10,4.843750e-03
7.347500e-10,4.750000e-03
7.387500e-10,4.906250e-03
7.427500e-10,5.296875e-03
7.467500e-10,5.921875e-03
7.507500e-10,5.953125e-03
7.547500e-10,6.296875e-03
7.587500e-10,6.656250e-03
7.627500e-10,6.984375e-03
7.667500e-10,7.281250e-03
7.707500e-10,7.843750e-03
7.747500e-10,7.781250e-03
7.787500e-10,7.875000e-03
7.827500e-10,8.140625e-03
7.867500e-10,8.531250e-03
7.907500e-10,8.281250e-03
7.947500e-10,8.281250e-03
7.987500e-10,8.218750e-03
8.027500e-10,8.125000e-03
8.067500e-10,7.937500e-03
8.107500e-10,8.015625e-03
8.147500e-10,7.453125e-03
8.187500e-10,7.031250e-03
8.227500e-10,6.796875e-03
8.267500e-10,6.718750e-03
8.307500e-10,6.031250e-03
8.347500e-10,5.625000e-03
8.387500e-10,5.218750e-03
8.427500e-10,4.828125e-03
8.467500e-10,4.421875e-03
8.507500e-10,4.328125e-03
8.547500e-10,3.671875e-03
8.587500e-10,3.234375e-03
8.627500e-10,3.046875e-03
8.667500e-10,3.093750e-03
8.707500e-10,2.593750e-03
8.747500e-10,2.437500e-03
8.787500e-10,2.343750e-03
8.827500e-10,2.312500e-03
8.867500e-10,2.312500e-03
8.907500e-10,2.687500e-03
8.947500e-10,2.500000e-03
8.987500e-10,2.578125e-03
9.027500e-10,2.906250e-03
9.067500e-10,3.468750e-03
9.107500e-10,3.468750e-03
9.147500e-10,3.812500e-03
9.187500e-10,4.187500e-03
9.227500e-10,4.578125e-03
9.267500e-10,4.968750e-03
9.307500e-10,5.671875e-03
9.347500e-10,5.781250e-03
9.387500e-10,6.078125e-03
9.427500e-10,6.562500e-03
9.467500e-10,7.234375e-03
9.507500e-10,7.265625e-03
9.547500e-10,7.562500e-03
9.587500e-10,7.843750e-03
9.627500e-10,8.062500e-03
9.667500e-10,8.234375e-03
9.707500e-10,8.671875e-03
9.747500e-10,8.453125e-03
9.787500e-10,8.375000e-03
9.827500e-10,8.468750e-03
9.867500e-10,8.687500e-03
9.907500e-10,8.281250e-03
9.947500e-10,8.109375e-03
9.987500e-10,7.921875e-03
1.002750e-09,7.671875e-03
1.006750e-09,7.406250e-03
1.010750e-09,7.406250e-03
1.014750e-09,6.781250e-03
1.018750e-09,6.328125e-03
1.022750e-09,6.093750e-03
1.026750e-09,6.031250e-03
1.030750e-09,5.375000e-03
1.034750e-09,5.031250e-03
1.038750e-09,4.703125e-03
1.042750e-09,4.375000e-03
1.046750e-09,4.078125e-03
1.050750e-09,4.109375e-03
1.054750e-09,3.578125e-03
1.058750e-09,3.281250e-03
1.062750e-09,3.218750e-03
1.066750e-09,3.406250e-03
1.070750e-09,3.015625e-03
1.074750e-09,2.984375e-03
1.078750e-09,2.984375e-03
1.082750e-09,3.046875e-03
1.086750e-09,3.140625e-03
1.090750e-09,3.562500e-03
1.094750e-09,3.421875e-03
1.098750e-09,3.531250e-03
1.102750e-09,3.859375e-03
1.106750e-09,4.421875e-03
1.110750e-09,4.406250e-03
1.114750e-09,4.718750e-03
1.118750e-09,5.015625e-03
1.122750e-09,5.343750e-03
1.126750e-09,5.671875e-03
1.130750e-09,6.296875e-03
1.134750e-09,6.312500e-03
1.138750e-09,6.531250e-03
1.142750e-09,6.921875e-03
1.146750e-09,7.500000e-03
1.150750e-09,7.437500e-03
1.154750e-09,7.656250e-03
1.158750e-09,7.843750e-03
1.162750e-09,8.000000e-03
1.166750e-09,8.125000e-03
1.170750e-09,8.515625e-03
1.174750e-09,8.265625e-03
1.178750e-09,8.171875e-03
1.182750e-09,8.234375e-03
1.186750e-09,8.468750e-03
1.190750e-09,8.062500e-03
1.194750e-09,7.937500e-03
1.198750e-09,7.765625e-03
1.202750e-09,7.562500e-03
1.206750e-09,7.343750e-03
1.210750e-09,7.390625e-03
1.214750e-09,6.828125e-03
1.218750e-09,6.437500e-03
1.222750e-09,6.250000e-03
1.226750e-09,6.250000e-03
1.230750e-09,5.656250e-03
1.234750e-09,5.359375e-03
1.238750e-09,5.062500e-03
1.242750e-09,4.796875e-03
1.246750e-09,4.531250e-03
1.250750e-09,4.609375e-03
1.254750e-09,4.093750e-03
1.258750e-09,3.812500e-03
1.262750e-09,3.765625e-03
1.266750e-09,3.968750e-03
1.270750e-09,3.593750e-03
1.274750e-09,3.578125e-03
1.278750e-09,3.593750e-03
1.282750e-09,3.656250e-03
1.286750e-09,3.750000e-03
1.290750e-09,4.203125e-03
1.294750e-09,4.093750e-03
1.298750e-09,4.234375e-03
1.302750e-09,4.625000e-03
1.306750e-09,5.234375e-03
1.310750e-09,5.281250e-03
1.314750e-09,5.671875e-03
1.318750e-09,6.078125e-03
1.322750e-09,6.515625e-03
1.326750e-09,6.968750e-03
1.330750e-09,7.750000e-03
1.334750e-09,7.921875e-03
1.338750e-09,8.312500e-03
1.342750e-09,8.890625e-03
1.346750e-09,9.671875e-03
1.350750e-09,9.828125e-03
1.354750e-09,1.028125e-02
1.358750e-09,1.070313e-02
1.362750e-09,1.109375e-02
1.366750e-09,1.145313e-02
1.370750e-09,1.209375e-02
1.374750e-09,1.207813e-02
1.378750e-09,1.221875e-02
1.382750e-09,1.253125e-02
1.386750e-09,1.298438e-02
1.390750e-09,1.278125e-02
1.394750e-09,1.284375e-02
1.398750e-09,1.285938e-02
1.402750e-09,1.281250e-02
1.406750e-09,1.271875e-02
1.410750e-09,1.289063e-02
1.414750e-09,1.240625e-02
1.418750e-09,1.209375e-02
1.422750e-09,1.193750e-02
1.426750e-09,1.193750e-02
1.430750e-09,1.131250e-02
1.434750e-09,1.096875e-02
1.438750e-09,1.059375e-02
1.442750e-09,1.020313e-02
1.446750e-09,9.796875e-03
1.450750e-09,9.687500e-03
1.454750e-09,8.984375e-03
1.458750e-09,8.468750e-03
1.462750e-09,8.171875e-03
1.466750e-09,8.093750e-03
1.470750e-09,7.421875e-03
1.474750e-09,7.062500e-03
1.478750e-09,6.734375e-03
1.482750e-09,6.437500e-03
1.486750e-09,6.171875e-03
1.490750e-09,6.234375e-03
1.494750e-09,5.734375e-03
1.498750e-09,5.468750e-03
1.502750e-09,5.453125e-03
1.506750e-09,5.656250e-03
1.510750e-09,5.312500e-03
1.514750e-09,5.296875e-03
1.518750e-09,5.312500e-03
1.522750e-09,5.359375e-03
1.526750e-09,5.437500e-03
1.530750e-09,5.859375e-03
1.534750e-09,5.687500e-03
1.538750e-09,5.750000e-03
1.542750e-09,6.031250e-03
1.546750e-09,6.531250e-03
1.550750e-09,6.437500e-03
1.554750e-09,6.640625e-03
1.558750e-09,6.859375e-03
1.562750e-09,7.078125e-03
1.566750e-09,7.296875e-03
1.570750e-09,7.812500e-03
1.574750e-09,7.703125e-03
1.578750e-09,7.796875e-03
1.582750e-09,8.062500e-03
1.586750e-09,8.515625e-03
1.590750e-09,8.343750e-03
1.594750e-09,8.453125e-03
1.598750e-09,8.546875e-03
1.602750e-09,8.593750e-03
1.606750e-09,8.640625e-03
1.610750e-09,8.953125e-03
1.614750e-09,8.625000e-03
1.618750e-09,8.500000e-03
1.622750e-09,8.531250e-03
1.626750e-09,8.750000e-03
1.630750e-09,8.343750e-03
1.634750e-09,8.234375e-03
1.638750e-09,8.093750e-03
1.642750e-09,7.953125e-03
1.646750e-09,7.812500e-03
1.650750e-09,7.953125e-03
1.654750e-09,7.484375e-03
1.658750e-09,7.218750e-03
1.662750e-09,7.156250e-03
1.666750e-09,7.312500e-03
1.670750e-09,6.875000e-03
1.674750e-09,6.734375e-03
1.678750e-09,6.625000e-03
1.682750e-09,6.515625e-03
1.686750e-09,6.437500e-03
1.690750e-09,6.671875e-03
1.694750e-09,6.328125e-03
1.698750e-09,6.218750e-03
1.702750e-09,6.312500e-03
1.706750e-09,6.640625e-03
1.710750e-09,6.390625e-03
1.714750e-09,6.453125e-03
1.718750e-09,6.531250e-03
1.722750e-09,6.640625e-03
1.726750e-09,6.765625e-03
1.730750e-09,7.203125e-03
1.734750e-09,7.046875e-03
1.738750e-09,7.093750e-03
1.742750e-09,7.359375e-03
1.746750e-09,7.828125e-03
1.750750e-09,7.671875e-03
1.754750e-09,7.828125e-03
