Measurements-streak-laser-independent/Photodiode-on-Tek-6GHz/Tek000_ch1_20190613132755413.csv

Model,MSO64
Waveform Type,ANALOG
Horizontal Units,s
Sample Interval,4.000000e-12
Record Length,1000
Zero Index,310.539062
Vertical Units,V

TIME,CH1
-1.242156e-09,4.343750e-03
-1.238156e-09,4.640625e-03
-1.234156e-09,4.312500e-03
-1.230156e-09,4.187500e-03
-1.226156e-09,4.250000e-03
-1.222156e-09,4.515625e-03
-1.218156e-09,4.171875e-03
-1.214156e-09,4.125000e-03
-1.210156e-09,4.062500e-03
-1.206156e-09,4.015625e-03
-1.202156e-09,3.968750e-03
-1.198156e-09,4.234375e-03
-1.194156e-09,3.875000e-03
-1.190156e-09,3.734375e-03
-1.186156e-09,3.796875e-03
-1.182156e-09,4.062500e-03
-1.178156e-09,3.718750e-03
-1.174156e-09,3.671875e-03
-1.170156e-09,3.625000e-03
-1.166156e-09,3.593750e-03
-1.162156e-09,3.546875e-03
-1.158156e-09,3.812500e-03
-1.154156e-09,3.468750e-03
-1.150156e-09,3.328125e-03
-1.146156e-09,3.390625e-03
-1.142156e-09,3.656250e-03
-1.138156e-09,3.312500e-03
-1.134156e-09,3.265625e-03
-1.130156e-09,3.218750e-03
-1.126156e-09,3.187500e-03
-1.122156e-09,3.156250e-03
-1.118156e-09,3.437500e-03
-1.114156e-09,3.109375e-03
-1.110156e-09,3.000000e-03
-1.106156e-09,3.109375e-03
-1.102156e-09,3.437500e-03
-1.098156e-09,3.156250e-03
-1.094156e-09,3.203125e-03
-1.090156e-09,3.281250e-03
-1.086156e-09,3.359375e-03
-1.082156e-09,3.468750e-03
-1.078156e-09,3.890625e-03
-1.074156e-09,3.750000e-03
-1.070156e-09,3.812500e-03
-1.066156e-09,4.093750e-03
-1.062156e-09,4.609375e-03
-1.058156e-09,4.531250e-03
-1.054156e-09,4.781250e-03
-1.050156e-09,5.046875e-03
-1.046156e-09,5.312500e-03
-1.042156e-09,5.593750e-03
-1.038156e-09,6.171875e-03
-1.034156e-09,6.156250e-03
-1.030156e-09,6.328125e-03
-1.026156e-09,6.718750e-03
-1.022156e-09,7.281250e-03
-1.018156e-09,7.218750e-03
-1.014156e-09,7.453125e-03
-1.010156e-09,7.656250e-03
-1.006156e-09,7.843750e-03
-1.002156e-09,8.000000e-03
-9.981563e-10,8.421875e-03
-9.941563e-10,8.203125e-03
-9.901563e-10,8.156250e-03
-9.861563e-10,8.265625e-03
-9.821562e-10,8.546875e-03
-9.781562e-10,8.171875e-03
-9.741562e-10,8.078125e-03
-9.701562e-10,7.937500e-03
-9.661562e-10,7.750000e-03
-9.621562e-10,7.546875e-03
-9.581562e-10,7.609375e-03
-9.541562e-10,7.046875e-03
-9.501562e-10,6.656250e-03
-9.461563e-10,6.453125e-03
-9.421563e-10,6.437500e-03
-9.381563e-10,5.812500e-03
-9.341563e-10,5.468750e-03
-9.301562e-10,5.140625e-03
-9.261562e-10,4.828125e-03
-9.221562e-10,4.515625e-03
-9.181563e-10,4.531250e-03
-9.141563e-10,3.953125e-03
-9.101563e-10,3.593750e-03
-9.061562e-10,3.484375e-03
-9.021562e-10,3.593750e-03
-8.981562e-10,3.140625e-03
-8.941562e-10,3.031250e-03
-8.901562e-10,2.953125e-03
-8.861563e-10,2.906250e-03
-8.821563e-10,2.890625e-03
-8.781562e-10,3.234375e-03
-8.741562e-10,2.984375e-03
-8.701562e-10,2.984375e-03
-8.661562e-10,3.203125e-03
-8.621562e-10,3.640625e-03
-8.581563e-10,3.500000e-03
-8.541563e-10,3.671875e-03
-8.501563e-10,3.875000e-03
-8.461562e-10,4.062500e-03
-8.421562e-10,4.250000e-03
-8.381562e-10,4.734375e-03
-8.341562e-10,4.609375e-03
-8.301562e-10,4.671875e-03
-8.261563e-10,4.906250e-03
-8.221563e-10,5.343750e-03
-8.181562e-10,5.125000e-03
-8.141562e-10,5.187500e-03
-8.101562e-10,5.234375e-03
-8.061562e-10,5.234375e-03
-8.021562e-10,5.203125e-03
-7.981563e-10,5.453125e-03
-7.941563e-10,5.062500e-03
-7.901563e-10,4.843750e-03
-7.861562e-10,4.812500e-03
-7.821562e-10,4.953125e-03
-7.781562e-10,4.468750e-03
-7.741562e-10,4.281250e-03
-7.701562e-10,4.062500e-03
-7.661563e-10,3.859375e-03
-7.621563e-10,3.656250e-03
-7.581562e-10,3.765625e-03
-7.541562e-10,3.265625e-03
-7.501562e-10,2.984375e-03
-7.461562e-10,2.937500e-03
-7.421562e-10,3.125000e-03
-7.381563e-10,2.718750e-03
-7.341563e-10,2.656250e-03
-7.301563e-10,2.625000e-03
-7.261562e-10,2.625000e-03
-7.221562e-10,2.671875e-03
-7.181562e-10,3.046875e-03
-7.141562e-10,2.859375e-03
-7.101563e-10,2.890625e-03
-7.061563e-10,3.171875e-03
-7.021563e-10,3.671875e-03
-6.981562e-10,3.593750e-03
-6.941562e-10,3.828125e-03
-6.901562e-10,4.078125e-03
-6.861562e-10,4.343750e-03
-6.821562e-10,4.593750e-03
-6.781563e-10,5.140625e-03
-6.741563e-10,5.062500e-03
-6.701563e-10,5.171875e-03
-6.661562e-10,5.453125e-03
-6.621562e-10,5.906250e-03
-6.581562e-10,5.687500e-03
-6.541562e-10,5.750000e-03
-6.501563e-10,5.750000e-03
-6.461563e-10,5.718750e-03
-6.421563e-10,5.609375e-03
-6.381562e-10,5.765625e-03
-6.341562e-10,5.250000e-03
-6.301562e-10,4.875000e-03
-6.261562e-10,4.671875e-03
-6.221562e-10,4.609375e-03
-6.181563e-10,3.890625e-03
-6.141563e-10,3.453125e-03
-6.101563e-10,2.968750e-03
-6.061562e-10,2.484375e-03
-6.021562e-10,1.968750e-03
-5.981562e-10,1.750000e-03
-5.941562e-10,9.375000e-04
-5.901563e-10,3.281250e-04
-5.861563e-10,-4.687500e-05
-5.821563e-10,-1.875000e-04
-5.781562e-10,-8.906250e-04
-5.741562e-10,-1.250000e-03
-5.701562e-10,-1.546875e-03
-5.661562e-10,-1.765625e-03
-5.621562e-10,-1.921875e-03
-5.581563e-10,-1.687500e-03
-5.541563e-10,-1.984375e-03
-5.501563e-10,-1.984375e-03
-5.461562e-10,-1.703125e-03
-5.421562e-10,-1.125000e-03
-5.381562e-10,-1.078125e-03
-5.341562e-10,-6.250000e-04
-5.301563e-10,-1.250000e-04
-5.261563e-10,4.687500e-04
-5.221563e-10,1.125000e-03
-5.181562e-10,2.140625e-03
-5.141562e-10,2.578125e-03
-5.101562e-10,3.281250e-03
-5.061562e-10,4.203125e-03
-5.021562e-10,5.343750e-03
-4.981563e-10,5.875000e-03
-4.941563e-10,6.703125e-03
-4.901563e-10,7.500000e-03
-4.861562e-10,8.281250e-03
-4.821562e-10,9.000000e-03
-4.781562e-10,9.984375e-03
-4.741562e-10,1.028125e-02
-4.701563e-10,1.071875e-02
-4.661563e-10,1.128125e-02
-4.621562e-10,1.195313e-02
-4.581562e-10,1.193750e-02
-4.541563e-10,1.214063e-02
-4.501562e-10,1.221875e-02
-4.461562e-10,1.221875e-02
-4.421562e-10,1.212500e-02
-4.381563e-10,1.225000e-02
-4.341562e-10,1.167188e-02
-4.301562e-10,1.123438e-02
-4.261562e-10,1.092188e-02
-4.221563e-10,1.075000e-02
-4.181562e-10,9.937500e-03
-4.141562e-10,9.375000e-03
-4.101563e-10,8.750000e-03
-4.061563e-10,8.125000e-03
-4.021562e-10,7.468750e-03
-3.981562e-10,7.125000e-03
-3.941563e-10,6.187500e-03
-3.901562e-10,5.468750e-03
-3.861562e-10,5.000000e-03
-3.821562e-10,4.765625e-03
-3.781563e-10,3.984375e-03
-3.741562e-10,3.562500e-03
-3.701562e-10,3.140625e-03
-3.661562e-10,2.796875e-03
-3.621563e-10,2.515625e-03
-3.581562e-10,2.609375e-03
-3.541562e-10,2.156250e-03
-3.501563e-10,1.968750e-03
-3.461563e-10,2.062500e-03
-3.421562e-10,2.406250e-03
-3.381562e-10,2.234375e-03
-3.341563e-10,2.390625e-03
-3.301562e-10,2.531250e-03
-3.261562e-10,2.687500e-03
-3.221562e-10,2.906250e-03
-3.181563e-10,3.437500e-03
-3.141562e-10,3.359375e-03
-3.101562e-10,3.484375e-03
-3.061562e-10,3.843750e-03
-3.021563e-10,4.359375e-03
-2.981562e-10,4.296875e-03
-2.941562e-10,4.484375e-03
-2.901563e-10,4.562500e-03
-2.861563e-10,4.593750e-03
-2.821562e-10,4.656250e-03
-2.781562e-10,4.937500e-03
-2.741563e-10,4.578125e-03
-2.701563e-10,4.359375e-03
-2.661562e-10,4.375000e-03
-2.621562e-10,4.500000e-03
-2.581563e-10,4.046875e-03
-2.541562e-10,3.859375e-03
-2.501562e-10,3.546875e-03
-2.461562e-10,3.203125e-03
-2.421563e-10,2.953125e-03
-2.381562e-10,2.921875e-03
-2.341562e-10,2.359375e-03
-2.301563e-10,1.937500e-03
-2.261562e-10,1.828125e-03
-2.221563e-10,1.890625e-03
-2.181562e-10,1.421875e-03
-2.141563e-10,1.312500e-03
-2.101562e-10,1.156250e-03
-2.061563e-10,1.000000e-03
-2.021562e-10,1.015625e-03
-1.981562e-10,1.281250e-03
-1.941562e-10,1.125000e-03
-1.901562e-10,1.125000e-03
-1.861563e-10,1.437500e-03
-1.821562e-10,1.968750e-03
-1.781563e-10,1.968750e-03
-1.741562e-10,2.343750e-03
-1.701563e-10,2.656250e-03
-1.661562e-10,2.953125e-03
-1.621563e-10,3.406250e-03
-1.581562e-10,4.062500e-03
-1.541563e-10,4.281250e-03
-1.501562e-10,4.578125e-03
-1.461563e-10,5.125000e-03
-1.421562e-10,5.843750e-03
-1.381562e-10,5.937500e-03
-1.341562e-10,6.343750e-03
-1.301562e-10,6.640625e-03
-1.261563e-10,6.875000e-03
-1.221562e-10,7.203125e-03
-1.181563e-10,7.671875e-03
-1.141563e-10,7.687500e-03
-1.101563e-10,7.750000e-03
-1.061562e-10,8.000000e-03
-1.021562e-10,8.453125e-03
-9.815625e-11,8.296875e-03
-9.415625e-11,8.421875e-03
-9.015625e-11,8.531250e-03
-8.615625e-11,8.625000e-03
-8.215625e-11,8.843750e-03
-7.815625e-11,9.312500e-03
-7.415625e-11,9.453125e-03
-7.015625e-11,9.750000e-03
-6.615625e-11,1.031250e-02
-6.215625e-11,1.125000e-02
-5.815625e-11,1.173438e-02
-5.415625e-11,1.262500e-02
-5.015625e-11,1.367188e-02
-4.615625e-11,1.490625e-02
-4.215625e-11,1.640625e-02
-3.815625e-11,1.834375e-02
-3.415625e-11,2.012500e-02
-3.015625e-11,2.225000e-02
-2.615625e-11,2.475000e-02
-2.215625e-11,2.779688e-02
-1.815625e-11,3.056250e-02
-1.415625e-11,3.382813e-02
-1.015625e-11,3.739063e-02
-6.156250e-12,4.125000e-02
-2.156250e-12,4.540625e-02
1.843750e-12,5.014063e-02
5.843750e-12,5.475000e-02
9.843750e-12,5.971875e-02
1.384375e-11,6.509375e-02
1.784375e-11,7.096875e-02
2.184375e-11,7.660938e-02
2.584375e-11,8.265625e-02
2.984375e-11,8.895313e-02
3.384375e-11,9.548438e-02
3.784375e-11,1.022188e-01
4.184375e-11,1.094375e-01
4.584375e-11,1.164063e-01
4.984375e-11,1.236406e-01
5.384375e-11,1.310938e-01
5.784375e-11,1.388906e-01
6.184375e-11,1.463750e-01
6.584375e-11,1.540625e-01
6.984375e-11,1.618438e-01
7.384375e-11,1.697031e-01
7.784375e-11,1.775625e-01
8.184375e-11,1.857656e-01
8.584375e-11,1.935469e-01
8.984375e-11,2.014219e-01
9.384375e-11,2.093281e-01
9.784375e-11,2.174063e-01
1.018438e-10,2.250313e-01
1.058437e-10,2.326875e-01
1.098437e-10,2.402656e-01
1.138437e-10,2.477500e-01
1.178438e-10,2.550781e-01
1.218437e-10,2.625625e-01
1.258438e-10,2.694844e-01
1.298437e-10,2.763594e-01
1.338438e-10,2.830781e-01
1.378437e-10,2.897656e-01
1.418438e-10,2.959063e-01
1.458437e-10,3.019063e-01
1.498438e-10,3.076563e-01
1.538437e-10,3.131563e-01
1.578438e-10,3.183438e-01
1.618437e-10,3.235000e-01
1.658437e-10,3.279688e-01
1.698437e-10,3.322344e-01
1.738437e-10,3.361875e-01
1.778437e-10,3.399688e-01
1.818437e-10,3.430313e-01
1.858438e-10,3.458750e-01
1.898437e-10,3.483438e-01
1.938438e-10,3.504531e-01
1.978437e-10,3.521406e-01
2.018438e-10,3.536563e-01
2.058437e-10,3.544688e-01
2.098438e-10,3.550000e-01
2.138437e-10,3.551719e-01
2.178438e-10,3.551250e-01
2.218437e-10,3.543594e-01
2.258437e-10,3.534063e-01
2.298437e-10,3.520938e-01
2.338437e-10,3.504531e-01
2.378437e-10,3.484688e-01
2.418437e-10,3.463438e-01
2.458438e-10,3.436406e-01
2.498437e-10,3.407656e-01
2.538437e-10,3.376563e-01
2.578438e-10,3.344688e-01
2.618438e-10,3.306875e-01
2.658437e-10,3.269531e-01
2.698437e-10,3.230000e-01
2.738438e-10,3.189063e-01
2.778438e-10,3.146875e-01
2.818437e-10,3.104688e-01
2.858437e-10,3.058438e-01
2.898438e-10,3.012813e-01
2.938437e-10,2.966875e-01
2.978437e-10,2.921719e-01
3.018437e-10,2.872188e-01
3.058438e-10,2.825313e-01
3.098437e-10,2.777656e-01
3.138437e-10,2.730313e-01
3.178438e-10,2.682969e-01
3.218438e-10,2.636875e-01
3.258437e-10,2.587500e-01
3.298437e-10,2.540000e-01
3.338438e-10,2.492969e-01
3.378437e-10,2.447500e-01
3.418437e-10,2.397969e-01
3.458437e-10,2.351719e-01
3.498438e-10,2.304844e-01
3.538437e-10,2.258438e-01
3.578437e-10,2.212500e-01
3.618437e-10,2.167656e-01
3.658438e-10,2.118906e-01
3.698437e-10,2.072500e-01
3.738437e-10,2.026094e-01
3.778438e-10,1.981094e-01
3.818438e-10,1.931875e-01
3.858437e-10,1.885625e-01
3.898437e-10,1.838750e-01
3.938438e-10,1.792344e-01
3.978437e-10,1.746094e-01
4.018437e-10,1.701250e-01
4.058437e-10,1.652031e-01
4.098438e-10,1.605313e-01
4.138437e-10,1.559375e-01
4.178437e-10,1.514531e-01
4.218437e-10,1.466250e-01
4.258438e-10,1.420938e-01
4.298437e-10,1.375938e-01
4.338437e-10,1.331875e-01
4.378438e-10,1.288438e-01
4.418438e-10,1.247656e-01
4.458437e-10,1.202656e-01
4.498437e-10,1.161094e-01
4.538438e-10,1.121250e-01
4.578437e-10,1.083438e-01
4.618437e-10,1.042969e-01
4.658437e-10,1.005938e-01
4.698437e-10,9.704688e-02
4.738437e-10,9.362500e-02
4.778438e-10,9.032813e-02
4.818438e-10,8.739063e-02
4.858438e-10,8.406250e-02
4.898437e-10,8.110938e-02
4.938437e-10,7.840625e-02
4.978437e-10,7.590625e-02
5.018437e-10,7.317188e-02
5.058438e-10,7.076563e-02
5.098438e-10,6.854688e-02
5.138438e-10,6.643750e-02
5.178437e-10,6.442188e-02
5.218437e-10,6.276563e-02
5.258437e-10,6.067188e-02
5.298437e-10,5.889063e-02
5.338437e-10,5.735938e-02
5.378438e-10,5.598438e-02
5.418438e-10,5.431250e-02
5.458438e-10,5.290625e-02
5.498437e-10,5.167188e-02
5.538437e-10,5.045313e-02
5.578437e-10,4.928125e-02
5.618437e-10,4.840625e-02
5.658438e-10,4.706250e-02
5.698438e-10,4.595313e-02
5.738438e-10,4.509375e-02
5.778437e-10,4.434375e-02
5.818437e-10,4.323438e-02
5.858437e-10,4.235938e-02
5.898437e-10,4.162500e-02
5.938437e-10,4.089063e-02
5.978438e-10,4.014063e-02
6.018438e-10,3.968750e-02
6.058438e-10,3.873438e-02
6.098437e-10,3.798438e-02
6.138437e-10,3.748438e-02
6.178437e-10,3.709375e-02
6.218437e-10,3.629688e-02
6.258437e-10,3.571875e-02
6.298438e-10,3.526563e-02
6.338438e-10,3.478125e-02
6.378437e-10,3.425000e-02
6.418437e-10,3.398438e-02
6.458437e-10,3.320313e-02
6.498437e-10,3.257813e-02
6.538437e-10,3.218750e-02
6.578438e-10,3.190625e-02
6.618438e-10,3.112500e-02
6.658438e-10,3.054688e-02
6.698437e-10,3.006250e-02
6.738437e-10,2.950000e-02
6.778437e-10,2.884375e-02
6.818437e-10,2.843750e-02
6.858437e-10,2.745313e-02
6.898438e-10,2.662500e-02
6.938438e-10,2.598438e-02
6.978437e-10,2.545313e-02
7.018437e-10,2.437500e-02
7.058437e-10,2.350000e-02
7.098437e-10,2.268750e-02
7.138437e-10,2.182813e-02
7.178438e-10,2.085938e-02
7.218438e-10,2.015625e-02
7.258438e-10,1.892188e-02
7.298437e-10,1.784375e-02
7.338437e-10,1.700000e-02
7.378437e-10,1.632813e-02
7.418437e-10,1.512500e-02
7.458437e-10,1.420313e-02
7.498438e-10,1.337500e-02
7.538438e-10,1.259375e-02
7.578437e-10,1.176563e-02
7.618437e-10,1.126563e-02
7.658437e-10,1.029688e-02
7.698437e-10,9.562500e-03
7.738437e-10,9.125000e-03
7.778438e-10,8.937500e-03
7.818438e-10,8.265625e-03
7.858438e-10,7.953125e-03
7.898437e-10,7.750000e-03
7.938437e-10,7.625000e-03
7.978437e-10,7.531250e-03
8.018437e-10,7.781250e-03
8.058437e-10,7.562500e-03
8.098438e-10,7.578125e-03
8.138438e-10,7.890625e-03
8.178437e-10,8.453125e-03
8.218437e-10,8.484375e-03
8.258437e-10,8.843750e-03
8.298437e-10,9.250000e-03
8.338437e-10,9.703125e-03
8.378438e-10,1.012500e-02
8.418438e-10,1.082813e-02
8.458438e-10,1.096875e-02
8.498437e-10,1.129688e-02
8.538437e-10,1.181250e-02
8.578437e-10,1.251563e-02
8.618437e-10,1.257813e-02
8.658437e-10,1.290625e-02
8.698438e-10,1.320313e-02
8.738438e-10,1.345313e-02
8.778437e-10,1.360938e-02
8.818437e-10,1.401563e-02
8.858437e-10,1.378125e-02
8.898437e-10,1.367188e-02
8.938437e-10,1.373438e-02
8.978438e-10,1.393750e-02
9.018438e-10,1.348438e-02
9.058438e-10,1.329688e-02
9.098437e-10,1.306250e-02
9.138437e-10,1.281250e-02
9.178437e-10,1.248438e-02
9.218437e-10,1.243750e-02
9.258437e-10,1.178125e-02
9.298438e-10,1.131250e-02
9.338437e-10,1.104688e-02
9.378437e-10,1.098438e-02
9.418437e-10,1.032813e-02
9.458438e-10,1.000000e-02
9.498438e-10,9.687500e-03
9.538438e-10,9.406250e-03
9.578438e-10,9.140625e-03
9.618438e-10,9.203125e-03
9.658438e-10,8.718750e-03
9.698437e-10,8.468750e-03
9.738437e-10,8.468750e-03
9.778437e-10,8.703125e-03
9.818437e-10,8.390625e-03
9.858437e-10,8.406250e-03
9.898437e-10,8.468750e-03
9.938437e-10,8.578125e-03
9.978437e-10,8.687500e-03
1.001844e-09,9.125000e-03
1.005844e-09,9.000000e-03
1.009844e-09,9.093750e-03
1.013844e-09,9.390625e-03
1.017844e-09,9.890625e-03
1.021844e-09,9.781250e-03
1.025844e-09,9.968750e-03
1.029844e-09,1.015625e-02
1.033844e-09,1.031250e-02
1.037844e-09,1.043750e-02
1.041844e-09,1.082813e-02
1.045844e-09,1.059375e-02
1.049844e-09,1.051563e-02
1.053844e-09,1.060938e-02
1.057844e-09,1.085938e-02
1.061844e-09,1.045313e-02
1.065844e-09,1.029688e-02
1.069844e-09,1.012500e-02
1.073844e-09,9.890625e-03
1.077844e-09,9.609375e-03
1.081844e-09,9.593750e-03
1.085844e-09,8.937500e-03
1.089844e-09,8.453125e-03
1.093844e-09,8.140625e-03
1.097844e-09,8.031250e-03
1.101844e-09,7.281250e-03
1.105844e-09,6.828125e-03
1.109844e-09,6.390625e-03
1.113844e-09,5.937500e-03
1.117844e-09,5.500000e-03
1.121844e-09,5.390625e-03
1.125844e-09,4.687500e-03
1.129844e-09,4.234375e-03
1.133844e-09,4.000000e-03
1.137844e-09,4.031250e-03
1.141844e-09,3.484375e-03
1.145844e-09,3.296875e-03
1.149844e-09,3.156250e-03
1.153844e-09,3.093750e-03
1.157844e-09,3.062500e-03
1.161844e-09,3.406250e-03
1.165844e-09,3.187500e-03
1.169844e-09,3.250000e-03
1.173844e-09,3.562500e-03
1.177844e-09,4.125000e-03
1.181844e-09,4.140625e-03
1.185844e-09,4.500000e-03
1.189844e-09,4.906250e-03
1.193844e-09,5.359375e-03
1.197844e-09,5.843750e-03
1.201844e-09,6.656250e-03
1.205844e-09,6.875000e-03
1.209844e-09,7.328125e-03
1.213844e-09,7.984375e-03
1.217844e-09,8.843750e-03
1.221844e-09,9.078125e-03
1.225844e-09,9.625000e-03
1.229844e-09,1.014063e-02
1.233844e-09,1.062500e-02
1.237844e-09,1.109375e-02
1.241844e-09,1.181250e-02
1.245844e-09,1.189063e-02
1.249844e-09,1.212500e-02
1.253844e-09,1.250000e-02
1.257844e-09,1.301563e-02
1.261844e-09,1.289063e-02
1.265844e-09,1.298438e-02
1.269844e-09,1.303125e-02
1.273844e-09,1.301563e-02
1.277844e-09,1.293750e-02
1.281844e-09,1.310938e-02
1.285844e-09,1.262500e-02
1.289844e-09,1.226563e-02
1.293844e-09,1.207813e-02
1.297844e-09,1.203125e-02
1.301844e-09,1.134375e-02
1.305844e-09,1.092188e-02
1.309844e-09,1.048438e-02
1.313844e-09,1.001563e-02
1.317844e-09,9.515625e-03
1.321844e-09,9.328125e-03
1.325844e-09,8.531250e-03
1.329844e-09,7.937500e-03
1.333844e-09,7.546875e-03
1.337844e-09,7.390625e-03
1.341844e-09,6.656250e-03
1.345844e-09,6.265625e-03
1.349844e-09,5.890625e-03
1.353844e-09,5.578125e-03
1.357844e-09,5.312500e-03
1.361844e-09,5.390625e-03
1.365844e-09,4.937500e-03
1.369844e-09,4.734375e-03
1.373844e-09,4.796875e-03
1.377844e-09,5.125000e-03
1.381844e-09,4.921875e-03
1.385844e-09,5.062500e-03
1.389844e-09,5.281250e-03
1.393844e-09,5.546875e-03
1.397844e-09,5.859375e-03
1.401844e-09,6.531250e-03
1.405844e-09,6.640625e-03
1.409844e-09,6.984375e-03
1.413844e-09,7.562500e-03
1.417844e-09,8.375000e-03
1.421844e-09,8.609375e-03
1.425844e-09,9.140625e-03
1.429844e-09,9.687500e-03
1.433844e-09,1.021875e-02
1.437844e-09,1.073438e-02
1.441844e-09,1.154688e-02
1.445844e-09,1.171875e-02
1.449844e-09,1.206250e-02
1.453844e-09,1.256250e-02
1.457844e-09,1.321875e-02
1.461844e-09,1.321875e-02
1.465844e-09,1.346875e-02
1.469844e-09,1.367188e-02
1.473844e-09,1.379688e-02
1.477844e-09,1.385938e-02
1.481844e-09,1.415625e-02
1.485844e-09,1.379688e-02
1.489844e-09,1.356250e-02
1.493844e-09,1.348438e-02
1.497844e-09,1.353125e-02
1.501844e-09,1.292188e-02
1.505844e-09,1.257813e-02
1.509844e-09,1.217188e-02
1.513844e-09,1.171875e-02
1.517844e-09,1.123438e-02
1.521844e-09,1.103125e-02
1.525844e-09,1.018750e-02
1.529844e-09,9.531250e-03
1.533844e-09,9.062500e-03
1.537844e-09,8.796875e-03
1.541844e-09,7.921875e-03
1.545844e-09,7.359375e-03
1.549844e-09,6.796875e-03
1.553844e-09,6.265625e-03
1.557844e-09,5.765625e-03
1.561844e-09,5.578125e-03
1.565844e-09,4.828125e-03
1.569844e-09,4.312500e-03
1.573844e-09,4.046875e-03
1.577844e-09,4.015625e-03
1.581844e-09,3.406250e-03
1.585844e-09,3.156250e-03
1.589844e-09,2.953125e-03
1.593844e-09,2.781250e-03
1.597844e-09,2.640625e-03
1.601844e-09,2.843750e-03
1.605844e-09,2.484375e-03
1.609844e-09,2.359375e-03
1.613844e-09,2.453125e-03
1.617844e-09,2.781250e-03
1.621844e-09,2.515625e-03
1.625844e-09,2.578125e-03
1.629844e-09,2.640625e-03
1.633844e-09,2.718750e-03
1.637844e-09,2.812500e-03
1.641844e-09,3.203125e-03
1.645844e-09,2.968750e-03
1.649844e-09,2.953125e-03
1.653844e-09,3.125000e-03
1.657844e-09,3.468750e-03
1.661844e-09,3.218750e-03
1.665844e-09,3.234375e-03
1.669844e-09,3.250000e-03
1.673844e-09,3.234375e-03
1.677844e-09,3.203125e-03
1.681844e-09,3.468750e-03
1.685844e-09,3.093750e-03
1.689844e-09,2.906250e-03
1.693844e-09,2.921875e-03
1.697844e-09,3.109375e-03
1.701844e-09,2.687500e-03
1.705844e-09,2.546875e-03
1.709844e-09,2.406250e-03
1.713844e-09,2.265625e-03
1.717844e-09,2.125000e-03
1.721844e-09,2.281250e-03
1.725844e-09,1.828125e-03
1.729844e-09,1.593750e-03
1.733844e-09,1.578125e-03
1.737844e-09,1.765625e-03
1.741844e-09,1.359375e-03
1.745844e-09,1.281250e-03
1.749844e-09,1.218750e-03
1.753844e-09,1.171875e-03
