Measurements-streak-laser-independent/Photodiode-on-Tek-6GHz/Tek000_ch1_20190613132751101.csv

Model,MSO64
Waveform Type,ANALOG
Horizontal Units,s
Sample Interval,4.000000e-12
Record Length,1000
Zero Index,310.875000
Vertical Units,V

TIME,CH1
-1.243500e-09,2.687500e-03
-1.239500e-09,3.156250e-03
-1.235500e-09,3.062500e-03
-1.231500e-09,3.343750e-03
-1.227500e-09,3.640625e-03
-1.223500e-09,4.000000e-03
-1.219500e-09,4.406250e-03
-1.215500e-09,5.140625e-03
-1.211500e-09,5.296875e-03
-1.207500e-09,5.671875e-03
-1.203500e-09,6.265625e-03
-1.199500e-09,7.062500e-03
-1.195500e-09,7.250000e-03
-1.191500e-09,7.718750e-03
-1.187500e-09,8.171875e-03
-1.183500e-09,8.578125e-03
-1.179500e-09,8.937500e-03
-1.175500e-09,9.562500e-03
-1.171500e-09,9.500000e-03
-1.167500e-09,9.578125e-03
-1.163500e-09,9.781250e-03
-1.159500e-09,1.010938e-02
-1.155500e-09,9.750000e-03
-1.151500e-09,9.593750e-03
-1.147500e-09,9.375000e-03
-1.143500e-09,9.046875e-03
-1.139500e-09,8.656250e-03
-1.135500e-09,8.484375e-03
-1.131500e-09,7.625000e-03
-1.127500e-09,6.921875e-03
-1.123500e-09,6.359375e-03
-1.119500e-09,5.953125e-03
-1.115500e-09,4.906250e-03
-1.111500e-09,4.140625e-03
-1.107500e-09,3.375000e-03
-1.103500e-09,2.593750e-03
-1.099500e-09,1.843750e-03
-1.095500e-09,1.421875e-03
-1.091500e-09,4.375000e-04
-1.087500e-09,-2.968750e-04
-1.083500e-09,-7.656250e-04
-1.079500e-09,-9.375000e-04
-1.075500e-09,-1.656250e-03
-1.071500e-09,-1.984375e-03
-1.067500e-09,-2.203125e-03
-1.063500e-09,-2.343750e-03
-1.059500e-09,-2.375000e-03
-1.055500e-09,-2.015625e-03
-1.051500e-09,-2.156250e-03
-1.047500e-09,-2.000000e-03
-1.043500e-09,-1.562500e-03
-1.039500e-09,-8.437500e-04
-1.035500e-09,-6.562500e-04
-1.031500e-09,-1.250000e-04
-1.027500e-09,4.687500e-04
-1.023500e-09,1.109375e-03
-1.019500e-09,1.750000e-03
-1.015500e-09,2.718750e-03
-1.011500e-09,3.062500e-03
-1.007500e-09,3.609375e-03
-1.003500e-09,4.312500e-03
-9.995000e-10,5.187500e-03
-9.955000e-10,5.390625e-03
-9.915000e-10,5.843750e-03
-9.875000e-10,6.218750e-03
-9.835000e-10,6.500000e-03
-9.795000e-10,6.718750e-03
-9.755000e-10,7.140625e-03
-9.715000e-10,6.875000e-03
-9.675000e-10,6.703125e-03
-9.635000e-10,6.656250e-03
-9.595000e-10,6.734375e-03
-9.555000e-10,6.125000e-03
-9.515000e-10,5.734375e-03
-9.475000e-10,5.296875e-03
-9.435000e-10,4.812500e-03
-9.395000e-10,4.281250e-03
-9.355000e-10,4.031250e-03
-9.315000e-10,3.156250e-03
-9.275000e-10,2.484375e-03
-9.235000e-10,2.015625e-03
-9.195000e-10,1.796875e-03
-9.155000e-10,1.000000e-03
-9.115000e-10,5.468750e-04
-9.075000e-10,1.718750e-04
-9.035000e-10,-1.562500e-04
-8.995000e-10,-3.906250e-04
-8.955000e-10,-2.343750e-04
-8.915000e-10,-6.093750e-04
-8.875000e-10,-6.718750e-04
-8.835000e-10,-4.687500e-04
-8.795000e-10,4.687500e-05
-8.755000e-10,3.125000e-05
-8.715000e-10,4.062500e-04
-8.675000e-10,8.437500e-04
-8.635000e-10,1.359375e-03
-8.595000e-10,1.921875e-03
-8.555000e-10,2.828125e-03
-8.515000e-10,3.171875e-03
-8.475000e-10,3.734375e-03
-8.435000e-10,4.500000e-03
-8.395000e-10,5.453125e-03
-8.355000e-10,5.781250e-03
-8.315000e-10,6.375000e-03
-8.275000e-10,6.937500e-03
-8.235000e-10,7.421875e-03
-8.195000e-10,7.859375e-03
-8.155000e-10,8.515625e-03
-8.115000e-10,8.484375e-03
-8.075000e-10,8.578125e-03
-8.035000e-10,8.781250e-03
-7.995000e-10,9.093750e-03
-7.955000e-10,8.703125e-03
-7.915000e-10,8.546875e-03
-7.875000e-10,8.312500e-03
-7.835000e-10,7.984375e-03
-7.795000e-10,7.609375e-03
-7.755000e-10,7.484375e-03
-7.715000e-10,6.703125e-03
-7.675000e-10,6.093750e-03
-7.635000e-10,5.671875e-03
-7.595000e-10,5.437500e-03
-7.555000e-10,4.625000e-03
-7.515000e-10,4.125000e-03
-7.475000e-10,3.671875e-03
-7.435000e-10,3.250000e-03
-7.395000e-10,2.906250e-03
-7.355000e-10,2.921875e-03
-7.315000e-10,2.421875e-03
-7.275000e-10,2.203125e-03
-7.235000e-10,2.265625e-03
-7.195000e-10,2.640625e-03
-7.155000e-10,2.500000e-03
-7.115000e-10,2.750000e-03
-7.075000e-10,3.093750e-03
-7.035000e-10,3.515625e-03
-6.995000e-10,4.015625e-03
-6.955000e-10,4.875000e-03
-6.915000e-10,5.203125e-03
-6.875000e-10,5.765625e-03
-6.835000e-10,6.578125e-03
-6.795000e-10,7.593750e-03
-6.755000e-10,8.015625e-03
-6.715000e-10,8.718750e-03
-6.675000e-10,9.390625e-03
-6.635000e-10,1.003125e-02
-6.595000e-10,1.062500e-02
-6.555000e-10,1.143750e-02
-6.515000e-10,1.156250e-02
-6.475000e-10,1.181250e-02
-6.435000e-10,1.215625e-02
-6.395000e-10,1.259375e-02
-6.355000e-10,1.231250e-02
-6.315000e-10,1.223438e-02
-6.275000e-10,1.203125e-02
-6.235000e-10,1.171875e-02
-6.195000e-10,1.128125e-02
-6.155000e-10,1.106250e-02
-6.115000e-10,1.014063e-02
-6.075000e-10,9.343750e-03
-6.035000e-10,8.656250e-03
-5.995000e-10,8.125000e-03
-5.955000e-10,6.937500e-03
-5.915000e-10,6.031250e-03
-5.875000e-10,5.093750e-03
-5.835000e-10,4.171875e-03
-5.795000e-10,3.250000e-03
-5.755000e-10,2.671875e-03
-5.715000e-10,1.531250e-03
-5.675000e-10,6.562500e-04
-5.635000e-10,4.687500e-05
-5.595000e-10,-2.656250e-04
-5.555000e-10,-1.093750e-03
-5.515000e-10,-1.515625e-03
-5.475000e-10,-1.828125e-03
-5.435000e-10,-2.031250e-03
-5.395000e-10,-2.125000e-03
-5.355000e-10,-1.812500e-03
-5.315000e-10,-1.984375e-03
-5.275000e-10,-1.843750e-03
-5.235000e-10,-1.406250e-03
-5.195000e-10,-6.875000e-04
-5.155000e-10,-4.687500e-04
-5.115000e-10,1.093750e-04
-5.075000e-10,7.343750e-04
-5.035000e-10,1.421875e-03
-4.995000e-10,2.125000e-03
-4.955000e-10,3.156250e-03
-4.915000e-10,3.562500e-03
-4.875000e-10,4.187500e-03
-4.835000e-10,4.984375e-03
-4.795000e-10,5.937500e-03
-4.755000e-10,6.234375e-03
-4.715000e-10,6.781250e-03
-4.675000e-10,7.234375e-03
-4.635000e-10,7.625000e-03
-4.595000e-10,7.937500e-03
-4.555000e-10,8.453125e-03
-4.515000e-10,8.281250e-03
-4.475000e-10,8.203125e-03
-4.435000e-10,8.250000e-03
-4.395000e-10,8.421875e-03
-4.355000e-10,7.890625e-03
-4.315000e-10,7.593750e-03
-4.275000e-10,7.203125e-03
-4.235000e-10,6.750000e-03
-4.195000e-10,6.250000e-03
-4.155000e-10,6.015625e-03
-4.115000e-10,5.140625e-03
-4.075000e-10,4.437500e-03
-4.035000e-10,3.937500e-03
-3.995000e-10,3.625000e-03
-3.955000e-10,2.750000e-03
-3.915000e-10,2.171875e-03
-3.875000e-10,1.593750e-03
-3.835000e-10,1.078125e-03
-3.795000e-10,5.937500e-04
-3.755000e-10,4.843750e-04
-3.715000e-10,-2.031250e-04
-3.675000e-10,-6.093750e-04
-3.635000e-10,-7.500000e-04
-3.595000e-10,-6.250000e-04
-3.555000e-10,-1.031250e-03
-3.515000e-10,-1.062500e-03
-3.475000e-10,-1.093750e-03
-3.435000e-10,-1.046875e-03
-3.395000e-10,-9.375000e-04
-3.355000e-10,-4.843750e-04
-3.315000e-10,-5.937500e-04
-3.275000e-10,-4.531250e-04
-3.235000e-10,-6.250000e-05
-3.195000e-10,5.312500e-04
-3.155000e-10,5.781250e-04
-3.115000e-10,9.375000e-04
-3.075000e-10,1.234375e-03
-3.035000e-10,1.546875e-03
-2.995000e-10,1.875000e-03
-2.955000e-10,2.500000e-03
-2.915000e-10,2.515625e-03
-2.875000e-10,2.687500e-03
-2.835000e-10,3.093750e-03
-2.795000e-10,3.656250e-03
-2.755000e-10,3.625000e-03
-2.715000e-10,3.859375e-03
-2.675000e-10,4.031250e-03
-2.635000e-10,4.171875e-03
-2.595000e-10,4.343750e-03
-2.555000e-10,4.750000e-03
-2.515000e-10,4.593750e-03
-2.475000e-10,4.578125e-03
-2.435000e-10,4.796875e-03
-2.395000e-10,5.171875e-03
-2.355000e-10,4.968750e-03
-2.315000e-10,5.062500e-03
-2.275000e-10,5.109375e-03
-2.235000e-10,5.125000e-03
-2.195000e-10,5.203125e-03
-2.155000e-10,5.531250e-03
-2.115000e-10,5.312500e-03
-2.075000e-10,5.265625e-03
-2.035000e-10,5.437500e-03
-1.995000e-10,5.796875e-03
-1.955000e-10,5.578125e-03
-1.915000e-10,5.656250e-03
-1.875000e-10,5.687500e-03
-1.835000e-10,5.687500e-03
-1.795000e-10,5.765625e-03
-1.755000e-10,6.062500e-03
-1.715000e-10,5.843750e-03
-1.675000e-10,5.750000e-03
-1.635000e-10,5.875000e-03
-1.595000e-10,6.187500e-03
-1.555000e-10,5.906250e-03
-1.515000e-10,5.921875e-03
-1.475000e-10,5.906250e-03
-1.435000e-10,5.843750e-03
-1.395000e-10,5.875000e-03
-1.355000e-10,6.140625e-03
-1.315000e-10,5.906250e-03
-1.275000e-10,5.828125e-03
-1.235000e-10,5.968750e-03
-1.195000e-10,6.359375e-03
-1.155000e-10,6.171875e-03
-1.115000e-10,6.328125e-03
-1.075000e-10,6.484375e-03
-1.035000e-10,6.687500e-03
-9.950000e-11,7.015625e-03
-9.550000e-11,7.640625e-03
-9.150000e-11,7.859375e-03
-8.750000e-11,8.281250e-03
-8.350000e-11,8.984375e-03
-7.950000e-11,1.000000e-02
-7.550000e-11,1.051563e-02
-7.150000e-11,1.142188e-02
-6.750000e-11,1.242188e-02
-6.350000e-11,1.351563e-02
-5.950000e-11,1.478125e-02
-5.550000e-11,1.640625e-02
-5.150000e-11,1.768750e-02
-4.750000e-11,1.920313e-02
-4.350000e-11,2.101563e-02
-3.950000e-11,2.318750e-02
-3.550000e-11,2.490625e-02
-3.150000e-11,2.698438e-02
-2.750000e-11,2.920313e-02
-2.350000e-11,3.153125e-02
-1.950000e-11,3.400000e-02
-1.550000e-11,3.687500e-02
-1.150000e-11,3.935938e-02
-7.500000e-12,4.209375e-02
-3.500000e-12,4.509375e-02
5.000000e-13,4.842188e-02
4.500000e-12,5.132813e-02
8.500000e-12,5.454688e-02
1.250000e-11,5.787500e-02
1.650000e-11,6.131250e-02
2.050000e-11,6.484375e-02
2.450000e-11,6.876563e-02
2.850000e-11,7.228125e-02
3.250000e-11,7.603125e-02
3.650000e-11,8.000000e-02
4.050000e-11,8.426563e-02
4.450000e-11,8.810938e-02
4.850000e-11,9.223438e-02
5.250000e-11,9.642188e-02
5.650000e-11,1.007031e-01
6.050000e-11,1.050313e-01
6.450000e-11,1.097344e-01
6.850000e-11,1.139844e-01
7.250000e-11,1.184219e-01
7.650000e-11,1.230156e-01
8.050000e-11,1.278281e-01
8.450000e-11,1.322031e-01
8.850000e-11,1.367656e-01
9.250000e-11,1.413281e-01
9.650000e-11,1.458750e-01
1.005000e-10,1.503906e-01
1.045000e-10,1.551563e-01
1.085000e-10,1.593906e-01
1.125000e-10,1.636875e-01
1.165000e-10,1.680156e-01
1.205000e-10,1.724375e-01
1.245000e-10,1.762969e-01
1.285000e-10,1.802031e-01
1.325000e-10,1.839844e-01
1.365000e-10,1.876094e-01
1.405000e-10,1.910469e-01
1.445000e-10,1.945781e-01
1.485000e-10,1.974688e-01
1.525000e-10,2.002969e-01
1.565000e-10,2.030313e-01
1.605000e-10,2.057031e-01
1.645000e-10,2.077188e-01
1.685000e-10,2.097188e-01
1.725000e-10,2.114688e-01
1.765000e-10,2.130000e-01
1.805000e-10,2.142813e-01
1.845000e-10,2.155938e-01
1.885000e-10,2.162188e-01
1.925000e-10,2.167813e-01
1.965000e-10,2.172188e-01
2.005000e-10,2.176094e-01
2.045000e-10,2.173438e-01
2.085000e-10,2.171250e-01
2.125000e-10,2.166875e-01
2.165000e-10,2.160938e-01
2.205000e-10,2.153125e-01
2.245000e-10,2.146094e-01
2.285000e-10,2.133281e-01
2.325000e-10,2.120469e-01
2.365000e-10,2.107500e-01
2.405000e-10,2.094844e-01
2.445000e-10,2.076563e-01
2.485000e-10,2.059844e-01
2.525000e-10,2.042031e-01
2.565000e-10,2.023281e-01
2.605000e-10,2.003906e-01
2.645000e-10,1.985625e-01
2.685000e-10,1.962344e-01
2.725000e-10,1.940156e-01
2.765000e-10,1.918125e-01
2.805000e-10,1.897031e-01
2.845000e-10,1.870625e-01
2.885000e-10,1.846406e-01
2.925000e-10,1.821250e-01
2.965000e-10,1.795625e-01
3.005000e-10,1.769531e-01
3.045000e-10,1.744531e-01
3.085000e-10,1.714531e-01
3.125000e-10,1.685781e-01
3.165000e-10,1.657344e-01
3.205000e-10,1.629688e-01
3.245000e-10,1.596719e-01
3.285000e-10,1.566094e-01
3.325000e-10,1.534531e-01
3.365000e-10,1.502500e-01
3.405000e-10,1.470156e-01
3.445000e-10,1.439063e-01
3.485000e-10,1.402813e-01
3.525000e-10,1.368281e-01
3.565000e-10,1.334375e-01
3.605000e-10,1.301719e-01
3.645000e-10,1.263906e-01
3.685000e-10,1.229063e-01
3.725000e-10,1.193750e-01
3.765000e-10,1.158750e-01
3.805000e-10,1.123906e-01
3.845000e-10,1.091406e-01
3.885000e-10,1.054063e-01
3.925000e-10,1.019375e-01
3.965000e-10,9.862500e-02
4.005000e-10,9.551563e-02
4.045000e-10,9.198438e-02
4.085000e-10,8.881250e-02
4.125000e-10,8.571875e-02
4.165000e-10,8.271875e-02
4.205000e-10,7.981250e-02
4.245000e-10,7.723438e-02
4.285000e-10,7.421875e-02
4.325000e-10,7.154688e-02
4.365000e-10,6.910938e-02
4.405000e-10,6.690625e-02
4.445000e-10,6.435938e-02
4.485000e-10,6.218750e-02
4.525000e-10,6.014063e-02
4.565000e-10,5.821875e-02
4.605000e-10,5.639063e-02
4.645000e-10,5.493750e-02
4.685000e-10,5.303125e-02
4.725000e-10,5.145313e-02
4.765000e-10,5.012500e-02
4.805000e-10,4.901563e-02
4.845000e-10,4.754688e-02
4.885000e-10,4.640625e-02
4.925000e-10,4.537500e-02
4.965000e-10,4.443750e-02
5.005000e-10,4.354688e-02
5.045000e-10,4.300000e-02
5.085000e-10,4.195313e-02
5.125000e-10,4.118750e-02
5.165000e-10,4.064063e-02
5.205000e-10,4.026563e-02
5.245000e-10,3.948438e-02
5.285000e-10,3.895313e-02
5.325000e-10,3.853125e-02
5.365000e-10,3.810938e-02
5.405000e-10,3.770313e-02
5.445000e-10,3.759375e-02
5.485000e-10,3.693750e-02
5.525000e-10,3.648438e-02
5.565000e-10,3.623438e-02
5.605000e-10,3.609375e-02
5.645000e-10,3.550000e-02
5.685000e-10,3.510938e-02
5.725000e-10,3.478125e-02
5.765000e-10,3.440625e-02
5.805000e-10,3.398438e-02
5.845000e-10,3.382813e-02
5.885000e-10,3.306250e-02
5.925000e-10,3.246875e-02
5.965000e-10,3.204688e-02
6.005000e-10,3.171875e-02
6.045000e-10,3.087500e-02
6.085000e-10,3.020313e-02
6.125000e-10,2.956250e-02
6.165000e-10,2.885938e-02
6.205000e-10,2.807813e-02
6.245000e-10,2.754688e-02
6.285000e-10,2.640625e-02
6.325000e-10,2.540625e-02
6.365000e-10,2.460938e-02
6.405000e-10,2.392188e-02
6.445000e-10,2.268750e-02
6.485000e-10,2.167188e-02
6.525000e-10,2.071875e-02
6.565000e-10,1.971875e-02
6.605000e-10,1.867188e-02
6.645000e-10,1.790625e-02
6.685000e-10,1.659375e-02
6.725000e-10,1.546875e-02
6.765000e-10,1.459375e-02
6.805000e-10,1.390625e-02
6.845000e-10,1.270313e-02
6.885000e-10,1.178125e-02
6.925000e-10,1.096875e-02
6.965000e-10,1.020313e-02
7.005000e-10,9.421875e-03
7.045000e-10,8.984375e-03
7.085000e-10,8.046875e-03
7.125000e-10,7.359375e-03
7.165000e-10,6.953125e-03
7.205000e-10,6.781250e-03
7.245000e-10,6.109375e-03
7.285000e-10,5.781250e-03
7.325000e-10,5.562500e-03
7.365000e-10,5.390625e-03
7.405000e-10,5.234375e-03
7.445000e-10,5.421875e-03
7.485000e-10,5.093750e-03
7.525000e-10,5.000000e-03
7.565000e-10,5.171875e-03
7.605000e-10,5.562500e-03
7.645000e-10,5.406250e-03
7.685000e-10,5.562500e-03
7.725000e-10,5.765625e-03
7.765000e-10,5.968750e-03
7.805000e-10,6.156250e-03
7.845000e-10,6.640625e-03
7.885000e-10,6.546875e-03
7.925000e-10,6.640625e-03
7.965000e-10,6.937500e-03
8.005000e-10,7.421875e-03
8.045000e-10,7.296875e-03
8.085000e-10,7.437500e-03
8.125000e-10,7.578125e-03
8.165000e-10,7.718750e-03
8.205000e-10,7.796875e-03
8.245000e-10,8.156250e-03
8.285000e-10,7.890625e-03
8.325000e-10,7.828125e-03
8.365000e-10,7.937500e-03
8.405000e-10,8.250000e-03
8.445000e-10,7.937500e-03
8.485000e-10,7.921875e-03
8.525000e-10,7.906250e-03
8.565000e-10,7.906250e-03
8.605000e-10,7.859375e-03
8.645000e-10,8.125000e-03
8.685000e-10,7.796875e-03
8.725000e-10,7.687500e-03
8.765000e-10,7.781250e-03
8.805000e-10,8.093750e-03
8.845000e-10,7.812500e-03
8.885000e-10,7.859375e-03
8.925000e-10,7.906250e-03
8.965000e-10,7.984375e-03
9.005000e-10,8.062500e-03
9.045000e-10,8.453125e-03
9.085000e-10,8.265625e-03
9.125000e-10,8.281250e-03
9.165000e-10,8.531250e-03
9.205000e-10,8.968750e-03
9.245000e-10,8.828125e-03
9.285000e-10,8.984375e-03
9.325000e-10,9.156250e-03
9.365000e-10,9.312500e-03
9.405000e-10,9.468750e-03
9.445000e-10,9.906250e-03
9.485000e-10,9.750000e-03
9.525000e-10,9.781250e-03
9.565000e-10,1.001563e-02
9.605000e-10,1.042188e-02
9.645000e-10,1.021875e-02
9.685000e-10,1.029688e-02
9.725000e-10,1.037500e-02
9.765000e-10,1.042188e-02
9.805000e-10,1.045313e-02
9.845000e-10,1.076563e-02
9.885000e-10,1.046875e-02
9.925000e-10,1.035938e-02
9.965000e-10,1.043750e-02
1.000500e-09,1.070313e-02
1.004500e-09,1.035938e-02
1.008500e-09,1.031250e-02
1.012500e-09,1.026563e-02
1.016500e-09,1.020313e-02
1.020500e-09,1.014063e-02
1.024500e-09,1.037500e-02
1.028500e-09,1.000000e-02
1.032500e-09,9.843750e-03
1.036500e-09,9.875000e-03
1.040500e-09,1.012500e-02
1.044500e-09,9.765625e-03
1.048500e-09,9.718750e-03
1.052500e-09,9.671875e-03
1.056500e-09,9.625000e-03
1.060500e-09,9.578125e-03
1.064500e-09,9.828125e-03
1.068500e-09,9.484375e-03
1.072500e-09,9.328125e-03
1.076500e-09,9.375000e-03
1.080500e-09,9.625000e-03
1.084500e-09,9.265625e-03
1.088500e-09,9.187500e-03
1.092500e-09,9.109375e-03
1.096500e-09,9.031250e-03
1.100500e-09,8.921875e-03
1.104500e-09,9.109375e-03
1.108500e-09,8.687500e-03
1.112500e-09,8.437500e-03
1.116500e-09,8.390625e-03
1.120500e-09,8.531250e-03
1.124500e-09,8.062500e-03
1.128500e-09,7.875000e-03
1.132500e-09,7.687500e-03
1.136500e-09,7.500000e-03
1.140500e-09,7.312500e-03
1.144500e-09,7.421875e-03
1.148500e-09,6.937500e-03
1.152500e-09,6.656250e-03
1.156500e-09,6.593750e-03
1.160500e-09,6.750000e-03
1.164500e-09,6.312500e-03
1.168500e-09,6.218750e-03
1.172500e-09,6.125000e-03
1.176500e-09,6.078125e-03
1.180500e-09,6.062500e-03
1.184500e-09,6.375000e-03
1.188500e-09,6.109375e-03
1.192500e-09,6.093750e-03
1.196500e-09,6.312500e-03
1.200500e-09,6.750000e-03
1.204500e-09,6.640625e-03
1.208500e-09,6.859375e-03
1.212500e-09,7.093750e-03
1.216500e-09,7.375000e-03
1.220500e-09,7.671875e-03
1.224500e-09,8.296875e-03
1.228500e-09,8.328125e-03
1.232500e-09,8.578125e-03
1.236500e-09,9.031250e-03
1.240500e-09,9.687500e-03
1.244500e-09,9.734375e-03
1.248500e-09,1.007813e-02
1.252500e-09,1.042188e-02
1.256500e-09,1.073438e-02
1.260500e-09,1.101563e-02
1.264500e-09,1.159375e-02
1.268500e-09,1.153125e-02
1.272500e-09,1.162500e-02
1.276500e-09,1.190625e-02
1.280500e-09,1.232813e-02
1.284500e-09,1.212500e-02
1.288500e-09,1.218750e-02
1.292500e-09,1.221875e-02
1.296500e-09,1.220313e-02
1.300500e-09,1.215625e-02
1.304500e-09,1.237500e-02
1.308500e-09,1.196875e-02
1.312500e-09,1.175000e-02
1.316500e-09,1.168750e-02
1.320500e-09,1.182813e-02
1.324500e-09,1.134375e-02
1.328500e-09,1.117188e-02
1.332500e-09,1.098438e-02
1.336500e-09,1.079688e-02
1.340500e-09,1.062500e-02
1.344500e-09,1.075000e-02
1.348500e-09,1.029688e-02
1.352500e-09,1.006250e-02
1.356500e-09,1.004688e-02
1.360500e-09,1.025000e-02
1.364500e-09,9.890625e-03
1.368500e-09,9.843750e-03
1.372500e-09,9.828125e-03
1.376500e-09,9.828125e-03
1.380500e-09,9.859375e-03
1.384500e-09,1.020313e-02
1.388500e-09,9.968750e-03
1.392500e-09,9.937500e-03
1.396500e-09,1.012500e-02
1.400500e-09,1.053125e-02
1.404500e-09,1.031250e-02
1.408500e-09,1.040625e-02
1.412500e-09,1.050000e-02
1.416500e-09,1.056250e-02
1.420500e-09,1.062500e-02
1.424500e-09,1.095313e-02
1.428500e-09,1.065625e-02
1.432500e-09,1.053125e-02
1.436500e-09,1.056250e-02
1.440500e-09,1.078125e-02
1.444500e-09,1.032813e-02
1.448500e-09,1.015625e-02
1.452500e-09,9.937500e-03
1.456500e-09,9.687500e-03
1.460500e-09,9.390625e-03
1.464500e-09,9.359375e-03
1.468500e-09,8.687500e-03
1.472500e-09,8.187500e-03
1.476500e-09,7.859375e-03
1.480500e-09,7.718750e-03
1.484500e-09,6.937500e-03
1.488500e-09,6.453125e-03
1.492500e-09,5.968750e-03
1.496500e-09,5.468750e-03
1.500500e-09,4.984375e-03
1.504500e-09,4.796875e-03
1.508500e-09,4.031250e-03
1.512500e-09,3.500000e-03
1.516500e-09,3.187500e-03
1.520500e-09,3.109375e-03
1.524500e-09,2.453125e-03
1.528500e-09,2.156250e-03
1.532500e-09,1.890625e-03
1.536500e-09,1.687500e-03
1.540500e-09,1.531250e-03
1.544500e-09,1.718750e-03
1.548500e-09,1.359375e-03
1.552500e-09,1.250000e-03
1.556500e-09,1.406250e-03
1.560500e-09,1.796875e-03
1.564500e-09,1.640625e-03
1.568500e-09,1.828125e-03
1.572500e-09,2.062500e-03
1.576500e-09,2.328125e-03
1.580500e-09,2.625000e-03
1.584500e-09,3.265625e-03
1.588500e-09,3.312500e-03
1.592500e-09,3.593750e-03
1.596500e-09,4.093750e-03
1.600500e-09,4.796875e-03
1.604500e-09,4.906250e-03
1.608500e-09,5.312500e-03
1.612500e-09,5.718750e-03
1.616500e-09,6.125000e-03
1.620500e-09,6.515625e-03
1.624500e-09,7.203125e-03
1.628500e-09,7.250000e-03
1.632500e-09,7.500000e-03
1.636500e-09,7.906250e-03
1.640500e-09,8.500000e-03
1.644500e-09,8.468750e-03
1.648500e-09,8.687500e-03
1.652500e-09,8.906250e-03
1.656500e-09,9.078125e-03
1.660500e-09,9.218750e-03
1.664500e-09,9.640625e-03
1.668500e-09,9.406250e-03
1.672500e-09,9.359375e-03
1.676500e-09,9.484375e-03
1.680500e-09,9.765625e-03
1.684500e-09,9.421875e-03
1.688500e-09,9.343750e-03
1.692500e-09,9.250000e-03
1.696500e-09,9.125000e-03
1.700500e-09,8.984375e-03
1.704500e-09,9.109375e-03
1.708500e-09,8.625000e-03
1.712500e-09,8.296875e-03
1.716500e-09,8.171875e-03
1.720500e-09,8.218750e-03
1.724500e-09,7.656250e-03
1.728500e-09,7.375000e-03
1.732500e-09,7.093750e-03
1.736500e-09,6.796875e-03
1.740500e-09,6.484375e-03
1.744500e-09,6.484375e-03
1.748500e-09,5.890625e-03
