Measurements-streak-laser-independent/Photodiode-on-Tek-6GHz/Tek000_ch1_20190613132702863.csv

Model,MSO64
Waveform Type,ANALOG
Horizontal Units,s
Sample Interval,4.000000e-12
Record Length,1000
Zero Index,310.359375
Vertical Units,V

TIME,CH1
-1.241438e-09,3.406250e-03
-1.237438e-09,3.484375e-03
-1.233438e-09,3.593750e-03
-1.229438e-09,3.734375e-03
-1.225437e-09,3.890625e-03
-1.221437e-09,4.359375e-03
-1.217437e-09,4.234375e-03
-1.213437e-09,4.328125e-03
-1.209437e-09,4.609375e-03
-1.205437e-09,5.093750e-03
-1.201437e-09,4.968750e-03
-1.197437e-09,5.125000e-03
-1.193437e-09,5.281250e-03
-1.189438e-09,5.406250e-03
-1.185438e-09,5.500000e-03
-1.181438e-09,5.890625e-03
-1.177438e-09,5.640625e-03
-1.173438e-09,5.562500e-03
-1.169438e-09,5.671875e-03
-1.165437e-09,5.953125e-03
-1.161437e-09,5.609375e-03
-1.157437e-09,5.546875e-03
-1.153437e-09,5.468750e-03
-1.149437e-09,5.375000e-03
-1.145437e-09,5.281250e-03
-1.141437e-09,5.484375e-03
-1.137437e-09,5.062500e-03
-1.133437e-09,4.859375e-03
-1.129438e-09,4.875000e-03
-1.125438e-09,5.093750e-03
-1.121438e-09,4.718750e-03
-1.117438e-09,4.671875e-03
-1.113438e-09,4.640625e-03
-1.109438e-09,4.625000e-03
-1.105437e-09,4.656250e-03
-1.101437e-09,5.000000e-03
-1.097437e-09,4.765625e-03
-1.093437e-09,4.765625e-03
-1.089437e-09,4.984375e-03
-1.085437e-09,5.437500e-03
-1.081437e-09,5.296875e-03
-1.077437e-09,5.468750e-03
-1.073437e-09,5.656250e-03
-1.069438e-09,5.859375e-03
-1.065438e-09,6.062500e-03
-1.061438e-09,6.562500e-03
-1.057438e-09,6.437500e-03
-1.053438e-09,6.515625e-03
-1.049438e-09,6.765625e-03
-1.045437e-09,7.203125e-03
-1.041437e-09,7.015625e-03
-1.037437e-09,7.093750e-03
-1.033437e-09,7.140625e-03
-1.029437e-09,7.140625e-03
-1.025437e-09,7.109375e-03
-1.021437e-09,7.343750e-03
-1.017437e-09,6.937500e-03
-1.013437e-09,6.703125e-03
-1.009438e-09,6.625000e-03
-1.005438e-09,6.718750e-03
-1.001438e-09,6.171875e-03
-9.974375e-10,5.906250e-03
-9.934375e-10,5.609375e-03
-9.894375e-10,5.312500e-03
-9.854375e-10,5.000000e-03
-9.814375e-10,4.984375e-03
-9.774375e-10,4.375000e-03
-9.734375e-10,3.968750e-03
-9.694375e-10,3.781250e-03
-9.654375e-10,3.812500e-03
-9.614375e-10,3.250000e-03
-9.574375e-10,3.046875e-03
-9.534375e-10,2.859375e-03
-9.494375e-10,2.734375e-03
-9.454375e-10,2.625000e-03
-9.414375e-10,2.875000e-03
-9.374375e-10,2.562500e-03
-9.334375e-10,2.500000e-03
-9.294375e-10,2.687500e-03
-9.254375e-10,3.109375e-03
-9.214375e-10,2.968750e-03
-9.174375e-10,3.171875e-03
-9.134375e-10,3.406250e-03
-9.094375e-10,3.656250e-03
-9.054375e-10,3.937500e-03
-9.014375e-10,4.515625e-03
-8.974375e-10,4.515625e-03
-8.934375e-10,4.703125e-03
-8.894375e-10,5.093750e-03
-8.854375e-10,5.656250e-03
-8.814375e-10,5.609375e-03
-8.774375e-10,5.812500e-03
-8.734375e-10,6.000000e-03
-8.694375e-10,6.156250e-03
-8.654375e-10,6.250000e-03
-8.614375e-10,6.609375e-03
-8.574375e-10,6.296875e-03
-8.534375e-10,6.156250e-03
-8.494375e-10,6.156250e-03
-8.454375e-10,6.296875e-03
-8.414375e-10,5.781250e-03
-8.374375e-10,5.531250e-03
-8.334375e-10,5.250000e-03
-8.294375e-10,4.906250e-03
-8.254375e-10,4.546875e-03
-8.214375e-10,4.468750e-03
-8.174375e-10,3.765625e-03
-8.134375e-10,3.250000e-03
-8.094375e-10,2.921875e-03
-8.054375e-10,2.828125e-03
-8.014375e-10,2.125000e-03
-7.974375e-10,1.765625e-03
-7.934375e-10,1.421875e-03
-7.894375e-10,1.140625e-03
-7.854375e-10,8.906250e-04
-7.814375e-10,1.000000e-03
-7.774375e-10,5.625000e-04
-7.734375e-10,3.906250e-04
-7.694375e-10,5.000000e-04
-7.654375e-10,8.750000e-04
-7.614375e-10,7.187500e-04
-7.574375e-10,9.375000e-04
-7.534375e-10,1.218750e-03
-7.494375e-10,1.562500e-03
-7.454375e-10,1.984375e-03
-7.414375e-10,2.750000e-03
-7.374375e-10,2.968750e-03
-7.334375e-10,3.437500e-03
-7.294375e-10,4.140625e-03
-7.254375e-10,5.078125e-03
-7.214375e-10,5.421875e-03
-7.174375e-10,6.093750e-03
-7.134375e-10,6.750000e-03
-7.094375e-10,7.390625e-03
-7.054375e-10,8.000000e-03
-7.014375e-10,8.906250e-03
-6.974375e-10,9.140625e-03
-6.934375e-10,9.531250e-03
-6.894375e-10,1.007813e-02
-6.854375e-10,1.075000e-02
-6.814375e-10,1.075000e-02
-6.774375e-10,1.096875e-02
-6.734375e-10,1.112500e-02
-6.694375e-10,1.117188e-02
-6.654375e-10,1.115625e-02
-6.614375e-10,1.135938e-02
-6.574375e-10,1.085938e-02
-6.534375e-10,1.048438e-02
-6.494375e-10,1.025000e-02
-6.454375e-10,1.014063e-02
-6.414375e-10,9.343750e-03
-6.374375e-10,8.812500e-03
-6.334375e-10,8.218750e-03
-6.294375e-10,7.593750e-03
-6.254375e-10,6.953125e-03
-6.214375e-10,6.578125e-03
-6.174375e-10,5.578125e-03
-6.134375e-10,4.796875e-03
-6.094375e-10,4.218750e-03
-6.054375e-10,3.875000e-03
-6.014375e-10,2.937500e-03
-5.974375e-10,2.359375e-03
-5.934375e-10,1.812500e-03
-5.894375e-10,1.343750e-03
-5.854375e-10,9.062500e-04
-5.814375e-10,8.593750e-04
-5.774375e-10,2.656250e-04
-5.734375e-10,-4.687500e-05
-5.694375e-10,-7.812500e-05
-5.654375e-10,1.562500e-04
-5.614375e-10,-1.250000e-04
-5.574375e-10,-3.125000e-05
-5.534375e-10,1.093750e-04
-5.494375e-10,3.437500e-04
-5.454375e-10,6.250000e-04
-5.414375e-10,1.265625e-03
-5.374375e-10,1.343750e-03
-5.334375e-10,1.671875e-03
-5.294375e-10,2.234375e-03
-5.254375e-10,3.015625e-03
-5.214375e-10,3.218750e-03
-5.174375e-10,3.718750e-03
-5.134375e-10,4.203125e-03
-5.094375e-10,4.687500e-03
-5.054375e-10,5.156250e-03
-5.014375e-10,5.890625e-03
-4.974375e-10,5.984375e-03
-4.934375e-10,6.234375e-03
-4.894375e-10,6.656250e-03
-4.854375e-10,7.218750e-03
-4.814375e-10,7.125000e-03
-4.774375e-10,7.265625e-03
-4.734375e-10,7.343750e-03
-4.694375e-10,7.375000e-03
-4.654375e-10,7.343750e-03
-4.614375e-10,7.562500e-03
-4.574375e-10,7.109375e-03
-4.534375e-10,6.812500e-03
-4.494375e-10,6.671875e-03
-4.454375e-10,6.703125e-03
-4.414375e-10,6.093750e-03
-4.374375e-10,5.765625e-03
-4.334375e-10,5.390625e-03
-4.294375e-10,5.015625e-03
-4.254375e-10,4.640625e-03
-4.214375e-10,4.562500e-03
-4.174375e-10,3.890625e-03
-4.134375e-10,3.437500e-03
-4.094375e-10,3.218750e-03
-4.054375e-10,3.234375e-03
-4.014375e-10,2.687500e-03
-3.974375e-10,2.468750e-03
-3.934375e-10,2.265625e-03
-3.894375e-10,2.125000e-03
-3.854375e-10,2.031250e-03
-3.814375e-10,2.296875e-03
-3.774375e-10,1.984375e-03
-3.734375e-10,1.937500e-03
-3.694375e-10,2.140625e-03
-3.654375e-10,2.562500e-03
-3.614375e-10,2.453125e-03
-3.574375e-10,2.671875e-03
-3.534375e-10,2.890625e-03
-3.494375e-10,3.125000e-03
-3.454375e-10,3.375000e-03
-3.414375e-10,3.953125e-03
-3.374375e-10,3.906250e-03
-3.334375e-10,4.062500e-03
-3.294375e-10,4.437500e-03
-3.254375e-10,4.968750e-03
-3.214375e-10,4.906250e-03
-3.174375e-10,5.093750e-03
-3.134375e-10,5.218750e-03
-3.094375e-10,5.296875e-03
-3.054375e-10,5.359375e-03
-3.014375e-10,5.671875e-03
-2.974375e-10,5.328125e-03
-2.934375e-10,5.140625e-03
-2.894375e-10,5.125000e-03
-2.854375e-10,5.250000e-03
-2.814375e-10,4.765625e-03
-2.774375e-10,4.515625e-03
-2.734375e-10,4.218750e-03
-2.694375e-10,3.843750e-03
-2.654375e-10,3.515625e-03
-2.614375e-10,3.421875e-03
-2.574375e-10,2.750000e-03
-2.534375e-10,2.250000e-03
-2.494375e-10,1.968750e-03
-2.454375e-10,1.890625e-03
-2.414375e-10,1.234375e-03
-2.374375e-10,9.062500e-04
-2.334375e-10,5.625000e-04
-2.294375e-10,2.500000e-04
-2.254375e-10,1.562500e-05
-2.214375e-10,9.375000e-05
-2.174375e-10,-3.437500e-04
-2.134375e-10,-5.625000e-04
-2.094375e-10,-4.843750e-04
-2.054375e-10,-1.875000e-04
-2.014375e-10,-4.062500e-04
-1.974375e-10,-2.656250e-04
-1.934375e-10,-1.250000e-04
-1.894375e-10,6.250000e-05
-1.854375e-10,3.750000e-04
-1.814375e-10,9.531250e-04
-1.774375e-10,1.046875e-03
-1.734375e-10,1.343750e-03
-1.694375e-10,1.875000e-03
-1.654375e-10,2.625000e-03
-1.614375e-10,2.812500e-03
-1.574375e-10,3.312500e-03
-1.534375e-10,3.781250e-03
-1.494375e-10,4.250000e-03
-1.454375e-10,4.765625e-03
-1.414375e-10,5.531250e-03
-1.374375e-10,5.765625e-03
-1.334375e-10,6.140625e-03
-1.294375e-10,6.703125e-03
-1.254375e-10,7.453125e-03
-1.214375e-10,7.609375e-03
-1.174375e-10,8.031250e-03
-1.134375e-10,8.437500e-03
-1.094375e-10,8.828125e-03
-1.054375e-10,9.265625e-03
-1.014375e-10,9.968750e-03
-9.743750e-11,1.015625e-02
-9.343750e-11,1.051563e-02
-8.943750e-11,1.109375e-02
-8.543750e-11,1.193750e-02
-8.143750e-11,1.223438e-02
-7.743750e-11,1.287500e-02
-7.343750e-11,1.356250e-02
-6.943750e-11,1.432813e-02
-6.543750e-11,1.520313e-02
-6.143750e-11,1.645313e-02
-5.743750e-11,1.729688e-02
-5.343750e-11,1.840625e-02
-4.943750e-11,1.979688e-02
-4.543750e-11,2.156250e-02
-4.143750e-11,2.287500e-02
-3.743750e-11,2.457813e-02
-3.343750e-11,2.643750e-02
-2.943750e-11,2.843750e-02
-2.543750e-11,3.059375e-02
-2.143750e-11,3.318750e-02
-1.743750e-11,3.540625e-02
-1.343750e-11,3.792188e-02
-9.437500e-12,4.071875e-02
-5.437500e-12,4.387500e-02
-1.437500e-12,4.660938e-02
2.562500e-12,4.968750e-02
6.562500e-12,5.289063e-02
1.056250e-11,5.618750e-02
1.456250e-11,5.957813e-02
1.856250e-11,6.334375e-02
2.256250e-11,6.665625e-02
2.656250e-11,7.018750e-02
3.056250e-11,7.389063e-02
3.456250e-11,7.784375e-02
3.856250e-11,8.131250e-02
4.256250e-11,8.498438e-02
4.656250e-11,8.867188e-02
5.056250e-11,9.235938e-02
5.456250e-11,9.601563e-02
5.856250e-11,9.993750e-02
6.256250e-11,1.032969e-01
6.656250e-11,1.067656e-01
7.056250e-11,1.103125e-01
7.456250e-11,1.140000e-01
7.856250e-11,1.171250e-01
8.256250e-11,1.203750e-01
8.656250e-11,1.235625e-01
9.056250e-11,1.266563e-01
9.456250e-11,1.296563e-01
9.856250e-11,1.328594e-01
1.025625e-10,1.354531e-01
1.065625e-10,1.381094e-01
1.105625e-10,1.407813e-01
1.145625e-10,1.435469e-01
1.185625e-10,1.457188e-01
1.225625e-10,1.480000e-01
1.265625e-10,1.501563e-01
1.305625e-10,1.522188e-01
1.345625e-10,1.541406e-01
1.385625e-10,1.562031e-01
1.425625e-10,1.576719e-01
1.465625e-10,1.591563e-01
1.505625e-10,1.606406e-01
1.545625e-10,1.621719e-01
1.585625e-10,1.630781e-01
1.625625e-10,1.640781e-01
1.665625e-10,1.649219e-01
1.705625e-10,1.656406e-01
1.745625e-10,1.661875e-01
1.785625e-10,1.668438e-01
1.825625e-10,1.668750e-01
1.865625e-10,1.669063e-01
1.905625e-10,1.669063e-01
1.945625e-10,1.669219e-01
1.985625e-10,1.663125e-01
2.025625e-10,1.657813e-01
2.065625e-10,1.650938e-01
2.105625e-10,1.642813e-01
2.145625e-10,1.633125e-01
2.185625e-10,1.624219e-01
2.225625e-10,1.609375e-01
2.265625e-10,1.595000e-01
2.305625e-10,1.580625e-01
2.345625e-10,1.566719e-01
2.385625e-10,1.546719e-01
2.425625e-10,1.528594e-01
2.465625e-10,1.509375e-01
2.505625e-10,1.489375e-01
2.545625e-10,1.468750e-01
2.585625e-10,1.449688e-01
2.625625e-10,1.425313e-01
2.665625e-10,1.402344e-01
2.705625e-10,1.380156e-01
2.745625e-10,1.359531e-01
2.785625e-10,1.333594e-01
2.825625e-10,1.310469e-01
2.865625e-10,1.287031e-01
2.905625e-10,1.263750e-01
2.945625e-10,1.240625e-01
2.985625e-10,1.219688e-01
3.025625e-10,1.194219e-01
3.065625e-10,1.170781e-01
3.105625e-10,1.148594e-01
3.145625e-10,1.128438e-01
3.185625e-10,1.103438e-01
3.225625e-10,1.081563e-01
3.265625e-10,1.059531e-01
3.305625e-10,1.037969e-01
3.345625e-10,1.016563e-01
3.385625e-10,9.975000e-02
3.425625e-10,9.732813e-02
3.465625e-10,9.514063e-02
3.505625e-10,9.306250e-02
3.545625e-10,9.115625e-02
3.585625e-10,8.873438e-02
3.625625e-10,8.659375e-02
3.665625e-10,8.443750e-02
3.705625e-10,8.228125e-02
3.745625e-10,8.010938e-02
3.785625e-10,7.817188e-02
3.825625e-10,7.567188e-02
3.865625e-10,7.339063e-02
3.905625e-10,7.123438e-02
3.945625e-10,6.921875e-02
3.985625e-10,6.668750e-02
4.025625e-10,6.445313e-02
4.065625e-10,6.221875e-02
4.105625e-10,6.000000e-02
4.145625e-10,5.779688e-02
4.185625e-10,5.587500e-02
4.225625e-10,5.340625e-02
4.265625e-10,5.121875e-02
4.305625e-10,4.920313e-02
4.345625e-10,4.739063e-02
4.385625e-10,4.514063e-02
4.425625e-10,4.321875e-02
4.465625e-10,4.139063e-02
4.505625e-10,3.964063e-02
4.545625e-10,3.795313e-02
4.585625e-10,3.662500e-02
4.625625e-10,3.482813e-02
4.665625e-10,3.332813e-02
4.705625e-10,3.210938e-02
4.745625e-10,3.110938e-02
4.785625e-10,2.971875e-02
4.825625e-10,2.868750e-02
4.865625e-10,2.776563e-02
4.905625e-10,2.693750e-02
4.945625e-10,2.620313e-02
4.985625e-10,2.581250e-02
5.025625e-10,2.493750e-02
5.065625e-10,2.432813e-02
5.105625e-10,2.398438e-02
5.145625e-10,2.384375e-02
5.185625e-10,2.325000e-02
5.225625e-10,2.295313e-02
5.265625e-10,2.275000e-02
5.305625e-10,2.254688e-02
5.345625e-10,2.235938e-02
5.385625e-10,2.246875e-02
5.425625e-10,2.201563e-02
5.465625e-10,2.176563e-02
5.505625e-10,2.171875e-02
5.545625e-10,2.181250e-02
5.585625e-10,2.137500e-02
5.625625e-10,2.117188e-02
5.665625e-10,2.101563e-02
5.705625e-10,2.081250e-02
5.745625e-10,2.056250e-02
5.785625e-10,2.056250e-02
5.825625e-10,1.998438e-02
5.865625e-10,1.957813e-02
5.905625e-10,1.935938e-02
5.945625e-10,1.928125e-02
5.985625e-10,1.864063e-02
6.025625e-10,1.825000e-02
6.065625e-10,1.790625e-02
6.105625e-10,1.753125e-02
6.145625e-10,1.710938e-02
6.185625e-10,1.698438e-02
6.225625e-10,1.629688e-02
6.265625e-10,1.578125e-02
6.305625e-10,1.550000e-02
6.345625e-10,1.539063e-02
6.385625e-10,1.475000e-02
6.425625e-10,1.437500e-02
6.465625e-10,1.406250e-02
6.505625e-10,1.376563e-02
6.545625e-10,1.342188e-02
6.585625e-10,1.340625e-02
6.625625e-10,1.282813e-02
6.665625e-10,1.245313e-02
6.705625e-10,1.229688e-02
6.745625e-10,1.234375e-02
6.785625e-10,1.184375e-02
6.825625e-10,1.160938e-02
6.865625e-10,1.142188e-02
6.905625e-10,1.123438e-02
6.945625e-10,1.103125e-02
6.985625e-10,1.110938e-02
7.025625e-10,1.062500e-02
7.065625e-10,1.031250e-02
7.105625e-10,1.023438e-02
7.145625e-10,1.034375e-02
7.185625e-10,9.859375e-03
7.225625e-10,9.671875e-03
7.265625e-10,9.500000e-03
7.305625e-10,9.328125e-03
7.345625e-10,9.125000e-03
7.385625e-10,9.218750e-03
7.425625e-10,8.750000e-03
7.465625e-10,8.468750e-03
7.505625e-10,8.421875e-03
7.545625e-10,8.578125e-03
7.585625e-10,8.156250e-03
7.625625e-10,8.046875e-03
7.665625e-10,7.984375e-03
7.705625e-10,7.937500e-03
7.745625e-10,7.875000e-03
7.785625e-10,8.156250e-03
7.825625e-10,7.875000e-03
7.865625e-10,7.828125e-03
7.905625e-10,8.031250e-03
7.945625e-10,8.453125e-03
7.985625e-10,8.312500e-03
8.025625e-10,8.500000e-03
8.065625e-10,8.750000e-03
8.105625e-10,9.015625e-03
8.145625e-10,9.296875e-03
8.185625e-10,9.906250e-03
8.225625e-10,9.937500e-03
8.265625e-10,1.018750e-02
8.305625e-10,1.067188e-02
8.345625e-10,1.135938e-02
8.385625e-10,1.145313e-02
8.425625e-10,1.185938e-02
8.465625e-10,1.225000e-02
8.505625e-10,1.265625e-02
8.545625e-10,1.301563e-02
8.585625e-10,1.367188e-02
8.625625e-10,1.370313e-02
8.665625e-10,1.390625e-02
8.705625e-10,1.428125e-02
8.745625e-10,1.482813e-02
8.785625e-10,1.473438e-02
8.825625e-10,1.489063e-02
8.865625e-10,1.503125e-02
8.905625e-10,1.510938e-02
8.945625e-10,1.514063e-02
8.985625e-10,1.543750e-02
9.025625e-10,1.507813e-02
9.065625e-10,1.489063e-02
9.105625e-10,1.485938e-02
9.145625e-10,1.498438e-02
9.185625e-10,1.448438e-02
9.225625e-10,1.425000e-02
9.265625e-10,1.400000e-02
9.305625e-10,1.371875e-02
9.345625e-10,1.340625e-02
9.385625e-10,1.339063e-02
9.425625e-10,1.276563e-02
9.465625e-10,1.232813e-02
9.505625e-10,1.209375e-02
9.545625e-10,1.206250e-02
9.585625e-10,1.143750e-02
9.625625e-10,1.112500e-02
9.665625e-10,1.082813e-02
9.705625e-10,1.054688e-02
9.745625e-10,1.026563e-02
9.785625e-10,1.032813e-02
9.825625e-10,9.796875e-03
9.865625e-10,9.500000e-03
9.905625e-10,9.421875e-03
9.945625e-10,9.562500e-03
9.985625e-10,9.125000e-03
1.002563e-09,9.015625e-03
1.006563e-09,8.921875e-03
1.010563e-09,8.843750e-03
1.014563e-09,8.781250e-03
1.018563e-09,9.015625e-03
1.022563e-09,8.671875e-03
1.026562e-09,8.546875e-03
1.030562e-09,8.609375e-03
1.034562e-09,8.890625e-03
1.038562e-09,8.546875e-03
1.042562e-09,8.515625e-03
1.046562e-09,8.484375e-03
1.050562e-09,8.437500e-03
1.054562e-09,8.375000e-03
1.058562e-09,8.593750e-03
1.062563e-09,8.218750e-03
1.066563e-09,8.015625e-03
1.070563e-09,8.000000e-03
1.074563e-09,8.187500e-03
1.078563e-09,7.750000e-03
1.082563e-09,7.593750e-03
1.086562e-09,7.453125e-03
1.090562e-09,7.281250e-03
1.094562e-09,7.109375e-03
1.098562e-09,7.234375e-03
1.102562e-09,6.750000e-03
1.106562e-09,6.468750e-03
1.110562e-09,6.406250e-03
1.114562e-09,6.531250e-03
1.118562e-09,6.062500e-03
1.122563e-09,5.906250e-03
1.126563e-09,5.765625e-03
1.130563e-09,5.656250e-03
1.134563e-09,5.546875e-03
1.138563e-09,5.750000e-03
1.142563e-09,5.375000e-03
1.146562e-09,5.218750e-03
1.150562e-09,5.281250e-03
1.154562e-09,5.578125e-03
1.158562e-09,5.281250e-03
1.162562e-09,5.312500e-03
1.166562e-09,5.359375e-03
1.170562e-09,5.437500e-03
1.174562e-09,5.531250e-03
1.178562e-09,5.921875e-03
1.182563e-09,5.734375e-03
1.186563e-09,5.765625e-03
1.190563e-09,6.000000e-03
1.194563e-09,6.453125e-03
1.198563e-09,6.312500e-03
1.202563e-09,6.453125e-03
1.206562e-09,6.609375e-03
1.210562e-09,6.781250e-03
1.214562e-09,6.921875e-03
1.218562e-09,7.375000e-03
1.222562e-09,7.218750e-03
1.226562e-09,7.234375e-03
1.230562e-09,7.468750e-03
1.234562e-09,7.875000e-03
1.238562e-09,7.656250e-03
1.242563e-09,7.734375e-03
1.246563e-09,7.812500e-03
1.250563e-09,7.859375e-03
1.254563e-09,7.890625e-03
1.258563e-09,8.203125e-03
1.262563e-09,7.906250e-03
1.266562e-09,7.781250e-03
1.270562e-09,7.859375e-03
1.274562e-09,8.109375e-03
1.278562e-09,7.750000e-03
1.282562e-09,7.671875e-03
1.286562e-09,7.593750e-03
1.290562e-09,7.484375e-03
1.294562e-09,7.375000e-03
1.298562e-09,7.578125e-03
1.302563e-09,7.156250e-03
1.306563e-09,6.921875e-03
1.310563e-09,6.906250e-03
1.314563e-09,7.078125e-03
1.318563e-09,6.656250e-03
1.322563e-09,6.531250e-03
1.326562e-09,6.421875e-03
1.330562e-09,6.312500e-03
1.334562e-09,6.218750e-03
1.338562e-09,6.421875e-03
1.342562e-09,6.046875e-03
1.346562e-09,5.890625e-03
1.350562e-09,5.937500e-03
1.354562e-09,6.218750e-03
1.358562e-09,5.906250e-03
1.362563e-09,5.906250e-03
1.366563e-09,5.921875e-03
1.370563e-09,5.968750e-03
1.374563e-09,6.031250e-03
1.378563e-09,6.406250e-03
1.382563e-09,6.203125e-03
1.386562e-09,6.218750e-03
1.390562e-09,6.437500e-03
1.394562e-09,6.875000e-03
1.398562e-09,6.734375e-03
1.402562e-09,6.890625e-03
1.406562e-09,7.062500e-03
1.410562e-09,7.218750e-03
1.414562e-09,7.390625e-03
1.418562e-09,7.859375e-03
1.422563e-09,7.718750e-03
1.426563e-09,7.781250e-03
1.430563e-09,8.031250e-03
1.434563e-09,8.453125e-03
1.438563e-09,8.265625e-03
1.442563e-09,8.359375e-03
1.446562e-09,8.437500e-03
1.450562e-09,8.468750e-03
1.454562e-09,8.500000e-03
1.458562e-09,8.781250e-03
1.462562e-09,8.437500e-03
1.466562e-09,8.265625e-03
1.470562e-09,8.250000e-03
1.474562e-09,8.421875e-03
1.478562e-09,7.953125e-03
1.482563e-09,7.750000e-03
1.486563e-09,7.531250e-03
1.490563e-09,7.265625e-03
1.494563e-09,7.000000e-03
1.498563e-09,7.000000e-03
1.502563e-09,6.390625e-03
1.506562e-09,5.968750e-03
1.510562e-09,5.734375e-03
1.514562e-09,5.703125e-03
1.518562e-09,5.062500e-03
1.522562e-09,4.750000e-03
1.526562e-09,4.437500e-03
1.530562e-09,4.140625e-03
1.534562e-09,3.859375e-03
1.538562e-09,3.906250e-03
1.542563e-09,3.390625e-03
1.546563e-09,3.093750e-03
1.550563e-09,3.046875e-03
1.554563e-09,3.218750e-03
1.558563e-09,2.843750e-03
1.562563e-09,2.812500e-03
1.566562e-09,2.812500e-03
1.570562e-09,2.875000e-03
1.574562e-09,2.953125e-03
1.578562e-09,3.390625e-03
1.582562e-09,3.250000e-03
1.586562e-09,3.343750e-03
1.590562e-09,3.671875e-03
1.594562e-09,4.218750e-03
1.598562e-09,4.187500e-03
1.602563e-09,4.468750e-03
1.606563e-09,4.765625e-03
1.610563e-09,5.078125e-03
1.614563e-09,5.375000e-03
1.618563e-09,5.968750e-03
1.622562e-09,5.937500e-03
1.626562e-09,6.093750e-03
1.630562e-09,6.421875e-03
1.634562e-09,6.921875e-03
1.638562e-09,6.796875e-03
1.642562e-09,6.921875e-03
1.646562e-09,7.000000e-03
1.650562e-09,7.046875e-03
1.654562e-09,7.046875e-03
1.658562e-09,7.312500e-03
1.662563e-09,6.906250e-03
1.666563e-09,6.656250e-03
1.670563e-09,6.578125e-03
1.674563e-09,6.656250e-03
1.678563e-09,6.078125e-03
1.682562e-09,5.781250e-03
1.686562e-09,5.437500e-03
1.690562e-09,5.078125e-03
1.694562e-09,4.703125e-03
1.698562e-09,4.609375e-03
1.702562e-09,3.906250e-03
1.706562e-09,3.406250e-03
1.710562e-09,3.109375e-03
1.714562e-09,3.015625e-03
1.718562e-09,2.359375e-03
1.722563e-09,2.015625e-03
1.726563e-09,1.703125e-03
1.730563e-09,1.421875e-03
1.734563e-09,1.187500e-03
1.738563e-09,1.296875e-03
1.742562e-09,8.437500e-04
1.746562e-09,6.562500e-04
1.750562e-09,7.187500e-04
1.754562e-09,1.046875e-03
1.758562e-09,8.281250e-04
