Measurements-streak-laser-independent/Photodiode-on-Tek-6GHz/Tek000_ch1_20190613132701860.csv

Model,MSO64
Waveform Type,ANALOG
Horizontal Units,s
Sample Interval,4.000000e-12
Record Length,1000
Zero Index,310.843750
Vertical Units,V

TIME,CH1
-1.243375e-09,-2.187500e-04
-1.239375e-09,-6.250000e-05
-1.235375e-09,1.718750e-04
-1.231375e-09,4.375000e-04
-1.227375e-09,1.078125e-03
-1.223375e-09,1.171875e-03
-1.219375e-09,1.500000e-03
-1.215375e-09,2.078125e-03
-1.211375e-09,2.906250e-03
-1.207375e-09,3.140625e-03
-1.203375e-09,3.703125e-03
-1.199375e-09,4.281250e-03
-1.195375e-09,4.843750e-03
-1.191375e-09,5.421875e-03
-1.187375e-09,6.281250e-03
-1.183375e-09,6.515625e-03
-1.179375e-09,6.921875e-03
-1.175375e-09,7.484375e-03
-1.171375e-09,8.203125e-03
-1.167375e-09,8.250000e-03
-1.163375e-09,8.562500e-03
-1.159375e-09,8.796875e-03
-1.155375e-09,8.953125e-03
-1.151375e-09,9.046875e-03
-1.147375e-09,9.375000e-03
-1.143375e-09,9.015625e-03
-1.139375e-09,8.781250e-03
-1.135375e-09,8.703125e-03
-1.131375e-09,8.750000e-03
-1.127375e-09,8.125000e-03
-1.123375e-09,7.750000e-03
-1.119375e-09,7.328125e-03
-1.115375e-09,6.890625e-03
-1.111375e-09,6.406250e-03
-1.107375e-09,6.218750e-03
-1.103375e-09,5.406250e-03
-1.099375e-09,4.812500e-03
-1.095375e-09,4.437500e-03
-1.091375e-09,4.281250e-03
-1.087375e-09,3.562500e-03
-1.083375e-09,3.187500e-03
-1.079375e-09,2.859375e-03
-1.075375e-09,2.609375e-03
-1.071375e-09,2.421875e-03
-1.067375e-09,2.625000e-03
-1.063375e-09,2.281250e-03
-1.059375e-09,2.218750e-03
-1.055375e-09,2.453125e-03
-1.051375e-09,2.968750e-03
-1.047375e-09,2.953125e-03
-1.043375e-09,3.312500e-03
-1.039375e-09,3.750000e-03
-1.035375e-09,4.234375e-03
-1.031375e-09,4.765625e-03
-1.027375e-09,5.656250e-03
-1.023375e-09,5.968750e-03
-1.019375e-09,6.515625e-03
-1.015375e-09,7.250000e-03
-1.011375e-09,8.203125e-03
-1.007375e-09,8.515625e-03
-1.003375e-09,9.109375e-03
-9.993750e-10,9.671875e-03
-9.953750e-10,1.015625e-02
-9.913750e-10,1.059375e-02
-9.873750e-10,1.126563e-02
-9.833750e-10,1.125000e-02
-9.793750e-10,1.134375e-02
-9.753750e-10,1.154688e-02
-9.713750e-10,1.184375e-02
-9.673750e-10,1.145313e-02
-9.633750e-10,1.126563e-02
-9.593750e-10,1.098438e-02
-9.553750e-10,1.059375e-02
-9.513750e-10,1.014063e-02
-9.473750e-10,9.906250e-03
-9.433750e-10,8.984375e-03
-9.393750e-10,8.203125e-03
-9.353750e-10,7.593750e-03
-9.313750e-10,7.140625e-03
-9.273750e-10,6.062500e-03
-9.233750e-10,5.281250e-03
-9.193750e-10,4.500000e-03
-9.153750e-10,3.734375e-03
-9.113750e-10,3.000000e-03
-9.073750e-10,2.609375e-03
-9.033750e-10,1.671875e-03
-8.993750e-10,1.015625e-03
-8.953750e-10,6.250000e-04
-8.913750e-10,5.312500e-04
-8.873750e-10,-7.812500e-05
-8.833750e-10,-2.968750e-04
-8.793750e-10,-4.218750e-04
-8.753750e-10,-4.218750e-04
-8.713750e-10,-3.437500e-04
-8.673750e-10,1.406250e-04
-8.633750e-10,9.375000e-05
-8.593750e-10,3.593750e-04
-8.553750e-10,8.906250e-04
-8.513750e-10,1.703125e-03
-8.473750e-10,1.953125e-03
-8.433750e-10,2.562500e-03
-8.393750e-10,3.203125e-03
-8.353750e-10,3.875000e-03
-8.313750e-10,4.546875e-03
-8.273750e-10,5.515625e-03
-8.233750e-10,5.875000e-03
-8.193750e-10,6.390625e-03
-8.153750e-10,7.078125e-03
-8.113750e-10,7.906250e-03
-8.073750e-10,8.078125e-03
-8.033750e-10,8.484375e-03
-7.993750e-10,8.828125e-03
-7.953750e-10,9.078125e-03
-7.913750e-10,9.250000e-03
-7.873750e-10,9.640625e-03
-7.833750e-10,9.343750e-03
-7.793750e-10,9.171875e-03
-7.753750e-10,9.125000e-03
-7.713750e-10,9.203125e-03
-7.673750e-10,8.609375e-03
-7.633750e-10,8.265625e-03
-7.593750e-10,7.875000e-03
-7.553750e-10,7.453125e-03
-7.513750e-10,7.000000e-03
-7.473750e-10,6.828125e-03
-7.433750e-10,6.046875e-03
-7.393750e-10,5.484375e-03
-7.353750e-10,5.125000e-03
-7.313750e-10,5.000000e-03
-7.273750e-10,4.296875e-03
-7.233750e-10,3.953125e-03
-7.193750e-10,3.656250e-03
-7.153750e-10,3.406250e-03
-7.113750e-10,3.218750e-03
-7.073750e-10,3.406250e-03
-7.033750e-10,3.062500e-03
-6.993750e-10,2.968750e-03
-6.953750e-10,3.156250e-03
-6.913750e-10,3.609375e-03
-6.873750e-10,3.500000e-03
-6.833750e-10,3.750000e-03
-6.793750e-10,4.062500e-03
-6.753750e-10,4.390625e-03
-6.713750e-10,4.765625e-03
-6.673750e-10,5.453125e-03
-6.633750e-10,5.546875e-03
-6.593750e-10,5.859375e-03
-6.553750e-10,6.359375e-03
-6.513750e-10,7.046875e-03
-6.473750e-10,7.093750e-03
-6.433750e-10,7.421875e-03
-6.393750e-10,7.718750e-03
-6.353750e-10,7.953125e-03
-6.313750e-10,8.140625e-03
-6.273750e-10,8.578125e-03
-6.233750e-10,8.359375e-03
-6.193750e-10,8.281250e-03
-6.153750e-10,8.343750e-03
-6.113750e-10,8.546875e-03
-6.073750e-10,8.093750e-03
-6.033750e-10,7.890625e-03
-5.993750e-10,7.656250e-03
-5.953750e-10,7.359375e-03
-5.913750e-10,7.046875e-03
-5.873750e-10,7.000000e-03
-5.833750e-10,6.343750e-03
-5.793750e-10,5.875000e-03
-5.753750e-10,5.609375e-03
-5.713750e-10,5.562500e-03
-5.673750e-10,4.906250e-03
-5.633750e-10,4.593750e-03
-5.593750e-10,4.296875e-03
-5.553750e-10,4.062500e-03
-5.513750e-10,3.843750e-03
-5.473750e-10,4.000000e-03
-5.433750e-10,3.578125e-03
-5.393750e-10,3.421875e-03
-5.353750e-10,3.531250e-03
-5.313750e-10,3.890625e-03
-5.273750e-10,3.687500e-03
-5.233750e-10,3.859375e-03
-5.193750e-10,4.046875e-03
-5.153750e-10,4.296875e-03
-5.113750e-10,4.578125e-03
-5.073750e-10,5.187500e-03
-5.033750e-10,5.203125e-03
-4.993750e-10,5.453125e-03
-4.953750e-10,5.906250e-03
-4.913750e-10,6.562500e-03
-4.873750e-10,6.593750e-03
-4.833750e-10,6.921875e-03
-4.793750e-10,7.203125e-03
-4.753750e-10,7.468750e-03
-4.713750e-10,7.687500e-03
-4.673750e-10,8.187500e-03
-4.633750e-10,8.015625e-03
-4.593750e-10,8.000000e-03
-4.553750e-10,8.140625e-03
-4.513750e-10,8.437500e-03
-4.473750e-10,8.078125e-03
-4.433750e-10,7.953125e-03
-4.393750e-10,7.781250e-03
-4.353750e-10,7.578125e-03
-4.313750e-10,7.312500e-03
-4.273750e-10,7.343750e-03
-4.233750e-10,6.718750e-03
-4.193750e-10,6.281250e-03
-4.153750e-10,6.046875e-03
-4.113750e-10,6.000000e-03
-4.073750e-10,5.359375e-03
-4.033750e-10,5.031250e-03
-3.993750e-10,4.687500e-03
-3.953750e-10,4.390625e-03
-3.913750e-10,4.109375e-03
-3.873750e-10,4.171875e-03
-3.833750e-10,3.671875e-03
-3.793750e-10,3.406250e-03
-3.753750e-10,3.421875e-03
-3.713750e-10,3.671875e-03
-3.673750e-10,3.375000e-03
-3.633750e-10,3.453125e-03
-3.593750e-10,3.531250e-03
-3.553750e-10,3.656250e-03
-3.513750e-10,3.843750e-03
-3.473750e-10,4.375000e-03
-3.433750e-10,4.328125e-03
-3.393750e-10,4.515625e-03
-3.353750e-10,4.953125e-03
-3.313750e-10,5.593750e-03
-3.273750e-10,5.656250e-03
-3.233750e-10,6.031250e-03
-3.193750e-10,6.343750e-03
-3.153750e-10,6.656250e-03
-3.113750e-10,6.968750e-03
-3.073750e-10,7.546875e-03
-3.033750e-10,7.500000e-03
-2.993750e-10,7.593750e-03
-2.953750e-10,7.890625e-03
-2.913750e-10,8.312500e-03
-2.873750e-10,8.109375e-03
-2.833750e-10,8.140625e-03
-2.793750e-10,8.093750e-03
-2.753750e-10,7.984375e-03
-2.713750e-10,7.859375e-03
-2.673750e-10,7.953125e-03
-2.633750e-10,7.437500e-03
-2.593750e-10,7.031250e-03
-2.553750e-10,6.828125e-03
-2.513750e-10,6.781250e-03
-2.473750e-10,6.109375e-03
-2.433750e-10,5.718750e-03
-2.393750e-10,5.281250e-03
-2.353750e-10,4.796875e-03
-2.313750e-10,4.375000e-03
-2.273750e-10,4.218750e-03
-2.233750e-10,3.515625e-03
-2.193750e-10,2.984375e-03
-2.153750e-10,2.718750e-03
-2.113750e-10,2.656250e-03
-2.073750e-10,2.046875e-03
-2.033750e-10,1.781250e-03
-1.993750e-10,1.515625e-03
-1.953750e-10,1.281250e-03
-1.913750e-10,1.156250e-03
-1.873750e-10,1.328125e-03
-1.833750e-10,1.031250e-03
-1.793750e-10,9.218750e-04
-1.753750e-10,1.093750e-03
-1.713750e-10,1.515625e-03
-1.673750e-10,1.390625e-03
-1.633750e-10,1.625000e-03
-1.593750e-10,1.875000e-03
-1.553750e-10,2.140625e-03
-1.513750e-10,2.515625e-03
-1.473750e-10,3.171875e-03
-1.433750e-10,3.343750e-03
-1.393750e-10,3.703125e-03
-1.353750e-10,4.296875e-03
-1.313750e-10,5.125000e-03
-1.273750e-10,5.375000e-03
-1.233750e-10,5.953125e-03
-1.193750e-10,6.531250e-03
-1.153750e-10,7.109375e-03
-1.113750e-10,7.765625e-03
-1.073750e-10,8.687500e-03
-1.033750e-10,9.140625e-03
-9.937500e-11,9.734375e-03
-9.537500e-11,1.056250e-02
-9.137500e-11,1.162500e-02
-8.737500e-11,1.214063e-02
-8.337500e-11,1.295313e-02
-7.937500e-11,1.381250e-02
-7.537500e-11,1.470313e-02
-7.137500e-11,1.568750e-02
-6.737500e-11,1.698438e-02
-6.337500e-11,1.784375e-02
-5.937500e-11,1.890625e-02
-5.537500e-11,2.023438e-02
-5.137500e-11,2.185938e-02
-4.737500e-11,2.300000e-02
-4.337500e-11,2.448438e-02
-3.937500e-11,2.607813e-02
-3.537500e-11,2.776563e-02
-3.137500e-11,2.959375e-02
-2.737500e-11,3.181250e-02
-2.337500e-11,3.364063e-02
-1.937500e-11,3.573438e-02
-1.537500e-11,3.810938e-02
-1.137500e-11,4.084375e-02
-7.375000e-12,4.314063e-02
-3.375000e-12,4.581250e-02
6.250000e-13,4.860938e-02
4.625000e-12,5.153125e-02
8.625000e-12,5.457813e-02
1.262500e-11,5.803125e-02
1.662500e-11,6.107813e-02
2.062500e-11,6.439063e-02
2.462500e-11,6.793750e-02
2.862500e-11,7.178125e-02
3.262500e-11,7.518750e-02
3.662500e-11,7.887500e-02
4.062500e-11,8.262500e-02
4.462500e-11,8.643750e-02
4.862500e-11,9.026563e-02
5.262500e-11,9.442188e-02
5.662500e-11,9.806250e-02
6.062500e-11,1.018594e-01
6.462500e-11,1.057813e-01
6.862500e-11,1.098750e-01
7.262500e-11,1.134219e-01
7.662500e-11,1.171094e-01
8.062500e-11,1.207500e-01
8.462500e-11,1.243125e-01
8.862500e-11,1.277500e-01
9.262500e-11,1.314063e-01
9.662500e-11,1.344219e-01
1.006250e-10,1.374688e-01
1.046250e-10,1.405313e-01
1.086250e-10,1.436250e-01
1.126250e-10,1.460938e-01
1.166250e-10,1.486094e-01
1.206250e-10,1.509844e-01
1.246250e-10,1.532031e-01
1.286250e-10,1.552344e-01
1.326250e-10,1.573906e-01
1.366250e-10,1.588906e-01
1.406250e-10,1.603750e-01
1.446250e-10,1.618125e-01
1.486250e-10,1.632813e-01
1.526250e-10,1.641250e-01
1.566250e-10,1.650156e-01
1.606250e-10,1.657813e-01
1.646250e-10,1.663906e-01
1.686250e-10,1.668594e-01
1.726250e-10,1.674531e-01
1.766250e-10,1.674375e-01
1.806250e-10,1.674688e-01
1.846250e-10,1.675156e-01
1.886250e-10,1.676250e-01
1.926250e-10,1.671563e-01
1.966250e-10,1.668438e-01
2.006250e-10,1.664063e-01
2.046250e-10,1.659219e-01
2.086250e-10,1.653281e-01
2.126250e-10,1.649063e-01
2.166250e-10,1.639531e-01
2.206250e-10,1.630781e-01
2.246250e-10,1.622656e-01
2.286250e-10,1.615469e-01
2.326250e-10,1.602813e-01
2.366250e-10,1.592031e-01
2.406250e-10,1.580469e-01
2.446250e-10,1.568281e-01
2.486250e-10,1.555469e-01
2.526250e-10,1.544219e-01
2.566250e-10,1.527500e-01
2.606250e-10,1.511875e-01
2.646250e-10,1.496563e-01
2.686250e-10,1.482188e-01
2.726250e-10,1.462188e-01
2.766250e-10,1.444063e-01
2.806250e-10,1.425000e-01
2.846250e-10,1.405156e-01
2.886250e-10,1.384688e-01
2.926250e-10,1.365469e-01
2.966250e-10,1.340781e-01
3.006250e-10,1.317188e-01
3.046250e-10,1.293906e-01
3.086250e-10,1.271719e-01
3.126250e-10,1.243750e-01
3.166250e-10,1.218125e-01
3.206250e-10,1.191563e-01
3.246250e-10,1.164688e-01
3.286250e-10,1.137500e-01
3.326250e-10,1.112031e-01
3.366250e-10,1.081250e-01
3.406250e-10,1.052344e-01
3.446250e-10,1.024375e-01
3.486250e-10,9.979688e-02
3.526250e-10,9.664063e-02
3.566250e-10,9.379688e-02
3.606250e-10,9.093750e-02
3.646250e-10,8.812500e-02
3.686250e-10,8.534375e-02
3.726250e-10,8.282813e-02
3.766250e-10,7.982813e-02
3.806250e-10,7.709375e-02
3.846250e-10,7.453125e-02
3.886250e-10,7.220313e-02
3.926250e-10,6.942188e-02
3.966250e-10,6.700000e-02
4.006250e-10,6.465625e-02
4.046250e-10,6.237500e-02
4.086250e-10,6.018750e-02
4.126250e-10,5.832813e-02
4.166250e-10,5.600000e-02
4.206250e-10,5.396875e-02
4.246250e-10,5.217188e-02
4.286250e-10,5.060938e-02
4.326250e-10,4.862500e-02
4.366250e-10,4.700000e-02
4.406250e-10,4.546875e-02
4.446250e-10,4.403125e-02
4.486250e-10,4.267188e-02
4.526250e-10,4.164063e-02
4.566250e-10,4.014063e-02
4.606250e-10,3.893750e-02
4.646250e-10,3.796875e-02
4.686250e-10,3.721875e-02
4.726250e-10,3.606250e-02
4.766250e-10,3.521875e-02
4.806250e-10,3.448438e-02
4.846250e-10,3.381250e-02
4.886250e-10,3.320313e-02
4.926250e-10,3.293750e-02
4.966250e-10,3.215625e-02
5.006250e-10,3.165625e-02
5.046250e-10,3.137500e-02
5.086250e-10,3.129688e-02
5.126250e-10,3.076563e-02
5.166250e-10,3.053125e-02
5.206250e-10,3.037500e-02
5.246250e-10,3.023438e-02
5.286250e-10,3.010938e-02
5.326250e-10,3.028125e-02
5.366250e-10,2.990625e-02
5.406250e-10,2.973438e-02
5.446250e-10,2.976563e-02
5.486250e-10,2.992188e-02
5.526250e-10,2.956250e-02
5.566250e-10,2.942188e-02
5.606250e-10,2.932813e-02
5.646250e-10,2.915625e-02
5.686250e-10,2.893750e-02
5.726250e-10,2.896875e-02
5.766250e-10,2.837500e-02
5.806250e-10,2.790625e-02
5.846250e-10,2.759375e-02
5.886250e-10,2.737500e-02
5.926250e-10,2.657813e-02
5.966250e-10,2.595313e-02
6.006250e-10,2.534375e-02
6.046250e-10,2.464063e-02
6.086250e-10,2.385938e-02
6.126250e-10,2.329688e-02
6.166250e-10,2.212500e-02
6.206250e-10,2.110938e-02
6.246250e-10,2.025000e-02
6.286250e-10,1.954688e-02
6.326250e-10,1.826563e-02
6.366250e-10,1.721875e-02
6.406250e-10,1.623438e-02
6.446250e-10,1.525000e-02
6.486250e-10,1.423438e-02
6.526250e-10,1.353125e-02
6.566250e-10,1.229688e-02
6.606250e-10,1.128125e-02
6.646250e-10,1.054688e-02
6.686250e-10,1.004688e-02
6.726250e-10,9.046875e-03
6.766250e-10,8.406250e-03
6.806250e-10,7.859375e-03
6.846250e-10,7.406250e-03
6.886250e-10,6.984375e-03
6.926250e-10,6.953125e-03
6.966250e-10,6.437500e-03
7.006250e-10,6.187500e-03
7.046250e-10,6.234375e-03
7.086250e-10,6.546875e-03
7.126250e-10,6.375000e-03
7.166250e-10,6.531250e-03
7.206250e-10,6.796875e-03
7.246250e-10,7.109375e-03
7.286250e-10,7.421875e-03
7.326250e-10,8.078125e-03
7.366250e-10,8.187500e-03
7.406250e-10,8.515625e-03
7.446250e-10,9.062500e-03
7.486250e-10,9.812500e-03
7.526250e-10,9.953125e-03
7.566250e-10,1.039063e-02
7.606250e-10,1.081250e-02
7.646250e-10,1.121875e-02
7.686250e-10,1.154688e-02
7.726250e-10,1.215625e-02
7.766250e-10,1.212500e-02
7.806250e-10,1.225000e-02
7.846250e-10,1.253125e-02
7.886250e-10,1.298438e-02
7.926250e-10,1.278125e-02
7.966250e-10,1.284375e-02
8.006250e-10,1.285938e-02
8.046250e-10,1.285938e-02
8.086250e-10,1.279688e-02
8.126250e-10,1.300000e-02
8.166250e-10,1.260938e-02
8.206250e-10,1.237500e-02
8.246250e-10,1.235938e-02
8.286250e-10,1.251563e-02
8.326250e-10,1.209375e-02
8.366250e-10,1.196875e-02
8.406250e-10,1.185938e-02
8.446250e-10,1.176563e-02
8.486250e-10,1.167188e-02
8.526250e-10,1.190625e-02
8.566250e-10,1.156250e-02
8.606250e-10,1.145313e-02
8.646250e-10,1.156250e-02
8.686250e-10,1.189063e-02
8.726250e-10,1.165625e-02
8.766250e-10,1.173438e-02
8.806250e-10,1.182813e-02
8.846250e-10,1.195313e-02
8.886250e-10,1.206250e-02
8.926250e-10,1.248438e-02
8.966250e-10,1.231250e-02
9.006250e-10,1.231250e-02
9.046250e-10,1.253125e-02
9.086250e-10,1.292188e-02
9.126250e-10,1.268750e-02
9.166250e-10,1.271875e-02
9.206250e-10,1.275000e-02
9.246250e-10,1.273438e-02
9.286250e-10,1.267188e-02
9.326250e-10,1.287500e-02
9.366250e-10,1.243750e-02
9.406250e-10,1.215625e-02
9.446250e-10,1.204688e-02
9.486250e-10,1.209375e-02
9.526250e-10,1.151563e-02
9.566250e-10,1.118750e-02
9.606250e-10,1.084375e-02
9.646250e-10,1.048438e-02
9.686250e-10,1.010938e-02
9.726250e-10,1.000000e-02
9.766250e-10,9.296875e-03
9.806250e-10,8.796875e-03
9.846250e-10,8.500000e-03
9.886250e-10,8.421875e-03
9.926250e-10,7.750000e-03
9.966250e-10,7.406250e-03
1.000625e-09,7.109375e-03
1.004625e-09,6.828125e-03
1.008625e-09,6.578125e-03
1.012625e-09,6.671875e-03
1.016625e-09,6.203125e-03
1.020625e-09,5.984375e-03
1.024625e-09,6.015625e-03
1.028625e-09,6.281250e-03
1.032625e-09,5.968750e-03
1.036625e-09,6.015625e-03
1.040625e-09,6.093750e-03
1.044625e-09,6.187500e-03
1.048625e-09,6.312500e-03
1.052625e-09,6.750000e-03
1.056625e-09,6.609375e-03
1.060625e-09,6.671875e-03
1.064625e-09,6.937500e-03
1.068625e-09,7.406250e-03
1.072625e-09,7.250000e-03
1.076625e-09,7.406250e-03
1.080625e-09,7.531250e-03
1.084625e-09,7.625000e-03
1.088625e-09,7.703125e-03
1.092625e-09,8.062500e-03
1.096625e-09,7.781250e-03
1.100625e-09,7.671875e-03
1.104625e-09,7.734375e-03
1.108625e-09,7.984375e-03
1.112625e-09,7.593750e-03
1.116625e-09,7.484375e-03
1.120625e-09,7.359375e-03
1.124625e-09,7.234375e-03
1.128625e-09,7.093750e-03
1.132625e-09,7.250000e-03
1.136625e-09,6.796875e-03
1.140625e-09,6.562500e-03
1.144625e-09,6.546875e-03
1.148625e-09,6.734375e-03
1.152625e-09,6.359375e-03
1.156625e-09,6.312500e-03
1.160625e-09,6.296875e-03
1.164625e-09,6.312500e-03
1.168625e-09,6.359375e-03
1.172625e-09,6.750000e-03
1.176625e-09,6.578125e-03
1.180625e-09,6.625000e-03
1.184625e-09,6.921875e-03
1.188625e-09,7.453125e-03
1.192625e-09,7.390625e-03
1.196625e-09,7.656250e-03
1.200625e-09,7.953125e-03
1.204625e-09,8.234375e-03
1.208625e-09,8.515625e-03
1.212625e-09,9.093750e-03
1.216625e-09,9.062500e-03
1.220625e-09,9.203125e-03
1.224625e-09,9.515625e-03
1.228625e-09,9.984375e-03
1.232625e-09,9.796875e-03
1.236625e-09,9.859375e-03
1.240625e-09,9.875000e-03
1.244625e-09,9.812500e-03
1.248625e-09,9.703125e-03
1.252625e-09,9.812500e-03
1.256625e-09,9.250000e-03
1.260625e-09,8.828125e-03
1.264625e-09,8.546875e-03
1.268625e-09,8.390625e-03
1.272625e-09,7.593750e-03
1.276625e-09,7.031250e-03
1.280625e-09,6.421875e-03
1.284625e-09,5.796875e-03
1.288625e-09,5.140625e-03
1.292625e-09,4.765625e-03
1.296625e-09,3.796875e-03
1.300625e-09,3.015625e-03
1.304625e-09,2.468750e-03
1.308625e-09,2.156250e-03
1.312625e-09,1.281250e-03
1.316625e-09,7.656250e-04
1.320625e-09,2.968750e-04
1.324625e-09,-7.812500e-05
1.328625e-09,-3.906250e-04
1.332625e-09,-3.125000e-04
1.336625e-09,-7.500000e-04
1.340625e-09,-8.906250e-04
1.344625e-09,-7.343750e-04
1.348625e-09,-2.812500e-04
1.352625e-09,-3.437500e-04
1.356625e-09,5.551115e-17
1.360625e-09,4.062500e-04
1.364625e-09,9.218750e-04
1.368625e-09,1.484375e-03
1.372625e-09,2.437500e-03
1.376625e-09,2.812500e-03
1.380625e-09,3.453125e-03
1.384625e-09,4.312500e-03
1.388625e-09,5.406250e-03
1.392625e-09,5.906250e-03
1.396625e-09,6.687500e-03
1.400625e-09,7.453125e-03
1.404625e-09,8.203125e-03
1.408625e-09,8.906250e-03
1.412625e-09,9.875000e-03
1.416625e-09,1.017188e-02
1.420625e-09,1.060938e-02
1.424625e-09,1.117188e-02
1.428625e-09,1.185938e-02
1.432625e-09,1.187500e-02
1.436625e-09,1.210938e-02
1.440625e-09,1.226563e-02
1.444625e-09,1.232813e-02
1.448625e-09,1.232813e-02
1.452625e-09,1.256250e-02
1.456625e-09,1.212500e-02
1.460625e-09,1.182813e-02
1.464625e-09,1.167188e-02
1.468625e-09,1.167188e-02
1.472625e-09,1.104688e-02
1.476625e-09,1.068750e-02
1.480625e-09,1.031250e-02
1.484625e-09,9.937500e-03
1.488625e-09,9.562500e-03
1.492625e-09,9.500000e-03
1.496625e-09,8.843750e-03
1.500625e-09,8.406250e-03
1.504625e-09,8.218750e-03
1.508625e-09,8.250000e-03
1.512625e-09,7.734375e-03
1.516625e-09,7.546875e-03
1.520625e-09,7.421875e-03
1.524625e-09,7.328125e-03
1.528625e-09,7.281250e-03
1.532625e-09,7.562500e-03
1.536625e-09,7.296875e-03
1.540625e-09,7.250000e-03
1.544625e-09,7.437500e-03
1.548625e-09,7.843750e-03
1.552625e-09,7.656250e-03
1.556625e-09,7.781250e-03
1.560625e-09,7.921875e-03
1.564625e-09,8.031250e-03
1.568625e-09,8.140625e-03
1.572625e-09,8.515625e-03
1.576625e-09,8.281250e-03
1.580625e-09,8.187500e-03
1.584625e-09,8.281250e-03
1.588625e-09,8.515625e-03
1.592625e-09,8.093750e-03
1.596625e-09,7.953125e-03
1.600625e-09,7.750000e-03
1.604625e-09,7.484375e-03
1.608625e-09,7.187500e-03
1.612625e-09,7.156250e-03
1.616625e-09,6.468750e-03
1.620625e-09,5.937500e-03
1.624625e-09,5.578125e-03
1.628625e-09,5.406250e-03
1.632625e-09,4.609375e-03
1.636625e-09,4.109375e-03
1.640625e-09,3.593750e-03
1.644625e-09,3.093750e-03
1.648625e-09,2.609375e-03
1.652625e-09,2.437500e-03
1.656625e-09,1.687500e-03
1.660625e-09,1.187500e-03
1.664625e-09,9.062500e-04
1.668625e-09,8.906250e-04
1.672625e-09,3.125000e-04
1.676625e-09,7.812500e-05
1.680625e-09,-9.375000e-05
1.684625e-09,-2.031250e-04
1.688625e-09,-2.656250e-04
1.692625e-09,4.687500e-05
1.696625e-09,-2.187500e-04
1.700625e-09,-2.187500e-04
1.704625e-09,3.125000e-05
1.708625e-09,5.156250e-04
1.712625e-09,4.375000e-04
1.716625e-09,6.875000e-04
1.720625e-09,9.531250e-04
1.724625e-09,1.250000e-03
1.728625e-09,1.546875e-03
1.732625e-09,2.156250e-03
1.736625e-09,2.156250e-03
1.740625e-09,2.343750e-03
1.744625e-09,2.718750e-03
1.748625e-09,3.281250e-03
1.752625e-09,3.203125e-03
