Measurements-streak-laser-independent/Photodiode-on-Tek-6GHz/Tek000_ch1_20190613132816775.csv

Model,MSO64
Waveform Type,ANALOG
Horizontal Units,s
Sample Interval,4.000000e-12
Record Length,1000
Zero Index,310.234375
Vertical Units,V

TIME,CH1
-1.240937e-09,7.078125e-03
-1.236937e-09,7.343750e-03
-1.232937e-09,7.703125e-03
-1.228937e-09,7.359375e-03
-1.224937e-09,7.234375e-03
-1.220937e-09,7.031250e-03
-1.216937e-09,6.734375e-03
-1.212937e-09,6.359375e-03
-1.208937e-09,6.250000e-03
-1.204938e-09,5.453125e-03
-1.200938e-09,4.828125e-03
-1.196938e-09,4.390625e-03
-1.192938e-09,4.125000e-03
-1.188938e-09,3.265625e-03
-1.184938e-09,2.703125e-03
-1.180937e-09,2.171875e-03
-1.176937e-09,1.687500e-03
-1.172937e-09,1.250000e-03
-1.168937e-09,1.171875e-03
-1.164937e-09,5.781250e-04
-1.160937e-09,2.500000e-04
-1.156937e-09,2.187500e-04
-1.152937e-09,4.843750e-04
-1.148937e-09,2.500000e-04
-1.144938e-09,4.062500e-04
-1.140938e-09,6.718750e-04
-1.136938e-09,1.046875e-03
-1.132938e-09,1.515625e-03
-1.128938e-09,2.375000e-03
-1.124938e-09,2.734375e-03
-1.120937e-09,3.359375e-03
-1.116937e-09,4.250000e-03
-1.112937e-09,5.406250e-03
-1.108937e-09,6.000000e-03
-1.104937e-09,6.937500e-03
-1.100937e-09,7.890625e-03
-1.096937e-09,8.843750e-03
-1.092937e-09,9.781250e-03
-1.088937e-09,1.100000e-02
-1.084938e-09,1.157813e-02
-1.080938e-09,1.231250e-02
-1.076938e-09,1.317188e-02
-1.072938e-09,1.417188e-02
-1.068938e-09,1.448438e-02
-1.064938e-09,1.500000e-02
-1.060937e-09,1.542188e-02
-1.056937e-09,1.573438e-02
-1.052937e-09,1.593750e-02
-1.048937e-09,1.634375e-02
-1.044937e-09,1.604688e-02
-1.040937e-09,1.582813e-02
-1.036937e-09,1.571875e-02
-1.032937e-09,1.571875e-02
-1.028937e-09,1.503125e-02
-1.024938e-09,1.456250e-02
-1.020938e-09,1.403125e-02
-1.016938e-09,1.343750e-02
-1.012938e-09,1.279688e-02
-1.008938e-09,1.242188e-02
-1.004938e-09,1.142188e-02
-1.000937e-09,1.060938e-02
-9.969375e-10,1.000000e-02
-9.929375e-10,9.609375e-03
-9.889375e-10,8.640625e-03
-9.849375e-10,8.000000e-03
-9.809375e-10,7.406250e-03
-9.769375e-10,6.875000e-03
-9.729375e-10,6.390625e-03
-9.689375e-10,6.281250e-03
-9.649375e-10,5.625000e-03
-9.609375e-10,5.250000e-03
-9.569375e-10,5.140625e-03
-9.529375e-10,5.312500e-03
-9.489375e-10,4.937500e-03
-9.449375e-10,4.937500e-03
-9.409375e-10,4.984375e-03
-9.369375e-10,5.109375e-03
-9.329375e-10,5.265625e-03
-9.289375e-10,5.765625e-03
-9.249375e-10,5.687500e-03
-9.209375e-10,5.859375e-03
-9.169375e-10,6.218750e-03
-9.129375e-10,6.812500e-03
-9.089375e-10,6.781250e-03
-9.049375e-10,7.046875e-03
-9.009375e-10,7.296875e-03
-8.969375e-10,7.531250e-03
-8.929375e-10,7.734375e-03
-8.889375e-10,8.203125e-03
-8.849375e-10,8.031250e-03
-8.809375e-10,8.015625e-03
-8.769375e-10,8.156250e-03
-8.729375e-10,8.453125e-03
-8.689375e-10,8.093750e-03
-8.649375e-10,8.015625e-03
-8.609375e-10,7.890625e-03
-8.569375e-10,7.718750e-03
-8.529375e-10,7.515625e-03
-8.489375e-10,7.593750e-03
-8.449375e-10,7.046875e-03
-8.409375e-10,6.687500e-03
-8.369375e-10,6.500000e-03
-8.329375e-10,6.531250e-03
-8.289375e-10,5.937500e-03
-8.249375e-10,5.671875e-03
-8.209375e-10,5.421875e-03
-8.169375e-10,5.171875e-03
-8.129375e-10,4.968750e-03
-8.089375e-10,5.078125e-03
-8.049375e-10,4.625000e-03
-8.009375e-10,4.390625e-03
-7.969375e-10,4.406250e-03
-7.929375e-10,4.656250e-03
-7.889375e-10,4.343750e-03
-7.849375e-10,4.375000e-03
-7.809375e-10,4.437500e-03
-7.769375e-10,4.515625e-03
-7.729375e-10,4.640625e-03
-7.689375e-10,5.093750e-03
-7.649375e-10,4.968750e-03
-7.609375e-10,5.062500e-03
-7.569375e-10,5.375000e-03
-7.529375e-10,5.890625e-03
-7.489375e-10,5.812500e-03
-7.449375e-10,6.031250e-03
-7.409375e-10,6.265625e-03
-7.369375e-10,6.468750e-03
-7.329375e-10,6.687500e-03
-7.289375e-10,7.171875e-03
-7.249375e-10,7.046875e-03
-7.209375e-10,7.093750e-03
-7.169375e-10,7.328125e-03
-7.129375e-10,7.734375e-03
-7.089375e-10,7.515625e-03
-7.049375e-10,7.562500e-03
-7.009375e-10,7.593750e-03
-6.969375e-10,7.609375e-03
-6.929375e-10,7.593750e-03
-6.889375e-10,7.875000e-03
-6.849375e-10,7.515625e-03
-6.809375e-10,7.343750e-03
-6.769375e-10,7.359375e-03
-6.729375e-10,7.562500e-03
-6.689375e-10,7.156250e-03
-6.649375e-10,7.046875e-03
-6.609375e-10,6.937500e-03
-6.569375e-10,6.812500e-03
-6.529375e-10,6.687500e-03
-6.489375e-10,6.875000e-03
-6.449375e-10,6.453125e-03
-6.409375e-10,6.234375e-03
-6.369375e-10,6.218750e-03
-6.329375e-10,6.421875e-03
-6.289375e-10,6.015625e-03
-6.249375e-10,5.906250e-03
-6.209375e-10,5.812500e-03
-6.169375e-10,5.703125e-03
-6.129375e-10,5.609375e-03
-6.089375e-10,5.812500e-03
-6.049375e-10,5.390625e-03
-6.009375e-10,5.187500e-03
-5.969375e-10,5.171875e-03
-5.929375e-10,5.359375e-03
-5.889375e-10,4.937500e-03
-5.849375e-10,4.796875e-03
-5.809375e-10,4.671875e-03
-5.769375e-10,4.515625e-03
-5.729375e-10,4.375000e-03
-5.689375e-10,4.515625e-03
-5.649375e-10,4.046875e-03
-5.609375e-10,3.781250e-03
-5.569375e-10,3.718750e-03
-5.529375e-10,3.859375e-03
-5.489375e-10,3.390625e-03
-5.449375e-10,3.234375e-03
-5.409375e-10,3.093750e-03
-5.369375e-10,2.968750e-03
-5.329375e-10,2.859375e-03
-5.289375e-10,3.078125e-03
-5.249375e-10,2.703125e-03
-5.209375e-10,2.562500e-03
-5.169375e-10,2.656250e-03
-5.129375e-10,2.968750e-03
-5.089375e-10,2.734375e-03
-5.049375e-10,2.828125e-03
-5.009375e-10,2.937500e-03
-4.969375e-10,3.109375e-03
-4.929375e-10,3.296875e-03
-4.889375e-10,3.828125e-03
-4.849375e-10,3.781250e-03
-4.809375e-10,3.984375e-03
-4.769375e-10,4.406250e-03
-4.729375e-10,5.046875e-03
-4.689375e-10,5.125000e-03
-4.649375e-10,5.500000e-03
-4.609375e-10,5.890625e-03
-4.569375e-10,6.296875e-03
-4.529375e-10,6.687500e-03
-4.489375e-10,7.390625e-03
-4.449375e-10,7.453125e-03
-4.409375e-10,7.718750e-03
-4.369375e-10,8.171875e-03
-4.329375e-10,8.796875e-03
-4.289375e-10,8.796875e-03
-4.249375e-10,9.062500e-03
-4.209375e-10,9.250000e-03
-4.169375e-10,9.421875e-03
-4.129375e-10,9.546875e-03
-4.089375e-10,9.921875e-03
-4.049375e-10,9.640625e-03
-4.009375e-10,9.515625e-03
-3.969375e-10,9.562500e-03
-3.929375e-10,9.750000e-03
-3.889375e-10,9.312500e-03
-3.849375e-10,9.109375e-03
-3.809375e-10,8.843750e-03
-3.769375e-10,8.546875e-03
-3.729375e-10,8.234375e-03
-3.689375e-10,8.187500e-03
-3.649375e-10,7.500000e-03
-3.609375e-10,7.015625e-03
-3.569375e-10,6.718750e-03
-3.529375e-10,6.609375e-03
-3.489375e-10,5.921875e-03
-3.449375e-10,5.531250e-03
-3.409375e-10,5.109375e-03
-3.369375e-10,4.687500e-03
-3.329375e-10,4.312500e-03
-3.289375e-10,4.250000e-03
-3.249375e-10,3.609375e-03
-3.209375e-10,3.187500e-03
-3.169375e-10,3.031250e-03
-3.129375e-10,3.093750e-03
-3.089375e-10,2.609375e-03
-3.049375e-10,2.453125e-03
-3.009375e-10,2.281250e-03
-2.969375e-10,2.140625e-03
-2.929375e-10,2.062500e-03
-2.889375e-10,2.312500e-03
-2.849375e-10,2.000000e-03
-2.809375e-10,1.890625e-03
-2.769375e-10,2.062500e-03
-2.729375e-10,2.421875e-03
-2.689375e-10,2.234375e-03
-2.649375e-10,2.375000e-03
-2.609375e-10,2.468750e-03
-2.569375e-10,2.546875e-03
-2.529375e-10,2.718750e-03
-2.489375e-10,3.125000e-03
-2.449375e-10,3.000000e-03
-2.409375e-10,3.015625e-03
-2.369375e-10,3.281250e-03
-2.329375e-10,3.718750e-03
-2.289375e-10,3.562500e-03
-2.249375e-10,3.718750e-03
-2.209375e-10,3.796875e-03
-2.169375e-10,3.828125e-03
-2.129375e-10,3.937500e-03
-2.089375e-10,4.250000e-03
-2.049375e-10,4.015625e-03
-2.009375e-10,3.921875e-03
-1.969375e-10,4.031250e-03
-1.929375e-10,4.312500e-03
-1.889375e-10,3.984375e-03
-1.849375e-10,3.953125e-03
-1.809375e-10,3.859375e-03
-1.769375e-10,3.718750e-03
-1.729375e-10,3.640625e-03
-1.689375e-10,3.781250e-03
-1.649375e-10,3.406250e-03
-1.609375e-10,3.156250e-03
-1.569375e-10,3.125000e-03
-1.529375e-10,3.281250e-03
-1.489375e-10,2.843750e-03
-1.449375e-10,2.718750e-03
-1.409375e-10,2.562500e-03
-1.369375e-10,2.406250e-03
-1.329375e-10,2.343750e-03
-1.289375e-10,2.531250e-03
-1.249375e-10,2.250000e-03
-1.209375e-10,2.140625e-03
-1.169375e-10,2.265625e-03
-1.129375e-10,2.656250e-03
-1.089375e-10,2.484375e-03
-1.049375e-10,2.687500e-03
-1.009375e-10,2.921875e-03
-9.693750e-11,3.218750e-03
-9.293750e-11,3.656250e-03
-8.893750e-11,4.421875e-03
-8.493750e-11,4.781250e-03
-8.093750e-11,5.390625e-03
-7.693750e-11,6.265625e-03
-7.293750e-11,7.500000e-03
-6.893750e-11,8.250000e-03
-6.493750e-11,9.406250e-03
-6.093750e-11,1.067188e-02
-5.693750e-11,1.206250e-02
-5.293750e-11,1.364063e-02
-4.893750e-11,1.560938e-02
-4.493750e-11,1.723438e-02
-4.093750e-11,1.914063e-02
-3.693750e-11,2.134375e-02
-3.293750e-11,2.393750e-02
-2.893750e-11,2.610938e-02
-2.493750e-11,2.865625e-02
-2.093750e-11,3.135938e-02
-1.693750e-11,3.420313e-02
-1.293750e-11,3.718750e-02
-8.937500e-12,4.059375e-02
-4.937500e-12,4.364063e-02
-9.375000e-13,4.693750e-02
3.062500e-12,5.050000e-02
7.062500e-12,5.440625e-02
1.106250e-11,5.789063e-02
1.506250e-11,6.167188e-02
1.906250e-11,6.556250e-02
2.306250e-11,6.954688e-02
2.706250e-11,7.360938e-02
3.106250e-11,7.803125e-02
3.506250e-11,8.203125e-02
3.906250e-11,8.621875e-02
4.306250e-11,9.060938e-02
4.706250e-11,9.523438e-02
5.106250e-11,9.940625e-02
5.506250e-11,1.037969e-01
5.906250e-11,1.082188e-01
6.306250e-11,1.126875e-01
6.706250e-11,1.171250e-01
7.106250e-11,1.218750e-01
7.506250e-11,1.261406e-01
7.906250e-11,1.305313e-01
8.306250e-11,1.350156e-01
8.706250e-11,1.396875e-01
9.106250e-11,1.438594e-01
9.506250e-11,1.481875e-01
9.906250e-11,1.524688e-01
1.030625e-10,1.567188e-01
1.070625e-10,1.608750e-01
1.110625e-10,1.652656e-01
1.150625e-10,1.691094e-01
1.190625e-10,1.730000e-01
1.230625e-10,1.769219e-01
1.270625e-10,1.809063e-01
1.310625e-10,1.843438e-01
1.350625e-10,1.878281e-01
1.390625e-10,1.912031e-01
1.430625e-10,1.944219e-01
1.470625e-10,1.974688e-01
1.510625e-10,2.006250e-01
1.550625e-10,2.031406e-01
1.590625e-10,2.056094e-01
1.630625e-10,2.079844e-01
1.670625e-10,2.103281e-01
1.710625e-10,2.119844e-01
1.750625e-10,2.136406e-01
1.790625e-10,2.150469e-01
1.830625e-10,2.162188e-01
1.870625e-10,2.171250e-01
1.910625e-10,2.180156e-01
1.950625e-10,2.182188e-01
1.990625e-10,2.182969e-01
2.030625e-10,2.182188e-01
2.070625e-10,2.180469e-01
2.110625e-10,2.171563e-01
2.150625e-10,2.162500e-01
2.190625e-10,2.150938e-01
2.230625e-10,2.137031e-01
2.270625e-10,2.120625e-01
2.310625e-10,2.104219e-01
2.350625e-10,2.081406e-01
2.390625e-10,2.058281e-01
2.430625e-10,2.034219e-01
2.470625e-10,2.010156e-01
2.510625e-10,1.979844e-01
2.550625e-10,1.950938e-01
2.590625e-10,1.920625e-01
2.630625e-10,1.889375e-01
2.670625e-10,1.857188e-01
2.710625e-10,1.826406e-01
2.750625e-10,1.790938e-01
2.790625e-10,1.756719e-01
2.830625e-10,1.723281e-01
2.870625e-10,1.691406e-01
2.910625e-10,1.655000e-01
2.950625e-10,1.621563e-01
2.990625e-10,1.588281e-01
3.030625e-10,1.555625e-01
3.070625e-10,1.523438e-01
3.110625e-10,1.493906e-01
3.150625e-10,1.460469e-01
3.190625e-10,1.429688e-01
3.230625e-10,1.400469e-01
3.270625e-10,1.373594e-01
3.310625e-10,1.342656e-01
3.350625e-10,1.315469e-01
3.390625e-10,1.288438e-01
3.430625e-10,1.262344e-01
3.470625e-10,1.237031e-01
3.510625e-10,1.214063e-01
3.550625e-10,1.186875e-01
3.590625e-10,1.162031e-01
3.630625e-10,1.138594e-01
3.670625e-10,1.117031e-01
3.710625e-10,1.090625e-01
3.750625e-10,1.067500e-01
3.790625e-10,1.044063e-01
3.830625e-10,1.020781e-01
3.870625e-10,9.978125e-02
3.910625e-10,9.767188e-02
3.950625e-10,9.503125e-02
3.990625e-10,9.260938e-02
4.030625e-10,9.029688e-02
4.070625e-10,8.810938e-02
4.110625e-10,8.542188e-02
4.150625e-10,8.301563e-02
4.190625e-10,8.060938e-02
4.230625e-10,7.820313e-02
4.270625e-10,7.581250e-02
4.310625e-10,7.367188e-02
4.350625e-10,7.100000e-02
4.390625e-10,6.857813e-02
4.430625e-10,6.631250e-02
4.470625e-10,6.421875e-02
4.510625e-10,6.171875e-02
4.550625e-10,5.953125e-02
4.590625e-10,5.740625e-02
4.630625e-10,5.535938e-02
4.670625e-10,5.337500e-02
4.710625e-10,5.173438e-02
4.750625e-10,4.960938e-02
4.790625e-10,4.779688e-02
4.830625e-10,4.621875e-02
4.870625e-10,4.485938e-02
4.910625e-10,4.312500e-02
4.950625e-10,4.170313e-02
4.990625e-10,4.043750e-02
5.030625e-10,3.921875e-02
5.070625e-10,3.809375e-02
5.110625e-10,3.729688e-02
5.150625e-10,3.601563e-02
5.190625e-10,3.500000e-02
5.230625e-10,3.423438e-02
5.270625e-10,3.362500e-02
5.310625e-10,3.262500e-02
5.350625e-10,3.185938e-02
5.390625e-10,3.121875e-02
5.430625e-10,3.057813e-02
5.470625e-10,2.992188e-02
5.510625e-10,2.957813e-02
5.550625e-10,2.867188e-02
5.590625e-10,2.796875e-02
5.630625e-10,2.746875e-02
5.670625e-10,2.709375e-02
5.710625e-10,2.623438e-02
5.750625e-10,2.560938e-02
5.790625e-10,2.504688e-02
5.830625e-10,2.445313e-02
5.870625e-10,2.382813e-02
5.910625e-10,2.348438e-02
5.950625e-10,2.257813e-02
5.990625e-10,2.185938e-02
6.030625e-10,2.137500e-02
6.070625e-10,2.103125e-02
6.110625e-10,2.018750e-02
6.150625e-10,1.959375e-02
6.190625e-10,1.910938e-02
6.230625e-10,1.860938e-02
6.270625e-10,1.809375e-02
6.310625e-10,1.789063e-02
6.350625e-10,1.715625e-02
6.390625e-10,1.662500e-02
6.430625e-10,1.634375e-02
6.470625e-10,1.625000e-02
6.510625e-10,1.565625e-02
6.550625e-10,1.531250e-02
6.590625e-10,1.507813e-02
6.630625e-10,1.482813e-02
6.670625e-10,1.454688e-02
6.710625e-10,1.454688e-02
6.750625e-10,1.400000e-02
6.790625e-10,1.362500e-02
6.830625e-10,1.346875e-02
6.870625e-10,1.348438e-02
6.910625e-10,1.289063e-02
6.950625e-10,1.256250e-02
6.990625e-10,1.223438e-02
7.030625e-10,1.187500e-02
7.070625e-10,1.142188e-02
7.110625e-10,1.121875e-02
7.150625e-10,1.040625e-02
7.190625e-10,9.734375e-03
7.230625e-10,9.250000e-03
7.270625e-10,8.906250e-03
7.310625e-10,7.953125e-03
7.350625e-10,7.234375e-03
7.390625e-10,6.531250e-03
7.430625e-10,5.796875e-03
7.470625e-10,5.015625e-03
7.510625e-10,4.515625e-03
7.550625e-10,3.437500e-03
7.590625e-10,2.562500e-03
7.630625e-10,1.937500e-03
7.670625e-10,1.531250e-03
7.710625e-10,5.781250e-04
7.750625e-10,-3.125000e-05
7.790625e-10,-5.625000e-04
7.830625e-10,-1.000000e-03
7.870625e-10,-1.406250e-03
7.910625e-10,-1.437500e-03
7.950625e-10,-1.953125e-03
7.990625e-10,-2.171875e-03
8.030625e-10,-2.078125e-03
8.070625e-10,-1.671875e-03
8.110625e-10,-1.765625e-03
8.150625e-10,-1.468750e-03
8.190625e-10,-1.046875e-03
8.230625e-10,-5.156250e-04
8.270625e-10,6.250000e-05
8.310625e-10,1.031250e-03
8.350625e-10,1.484375e-03
8.390625e-10,2.203125e-03
8.430625e-10,3.187500e-03
8.470625e-10,4.390625e-03
8.510625e-10,5.046875e-03
8.550625e-10,6.000000e-03
8.590625e-10,6.968750e-03
8.630625e-10,7.906250e-03
8.670625e-10,8.812500e-03
8.710625e-10,9.984375e-03
8.750625e-10,1.048438e-02
8.790625e-10,1.112500e-02
8.830625e-10,1.190625e-02
8.870625e-10,1.278125e-02
8.910625e-10,1.296875e-02
8.950625e-10,1.334375e-02
8.990625e-10,1.362500e-02
9.030625e-10,1.378125e-02
9.070625e-10,1.381250e-02
9.110625e-10,1.403125e-02
9.150625e-10,1.354688e-02
9.190625e-10,1.314063e-02
9.230625e-10,1.284375e-02
9.270625e-10,1.264063e-02
9.310625e-10,1.176563e-02
9.350625e-10,1.109375e-02
9.390625e-10,1.037500e-02
9.430625e-10,9.593750e-03
9.470625e-10,8.750000e-03
9.510625e-10,8.187500e-03
9.550625e-10,7.000000e-03
9.590625e-10,6.015625e-03
9.630625e-10,5.250000e-03
9.670625e-10,4.703125e-03
9.710625e-10,3.578125e-03
9.750625e-10,2.812500e-03
9.790625e-10,2.093750e-03
9.830625e-10,1.453125e-03
9.870625e-10,8.750000e-04
9.910625e-10,6.718750e-04
9.950625e-10,-4.687500e-05
9.990625e-10,-4.843750e-04
1.003063e-09,-6.093750e-04
1.007063e-09,-4.531250e-04
1.011062e-09,-8.281250e-04
1.015062e-09,-7.968750e-04
1.019062e-09,-7.031250e-04
1.023062e-09,-5.156250e-04
1.027062e-09,-2.656250e-04
1.031062e-09,3.437500e-04
1.035062e-09,4.062500e-04
1.039062e-09,7.031250e-04
1.043062e-09,1.250000e-03
1.047063e-09,2.031250e-03
1.051063e-09,2.218750e-03
1.055063e-09,2.703125e-03
1.059063e-09,3.187500e-03
1.063063e-09,3.671875e-03
1.067063e-09,4.125000e-03
1.071062e-09,4.859375e-03
1.075062e-09,4.953125e-03
1.079062e-09,5.203125e-03
1.083062e-09,5.609375e-03
1.087062e-09,6.171875e-03
1.091062e-09,6.078125e-03
1.095062e-09,6.234375e-03
1.099062e-09,6.343750e-03
1.103062e-09,6.390625e-03
1.107063e-09,6.390625e-03
1.111063e-09,6.640625e-03
1.115063e-09,6.250000e-03
1.119063e-09,6.015625e-03
1.123063e-09,5.937500e-03
1.127063e-09,6.062500e-03
1.131062e-09,5.531250e-03
1.135062e-09,5.296875e-03
1.139062e-09,5.062500e-03
1.143062e-09,4.812500e-03
1.147062e-09,4.562500e-03
1.151062e-09,4.625000e-03
1.155062e-09,4.093750e-03
1.159062e-09,3.796875e-03
1.163062e-09,3.718750e-03
1.167063e-09,3.859375e-03
1.171063e-09,3.453125e-03
1.175063e-09,3.359375e-03
1.179063e-09,3.312500e-03
1.183063e-09,3.312500e-03
1.187063e-09,3.343750e-03
1.191062e-09,3.718750e-03
1.195062e-09,3.531250e-03
1.199062e-09,3.578125e-03
1.203062e-09,3.859375e-03
1.207062e-09,4.390625e-03
1.211062e-09,4.328125e-03
1.215062e-09,4.609375e-03
1.219062e-09,4.890625e-03
1.223062e-09,5.218750e-03
1.227063e-09,5.546875e-03
1.231063e-09,6.187500e-03
1.235063e-09,6.218750e-03
1.239063e-09,6.468750e-03
1.243063e-09,6.906250e-03
1.247063e-09,7.546875e-03
1.251062e-09,7.562500e-03
1.255062e-09,7.875000e-03
1.259062e-09,8.171875e-03
1.263062e-09,8.437500e-03
1.267062e-09,8.671875e-03
1.271062e-09,9.203125e-03
1.275062e-09,9.093750e-03
1.279062e-09,9.156250e-03
1.283062e-09,9.375000e-03
1.287063e-09,9.781250e-03
1.291063e-09,9.546875e-03
1.295063e-09,9.578125e-03
1.299063e-09,9.593750e-03
1.303063e-09,9.562500e-03
1.307063e-09,9.500000e-03
1.311062e-09,9.718750e-03
1.315062e-09,9.312500e-03
1.319062e-09,9.062500e-03
1.323062e-09,9.000000e-03
1.327062e-09,9.109375e-03
1.331062e-09,8.593750e-03
1.335062e-09,8.343750e-03
1.339062e-09,8.109375e-03
1.343062e-09,7.828125e-03
1.347063e-09,7.562500e-03
1.351063e-09,7.562500e-03
1.355063e-09,6.968750e-03
1.359063e-09,6.562500e-03
1.363063e-09,6.359375e-03
1.367063e-09,6.359375e-03
1.371062e-09,5.750000e-03
1.375062e-09,5.453125e-03
1.379062e-09,5.156250e-03
1.383062e-09,4.890625e-03
1.387062e-09,4.625000e-03
1.391062e-09,4.687500e-03
1.395062e-09,4.156250e-03
1.399062e-09,3.859375e-03
1.403062e-09,3.796875e-03
1.407063e-09,3.953125e-03
1.411063e-09,3.531250e-03
1.415063e-09,3.453125e-03
1.419063e-09,3.406250e-03
1.423063e-09,3.406250e-03
1.427063e-09,3.437500e-03
1.431062e-09,3.796875e-03
1.435062e-09,3.593750e-03
1.439062e-09,3.640625e-03
1.443062e-09,3.921875e-03
1.447062e-09,4.437500e-03
1.451062e-09,4.375000e-03
1.455062e-09,4.640625e-03
1.459062e-09,4.937500e-03
1.463062e-09,5.265625e-03
1.467063e-09,5.609375e-03
1.471063e-09,6.281250e-03
1.475063e-09,6.343750e-03
1.479063e-09,6.609375e-03
1.483063e-09,7.093750e-03
1.487063e-09,7.765625e-03
1.491062e-09,7.828125e-03
1.495062e-09,8.171875e-03
1.499062e-09,8.500000e-03
1.503062e-09,8.796875e-03
1.507062e-09,9.062500e-03
1.511062e-09,9.593750e-03
1.515062e-09,9.500000e-03
1.519062e-09,9.546875e-03
1.523062e-09,9.765625e-03
1.527063e-09,1.012500e-02
1.531063e-09,9.843750e-03
1.535063e-09,9.828125e-03
1.539063e-09,9.765625e-03
1.543063e-09,9.640625e-03
1.547063e-09,9.500000e-03
1.551062e-09,9.609375e-03
1.555062e-09,9.078125e-03
1.559062e-09,8.734375e-03
1.563062e-09,8.562500e-03
1.567062e-09,8.562500e-03
1.571062e-09,7.968750e-03
1.575062e-09,7.656250e-03
1.579062e-09,7.359375e-03
1.583062e-09,7.062500e-03
1.587063e-09,6.781250e-03
1.591063e-09,6.843750e-03
1.595063e-09,6.312500e-03
1.599063e-09,6.031250e-03
1.603063e-09,6.000000e-03
1.607063e-09,6.203125e-03
1.611062e-09,5.843750e-03
1.615062e-09,5.859375e-03
1.619062e-09,5.906250e-03
1.623062e-09,6.031250e-03
1.627062e-09,6.187500e-03
1.631062e-09,6.703125e-03
1.635062e-09,6.671875e-03
1.639062e-09,6.875000e-03
1.643062e-09,7.328125e-03
1.647063e-09,8.000000e-03
1.651063e-09,8.109375e-03
1.655063e-09,8.515625e-03
1.659063e-09,8.953125e-03
1.663063e-09,9.375000e-03
1.667063e-09,9.781250e-03
1.671062e-09,1.048438e-02
1.675062e-09,1.053125e-02
1.679062e-09,1.076563e-02
1.683062e-09,1.114063e-02
1.687062e-09,1.165625e-02
1.691062e-09,1.150000e-02
1.695062e-09,1.156250e-02
1.699062e-09,1.156250e-02
1.703062e-09,1.148438e-02
1.707062e-09,1.131250e-02
1.711063e-09,1.135938e-02
1.715063e-09,1.071875e-02
1.719063e-09,1.018750e-02
1.723063e-09,9.781250e-03
1.727063e-09,9.500000e-03
1.731062e-09,8.531250e-03
1.735062e-09,7.812500e-03
1.739062e-09,7.046875e-03
1.743062e-09,6.218750e-03
1.747062e-09,5.359375e-03
1.751062e-09,4.781250e-03
1.755062e-09,3.593750e-03
