Measurements-streak-laser-independent/Photodiode-on-Tek-6GHz/Tek000_ch1_20190613132705971.csv

Model,MSO64
Waveform Type,ANALOG
Horizontal Units,s
Sample Interval,4.000000e-12
Record Length,1000
Zero Index,310.585938
Vertical Units,V

TIME,CH1
-1.242344e-09,1.609375e-03
-1.238344e-09,1.625000e-03
-1.234344e-09,1.890625e-03
-1.230344e-09,1.625000e-03
-1.226344e-09,1.718750e-03
-1.222344e-09,1.875000e-03
-1.218344e-09,2.093750e-03
-1.214344e-09,2.359375e-03
-1.210344e-09,2.968750e-03
-1.206344e-09,3.031250e-03
-1.202344e-09,3.312500e-03
-1.198344e-09,3.828125e-03
-1.194344e-09,4.562500e-03
-1.190344e-09,4.687500e-03
-1.186344e-09,5.140625e-03
-1.182344e-09,5.578125e-03
-1.178344e-09,6.000000e-03
-1.174344e-09,6.390625e-03
-1.170344e-09,7.062500e-03
-1.166344e-09,7.093750e-03
-1.162344e-09,7.281250e-03
-1.158344e-09,7.625000e-03
-1.154344e-09,8.125000e-03
-1.150344e-09,7.968750e-03
-1.146344e-09,8.062500e-03
-1.142344e-09,8.093750e-03
-1.138344e-09,8.062500e-03
-1.134344e-09,7.984375e-03
-1.130344e-09,8.156250e-03
-1.126344e-09,7.671875e-03
-1.122344e-09,7.343750e-03
-1.118344e-09,7.187500e-03
-1.114344e-09,7.187500e-03
-1.110344e-09,6.562500e-03
-1.106344e-09,6.203125e-03
-1.102344e-09,5.843750e-03
-1.098344e-09,5.468750e-03
-1.094344e-09,5.078125e-03
-1.090344e-09,5.015625e-03
-1.086344e-09,4.343750e-03
-1.082344e-09,3.906250e-03
-1.078344e-09,3.687500e-03
-1.074344e-09,3.703125e-03
-1.070344e-09,3.140625e-03
-1.066344e-09,2.921875e-03
-1.062344e-09,2.734375e-03
-1.058344e-09,2.609375e-03
-1.054344e-09,2.515625e-03
-1.050344e-09,2.781250e-03
-1.046344e-09,2.484375e-03
-1.042344e-09,2.437500e-03
-1.038344e-09,2.640625e-03
-1.034344e-09,3.078125e-03
-1.030344e-09,2.968750e-03
-1.026344e-09,3.187500e-03
-1.022344e-09,3.453125e-03
-1.018344e-09,3.750000e-03
-1.014344e-09,4.062500e-03
-1.010344e-09,4.703125e-03
-1.006344e-09,4.765625e-03
-1.002344e-09,5.031250e-03
-9.983438e-10,5.515625e-03
-9.943438e-10,6.218750e-03
-9.903438e-10,6.296875e-03
-9.863437e-10,6.687500e-03
-9.823437e-10,7.046875e-03
-9.783437e-10,7.406250e-03
-9.743437e-10,7.750000e-03
-9.703437e-10,8.375000e-03
-9.663437e-10,8.359375e-03
-9.623437e-10,8.531250e-03
-9.583437e-10,8.875000e-03
-9.543437e-10,9.375000e-03
-9.503438e-10,9.234375e-03
-9.463438e-10,9.375000e-03
-9.423438e-10,9.468750e-03
-9.383438e-10,9.515625e-03
-9.343438e-10,9.531250e-03
-9.303437e-10,9.812500e-03
-9.263437e-10,9.453125e-03
-9.223437e-10,9.250000e-03
-9.183438e-10,9.218750e-03
-9.143438e-10,9.343750e-03
-9.103437e-10,8.812500e-03
-9.063437e-10,8.562500e-03
-9.023437e-10,8.281250e-03
-8.983437e-10,7.968750e-03
-8.943437e-10,7.625000e-03
-8.903438e-10,7.562500e-03
-8.863438e-10,6.875000e-03
-8.823438e-10,6.375000e-03
-8.783437e-10,6.046875e-03
-8.743437e-10,5.921875e-03
-8.703437e-10,5.187500e-03
-8.663437e-10,4.750000e-03
-8.623437e-10,4.328125e-03
-8.583438e-10,3.906250e-03
-8.543438e-10,3.500000e-03
-8.503437e-10,3.421875e-03
-8.463437e-10,2.765625e-03
-8.423437e-10,2.343750e-03
-8.383437e-10,2.156250e-03
-8.343437e-10,2.218750e-03
-8.303438e-10,1.718750e-03
-8.263438e-10,1.562500e-03
-8.223438e-10,1.468750e-03
-8.183437e-10,1.437500e-03
-8.143437e-10,1.468750e-03
-8.103437e-10,1.859375e-03
-8.063437e-10,1.703125e-03
-8.023437e-10,1.812500e-03
-7.983438e-10,2.187500e-03
-7.943438e-10,2.843750e-03
-7.903437e-10,2.937500e-03
-7.863437e-10,3.390625e-03
-7.823437e-10,3.890625e-03
-7.783437e-10,4.437500e-03
-7.743437e-10,5.015625e-03
-7.703438e-10,5.937500e-03
-7.663438e-10,6.281250e-03
-7.623438e-10,6.828125e-03
-7.583437e-10,7.593750e-03
-7.543437e-10,8.546875e-03
-7.503437e-10,8.890625e-03
-7.463437e-10,9.515625e-03
-7.423437e-10,1.009375e-02
-7.383438e-10,1.064063e-02
-7.343438e-10,1.114063e-02
-7.303437e-10,1.187500e-02
-7.263437e-10,1.193750e-02
-7.223437e-10,1.212500e-02
-7.183437e-10,1.243750e-02
-7.143437e-10,1.285938e-02
-7.103438e-10,1.259375e-02
-7.063438e-10,1.253125e-02
-7.023438e-10,1.239063e-02
-6.983437e-10,1.215625e-02
-6.943437e-10,1.182813e-02
-6.903437e-10,1.171875e-02
-6.863437e-10,1.092188e-02
-6.823437e-10,1.025000e-02
-6.783438e-10,9.734375e-03
-6.743438e-10,9.343750e-03
-6.703437e-10,8.312500e-03
-6.663437e-10,7.531250e-03
-6.623437e-10,6.734375e-03
-6.583437e-10,5.937500e-03
-6.543437e-10,5.125000e-03
-6.503438e-10,4.625000e-03
-6.463438e-10,3.531250e-03
-6.423438e-10,2.687500e-03
-6.383437e-10,2.093750e-03
-6.343437e-10,1.750000e-03
-6.303437e-10,8.593750e-04
-6.263437e-10,3.593750e-04
-6.223437e-10,-6.250000e-05
-6.183438e-10,-4.062500e-04
-6.143438e-10,-6.562500e-04
-6.103437e-10,-5.156250e-04
-6.063437e-10,-8.906250e-04
-6.023437e-10,-9.531250e-04
-5.983437e-10,-7.343750e-04
-5.943437e-10,-2.343750e-04
-5.903438e-10,-2.500000e-04
-5.863438e-10,1.250000e-04
-5.823438e-10,5.468750e-04
-5.783437e-10,1.046875e-03
-5.743437e-10,1.578125e-03
-5.703437e-10,2.468750e-03
-5.663437e-10,2.765625e-03
-5.623438e-10,3.296875e-03
-5.583438e-10,4.015625e-03
-5.543438e-10,4.953125e-03
-5.503437e-10,5.250000e-03
-5.463437e-10,5.828125e-03
-5.423437e-10,6.375000e-03
-5.383437e-10,6.859375e-03
-5.343437e-10,7.296875e-03
-5.303438e-10,7.984375e-03
-5.263438e-10,8.000000e-03
-5.223438e-10,8.140625e-03
-5.183437e-10,8.406250e-03
-5.143437e-10,8.812500e-03
-5.103437e-10,8.531250e-03
-5.063437e-10,8.484375e-03
-5.023438e-10,8.359375e-03
-4.983438e-10,8.171875e-03
-4.943438e-10,7.937500e-03
-4.903437e-10,7.937500e-03
-4.863437e-10,7.296875e-03
-4.823437e-10,6.812500e-03
-4.783437e-10,6.500000e-03
-4.743437e-10,6.375000e-03
-4.703438e-10,5.640625e-03
-4.663438e-10,5.203125e-03
-4.623437e-10,4.750000e-03
-4.583437e-10,4.328125e-03
-4.543438e-10,3.921875e-03
-4.503437e-10,3.859375e-03
-4.463437e-10,3.218750e-03
-4.423438e-10,2.828125e-03
-4.383438e-10,2.687500e-03
-4.343437e-10,2.796875e-03
-4.303437e-10,2.359375e-03
-4.263438e-10,2.281250e-03
-4.223437e-10,2.234375e-03
-4.183437e-10,2.250000e-03
-4.143437e-10,2.312500e-03
-4.103438e-10,2.734375e-03
-4.063437e-10,2.578125e-03
-4.023437e-10,2.687500e-03
-3.983437e-10,3.031250e-03
-3.943438e-10,3.609375e-03
-3.903437e-10,3.625000e-03
-3.863437e-10,3.937500e-03
-3.823438e-10,4.234375e-03
-3.783438e-10,4.546875e-03
-3.743437e-10,4.859375e-03
-3.703437e-10,5.484375e-03
-3.663438e-10,5.484375e-03
-3.623437e-10,5.656250e-03
-3.583437e-10,6.046875e-03
-3.543437e-10,6.593750e-03
-3.503438e-10,6.546875e-03
-3.463437e-10,6.750000e-03
-3.423437e-10,6.890625e-03
-3.383437e-10,6.984375e-03
-3.343438e-10,7.078125e-03
-3.303437e-10,7.453125e-03
-3.263437e-10,7.187500e-03
-3.223438e-10,7.078125e-03
-3.183438e-10,7.187500e-03
-3.143437e-10,7.468750e-03
-3.103437e-10,7.140625e-03
-3.063438e-10,7.109375e-03
-3.023438e-10,7.000000e-03
-2.983437e-10,6.875000e-03
-2.943437e-10,6.796875e-03
-2.903438e-10,6.984375e-03
-2.863437e-10,6.593750e-03
-2.823437e-10,6.375000e-03
-2.783437e-10,6.421875e-03
-2.743438e-10,6.640625e-03
-2.703437e-10,6.296875e-03
-2.663437e-10,6.265625e-03
-2.623438e-10,6.171875e-03
-2.583438e-10,6.062500e-03
-2.543437e-10,6.031250e-03
-2.503437e-10,6.265625e-03
-2.463438e-10,5.953125e-03
-2.423438e-10,5.796875e-03
-2.383437e-10,5.890625e-03
-2.343437e-10,6.156250e-03
-2.303437e-10,5.843750e-03
-2.263437e-10,5.843750e-03
-2.223437e-10,5.765625e-03
-2.183437e-10,5.656250e-03
-2.143437e-10,5.640625e-03
-2.103438e-10,5.828125e-03
-2.063437e-10,5.484375e-03
-2.023438e-10,5.281250e-03
-1.983437e-10,5.312500e-03
-1.943438e-10,5.500000e-03
-1.903437e-10,5.109375e-03
-1.863438e-10,5.031250e-03
-1.823437e-10,4.875000e-03
-1.783438e-10,4.687500e-03
-1.743437e-10,4.609375e-03
-1.703437e-10,4.750000e-03
-1.663437e-10,4.406250e-03
-1.623437e-10,4.187500e-03
-1.583437e-10,4.218750e-03
-1.543437e-10,4.453125e-03
-1.503438e-10,4.125000e-03
-1.463437e-10,4.125000e-03
-1.423438e-10,4.109375e-03
-1.383437e-10,4.093750e-03
-1.343438e-10,4.203125e-03
-1.303437e-10,4.562500e-03
-1.263438e-10,4.500000e-03
-1.223437e-10,4.593750e-03
-1.183438e-10,4.937500e-03
-1.143437e-10,5.531250e-03
-1.103437e-10,5.593750e-03
-1.063437e-10,5.984375e-03
-1.023437e-10,6.406250e-03
-9.834375e-11,6.875000e-03
-9.434375e-11,7.453125e-03
-9.034375e-11,8.328125e-03
-8.634375e-11,8.796875e-03
-8.234375e-11,9.453125e-03
-7.834375e-11,1.034375e-02
-7.434375e-11,1.154688e-02
-7.034375e-11,1.223438e-02
-6.634375e-11,1.326563e-02
-6.234375e-11,1.435938e-02
-5.834375e-11,1.553125e-02
-5.434375e-11,1.685938e-02
-5.034375e-11,1.853125e-02
-4.634375e-11,1.984375e-02
-4.234375e-11,2.137500e-02
-3.834375e-11,2.318750e-02
-3.434375e-11,2.537500e-02
-3.034375e-11,2.714063e-02
-2.634375e-11,2.928125e-02
-2.234375e-11,3.157813e-02
-1.834375e-11,3.403125e-02
-1.434375e-11,3.667188e-02
-1.034375e-11,3.976563e-02
-6.343750e-12,4.257813e-02
-2.343750e-12,4.570313e-02
1.656250e-12,4.915625e-02
5.656250e-12,5.303125e-02
9.656250e-12,5.659375e-02
1.365625e-11,6.054688e-02
1.765625e-11,6.471875e-02
2.165625e-11,6.909375e-02
2.565625e-11,7.367188e-02
2.965625e-11,7.873438e-02
3.365625e-11,8.350000e-02
3.765625e-11,8.857813e-02
4.165625e-11,9.393750e-02
4.565625e-11,9.967188e-02
4.965625e-11,1.050781e-01
5.365625e-11,1.107813e-01
5.765625e-11,1.166094e-01
6.165625e-11,1.225313e-01
6.565625e-11,1.285156e-01
6.965625e-11,1.348750e-01
7.365625e-11,1.407813e-01
7.765625e-11,1.468594e-01
8.165625e-11,1.530156e-01
8.565625e-11,1.593594e-01
8.965625e-11,1.652031e-01
9.365625e-11,1.711406e-01
9.765625e-11,1.770000e-01
1.016562e-10,1.827656e-01
1.056562e-10,1.883750e-01
1.096562e-10,1.941406e-01
1.136562e-10,1.992813e-01
1.176563e-10,2.043750e-01
1.216562e-10,2.093750e-01
1.256563e-10,2.143281e-01
1.296562e-10,2.186719e-01
1.336563e-10,2.229219e-01
1.376562e-10,2.269531e-01
1.416562e-10,2.307500e-01
1.456562e-10,2.342656e-01
1.496562e-10,2.377969e-01
1.536563e-10,2.406406e-01
1.576562e-10,2.433594e-01
1.616563e-10,2.458906e-01
1.656562e-10,2.483438e-01
1.696563e-10,2.501094e-01
1.736562e-10,2.518125e-01
1.776563e-10,2.532500e-01
1.816562e-10,2.544531e-01
1.856563e-10,2.554063e-01
1.896562e-10,2.563438e-01
1.936563e-10,2.566563e-01
1.976562e-10,2.568594e-01
2.016562e-10,2.569219e-01
2.056562e-10,2.569375e-01
2.096562e-10,2.563281e-01
2.136563e-10,2.557344e-01
2.176562e-10,2.549375e-01
2.216563e-10,2.539531e-01
2.256562e-10,2.527813e-01
2.296563e-10,2.516250e-01
2.336562e-10,2.499375e-01
2.376562e-10,2.482031e-01
2.416563e-10,2.464063e-01
2.456563e-10,2.446094e-01
2.496562e-10,2.422344e-01
2.536562e-10,2.399844e-01
2.576563e-10,2.375625e-01
2.616562e-10,2.350313e-01
2.656562e-10,2.323906e-01
2.696562e-10,2.298125e-01
2.736563e-10,2.267344e-01
2.776562e-10,2.237188e-01
2.816562e-10,2.206875e-01
2.856563e-10,2.177344e-01
2.896563e-10,2.142500e-01
2.936562e-10,2.109844e-01
2.976562e-10,2.075938e-01
3.016563e-10,2.042031e-01
3.056563e-10,2.007500e-01
3.096562e-10,1.974375e-01
3.136562e-10,1.936875e-01
3.176563e-10,1.900781e-01
3.216562e-10,1.865313e-01
3.256562e-10,1.831406e-01
3.296562e-10,1.792813e-01
3.336563e-10,1.757188e-01
3.376562e-10,1.721094e-01
3.416562e-10,1.685625e-01
3.456563e-10,1.650469e-01
3.496563e-10,1.617188e-01
3.536562e-10,1.579688e-01
3.576562e-10,1.544531e-01
3.616563e-10,1.510469e-01
3.656563e-10,1.478281e-01
3.696562e-10,1.441875e-01
3.736562e-10,1.408750e-01
3.776563e-10,1.375625e-01
3.816562e-10,1.343281e-01
3.856562e-10,1.311406e-01
3.896562e-10,1.281719e-01
3.936563e-10,1.247500e-01
3.976562e-10,1.216094e-01
4.016562e-10,1.185781e-01
4.056563e-10,1.157031e-01
4.096563e-10,1.124375e-01
4.136562e-10,1.094531e-01
4.176562e-10,1.065156e-01
4.216563e-10,1.036094e-01
4.256563e-10,1.007656e-01
4.296562e-10,9.815625e-02
4.336562e-10,9.506250e-02
4.376563e-10,9.225000e-02
4.416562e-10,8.957813e-02
4.456562e-10,8.704688e-02
4.496562e-10,8.415625e-02
4.536563e-10,8.154688e-02
4.576562e-10,7.903125e-02
4.616562e-10,7.656250e-02
4.656562e-10,7.415625e-02
4.696562e-10,7.206250e-02
4.736563e-10,6.948438e-02
4.776563e-10,6.721875e-02
4.816563e-10,6.517188e-02
4.856562e-10,6.331250e-02
4.896562e-10,6.112500e-02
4.936562e-10,5.925000e-02
4.976562e-10,5.754688e-02
5.016562e-10,5.590625e-02
5.056563e-10,5.437500e-02
5.096563e-10,5.318750e-02
5.136563e-10,5.156250e-02
5.176562e-10,5.025000e-02
5.216562e-10,4.921875e-02
5.256562e-10,4.837500e-02
5.296562e-10,4.720313e-02
5.336563e-10,4.632813e-02
5.376563e-10,4.562500e-02
5.416563e-10,4.498438e-02
5.456562e-10,4.439063e-02
5.496562e-10,4.412500e-02
5.536562e-10,4.335938e-02
5.576562e-10,4.284375e-02
5.616562e-10,4.256250e-02
5.656563e-10,4.240625e-02
5.696563e-10,4.182813e-02
5.736563e-10,4.146875e-02
5.776562e-10,4.118750e-02
5.816562e-10,4.087500e-02
5.856562e-10,4.048438e-02
5.896562e-10,4.034375e-02
5.936562e-10,3.960938e-02
5.976563e-10,3.901563e-02
6.016563e-10,3.857813e-02
6.056562e-10,3.820313e-02
6.096562e-10,3.728125e-02
6.136562e-10,3.650000e-02
6.176562e-10,3.573438e-02
6.216562e-10,3.487500e-02
6.256563e-10,3.389063e-02
6.296563e-10,3.309375e-02
6.336563e-10,3.170313e-02
6.376562e-10,3.040625e-02
6.416562e-10,2.928125e-02
6.456562e-10,2.823438e-02
6.496562e-10,2.662500e-02
6.536562e-10,2.521875e-02
6.576563e-10,2.385938e-02
6.616563e-10,2.245313e-02
6.656562e-10,2.098438e-02
6.696562e-10,1.978125e-02
6.736562e-10,1.804688e-02
6.776562e-10,1.651563e-02
6.816562e-10,1.523438e-02
6.856563e-10,1.415625e-02
6.896563e-10,1.257813e-02
6.936563e-10,1.132813e-02
6.976562e-10,1.020313e-02
7.016562e-10,9.156250e-03
7.056562e-10,8.109375e-03
7.096562e-10,7.453125e-03
7.136562e-10,6.328125e-03
7.176563e-10,5.484375e-03
7.216563e-10,4.968750e-03
7.256562e-10,4.734375e-03
7.296562e-10,4.031250e-03
7.336562e-10,3.703125e-03
7.376562e-10,3.500000e-03
7.416562e-10,3.406250e-03
7.456563e-10,3.328125e-03
7.496563e-10,3.625000e-03
7.536563e-10,3.437500e-03
7.576562e-10,3.500000e-03
7.616562e-10,3.843750e-03
7.656562e-10,4.406250e-03
7.696562e-10,4.437500e-03
7.736562e-10,4.796875e-03
7.776563e-10,5.203125e-03
7.816563e-10,5.609375e-03
7.856562e-10,5.984375e-03
7.896562e-10,6.625000e-03
7.936562e-10,6.687500e-03
7.976562e-10,6.906250e-03
8.016562e-10,7.328125e-03
8.056563e-10,7.890625e-03
8.096563e-10,7.812500e-03
8.136563e-10,8.000000e-03
8.176562e-10,8.140625e-03
8.216562e-10,8.218750e-03
8.256562e-10,8.218750e-03
8.296562e-10,8.437500e-03
8.336562e-10,8.031250e-03
8.376563e-10,7.765625e-03
8.416563e-10,7.656250e-03
8.456562e-10,7.687500e-03
8.496562e-10,7.078125e-03
8.536562e-10,6.718750e-03
8.576562e-10,6.343750e-03
8.616562e-10,5.953125e-03
8.656563e-10,5.500000e-03
8.696563e-10,5.343750e-03
8.736563e-10,4.578125e-03
8.776562e-10,4.000000e-03
8.816562e-10,3.640625e-03
8.856562e-10,3.500000e-03
8.896562e-10,2.781250e-03
8.936562e-10,2.390625e-03
8.976563e-10,2.031250e-03
9.016563e-10,1.718750e-03
9.056562e-10,1.421875e-03
9.096562e-10,1.484375e-03
9.136562e-10,1.000000e-03
9.176562e-10,7.500000e-04
9.216562e-10,7.812500e-04
9.256563e-10,1.046875e-03
9.296563e-10,7.812500e-04
9.336562e-10,8.750000e-04
9.376562e-10,1.015625e-03
9.416563e-10,1.203125e-03
9.456563e-10,1.437500e-03
9.496563e-10,2.000000e-03
9.536563e-10,2.015625e-03
9.576563e-10,2.250000e-03
9.616563e-10,2.734375e-03
9.656562e-10,3.437500e-03
9.696562e-10,3.562500e-03
9.736562e-10,3.984375e-03
9.776562e-10,4.421875e-03
9.816562e-10,4.875000e-03
9.856562e-10,5.296875e-03
9.896562e-10,6.000000e-03
9.936562e-10,6.109375e-03
9.976562e-10,6.390625e-03
1.001656e-09,6.843750e-03
1.005656e-09,7.484375e-03
1.009656e-09,7.484375e-03
1.013656e-09,7.750000e-03
1.017656e-09,8.000000e-03
1.021656e-09,8.203125e-03
1.025656e-09,8.359375e-03
1.029656e-09,8.781250e-03
1.033656e-09,8.578125e-03
1.037656e-09,8.546875e-03
1.041656e-09,8.687500e-03
1.045656e-09,8.984375e-03
1.049656e-09,8.671875e-03
1.053656e-09,8.640625e-03
1.057656e-09,8.578125e-03
1.061656e-09,8.515625e-03
1.065656e-09,8.437500e-03
1.069656e-09,8.656250e-03
1.073656e-09,8.281250e-03
1.077656e-09,8.093750e-03
1.081656e-09,8.140625e-03
1.085656e-09,8.390625e-03
1.089656e-09,8.046875e-03
1.093656e-09,8.031250e-03
1.097656e-09,8.015625e-03
1.101656e-09,8.046875e-03
1.105656e-09,8.093750e-03
1.109656e-09,8.468750e-03
1.113656e-09,8.265625e-03
1.117656e-09,8.296875e-03
1.121656e-09,8.546875e-03
1.125656e-09,9.031250e-03
1.129656e-09,8.937500e-03
1.133656e-09,9.156250e-03
1.137656e-09,9.406250e-03
1.141656e-09,9.656250e-03
1.145656e-09,9.921875e-03
1.149656e-09,1.050000e-02
1.153656e-09,1.046875e-02
1.157656e-09,1.064063e-02
1.161656e-09,1.100000e-02
1.165656e-09,1.156250e-02
1.169656e-09,1.150000e-02
1.173656e-09,1.171875e-02
1.177656e-09,1.190625e-02
1.181656e-09,1.207813e-02
1.185656e-09,1.220313e-02
1.189656e-09,1.260938e-02
1.193656e-09,1.235938e-02
1.197656e-09,1.228125e-02
1.201656e-09,1.235938e-02
1.205656e-09,1.259375e-02
1.209656e-09,1.218750e-02
1.213656e-09,1.203125e-02
1.217656e-09,1.184375e-02
1.221656e-09,1.160938e-02
1.225656e-09,1.134375e-02
1.229656e-09,1.134375e-02
1.233656e-09,1.071875e-02
1.237656e-09,1.026563e-02
1.241656e-09,9.984375e-03
1.245656e-09,9.906250e-03
1.249656e-09,9.203125e-03
1.253656e-09,8.796875e-03
1.257656e-09,8.406250e-03
1.261656e-09,8.000000e-03
1.265656e-09,7.625000e-03
1.269656e-09,7.562500e-03
1.273656e-09,6.937500e-03
1.277656e-09,6.515625e-03
1.281656e-09,6.343750e-03
1.285656e-09,6.406250e-03
1.289656e-09,5.906250e-03
1.293656e-09,5.765625e-03
1.297656e-09,5.656250e-03
1.301656e-09,5.593750e-03
1.305656e-09,5.562500e-03
1.309656e-09,5.890625e-03
1.313656e-09,5.671875e-03
1.317656e-09,5.687500e-03
1.321656e-09,5.937500e-03
1.325656e-09,6.421875e-03
1.329656e-09,6.328125e-03
1.333656e-09,6.578125e-03
1.337656e-09,6.828125e-03
1.341656e-09,7.109375e-03
1.345656e-09,7.390625e-03
1.349656e-09,7.984375e-03
1.353656e-09,7.968750e-03
1.357656e-09,8.140625e-03
1.361656e-09,8.484375e-03
1.365656e-09,9.015625e-03
1.369656e-09,8.921875e-03
1.373656e-09,9.078125e-03
1.377656e-09,9.203125e-03
1.381656e-09,9.296875e-03
1.385656e-09,9.343750e-03
1.389656e-09,9.640625e-03
1.393656e-09,9.296875e-03
1.397656e-09,9.093750e-03
1.401656e-09,9.046875e-03
1.405656e-09,9.156250e-03
1.409656e-09,8.625000e-03
1.413656e-09,8.359375e-03
1.417656e-09,8.062500e-03
1.421656e-09,7.718750e-03
1.425656e-09,7.375000e-03
1.429656e-09,7.312500e-03
1.433656e-09,6.625000e-03
1.437656e-09,6.140625e-03
1.441656e-09,5.859375e-03
1.445656e-09,5.796875e-03
1.449656e-09,5.156250e-03
1.453656e-09,4.843750e-03
1.457656e-09,4.546875e-03
1.461656e-09,4.312500e-03
1.465656e-09,4.109375e-03
1.469656e-09,4.265625e-03
1.473656e-09,3.859375e-03
1.477656e-09,3.718750e-03
1.481656e-09,3.828125e-03
1.485656e-09,4.203125e-03
1.489656e-09,4.046875e-03
1.493656e-09,4.234375e-03
1.497656e-09,4.484375e-03
1.501656e-09,4.781250e-03
1.505656e-09,5.125000e-03
1.509656e-09,5.828125e-03
1.513656e-09,5.953125e-03
1.517656e-09,6.312500e-03
1.521656e-09,6.890625e-03
1.525656e-09,7.703125e-03
1.529656e-09,7.906250e-03
1.533656e-09,8.421875e-03
1.537656e-09,8.921875e-03
1.541656e-09,9.421875e-03
1.545656e-09,9.890625e-03
1.549656e-09,1.064063e-02
1.553656e-09,1.075000e-02
1.557656e-09,1.101563e-02
1.561656e-09,1.143750e-02
1.565656e-09,1.201563e-02
1.569656e-09,1.193750e-02
1.573656e-09,1.209375e-02
1.577656e-09,1.221875e-02
1.581656e-09,1.228125e-02
1.585656e-09,1.228125e-02
1.589656e-09,1.253125e-02
1.593656e-09,1.212500e-02
1.597656e-09,1.187500e-02
1.601656e-09,1.179688e-02
1.605656e-09,1.185938e-02
1.609656e-09,1.131250e-02
1.613656e-09,1.103125e-02
1.617656e-09,1.071875e-02
1.621656e-09,1.040625e-02
1.625656e-09,1.009375e-02
1.629656e-09,1.007813e-02
1.633656e-09,9.468750e-03
1.637656e-09,9.062500e-03
1.641656e-09,8.875000e-03
1.645656e-09,8.921875e-03
1.649656e-09,8.390625e-03
1.653656e-09,8.187500e-03
1.657656e-09,8.015625e-03
1.661656e-09,7.875000e-03
1.665656e-09,7.781250e-03
1.669656e-09,8.000000e-03
1.673656e-09,7.671875e-03
1.677656e-09,7.562500e-03
1.681656e-09,7.687500e-03
1.685656e-09,8.046875e-03
1.689656e-09,7.812500e-03
1.693656e-09,7.906250e-03
1.697656e-09,8.000000e-03
1.701656e-09,8.109375e-03
1.705656e-09,8.234375e-03
1.709656e-09,8.640625e-03
1.713656e-09,8.437500e-03
1.717656e-09,8.437500e-03
1.721656e-09,8.609375e-03
1.725656e-09,8.968750e-03
1.729656e-09,8.703125e-03
1.733656e-09,8.703125e-03
1.737656e-09,8.687500e-03
1.741656e-09,8.625000e-03
1.745656e-09,8.546875e-03
1.749656e-09,8.734375e-03
1.753656e-09,8.281250e-03
1.757656e-09,8.015625e-03
