Measurements-streak-laser-independent/Photodiode-on-Tek-6GHz/Tek000_ch1_20190613132800728.csv

Model,MSO64
Waveform Type,ANALOG
Horizontal Units,s
Sample Interval,4.000000e-12
Record Length,1000
Zero Index,310.406250
Vertical Units,V

TIME,CH1
-1.241625e-09,-6.562500e-04
-1.237625e-09,-8.750000e-04
-1.233625e-09,-7.500000e-04
-1.229625e-09,-1.156250e-03
-1.225625e-09,-1.328125e-03
-1.221625e-09,-1.234375e-03
-1.217625e-09,-8.906250e-04
-1.213625e-09,-1.109375e-03
-1.209625e-09,-9.687500e-04
-1.205625e-09,-7.812500e-04
-1.201625e-09,-5.625000e-04
-1.197625e-09,-2.968750e-04
-1.193625e-09,3.125000e-04
-1.189625e-09,3.281250e-04
-1.185625e-09,5.937500e-04
-1.181625e-09,1.078125e-03
-1.177625e-09,1.781250e-03
-1.173625e-09,1.875000e-03
-1.169625e-09,2.296875e-03
-1.165625e-09,2.718750e-03
-1.161625e-09,3.140625e-03
-1.157625e-09,3.546875e-03
-1.153625e-09,4.265625e-03
-1.149625e-09,4.343750e-03
-1.145625e-09,4.609375e-03
-1.141625e-09,5.062500e-03
-1.137625e-09,5.671875e-03
-1.133625e-09,5.671875e-03
-1.129625e-09,5.921875e-03
-1.125625e-09,6.156250e-03
-1.121625e-09,6.343750e-03
-1.117625e-09,6.500000e-03
-1.113625e-09,6.921875e-03
-1.109625e-09,6.703125e-03
-1.105625e-09,6.656250e-03
-1.101625e-09,6.765625e-03
-1.097625e-09,7.062500e-03
-1.093625e-09,6.703125e-03
-1.089625e-09,6.609375e-03
-1.085625e-09,6.500000e-03
-1.081625e-09,6.375000e-03
-1.077625e-09,6.203125e-03
-1.073625e-09,6.328125e-03
-1.069625e-09,5.828125e-03
-1.065625e-09,5.531250e-03
-1.061625e-09,5.406250e-03
-1.057625e-09,5.484375e-03
-1.053625e-09,4.953125e-03
-1.049625e-09,4.734375e-03
-1.045625e-09,4.515625e-03
-1.041625e-09,4.296875e-03
-1.037625e-09,4.093750e-03
-1.033625e-09,4.203125e-03
-1.029625e-09,3.734375e-03
-1.025625e-09,3.468750e-03
-1.021625e-09,3.437500e-03
-1.017625e-09,3.625000e-03
-1.013625e-09,3.234375e-03
-1.009625e-09,3.171875e-03
-1.005625e-09,3.125000e-03
-1.001625e-09,3.109375e-03
-9.976250e-10,3.125000e-03
-9.936250e-10,3.453125e-03
-9.896250e-10,3.203125e-03
-9.856250e-10,3.171875e-03
-9.816250e-10,3.359375e-03
-9.776250e-10,3.781250e-03
-9.736250e-10,3.593750e-03
-9.696250e-10,3.718750e-03
-9.656250e-10,3.859375e-03
-9.616250e-10,3.984375e-03
-9.576250e-10,4.125000e-03
-9.536250e-10,4.562500e-03
-9.496250e-10,4.390625e-03
-9.456250e-10,4.406250e-03
-9.416250e-10,4.609375e-03
-9.376250e-10,5.000000e-03
-9.336250e-10,4.765625e-03
-9.296250e-10,4.796875e-03
-9.256250e-10,4.828125e-03
-9.216250e-10,4.812500e-03
-9.176250e-10,4.765625e-03
-9.136250e-10,5.000000e-03
-9.096250e-10,4.593750e-03
-9.056250e-10,4.359375e-03
-9.016250e-10,4.296875e-03
-8.976250e-10,4.421875e-03
-8.936250e-10,3.890625e-03
-8.896250e-10,3.640625e-03
-8.856250e-10,3.375000e-03
-8.816250e-10,3.078125e-03
-8.776250e-10,2.765625e-03
-8.736250e-10,2.750000e-03
-8.696250e-10,2.109375e-03
-8.656250e-10,1.671875e-03
-8.616250e-10,1.437500e-03
-8.576250e-10,1.406250e-03
-8.536250e-10,7.812500e-04
-8.496250e-10,4.687500e-04
-8.456250e-10,1.718750e-04
-8.416250e-10,-7.812500e-05
-8.376250e-10,-3.125000e-04
-8.336250e-10,-2.187500e-04
-8.296250e-10,-6.875000e-04
-8.256250e-10,-9.062500e-04
-8.216250e-10,-8.906250e-04
-8.176250e-10,-6.093750e-04
-8.136250e-10,-9.062500e-04
-8.096250e-10,-8.437500e-04
-8.056250e-10,-7.343750e-04
-8.016250e-10,-5.625000e-04
-7.976250e-10,-3.593750e-04
-7.936250e-10,1.875000e-04
-7.896250e-10,1.875000e-04
-7.856250e-10,4.062500e-04
-7.816250e-10,8.750000e-04
-7.776250e-10,1.578125e-03
-7.736250e-10,1.687500e-03
-7.696250e-10,2.125000e-03
-7.656250e-10,2.578125e-03
-7.616250e-10,3.046875e-03
-7.576250e-10,3.500000e-03
-7.536250e-10,4.265625e-03
-7.496250e-10,4.406250e-03
-7.456250e-10,4.718750e-03
-7.416250e-10,5.234375e-03
-7.376250e-10,5.906250e-03
-7.336250e-10,5.937500e-03
-7.296250e-10,6.234375e-03
-7.256250e-10,6.500000e-03
-7.216250e-10,6.703125e-03
-7.176250e-10,6.875000e-03
-7.136250e-10,7.296875e-03
-7.096250e-10,7.062500e-03
-7.056250e-10,6.968750e-03
-7.016250e-10,7.031250e-03
-6.976250e-10,7.265625e-03
-6.936250e-10,6.828125e-03
-6.896250e-10,6.656250e-03
-6.856250e-10,6.468750e-03
-6.816250e-10,6.218750e-03
-6.776250e-10,5.968750e-03
-6.736250e-10,5.984375e-03
-6.696250e-10,5.390625e-03
-6.656250e-10,4.984375e-03
-6.616250e-10,4.781250e-03
-6.576250e-10,4.781250e-03
-6.536250e-10,4.203125e-03
-6.496250e-10,3.937500e-03
-6.456250e-10,3.703125e-03
-6.416250e-10,3.500000e-03
-6.376250e-10,3.328125e-03
-6.336250e-10,3.500000e-03
-6.296250e-10,3.125000e-03
-6.256250e-10,2.984375e-03
-6.216250e-10,3.109375e-03
-6.176250e-10,3.500000e-03
-6.136250e-10,3.328125e-03
-6.096250e-10,3.515625e-03
-6.056250e-10,3.750000e-03
-6.016250e-10,4.046875e-03
-5.976250e-10,4.390625e-03
-5.936250e-10,5.078125e-03
-5.896250e-10,5.187500e-03
-5.856250e-10,5.546875e-03
-5.816250e-10,6.125000e-03
-5.776250e-10,6.937500e-03
-5.736250e-10,7.156250e-03
-5.696250e-10,7.671875e-03
-5.656250e-10,8.187500e-03
-5.616250e-10,8.703125e-03
-5.576250e-10,9.203125e-03
-5.536250e-10,9.968750e-03
-5.496250e-10,1.009375e-02
-5.456250e-10,1.039063e-02
-5.416250e-10,1.085938e-02
-5.376250e-10,1.145313e-02
-5.336250e-10,1.140625e-02
-5.296250e-10,1.159375e-02
-5.256250e-10,1.171875e-02
-5.216250e-10,1.176563e-02
-5.176250e-10,1.176563e-02
-5.136250e-10,1.198438e-02
-5.096250e-10,1.154688e-02
-5.056250e-10,1.123438e-02
-5.016250e-10,1.107813e-02
-4.976250e-10,1.106250e-02
-4.936250e-10,1.037500e-02
-4.896250e-10,9.953125e-03
-4.856250e-10,9.484375e-03
-4.816250e-10,8.984375e-03
-4.776250e-10,8.453125e-03
-4.736250e-10,8.203125e-03
-4.696250e-10,7.328125e-03
-4.656250e-10,6.656250e-03
-4.616250e-10,6.203125e-03
-4.576250e-10,5.953125e-03
-4.536250e-10,5.109375e-03
-4.496250e-10,4.609375e-03
-4.456250e-10,4.109375e-03
-4.416250e-10,3.671875e-03
-4.376250e-10,3.265625e-03
-4.336250e-10,3.218750e-03
-4.296250e-10,2.609375e-03
-4.256250e-10,2.281250e-03
-4.216250e-10,2.187500e-03
-4.176250e-10,2.375000e-03
-4.136250e-10,2.015625e-03
-4.096250e-10,2.031250e-03
-4.056250e-10,2.062500e-03
-4.016250e-10,2.171875e-03
-3.976250e-10,2.328125e-03
-3.936250e-10,2.843750e-03
-3.896250e-10,2.781250e-03
-3.856250e-10,2.968750e-03
-3.816250e-10,3.390625e-03
-3.776250e-10,4.046875e-03
-3.736250e-10,4.125000e-03
-3.696250e-10,4.500000e-03
-3.656250e-10,4.875000e-03
-3.616250e-10,5.234375e-03
-3.576250e-10,5.609375e-03
-3.536250e-10,6.250000e-03
-3.496250e-10,6.281250e-03
-3.456250e-10,6.468750e-03
-3.416250e-10,6.843750e-03
-3.376250e-10,7.375000e-03
-3.336250e-10,7.281250e-03
-3.296250e-10,7.421875e-03
-3.256250e-10,7.500000e-03
-3.216250e-10,7.515625e-03
-3.176250e-10,7.500000e-03
-3.136250e-10,7.718750e-03
-3.096250e-10,7.296875e-03
-3.056250e-10,7.015625e-03
-3.016250e-10,6.906250e-03
-2.976250e-10,6.937500e-03
-2.936250e-10,6.343750e-03
-2.896250e-10,6.000000e-03
-2.856250e-10,5.609375e-03
-2.816250e-10,5.171875e-03
-2.776250e-10,4.765625e-03
-2.736250e-10,4.593750e-03
-2.696250e-10,3.843750e-03
-2.656250e-10,3.281250e-03
-2.616250e-10,2.937500e-03
-2.576250e-10,2.781250e-03
-2.536250e-10,2.046875e-03
-2.496250e-10,1.656250e-03
-2.456250e-10,1.250000e-03
-2.416250e-10,8.750000e-04
-2.376250e-10,5.625000e-04
-2.336250e-10,5.625000e-04
-2.296250e-10,4.687500e-05
-2.256250e-10,-2.500000e-04
-2.216250e-10,-2.968750e-04
-2.176250e-10,-7.812500e-05
-2.136250e-10,-4.218750e-04
-2.096250e-10,-4.062500e-04
-2.056250e-10,-3.593750e-04
-2.016250e-10,-2.812500e-04
-1.976250e-10,-1.093750e-04
-1.936250e-10,3.750000e-04
-1.896250e-10,3.437500e-04
-1.856250e-10,5.000000e-04
-1.816250e-10,9.218750e-04
-1.776250e-10,1.578125e-03
-1.736250e-10,1.640625e-03
-1.696250e-10,2.046875e-03
-1.656250e-10,2.453125e-03
-1.616250e-10,2.859375e-03
-1.576250e-10,3.328125e-03
-1.536250e-10,4.062500e-03
-1.496250e-10,4.265625e-03
-1.456250e-10,4.625000e-03
-1.416250e-10,5.187500e-03
-1.376250e-10,5.968750e-03
-1.336250e-10,6.156250e-03
-1.296250e-10,6.625000e-03
-1.256250e-10,7.109375e-03
-1.216250e-10,7.578125e-03
-1.176250e-10,8.078125e-03
-1.136250e-10,8.875000e-03
-1.096250e-10,9.140625e-03
-1.056250e-10,9.578125e-03
-1.016250e-10,1.023438e-02
-9.762500e-11,1.114063e-02
-9.362500e-11,1.146875e-02
-8.962500e-11,1.212500e-02
-8.562500e-11,1.284375e-02
-8.162500e-11,1.359375e-02
-7.762500e-11,1.442188e-02
-7.362500e-11,1.560938e-02
-6.962500e-11,1.631250e-02
-6.562500e-11,1.728125e-02
-6.162500e-11,1.848438e-02
-5.762500e-11,2.000000e-02
-5.362500e-11,2.103125e-02
-4.962500e-11,2.240625e-02
-4.562500e-11,2.389063e-02
-4.162500e-11,2.548438e-02
-3.762500e-11,2.717188e-02
-3.362500e-11,2.926563e-02
-2.962500e-11,3.090625e-02
-2.562500e-11,3.281250e-02
-2.162500e-11,3.498438e-02
-1.762500e-11,3.745313e-02
-1.362500e-11,3.945313e-02
-9.625000e-12,4.179688e-02
-5.625000e-12,4.420313e-02
-1.625000e-12,4.668750e-02
2.375000e-12,4.921875e-02
6.375000e-12,5.212500e-02
1.037500e-11,5.450000e-02
1.437500e-11,5.709375e-02
1.837500e-11,5.987500e-02
2.237500e-11,6.287500e-02
2.637500e-11,6.534375e-02
3.037500e-11,6.804688e-02
3.437500e-11,7.073438e-02
3.837500e-11,7.340625e-02
4.237500e-11,7.604688e-02
4.637500e-11,7.893750e-02
5.037500e-11,8.125000e-02
5.437500e-11,8.367188e-02
5.837500e-11,8.618750e-02
6.237500e-11,8.882813e-02
6.637500e-11,9.087500e-02
7.037500e-11,9.307813e-02
7.437500e-11,9.521875e-02
7.837500e-11,9.726563e-02
8.237500e-11,9.920313e-02
8.637500e-11,1.013594e-01
9.037500e-11,1.028906e-01
9.437500e-11,1.045000e-01
9.837500e-11,1.061563e-01
1.023750e-10,1.079219e-01
1.063750e-10,1.090781e-01
1.103750e-10,1.103750e-01
1.143750e-10,1.115938e-01
1.183750e-10,1.127188e-01
1.223750e-10,1.137344e-01
1.263750e-10,1.149531e-01
1.303750e-10,1.155469e-01
1.343750e-10,1.162344e-01
1.383750e-10,1.169688e-01
1.423750e-10,1.178125e-01
1.463750e-10,1.180313e-01
1.503750e-10,1.184219e-01
1.543750e-10,1.187188e-01
1.583750e-10,1.189219e-01
1.623750e-10,1.190313e-01
1.663750e-10,1.192969e-01
1.703750e-10,1.189531e-01
1.743750e-10,1.186875e-01
1.783750e-10,1.184688e-01
1.823750e-10,1.183281e-01
1.863750e-10,1.175469e-01
1.903750e-10,1.169375e-01
1.943750e-10,1.162031e-01
1.983750e-10,1.153594e-01
2.023750e-10,1.144219e-01
2.063750e-10,1.136094e-01
2.103750e-10,1.121875e-01
2.143750e-10,1.108281e-01
2.183750e-10,1.095156e-01
2.223750e-10,1.082656e-01
2.263750e-10,1.063906e-01
2.303750e-10,1.047188e-01
2.343750e-10,1.029375e-01
2.383750e-10,1.010625e-01
2.423750e-10,9.912500e-02
2.463750e-10,9.735938e-02
2.503750e-10,9.501563e-02
2.543750e-10,9.279688e-02
2.583750e-10,9.068750e-02
2.623750e-10,8.871875e-02
2.663750e-10,8.615625e-02
2.703750e-10,8.390625e-02
2.743750e-10,8.160938e-02
2.783750e-10,7.932813e-02
2.823750e-10,7.706250e-02
2.863750e-10,7.504688e-02
2.903750e-10,7.253125e-02
2.943750e-10,7.025000e-02
2.983750e-10,6.815625e-02
3.023750e-10,6.629688e-02
3.063750e-10,6.393750e-02
3.103750e-10,6.193750e-02
3.143750e-10,5.998438e-02
3.183750e-10,5.809375e-02
3.223750e-10,5.629688e-02
3.263750e-10,5.479688e-02
3.303750e-10,5.282813e-02
3.343750e-10,5.112500e-02
3.383750e-10,4.964063e-02
3.423750e-10,4.840625e-02
3.463750e-10,4.667188e-02
3.503750e-10,4.531250e-02
3.543750e-10,4.398438e-02
3.583750e-10,4.271875e-02
3.623750e-10,4.150000e-02
3.663750e-10,4.057813e-02
3.703750e-10,3.912500e-02
3.743750e-10,3.793750e-02
3.783750e-10,3.693750e-02
3.823750e-10,3.612500e-02
3.863750e-10,3.479688e-02
3.903750e-10,3.378125e-02
3.943750e-10,3.279688e-02
3.983750e-10,3.181250e-02
4.023750e-10,3.087500e-02
4.063750e-10,3.021875e-02
4.103750e-10,2.900000e-02
4.143750e-10,2.801563e-02
4.183750e-10,2.721875e-02
4.223750e-10,2.662500e-02
4.263750e-10,2.551563e-02
4.303750e-10,2.471875e-02
4.343750e-10,2.396875e-02
4.383750e-10,2.325000e-02
4.423750e-10,2.259375e-02
4.463750e-10,2.225000e-02
4.503750e-10,2.135938e-02
4.543750e-10,2.073438e-02
4.583750e-10,2.035938e-02
4.623750e-10,2.018750e-02
4.663750e-10,1.954688e-02
4.703750e-10,1.923438e-02
4.743750e-10,1.900000e-02
4.783750e-10,1.881250e-02
4.823750e-10,1.867188e-02
4.863750e-10,1.887500e-02
4.903750e-10,1.853125e-02
4.943750e-10,1.843750e-02
4.983750e-10,1.859375e-02
5.023750e-10,1.892188e-02
5.063750e-10,1.875000e-02
5.103750e-10,1.884375e-02
5.143750e-10,1.900000e-02
5.183750e-10,1.912500e-02
5.223750e-10,1.925000e-02
5.263750e-10,1.964063e-02
5.303750e-10,1.943750e-02
5.343750e-10,1.939063e-02
5.383750e-10,1.951563e-02
5.423750e-10,1.976563e-02
5.463750e-10,1.942188e-02
5.503750e-10,1.928125e-02
5.543750e-10,1.912500e-02
5.583750e-10,1.890625e-02
5.623750e-10,1.857813e-02
5.663750e-10,1.850000e-02
5.703750e-10,1.778125e-02
5.743750e-10,1.717188e-02
5.783750e-10,1.671875e-02
5.823750e-10,1.639063e-02
5.863750e-10,1.545313e-02
5.903750e-10,1.473438e-02
5.943750e-10,1.401563e-02
5.983750e-10,1.326563e-02
6.023750e-10,1.246875e-02
6.063750e-10,1.193750e-02
6.103750e-10,1.084375e-02
6.143750e-10,9.937500e-03
6.183750e-10,9.250000e-03
6.223750e-10,8.796875e-03
6.263750e-10,7.781250e-03
6.303750e-10,7.093750e-03
6.343750e-10,6.484375e-03
6.383750e-10,5.937500e-03
6.423750e-10,5.406250e-03
6.463750e-10,5.250000e-03
6.503750e-10,4.578125e-03
6.543750e-10,4.187500e-03
6.583750e-10,4.062500e-03
6.623750e-10,4.234375e-03
6.663750e-10,3.875000e-03
6.703750e-10,3.875000e-03
6.743750e-10,3.968750e-03
6.783750e-10,4.125000e-03
6.823750e-10,4.312500e-03
6.863750e-10,4.843750e-03
6.903750e-10,4.843750e-03
6.943750e-10,5.078125e-03
6.983750e-10,5.546875e-03
7.023750e-10,6.234375e-03
7.063750e-10,6.328125e-03
7.103750e-10,6.734375e-03
7.143750e-10,7.140625e-03
7.183750e-10,7.546875e-03
7.223750e-10,7.906250e-03
7.263750e-10,8.546875e-03
7.303750e-10,8.562500e-03
7.343750e-10,8.734375e-03
7.383750e-10,9.078125e-03
7.423750e-10,9.578125e-03
7.463750e-10,9.437500e-03
7.503750e-10,9.546875e-03
7.543750e-10,9.625000e-03
7.583750e-10,9.640625e-03
7.623750e-10,9.625000e-03
7.663750e-10,9.859375e-03
7.703750e-10,9.453125e-03
7.743750e-10,9.234375e-03
7.783750e-10,9.187500e-03
7.823750e-10,9.312500e-03
7.863750e-10,8.843750e-03
7.903750e-10,8.656250e-03
7.943750e-10,8.468750e-03
7.983750e-10,8.296875e-03
8.023750e-10,8.125000e-03
8.063750e-10,8.281250e-03
8.103750e-10,7.843750e-03
8.143750e-10,7.640625e-03
8.183750e-10,7.671875e-03
8.223750e-10,7.937500e-03
8.263750e-10,7.640625e-03
8.303750e-10,7.671875e-03
8.343750e-10,7.750000e-03
8.383750e-10,7.843750e-03
8.423750e-10,7.984375e-03
8.463750e-10,8.453125e-03
8.503750e-10,8.343750e-03
8.543750e-10,8.453125e-03
8.583750e-10,8.796875e-03
8.623750e-10,9.328125e-03
8.663750e-10,9.281250e-03
8.703750e-10,9.531250e-03
8.743750e-10,9.781250e-03
8.783750e-10,1.003125e-02
8.823750e-10,1.025000e-02
8.863750e-10,1.073438e-02
8.903750e-10,1.060938e-02
8.943750e-10,1.064063e-02
8.983750e-10,1.084375e-02
9.023750e-10,1.120313e-02
9.063750e-10,1.092188e-02
9.103750e-10,1.089063e-02
9.143750e-10,1.081250e-02
9.183750e-10,1.070313e-02
9.223750e-10,1.054688e-02
9.263750e-10,1.064063e-02
9.303750e-10,1.010938e-02
9.343750e-10,9.718750e-03
9.383750e-10,9.515625e-03
9.423750e-10,9.484375e-03
9.463750e-10,8.828125e-03
9.503750e-10,8.453125e-03
9.543750e-10,8.078125e-03
9.583750e-10,7.687500e-03
9.623750e-10,7.296875e-03
9.663750e-10,7.203125e-03
9.703750e-10,6.515625e-03
9.743750e-10,6.062500e-03
9.783750e-10,5.812500e-03
9.823750e-10,5.796875e-03
9.863750e-10,5.203125e-03
9.903750e-10,4.937500e-03
9.943750e-10,4.687500e-03
9.983750e-10,4.484375e-03
1.002375e-09,4.312500e-03
1.006375e-09,4.468750e-03
1.010375e-09,4.062500e-03
1.014375e-09,3.875000e-03
1.018375e-09,3.921875e-03
1.022375e-09,4.187500e-03
1.026375e-09,3.875000e-03
1.030375e-09,3.890625e-03
1.034375e-09,3.906250e-03
1.038375e-09,3.953125e-03
1.042375e-09,4.000000e-03
1.046375e-09,4.343750e-03
1.050375e-09,4.093750e-03
1.054375e-09,4.046875e-03
1.058375e-09,4.187500e-03
1.062375e-09,4.531250e-03
1.066375e-09,4.250000e-03
1.070375e-09,4.281250e-03
1.074375e-09,4.281250e-03
1.078375e-09,4.296875e-03
1.082375e-09,4.281250e-03
1.086375e-09,4.562500e-03
1.090375e-09,4.234375e-03
1.094375e-09,4.109375e-03
1.098375e-09,4.171875e-03
1.102375e-09,4.453125e-03
1.106375e-09,4.125000e-03
1.110375e-09,4.093750e-03
1.114375e-09,4.078125e-03
1.118375e-09,4.078125e-03
1.122375e-09,4.109375e-03
1.126375e-09,4.437500e-03
1.130375e-09,4.187500e-03
1.134375e-09,4.171875e-03
1.138375e-09,4.375000e-03
1.142375e-09,4.812500e-03
1.146375e-09,4.671875e-03
1.150375e-09,4.843750e-03
1.154375e-09,5.062500e-03
1.158375e-09,5.281250e-03
1.162375e-09,5.546875e-03
1.166375e-09,6.109375e-03
1.170375e-09,6.093750e-03
1.174375e-09,6.281250e-03
1.178375e-09,6.687500e-03
1.182375e-09,7.281250e-03
1.186375e-09,7.265625e-03
1.190375e-09,7.546875e-03
1.194375e-09,7.812500e-03
1.198375e-09,8.046875e-03
1.202375e-09,8.250000e-03
1.206375e-09,8.718750e-03
1.210375e-09,8.546875e-03
1.214375e-09,8.531250e-03
1.218375e-09,8.687500e-03
1.222375e-09,8.968750e-03
1.226375e-09,8.609375e-03
1.230375e-09,8.484375e-03
1.234375e-09,8.328125e-03
1.238375e-09,8.093750e-03
1.242375e-09,7.828125e-03
1.246375e-09,7.796875e-03
1.250375e-09,7.125000e-03
1.254375e-09,6.609375e-03
1.258375e-09,6.265625e-03
1.262375e-09,6.093750e-03
1.266375e-09,5.296875e-03
1.270375e-09,4.781250e-03
1.274375e-09,4.265625e-03
1.278375e-09,3.734375e-03
1.282375e-09,3.218750e-03
1.286375e-09,3.031250e-03
1.290375e-09,2.250000e-03
1.294375e-09,1.703125e-03
1.298375e-09,1.390625e-03
1.302375e-09,1.343750e-03
1.306375e-09,7.187500e-04
1.310375e-09,4.687500e-04
1.314375e-09,2.656250e-04
1.318375e-09,1.406250e-04
1.322375e-09,6.250000e-05
1.326375e-09,3.750000e-04
1.330375e-09,1.250000e-04
1.334375e-09,1.562500e-04
1.338375e-09,4.531250e-04
1.342375e-09,1.000000e-03
1.346375e-09,1.000000e-03
1.350375e-09,1.359375e-03
1.354375e-09,1.765625e-03
1.358375e-09,2.203125e-03
1.362375e-09,2.656250e-03
1.366375e-09,3.453125e-03
1.370375e-09,3.640625e-03
1.374375e-09,4.046875e-03
1.378375e-09,4.656250e-03
1.382375e-09,5.453125e-03
1.386375e-09,5.609375e-03
1.390375e-09,6.062500e-03
1.394375e-09,6.468750e-03
1.398375e-09,6.843750e-03
1.402375e-09,7.171875e-03
1.406375e-09,7.750000e-03
1.410375e-09,7.671875e-03
1.414375e-09,7.734375e-03
1.418375e-09,7.953125e-03
1.422375e-09,8.296875e-03
1.426375e-09,8.000000e-03
1.430375e-09,7.921875e-03
1.434375e-09,7.812500e-03
1.438375e-09,7.640625e-03
1.442375e-09,7.421875e-03
1.446375e-09,7.468750e-03
1.450375e-09,6.859375e-03
1.454375e-09,6.437500e-03
1.458375e-09,6.187500e-03
1.462375e-09,6.125000e-03
1.466375e-09,5.437500e-03
1.470375e-09,5.062500e-03
1.474375e-09,4.687500e-03
1.478375e-09,4.328125e-03
1.482375e-09,3.984375e-03
1.486375e-09,3.968750e-03
1.490375e-09,3.375000e-03
1.494375e-09,3.015625e-03
1.498375e-09,2.906250e-03
1.502375e-09,3.031250e-03
1.506375e-09,2.609375e-03
1.510375e-09,2.531250e-03
1.514375e-09,2.500000e-03
1.518375e-09,2.515625e-03
1.522375e-09,2.578125e-03
1.526375e-09,2.984375e-03
1.530375e-09,2.828125e-03
1.534375e-09,2.921875e-03
1.538375e-09,3.265625e-03
1.542375e-09,3.828125e-03
1.546375e-09,3.812500e-03
1.550375e-09,4.125000e-03
1.554375e-09,4.453125e-03
1.558375e-09,4.812500e-03
1.562375e-09,5.156250e-03
1.566375e-09,5.796875e-03
1.570375e-09,5.843750e-03
1.574375e-09,6.078125e-03
1.578375e-09,6.484375e-03
1.582375e-09,7.093750e-03
1.586375e-09,7.046875e-03
1.590375e-09,7.281250e-03
1.594375e-09,7.500000e-03
1.598375e-09,7.656250e-03
1.602375e-09,7.796875e-03
1.606375e-09,8.187500e-03
1.610375e-09,7.937500e-03
1.614375e-09,7.843750e-03
1.618375e-09,7.921875e-03
1.622375e-09,8.156250e-03
1.626375e-09,7.734375e-03
1.630375e-09,7.593750e-03
1.634375e-09,7.421875e-03
1.638375e-09,7.203125e-03
1.642375e-09,6.968750e-03
1.646375e-09,7.015625e-03
1.650375e-09,6.421875e-03
1.654375e-09,6.031250e-03
1.658375e-09,5.812500e-03
1.662375e-09,5.796875e-03
1.666375e-09,5.171875e-03
1.670375e-09,4.843750e-03
1.674375e-09,4.531250e-03
1.678375e-09,4.203125e-03
1.682375e-09,3.906250e-03
1.686375e-09,3.906250e-03
1.690375e-09,3.328125e-03
1.694375e-09,2.968750e-03
1.698375e-09,2.843750e-03
1.702375e-09,2.937500e-03
1.706375e-09,2.453125e-03
1.710375e-09,2.296875e-03
1.714375e-09,2.156250e-03
1.718375e-09,2.062500e-03
1.722375e-09,2.000000e-03
1.726375e-09,2.265625e-03
1.730375e-09,1.953125e-03
1.734375e-09,1.875000e-03
1.738375e-09,2.031250e-03
1.742375e-09,2.406250e-03
1.746375e-09,2.218750e-03
1.750375e-09,2.343750e-03
1.754375e-09,2.500000e-03
