Measurements-streak-laser-independent/Photodiode-on-Tek-6GHz/Tek000_ch1_20190613132755613.csv

Model,MSO64
Waveform Type,ANALOG
Horizontal Units,s
Sample Interval,4.000000e-12
Record Length,1000
Zero Index,310.546875
Vertical Units,V

TIME,CH1
-1.242188e-09,6.546875e-03
-1.238188e-09,6.500000e-03
-1.234187e-09,6.453125e-03
-1.230187e-09,6.734375e-03
-1.226187e-09,6.390625e-03
-1.222187e-09,6.281250e-03
-1.218187e-09,6.359375e-03
-1.214187e-09,6.656250e-03
-1.210187e-09,6.359375e-03
-1.206187e-09,6.359375e-03
-1.202187e-09,6.375000e-03
-1.198188e-09,6.406250e-03
-1.194188e-09,6.437500e-03
-1.190188e-09,6.781250e-03
-1.186188e-09,6.531250e-03
-1.182188e-09,6.484375e-03
-1.178188e-09,6.640625e-03
-1.174187e-09,7.015625e-03
-1.170187e-09,6.796875e-03
-1.166187e-09,6.890625e-03
-1.162187e-09,6.984375e-03
-1.158187e-09,7.078125e-03
-1.154187e-09,7.203125e-03
-1.150187e-09,7.625000e-03
-1.146187e-09,7.437500e-03
-1.142187e-09,7.484375e-03
-1.138188e-09,7.718750e-03
-1.134188e-09,8.171875e-03
-1.130188e-09,8.015625e-03
-1.126188e-09,8.171875e-03
-1.122188e-09,8.312500e-03
-1.118188e-09,8.468750e-03
-1.114187e-09,8.625000e-03
-1.110187e-09,9.062500e-03
-1.106187e-09,8.890625e-03
-1.102187e-09,8.921875e-03
-1.098187e-09,9.140625e-03
-1.094187e-09,9.531250e-03
-1.090187e-09,9.296875e-03
-1.086187e-09,9.359375e-03
-1.082187e-09,9.390625e-03
-1.078188e-09,9.390625e-03
-1.074188e-09,9.359375e-03
-1.070188e-09,9.593750e-03
-1.066188e-09,9.203125e-03
-1.062188e-09,8.953125e-03
-1.058188e-09,8.890625e-03
-1.054187e-09,8.984375e-03
-1.050187e-09,8.437500e-03
-1.046187e-09,8.140625e-03
-1.042187e-09,7.812500e-03
-1.038187e-09,7.453125e-03
-1.034187e-09,7.062500e-03
-1.030187e-09,6.937500e-03
-1.026187e-09,6.187500e-03
-1.022187e-09,5.609375e-03
-1.018188e-09,5.203125e-03
-1.014188e-09,5.000000e-03
-1.010188e-09,4.171875e-03
-1.006188e-09,3.656250e-03
-1.002188e-09,3.140625e-03
-9.981875e-10,2.625000e-03
-9.941875e-10,2.125000e-03
-9.901875e-10,1.953125e-03
-9.861875e-10,1.203125e-03
-9.821875e-10,6.875000e-04
-9.781875e-10,4.218750e-04
-9.741875e-10,3.906250e-04
-9.701875e-10,-2.031250e-04
-9.661875e-10,-4.375000e-04
-9.621875e-10,-6.250000e-04
-9.581875e-10,-7.500000e-04
-9.541875e-10,-8.125000e-04
-9.501875e-10,-5.312500e-04
-9.461875e-10,-7.968750e-04
-9.421875e-10,-7.968750e-04
-9.381875e-10,-5.468750e-04
-9.341875e-10,-6.250000e-05
-9.301875e-10,-1.250000e-04
-9.261875e-10,1.406250e-04
-9.221875e-10,4.531250e-04
-9.181875e-10,7.812500e-04
-9.141875e-10,1.125000e-03
-9.101875e-10,1.796875e-03
-9.061875e-10,1.859375e-03
-9.021875e-10,2.109375e-03
-8.981875e-10,2.578125e-03
-8.941875e-10,3.218750e-03
-8.901875e-10,3.218750e-03
-8.861875e-10,3.515625e-03
-8.821875e-10,3.765625e-03
-8.781875e-10,3.984375e-03
-8.741875e-10,4.171875e-03
-8.701875e-10,4.609375e-03
-8.661875e-10,4.390625e-03
-8.621875e-10,4.328125e-03
-8.581875e-10,4.437500e-03
-8.541875e-10,4.687500e-03
-8.501875e-10,4.296875e-03
-8.461875e-10,4.171875e-03
-8.421875e-10,4.015625e-03
-8.381875e-10,3.812500e-03
-8.341875e-10,3.609375e-03
-8.301875e-10,3.671875e-03
-8.261875e-10,3.125000e-03
-8.221875e-10,2.765625e-03
-8.181875e-10,2.609375e-03
-8.141875e-10,2.671875e-03
-8.101875e-10,2.125000e-03
-8.061875e-10,1.906250e-03
-8.021875e-10,1.718750e-03
-7.981875e-10,1.562500e-03
-7.941875e-10,1.437500e-03
-7.901875e-10,1.640625e-03
-7.861875e-10,1.281250e-03
-7.821875e-10,1.171875e-03
-7.781875e-10,1.296875e-03
-7.741875e-10,1.671875e-03
-7.701875e-10,1.484375e-03
-7.661875e-10,1.625000e-03
-7.621875e-10,1.812500e-03
-7.581875e-10,2.015625e-03
-7.541875e-10,2.250000e-03
-7.501875e-10,2.828125e-03
-7.461875e-10,2.796875e-03
-7.421875e-10,2.984375e-03
-7.381875e-10,3.375000e-03
-7.341875e-10,3.968750e-03
-7.301875e-10,3.953125e-03
-7.261875e-10,4.218750e-03
-7.221875e-10,4.468750e-03
-7.181875e-10,4.703125e-03
-7.141875e-10,4.906250e-03
-7.101875e-10,5.375000e-03
-7.061875e-10,5.218750e-03
-7.021875e-10,5.218750e-03
-6.981875e-10,5.390625e-03
-6.941875e-10,5.718750e-03
-6.901875e-10,5.421875e-03
-6.861875e-10,5.390625e-03
-6.821875e-10,5.328125e-03
-6.781875e-10,5.234375e-03
-6.741875e-10,5.125000e-03
-6.701875e-10,5.312500e-03
-6.661875e-10,4.875000e-03
-6.621875e-10,4.640625e-03
-6.581875e-10,4.609375e-03
-6.541875e-10,4.781250e-03
-6.501875e-10,4.375000e-03
-6.461875e-10,4.296875e-03
-6.421875e-10,4.234375e-03
-6.381875e-10,4.218750e-03
-6.341875e-10,4.234375e-03
-6.301875e-10,4.593750e-03
-6.261875e-10,4.390625e-03
-6.221875e-10,4.437500e-03
-6.181875e-10,4.734375e-03
-6.141875e-10,5.281250e-03
-6.101875e-10,5.265625e-03
-6.061875e-10,5.609375e-03
-6.021875e-10,5.984375e-03
-5.981875e-10,6.390625e-03
-5.941875e-10,6.828125e-03
-5.901875e-10,7.593750e-03
-5.861875e-10,7.765625e-03
-5.821875e-10,8.156250e-03
-5.781875e-10,8.734375e-03
-5.741875e-10,9.515625e-03
-5.701875e-10,9.687500e-03
-5.661875e-10,1.012500e-02
-5.621875e-10,1.051563e-02
-5.581875e-10,1.089063e-02
-5.541875e-10,1.120313e-02
-5.501875e-10,1.176563e-02
-5.461875e-10,1.165625e-02
-5.421875e-10,1.168750e-02
-5.381875e-10,1.185938e-02
-5.341875e-10,1.214063e-02
-5.301875e-10,1.175000e-02
-5.261875e-10,1.159375e-02
-5.221875e-10,1.134375e-02
-5.181875e-10,1.104688e-02
-5.141875e-10,1.065625e-02
-5.101875e-10,1.051563e-02
-5.061875e-10,9.718750e-03
-5.021875e-10,9.046875e-03
-4.981875e-10,8.546875e-03
-4.941875e-10,8.218750e-03
-4.901875e-10,7.234375e-03
-4.861875e-10,6.546875e-03
-4.821875e-10,5.843750e-03
-4.781875e-10,5.140625e-03
-4.741875e-10,4.437500e-03
-4.701875e-10,4.062500e-03
-4.661875e-10,3.093750e-03
-4.621875e-10,2.375000e-03
-4.581875e-10,1.890625e-03
-4.541875e-10,1.671875e-03
-4.501875e-10,8.906250e-04
-4.461875e-10,4.843750e-04
-4.421875e-10,9.375000e-05
-4.381875e-10,-1.875000e-04
-4.341875e-10,-4.375000e-04
-4.301875e-10,-2.812500e-04
-4.261875e-10,-6.875000e-04
-4.221875e-10,-8.125000e-04
-4.181875e-10,-6.718750e-04
-4.141875e-10,-2.500000e-04
-4.101875e-10,-3.750000e-04
-4.061875e-10,-1.406250e-04
-4.021875e-10,7.812500e-05
-3.981875e-10,3.750000e-04
-3.941875e-10,6.875000e-04
-3.901875e-10,1.375000e-03
-3.861875e-10,1.421875e-03
-3.821875e-10,1.718750e-03
-3.781875e-10,2.250000e-03
-3.741875e-10,2.968750e-03
-3.701875e-10,3.125000e-03
-3.661875e-10,3.546875e-03
-3.621875e-10,3.875000e-03
-3.581875e-10,4.218750e-03
-3.541875e-10,4.531250e-03
-3.501875e-10,5.156250e-03
-3.461875e-10,5.078125e-03
-3.421875e-10,5.218750e-03
-3.381875e-10,5.546875e-03
-3.341875e-10,6.015625e-03
-3.301875e-10,5.921875e-03
-3.261875e-10,6.062500e-03
-3.221875e-10,6.046875e-03
-3.181875e-10,6.015625e-03
-3.141875e-10,6.000000e-03
-3.101875e-10,6.250000e-03
-3.061875e-10,5.828125e-03
-3.021875e-10,5.593750e-03
-2.981875e-10,5.625000e-03
-2.941875e-10,5.750000e-03
-2.901875e-10,5.375000e-03
-2.861875e-10,5.250000e-03
-2.821875e-10,4.984375e-03
-2.781875e-10,4.687500e-03
-2.741875e-10,4.484375e-03
-2.701875e-10,4.546875e-03
-2.661875e-10,4.015625e-03
-2.621875e-10,3.671875e-03
-2.581875e-10,3.625000e-03
-2.541875e-10,3.718750e-03
-2.501875e-10,3.328125e-03
-2.461875e-10,3.234375e-03
-2.421875e-10,3.015625e-03
-2.381875e-10,2.750000e-03
-2.341875e-10,2.671875e-03
-2.301875e-10,2.812500e-03
-2.261875e-10,2.468750e-03
-2.221875e-10,2.250000e-03
-2.181875e-10,2.406250e-03
-2.141875e-10,2.656250e-03
-2.101875e-10,2.468750e-03
-2.061875e-10,2.593750e-03
-2.021875e-10,2.578125e-03
-1.981875e-10,2.500000e-03
-1.941875e-10,2.687500e-03
-1.901875e-10,3.000000e-03
-1.861875e-10,2.937500e-03
-1.821875e-10,2.937500e-03
-1.781875e-10,3.265625e-03
-1.741875e-10,3.734375e-03
-1.701875e-10,3.687500e-03
-1.661875e-10,3.968750e-03
-1.621875e-10,4.109375e-03
-1.581875e-10,4.171875e-03
-1.541875e-10,4.500000e-03
-1.501875e-10,4.875000e-03
-1.461875e-10,4.921875e-03
-1.421875e-10,4.968750e-03
-1.381875e-10,5.281250e-03
-1.341875e-10,5.765625e-03
-1.301875e-10,5.656250e-03
-1.261875e-10,5.859375e-03
-1.221875e-10,5.921875e-03
-1.181875e-10,5.890625e-03
-1.141875e-10,6.093750e-03
-1.101875e-10,6.328125e-03
-1.061875e-10,6.296875e-03
-1.021875e-10,6.218750e-03
-9.818750e-11,6.390625e-03
-9.418750e-11,6.781250e-03
-9.018750e-11,6.593750e-03
-8.618750e-11,6.718750e-03
-8.218750e-11,6.781250e-03
-7.818750e-11,6.859375e-03
-7.418750e-11,7.171875e-03
-7.018750e-11,7.656250e-03
-6.618750e-11,7.984375e-03
-6.218750e-11,8.390625e-03
-5.818750e-11,9.093750e-03
-5.418750e-11,1.023438e-02
-5.018750e-11,1.095313e-02
-4.618750e-11,1.210938e-02
-4.218750e-11,1.343750e-02
-3.818750e-11,1.498438e-02
-3.418750e-11,1.692188e-02
-3.018750e-11,1.931250e-02
-2.618750e-11,2.178125e-02
-2.218750e-11,2.457813e-02
-1.818750e-11,2.784375e-02
-1.418750e-11,3.179688e-02
-1.018750e-11,3.565625e-02
-6.187500e-12,4.009375e-02
-2.187500e-12,4.498438e-02
1.812500e-12,5.035938e-02
5.812500e-12,5.628125e-02
9.812500e-12,6.293750e-02
1.381250e-11,6.984375e-02
1.781250e-11,7.728125e-02
2.181250e-11,8.529688e-02
2.581250e-11,9.414063e-02
2.981250e-11,1.030938e-01
3.381250e-11,1.126406e-01
3.781250e-11,1.227344e-01
4.181250e-11,1.333438e-01
4.581250e-11,1.444844e-01
4.981250e-11,1.563750e-01
5.381250e-11,1.684688e-01
5.781250e-11,1.810156e-01
6.181250e-11,1.939688e-01
6.581250e-11,2.075781e-01
6.981250e-11,2.212188e-01
7.381250e-11,2.351875e-01
7.781250e-11,2.494531e-01
8.181250e-11,2.640000e-01
8.581250e-11,2.787188e-01
8.981250e-11,2.939063e-01
9.381250e-11,3.089375e-01
9.781250e-11,3.240938e-01
1.018125e-10,3.392344e-01
1.058125e-10,3.545625e-01
1.098125e-10,3.696250e-01
1.138125e-10,3.845313e-01
1.178125e-10,3.993125e-01
1.218125e-10,4.139375e-01
1.258125e-10,4.282813e-01
1.298125e-10,4.426250e-01
1.338125e-10,4.564375e-01
1.378125e-10,4.699063e-01
1.418125e-10,4.829219e-01
1.458125e-10,4.956719e-01
1.498125e-10,5.078125e-01
1.538125e-10,5.194219e-01
1.578125e-10,5.305156e-01
1.618125e-10,5.411094e-01
1.658125e-10,5.510938e-01
1.698125e-10,5.607188e-01
1.738125e-10,5.695781e-01
1.778125e-10,5.778437e-01
1.818125e-10,5.854063e-01
1.858125e-10,5.924688e-01
1.898125e-10,5.987656e-01
1.938125e-10,6.044063e-01
1.978125e-10,6.094063e-01
2.018125e-10,6.137969e-01
2.058125e-10,6.175156e-01
2.098125e-10,6.207500e-01
2.138125e-10,6.232656e-01
2.178125e-10,6.251875e-01
2.218125e-10,6.264219e-01
2.258125e-10,6.271875e-01
2.298125e-10,6.272344e-01
2.338125e-10,6.267969e-01
2.378125e-10,6.258125e-01
2.418125e-10,6.243437e-01
2.458125e-10,6.223281e-01
2.498125e-10,6.199375e-01
2.538125e-10,6.170313e-01
2.578125e-10,6.137188e-01
2.618125e-10,6.098906e-01
2.658125e-10,6.057969e-01
2.698125e-10,6.011563e-01
2.738125e-10,5.963125e-01
2.778125e-10,5.910938e-01
2.818125e-10,5.856094e-01
2.858125e-10,5.798437e-01
2.898125e-10,5.738125e-01
2.938125e-10,5.674844e-01
2.978125e-10,5.610156e-01
3.018125e-10,5.542187e-01
3.058125e-10,5.473438e-01
3.098125e-10,5.400625e-01
3.138125e-10,5.328906e-01
3.178125e-10,5.254531e-01
3.218125e-10,5.179531e-01
3.258125e-10,5.103438e-01
3.298125e-10,5.025938e-01
3.338125e-10,4.946719e-01
3.378125e-10,4.867969e-01
3.418125e-10,4.787344e-01
3.458125e-10,4.706719e-01
3.498125e-10,4.623438e-01
3.538125e-10,4.542500e-01
3.578125e-10,4.460000e-01
3.618125e-10,4.377813e-01
3.658125e-10,4.295781e-01
3.698125e-10,4.213125e-01
3.738125e-10,4.128438e-01
3.778125e-10,4.045781e-01
3.818125e-10,3.961875e-01
3.858125e-10,3.878438e-01
3.898125e-10,3.792813e-01
3.938125e-10,3.710156e-01
3.978125e-10,3.626563e-01
4.018125e-10,3.543906e-01
4.058125e-10,3.461875e-01
4.098125e-10,3.380000e-01
4.138125e-10,3.295625e-01
4.178125e-10,3.214219e-01
4.218125e-10,3.132188e-01
4.258125e-10,3.050938e-01
4.298125e-10,2.968125e-01
4.338125e-10,2.888281e-01
4.378125e-10,2.808750e-01
4.418125e-10,2.730313e-01
4.458125e-10,2.652969e-01
4.498125e-10,2.577031e-01
4.538125e-10,2.498281e-01
4.578125e-10,2.423438e-01
4.618125e-10,2.349063e-01
4.658125e-10,2.275625e-01
4.698125e-10,2.202031e-01
4.738125e-10,2.131250e-01
4.778125e-10,2.062188e-01
4.818125e-10,1.994844e-01
4.858125e-10,1.929063e-01
4.898125e-10,1.866250e-01
4.938125e-10,1.800781e-01
4.978125e-10,1.739688e-01
5.018125e-10,1.680781e-01
5.058125e-10,1.623281e-01
5.098125e-10,1.566250e-01
5.138125e-10,1.512500e-01
5.178125e-10,1.461875e-01
5.218125e-10,1.412969e-01
5.258125e-10,1.366094e-01
5.298125e-10,1.323125e-01
5.338125e-10,1.277656e-01
5.378125e-10,1.236563e-01
5.418125e-10,1.198906e-01
5.458125e-10,1.162656e-01
5.498125e-10,1.127031e-01
5.538125e-10,1.094063e-01
5.578125e-10,1.065000e-01
5.618125e-10,1.037188e-01
5.658125e-10,1.010781e-01
5.698125e-10,9.882813e-02
5.738125e-10,9.626563e-02
5.778125e-10,9.407813e-02
5.818125e-10,9.220313e-02
5.858125e-10,9.042188e-02
5.898125e-10,8.857813e-02
5.938125e-10,8.692188e-02
5.978125e-10,8.557813e-02
6.018125e-10,8.425000e-02
6.058125e-10,8.292188e-02
6.098125e-10,8.189063e-02
6.138125e-10,8.043750e-02
6.178125e-10,7.920313e-02
6.218125e-10,7.823438e-02
6.258125e-10,7.725000e-02
6.298125e-10,7.603125e-02
6.338125e-10,7.490625e-02
6.378125e-10,7.398438e-02
6.418125e-10,7.298438e-02
6.458125e-10,7.184375e-02
6.498125e-10,7.090625e-02
6.538125e-10,6.948438e-02
6.578125e-10,6.818750e-02
6.618125e-10,6.709375e-02
6.658125e-10,6.598438e-02
6.698125e-10,6.450000e-02
6.738125e-10,6.310938e-02
6.778125e-10,6.187500e-02
6.818125e-10,6.054688e-02
6.858125e-10,5.906250e-02
6.898125e-10,5.776563e-02
6.938125e-10,5.601563e-02
6.978125e-10,5.437500e-02
7.018125e-10,5.296875e-02
7.058125e-10,5.164063e-02
7.098125e-10,4.989063e-02
7.138125e-10,4.831250e-02
7.178125e-10,4.689063e-02
7.218125e-10,4.545313e-02
7.258125e-10,4.389063e-02
7.298125e-10,4.259375e-02
7.338125e-10,4.087500e-02
7.378125e-10,3.931250e-02
7.418125e-10,3.804688e-02
7.458125e-10,3.693750e-02
7.498125e-10,3.539063e-02
7.538125e-10,3.409375e-02
7.578125e-10,3.296875e-02
7.618125e-10,3.187500e-02
7.658125e-10,3.068750e-02
7.698125e-10,2.979688e-02
7.738125e-10,2.846875e-02
7.778125e-10,2.735938e-02
7.818125e-10,2.653125e-02
7.858125e-10,2.589063e-02
7.898125e-10,2.478125e-02
7.938125e-10,2.395313e-02
7.978125e-10,2.326563e-02
8.018125e-10,2.259375e-02
8.058125e-10,2.185938e-02
8.098125e-10,2.142188e-02
8.138125e-10,2.051563e-02
8.178125e-10,1.981250e-02
8.218125e-10,1.939063e-02
8.258125e-10,1.917188e-02
8.298125e-10,1.843750e-02
8.338125e-10,1.800000e-02
8.378125e-10,1.765625e-02
8.418125e-10,1.735938e-02
8.458125e-10,1.700000e-02
8.498125e-10,1.693750e-02
8.538125e-10,1.640625e-02
8.578125e-10,1.609375e-02
8.618125e-10,1.604688e-02
8.658125e-10,1.621875e-02
8.698125e-10,1.587500e-02
8.738125e-10,1.585938e-02
8.778125e-10,1.592188e-02
8.818125e-10,1.604688e-02
8.858125e-10,1.614063e-02
8.898125e-10,1.656250e-02
8.938125e-10,1.648438e-02
8.978125e-10,1.664063e-02
9.018125e-10,1.704688e-02
9.058125e-10,1.768750e-02
9.098125e-10,1.781250e-02
9.138125e-10,1.823438e-02
9.178125e-10,1.871875e-02
9.218125e-10,1.925000e-02
9.258125e-10,1.975000e-02
9.298125e-10,2.056250e-02
9.338125e-10,2.081250e-02
9.378125e-10,2.128125e-02
9.418125e-10,2.195313e-02
9.458125e-10,2.281250e-02
9.498125e-10,2.309375e-02
9.538125e-10,2.364063e-02
9.578125e-10,2.418750e-02
9.618125e-10,2.471875e-02
9.658125e-10,2.518750e-02
9.698125e-10,2.590625e-02
9.738125e-10,2.601563e-02
9.778125e-10,2.628125e-02
9.818125e-10,2.668750e-02
9.858125e-10,2.725000e-02
9.898125e-10,2.718750e-02
9.938125e-10,2.734375e-02
9.978125e-10,2.746875e-02
1.001813e-09,2.753125e-02
1.005813e-09,2.751563e-02
1.009813e-09,2.775000e-02
1.013813e-09,2.734375e-02
1.017812e-09,2.707813e-02
1.021812e-09,2.696875e-02
1.025812e-09,2.700000e-02
1.029812e-09,2.642188e-02
1.033812e-09,2.607813e-02
1.037812e-09,2.573438e-02
1.041812e-09,2.534375e-02
1.045812e-09,2.490625e-02
1.049812e-09,2.475000e-02
1.053813e-09,2.401563e-02
1.057813e-09,2.343750e-02
1.061813e-09,2.307813e-02
1.065813e-09,2.290625e-02
1.069813e-09,2.215625e-02
1.073813e-09,2.168750e-02
1.077812e-09,2.126563e-02
1.081812e-09,2.085938e-02
1.085812e-09,2.043750e-02
1.089812e-09,2.034375e-02
1.093812e-09,1.970313e-02
1.097812e-09,1.926563e-02
1.101812e-09,1.906250e-02
1.105812e-09,1.909375e-02
1.109812e-09,1.856250e-02
1.113813e-09,1.834375e-02
1.117813e-09,1.818750e-02
1.121813e-09,1.804688e-02
1.125813e-09,1.792188e-02
1.129813e-09,1.810938e-02
1.133813e-09,1.776563e-02
1.137812e-09,1.762500e-02
1.141812e-09,1.771875e-02
1.145812e-09,1.803125e-02
1.149812e-09,1.776563e-02
1.153812e-09,1.781250e-02
1.157812e-09,1.787500e-02
1.161812e-09,1.796875e-02
1.165812e-09,1.806250e-02
1.169812e-09,1.845313e-02
1.173813e-09,1.826563e-02
1.177813e-09,1.828125e-02
1.181813e-09,1.850000e-02
1.185813e-09,1.890625e-02
1.189813e-09,1.873438e-02
1.193813e-09,1.884375e-02
1.197812e-09,1.896875e-02
1.201812e-09,1.906250e-02
1.205812e-09,1.915625e-02
1.209812e-09,1.953125e-02
1.213812e-09,1.931250e-02
1.217812e-09,1.928125e-02
1.221812e-09,1.942188e-02
1.225812e-09,1.975000e-02
1.229812e-09,1.946875e-02
1.233813e-09,1.946875e-02
1.237813e-09,1.943750e-02
1.241813e-09,1.940625e-02
1.245813e-09,1.935938e-02
1.249813e-09,1.957813e-02
1.253813e-09,1.918750e-02
1.257812e-09,1.898438e-02
1.261812e-09,1.896875e-02
1.265812e-09,1.912500e-02
1.269812e-09,1.868750e-02
1.273812e-09,1.853125e-02
1.277812e-09,1.835938e-02
1.281812e-09,1.818750e-02
1.285812e-09,1.800000e-02
1.289812e-09,1.810938e-02
1.293813e-09,1.764063e-02
1.297813e-09,1.735938e-02
1.301813e-09,1.728125e-02
1.305813e-09,1.740625e-02
1.309813e-09,1.695313e-02
1.313813e-09,1.681250e-02
1.317812e-09,1.668750e-02
1.321812e-09,1.659375e-02
1.325812e-09,1.651563e-02
1.329812e-09,1.675000e-02
1.333812e-09,1.642188e-02
1.337812e-09,1.632813e-02
1.341812e-09,1.645313e-02
1.345812e-09,1.678125e-02
1.349812e-09,1.657813e-02
1.353813e-09,1.667188e-02
1.357813e-09,1.681250e-02
1.361813e-09,1.696875e-02
1.365813e-09,1.714063e-02
1.369813e-09,1.764063e-02
1.373813e-09,1.754688e-02
1.377812e-09,1.767188e-02
1.381812e-09,1.800000e-02
1.385812e-09,1.851563e-02
1.389812e-09,1.843750e-02
1.393812e-09,1.865625e-02
1.397812e-09,1.884375e-02
1.401812e-09,1.903125e-02
1.405812e-09,1.918750e-02
1.409812e-09,1.959375e-02
1.413813e-09,1.937500e-02
1.417813e-09,1.931250e-02
1.421813e-09,1.940625e-02
1.425813e-09,1.965625e-02
1.429813e-09,1.925000e-02
1.433813e-09,1.907813e-02
1.437812e-09,1.885938e-02
1.441812e-09,1.857813e-02
1.445812e-09,1.825000e-02
1.449812e-09,1.814063e-02
1.453812e-09,1.740625e-02
1.457812e-09,1.679688e-02
1.461812e-09,1.635938e-02
1.465812e-09,1.606250e-02
1.469812e-09,1.514063e-02
1.473812e-09,1.448438e-02
1.477813e-09,1.379688e-02
1.481813e-09,1.310938e-02
1.485813e-09,1.240625e-02
1.489813e-09,1.200000e-02
1.493813e-09,1.100000e-02
1.497812e-09,1.023438e-02
1.501812e-09,9.687500e-03
1.505812e-09,9.375000e-03
1.509812e-09,8.500000e-03
1.513812e-09,7.984375e-03
1.517812e-09,7.531250e-03
1.521812e-09,7.140625e-03
1.525812e-09,6.812500e-03
1.529812e-09,6.859375e-03
1.533812e-09,6.375000e-03
1.537813e-09,6.187500e-03
1.541813e-09,6.281250e-03
1.545813e-09,6.640625e-03
1.549813e-09,6.500000e-03
1.553813e-09,6.718750e-03
1.557812e-09,7.015625e-03
1.561812e-09,7.390625e-03
1.565812e-09,7.828125e-03
1.569812e-09,8.609375e-03
1.573812e-09,8.843750e-03
1.577812e-09,9.328125e-03
1.581812e-09,1.004688e-02
1.585812e-09,1.098438e-02
1.589812e-09,1.132813e-02
1.593812e-09,1.200000e-02
1.597813e-09,1.265625e-02
1.601813e-09,1.329688e-02
1.605813e-09,1.392188e-02
1.609813e-09,1.481250e-02
1.613813e-09,1.507813e-02
1.617812e-09,1.548438e-02
1.621812e-09,1.604688e-02
1.625812e-09,1.675000e-02
1.629812e-09,1.679688e-02
1.633812e-09,1.709375e-02
1.637812e-09,1.731250e-02
1.641812e-09,1.745313e-02
1.645812e-09,1.753125e-02
1.649812e-09,1.784375e-02
1.653812e-09,1.750000e-02
1.657813e-09,1.728125e-02
1.661813e-09,1.718750e-02
1.665813e-09,1.725000e-02
1.669813e-09,1.665625e-02
1.673813e-09,1.631250e-02
1.677812e-09,1.592188e-02
1.681812e-09,1.548438e-02
1.685812e-09,1.503125e-02
1.689812e-09,1.482813e-02
1.693812e-09,1.401563e-02
1.697812e-09,1.339063e-02
1.701812e-09,1.295313e-02
1.705812e-09,1.270313e-02
1.709812e-09,1.185938e-02
1.713812e-09,1.132813e-02
1.717813e-09,1.081250e-02
1.721813e-09,1.029688e-02
1.725813e-09,9.812500e-03
1.729813e-09,9.640625e-03
1.733813e-09,8.906250e-03
1.737812e-09,8.390625e-03
1.741812e-09,8.109375e-03
1.745812e-09,8.062500e-03
1.749812e-09,7.437500e-03
1.753812e-09,7.156250e-03
