Measurements-streak-laser-independent/Photodiode-on-Tek-6GHz/Tek000_ch1_20190613132717504.csv

Model,MSO64
Waveform Type,ANALOG
Horizontal Units,s
Sample Interval,4.000000e-12
Record Length,1000
Zero Index,310.187500
Vertical Units,V

TIME,CH1
-1.240750e-09,9.062500e-03
-1.236750e-09,9.031250e-03
-1.232750e-09,8.359375e-03
-1.228750e-09,7.875000e-03
-1.224750e-09,7.562500e-03
-1.220750e-09,7.437500e-03
-1.216750e-09,6.687500e-03
-1.212750e-09,6.265625e-03
-1.208750e-09,5.843750e-03
-1.204750e-09,5.437500e-03
-1.200750e-09,5.062500e-03
-1.196750e-09,5.015625e-03
-1.192750e-09,4.406250e-03
-1.188750e-09,4.031250e-03
-1.184750e-09,3.921875e-03
-1.180750e-09,4.062500e-03
-1.176750e-09,3.656250e-03
-1.172750e-09,3.593750e-03
-1.168750e-09,3.593750e-03
-1.164750e-09,3.656250e-03
-1.160750e-09,3.765625e-03
-1.156750e-09,4.218750e-03
-1.152750e-09,4.109375e-03
-1.148750e-09,4.250000e-03
-1.144750e-09,4.625000e-03
-1.140750e-09,5.218750e-03
-1.136750e-09,5.218750e-03
-1.132750e-09,5.546875e-03
-1.128750e-09,5.875000e-03
-1.124750e-09,6.187500e-03
-1.120750e-09,6.484375e-03
-1.116750e-09,7.062500e-03
-1.112750e-09,7.015625e-03
-1.108750e-09,7.125000e-03
-1.104750e-09,7.390625e-03
-1.100750e-09,7.812500e-03
-1.096750e-09,7.562500e-03
-1.092750e-09,7.562500e-03
-1.088750e-09,7.500000e-03
-1.084750e-09,7.390625e-03
-1.080750e-09,7.203125e-03
-1.076750e-09,7.265625e-03
-1.072750e-09,6.656250e-03
-1.068750e-09,6.203125e-03
-1.064750e-09,5.890625e-03
-1.060750e-09,5.734375e-03
-1.056750e-09,4.937500e-03
-1.052750e-09,4.421875e-03
-1.048750e-09,3.875000e-03
-1.044750e-09,3.312500e-03
-1.040750e-09,2.734375e-03
-1.036750e-09,2.484375e-03
-1.032750e-09,1.625000e-03
-1.028750e-09,9.843750e-04
-1.024750e-09,5.937500e-04
-1.020750e-09,4.375000e-04
-1.016750e-09,-2.812500e-04
-1.012750e-09,-6.406250e-04
-1.008750e-09,-9.531250e-04
-1.004750e-09,-1.187500e-03
-1.000750e-09,-1.359375e-03
-9.967500e-10,-1.156250e-03
-9.927500e-10,-1.484375e-03
-9.887500e-10,-1.531250e-03
-9.847500e-10,-1.328125e-03
-9.807500e-10,-8.281250e-04
-9.767500e-10,-8.906250e-04
-9.727500e-10,-5.781250e-04
-9.687500e-10,-2.187500e-04
-9.647500e-10,1.875000e-04
-9.607500e-10,6.250000e-04
-9.567500e-10,1.406250e-03
-9.527500e-10,1.593750e-03
-9.487500e-10,2.000000e-03
-9.447500e-10,2.609375e-03
-9.407500e-10,3.421875e-03
-9.367500e-10,3.609375e-03
-9.327500e-10,4.078125e-03
-9.287500e-10,4.500000e-03
-9.247500e-10,4.890625e-03
-9.207500e-10,5.250000e-03
-9.167500e-10,5.843750e-03
-9.127500e-10,5.781250e-03
-9.087500e-10,5.843750e-03
-9.047500e-10,6.062500e-03
-9.007500e-10,6.406250e-03
-8.967500e-10,6.093750e-03
-8.927500e-10,6.015625e-03
-8.887500e-10,5.875000e-03
-8.847500e-10,5.671875e-03
-8.807500e-10,5.421875e-03
-8.767500e-10,5.421875e-03
-8.727500e-10,4.781250e-03
-8.687500e-10,4.296875e-03
-8.647500e-10,3.984375e-03
-8.607500e-10,3.859375e-03
-8.567500e-10,3.125000e-03
-8.527500e-10,2.671875e-03
-8.487500e-10,2.234375e-03
-8.447500e-10,1.812500e-03
-8.407500e-10,1.406250e-03
-8.367500e-10,1.328125e-03
-8.327500e-10,6.718750e-04
-8.287500e-10,2.656250e-04
-8.247500e-10,1.093750e-04
-8.207500e-10,1.875000e-04
-8.167500e-10,-2.812500e-04
-8.127500e-10,-3.906250e-04
-8.087500e-10,-4.375000e-04
-8.047500e-10,-4.375000e-04
-8.007500e-10,-3.906250e-04
-7.967500e-10,1.562500e-05
-7.927500e-10,-1.406250e-04
-7.887500e-10,-3.125000e-05
-7.847500e-10,3.125000e-04
-7.807500e-10,9.062500e-04
-7.767500e-10,9.062500e-04
-7.727500e-10,1.250000e-03
-7.687500e-10,1.625000e-03
-7.647500e-10,2.000000e-03
-7.607500e-10,2.375000e-03
-7.567500e-10,3.062500e-03
-7.527500e-10,3.140625e-03
-7.487500e-10,3.406250e-03
-7.447500e-10,3.859375e-03
-7.407500e-10,4.500000e-03
-7.367500e-10,4.484375e-03
-7.327500e-10,4.750000e-03
-7.287500e-10,5.000000e-03
-7.247500e-10,5.187500e-03
-7.207500e-10,5.343750e-03
-7.167500e-10,5.765625e-03
-7.127500e-10,5.531250e-03
-7.087500e-10,5.468750e-03
-7.047500e-10,5.562500e-03
-7.007500e-10,5.828125e-03
-6.967500e-10,5.437500e-03
-6.927500e-10,5.328125e-03
-6.887500e-10,5.187500e-03
-6.847500e-10,5.015625e-03
-6.807500e-10,4.812500e-03
-6.767500e-10,4.906250e-03
-6.727500e-10,4.390625e-03
-6.687500e-10,4.046875e-03
-6.647500e-10,3.921875e-03
-6.607500e-10,3.984375e-03
-6.567500e-10,3.453125e-03
-6.527500e-10,3.234375e-03
-6.487500e-10,3.031250e-03
-6.447500e-10,2.859375e-03
-6.407500e-10,2.687500e-03
-6.367500e-10,2.859375e-03
-6.327500e-10,2.453125e-03
-6.287500e-10,2.265625e-03
-6.247500e-10,2.312500e-03
-6.207500e-10,2.609375e-03
-6.167500e-10,2.328125e-03
-6.127500e-10,2.375000e-03
-6.087500e-10,2.453125e-03
-6.047500e-10,2.578125e-03
-6.007500e-10,2.718750e-03
-5.967500e-10,3.203125e-03
-5.927500e-10,3.109375e-03
-5.887500e-10,3.234375e-03
-5.847500e-10,3.578125e-03
-5.807500e-10,4.156250e-03
-5.767500e-10,4.125000e-03
-5.727500e-10,4.421875e-03
-5.687500e-10,4.718750e-03
-5.647500e-10,5.031250e-03
-5.607500e-10,5.343750e-03
-5.567500e-10,5.937500e-03
-5.527500e-10,5.937500e-03
-5.487500e-10,6.125000e-03
-5.447500e-10,6.500000e-03
-5.407500e-10,7.046875e-03
-5.367500e-10,6.984375e-03
-5.327500e-10,7.187500e-03
-5.287500e-10,7.375000e-03
-5.247500e-10,7.531250e-03
-5.207500e-10,7.671875e-03
-5.167500e-10,8.078125e-03
-5.127500e-10,7.843750e-03
-5.087500e-10,7.781250e-03
-5.047500e-10,7.906250e-03
-5.007500e-10,8.187500e-03
-4.967500e-10,7.828125e-03
-4.927500e-10,7.750000e-03
-4.887500e-10,7.640625e-03
-4.847500e-10,7.515625e-03
-4.807500e-10,7.359375e-03
-4.767500e-10,7.500000e-03
-4.727500e-10,7.000000e-03
-4.687500e-10,6.703125e-03
-4.647500e-10,6.609375e-03
-4.607500e-10,6.703125e-03
-4.567500e-10,6.187500e-03
-4.527500e-10,6.000000e-03
-4.487500e-10,5.781250e-03
-4.447500e-10,5.593750e-03
-4.407500e-10,5.406250e-03
-4.367500e-10,5.562500e-03
-4.327500e-10,5.125000e-03
-4.287500e-10,4.921875e-03
-4.247500e-10,4.953125e-03
-4.207500e-10,5.218750e-03
-4.167500e-10,4.937500e-03
-4.127500e-10,4.984375e-03
-4.087500e-10,5.031250e-03
-4.047500e-10,5.140625e-03
-4.007500e-10,5.265625e-03
-3.967500e-10,5.750000e-03
-3.927500e-10,5.640625e-03
-3.887500e-10,5.781250e-03
-3.847500e-10,6.171875e-03
-3.807500e-10,6.781250e-03
-3.767500e-10,6.828125e-03
-3.727500e-10,7.187500e-03
-3.687500e-10,7.500000e-03
-3.647500e-10,7.828125e-03
-3.607500e-10,8.171875e-03
-3.567500e-10,8.828125e-03
-3.527500e-10,8.828125e-03
-3.487500e-10,9.046875e-03
-3.447500e-10,9.453125e-03
-3.407500e-10,1.000000e-02
-3.367500e-10,9.968750e-03
-3.327500e-10,1.018750e-02
-3.287500e-10,1.028125e-02
-3.247500e-10,1.032813e-02
-3.207500e-10,1.035938e-02
-3.167500e-10,1.062500e-02
-3.127500e-10,1.021875e-02
-3.087500e-10,9.968750e-03
-3.047500e-10,9.906250e-03
-3.007500e-10,9.937500e-03
-2.967500e-10,9.390625e-03
-2.927500e-10,9.062500e-03
-2.887500e-10,8.625000e-03
-2.847500e-10,8.109375e-03
-2.807500e-10,7.640625e-03
-2.767500e-10,7.406250e-03
-2.727500e-10,6.562500e-03
-2.687500e-10,5.875000e-03
-2.647500e-10,5.453125e-03
-2.607500e-10,5.171875e-03
-2.567500e-10,4.375000e-03
-2.527500e-10,3.875000e-03
-2.487500e-10,3.312500e-03
-2.447500e-10,2.750000e-03
-2.407500e-10,2.343750e-03
-2.367500e-10,2.203125e-03
-2.327500e-10,1.578125e-03
-2.287500e-10,1.140625e-03
-2.247500e-10,1.046875e-03
-2.207500e-10,1.171875e-03
-2.167500e-10,8.125000e-04
-2.127500e-10,8.125000e-04
-2.087500e-10,7.968750e-04
-2.047500e-10,7.968750e-04
-2.007500e-10,1.000000e-03
-1.967500e-10,1.437500e-03
-1.927500e-10,1.453125e-03
-1.887500e-10,1.625000e-03
-1.847500e-10,2.109375e-03
-1.807500e-10,2.781250e-03
-1.767500e-10,2.921875e-03
-1.727500e-10,3.390625e-03
-1.687500e-10,3.781250e-03
-1.647500e-10,4.140625e-03
-1.607500e-10,4.640625e-03
-1.567500e-10,5.281250e-03
-1.527500e-10,5.468750e-03
-1.487500e-10,5.718750e-03
-1.447500e-10,6.187500e-03
-1.407500e-10,6.812500e-03
-1.367500e-10,6.796875e-03
-1.327500e-10,7.062500e-03
-1.287500e-10,7.218750e-03
-1.247500e-10,7.296875e-03
-1.207500e-10,7.484375e-03
-1.167500e-10,7.781250e-03
-1.127500e-10,7.656250e-03
-1.087500e-10,7.578125e-03
-1.047500e-10,7.703125e-03
-1.007500e-10,8.046875e-03
-9.675000e-11,7.796875e-03
-9.275000e-11,7.843750e-03
-8.875000e-11,7.890625e-03
-8.475000e-11,7.968750e-03
-8.075000e-11,8.203125e-03
-7.675000e-11,8.687500e-03
-7.275000e-11,8.875000e-03
-6.875000e-11,9.250000e-03
-6.475000e-11,9.906250e-03
-6.075000e-11,1.096875e-02
-5.675000e-11,1.157813e-02
-5.275000e-11,1.260938e-02
-4.875000e-11,1.381250e-02
-4.475000e-11,1.520313e-02
-4.075000e-11,1.685938e-02
-3.675000e-11,1.896875e-02
-3.275000e-11,2.090625e-02
-2.875000e-11,2.317188e-02
-2.475000e-11,2.581250e-02
-2.075000e-11,2.896875e-02
-1.675000e-11,3.184375e-02
-1.275000e-11,3.518750e-02
-8.750000e-12,3.881250e-02
-4.750000e-12,4.270313e-02
-7.500000e-13,4.689063e-02
3.250000e-12,5.162500e-02
7.250000e-12,5.621875e-02
1.125000e-11,6.117188e-02
1.525000e-11,6.650000e-02
1.925000e-11,7.232813e-02
2.325000e-11,7.793750e-02
2.725000e-11,8.395313e-02
3.125000e-11,9.020313e-02
3.525000e-11,9.671875e-02
3.925000e-11,1.034531e-01
4.325000e-11,1.106875e-01
4.725000e-11,1.177188e-01
5.125000e-11,1.250469e-01
5.525000e-11,1.326250e-01
5.925000e-11,1.405938e-01
6.325000e-11,1.482969e-01
6.725000e-11,1.562656e-01
7.125000e-11,1.643594e-01
7.525000e-11,1.725781e-01
7.925000e-11,1.808594e-01
8.325000e-11,1.895313e-01
8.725000e-11,1.978281e-01
9.125000e-11,2.062656e-01
9.525000e-11,2.147813e-01
9.925000e-11,2.234688e-01
1.032500e-10,2.317656e-01
1.072500e-10,2.400938e-01
1.112500e-10,2.483594e-01
1.152500e-10,2.565469e-01
1.192500e-10,2.645625e-01
1.232500e-10,2.727344e-01
1.272500e-10,2.803281e-01
1.312500e-10,2.878438e-01
1.352500e-10,2.951719e-01
1.392500e-10,3.024219e-01
1.432500e-10,3.090781e-01
1.472500e-10,3.155469e-01
1.512500e-10,3.217031e-01
1.552500e-10,3.275469e-01
1.592500e-10,3.330313e-01
1.632500e-10,3.383906e-01
1.672500e-10,3.430313e-01
1.712500e-10,3.473594e-01
1.752500e-10,3.513438e-01
1.792500e-10,3.550781e-01
1.832500e-10,3.580625e-01
1.872500e-10,3.607500e-01
1.912500e-10,3.630313e-01
1.952500e-10,3.648906e-01
1.992500e-10,3.663281e-01
2.032500e-10,3.675469e-01
2.072500e-10,3.680469e-01
2.112500e-10,3.682656e-01
2.152500e-10,3.681250e-01
2.192500e-10,3.677656e-01
2.232500e-10,3.667031e-01
2.272500e-10,3.654844e-01
2.312500e-10,3.639375e-01
2.352500e-10,3.620938e-01
2.392500e-10,3.599531e-01
2.432500e-10,3.577031e-01
2.472500e-10,3.549375e-01
2.512500e-10,3.520313e-01
2.552500e-10,3.489688e-01
2.592500e-10,3.458594e-01
2.632500e-10,3.422031e-01
2.672500e-10,3.386406e-01
2.712500e-10,3.348906e-01
2.752500e-10,3.310625e-01
2.792500e-10,3.271094e-01
2.832500e-10,3.231875e-01
2.872500e-10,3.189063e-01
2.912500e-10,3.146719e-01
2.952500e-10,3.103906e-01
2.992500e-10,3.062031e-01
3.032500e-10,3.015625e-01
3.072500e-10,2.971563e-01
3.112500e-10,2.926406e-01
3.152500e-10,2.881094e-01
3.192500e-10,2.835625e-01
3.232500e-10,2.790625e-01
3.272500e-10,2.741875e-01
3.312500e-10,2.694531e-01
3.352500e-10,2.647031e-01
3.392500e-10,2.600156e-01
3.432500e-10,2.549063e-01
3.472500e-10,2.500313e-01
3.512500e-10,2.450469e-01
3.552500e-10,2.400625e-01
3.592500e-10,2.350625e-01
3.632500e-10,2.301250e-01
3.672500e-10,2.247656e-01
3.712500e-10,2.195938e-01
3.752500e-10,2.144063e-01
3.792500e-10,2.093125e-01
3.832500e-10,2.038281e-01
3.872500e-10,1.986250e-01
3.912500e-10,1.933594e-01
3.952500e-10,1.881563e-01
3.992500e-10,1.829844e-01
4.032500e-10,1.780000e-01
4.072500e-10,1.726094e-01
4.112500e-10,1.675156e-01
4.152500e-10,1.625156e-01
4.192500e-10,1.577031e-01
4.232500e-10,1.525938e-01
4.272500e-10,1.478594e-01
4.312500e-10,1.432031e-01
4.352500e-10,1.387031e-01
4.392500e-10,1.343281e-01
4.432500e-10,1.302656e-01
4.472500e-10,1.258594e-01
4.512500e-10,1.218281e-01
4.552500e-10,1.180313e-01
4.592500e-10,1.144375e-01
4.632500e-10,1.106563e-01
4.672500e-10,1.072500e-01
4.712500e-10,1.040156e-01
4.752500e-10,1.009219e-01
4.792500e-10,9.796875e-02
4.832500e-10,9.537500e-02
4.872500e-10,9.239063e-02
4.912500e-10,8.976563e-02
4.952500e-10,8.737500e-02
4.992500e-10,8.514063e-02
5.032500e-10,8.267188e-02
5.072500e-10,8.046875e-02
5.112500e-10,7.845313e-02
5.152500e-10,7.646875e-02
5.192500e-10,7.454688e-02
5.232500e-10,7.292188e-02
5.272500e-10,7.082813e-02
5.312500e-10,6.898438e-02
5.352500e-10,6.734375e-02
5.392500e-10,6.579688e-02
5.432500e-10,6.393750e-02
5.472500e-10,6.225000e-02
5.512500e-10,6.071875e-02
5.552500e-10,5.917188e-02
5.592500e-10,5.760938e-02
5.632500e-10,5.631250e-02
5.672500e-10,5.451563e-02
5.712500e-10,5.293750e-02
5.752500e-10,5.157813e-02
5.792500e-10,5.029688e-02
5.832500e-10,4.867188e-02
5.872500e-10,4.725000e-02
5.912500e-10,4.598438e-02
5.952500e-10,4.471875e-02
5.992500e-10,4.342188e-02
6.032500e-10,4.243750e-02
6.072500e-10,4.096875e-02
6.112500e-10,3.971875e-02
6.152500e-10,3.875000e-02
6.192500e-10,3.790625e-02
6.232500e-10,3.667188e-02
6.272500e-10,3.568750e-02
6.312500e-10,3.485938e-02
6.352500e-10,3.404688e-02
6.392500e-10,3.318750e-02
6.432500e-10,3.264063e-02
6.472500e-10,3.160938e-02
6.512500e-10,3.076563e-02
6.552500e-10,3.020313e-02
6.592500e-10,2.976563e-02
6.632500e-10,2.887500e-02
6.672500e-10,2.820313e-02
6.712500e-10,2.764063e-02
6.752500e-10,2.706250e-02
6.792500e-10,2.640625e-02
6.832500e-10,2.600000e-02
6.872500e-10,2.507813e-02
6.912500e-10,2.429688e-02
6.952500e-10,2.375000e-02
6.992500e-10,2.331250e-02
7.032500e-10,2.235938e-02
7.072500e-10,2.160938e-02
7.112500e-10,2.093750e-02
7.152500e-10,2.021875e-02
7.192500e-10,1.940625e-02
7.232500e-10,1.887500e-02
7.272500e-10,1.778125e-02
7.312500e-10,1.685938e-02
7.352500e-10,1.617188e-02
7.392500e-10,1.565625e-02
7.432500e-10,1.459375e-02
7.472500e-10,1.381250e-02
7.512500e-10,1.312500e-02
7.552500e-10,1.246875e-02
7.592500e-10,1.175000e-02
7.632500e-10,1.137500e-02
7.672500e-10,1.048438e-02
7.712500e-10,9.843750e-03
7.752500e-10,9.484375e-03
7.792500e-10,9.359375e-03
7.832500e-10,8.750000e-03
7.872500e-10,8.484375e-03
7.912500e-10,8.328125e-03
7.952500e-10,8.250000e-03
7.992500e-10,8.171875e-03
8.032500e-10,8.468750e-03
8.072500e-10,8.265625e-03
8.112500e-10,8.328125e-03
8.152500e-10,8.671875e-03
8.192500e-10,9.265625e-03
8.232500e-10,9.328125e-03
8.272500e-10,9.734375e-03
8.312500e-10,1.021875e-02
8.352500e-10,1.073438e-02
8.392500e-10,1.121875e-02
8.432500e-10,1.201563e-02
8.472500e-10,1.225000e-02
8.512500e-10,1.268750e-02
8.552500e-10,1.334375e-02
8.592500e-10,1.415625e-02
8.632500e-10,1.437500e-02
8.672500e-10,1.485938e-02
8.712500e-10,1.532813e-02
8.752500e-10,1.576563e-02
8.792500e-10,1.612500e-02
8.832500e-10,1.671875e-02
8.872500e-10,1.668750e-02
8.912500e-10,1.679688e-02
8.952500e-10,1.706250e-02
8.992500e-10,1.746875e-02
9.032500e-10,1.723438e-02
9.072500e-10,1.723438e-02
9.112500e-10,1.718750e-02
9.152500e-10,1.710938e-02
9.192500e-10,1.695313e-02
9.232500e-10,1.704688e-02
9.272500e-10,1.651563e-02
9.312500e-10,1.614063e-02
9.352500e-10,1.595313e-02
9.392500e-10,1.592188e-02
9.432500e-10,1.529688e-02
9.472500e-10,1.493750e-02
9.512500e-10,1.456250e-02
9.552500e-10,1.420313e-02
9.592500e-10,1.381250e-02
9.632500e-10,1.371875e-02
9.672500e-10,1.303125e-02
9.712500e-10,1.256250e-02
9.752500e-10,1.229688e-02
9.792500e-10,1.223438e-02
9.832500e-10,1.157813e-02
9.872500e-10,1.123438e-02
9.912500e-10,1.092188e-02
9.952500e-10,1.060938e-02
9.992500e-10,1.028125e-02
1.003250e-09,1.026563e-02
1.007250e-09,9.671875e-03
1.011250e-09,9.281250e-03
1.015250e-09,9.093750e-03
1.019250e-09,9.125000e-03
1.023250e-09,8.546875e-03
1.027250e-09,8.281250e-03
1.031250e-09,8.015625e-03
1.035250e-09,7.750000e-03
1.039250e-09,7.484375e-03
1.043250e-09,7.515625e-03
1.047250e-09,6.968750e-03
1.051250e-09,6.625000e-03
1.055250e-09,6.484375e-03
1.059250e-09,6.562500e-03
1.063250e-09,6.062500e-03
1.067250e-09,5.875000e-03
1.071250e-09,5.703125e-03
1.075250e-09,5.578125e-03
1.079250e-09,5.468750e-03
1.083250e-09,5.687500e-03
1.087250e-09,5.343750e-03
1.091250e-09,5.234375e-03
1.095250e-09,5.390625e-03
1.099250e-09,5.781250e-03
1.103250e-09,5.625000e-03
1.107250e-09,5.812500e-03
1.111250e-09,6.062500e-03
1.115250e-09,6.359375e-03
1.119250e-09,6.703125e-03
1.123250e-09,7.375000e-03
1.127250e-09,7.515625e-03
1.131250e-09,7.890625e-03
1.135250e-09,8.500000e-03
1.139250e-09,9.343750e-03
1.143250e-09,9.625000e-03
1.147250e-09,1.020313e-02
1.151250e-09,1.079688e-02
1.155250e-09,1.139063e-02
1.159250e-09,1.198438e-02
1.163250e-09,1.285938e-02
1.167250e-09,1.309375e-02
1.171250e-09,1.350000e-02
1.175250e-09,1.406250e-02
1.179250e-09,1.476563e-02
1.183250e-09,1.481250e-02
1.187250e-09,1.507813e-02
1.191250e-09,1.528125e-02
1.195250e-09,1.539063e-02
1.199250e-09,1.542188e-02
1.203250e-09,1.567188e-02
1.207250e-09,1.521875e-02
1.211250e-09,1.487500e-02
1.215250e-09,1.465625e-02
1.219250e-09,1.453125e-02
1.223250e-09,1.375000e-02
1.227250e-09,1.317188e-02
1.231250e-09,1.253125e-02
1.235250e-09,1.184375e-02
1.239250e-09,1.109375e-02
1.243250e-09,1.062500e-02
1.247250e-09,9.515625e-03
1.251250e-09,8.593750e-03
1.255250e-09,7.875000e-03
1.259250e-09,7.359375e-03
1.263250e-09,6.281250e-03
1.267250e-09,5.531250e-03
1.271250e-09,4.843750e-03
1.275250e-09,4.218750e-03
1.279250e-09,3.656250e-03
1.283250e-09,3.484375e-03
1.287250e-09,2.812500e-03
1.291250e-09,2.437500e-03
1.295250e-09,2.359375e-03
1.299250e-09,2.593750e-03
1.303250e-09,2.343750e-03
1.307250e-09,2.500000e-03
1.311250e-09,2.781250e-03
1.315250e-09,3.156250e-03
1.319250e-09,3.625000e-03
1.323250e-09,4.500000e-03
1.327250e-09,4.859375e-03
1.331250e-09,5.484375e-03
1.335250e-09,6.390625e-03
1.339250e-09,7.531250e-03
1.343250e-09,8.125000e-03
1.347250e-09,9.031250e-03
1.351250e-09,9.953125e-03
1.355250e-09,1.085938e-02
1.359250e-09,1.175000e-02
1.363250e-09,1.292188e-02
1.367250e-09,1.343750e-02
1.371250e-09,1.409375e-02
1.375250e-09,1.487500e-02
1.379250e-09,1.578125e-02
1.383250e-09,1.600000e-02
1.387250e-09,1.640625e-02
1.391250e-09,1.673438e-02
1.395250e-09,1.693750e-02
1.399250e-09,1.704688e-02
1.403250e-09,1.734375e-02
1.407250e-09,1.693750e-02
1.411250e-09,1.662500e-02
1.415250e-09,1.642188e-02
1.419250e-09,1.634375e-02
1.423250e-09,1.557813e-02
1.427250e-09,1.503125e-02
1.431250e-09,1.445313e-02
1.435250e-09,1.381250e-02
1.439250e-09,1.314063e-02
1.443250e-09,1.276563e-02
1.447250e-09,1.176563e-02
1.451250e-09,1.098438e-02
1.455250e-09,1.042188e-02
1.459250e-09,1.010938e-02
1.463250e-09,9.218750e-03
1.467250e-09,8.703125e-03
1.471250e-09,8.250000e-03
1.475250e-09,7.859375e-03
1.479250e-09,7.562500e-03
1.483250e-09,7.640625e-03
1.487250e-09,7.203125e-03
1.491250e-09,7.062500e-03
1.495250e-09,7.218750e-03
1.499250e-09,7.656250e-03
1.503250e-09,7.578125e-03
1.507250e-09,7.890625e-03
1.511250e-09,8.250000e-03
1.515250e-09,8.703125e-03
1.519250e-09,9.187500e-03
1.523250e-09,1.004688e-02
1.527250e-09,1.031250e-02
1.531250e-09,1.082813e-02
1.535250e-09,1.154688e-02
1.539250e-09,1.246875e-02
1.543250e-09,1.276563e-02
1.547250e-09,1.335938e-02
1.551250e-09,1.392188e-02
1.555250e-09,1.443750e-02
1.559250e-09,1.490625e-02
1.563250e-09,1.560938e-02
1.567250e-09,1.565625e-02
1.571250e-09,1.582813e-02
1.575250e-09,1.612500e-02
1.579250e-09,1.654688e-02
1.583250e-09,1.629688e-02
1.587250e-09,1.625000e-02
1.591250e-09,1.615625e-02
1.595250e-09,1.596875e-02
1.599250e-09,1.571875e-02
1.603250e-09,1.570313e-02
1.607250e-09,1.503125e-02
1.611250e-09,1.450000e-02
1.615250e-09,1.412500e-02
1.619250e-09,1.392188e-02
1.623250e-09,1.309375e-02
1.627250e-09,1.254688e-02
1.631250e-09,1.198438e-02
1.635250e-09,1.140625e-02
1.639250e-09,1.085938e-02
1.643250e-09,1.060938e-02
1.647250e-09,9.781250e-03
1.651250e-09,9.171875e-03
1.655250e-09,8.796875e-03
1.659250e-09,8.656250e-03
1.663250e-09,7.953125e-03
1.667250e-09,7.578125e-03
1.671250e-09,7.265625e-03
1.675250e-09,6.968750e-03
1.679250e-09,6.734375e-03
1.683250e-09,6.828125e-03
1.687250e-09,6.343750e-03
1.691250e-09,6.109375e-03
1.695250e-09,6.093750e-03
1.699250e-09,6.312500e-03
1.703250e-09,5.937500e-03
1.707250e-09,5.890625e-03
1.711250e-09,5.843750e-03
1.715250e-09,5.812500e-03
1.719250e-09,5.781250e-03
1.723250e-09,6.062500e-03
1.727250e-09,5.718750e-03
1.731250e-09,5.578125e-03
1.735250e-09,5.625000e-03
1.739250e-09,5.843750e-03
1.743250e-09,5.468750e-03
1.747250e-09,5.375000e-03
1.751250e-09,5.250000e-03
1.755250e-09,5.140625e-03
