Measurements-streak-laser-independent/Photodiode-on-Tek-6GHz/Tek000_ch1_20190613132708780.csv

Model,MSO64
Waveform Type,ANALOG
Horizontal Units,s
Sample Interval,4.000000e-12
Record Length,1000
Zero Index,310.382812
Vertical Units,V

TIME,CH1
-1.241531e-09,5.062500e-03
-1.237531e-09,5.437500e-03
-1.233531e-09,5.187500e-03
-1.229531e-09,5.140625e-03
-1.225531e-09,5.296875e-03
-1.221531e-09,5.640625e-03
-1.217531e-09,5.359375e-03
-1.213531e-09,5.375000e-03
-1.209531e-09,5.375000e-03
-1.205531e-09,5.375000e-03
-1.201531e-09,5.343750e-03
-1.197531e-09,5.625000e-03
-1.193531e-09,5.281250e-03
-1.189531e-09,5.125000e-03
-1.185531e-09,5.156250e-03
-1.181531e-09,5.390625e-03
-1.177531e-09,5.015625e-03
-1.173531e-09,4.937500e-03
-1.169531e-09,4.875000e-03
-1.165531e-09,4.796875e-03
-1.161531e-09,4.734375e-03
-1.157531e-09,4.984375e-03
-1.153531e-09,4.640625e-03
-1.149531e-09,4.500000e-03
-1.145531e-09,4.593750e-03
-1.141531e-09,4.890625e-03
-1.137531e-09,4.609375e-03
-1.133531e-09,4.656250e-03
-1.129531e-09,4.718750e-03
-1.125531e-09,4.812500e-03
-1.121531e-09,4.921875e-03
-1.117531e-09,5.359375e-03
-1.113531e-09,5.203125e-03
-1.109531e-09,5.265625e-03
-1.105531e-09,5.562500e-03
-1.101531e-09,6.062500e-03
-1.097531e-09,5.968750e-03
-1.093531e-09,6.187500e-03
-1.089531e-09,6.406250e-03
-1.085531e-09,6.625000e-03
-1.081531e-09,6.828125e-03
-1.077531e-09,7.343750e-03
-1.073531e-09,7.234375e-03
-1.069531e-09,7.296875e-03
-1.065531e-09,7.562500e-03
-1.061531e-09,7.984375e-03
-1.057531e-09,7.781250e-03
-1.053531e-09,7.843750e-03
-1.049531e-09,7.875000e-03
-1.045531e-09,7.875000e-03
-1.041531e-09,7.843750e-03
-1.037531e-09,8.062500e-03
-1.033531e-09,7.640625e-03
-1.029531e-09,7.375000e-03
-1.025531e-09,7.281250e-03
-1.021531e-09,7.359375e-03
-1.017531e-09,6.796875e-03
-1.013531e-09,6.500000e-03
-1.009531e-09,6.171875e-03
-1.005531e-09,5.843750e-03
-1.001531e-09,5.484375e-03
-9.975312e-10,5.421875e-03
-9.935312e-10,4.734375e-03
-9.895312e-10,4.265625e-03
-9.855312e-10,3.984375e-03
-9.815313e-10,3.937500e-03
-9.775313e-10,3.281250e-03
-9.735313e-10,2.953125e-03
-9.695313e-10,2.656250e-03
-9.655313e-10,2.406250e-03
-9.615313e-10,2.171875e-03
-9.575312e-10,2.296875e-03
-9.535312e-10,1.843750e-03
-9.495312e-10,1.656250e-03
-9.455312e-10,1.703125e-03
-9.415312e-10,2.015625e-03
-9.375312e-10,1.765625e-03
-9.335312e-10,1.859375e-03
-9.295312e-10,2.000000e-03
-9.255312e-10,2.203125e-03
-9.215313e-10,2.437500e-03
-9.175313e-10,3.015625e-03
-9.135312e-10,3.031250e-03
-9.095312e-10,3.265625e-03
-9.055312e-10,3.734375e-03
-9.015312e-10,4.421875e-03
-8.975312e-10,4.515625e-03
-8.935313e-10,4.921875e-03
-8.895313e-10,5.343750e-03
-8.855313e-10,5.750000e-03
-8.815312e-10,6.140625e-03
-8.775312e-10,6.812500e-03
-8.735312e-10,6.875000e-03
-8.695312e-10,7.093750e-03
-8.655312e-10,7.500000e-03
-8.615313e-10,8.062500e-03
-8.575313e-10,7.984375e-03
-8.535312e-10,8.171875e-03
-8.495312e-10,8.312500e-03
-8.455312e-10,8.421875e-03
-8.415312e-10,8.484375e-03
-8.375312e-10,8.812500e-03
-8.335313e-10,8.500000e-03
-8.295313e-10,8.343750e-03
-8.255313e-10,8.359375e-03
-8.215312e-10,8.546875e-03
-8.175312e-10,8.109375e-03
-8.135312e-10,7.968750e-03
-8.095312e-10,7.812500e-03
-8.055312e-10,7.640625e-03
-8.015313e-10,7.468750e-03
-7.975313e-10,7.625000e-03
-7.935313e-10,7.171875e-03
-7.895312e-10,6.937500e-03
-7.855312e-10,6.937500e-03
-7.815312e-10,7.156250e-03
-7.775312e-10,6.812500e-03
-7.735313e-10,6.812500e-03
-7.695313e-10,6.843750e-03
-7.655313e-10,6.906250e-03
-7.615312e-10,7.015625e-03
-7.575312e-10,7.468750e-03
-7.535312e-10,7.359375e-03
-7.495312e-10,7.484375e-03
-7.455312e-10,7.859375e-03
-7.415313e-10,8.453125e-03
-7.375313e-10,8.468750e-03
-7.335313e-10,8.812500e-03
-7.295312e-10,9.171875e-03
-7.255312e-10,9.531250e-03
-7.215312e-10,9.890625e-03
-7.175312e-10,1.054688e-02
-7.135313e-10,1.059375e-02
-7.095313e-10,1.081250e-02
-7.055313e-10,1.120313e-02
-7.015312e-10,1.176563e-02
-6.975312e-10,1.167188e-02
-6.935312e-10,1.182813e-02
-6.895312e-10,1.193750e-02
-6.855312e-10,1.198438e-02
-6.815313e-10,1.196875e-02
-6.775313e-10,1.218750e-02
-6.735313e-10,1.173438e-02
-6.695312e-10,1.140625e-02
-6.655312e-10,1.123438e-02
-6.615312e-10,1.118750e-02
-6.575312e-10,1.048438e-02
-6.535313e-10,1.001563e-02
-6.495313e-10,9.500000e-03
-6.455313e-10,8.953125e-03
-6.415312e-10,8.359375e-03
-6.375312e-10,8.046875e-03
-6.335312e-10,7.109375e-03
-6.295312e-10,6.359375e-03
-6.255312e-10,5.828125e-03
-6.215313e-10,5.500000e-03
-6.175313e-10,4.578125e-03
-6.135313e-10,4.000000e-03
-6.095312e-10,3.468750e-03
-6.055312e-10,2.968750e-03
-6.015312e-10,2.531250e-03
-5.975312e-10,2.468750e-03
-5.935313e-10,1.859375e-03
-5.895313e-10,1.531250e-03
-5.855313e-10,1.468750e-03
-5.815312e-10,1.687500e-03
-5.775312e-10,1.390625e-03
-5.735312e-10,1.468750e-03
-5.695312e-10,1.609375e-03
-5.655312e-10,1.843750e-03
-5.615313e-10,2.125000e-03
-5.575313e-10,2.781250e-03
-5.535313e-10,2.875000e-03
-5.495312e-10,3.218750e-03
-5.455312e-10,3.796875e-03
-5.415312e-10,4.609375e-03
-5.375312e-10,4.828125e-03
-5.335313e-10,5.359375e-03
-5.295313e-10,5.875000e-03
-5.255313e-10,6.390625e-03
-5.215312e-10,6.875000e-03
-5.175312e-10,7.625000e-03
-5.135312e-10,7.718750e-03
-5.095312e-10,7.953125e-03
-5.055312e-10,8.359375e-03
-5.015313e-10,8.875000e-03
-4.975313e-10,8.734375e-03
-4.935313e-10,8.812500e-03
-4.895312e-10,8.812500e-03
-4.855312e-10,8.750000e-03
-4.815312e-10,8.593750e-03
-4.775312e-10,8.687500e-03
-4.735313e-10,8.109375e-03
-4.695313e-10,7.656250e-03
-4.655312e-10,7.375000e-03
-4.615312e-10,7.218750e-03
-4.575313e-10,6.437500e-03
-4.535312e-10,5.937500e-03
-4.495312e-10,5.390625e-03
-4.455312e-10,4.843750e-03
-4.415313e-10,4.296875e-03
-4.375312e-10,4.062500e-03
-4.335312e-10,3.250000e-03
-4.295312e-10,2.656250e-03
-4.255313e-10,2.312500e-03
-4.215312e-10,2.218750e-03
-4.175312e-10,1.593750e-03
-4.135313e-10,1.312500e-03
-4.095313e-10,1.078125e-03
-4.055312e-10,9.218750e-04
-4.015312e-10,8.281250e-04
-3.975313e-10,1.109375e-03
-3.935312e-10,8.437500e-04
-3.895312e-10,8.593750e-04
-3.855312e-10,1.140625e-03
-3.815313e-10,1.671875e-03
-3.775312e-10,1.671875e-03
-3.735312e-10,2.015625e-03
-3.695313e-10,2.343750e-03
-3.655313e-10,2.718750e-03
-3.615312e-10,3.109375e-03
-3.575312e-10,3.812500e-03
-3.535313e-10,3.890625e-03
-3.495313e-10,4.171875e-03
-3.455312e-10,4.656250e-03
-3.415312e-10,5.281250e-03
-3.375313e-10,5.312500e-03
-3.335312e-10,5.578125e-03
-3.295312e-10,5.750000e-03
-3.255312e-10,5.859375e-03
-3.215313e-10,5.937500e-03
-3.175312e-10,6.250000e-03
-3.135312e-10,5.890625e-03
-3.095313e-10,5.656250e-03
-3.055313e-10,5.625000e-03
-3.015312e-10,5.687500e-03
-2.975312e-10,5.140625e-03
-2.935313e-10,4.843750e-03
-2.895313e-10,4.437500e-03
-2.855312e-10,4.000000e-03
-2.815312e-10,3.578125e-03
-2.775313e-10,3.421875e-03
-2.735312e-10,2.671875e-03
-2.695312e-10,2.109375e-03
-2.655312e-10,1.796875e-03
-2.615313e-10,1.671875e-03
-2.575312e-10,1.031250e-03
-2.535312e-10,7.187500e-04
-2.495313e-10,3.750000e-04
-2.455313e-10,6.250000e-05
-2.415312e-10,-1.093750e-04
-2.375312e-10,1.562500e-05
-2.335313e-10,-3.437500e-04
-2.295312e-10,-4.843750e-04
-2.255313e-10,-3.125000e-04
-2.215312e-10,9.375000e-05
-2.175313e-10,-1.562500e-05
-2.135312e-10,2.343750e-04
-2.095312e-10,4.687500e-04
-2.055312e-10,7.187500e-04
-2.015312e-10,1.109375e-03
-1.975312e-10,1.734375e-03
-1.935312e-10,1.875000e-03
-1.895313e-10,2.156250e-03
-1.855312e-10,2.703125e-03
-1.815313e-10,3.406250e-03
-1.775312e-10,3.515625e-03
-1.735313e-10,3.921875e-03
-1.695312e-10,4.234375e-03
-1.655313e-10,4.484375e-03
-1.615312e-10,4.796875e-03
-1.575313e-10,5.250000e-03
-1.535312e-10,5.203125e-03
-1.495312e-10,5.203125e-03
-1.455312e-10,5.390625e-03
-1.415312e-10,5.718750e-03
-1.375313e-10,5.406250e-03
-1.335312e-10,5.359375e-03
-1.295313e-10,5.234375e-03
-1.255312e-10,5.046875e-03
-1.215313e-10,4.937500e-03
-1.175312e-10,5.015625e-03
-1.135312e-10,4.640625e-03
-1.095312e-10,4.375000e-03
-1.055312e-10,4.343750e-03
-1.015312e-10,4.578125e-03
-9.753125e-11,4.250000e-03
-9.353125e-11,4.281250e-03
-8.953125e-11,4.359375e-03
-8.553125e-11,4.515625e-03
-8.153125e-11,4.859375e-03
-7.753125e-11,5.531250e-03
-7.353125e-11,5.890625e-03
-6.953125e-11,6.500000e-03
-6.553125e-11,7.421875e-03
-6.153125e-11,8.765625e-03
-5.753125e-11,9.687500e-03
-5.353125e-11,1.104688e-02
-4.953125e-11,1.257813e-02
-4.553125e-11,1.429688e-02
-4.153125e-11,1.625000e-02
-3.753125e-11,1.864063e-02
-3.353125e-11,2.078125e-02
-2.953125e-11,2.323438e-02
-2.553125e-11,2.603125e-02
-2.153125e-11,2.925000e-02
-1.753125e-11,3.210938e-02
-1.353125e-11,3.539063e-02
-9.531250e-12,3.884375e-02
-5.531250e-12,4.248438e-02
-1.531250e-12,4.629688e-02
2.468750e-12,5.056250e-02
6.468750e-12,5.451563e-02
1.046875e-11,5.873438e-02
1.446875e-11,6.323438e-02
1.846875e-11,6.810938e-02
2.246875e-11,7.259375e-02
2.646875e-11,7.739063e-02
3.046875e-11,8.229688e-02
3.446875e-11,8.732813e-02
3.846875e-11,9.245313e-02
4.246875e-11,9.798438e-02
4.646875e-11,1.031250e-01
5.046875e-11,1.084688e-01
5.446875e-11,1.139844e-01
5.846875e-11,1.197969e-01
6.246875e-11,1.251875e-01
6.646875e-11,1.307969e-01
7.046875e-11,1.364531e-01
7.446875e-11,1.421563e-01
7.846875e-11,1.478594e-01
8.246875e-11,1.538750e-01
8.646875e-11,1.594375e-01
9.046875e-11,1.651094e-01
9.446875e-11,1.708750e-01
9.846875e-11,1.767969e-01
1.024687e-10,1.822344e-01
1.064687e-10,1.877969e-01
1.104687e-10,1.932656e-01
1.144687e-10,1.986875e-01
1.184687e-10,2.039844e-01
1.224688e-10,2.094375e-01
1.264687e-10,2.143438e-01
1.304688e-10,2.192188e-01
1.344687e-10,2.240313e-01
1.384688e-10,2.288438e-01
1.424687e-10,2.330625e-01
1.464688e-10,2.372500e-01
1.504687e-10,2.412031e-01
1.544687e-10,2.449531e-01
1.584687e-10,2.484375e-01
1.624687e-10,2.519062e-01
1.664687e-10,2.547188e-01
1.704687e-10,2.573750e-01
1.744688e-10,2.598281e-01
1.784687e-10,2.621563e-01
1.824688e-10,2.637813e-01
1.864687e-10,2.652969e-01
1.904688e-10,2.665000e-01
1.944687e-10,2.674219e-01
1.984688e-10,2.680156e-01
2.024687e-10,2.685469e-01
2.064688e-10,2.683906e-01
2.104687e-10,2.680625e-01
2.144687e-10,2.675312e-01
2.184687e-10,2.669063e-01
2.224687e-10,2.655781e-01
2.264687e-10,2.642344e-01
2.304687e-10,2.626406e-01
2.344687e-10,2.608125e-01
2.384688e-10,2.587813e-01
2.424688e-10,2.567500e-01
2.464687e-10,2.541406e-01
2.504687e-10,2.515156e-01
2.544688e-10,2.488281e-01
2.584688e-10,2.461563e-01
2.624687e-10,2.429219e-01
2.664687e-10,2.398438e-01
2.704688e-10,2.366563e-01
2.744687e-10,2.334063e-01
2.784687e-10,2.300938e-01
2.824687e-10,2.269063e-01
2.864688e-10,2.232969e-01
2.904687e-10,2.198281e-01
2.944687e-10,2.164063e-01
2.984688e-10,2.131250e-01
3.024688e-10,2.094063e-01
3.064687e-10,2.059688e-01
3.104687e-10,2.024844e-01
3.144688e-10,1.990625e-01
3.184688e-10,1.956406e-01
3.224687e-10,1.924063e-01
3.264687e-10,1.887813e-01
3.304688e-10,1.853438e-01
3.344687e-10,1.820000e-01
3.384687e-10,1.788281e-01
3.424687e-10,1.752031e-01
3.464688e-10,1.718906e-01
3.504687e-10,1.685156e-01
3.544687e-10,1.651875e-01
3.584687e-10,1.618906e-01
3.624688e-10,1.587344e-01
3.664687e-10,1.551250e-01
3.704687e-10,1.517344e-01
3.744688e-10,1.483906e-01
3.784688e-10,1.451875e-01
3.824687e-10,1.415156e-01
3.864687e-10,1.381250e-01
3.904688e-10,1.346875e-01
3.944687e-10,1.312813e-01
3.984687e-10,1.278750e-01
4.024687e-10,1.246406e-01
4.064688e-10,1.209375e-01
4.104687e-10,1.174531e-01
4.144687e-10,1.140625e-01
4.184687e-10,1.108281e-01
4.224688e-10,1.071719e-01
4.264687e-10,1.038125e-01
4.304687e-10,1.005000e-01
4.344688e-10,9.723438e-02
4.384688e-10,9.403125e-02
4.424687e-10,9.110938e-02
4.464687e-10,8.773438e-02
4.504688e-10,8.465625e-02
4.544687e-10,8.178125e-02
4.584687e-10,7.909375e-02
4.624687e-10,7.609375e-02
4.664687e-10,7.342188e-02
4.704687e-10,7.090625e-02
4.744688e-10,6.848438e-02
4.784688e-10,6.617188e-02
4.824688e-10,6.421875e-02
4.864687e-10,6.184375e-02
4.904687e-10,5.981250e-02
4.944687e-10,5.804688e-02
4.984687e-10,5.648438e-02
5.024688e-10,5.462500e-02
5.064688e-10,5.309375e-02
5.104688e-10,5.173438e-02
5.144687e-10,5.045313e-02
5.184687e-10,4.925000e-02
5.224687e-10,4.842188e-02
5.264687e-10,4.710938e-02
5.304687e-10,4.609375e-02
5.344688e-10,4.532813e-02
5.384688e-10,4.471875e-02
5.424688e-10,4.375000e-02
5.464687e-10,4.301563e-02
5.504687e-10,4.243750e-02
5.544687e-10,4.184375e-02
5.584687e-10,4.126563e-02
5.624688e-10,4.098438e-02
5.664688e-10,4.015625e-02
5.704688e-10,3.954688e-02
5.744687e-10,3.915625e-02
5.784687e-10,3.885938e-02
5.824687e-10,3.810938e-02
5.864687e-10,3.757813e-02
5.904687e-10,3.712500e-02
5.944688e-10,3.664063e-02
5.984688e-10,3.609375e-02
6.024688e-10,3.582813e-02
6.064687e-10,3.498438e-02
6.104687e-10,3.432813e-02
6.144687e-10,3.387500e-02
6.184687e-10,3.353125e-02
6.224688e-10,3.270313e-02
6.264688e-10,3.209375e-02
6.304688e-10,3.156250e-02
6.344687e-10,3.098438e-02
6.384687e-10,3.035938e-02
6.424687e-10,3.000000e-02
6.464687e-10,2.910938e-02
6.504687e-10,2.839063e-02
6.544688e-10,2.789063e-02
6.584688e-10,2.754688e-02
6.624688e-10,2.667188e-02
6.664687e-10,2.606250e-02
6.704687e-10,2.551563e-02
6.744687e-10,2.495313e-02
6.784687e-10,2.432813e-02
6.824688e-10,2.398438e-02
6.864688e-10,2.310938e-02
6.904688e-10,2.240625e-02
6.944687e-10,2.193750e-02
6.984687e-10,2.162500e-02
7.024687e-10,2.076563e-02
7.064687e-10,2.017188e-02
7.104687e-10,1.962500e-02
7.144688e-10,1.909375e-02
7.184688e-10,1.848438e-02
7.224688e-10,1.815625e-02
7.264687e-10,1.729688e-02
7.304687e-10,1.660938e-02
7.344687e-10,1.614063e-02
7.384687e-10,1.587500e-02
7.424687e-10,1.503125e-02
7.464688e-10,1.448438e-02
7.504688e-10,1.398438e-02
7.544687e-10,1.350000e-02
7.584687e-10,1.296875e-02
7.624687e-10,1.275000e-02
7.664687e-10,1.198438e-02
7.704687e-10,1.143750e-02
7.744688e-10,1.112500e-02
7.784688e-10,1.103125e-02
7.824688e-10,1.039063e-02
7.864687e-10,1.006250e-02
7.904687e-10,9.796875e-03
7.944687e-10,9.562500e-03
7.984687e-10,9.312500e-03
8.024687e-10,9.390625e-03
8.064688e-10,8.937500e-03
8.104688e-10,8.703125e-03
8.144687e-10,8.718750e-03
8.184687e-10,8.953125e-03
8.224687e-10,8.625000e-03
8.264687e-10,8.625000e-03
8.304687e-10,8.656250e-03
8.344688e-10,8.718750e-03
8.384688e-10,8.765625e-03
8.424688e-10,9.125000e-03
8.464687e-10,8.906250e-03
8.504687e-10,8.906250e-03
8.544687e-10,9.109375e-03
8.584687e-10,9.515625e-03
8.624687e-10,9.328125e-03
8.664688e-10,9.437500e-03
8.704688e-10,9.562500e-03
8.744687e-10,9.671875e-03
8.784687e-10,9.750000e-03
8.824687e-10,1.010938e-02
8.864687e-10,9.890625e-03
8.904687e-10,9.843750e-03
8.944688e-10,1.000000e-02
8.984688e-10,1.034375e-02
9.024688e-10,1.009375e-02
9.064687e-10,1.012500e-02
9.104687e-10,1.015625e-02
9.144687e-10,1.020313e-02
9.184687e-10,1.023438e-02
9.224687e-10,1.056250e-02
9.264688e-10,1.031250e-02
9.304688e-10,1.025000e-02
9.344687e-10,1.042188e-02
9.384687e-10,1.081250e-02
9.424687e-10,1.060938e-02
9.464687e-10,1.073438e-02
9.504687e-10,1.087500e-02
9.544687e-10,1.106250e-02
9.584687e-10,1.123438e-02
9.624687e-10,1.175000e-02
9.664687e-10,1.167188e-02
9.704688e-10,1.182813e-02
9.744688e-10,1.220313e-02
9.784688e-10,1.279688e-02
9.824688e-10,1.281250e-02
9.864688e-10,1.312500e-02
9.904688e-10,1.346875e-02
9.944687e-10,1.379688e-02
9.984687e-10,1.412500e-02
1.002469e-09,1.473438e-02
1.006469e-09,1.473438e-02
1.010469e-09,1.492188e-02
1.014469e-09,1.528125e-02
1.018469e-09,1.582813e-02
1.022469e-09,1.571875e-02
1.026469e-09,1.587500e-02
1.030469e-09,1.600000e-02
1.034469e-09,1.606250e-02
1.038469e-09,1.606250e-02
1.042469e-09,1.631250e-02
1.046469e-09,1.592188e-02
1.050469e-09,1.565625e-02
1.054469e-09,1.554688e-02
1.058469e-09,1.557813e-02
1.062469e-09,1.493750e-02
1.066469e-09,1.454688e-02
1.070469e-09,1.412500e-02
1.074469e-09,1.364063e-02
1.078469e-09,1.310938e-02
1.082469e-09,1.284375e-02
1.086469e-09,1.196875e-02
1.090469e-09,1.125000e-02
1.094469e-09,1.071875e-02
1.098469e-09,1.037500e-02
1.102469e-09,9.437500e-03
1.106469e-09,8.796875e-03
1.110469e-09,8.171875e-03
1.114469e-09,7.578125e-03
1.118469e-09,7.015625e-03
1.122469e-09,6.765625e-03
1.126469e-09,5.984375e-03
1.130469e-09,5.437500e-03
1.134469e-09,5.156250e-03
1.138469e-09,5.125000e-03
1.142469e-09,4.546875e-03
1.146469e-09,4.343750e-03
1.150469e-09,4.218750e-03
1.154469e-09,4.140625e-03
1.158469e-09,4.140625e-03
1.162469e-09,4.500000e-03
1.166469e-09,4.328125e-03
1.170469e-09,4.421875e-03
1.174469e-09,4.765625e-03
1.178469e-09,5.375000e-03
1.182469e-09,5.421875e-03
1.186469e-09,5.828125e-03
1.190469e-09,6.250000e-03
1.194469e-09,6.718750e-03
1.198469e-09,7.218750e-03
1.202469e-09,8.015625e-03
1.206469e-09,8.234375e-03
1.210469e-09,8.656250e-03
1.214469e-09,9.281250e-03
1.218469e-09,1.009375e-02
1.222469e-09,1.028125e-02
1.226469e-09,1.076563e-02
1.230469e-09,1.121875e-02
1.234469e-09,1.162500e-02
1.238469e-09,1.201563e-02
1.242469e-09,1.265625e-02
1.246469e-09,1.264063e-02
1.250469e-09,1.278125e-02
1.254469e-09,1.309375e-02
1.258469e-09,1.353125e-02
1.262469e-09,1.332813e-02
1.266469e-09,1.337500e-02
1.270469e-09,1.337500e-02
1.274469e-09,1.331250e-02
1.278469e-09,1.320313e-02
1.282469e-09,1.334375e-02
1.286469e-09,1.284375e-02
1.290469e-09,1.250000e-02
1.294469e-09,1.232813e-02
1.298469e-09,1.231250e-02
1.302469e-09,1.165625e-02
1.306469e-09,1.126563e-02
1.310469e-09,1.087500e-02
1.314469e-09,1.043750e-02
1.318469e-09,1.000000e-02
1.322469e-09,9.843750e-03
1.326469e-09,9.093750e-03
1.330469e-09,8.531250e-03
1.334469e-09,8.171875e-03
1.338469e-09,8.015625e-03
1.342469e-09,7.265625e-03
1.346469e-09,6.828125e-03
1.350469e-09,6.421875e-03
1.354469e-09,6.031250e-03
1.358469e-09,5.656250e-03
1.362469e-09,5.609375e-03
1.366469e-09,5.000000e-03
1.370469e-09,4.625000e-03
1.374469e-09,4.484375e-03
1.378469e-09,4.578125e-03
1.382469e-09,4.125000e-03
1.386469e-09,4.000000e-03
1.390469e-09,3.906250e-03
1.394469e-09,3.875000e-03
1.398469e-09,3.875000e-03
1.402469e-09,4.218750e-03
1.406469e-09,4.000000e-03
1.410469e-09,4.015625e-03
1.414469e-09,4.281250e-03
1.418469e-09,4.781250e-03
1.422469e-09,4.718750e-03
1.426469e-09,4.968750e-03
1.430469e-09,5.265625e-03
1.434469e-09,5.578125e-03
1.438469e-09,5.906250e-03
1.442469e-09,6.546875e-03
1.446469e-09,6.593750e-03
1.450469e-09,6.859375e-03
1.454469e-09,7.312500e-03
1.458469e-09,7.968750e-03
1.462469e-09,8.015625e-03
1.466469e-09,8.343750e-03
1.470469e-09,8.656250e-03
1.474469e-09,8.937500e-03
1.478469e-09,9.187500e-03
1.482469e-09,9.703125e-03
1.486469e-09,9.578125e-03
1.490469e-09,9.625000e-03
1.494469e-09,9.828125e-03
1.498469e-09,1.018750e-02
1.502469e-09,9.890625e-03
1.506469e-09,9.859375e-03
1.510469e-09,9.781250e-03
1.514469e-09,9.640625e-03
1.518469e-09,9.468750e-03
1.522469e-09,9.562500e-03
1.526469e-09,9.015625e-03
1.530469e-09,8.625000e-03
1.534469e-09,8.406250e-03
1.538469e-09,8.359375e-03
1.542469e-09,7.703125e-03
1.546469e-09,7.312500e-03
1.550469e-09,6.921875e-03
1.554469e-09,6.546875e-03
1.558469e-09,6.156250e-03
1.562469e-09,6.078125e-03
1.566469e-09,5.406250e-03
1.570469e-09,4.968750e-03
1.574469e-09,4.750000e-03
1.578469e-09,4.781250e-03
1.582469e-09,4.234375e-03
1.586469e-09,4.031250e-03
1.590469e-09,3.859375e-03
1.594469e-09,3.750000e-03
1.598469e-09,3.687500e-03
1.602469e-09,3.968750e-03
1.606469e-09,3.703125e-03
1.610469e-09,3.687500e-03
1.614469e-09,3.921875e-03
1.618469e-09,4.390625e-03
1.622469e-09,4.312500e-03
1.626469e-09,4.562500e-03
1.630469e-09,4.843750e-03
1.634469e-09,5.156250e-03
1.638469e-09,5.484375e-03
1.642469e-09,6.125000e-03
1.646469e-09,6.187500e-03
1.650469e-09,6.437500e-03
1.654469e-09,6.906250e-03
1.658469e-09,7.546875e-03
1.662469e-09,7.578125e-03
1.666469e-09,7.875000e-03
1.670469e-09,8.156250e-03
1.674469e-09,8.406250e-03
1.678469e-09,8.625000e-03
1.682469e-09,9.093750e-03
1.686469e-09,8.937500e-03
1.690469e-09,8.921875e-03
1.694469e-09,9.062500e-03
1.698469e-09,9.359375e-03
1.702469e-09,9.015625e-03
1.706469e-09,8.921875e-03
1.710469e-09,8.796875e-03
1.714469e-09,8.625000e-03
1.718469e-09,8.421875e-03
1.722469e-09,8.500000e-03
1.726469e-09,7.937500e-03
1.730469e-09,7.578125e-03
1.734469e-09,7.390625e-03
1.738469e-09,7.406250e-03
1.742469e-09,6.796875e-03
1.746469e-09,6.515625e-03
1.750469e-09,6.234375e-03
1.754469e-09,5.984375e-03
1.758469e-09,5.734375e-03
