Measurements-streak-laser-independent/Photodiode-on-Tek-6GHz/Tek000_ch1_20190613132703866.csv

Model,MSO64
Waveform Type,ANALOG
Horizontal Units,s
Sample Interval,4.000000e-12
Record Length,1000
Zero Index,310.812500
Vertical Units,V

TIME,CH1
-1.243250e-09,8.359375e-03
-1.239250e-09,8.812500e-03
-1.235250e-09,8.609375e-03
-1.231250e-09,8.546875e-03
-1.227250e-09,8.625000e-03
-1.223250e-09,8.812500e-03
-1.219250e-09,8.328125e-03
-1.215250e-09,8.078125e-03
-1.211250e-09,7.750000e-03
-1.207250e-09,7.343750e-03
-1.203250e-09,6.859375e-03
-1.199250e-09,6.625000e-03
-1.195250e-09,5.718750e-03
-1.191250e-09,4.953125e-03
-1.187250e-09,4.343750e-03
-1.183250e-09,3.906250e-03
-1.179250e-09,2.812500e-03
-1.175250e-09,2.031250e-03
-1.171250e-09,1.234375e-03
-1.167250e-09,4.218750e-04
-1.163250e-09,-3.593750e-04
-1.159250e-09,-8.125000e-04
-1.155250e-09,-1.828125e-03
-1.151250e-09,-2.593750e-03
-1.147250e-09,-3.109375e-03
-1.143250e-09,-3.343750e-03
-1.139250e-09,-4.109375e-03
-1.135250e-09,-4.484375e-03
-1.131250e-09,-4.765625e-03
-1.127250e-09,-4.953125e-03
-1.123250e-09,-5.046875e-03
-1.119250e-09,-4.734375e-03
-1.115250e-09,-4.921875e-03
-1.111250e-09,-4.796875e-03
-1.107250e-09,-4.375000e-03
-1.103250e-09,-3.640625e-03
-1.099250e-09,-3.421875e-03
-1.095250e-09,-2.812500e-03
-1.091250e-09,-2.140625e-03
-1.087250e-09,-1.375000e-03
-1.083250e-09,-5.625000e-04
-1.079250e-09,6.093750e-04
-1.075250e-09,1.218750e-03
-1.071250e-09,2.046875e-03
-1.067250e-09,3.109375e-03
-1.063250e-09,4.375000e-03
-1.059250e-09,5.015625e-03
-1.055250e-09,5.937500e-03
-1.051250e-09,6.843750e-03
-1.047250e-09,7.687500e-03
-1.043250e-09,8.500000e-03
-1.039250e-09,9.531250e-03
-1.035250e-09,9.890625e-03
-1.031250e-09,1.037500e-02
-1.027250e-09,1.096875e-02
-1.023250e-09,1.167188e-02
-1.019250e-09,1.167188e-02
-1.015250e-09,1.187500e-02
-1.011250e-09,1.198438e-02
-1.007250e-09,1.200000e-02
-1.003250e-09,1.190625e-02
-9.992500e-10,1.201563e-02
-9.952500e-10,1.142188e-02
-9.912500e-10,1.093750e-02
-9.872500e-10,1.059375e-02
-9.832500e-10,1.035938e-02
-9.792500e-10,9.453125e-03
-9.752500e-10,8.796875e-03
-9.712500e-10,8.093750e-03
-9.672500e-10,7.343750e-03
-9.632500e-10,6.562500e-03
-9.592500e-10,6.078125e-03
-9.552500e-10,4.968750e-03
-9.512500e-10,4.062500e-03
-9.472500e-10,3.359375e-03
-9.432500e-10,2.906250e-03
-9.392500e-10,1.859375e-03
-9.352500e-10,1.140625e-03
-9.312500e-10,4.843750e-04
-9.272500e-10,-1.093750e-04
-9.232500e-10,-6.562500e-04
-9.192500e-10,-8.281250e-04
-9.152500e-10,-1.546875e-03
-9.112500e-10,-2.000000e-03
-9.072500e-10,-2.156250e-03
-9.032500e-10,-2.046875e-03
-8.992500e-10,-2.468750e-03
-8.952500e-10,-2.515625e-03
-8.912500e-10,-2.500000e-03
-8.872500e-10,-2.390625e-03
-8.832500e-10,-2.234375e-03
-8.792500e-10,-1.718750e-03
-8.752500e-10,-1.750000e-03
-8.712500e-10,-1.531250e-03
-8.672500e-10,-1.046875e-03
-8.632500e-10,-3.437500e-04
-8.592500e-10,-2.187500e-04
-8.552500e-10,2.500000e-04
-8.512500e-10,7.343750e-04
-8.472500e-10,1.218750e-03
-8.432500e-10,1.703125e-03
-8.392500e-10,2.500000e-03
-8.352500e-10,2.671875e-03
-8.312500e-10,3.031250e-03
-8.272500e-10,3.578125e-03
-8.232500e-10,4.296875e-03
-8.192500e-10,4.390625e-03
-8.152500e-10,4.750000e-03
-8.112500e-10,5.062500e-03
-8.072500e-10,5.359375e-03
-8.032500e-10,5.609375e-03
-7.992500e-10,6.125000e-03
-7.952500e-10,5.984375e-03
-7.912500e-10,6.015625e-03
-7.872500e-10,6.203125e-03
-7.832500e-10,6.562500e-03
-7.792500e-10,6.281250e-03
-7.752500e-10,6.265625e-03
-7.712500e-10,6.218750e-03
-7.672500e-10,6.140625e-03
-7.632500e-10,6.031250e-03
-7.592500e-10,6.218750e-03
-7.552500e-10,5.750000e-03
-7.512500e-10,5.484375e-03
-7.472500e-10,5.406250e-03
-7.432500e-10,5.515625e-03
-7.392500e-10,5.015625e-03
-7.352500e-10,4.796875e-03
-7.312500e-10,4.578125e-03
-7.272500e-10,4.359375e-03
-7.232500e-10,4.140625e-03
-7.192500e-10,4.218750e-03
-7.152500e-10,3.703125e-03
-7.112500e-10,3.375000e-03
-7.072500e-10,3.265625e-03
-7.032500e-10,3.343750e-03
-6.992500e-10,2.843750e-03
-6.952500e-10,2.625000e-03
-6.912500e-10,2.421875e-03
-6.872500e-10,2.234375e-03
-6.832500e-10,2.031250e-03
-6.792500e-10,2.156250e-03
-6.752500e-10,1.671875e-03
-6.712500e-10,1.390625e-03
-6.672500e-10,1.312500e-03
-6.632500e-10,1.453125e-03
-6.592500e-10,9.843750e-04
-6.552500e-10,8.281250e-04
-6.512500e-10,6.875000e-04
-6.472500e-10,5.312500e-04
-6.432500e-10,3.906250e-04
-6.392500e-10,5.781250e-04
-6.352500e-10,1.406250e-04
-6.312500e-10,-6.250000e-05
-6.272500e-10,-6.250000e-05
-6.232500e-10,1.562500e-04
-6.192500e-10,-2.343750e-04
-6.152500e-10,-2.968750e-04
-6.112500e-10,-3.437500e-04
-6.072500e-10,-3.750000e-04
-6.032500e-10,-3.750000e-04
-5.992500e-10,-7.812500e-05
-5.952500e-10,-3.593750e-04
-5.912500e-10,-4.375000e-04
-5.872500e-10,-2.812500e-04
-5.832500e-10,9.375000e-05
-5.792500e-10,-1.250000e-04
-5.752500e-10,-1.562500e-05
-5.712500e-10,1.093750e-04
-5.672500e-10,2.343750e-04
-5.632500e-10,3.750000e-04
-5.592500e-10,8.281250e-04
-5.552500e-10,6.718750e-04
-5.512500e-10,7.187500e-04
-5.472500e-10,9.843750e-04
-5.432500e-10,1.453125e-03
-5.392500e-10,1.296875e-03
-5.352500e-10,1.453125e-03
-5.312500e-10,1.578125e-03
-5.272500e-10,1.703125e-03
-5.232500e-10,1.812500e-03
-5.192500e-10,2.203125e-03
-5.152500e-10,1.968750e-03
-5.112500e-10,1.906250e-03
-5.072500e-10,2.031250e-03
-5.032500e-10,2.343750e-03
-4.992500e-10,2.015625e-03
-4.952500e-10,1.968750e-03
-4.912500e-10,1.890625e-03
-4.872500e-10,1.796875e-03
-4.832500e-10,1.671875e-03
-4.792500e-10,1.843750e-03
-4.752500e-10,1.375000e-03
-4.712500e-10,1.109375e-03
-4.672500e-10,1.046875e-03
-4.632500e-10,1.156250e-03
-4.592500e-10,6.875000e-04
-4.552500e-10,5.000000e-04
-4.512500e-10,3.125000e-04
-4.472500e-10,1.562500e-04
-4.432500e-10,-1.562500e-05
-4.392500e-10,1.562500e-04
-4.352500e-10,-2.656250e-04
-4.312500e-10,-4.531250e-04
-4.272500e-10,-3.906250e-04
-4.232500e-10,-1.093750e-04
-4.192500e-10,-3.906250e-04
-4.152500e-10,-3.281250e-04
-4.112500e-10,-2.656250e-04
-4.072500e-10,-1.562500e-04
-4.032500e-10,-1.562500e-05
-3.992500e-10,4.843750e-04
-3.952500e-10,3.906250e-04
-3.912500e-10,5.312500e-04
-3.872500e-10,9.218750e-04
-3.832500e-10,1.531250e-03
-3.792500e-10,1.562500e-03
-3.752500e-10,1.906250e-03
-3.712500e-10,2.218750e-03
-3.672500e-10,2.531250e-03
-3.632500e-10,2.843750e-03
-3.592500e-10,3.453125e-03
-3.552500e-10,3.437500e-03
-3.512500e-10,3.593750e-03
-3.472500e-10,3.937500e-03
-3.432500e-10,4.453125e-03
-3.392500e-10,4.328125e-03
-3.352500e-10,4.453125e-03
-3.312500e-10,4.500000e-03
-3.272500e-10,4.468750e-03
-3.232500e-10,4.421875e-03
-3.192500e-10,4.625000e-03
-3.152500e-10,4.156250e-03
-3.112500e-10,3.828125e-03
-3.072500e-10,3.703125e-03
-3.032500e-10,3.687500e-03
-2.992500e-10,3.078125e-03
-2.952500e-10,2.718750e-03
-2.912500e-10,2.281250e-03
-2.872500e-10,1.796875e-03
-2.832500e-10,1.343750e-03
-2.792500e-10,1.171875e-03
-2.752500e-10,4.062500e-04
-2.712500e-10,-1.562500e-04
-2.672500e-10,-4.687500e-04
-2.632500e-10,-5.625000e-04
-2.592500e-10,-1.203125e-03
-2.552500e-10,-1.484375e-03
-2.512500e-10,-1.781250e-03
-2.472500e-10,-2.046875e-03
-2.432500e-10,-2.156250e-03
-2.392500e-10,-1.953125e-03
-2.352500e-10,-2.234375e-03
-2.312500e-10,-2.265625e-03
-2.272500e-10,-1.968750e-03
-2.232500e-10,-1.437500e-03
-2.192500e-10,-1.390625e-03
-2.152500e-10,-9.531250e-04
-2.112500e-10,-5.156250e-04
-2.072500e-10,-3.125000e-05
-2.032500e-10,5.937500e-04
-1.992500e-10,1.500000e-03
-1.952500e-10,1.937500e-03
-1.912500e-10,2.546875e-03
-1.872500e-10,3.421875e-03
-1.832500e-10,4.484375e-03
-1.792500e-10,4.968750e-03
-1.752500e-10,5.750000e-03
-1.712500e-10,6.468750e-03
-1.672500e-10,7.125000e-03
-1.632500e-10,7.843750e-03
-1.592500e-10,8.718750e-03
-1.552500e-10,9.046875e-03
-1.512500e-10,9.453125e-03
-1.472500e-10,1.000000e-02
-1.432500e-10,1.068750e-02
-1.392500e-10,1.068750e-02
-1.352500e-10,1.092188e-02
-1.312500e-10,1.106250e-02
-1.272500e-10,1.109375e-02
-1.232500e-10,1.114063e-02
-1.192500e-10,1.135938e-02
-1.152500e-10,1.104688e-02
-1.112500e-10,1.081250e-02
-1.072500e-10,1.075000e-02
-1.032500e-10,1.089063e-02
-9.925000e-11,1.042188e-02
-9.525000e-11,1.026563e-02
-9.125000e-11,1.010938e-02
-8.725000e-11,1.000000e-02
-8.325000e-11,1.000000e-02
-7.925000e-11,1.032813e-02
-7.525000e-11,1.028125e-02
-7.125000e-11,1.046875e-02
-6.725000e-11,1.095313e-02
-6.325000e-11,1.184375e-02
-5.925000e-11,1.229688e-02
-5.525000e-11,1.318750e-02
-5.125000e-11,1.426563e-02
-4.725000e-11,1.554688e-02
-4.325000e-11,1.706250e-02
-3.925000e-11,1.904688e-02
-3.525000e-11,2.079688e-02
-3.125000e-11,2.290625e-02
-2.725000e-11,2.539063e-02
-2.325000e-11,2.834375e-02
-1.925000e-11,3.096875e-02
-1.525000e-11,3.404688e-02
-1.125000e-11,3.734375e-02
-7.250000e-12,4.085938e-02
-3.250000e-12,4.459375e-02
7.500000e-13,4.881250e-02
4.750000e-12,5.275000e-02
8.750000e-12,5.696875e-02
1.275000e-11,6.150000e-02
1.675000e-11,6.640625e-02
2.075000e-11,7.092188e-02
2.475000e-11,7.575000e-02
2.875000e-11,8.070313e-02
3.275000e-11,8.576563e-02
3.675000e-11,9.087500e-02
4.075000e-11,9.637500e-02
4.475000e-11,1.014219e-01
4.875000e-11,1.066406e-01
5.275000e-11,1.120000e-01
5.675000e-11,1.175781e-01
6.075000e-11,1.226875e-01
6.475000e-11,1.279531e-01
6.875000e-11,1.332031e-01
7.275000e-11,1.384219e-01
7.675000e-11,1.435938e-01
8.075000e-11,1.490156e-01
8.475000e-11,1.538906e-01
8.875000e-11,1.588438e-01
9.275000e-11,1.638281e-01
9.675000e-11,1.689219e-01
1.007500e-10,1.734844e-01
1.047500e-10,1.781094e-01
1.087500e-10,1.826406e-01
1.127500e-10,1.870938e-01
1.167500e-10,1.913906e-01
1.207500e-10,1.958594e-01
1.247500e-10,1.997344e-01
1.287500e-10,2.036250e-01
1.327500e-10,2.074531e-01
1.367500e-10,2.113125e-01
1.407500e-10,2.145938e-01
1.447500e-10,2.178906e-01
1.487500e-10,2.210156e-01
1.527500e-10,2.239688e-01
1.567500e-10,2.267031e-01
1.607500e-10,2.295156e-01
1.647500e-10,2.317031e-01
1.687500e-10,2.337969e-01
1.727500e-10,2.357813e-01
1.767500e-10,2.377031e-01
1.807500e-10,2.389844e-01
1.847500e-10,2.402344e-01
1.887500e-10,2.412344e-01
1.927500e-10,2.420156e-01
1.967500e-10,2.425469e-01
2.007500e-10,2.430625e-01
2.047500e-10,2.429219e-01
2.087500e-10,2.426875e-01
2.127500e-10,2.423125e-01
2.167500e-10,2.418594e-01
2.207500e-10,2.407500e-01
2.247500e-10,2.396406e-01
2.287500e-10,2.382969e-01
2.327500e-10,2.367656e-01
2.367500e-10,2.350313e-01
2.407500e-10,2.332969e-01
2.447500e-10,2.309688e-01
2.487500e-10,2.286406e-01
2.527500e-10,2.262188e-01
2.567500e-10,2.238281e-01
2.607500e-10,2.208281e-01
2.647500e-10,2.179844e-01
2.687500e-10,2.150000e-01
2.727500e-10,2.119219e-01
2.767500e-10,2.087656e-01
2.807500e-10,2.056875e-01
2.847500e-10,2.021563e-01
2.887500e-10,1.987188e-01
2.927500e-10,1.953281e-01
2.967500e-10,1.920469e-01
3.007500e-10,1.882813e-01
3.047500e-10,1.847813e-01
3.087500e-10,1.812188e-01
3.127500e-10,1.776719e-01
3.167500e-10,1.741406e-01
3.207500e-10,1.707813e-01
3.247500e-10,1.669844e-01
3.287500e-10,1.633906e-01
3.327500e-10,1.598906e-01
3.367500e-10,1.565625e-01
3.407500e-10,1.527813e-01
3.447500e-10,1.493125e-01
3.487500e-10,1.458281e-01
3.527500e-10,1.424063e-01
3.567500e-10,1.390000e-01
3.607500e-10,1.357969e-01
3.647500e-10,1.321406e-01
3.687500e-10,1.287188e-01
3.727500e-10,1.254219e-01
3.767500e-10,1.222813e-01
3.807500e-10,1.187031e-01
3.847500e-10,1.154375e-01
3.887500e-10,1.121875e-01
3.927500e-10,1.089688e-01
3.967500e-10,1.058125e-01
4.007500e-10,1.028750e-01
4.047500e-10,9.946875e-02
4.087500e-10,9.634375e-02
4.127500e-10,9.334375e-02
4.167500e-10,9.053125e-02
4.207500e-10,8.729688e-02
4.247500e-10,8.439063e-02
4.287500e-10,8.154688e-02
4.327500e-10,7.876563e-02
4.367500e-10,7.606250e-02
4.407500e-10,7.364063e-02
4.447500e-10,7.075000e-02
4.487500e-10,6.817188e-02
4.527500e-10,6.578125e-02
4.567500e-10,6.359375e-02
4.607500e-10,6.104688e-02
4.647500e-10,5.882813e-02
4.687500e-10,5.671875e-02
4.727500e-10,5.470313e-02
4.767500e-10,5.276563e-02
4.807500e-10,5.117188e-02
4.847500e-10,4.910938e-02
4.887500e-10,4.735938e-02
4.927500e-10,4.585938e-02
4.967500e-10,4.456250e-02
5.007500e-10,4.292188e-02
5.047500e-10,4.157813e-02
5.087500e-10,4.039063e-02
5.127500e-10,3.926563e-02
5.167500e-10,3.821875e-02
5.207500e-10,3.751563e-02
5.247500e-10,3.632813e-02
5.287500e-10,3.542188e-02
5.327500e-10,3.478125e-02
5.367500e-10,3.431250e-02
5.407500e-10,3.345313e-02
5.447500e-10,3.287500e-02
5.487500e-10,3.242188e-02
5.527500e-10,3.200000e-02
5.567500e-10,3.159375e-02
5.607500e-10,3.150000e-02
5.647500e-10,3.087500e-02
5.687500e-10,3.048438e-02
5.727500e-10,3.032813e-02
5.767500e-10,3.028125e-02
5.807500e-10,2.979688e-02
5.847500e-10,2.951563e-02
5.887500e-10,2.932813e-02
5.927500e-10,2.910938e-02
5.967500e-10,2.882813e-02
6.007500e-10,2.881250e-02
6.047500e-10,2.820313e-02
6.087500e-10,2.775000e-02
6.127500e-10,2.750000e-02
6.167500e-10,2.732813e-02
6.207500e-10,2.660938e-02
6.247500e-10,2.607813e-02
6.287500e-10,2.557813e-02
6.327500e-10,2.500000e-02
6.367500e-10,2.431250e-02
6.407500e-10,2.385938e-02
6.447500e-10,2.279688e-02
6.487500e-10,2.184375e-02
6.527500e-10,2.107813e-02
6.567500e-10,2.042188e-02
6.607500e-10,1.917188e-02
6.647500e-10,1.812500e-02
6.687500e-10,1.710938e-02
6.727500e-10,1.603125e-02
6.767500e-10,1.487500e-02
6.807500e-10,1.400000e-02
6.847500e-10,1.253125e-02
6.887500e-10,1.125000e-02
6.927500e-10,1.018750e-02
6.967500e-10,9.312500e-03
7.007500e-10,7.890625e-03
7.047500e-10,6.765625e-03
7.087500e-10,5.718750e-03
7.127500e-10,4.718750e-03
7.167500e-10,3.718750e-03
7.207500e-10,3.046875e-03
7.247500e-10,1.890625e-03
7.287500e-10,1.000000e-03
7.327500e-10,4.062500e-04
7.367500e-10,7.812500e-05
7.407500e-10,-7.343750e-04
7.447500e-10,-1.187500e-03
7.487500e-10,-1.500000e-03
7.527500e-10,-1.734375e-03
7.567500e-10,-1.906250e-03
7.607500e-10,-1.703125e-03
7.647500e-10,-1.984375e-03
7.687500e-10,-1.984375e-03
7.727500e-10,-1.687500e-03
7.767500e-10,-1.109375e-03
7.807500e-10,-1.062500e-03
7.847500e-10,-6.562500e-04
7.887500e-10,-1.562500e-04
7.927500e-10,3.750000e-04
7.967500e-10,9.218750e-04
8.007500e-10,1.781250e-03
8.047500e-10,2.109375e-03
8.087500e-10,2.625000e-03
8.127500e-10,3.375000e-03
8.167500e-10,4.312500e-03
8.207500e-10,4.656250e-03
8.247500e-10,5.281250e-03
8.287500e-10,5.890625e-03
8.327500e-10,6.484375e-03
8.367500e-10,7.015625e-03
8.407500e-10,7.812500e-03
8.447500e-10,7.984375e-03
8.487500e-10,8.296875e-03
8.527500e-10,8.781250e-03
8.567500e-10,9.421875e-03
8.607500e-10,9.421875e-03
8.647500e-10,9.671875e-03
8.687500e-10,9.890625e-03
8.727500e-10,1.007813e-02
8.767500e-10,1.020313e-02
8.807500e-10,1.059375e-02
8.847500e-10,1.035938e-02
8.887500e-10,1.029688e-02
8.927500e-10,1.040625e-02
8.967500e-10,1.070313e-02
9.007500e-10,1.039063e-02
9.047500e-10,1.035938e-02
9.087500e-10,1.031250e-02
9.127500e-10,1.028125e-02
9.167500e-10,1.021875e-02
9.207500e-10,1.046875e-02
9.247500e-10,1.010938e-02
9.287500e-10,9.953125e-03
9.327500e-10,1.001563e-02
9.367500e-10,1.026563e-02
9.407500e-10,9.937500e-03
9.447500e-10,9.890625e-03
9.487500e-10,9.875000e-03
9.527500e-10,9.843750e-03
9.567500e-10,9.812500e-03
9.607500e-10,1.007813e-02
9.647500e-10,9.734375e-03
9.687500e-10,9.593750e-03
9.727500e-10,9.656250e-03
9.767500e-10,9.890625e-03
9.807500e-10,9.531250e-03
9.847500e-10,9.453125e-03
9.887500e-10,9.375000e-03
9.927500e-10,9.265625e-03
9.967500e-10,9.140625e-03
1.000750e-09,9.312500e-03
1.004750e-09,8.875000e-03
1.008750e-09,8.609375e-03
1.012750e-09,8.546875e-03
1.016750e-09,8.687500e-03
1.020750e-09,8.203125e-03
1.024750e-09,8.015625e-03
1.028750e-09,7.843750e-03
1.032750e-09,7.656250e-03
1.036750e-09,7.484375e-03
1.040750e-09,7.609375e-03
1.044750e-09,7.156250e-03
1.048750e-09,6.906250e-03
1.052750e-09,6.890625e-03
1.056750e-09,7.093750e-03
1.060750e-09,6.703125e-03
1.064750e-09,6.656250e-03
1.068750e-09,6.625000e-03
1.072750e-09,6.640625e-03
1.076750e-09,6.656250e-03
1.080750e-09,7.015625e-03
1.084750e-09,6.781250e-03
1.088750e-09,6.781250e-03
1.092750e-09,7.015625e-03
1.096750e-09,7.468750e-03
1.100750e-09,7.328125e-03
1.104750e-09,7.515625e-03
1.108750e-09,7.703125e-03
1.112750e-09,7.890625e-03
1.116750e-09,8.078125e-03
1.120750e-09,8.562500e-03
1.124750e-09,8.437500e-03
1.128750e-09,8.500000e-03
1.132750e-09,8.750000e-03
1.136750e-09,9.171875e-03
1.140750e-09,8.953125e-03
1.144750e-09,9.015625e-03
1.148750e-09,9.031250e-03
1.152750e-09,9.031250e-03
1.156750e-09,8.968750e-03
1.160750e-09,9.187500e-03
1.164750e-09,8.750000e-03
1.168750e-09,8.484375e-03
1.172750e-09,8.375000e-03
1.176750e-09,8.421875e-03
1.180750e-09,7.843750e-03
1.184750e-09,7.531250e-03
1.188750e-09,7.187500e-03
1.192750e-09,6.843750e-03
1.196750e-09,6.468750e-03
1.200750e-09,6.390625e-03
1.204750e-09,5.703125e-03
1.208750e-09,5.218750e-03
1.212750e-09,4.937500e-03
1.216750e-09,4.890625e-03
1.220750e-09,4.250000e-03
1.224750e-09,3.937500e-03
1.228750e-09,3.640625e-03
1.232750e-09,3.406250e-03
1.236750e-09,3.203125e-03
1.240750e-09,3.343750e-03
1.244750e-09,2.921875e-03
1.248750e-09,2.750000e-03
1.252750e-09,2.843750e-03
1.256750e-09,3.171875e-03
1.260750e-09,2.953125e-03
1.264750e-09,3.078125e-03
1.268750e-09,3.250000e-03
1.272750e-09,3.453125e-03
1.276750e-09,3.703125e-03
1.280750e-09,4.281250e-03
1.284750e-09,4.281250e-03
1.288750e-09,4.500000e-03
1.292750e-09,4.937500e-03
1.296750e-09,5.578125e-03
1.300750e-09,5.609375e-03
1.304750e-09,5.937500e-03
1.308750e-09,6.265625e-03
1.312750e-09,6.562500e-03
1.316750e-09,6.828125e-03
1.320750e-09,7.375000e-03
1.324750e-09,7.281250e-03
1.328750e-09,7.328125e-03
1.332750e-09,7.562500e-03
1.336750e-09,7.937500e-03
1.340750e-09,7.640625e-03
1.344750e-09,7.625000e-03
1.348750e-09,7.546875e-03
1.352750e-09,7.406250e-03
1.356750e-09,7.234375e-03
1.360750e-09,7.312500e-03
1.364750e-09,6.750000e-03
1.368750e-09,6.343750e-03
1.372750e-09,6.125000e-03
1.376750e-09,6.062500e-03
1.380750e-09,5.375000e-03
1.384750e-09,4.984375e-03
1.388750e-09,4.593750e-03
1.392750e-09,4.187500e-03
1.396750e-09,3.781250e-03
1.400750e-09,3.703125e-03
1.404750e-09,3.031250e-03
1.408750e-09,2.578125e-03
1.412750e-09,2.375000e-03
1.416750e-09,2.390625e-03
1.420750e-09,1.859375e-03
1.424750e-09,1.656250e-03
1.428750e-09,1.515625e-03
1.432750e-09,1.406250e-03
1.436750e-09,1.359375e-03
1.440750e-09,1.656250e-03
1.444750e-09,1.406250e-03
1.448750e-09,1.390625e-03
1.452750e-09,1.640625e-03
1.456750e-09,2.125000e-03
1.460750e-09,2.062500e-03
1.464750e-09,2.328125e-03
1.468750e-09,2.625000e-03
1.472750e-09,2.937500e-03
1.476750e-09,3.281250e-03
1.480750e-09,3.953125e-03
1.484750e-09,4.015625e-03
1.488750e-09,4.281250e-03
1.492750e-09,4.765625e-03
1.496750e-09,5.421875e-03
1.500750e-09,5.468750e-03
1.504750e-09,5.812500e-03
1.508750e-09,6.125000e-03
1.512750e-09,6.406250e-03
1.516750e-09,6.656250e-03
1.520750e-09,7.171875e-03
1.524750e-09,7.062500e-03
1.528750e-09,7.093750e-03
1.532750e-09,7.312500e-03
1.536750e-09,7.671875e-03
1.540750e-09,7.390625e-03
1.544750e-09,7.375000e-03
1.548750e-09,7.328125e-03
1.552750e-09,7.218750e-03
1.556750e-09,7.093750e-03
1.560750e-09,7.250000e-03
1.564750e-09,6.750000e-03
1.568750e-09,6.437500e-03
1.572750e-09,6.296875e-03
1.576750e-09,6.343750e-03
1.580750e-09,5.765625e-03
1.584750e-09,5.484375e-03
1.588750e-09,5.203125e-03
1.592750e-09,4.906250e-03
1.596750e-09,4.609375e-03
1.600750e-09,4.625000e-03
1.604750e-09,4.031250e-03
1.608750e-09,3.656250e-03
1.612750e-09,3.500000e-03
1.616750e-09,3.562500e-03
1.620750e-09,3.015625e-03
1.624750e-09,2.812500e-03
1.628750e-09,2.609375e-03
1.632750e-09,2.437500e-03
1.636750e-09,2.296875e-03
1.640750e-09,2.468750e-03
1.644750e-09,2.046875e-03
1.648750e-09,1.859375e-03
1.652750e-09,1.890625e-03
1.656750e-09,2.156250e-03
1.660750e-09,1.828125e-03
1.664750e-09,1.812500e-03
1.668750e-09,1.812500e-03
1.672750e-09,1.843750e-03
1.676750e-09,1.875000e-03
1.680750e-09,2.234375e-03
1.684750e-09,2.000000e-03
1.688750e-09,1.968750e-03
1.692750e-09,2.156250e-03
1.696750e-09,2.562500e-03
1.700750e-09,2.359375e-03
1.704750e-09,2.468750e-03
1.708750e-09,2.578125e-03
1.712750e-09,2.703125e-03
1.716750e-09,2.828125e-03
1.720750e-09,3.265625e-03
1.724750e-09,3.078125e-03
1.728750e-09,3.109375e-03
1.732750e-09,3.359375e-03
1.736750e-09,3.796875e-03
1.740750e-09,3.625000e-03
1.744750e-09,3.781250e-03
