Measurements-streak-laser-independent/Photodiode-on-Tek-6GHz/Tek000_ch1_20190613132704768.csv

Model,MSO64
Waveform Type,ANALOG
Horizontal Units,s
Sample Interval,4.000000e-12
Record Length,1000
Zero Index,310.890625
Vertical Units,V

TIME,CH1
-1.243562e-09,9.531250e-03
-1.239562e-09,9.453125e-03
-1.235562e-09,9.640625e-03
-1.231563e-09,9.843750e-03
-1.227563e-09,1.001563e-02
-1.223563e-09,1.017188e-02
-1.219563e-09,1.060938e-02
-1.215563e-09,1.042188e-02
-1.211563e-09,1.042188e-02
-1.207562e-09,1.059375e-02
-1.203562e-09,1.093750e-02
-1.199562e-09,1.065625e-02
-1.195562e-09,1.064063e-02
-1.191562e-09,1.060938e-02
-1.187562e-09,1.053125e-02
-1.183562e-09,1.043750e-02
-1.179562e-09,1.060938e-02
-1.175562e-09,1.015625e-02
-1.171563e-09,9.859375e-03
-1.167563e-09,9.750000e-03
-1.163563e-09,9.812500e-03
-1.159563e-09,9.234375e-03
-1.155563e-09,8.953125e-03
-1.151563e-09,8.640625e-03
-1.147562e-09,8.296875e-03
-1.143562e-09,7.953125e-03
-1.139562e-09,7.890625e-03
-1.135562e-09,7.203125e-03
-1.131562e-09,6.718750e-03
-1.127562e-09,6.437500e-03
-1.123562e-09,6.359375e-03
-1.119562e-09,5.656250e-03
-1.115562e-09,5.281250e-03
-1.111563e-09,4.921875e-03
-1.107563e-09,4.562500e-03
-1.103563e-09,4.218750e-03
-1.099563e-09,4.203125e-03
-1.095563e-09,3.609375e-03
-1.091563e-09,3.234375e-03
-1.087562e-09,3.109375e-03
-1.083562e-09,3.203125e-03
-1.079562e-09,2.734375e-03
-1.075562e-09,2.593750e-03
-1.071562e-09,2.500000e-03
-1.067562e-09,2.453125e-03
-1.063562e-09,2.437500e-03
-1.059562e-09,2.781250e-03
-1.055562e-09,2.546875e-03
-1.051563e-09,2.562500e-03
-1.047563e-09,2.812500e-03
-1.043563e-09,3.296875e-03
-1.039563e-09,3.218750e-03
-1.035563e-09,3.484375e-03
-1.031563e-09,3.781250e-03
-1.027562e-09,4.093750e-03
-1.023562e-09,4.437500e-03
-1.019562e-09,5.109375e-03
-1.015562e-09,5.171875e-03
-1.011562e-09,5.468750e-03
-1.007562e-09,5.968750e-03
-1.003562e-09,6.656250e-03
-9.995625e-10,6.750000e-03
-9.955625e-10,7.140625e-03
-9.915625e-10,7.500000e-03
-9.875625e-10,7.859375e-03
-9.835625e-10,8.187500e-03
-9.795625e-10,8.796875e-03
-9.755625e-10,8.765625e-03
-9.715625e-10,8.906250e-03
-9.675625e-10,9.187500e-03
-9.635625e-10,9.656250e-03
-9.595625e-10,9.468750e-03
-9.555625e-10,9.515625e-03
-9.515625e-10,9.546875e-03
-9.475625e-10,9.515625e-03
-9.435625e-10,9.437500e-03
-9.395625e-10,9.609375e-03
-9.355625e-10,9.140625e-03
-9.315625e-10,8.828125e-03
-9.275625e-10,8.671875e-03
-9.235625e-10,8.687500e-03
-9.195625e-10,8.062500e-03
-9.155625e-10,7.703125e-03
-9.115625e-10,7.312500e-03
-9.075625e-10,6.921875e-03
-9.035625e-10,6.500000e-03
-8.995625e-10,6.390625e-03
-8.955625e-10,5.671875e-03
-8.915625e-10,5.156250e-03
-8.875625e-10,4.843750e-03
-8.835625e-10,4.765625e-03
-8.795625e-10,4.109375e-03
-8.755625e-10,3.781250e-03
-8.715625e-10,3.484375e-03
-8.675625e-10,3.218750e-03
-8.635625e-10,3.015625e-03
-8.595625e-10,3.156250e-03
-8.555625e-10,2.734375e-03
-8.515625e-10,2.593750e-03
-8.475625e-10,2.687500e-03
-8.435625e-10,3.046875e-03
-8.395625e-10,2.875000e-03
-8.355625e-10,3.046875e-03
-8.315625e-10,3.281250e-03
-8.275625e-10,3.578125e-03
-8.235625e-10,3.921875e-03
-8.195625e-10,4.625000e-03
-8.155625e-10,4.750000e-03
-8.115625e-10,5.125000e-03
-8.075625e-10,5.734375e-03
-8.035625e-10,6.578125e-03
-7.995625e-10,6.843750e-03
-7.955625e-10,7.406250e-03
-7.915625e-10,8.000000e-03
-7.875625e-10,8.578125e-03
-7.835625e-10,9.156250e-03
-7.795625e-10,1.001563e-02
-7.755625e-10,1.026563e-02
-7.715625e-10,1.067188e-02
-7.675625e-10,1.126563e-02
-7.635625e-10,1.201563e-02
-7.595625e-10,1.210938e-02
-7.555625e-10,1.245313e-02
-7.515625e-10,1.276563e-02
-7.475625e-10,1.300000e-02
-7.435625e-10,1.318750e-02
-7.395625e-10,1.360938e-02
-7.355625e-10,1.337500e-02
-7.315625e-10,1.328125e-02
-7.275625e-10,1.331250e-02
-7.235625e-10,1.350000e-02
-7.195625e-10,1.301563e-02
-7.155625e-10,1.278125e-02
-7.115625e-10,1.251563e-02
-7.075625e-10,1.218750e-02
-7.035625e-10,1.181250e-02
-6.995625e-10,1.170313e-02
-6.955625e-10,1.096875e-02
-6.915625e-10,1.040625e-02
-6.875625e-10,1.001563e-02
-6.835625e-10,9.812500e-03
-6.795625e-10,9.000000e-03
-6.755625e-10,8.500000e-03
-6.715625e-10,7.984375e-03
-6.675625e-10,7.500000e-03
-6.635625e-10,7.015625e-03
-6.595625e-10,6.843750e-03
-6.555625e-10,6.109375e-03
-6.515625e-10,5.593750e-03
-6.475625e-10,5.296875e-03
-6.435625e-10,5.250000e-03
-6.395625e-10,4.625000e-03
-6.355625e-10,4.328125e-03
-6.315625e-10,4.078125e-03
-6.275625e-10,3.875000e-03
-6.235625e-10,3.687500e-03
-6.195625e-10,3.843750e-03
-6.155625e-10,3.421875e-03
-6.115625e-10,3.250000e-03
-6.075625e-10,3.296875e-03
-6.035625e-10,3.562500e-03
-5.995625e-10,3.265625e-03
-5.955625e-10,3.281250e-03
-5.915625e-10,3.312500e-03
-5.875625e-10,3.343750e-03
-5.835625e-10,3.406250e-03
-5.795625e-10,3.765625e-03
-5.755625e-10,3.515625e-03
-5.715625e-10,3.484375e-03
-5.675625e-10,3.656250e-03
-5.635625e-10,4.015625e-03
-5.595625e-10,3.750000e-03
-5.555625e-10,3.796875e-03
-5.515625e-10,3.828125e-03
-5.475625e-10,3.859375e-03
-5.435625e-10,3.875000e-03
-5.395625e-10,4.171875e-03
-5.355625e-10,3.859375e-03
-5.315625e-10,3.750000e-03
-5.275625e-10,3.828125e-03
-5.235625e-10,4.109375e-03
-5.195625e-10,3.781250e-03
-5.155625e-10,3.750000e-03
-5.115625e-10,3.734375e-03
-5.075625e-10,3.703125e-03
-5.035625e-10,3.687500e-03
-4.995625e-10,3.984375e-03
-4.955625e-10,3.671875e-03
-4.915625e-10,3.578125e-03
-4.875625e-10,3.718750e-03
-4.835625e-10,4.062500e-03
-4.795625e-10,3.843750e-03
-4.755625e-10,3.937500e-03
-4.715625e-10,4.031250e-03
-4.675625e-10,4.156250e-03
-4.635625e-10,4.312500e-03
-4.595625e-10,4.796875e-03
-4.555625e-10,4.687500e-03
-4.515625e-10,4.796875e-03
-4.475625e-10,5.140625e-03
-4.435625e-10,5.703125e-03
-4.395625e-10,5.687500e-03
-4.355625e-10,5.968750e-03
-4.315625e-10,6.250000e-03
-4.275625e-10,6.546875e-03
-4.235625e-10,6.843750e-03
-4.195625e-10,7.453125e-03
-4.155625e-10,7.437500e-03
-4.115625e-10,7.625000e-03
-4.075625e-10,8.015625e-03
-4.035625e-10,8.578125e-03
-3.995625e-10,8.531250e-03
-3.955625e-10,8.750000e-03
-3.915625e-10,8.906250e-03
-3.875625e-10,9.046875e-03
-3.835625e-10,9.156250e-03
-3.795625e-10,9.531250e-03
-3.755625e-10,9.250000e-03
-3.715625e-10,9.140625e-03
-3.675625e-10,9.187500e-03
-3.635625e-10,9.390625e-03
-3.595625e-10,8.953125e-03
-3.555625e-10,8.765625e-03
-3.515625e-10,8.500000e-03
-3.475625e-10,8.171875e-03
-3.435625e-10,7.828125e-03
-3.395625e-10,7.734375e-03
-3.355625e-10,7.000000e-03
-3.315625e-10,6.421875e-03
-3.275625e-10,6.031250e-03
-3.235625e-10,5.796875e-03
-3.195625e-10,4.953125e-03
-3.155625e-10,4.390625e-03
-3.115625e-10,3.765625e-03
-3.075625e-10,3.125000e-03
-3.035625e-10,2.500000e-03
-2.995625e-10,2.171875e-03
-2.955625e-10,1.250000e-03
-2.915625e-10,5.312500e-04
-2.875625e-10,6.250000e-05
-2.835625e-10,-2.187500e-04
-2.795625e-10,-1.031250e-03
-2.755625e-10,-1.515625e-03
-2.715625e-10,-2.015625e-03
-2.675625e-10,-2.484375e-03
-2.635625e-10,-2.843750e-03
-2.595625e-10,-2.890625e-03
-2.555625e-10,-3.453125e-03
-2.515625e-10,-3.796875e-03
-2.475625e-10,-3.828125e-03
-2.435625e-10,-3.625000e-03
-2.395625e-10,-3.921875e-03
-2.355625e-10,-3.859375e-03
-2.315625e-10,-3.781250e-03
-2.275625e-10,-3.656250e-03
-2.235625e-10,-3.406250e-03
-2.195625e-10,-2.859375e-03
-2.155625e-10,-2.781250e-03
-2.115625e-10,-2.500000e-03
-2.075625e-10,-1.921875e-03
-2.035625e-10,-1.125000e-03
-1.995625e-10,-8.593750e-04
-1.955625e-10,-2.500000e-04
-1.915625e-10,3.281250e-04
-1.875625e-10,9.375000e-04
-1.835625e-10,1.625000e-03
-1.795625e-10,2.562500e-03
-1.755625e-10,3.000000e-03
-1.715625e-10,3.562500e-03
-1.675625e-10,4.375000e-03
-1.635625e-10,5.343750e-03
-1.595625e-10,5.734375e-03
-1.555625e-10,6.390625e-03
-1.515625e-10,7.000000e-03
-1.475625e-10,7.562500e-03
-1.435625e-10,8.187500e-03
-1.395625e-10,9.000000e-03
-1.355625e-10,9.281250e-03
-1.315625e-10,9.656250e-03
-1.275625e-10,1.021875e-02
-1.235625e-10,1.096875e-02
-1.195625e-10,1.107813e-02
-1.155625e-10,1.146875e-02
-1.115625e-10,1.181250e-02
-1.075625e-10,1.214063e-02
-1.035625e-10,1.250000e-02
-9.956250e-11,1.310938e-02
-9.556250e-11,1.323438e-02
-9.156250e-11,1.351563e-02
-8.756250e-11,1.398438e-02
-8.356250e-11,1.473438e-02
-7.956250e-11,1.492188e-02
-7.556250e-11,1.543750e-02
-7.156250e-11,1.601563e-02
-6.756250e-11,1.665625e-02
-6.356250e-11,1.742188e-02
-5.956250e-11,1.854688e-02
-5.556250e-11,1.928125e-02
-5.156250e-11,2.026563e-02
-4.756250e-11,2.154688e-02
-4.356250e-11,2.318750e-02
-3.956250e-11,2.440625e-02
-3.556250e-11,2.601563e-02
-3.156250e-11,2.778125e-02
-2.756250e-11,2.971875e-02
-2.356250e-11,3.182813e-02
-1.956250e-11,3.437500e-02
-1.556250e-11,3.660938e-02
-1.156250e-11,3.915625e-02
-7.562500e-12,4.201563e-02
-3.562500e-12,4.526563e-02
4.375000e-13,4.814063e-02
4.437500e-12,5.140625e-02
8.437500e-12,5.481250e-02
1.243750e-11,5.837500e-02
1.643750e-11,6.207813e-02
2.043750e-11,6.620313e-02
2.443750e-11,6.993750e-02
2.843750e-11,7.392188e-02
3.243750e-11,7.814063e-02
3.643750e-11,8.265625e-02
4.043750e-11,8.673438e-02
4.443750e-11,9.106250e-02
4.843750e-11,9.543750e-02
5.243750e-11,9.985938e-02
5.643750e-11,1.042813e-01
6.043750e-11,1.090000e-01
6.443750e-11,1.131875e-01
6.843750e-11,1.175156e-01
7.243750e-11,1.219219e-01
7.643750e-11,1.264844e-01
8.043750e-11,1.304844e-01
8.443750e-11,1.345938e-01
8.843750e-11,1.386406e-01
9.243750e-11,1.425781e-01
9.643750e-11,1.464063e-01
1.004375e-10,1.504063e-01
1.044375e-10,1.537813e-01
1.084375e-10,1.571875e-01
1.124375e-10,1.605625e-01
1.164375e-10,1.639844e-01
1.204375e-10,1.667813e-01
1.244375e-10,1.696406e-01
1.284375e-10,1.723281e-01
1.324375e-10,1.748750e-01
1.364375e-10,1.772500e-01
1.404375e-10,1.797188e-01
1.444375e-10,1.815625e-01
1.484375e-10,1.833906e-01
1.524375e-10,1.851719e-01
1.564375e-10,1.869531e-01
1.604375e-10,1.881250e-01
1.644375e-10,1.893281e-01
1.684375e-10,1.903750e-01
1.724375e-10,1.912813e-01
1.764375e-10,1.920156e-01
1.804375e-10,1.928281e-01
1.844375e-10,1.930469e-01
1.884375e-10,1.932656e-01
1.924375e-10,1.934531e-01
1.964375e-10,1.936563e-01
2.004375e-10,1.932500e-01
2.044375e-10,1.929375e-01
2.084375e-10,1.924844e-01
2.124375e-10,1.919063e-01
2.164375e-10,1.911875e-01
2.204375e-10,1.905625e-01
2.244375e-10,1.893750e-01
2.284375e-10,1.882188e-01
2.324375e-10,1.870781e-01
2.364375e-10,1.859688e-01
2.404375e-10,1.842813e-01
2.444375e-10,1.827656e-01
2.484375e-10,1.811094e-01
2.524375e-10,1.793906e-01
2.564375e-10,1.775781e-01
2.604375e-10,1.758750e-01
2.644375e-10,1.736563e-01
2.684375e-10,1.715313e-01
2.724375e-10,1.694375e-01
2.764375e-10,1.674375e-01
2.804375e-10,1.649063e-01
2.844375e-10,1.625938e-01
2.884375e-10,1.601875e-01
2.924375e-10,1.577656e-01
2.964375e-10,1.552969e-01
3.004375e-10,1.529844e-01
3.044375e-10,1.501719e-01
3.084375e-10,1.475156e-01
3.124375e-10,1.449375e-01
3.164375e-10,1.425000e-01
3.204375e-10,1.395313e-01
3.244375e-10,1.368438e-01
3.284375e-10,1.340938e-01
3.324375e-10,1.313594e-01
3.364375e-10,1.286094e-01
3.404375e-10,1.260469e-01
3.444375e-10,1.229844e-01
3.484375e-10,1.201250e-01
3.524375e-10,1.173594e-01
3.564375e-10,1.147344e-01
3.604375e-10,1.116094e-01
3.644375e-10,1.087656e-01
3.684375e-10,1.059063e-01
3.724375e-10,1.030625e-01
3.764375e-10,1.002188e-01
3.804375e-10,9.759375e-02
3.844375e-10,9.445313e-02
3.884375e-10,9.153125e-02
3.924375e-10,8.875000e-02
3.964375e-10,8.612500e-02
4.004375e-10,8.303125e-02
4.044375e-10,8.023438e-02
4.084375e-10,7.745313e-02
4.124375e-10,7.471875e-02
4.164375e-10,7.203125e-02
4.204375e-10,6.960938e-02
4.244375e-10,6.670313e-02
4.284375e-10,6.407813e-02
4.324375e-10,6.164063e-02
4.364375e-10,5.940625e-02
4.404375e-10,5.676563e-02
4.444375e-10,5.446875e-02
4.484375e-10,5.228125e-02
4.524375e-10,5.018750e-02
4.564375e-10,4.817188e-02
4.604375e-10,4.653125e-02
4.644375e-10,4.443750e-02
4.684375e-10,4.267188e-02
4.724375e-10,4.117188e-02
4.764375e-10,3.992188e-02
4.804375e-10,3.831250e-02
4.844375e-10,3.707813e-02
4.884375e-10,3.600000e-02
4.924375e-10,3.501563e-02
4.964375e-10,3.415625e-02
5.004375e-10,3.367188e-02
5.044375e-10,3.271875e-02
5.084375e-10,3.209375e-02
5.124375e-10,3.175000e-02
5.164375e-10,3.160938e-02
5.204375e-10,3.107813e-02
5.244375e-10,3.085938e-02
5.284375e-10,3.076563e-02
5.324375e-10,3.070313e-02
5.364375e-10,3.067188e-02
5.404375e-10,3.095313e-02
5.444375e-10,3.068750e-02
5.484375e-10,3.065625e-02
5.524375e-10,3.081250e-02
5.564375e-10,3.109375e-02
5.604375e-10,3.089063e-02
5.644375e-10,3.089063e-02
5.684375e-10,3.092188e-02
5.724375e-10,3.090625e-02
5.764375e-10,3.081250e-02
5.804375e-10,3.095313e-02
5.844375e-10,3.046875e-02
5.884375e-10,3.012500e-02
5.924375e-10,2.993750e-02
5.964375e-10,2.984375e-02
6.004375e-10,2.915625e-02
6.044375e-10,2.867188e-02
6.084375e-10,2.818750e-02
6.124375e-10,2.762500e-02
6.164375e-10,2.698438e-02
6.204375e-10,2.657813e-02
6.244375e-10,2.557813e-02
6.284375e-10,2.471875e-02
6.324375e-10,2.406250e-02
6.364375e-10,2.354688e-02
6.404375e-10,2.248438e-02
6.444375e-10,2.165625e-02
6.484375e-10,2.090625e-02
6.524375e-10,2.014063e-02
6.564375e-10,1.934375e-02
6.604375e-10,1.887500e-02
6.644375e-10,1.787500e-02
6.684375e-10,1.707813e-02
6.724375e-10,1.656250e-02
6.764375e-10,1.625000e-02
6.804375e-10,1.543750e-02
6.844375e-10,1.493750e-02
6.884375e-10,1.453125e-02
6.924375e-10,1.418750e-02
6.964375e-10,1.384375e-02
7.004375e-10,1.384375e-02
7.044375e-10,1.332813e-02
7.084375e-10,1.304688e-02
7.124375e-10,1.304688e-02
7.164375e-10,1.325000e-02
7.204375e-10,1.293750e-02
7.244375e-10,1.293750e-02
7.284375e-10,1.298438e-02
7.324375e-10,1.306250e-02
7.364375e-10,1.310938e-02
7.404375e-10,1.346875e-02
7.444375e-10,1.326563e-02
7.484375e-10,1.325000e-02
7.524375e-10,1.346875e-02
7.564375e-10,1.384375e-02
7.604375e-10,1.364063e-02
7.644375e-10,1.370313e-02
7.684375e-10,1.378125e-02
7.724375e-10,1.382813e-02
7.764375e-10,1.382813e-02
7.804375e-10,1.410938e-02
7.844375e-10,1.378125e-02
7.884375e-10,1.360938e-02
7.924375e-10,1.364063e-02
7.964375e-10,1.385938e-02
8.004375e-10,1.345313e-02
8.044375e-10,1.332813e-02
8.084375e-10,1.318750e-02
8.124375e-10,1.306250e-02
8.164375e-10,1.289063e-02
8.204375e-10,1.300000e-02
8.244375e-10,1.254688e-02
8.284375e-10,1.226563e-02
8.324375e-10,1.220313e-02
8.364375e-10,1.235938e-02
8.404375e-10,1.192188e-02
8.444375e-10,1.178125e-02
8.484375e-10,1.168750e-02
8.524375e-10,1.159375e-02
8.564375e-10,1.150000e-02
8.604375e-10,1.173438e-02
8.644375e-10,1.137500e-02
8.684375e-10,1.125000e-02
8.724375e-10,1.134375e-02
8.764375e-10,1.165625e-02
8.804375e-10,1.137500e-02
8.844375e-10,1.140625e-02
8.884375e-10,1.145313e-02
8.924375e-10,1.151563e-02
8.964375e-10,1.157813e-02
9.004375e-10,1.192188e-02
9.044375e-10,1.167188e-02
9.084375e-10,1.162500e-02
9.124375e-10,1.176563e-02
9.164375e-10,1.210938e-02
9.204375e-10,1.182813e-02
9.244375e-10,1.182813e-02
9.284375e-10,1.181250e-02
9.324375e-10,1.176563e-02
9.364375e-10,1.170313e-02
9.404375e-10,1.190625e-02
9.444375e-10,1.148438e-02
9.484375e-10,1.125000e-02
9.524375e-10,1.117188e-02
9.564375e-10,1.128125e-02
9.604375e-10,1.076563e-02
9.644375e-10,1.053125e-02
9.684375e-10,1.026563e-02
9.724375e-10,1.000000e-02
9.764375e-10,9.703125e-03
9.804375e-10,9.703125e-03
9.844375e-10,9.109375e-03
9.884375e-10,8.687500e-03
9.924375e-10,8.484375e-03
9.964375e-10,8.500000e-03
1.000437e-09,7.906250e-03
1.004437e-09,7.640625e-03
1.008437e-09,7.406250e-03
1.012437e-09,7.187500e-03
1.016437e-09,6.984375e-03
1.020438e-09,7.125000e-03
1.024438e-09,6.703125e-03
1.028438e-09,6.515625e-03
1.032438e-09,6.562500e-03
1.036438e-09,6.859375e-03
1.040438e-09,6.593750e-03
1.044437e-09,6.671875e-03
1.048437e-09,6.781250e-03
1.052437e-09,6.953125e-03
1.056437e-09,7.140625e-03
1.060437e-09,7.671875e-03
1.064437e-09,7.640625e-03
1.068437e-09,7.843750e-03
1.072437e-09,8.265625e-03
1.076437e-09,8.906250e-03
1.080438e-09,8.968750e-03
1.084438e-09,9.343750e-03
1.088438e-09,9.734375e-03
1.092438e-09,1.010938e-02
1.096438e-09,1.050000e-02
1.100438e-09,1.117188e-02
1.104437e-09,1.121875e-02
1.108437e-09,1.146875e-02
1.112437e-09,1.189063e-02
1.116437e-09,1.246875e-02
1.120437e-09,1.243750e-02
1.124437e-09,1.265625e-02
1.128437e-09,1.284375e-02
1.132437e-09,1.300000e-02
1.136437e-09,1.310938e-02
1.140438e-09,1.348438e-02
1.144438e-09,1.320313e-02
1.148438e-09,1.309375e-02
1.152438e-09,1.314063e-02
1.156438e-09,1.334375e-02
1.160438e-09,1.292188e-02
1.164437e-09,1.275000e-02
1.168437e-09,1.256250e-02
1.172437e-09,1.234375e-02
1.176437e-09,1.209375e-02
1.180437e-09,1.212500e-02
1.184437e-09,1.153125e-02
1.188437e-09,1.114063e-02
1.192437e-09,1.093750e-02
1.196437e-09,1.093750e-02
1.200438e-09,1.032813e-02
1.204438e-09,1.003125e-02
1.208438e-09,9.750000e-03
1.212438e-09,9.468750e-03
1.216438e-09,9.203125e-03
1.220438e-09,9.265625e-03
1.224437e-09,8.734375e-03
1.228437e-09,8.437500e-03
1.232437e-09,8.359375e-03
1.236437e-09,8.500000e-03
1.240437e-09,8.078125e-03
1.244437e-09,7.968750e-03
1.248437e-09,7.906250e-03
1.252437e-09,7.843750e-03
1.256437e-09,7.812500e-03
1.260438e-09,8.109375e-03
1.264438e-09,7.812500e-03
1.268438e-09,7.734375e-03
1.272438e-09,7.875000e-03
1.276438e-09,8.234375e-03
1.280438e-09,8.000000e-03
1.284437e-09,8.062500e-03
1.288437e-09,8.140625e-03
1.292437e-09,8.218750e-03
1.296437e-09,8.281250e-03
1.300437e-09,8.656250e-03
1.304437e-09,8.421875e-03
1.308437e-09,8.375000e-03
1.312437e-09,8.531250e-03
1.316437e-09,8.875000e-03
1.320438e-09,8.609375e-03
1.324438e-09,8.640625e-03
1.328438e-09,8.640625e-03
1.332438e-09,8.656250e-03
1.336438e-09,8.640625e-03
1.340438e-09,8.921875e-03
1.344437e-09,8.593750e-03
1.348437e-09,8.468750e-03
1.352437e-09,8.531250e-03
1.356437e-09,8.796875e-03
1.360437e-09,8.437500e-03
1.364437e-09,8.406250e-03
1.368437e-09,8.359375e-03
1.372437e-09,8.312500e-03
1.376437e-09,8.265625e-03
1.380438e-09,8.531250e-03
1.384438e-09,8.203125e-03
1.388438e-09,8.078125e-03
1.392438e-09,8.156250e-03
1.396438e-09,8.453125e-03
1.400438e-09,8.156250e-03
1.404437e-09,8.156250e-03
1.408437e-09,8.187500e-03
1.412437e-09,8.203125e-03
1.416437e-09,8.234375e-03
1.420437e-09,8.578125e-03
1.424437e-09,8.312500e-03
1.428437e-09,8.265625e-03
1.432437e-09,8.421875e-03
1.436437e-09,8.781250e-03
1.440438e-09,8.531250e-03
1.444438e-09,8.578125e-03
1.448438e-09,8.640625e-03
1.452438e-09,8.687500e-03
1.456438e-09,8.734375e-03
1.460438e-09,9.062500e-03
1.464437e-09,8.796875e-03
1.468437e-09,8.718750e-03
1.472437e-09,8.828125e-03
1.476437e-09,9.125000e-03
1.480437e-09,8.812500e-03
1.484437e-09,8.796875e-03
1.488437e-09,8.781250e-03
1.492437e-09,8.734375e-03
1.496437e-09,8.687500e-03
1.500438e-09,8.937500e-03
1.504438e-09,8.562500e-03
1.508438e-09,8.390625e-03
1.512438e-09,8.406250e-03
1.516438e-09,8.625000e-03
1.520438e-09,8.234375e-03
1.524437e-09,8.140625e-03
1.528437e-09,8.031250e-03
1.532437e-09,7.937500e-03
1.536437e-09,7.843750e-03
1.540437e-09,8.046875e-03
1.544437e-09,7.656250e-03
1.548437e-09,7.453125e-03
1.552437e-09,7.468750e-03
1.556437e-09,7.671875e-03
1.560437e-09,7.281250e-03
1.564438e-09,7.203125e-03
1.568438e-09,7.125000e-03
1.572438e-09,7.031250e-03
1.576438e-09,6.953125e-03
1.580438e-09,7.171875e-03
1.584437e-09,6.781250e-03
1.588437e-09,6.609375e-03
1.592437e-09,6.609375e-03
1.596437e-09,6.828125e-03
1.600437e-09,6.421875e-03
1.604437e-09,6.312500e-03
1.608437e-09,6.203125e-03
1.612437e-09,6.078125e-03
1.616437e-09,5.937500e-03
1.620437e-09,6.093750e-03
1.624438e-09,5.640625e-03
1.628438e-09,5.375000e-03
1.632438e-09,5.296875e-03
1.636438e-09,5.421875e-03
1.640438e-09,4.937500e-03
1.644437e-09,4.750000e-03
1.648437e-09,4.562500e-03
1.652437e-09,4.359375e-03
1.656437e-09,4.171875e-03
1.660437e-09,4.281250e-03
1.664437e-09,3.796875e-03
1.668437e-09,3.531250e-03
1.672437e-09,3.484375e-03
1.676437e-09,3.640625e-03
1.680437e-09,3.234375e-03
1.684438e-09,3.140625e-03
1.688438e-09,3.078125e-03
1.692438e-09,3.031250e-03
1.696438e-09,3.031250e-03
1.700438e-09,3.359375e-03
1.704437e-09,3.125000e-03
1.708437e-09,3.140625e-03
1.712437e-09,3.375000e-03
1.716437e-09,3.859375e-03
1.720437e-09,3.781250e-03
1.724437e-09,4.046875e-03
1.728437e-09,4.328125e-03
1.732437e-09,4.656250e-03
1.736437e-09,5.031250e-03
1.740437e-09,5.718750e-03
1.744438e-09,5.828125e-03
1.748438e-09,6.171875e-03
1.752438e-09,6.718750e-03
