Measurements-streak-laser-independent/Photodiode-on-Tek-6GHz/Tek000_ch1_20190613132703364.csv

Model,MSO64
Waveform Type,ANALOG
Horizontal Units,s
Sample Interval,4.000000e-12
Record Length,1000
Zero Index,310.773438
Vertical Units,V

TIME,CH1
-1.243094e-09,7.750000e-03
-1.239094e-09,7.343750e-03
-1.235094e-09,7.203125e-03
-1.231094e-09,7.046875e-03
-1.227094e-09,6.843750e-03
-1.223094e-09,6.609375e-03
-1.219094e-09,6.656250e-03
-1.215094e-09,6.046875e-03
-1.211094e-09,5.625000e-03
-1.207094e-09,5.375000e-03
-1.203094e-09,5.312500e-03
-1.199094e-09,4.609375e-03
-1.195094e-09,4.187500e-03
-1.191094e-09,3.765625e-03
-1.187094e-09,3.312500e-03
-1.183094e-09,2.875000e-03
-1.179094e-09,2.734375e-03
-1.175094e-09,1.984375e-03
-1.171094e-09,1.437500e-03
-1.167094e-09,1.125000e-03
-1.163094e-09,1.015625e-03
-1.159094e-09,3.437500e-04
-1.155094e-09,-1.562500e-05
-1.151094e-09,-3.437500e-04
-1.147094e-09,-6.250000e-04
-1.143094e-09,-8.750000e-04
-1.139094e-09,-7.812500e-04
-1.135094e-09,-1.250000e-03
-1.131094e-09,-1.468750e-03
-1.127094e-09,-1.437500e-03
-1.123094e-09,-1.156250e-03
-1.119094e-09,-1.437500e-03
-1.115094e-09,-1.359375e-03
-1.111094e-09,-1.234375e-03
-1.107094e-09,-1.078125e-03
-1.103094e-09,-8.750000e-04
-1.099094e-09,-3.281250e-04
-1.095094e-09,-3.593750e-04
-1.091094e-09,-1.406250e-04
-1.087094e-09,2.968750e-04
-1.083094e-09,9.531250e-04
-1.079094e-09,1.031250e-03
-1.075094e-09,1.421875e-03
-1.071094e-09,1.828125e-03
-1.067094e-09,2.234375e-03
-1.063094e-09,2.656250e-03
-1.059094e-09,3.359375e-03
-1.055094e-09,3.453125e-03
-1.051094e-09,3.734375e-03
-1.047094e-09,4.203125e-03
-1.043094e-09,4.843750e-03
-1.039094e-09,4.875000e-03
-1.035094e-09,5.156250e-03
-1.031094e-09,5.437500e-03
-1.027094e-09,5.671875e-03
-1.023094e-09,5.875000e-03
-1.019094e-09,6.375000e-03
-1.015094e-09,6.203125e-03
-1.011094e-09,6.218750e-03
-1.007094e-09,6.406250e-03
-1.003094e-09,6.765625e-03
-9.990938e-10,6.484375e-03
-9.950938e-10,6.484375e-03
-9.910937e-10,6.468750e-03
-9.870937e-10,6.406250e-03
-9.830937e-10,6.328125e-03
-9.790937e-10,6.546875e-03
-9.750937e-10,6.140625e-03
-9.710937e-10,5.906250e-03
-9.670937e-10,5.875000e-03
-9.630937e-10,6.046875e-03
-9.590937e-10,5.593750e-03
-9.550938e-10,5.437500e-03
-9.510938e-10,5.281250e-03
-9.470938e-10,5.125000e-03
-9.430938e-10,4.968750e-03
-9.390938e-10,5.125000e-03
-9.350938e-10,4.687500e-03
-9.310937e-10,4.453125e-03
-9.270938e-10,4.421875e-03
-9.230938e-10,4.625000e-03
-9.190937e-10,4.218750e-03
-9.150937e-10,4.140625e-03
-9.110937e-10,4.062500e-03
-9.070937e-10,4.015625e-03
-9.030937e-10,3.984375e-03
-8.990938e-10,4.281250e-03
-8.950938e-10,3.984375e-03
-8.910938e-10,3.906250e-03
-8.870937e-10,4.046875e-03
-8.830937e-10,4.421875e-03
-8.790937e-10,4.203125e-03
-8.750937e-10,4.312500e-03
-8.710937e-10,4.453125e-03
-8.670938e-10,4.593750e-03
-8.630938e-10,4.765625e-03
-8.590937e-10,5.265625e-03
-8.550937e-10,5.171875e-03
-8.510937e-10,5.296875e-03
-8.470937e-10,5.640625e-03
-8.430937e-10,6.203125e-03
-8.390938e-10,6.156250e-03
-8.350938e-10,6.437500e-03
-8.310938e-10,6.718750e-03
-8.270937e-10,7.015625e-03
-8.230937e-10,7.312500e-03
-8.190937e-10,7.906250e-03
-8.150937e-10,7.890625e-03
-8.110937e-10,8.062500e-03
-8.070938e-10,8.421875e-03
-8.030938e-10,8.984375e-03
-7.990938e-10,8.906250e-03
-7.950937e-10,9.125000e-03
-7.910937e-10,9.312500e-03
-7.870937e-10,9.453125e-03
-7.830937e-10,9.578125e-03
-7.790938e-10,9.968750e-03
-7.750938e-10,9.718750e-03
-7.710938e-10,9.625000e-03
-7.670937e-10,9.703125e-03
-7.630937e-10,9.937500e-03
-7.590937e-10,9.515625e-03
-7.550937e-10,9.359375e-03
-7.510937e-10,9.171875e-03
-7.470938e-10,8.921875e-03
-7.430938e-10,8.640625e-03
-7.390938e-10,8.640625e-03
-7.350937e-10,7.984375e-03
-7.310937e-10,7.515625e-03
-7.270937e-10,7.203125e-03
-7.230937e-10,7.093750e-03
-7.190938e-10,6.343750e-03
-7.150938e-10,5.890625e-03
-7.110938e-10,5.437500e-03
-7.070937e-10,5.000000e-03
-7.030937e-10,4.546875e-03
-6.990937e-10,4.421875e-03
-6.950937e-10,3.718750e-03
-6.910937e-10,3.234375e-03
-6.870938e-10,2.984375e-03
-6.830938e-10,2.984375e-03
-6.790938e-10,2.406250e-03
-6.750937e-10,2.187500e-03
-6.710937e-10,2.015625e-03
-6.670937e-10,1.906250e-03
-6.630937e-10,1.859375e-03
-6.590938e-10,2.156250e-03
-6.550938e-10,1.921875e-03
-6.510938e-10,1.937500e-03
-6.470937e-10,2.218750e-03
-6.430937e-10,2.765625e-03
-6.390937e-10,2.750000e-03
-6.350937e-10,3.093750e-03
-6.310937e-10,3.468750e-03
-6.270938e-10,3.906250e-03
-6.230938e-10,4.359375e-03
-6.190938e-10,5.156250e-03
-6.150937e-10,5.343750e-03
-6.110937e-10,5.765625e-03
-6.070937e-10,6.390625e-03
-6.030937e-10,7.218750e-03
-5.990938e-10,7.421875e-03
-5.950938e-10,7.906250e-03
-5.910938e-10,8.375000e-03
-5.870937e-10,8.796875e-03
-5.830937e-10,9.171875e-03
-5.790937e-10,9.812500e-03
-5.750937e-10,9.781250e-03
-5.710937e-10,9.906250e-03
-5.670938e-10,1.015625e-02
-5.630938e-10,1.054688e-02
-5.590938e-10,1.026563e-02
-5.550937e-10,1.020313e-02
-5.510937e-10,1.009375e-02
-5.470937e-10,9.890625e-03
-5.430937e-10,9.625000e-03
-5.390938e-10,9.609375e-03
-5.350938e-10,8.906250e-03
-5.310938e-10,8.359375e-03
-5.270937e-10,7.968750e-03
-5.230937e-10,7.734375e-03
-5.190937e-10,6.859375e-03
-5.150937e-10,6.250000e-03
-5.110937e-10,5.625000e-03
-5.070938e-10,5.000000e-03
-5.030938e-10,4.359375e-03
-4.990938e-10,4.031250e-03
-4.950937e-10,3.125000e-03
-4.910937e-10,2.437500e-03
-4.870937e-10,1.984375e-03
-4.830937e-10,1.781250e-03
-4.790938e-10,1.031250e-03
-4.750938e-10,6.250000e-04
-4.710938e-10,2.656250e-04
-4.670937e-10,-1.562500e-05
-4.630938e-10,-2.187500e-04
-4.590937e-10,-6.250000e-05
-4.550937e-10,-4.375000e-04
-4.510937e-10,-5.312500e-04
-4.470938e-10,-3.437500e-04
-4.430937e-10,1.093750e-04
-4.390937e-10,3.125000e-05
-4.350938e-10,3.125000e-04
-4.310938e-10,6.406250e-04
-4.270937e-10,1.031250e-03
-4.230937e-10,1.468750e-03
-4.190938e-10,2.250000e-03
-4.150938e-10,2.453125e-03
-4.110937e-10,2.890625e-03
-4.070937e-10,3.546875e-03
-4.030938e-10,4.406250e-03
-3.990937e-10,4.671875e-03
-3.950937e-10,5.234375e-03
-3.910937e-10,5.750000e-03
-3.870938e-10,6.234375e-03
-3.830937e-10,6.703125e-03
-3.790937e-10,7.437500e-03
-3.750938e-10,7.500000e-03
-3.710938e-10,7.718750e-03
-3.670937e-10,8.109375e-03
-3.630937e-10,8.625000e-03
-3.590938e-10,8.500000e-03
-3.550938e-10,8.593750e-03
-3.510937e-10,8.609375e-03
-3.470937e-10,8.546875e-03
-3.430938e-10,8.453125e-03
-3.390937e-10,8.593750e-03
-3.350937e-10,8.062500e-03
-3.310937e-10,7.687500e-03
-3.270938e-10,7.484375e-03
-3.230937e-10,7.421875e-03
-3.190937e-10,6.734375e-03
-3.150938e-10,6.328125e-03
-3.110938e-10,5.859375e-03
-3.070937e-10,5.375000e-03
-3.030937e-10,4.906250e-03
-2.990938e-10,4.718750e-03
-2.950938e-10,3.953125e-03
-2.910937e-10,3.375000e-03
-2.870937e-10,3.062500e-03
-2.830938e-10,2.953125e-03
-2.790937e-10,2.281250e-03
-2.750937e-10,1.953125e-03
-2.710937e-10,1.640625e-03
-2.670938e-10,1.359375e-03
-2.630937e-10,1.171875e-03
-2.590937e-10,1.312500e-03
-2.550938e-10,9.218750e-04
-2.510938e-10,7.656250e-04
-2.470937e-10,8.906250e-04
-2.430937e-10,1.250000e-03
-2.390938e-10,1.078125e-03
-2.350938e-10,1.250000e-03
-2.310938e-10,1.437500e-03
-2.270937e-10,1.656250e-03
-2.230938e-10,1.953125e-03
-2.190937e-10,2.546875e-03
-2.150937e-10,2.609375e-03
-2.110937e-10,2.875000e-03
-2.070937e-10,3.359375e-03
-2.030937e-10,4.046875e-03
-1.990937e-10,4.156250e-03
-1.950938e-10,4.562500e-03
-1.910937e-10,4.921875e-03
-1.870938e-10,5.265625e-03
-1.830937e-10,5.656250e-03
-1.790938e-10,6.265625e-03
-1.750937e-10,6.312500e-03
-1.710938e-10,6.500000e-03
-1.670937e-10,6.859375e-03
-1.630938e-10,7.406250e-03
-1.590937e-10,7.312500e-03
-1.550937e-10,7.500000e-03
-1.510937e-10,7.640625e-03
-1.470937e-10,7.750000e-03
-1.430938e-10,7.875000e-03
-1.390937e-10,8.250000e-03
-1.350938e-10,8.078125e-03
-1.310937e-10,8.046875e-03
-1.270938e-10,8.234375e-03
-1.230937e-10,8.625000e-03
-1.190938e-10,8.453125e-03
-1.150937e-10,8.578125e-03
-1.110937e-10,8.734375e-03
-1.070937e-10,8.921875e-03
-1.030937e-10,9.187500e-03
-9.909375e-11,9.781250e-03
-9.509375e-11,9.921875e-03
-9.109375e-11,1.028125e-02
-8.709375e-11,1.090625e-02
-8.309375e-11,1.184375e-02
-7.909375e-11,1.228125e-02
-7.509375e-11,1.309375e-02
-7.109375e-11,1.401563e-02
-6.709375e-11,1.503125e-02
-6.309375e-11,1.618750e-02
-5.909375e-11,1.773438e-02
-5.509375e-11,1.885938e-02
-5.109375e-11,2.026563e-02
-4.709375e-11,2.193750e-02
-4.309375e-11,2.396875e-02
-3.909375e-11,2.551563e-02
-3.509375e-11,2.742188e-02
-3.109375e-11,2.943750e-02
-2.709375e-11,3.154688e-02
-2.309375e-11,3.373438e-02
-1.909375e-11,3.631250e-02
-1.509375e-11,3.842188e-02
-1.109375e-11,4.075000e-02
-7.093750e-12,4.331250e-02
-3.093750e-12,4.612500e-02
9.062500e-13,4.842188e-02
4.906250e-12,5.100000e-02
8.906250e-12,5.360938e-02
1.290625e-11,5.623438e-02
1.690625e-11,5.885938e-02
2.090625e-11,6.179688e-02
2.490625e-11,6.418750e-02
2.890625e-11,6.671875e-02
3.290625e-11,6.939063e-02
3.690625e-11,7.225000e-02
4.090625e-11,7.454688e-02
4.490625e-11,7.704688e-02
4.890625e-11,7.951563e-02
5.290625e-11,8.195313e-02
5.690625e-11,8.434375e-02
6.090625e-11,8.698438e-02
6.490625e-11,8.906250e-02
6.890625e-11,9.125000e-02
7.290625e-11,9.354688e-02
7.690625e-11,9.600000e-02
8.090625e-11,9.789063e-02
8.490625e-11,9.995313e-02
8.890625e-11,1.019844e-01
9.290625e-11,1.039688e-01
9.690625e-11,1.058906e-01
1.009062e-10,1.080469e-01
1.049062e-10,1.096563e-01
1.089062e-10,1.113594e-01
1.129062e-10,1.131563e-01
1.169063e-10,1.150938e-01
1.209062e-10,1.164531e-01
1.249063e-10,1.180000e-01
1.289062e-10,1.194844e-01
1.329063e-10,1.208906e-01
1.369062e-10,1.222344e-01
1.409063e-10,1.237656e-01
1.449062e-10,1.247188e-01
1.489062e-10,1.257500e-01
1.529062e-10,1.268438e-01
1.569062e-10,1.280313e-01
1.609062e-10,1.286094e-01
1.649062e-10,1.293281e-01
1.689063e-10,1.299531e-01
1.729062e-10,1.304844e-01
1.769063e-10,1.308906e-01
1.809062e-10,1.314531e-01
1.849063e-10,1.314063e-01
1.889062e-10,1.314219e-01
1.929063e-10,1.314531e-01
1.969062e-10,1.315625e-01
2.009063e-10,1.310469e-01
2.049062e-10,1.306875e-01
2.089062e-10,1.302188e-01
2.129062e-10,1.296406e-01
2.169062e-10,1.289688e-01
2.209062e-10,1.284375e-01
2.249062e-10,1.273281e-01
2.289063e-10,1.262969e-01
2.329063e-10,1.253281e-01
2.369063e-10,1.244531e-01
2.409062e-10,1.229844e-01
2.449062e-10,1.217188e-01
2.489063e-10,1.203906e-01
2.529063e-10,1.190000e-01
2.569062e-10,1.175625e-01
2.609062e-10,1.163125e-01
2.649063e-10,1.145000e-01
2.689062e-10,1.128438e-01
2.729062e-10,1.112813e-01
2.769062e-10,1.098438e-01
2.809063e-10,1.078594e-01
2.849062e-10,1.061406e-01
2.889062e-10,1.043594e-01
2.929063e-10,1.025625e-01
2.969063e-10,1.007500e-01
3.009062e-10,9.914063e-02
3.049062e-10,9.700000e-02
3.089063e-10,9.501563e-02
3.129063e-10,9.315625e-02
3.169062e-10,9.143750e-02
3.209062e-10,8.917188e-02
3.249063e-10,8.717188e-02
3.289062e-10,8.514063e-02
3.329062e-10,8.310938e-02
3.369062e-10,8.106250e-02
3.409063e-10,7.923438e-02
3.449062e-10,7.685938e-02
3.489062e-10,7.468750e-02
3.529062e-10,7.265625e-02
3.569063e-10,7.079688e-02
3.609062e-10,6.840625e-02
3.649062e-10,6.632813e-02
3.689063e-10,6.425000e-02
3.729063e-10,6.220313e-02
3.769062e-10,6.018750e-02
3.809062e-10,5.845313e-02
3.849063e-10,5.620313e-02
3.889062e-10,5.420313e-02
3.929062e-10,5.242188e-02
3.969062e-10,5.084375e-02
4.009063e-10,4.881250e-02
4.049062e-10,4.714063e-02
4.089062e-10,4.553125e-02
4.129062e-10,4.400000e-02
4.169063e-10,4.254688e-02
4.209062e-10,4.143750e-02
4.249062e-10,3.984375e-02
4.289063e-10,3.854688e-02
4.329063e-10,3.750000e-02
4.369062e-10,3.667188e-02
4.409062e-10,3.542188e-02
4.449063e-10,3.451563e-02
4.489062e-10,3.368750e-02
4.529062e-10,3.293750e-02
4.569062e-10,3.223438e-02
4.609063e-10,3.185938e-02
4.649062e-10,3.096875e-02
4.689063e-10,3.031250e-02
4.729063e-10,2.989063e-02
4.769063e-10,2.964063e-02
4.809062e-10,2.890625e-02
4.849062e-10,2.843750e-02
4.889062e-10,2.801563e-02
4.929062e-10,2.759375e-02
4.969063e-10,2.714063e-02
5.009063e-10,2.698438e-02
5.049063e-10,2.621875e-02
5.089062e-10,2.565625e-02
5.129062e-10,2.526563e-02
5.169062e-10,2.500000e-02
5.209062e-10,2.420313e-02
5.249062e-10,2.364063e-02
5.289063e-10,2.309375e-02
5.329063e-10,2.250000e-02
5.369063e-10,2.189063e-02
5.409062e-10,2.154688e-02
5.449062e-10,2.060938e-02
5.489062e-10,1.985938e-02
5.529062e-10,1.931250e-02
5.569063e-10,1.892188e-02
5.609063e-10,1.800000e-02
5.649063e-10,1.734375e-02
5.689062e-10,1.675000e-02
5.729062e-10,1.615625e-02
5.769062e-10,1.556250e-02
5.809062e-10,1.528125e-02
5.849062e-10,1.443750e-02
5.889063e-10,1.382813e-02
5.929063e-10,1.345313e-02
5.969063e-10,1.328125e-02
6.009062e-10,1.259375e-02
6.049062e-10,1.220313e-02
6.089062e-10,1.187500e-02
6.129062e-10,1.157813e-02
6.169063e-10,1.128125e-02
6.209063e-10,1.131250e-02
6.249063e-10,1.078125e-02
6.289062e-10,1.045313e-02
6.329062e-10,1.037500e-02
6.369062e-10,1.046875e-02
6.409062e-10,1.001563e-02
6.449062e-10,9.843750e-03
6.489063e-10,9.703125e-03
6.529063e-10,9.562500e-03
6.569063e-10,9.375000e-03
6.609062e-10,9.484375e-03
6.649062e-10,9.000000e-03
6.689062e-10,8.703125e-03
6.729062e-10,8.593750e-03
6.769063e-10,8.671875e-03
6.809063e-10,8.140625e-03
6.849063e-10,7.890625e-03
6.889062e-10,7.656250e-03
6.929062e-10,7.406250e-03
6.969062e-10,7.109375e-03
7.009062e-10,7.093750e-03
7.049062e-10,6.500000e-03
7.089063e-10,6.109375e-03
7.129063e-10,5.921875e-03
7.169063e-10,5.937500e-03
7.209062e-10,5.359375e-03
7.249062e-10,5.093750e-03
7.289062e-10,4.859375e-03
7.329062e-10,4.640625e-03
7.369062e-10,4.406250e-03
7.409063e-10,4.500000e-03
7.449063e-10,4.031250e-03
7.489062e-10,3.781250e-03
7.529062e-10,3.781250e-03
7.569062e-10,3.984375e-03
7.609062e-10,3.609375e-03
7.649062e-10,3.562500e-03
7.689063e-10,3.562500e-03
7.729063e-10,3.562500e-03
7.769063e-10,3.562500e-03
7.809062e-10,3.875000e-03
7.849062e-10,3.609375e-03
7.889062e-10,3.546875e-03
7.929062e-10,3.703125e-03
7.969062e-10,4.062500e-03
8.009063e-10,3.812500e-03
8.049063e-10,3.875000e-03
8.089062e-10,3.921875e-03
8.129062e-10,3.984375e-03
8.169062e-10,4.015625e-03
8.209062e-10,4.328125e-03
8.249062e-10,4.046875e-03
8.289063e-10,3.953125e-03
8.329063e-10,4.062500e-03
8.369063e-10,4.375000e-03
8.409062e-10,4.078125e-03
8.449062e-10,4.078125e-03
8.489062e-10,4.078125e-03
8.529062e-10,4.109375e-03
8.569062e-10,4.125000e-03
8.609063e-10,4.468750e-03
8.649063e-10,4.218750e-03
8.689062e-10,4.187500e-03
8.729062e-10,4.390625e-03
8.769062e-10,4.828125e-03
8.809062e-10,4.703125e-03
8.849062e-10,4.890625e-03
8.889063e-10,5.125000e-03
8.929063e-10,5.406250e-03
8.969063e-10,5.703125e-03
9.009062e-10,6.328125e-03
9.049062e-10,6.406250e-03
9.089062e-10,6.687500e-03
9.129062e-10,7.218750e-03
9.169062e-10,7.953125e-03
9.209063e-10,8.109375e-03
9.249063e-10,8.578125e-03
9.289062e-10,9.046875e-03
9.329063e-10,9.500000e-03
9.369063e-10,9.937500e-03
9.409063e-10,1.067188e-02
9.449063e-10,1.075000e-02
9.489063e-10,1.100000e-02
9.529063e-10,1.142188e-02
9.569063e-10,1.196875e-02
9.609062e-10,1.185938e-02
9.649062e-10,1.200000e-02
9.689062e-10,1.206250e-02
9.729062e-10,1.204688e-02
9.769062e-10,1.195313e-02
9.809062e-10,1.207813e-02
9.849062e-10,1.153125e-02
9.889062e-10,1.109375e-02
9.929062e-10,1.079688e-02
9.969063e-10,1.064063e-02
1.000906e-09,9.796875e-03
1.004906e-09,9.203125e-03
1.008906e-09,8.562500e-03
1.012906e-09,7.906250e-03
1.016906e-09,7.187500e-03
1.020906e-09,6.765625e-03
1.024906e-09,5.734375e-03
1.028906e-09,4.906250e-03
1.032906e-09,4.312500e-03
1.036906e-09,3.937500e-03
1.040906e-09,3.000000e-03
1.044906e-09,2.421875e-03
1.048906e-09,1.906250e-03
1.052906e-09,1.468750e-03
1.056906e-09,1.109375e-03
1.060906e-09,1.140625e-03
1.064906e-09,6.562500e-04
1.068906e-09,4.843750e-04
1.072906e-09,5.937500e-04
1.076906e-09,1.031250e-03
1.080906e-09,9.531250e-04
1.084906e-09,1.281250e-03
1.088906e-09,1.687500e-03
1.092906e-09,2.203125e-03
1.096906e-09,2.781250e-03
1.100906e-09,3.734375e-03
1.104906e-09,4.156250e-03
1.108906e-09,4.828125e-03
1.112906e-09,5.718750e-03
1.116906e-09,6.859375e-03
1.120906e-09,7.406250e-03
1.124906e-09,8.250000e-03
1.128906e-09,9.078125e-03
1.132906e-09,9.875000e-03
1.136906e-09,1.064063e-02
1.140906e-09,1.165625e-02
1.144906e-09,1.200000e-02
1.148906e-09,1.248438e-02
1.152906e-09,1.309375e-02
1.156906e-09,1.381250e-02
1.160906e-09,1.384375e-02
1.164906e-09,1.407813e-02
1.168906e-09,1.423438e-02
1.172906e-09,1.428125e-02
1.176906e-09,1.423438e-02
1.180906e-09,1.442188e-02
1.184906e-09,1.390625e-02
1.188906e-09,1.350000e-02
1.192906e-09,1.325000e-02
1.196906e-09,1.312500e-02
1.200906e-09,1.234375e-02
1.204906e-09,1.182813e-02
1.208906e-09,1.128125e-02
1.212906e-09,1.070313e-02
1.216906e-09,1.012500e-02
1.220906e-09,9.843750e-03
1.224906e-09,8.984375e-03
1.228906e-09,8.343750e-03
1.232906e-09,7.921875e-03
1.236906e-09,7.765625e-03
1.240906e-09,7.031250e-03
1.244906e-09,6.671875e-03
1.248906e-09,6.375000e-03
1.252906e-09,6.125000e-03
1.256906e-09,5.953125e-03
1.260906e-09,6.156250e-03
1.264906e-09,5.812500e-03
1.268906e-09,5.750000e-03
1.272906e-09,5.953125e-03
1.276906e-09,6.406250e-03
1.280906e-09,6.312500e-03
1.284906e-09,6.578125e-03
1.288906e-09,6.859375e-03
1.292906e-09,7.203125e-03
1.296906e-09,7.562500e-03
1.300906e-09,8.234375e-03
1.304906e-09,8.312500e-03
1.308906e-09,8.578125e-03
1.312906e-09,9.046875e-03
1.316906e-09,9.687500e-03
1.320906e-09,9.703125e-03
1.324906e-09,9.984375e-03
1.328906e-09,1.021875e-02
1.332906e-09,1.039063e-02
1.336906e-09,1.051563e-02
1.340906e-09,1.089063e-02
1.344906e-09,1.059375e-02
1.348906e-09,1.042188e-02
1.352906e-09,1.039063e-02
1.356906e-09,1.050000e-02
1.360906e-09,9.937500e-03
1.364906e-09,9.609375e-03
1.368906e-09,9.234375e-03
1.372906e-09,8.796875e-03
1.376906e-09,8.312500e-03
1.380906e-09,8.078125e-03
1.384906e-09,7.218750e-03
1.388906e-09,6.515625e-03
1.392906e-09,6.000000e-03
1.396906e-09,5.687500e-03
1.400906e-09,4.750000e-03
1.404906e-09,4.125000e-03
1.408906e-09,3.515625e-03
1.412906e-09,2.937500e-03
1.416906e-09,2.375000e-03
1.420906e-09,2.171875e-03
1.424906e-09,1.406250e-03
1.428906e-09,8.906250e-04
1.432906e-09,6.250000e-04
1.436906e-09,6.406250e-04
1.440906e-09,1.250000e-04
1.444906e-09,-3.125000e-05
1.448906e-09,-9.375000e-05
1.452906e-09,-9.375000e-05
1.456906e-09,-1.562500e-05
1.460906e-09,4.531250e-04
1.464906e-09,3.906250e-04
1.468906e-09,6.093750e-04
1.472906e-09,1.093750e-03
1.476906e-09,1.859375e-03
1.480906e-09,2.078125e-03
1.484906e-09,2.656250e-03
1.488906e-09,3.281250e-03
1.492906e-09,3.968750e-03
1.496906e-09,4.687500e-03
1.500906e-09,5.734375e-03
1.504906e-09,6.203125e-03
1.508906e-09,6.890625e-03
1.512906e-09,7.796875e-03
1.516906e-09,8.890625e-03
1.520906e-09,9.375000e-03
1.524906e-09,1.014063e-02
1.528906e-09,1.089063e-02
1.532906e-09,1.159375e-02
1.536906e-09,1.226563e-02
1.540906e-09,1.318750e-02
1.544906e-09,1.343750e-02
1.548906e-09,1.382813e-02
1.552906e-09,1.437500e-02
1.556906e-09,1.503125e-02
1.560906e-09,1.500000e-02
1.564906e-09,1.520313e-02
1.568906e-09,1.532813e-02
1.572906e-09,1.534375e-02
1.576906e-09,1.529688e-02
1.580906e-09,1.546875e-02
1.584906e-09,1.495313e-02
1.588906e-09,1.454688e-02
1.592906e-09,1.426563e-02
1.596906e-09,1.412500e-02
1.600906e-09,1.329688e-02
1.604906e-09,1.271875e-02
1.608906e-09,1.207813e-02
1.612906e-09,1.139063e-02
1.616906e-09,1.065625e-02
1.620906e-09,1.020313e-02
1.624906e-09,9.109375e-03
1.628906e-09,8.218750e-03
1.632906e-09,7.500000e-03
1.636906e-09,7.015625e-03
1.640906e-09,5.921875e-03
1.644906e-09,5.156250e-03
1.648906e-09,4.421875e-03
1.652906e-09,3.750000e-03
1.656906e-09,3.093750e-03
1.660906e-09,2.812500e-03
1.664906e-09,1.984375e-03
1.668906e-09,1.437500e-03
1.672906e-09,1.156250e-03
1.676906e-09,1.156250e-03
1.680906e-09,6.406250e-04
1.684906e-09,5.000000e-04
1.688906e-09,4.531250e-04
1.692906e-09,4.687500e-04
1.696906e-09,5.781250e-04
1.700906e-09,1.062500e-03
1.704906e-09,1.031250e-03
1.708906e-09,1.250000e-03
1.712906e-09,1.750000e-03
1.716906e-09,2.500000e-03
1.720906e-09,2.687500e-03
1.724906e-09,3.234375e-03
1.728906e-09,3.796875e-03
1.732906e-09,4.390625e-03
1.736906e-09,5.000000e-03
1.740906e-09,5.921875e-03
1.744906e-09,6.234375e-03
1.748906e-09,6.734375e-03
1.752906e-09,7.406250e-03
