Measurements-streak-laser-independent/Photodiode-on-Tek-6GHz/Tek000_ch1_20190613132801531.csv

Model,MSO64
Waveform Type,ANALOG
Horizontal Units,s
Sample Interval,4.000000e-12
Record Length,1000
Zero Index,310.703125
Vertical Units,V

TIME,CH1
-1.242812e-09,6.250000e-03
-1.238812e-09,6.281250e-03
-1.234812e-09,6.296875e-03
-1.230812e-09,6.593750e-03
-1.226812e-09,6.265625e-03
-1.222813e-09,6.125000e-03
-1.218813e-09,6.171875e-03
-1.214813e-09,6.406250e-03
-1.210813e-09,6.031250e-03
-1.206813e-09,5.968750e-03
-1.202812e-09,5.890625e-03
-1.198812e-09,5.812500e-03
-1.194812e-09,5.750000e-03
-1.190812e-09,6.000000e-03
-1.186812e-09,5.656250e-03
-1.182812e-09,5.531250e-03
-1.178812e-09,5.625000e-03
-1.174812e-09,5.953125e-03
-1.170812e-09,5.687500e-03
-1.166812e-09,5.765625e-03
-1.162813e-09,5.859375e-03
-1.158813e-09,6.000000e-03
-1.154813e-09,6.156250e-03
-1.150813e-09,6.625000e-03
-1.146813e-09,6.531250e-03
-1.142813e-09,6.671875e-03
-1.138812e-09,7.015625e-03
-1.134812e-09,7.593750e-03
-1.130812e-09,7.562500e-03
-1.126812e-09,7.859375e-03
-1.122812e-09,8.156250e-03
-1.118812e-09,8.437500e-03
-1.114812e-09,8.734375e-03
-1.110812e-09,9.296875e-03
-1.106812e-09,9.250000e-03
-1.102813e-09,9.390625e-03
-1.098813e-09,9.687500e-03
-1.094813e-09,1.015625e-02
-1.090813e-09,9.984375e-03
-1.086813e-09,1.006250e-02
-1.082813e-09,1.009375e-02
-1.078812e-09,1.009375e-02
-1.074812e-09,1.003125e-02
-1.070812e-09,1.020313e-02
-1.066812e-09,9.734375e-03
-1.062812e-09,9.406250e-03
-1.058812e-09,9.234375e-03
-1.054812e-09,9.218750e-03
-1.050812e-09,8.531250e-03
-1.046812e-09,8.125000e-03
-1.042813e-09,7.671875e-03
-1.038813e-09,7.187500e-03
-1.034813e-09,6.671875e-03
-1.030813e-09,6.437500e-03
-1.026813e-09,5.593750e-03
-1.022813e-09,4.937500e-03
-1.018812e-09,4.484375e-03
-1.014812e-09,4.250000e-03
-1.010812e-09,3.421875e-03
-1.006812e-09,2.921875e-03
-1.002812e-09,2.453125e-03
-9.988125e-10,2.031250e-03
-9.948125e-10,1.640625e-03
-9.908125e-10,1.609375e-03
-9.868125e-10,1.031250e-03
-9.828125e-10,7.031250e-04
-9.788125e-10,6.406250e-04
-9.748125e-10,8.437500e-04
-9.708125e-10,5.000000e-04
-9.668125e-10,5.312500e-04
-9.628125e-10,6.093750e-04
-9.588125e-10,7.656250e-04
-9.548125e-10,9.531250e-04
-9.508125e-10,1.515625e-03
-9.468125e-10,1.500000e-03
-9.428125e-10,1.750000e-03
-9.388125e-10,2.218750e-03
-9.348125e-10,2.906250e-03
-9.308125e-10,3.031250e-03
-9.268125e-10,3.453125e-03
-9.228125e-10,3.875000e-03
-9.188125e-10,4.312500e-03
-9.148125e-10,4.718750e-03
-9.108125e-10,5.421875e-03
-9.068125e-10,5.484375e-03
-9.028125e-10,5.734375e-03
-8.988125e-10,6.125000e-03
-8.948125e-10,6.687500e-03
-8.908125e-10,6.609375e-03
-8.868125e-10,6.765625e-03
-8.828125e-10,6.875000e-03
-8.788125e-10,6.937500e-03
-8.748125e-10,6.953125e-03
-8.708125e-10,7.218750e-03
-8.668125e-10,6.828125e-03
-8.628125e-10,6.593750e-03
-8.588125e-10,6.515625e-03
-8.548125e-10,6.609375e-03
-8.508125e-10,6.062500e-03
-8.468125e-10,5.796875e-03
-8.428125e-10,5.515625e-03
-8.388125e-10,5.218750e-03
-8.348125e-10,4.906250e-03
-8.308125e-10,4.906250e-03
-8.268125e-10,4.312500e-03
-8.228125e-10,3.937500e-03
-8.188125e-10,3.781250e-03
-8.148125e-10,3.859375e-03
-8.108125e-10,3.359375e-03
-8.068125e-10,3.203125e-03
-8.028125e-10,3.093750e-03
-7.988125e-10,3.015625e-03
-7.948125e-10,2.984375e-03
-7.908125e-10,3.296875e-03
-7.868125e-10,3.062500e-03
-7.828125e-10,3.062500e-03
-7.788125e-10,3.312500e-03
-7.748125e-10,3.812500e-03
-7.708125e-10,3.718750e-03
-7.668125e-10,3.984375e-03
-7.628125e-10,4.250000e-03
-7.588125e-10,4.562500e-03
-7.548125e-10,4.875000e-03
-7.508125e-10,5.500000e-03
-7.468125e-10,5.500000e-03
-7.428125e-10,5.718750e-03
-7.388125e-10,6.109375e-03
-7.348125e-10,6.687500e-03
-7.308125e-10,6.625000e-03
-7.268125e-10,6.843750e-03
-7.228125e-10,7.015625e-03
-7.188125e-10,7.125000e-03
-7.148125e-10,7.203125e-03
-7.108125e-10,7.531250e-03
-7.068125e-10,7.187500e-03
-7.028125e-10,6.984375e-03
-6.988125e-10,6.937500e-03
-6.948125e-10,7.031250e-03
-6.908125e-10,6.453125e-03
-6.868125e-10,6.125000e-03
-6.828125e-10,5.750000e-03
-6.788125e-10,5.328125e-03
-6.748125e-10,4.859375e-03
-6.708125e-10,4.656250e-03
-6.668125e-10,3.828125e-03
-6.628125e-10,3.156250e-03
-6.588125e-10,2.687500e-03
-6.548125e-10,2.406250e-03
-6.508125e-10,1.515625e-03
-6.468125e-10,9.375000e-04
-6.428125e-10,3.750000e-04
-6.388125e-10,-1.718750e-04
-6.348125e-10,-6.875000e-04
-6.308125e-10,-8.593750e-04
-6.268125e-10,-1.593750e-03
-6.228125e-10,-2.078125e-03
-6.188125e-10,-2.312500e-03
-6.148125e-10,-2.281250e-03
-6.108125e-10,-2.796875e-03
-6.068125e-10,-2.937500e-03
-6.028125e-10,-3.015625e-03
-5.988125e-10,-3.015625e-03
-5.948125e-10,-2.968750e-03
-5.908125e-10,-2.531250e-03
-5.868125e-10,-2.656250e-03
-5.828125e-10,-2.500000e-03
-5.788125e-10,-2.093750e-03
-5.748125e-10,-1.437500e-03
-5.708125e-10,-1.328125e-03
-5.668125e-10,-8.750000e-04
-5.628125e-10,-3.906250e-04
-5.588125e-10,1.406250e-04
-5.548125e-10,6.718750e-04
-5.508125e-10,1.546875e-03
-5.468125e-10,1.812500e-03
-5.428125e-10,2.281250e-03
-5.388125e-10,2.953125e-03
-5.348125e-10,3.812500e-03
-5.308125e-10,4.046875e-03
-5.268125e-10,4.562500e-03
-5.228125e-10,5.046875e-03
-5.188125e-10,5.500000e-03
-5.148125e-10,5.921875e-03
-5.108125e-10,6.609375e-03
-5.068125e-10,6.625000e-03
-5.028125e-10,6.812500e-03
-4.988125e-10,7.156250e-03
-4.948125e-10,7.656250e-03
-4.908125e-10,7.515625e-03
-4.868125e-10,7.609375e-03
-4.828125e-10,7.656250e-03
-4.788125e-10,7.671875e-03
-4.748125e-10,7.640625e-03
-4.708125e-10,7.890625e-03
-4.668125e-10,7.484375e-03
-4.628125e-10,7.250000e-03
-4.588125e-10,7.203125e-03
-4.548125e-10,7.343750e-03
-4.508125e-10,6.859375e-03
-4.468125e-10,6.656250e-03
-4.428125e-10,6.437500e-03
-4.388125e-10,6.218750e-03
-4.348125e-10,6.000000e-03
-4.308125e-10,6.109375e-03
-4.268125e-10,5.593750e-03
-4.228125e-10,5.296875e-03
-4.188125e-10,5.234375e-03
-4.148125e-10,5.375000e-03
-4.108125e-10,4.937500e-03
-4.068125e-10,4.828125e-03
-4.028125e-10,4.703125e-03
-3.988125e-10,4.609375e-03
-3.948125e-10,4.531250e-03
-3.908125e-10,4.796875e-03
-3.868125e-10,4.453125e-03
-3.828125e-10,4.343750e-03
-3.788125e-10,4.468750e-03
-3.748125e-10,4.796875e-03
-3.708125e-10,4.546875e-03
-3.668125e-10,4.609375e-03
-3.628125e-10,4.640625e-03
-3.588125e-10,4.703125e-03
-3.548125e-10,4.765625e-03
-3.508125e-10,5.125000e-03
-3.468125e-10,4.890625e-03
-3.428125e-10,4.859375e-03
-3.388125e-10,5.046875e-03
-3.348125e-10,5.406250e-03
-3.308125e-10,5.203125e-03
-3.268125e-10,5.281250e-03
-3.228125e-10,5.296875e-03
-3.188125e-10,5.296875e-03
-3.148125e-10,5.328125e-03
-3.108125e-10,5.625000e-03
-3.068125e-10,5.328125e-03
-3.028125e-10,5.203125e-03
-2.988125e-10,5.312500e-03
-2.948125e-10,5.578125e-03
-2.908125e-10,5.265625e-03
-2.868125e-10,5.234375e-03
-2.828125e-10,5.140625e-03
-2.788125e-10,5.031250e-03
-2.748125e-10,4.968750e-03
-2.708125e-10,5.156250e-03
-2.668125e-10,4.765625e-03
-2.628125e-10,4.546875e-03
-2.588125e-10,4.562500e-03
-2.548125e-10,4.734375e-03
-2.508125e-10,4.343750e-03
-2.468125e-10,4.250000e-03
-2.428125e-10,4.093750e-03
-2.388125e-10,3.906250e-03
-2.348125e-10,3.796875e-03
-2.308125e-10,3.921875e-03
-2.268125e-10,3.484375e-03
-2.228125e-10,3.218750e-03
-2.188125e-10,3.203125e-03
-2.148125e-10,3.343750e-03
-2.108125e-10,2.906250e-03
-2.068125e-10,2.796875e-03
-2.028125e-10,2.609375e-03
-1.988125e-10,2.390625e-03
-1.948125e-10,2.281250e-03
-1.908125e-10,2.406250e-03
-1.868125e-10,2.000000e-03
-1.828125e-10,1.750000e-03
-1.788125e-10,1.750000e-03
-1.748125e-10,1.953125e-03
-1.708125e-10,1.562500e-03
-1.668125e-10,1.515625e-03
-1.628125e-10,1.437500e-03
-1.588125e-10,1.343750e-03
-1.548125e-10,1.375000e-03
-1.508125e-10,1.640625e-03
-1.468125e-10,1.468750e-03
-1.428125e-10,1.437500e-03
-1.388125e-10,1.671875e-03
-1.348125e-10,2.140625e-03
-1.308125e-10,2.078125e-03
-1.268125e-10,2.343750e-03
-1.228125e-10,2.625000e-03
-1.188125e-10,2.953125e-03
-1.148125e-10,3.406250e-03
-1.108125e-10,4.125000e-03
-1.068125e-10,4.453125e-03
-1.028125e-10,4.953125e-03
-9.881250e-11,5.703125e-03
-9.481250e-11,6.750000e-03
-9.081250e-11,7.281250e-03
-8.681250e-11,8.140625e-03
-8.281250e-11,9.062500e-03
-7.881250e-11,1.004688e-02
-7.481250e-11,1.115625e-02
-7.081250e-11,1.257813e-02
-6.681250e-11,1.362500e-02
-6.281250e-11,1.484375e-02
-5.881250e-11,1.632813e-02
-5.481250e-11,1.812500e-02
-5.081250e-11,1.942188e-02
-4.681250e-11,2.106250e-02
-4.281250e-11,2.279688e-02
-3.881250e-11,2.460938e-02
-3.481250e-11,2.654688e-02
-3.081250e-11,2.884375e-02
-2.681250e-11,3.078125e-02
-2.281250e-11,3.293750e-02
-1.881250e-11,3.534375e-02
-1.481250e-11,3.810938e-02
-1.081250e-11,4.043750e-02
-6.812500e-12,4.310938e-02
-2.812500e-12,4.590625e-02
1.187500e-12,4.884375e-02
5.187500e-12,5.190625e-02
9.187500e-12,5.540625e-02
1.318750e-11,5.856250e-02
1.718750e-11,6.200000e-02
2.118750e-11,6.568750e-02
2.518750e-11,6.976563e-02
2.918750e-11,7.348438e-02
3.318750e-11,7.753125e-02
3.718750e-11,8.173438e-02
4.118750e-11,8.609375e-02
4.518750e-11,9.059375e-02
4.918750e-11,9.551563e-02
5.318750e-11,1.001094e-01
5.718750e-11,1.049688e-01
6.118750e-11,1.100469e-01
6.518750e-11,1.154531e-01
6.918750e-11,1.204844e-01
7.318750e-11,1.257969e-01
7.718750e-11,1.311875e-01
8.118750e-11,1.366563e-01
8.518750e-11,1.421563e-01
8.918750e-11,1.480000e-01
9.318750e-11,1.533906e-01
9.718750e-11,1.589219e-01
1.011875e-10,1.645313e-01
1.051875e-10,1.703125e-01
1.091875e-10,1.755938e-01
1.131875e-10,1.809844e-01
1.171875e-10,1.862813e-01
1.211875e-10,1.915000e-01
1.251875e-10,1.965469e-01
1.291875e-10,2.017500e-01
1.331875e-10,2.063281e-01
1.371875e-10,2.108750e-01
1.411875e-10,2.153125e-01
1.451875e-10,2.197031e-01
1.491875e-10,2.234688e-01
1.531875e-10,2.271563e-01
1.571875e-10,2.305938e-01
1.611875e-10,2.337813e-01
1.651875e-10,2.366875e-01
1.691875e-10,2.395781e-01
1.731875e-10,2.417500e-01
1.771875e-10,2.437656e-01
1.811875e-10,2.455938e-01
1.851875e-10,2.472969e-01
1.891875e-10,2.482969e-01
1.931875e-10,2.492031e-01
1.971875e-10,2.498125e-01
2.011875e-10,2.501719e-01
2.051875e-10,2.502344e-01
2.091875e-10,2.502656e-01
2.131875e-10,2.496563e-01
2.171875e-10,2.489219e-01
2.211875e-10,2.480469e-01
2.251875e-10,2.471250e-01
2.291875e-10,2.455469e-01
2.331875e-10,2.440156e-01
2.371875e-10,2.422813e-01
2.411875e-10,2.404063e-01
2.451875e-10,2.383594e-01
2.491875e-10,2.363594e-01
2.531875e-10,2.338438e-01
2.571875e-10,2.313594e-01
2.611875e-10,2.288594e-01
2.651875e-10,2.264219e-01
2.691875e-10,2.234375e-01
2.731875e-10,2.206719e-01
2.771875e-10,2.177969e-01
2.811875e-10,2.148906e-01
2.851875e-10,2.119219e-01
2.891875e-10,2.090938e-01
2.931875e-10,2.058438e-01
2.971875e-10,2.027188e-01
3.011875e-10,1.996406e-01
3.051875e-10,1.966875e-01
3.091875e-10,1.932656e-01
3.131875e-10,1.901094e-01
3.171875e-10,1.868750e-01
3.211875e-10,1.836563e-01
3.251875e-10,1.804219e-01
3.291875e-10,1.773281e-01
3.331875e-10,1.737969e-01
3.371875e-10,1.704219e-01
3.411875e-10,1.671094e-01
3.451875e-10,1.639219e-01
3.491875e-10,1.602344e-01
3.531875e-10,1.568125e-01
3.571875e-10,1.533438e-01
3.611875e-10,1.498438e-01
3.651875e-10,1.463438e-01
3.691875e-10,1.430000e-01
3.731875e-10,1.391563e-01
3.771875e-10,1.355000e-01
3.811875e-10,1.319219e-01
3.851875e-10,1.284531e-01
3.891875e-10,1.245313e-01
3.931875e-10,1.208750e-01
3.971875e-10,1.171875e-01
4.011875e-10,1.135313e-01
4.051875e-10,1.099063e-01
4.091875e-10,1.064844e-01
4.131875e-10,1.025938e-01
4.171875e-10,9.896875e-02
4.211875e-10,9.546875e-02
4.251875e-10,9.217188e-02
4.291875e-10,8.848438e-02
4.331875e-10,8.512500e-02
4.371875e-10,8.185938e-02
4.411875e-10,7.868750e-02
4.451875e-10,7.562500e-02
4.491875e-10,7.290625e-02
4.531875e-10,6.975000e-02
4.571875e-10,6.695313e-02
4.611875e-10,6.442188e-02
4.651875e-10,6.214063e-02
4.691875e-10,5.956250e-02
4.731875e-10,5.737500e-02
4.771875e-10,5.535938e-02
4.811875e-10,5.351563e-02
4.851875e-10,5.181250e-02
4.891875e-10,5.050000e-02
4.931875e-10,4.881250e-02
4.971875e-10,4.748438e-02
5.011875e-10,4.646875e-02
5.051875e-10,4.568750e-02
5.091875e-10,4.462500e-02
5.131875e-10,4.390625e-02
5.171875e-10,4.337500e-02
5.211875e-10,4.293750e-02
5.251875e-10,4.257813e-02
5.291875e-10,4.259375e-02
5.331875e-10,4.212500e-02
5.371875e-10,4.192188e-02
5.411875e-10,4.195313e-02
5.451875e-10,4.214063e-02
5.491875e-10,4.190625e-02
5.531875e-10,4.189063e-02
5.571875e-10,4.196875e-02
5.611875e-10,4.200000e-02
5.651875e-10,4.198438e-02
5.691875e-10,4.218750e-02
5.731875e-10,4.179688e-02
5.771875e-10,4.153125e-02
5.811875e-10,4.140625e-02
5.851875e-10,4.131250e-02
5.891875e-10,4.067188e-02
5.931875e-10,4.014063e-02
5.971875e-10,3.960938e-02
6.011875e-10,3.895313e-02
6.051875e-10,3.815625e-02
6.091875e-10,3.753125e-02
6.131875e-10,3.626563e-02
6.171875e-10,3.507813e-02
6.211875e-10,3.403125e-02
6.251875e-10,3.303125e-02
6.291875e-10,3.145313e-02
6.331875e-10,3.004688e-02
6.371875e-10,2.867188e-02
6.411875e-10,2.723438e-02
6.451875e-10,2.570313e-02
6.491875e-10,2.443750e-02
6.531875e-10,2.262500e-02
6.571875e-10,2.098438e-02
6.611875e-10,1.960938e-02
6.651875e-10,1.842188e-02
6.691875e-10,1.675000e-02
6.731875e-10,1.539063e-02
6.771875e-10,1.418750e-02
6.811875e-10,1.304688e-02
6.851875e-10,1.192188e-02
6.891875e-10,1.121875e-02
6.931875e-10,1.004688e-02
6.971875e-10,9.187500e-03
7.011875e-10,8.671875e-03
7.051875e-10,8.453125e-03
7.091875e-10,7.796875e-03
7.131875e-10,7.531250e-03
7.171875e-10,7.437500e-03
7.211875e-10,7.453125e-03
7.251875e-10,7.531250e-03
7.291875e-10,7.984375e-03
7.331875e-10,7.968750e-03
7.371875e-10,8.234375e-03
7.411875e-10,8.781250e-03
7.451875e-10,9.578125e-03
7.491875e-10,9.843750e-03
7.531875e-10,1.042188e-02
7.571875e-10,1.106250e-02
7.611875e-10,1.170313e-02
7.651875e-10,1.228125e-02
7.691875e-10,1.314063e-02
7.731875e-10,1.339063e-02
7.771875e-10,1.379688e-02
7.811875e-10,1.435938e-02
7.851875e-10,1.504688e-02
7.891875e-10,1.507813e-02
7.931875e-10,1.532813e-02
7.971875e-10,1.551563e-02
8.011875e-10,1.560938e-02
8.051875e-10,1.559375e-02
8.091875e-10,1.576563e-02
8.131875e-10,1.526563e-02
8.171875e-10,1.489063e-02
8.211875e-10,1.464063e-02
8.251875e-10,1.450000e-02
8.291875e-10,1.371875e-02
8.331875e-10,1.315625e-02
8.371875e-10,1.256250e-02
8.411875e-10,1.193750e-02
8.451875e-10,1.125000e-02
8.491875e-10,1.082813e-02
8.531875e-10,9.812500e-03
8.571875e-10,9.000000e-03
8.611875e-10,8.406250e-03
8.651875e-10,8.031250e-03
8.691875e-10,7.093750e-03
8.731875e-10,6.500000e-03
8.771875e-10,5.937500e-03
8.811875e-10,5.468750e-03
8.851875e-10,5.015625e-03
8.891875e-10,4.921875e-03
8.931875e-10,4.312500e-03
8.971875e-10,3.968750e-03
9.011875e-10,3.890625e-03
9.051875e-10,4.093750e-03
9.091875e-10,3.750000e-03
9.131875e-10,3.765625e-03
9.171875e-10,3.843750e-03
9.211875e-10,3.984375e-03
9.251875e-10,4.140625e-03
9.291875e-10,4.640625e-03
9.331875e-10,4.578125e-03
9.371875e-10,4.718750e-03
9.411875e-10,5.093750e-03
9.451875e-10,5.656250e-03
9.491875e-10,5.625000e-03
9.531875e-10,5.875000e-03
9.571875e-10,6.109375e-03
9.611875e-10,6.312500e-03
9.651875e-10,6.468750e-03
9.691875e-10,6.906250e-03
9.731875e-10,6.687500e-03
9.771875e-10,6.625000e-03
9.811875e-10,6.734375e-03
9.851875e-10,6.984375e-03
9.891875e-10,6.593750e-03
9.931875e-10,6.468750e-03
9.971875e-10,6.296875e-03
1.001187e-09,6.078125e-03
1.005187e-09,5.828125e-03
1.009187e-09,5.859375e-03
1.013187e-09,5.265625e-03
1.017187e-09,4.843750e-03
1.021187e-09,4.640625e-03
1.025187e-09,4.625000e-03
1.029188e-09,4.031250e-03
1.033188e-09,3.734375e-03
1.037188e-09,3.484375e-03
1.041188e-09,3.250000e-03
1.045188e-09,3.031250e-03
1.049188e-09,3.171875e-03
1.053187e-09,2.750000e-03
1.057187e-09,2.578125e-03
1.061187e-09,2.656250e-03
1.065187e-09,2.984375e-03
1.069187e-09,2.765625e-03
1.073187e-09,2.890625e-03
1.077187e-09,3.078125e-03
1.081187e-09,3.296875e-03
1.085187e-09,3.562500e-03
1.089188e-09,4.156250e-03
1.093188e-09,4.203125e-03
1.097188e-09,4.453125e-03
1.101188e-09,4.937500e-03
1.105188e-09,5.625000e-03
1.109188e-09,5.718750e-03
1.113187e-09,6.125000e-03
1.117187e-09,6.500000e-03
1.121187e-09,6.875000e-03
1.125187e-09,7.218750e-03
1.129187e-09,7.843750e-03
1.133187e-09,7.828125e-03
1.137187e-09,7.968750e-03
1.141187e-09,8.281250e-03
1.145187e-09,8.750000e-03
1.149188e-09,8.578125e-03
1.153188e-09,8.656250e-03
1.157188e-09,8.687500e-03
1.161188e-09,8.671875e-03
1.165188e-09,8.625000e-03
1.169188e-09,8.828125e-03
1.173187e-09,8.406250e-03
1.177187e-09,8.156250e-03
1.181187e-09,8.093750e-03
1.185187e-09,8.203125e-03
1.189187e-09,7.703125e-03
1.193187e-09,7.484375e-03
1.197187e-09,7.281250e-03
1.201187e-09,7.093750e-03
1.205187e-09,6.906250e-03
1.209188e-09,7.046875e-03
1.213188e-09,6.609375e-03
1.217188e-09,6.390625e-03
1.221188e-09,6.406250e-03
1.225188e-09,6.671875e-03
1.229188e-09,6.359375e-03
1.233187e-09,6.390625e-03
1.237187e-09,6.468750e-03
1.241187e-09,6.578125e-03
1.245187e-09,6.718750e-03
1.249187e-09,7.187500e-03
1.253187e-09,7.093750e-03
1.257187e-09,7.218750e-03
1.261187e-09,7.578125e-03
1.265187e-09,8.140625e-03
1.269188e-09,8.125000e-03
1.273188e-09,8.406250e-03
1.277188e-09,8.687500e-03
1.281188e-09,8.968750e-03
1.285188e-09,9.234375e-03
1.289188e-09,9.796875e-03
1.293187e-09,9.718750e-03
1.297187e-09,9.828125e-03
1.301187e-09,1.010938e-02
1.305187e-09,1.056250e-02
1.309187e-09,1.037500e-02
1.313187e-09,1.046875e-02
1.317187e-09,1.051563e-02
1.321187e-09,1.053125e-02
1.325187e-09,1.051563e-02
1.329188e-09,1.078125e-02
1.333188e-09,1.040625e-02
1.337188e-09,1.021875e-02
1.341188e-09,1.020313e-02
1.345188e-09,1.039063e-02
1.349188e-09,9.953125e-03
1.353187e-09,9.828125e-03
1.357187e-09,9.687500e-03
1.361187e-09,9.578125e-03
1.365187e-09,9.468750e-03
1.369187e-09,9.671875e-03
1.373187e-09,9.296875e-03
1.377187e-09,9.156250e-03
1.381187e-09,9.234375e-03
1.385187e-09,9.546875e-03
1.389188e-09,9.281250e-03
1.393188e-09,9.359375e-03
1.397188e-09,9.468750e-03
1.401188e-09,9.593750e-03
1.405188e-09,9.750000e-03
1.409187e-09,1.023438e-02
1.413187e-09,1.014063e-02
1.417187e-09,1.025000e-02
1.421187e-09,1.057813e-02
1.425187e-09,1.110938e-02
1.429187e-09,1.103125e-02
1.433187e-09,1.125000e-02
1.437187e-09,1.143750e-02
1.441187e-09,1.162500e-02
1.445187e-09,1.178125e-02
1.449188e-09,1.220313e-02
1.453188e-09,1.196875e-02
1.457188e-09,1.190625e-02
1.461188e-09,1.200000e-02
1.465188e-09,1.225000e-02
1.469187e-09,1.182813e-02
1.473187e-09,1.167188e-02
1.477187e-09,1.145313e-02
1.481187e-09,1.118750e-02
1.485187e-09,1.085938e-02
1.489187e-09,1.079688e-02
1.493187e-09,1.009375e-02
1.497187e-09,9.546875e-03
1.501187e-09,9.187500e-03
1.505187e-09,8.984375e-03
1.509188e-09,8.171875e-03
1.513188e-09,7.656250e-03
1.517188e-09,7.140625e-03
1.521188e-09,6.640625e-03
1.525188e-09,6.156250e-03
1.529187e-09,5.984375e-03
1.533187e-09,5.250000e-03
1.537187e-09,4.765625e-03
1.541187e-09,4.515625e-03
1.545187e-09,4.531250e-03
1.549187e-09,4.000000e-03
1.553187e-09,3.828125e-03
1.557187e-09,3.718750e-03
1.561187e-09,3.671875e-03
1.565187e-09,3.687500e-03
1.569188e-09,4.078125e-03
1.573188e-09,3.906250e-03
1.577188e-09,4.015625e-03
1.581188e-09,4.375000e-03
1.585188e-09,4.968750e-03
1.589187e-09,5.015625e-03
1.593187e-09,5.390625e-03
1.597187e-09,5.781250e-03
1.601187e-09,6.203125e-03
1.605187e-09,6.640625e-03
1.609187e-09,7.375000e-03
1.613187e-09,7.484375e-03
1.617187e-09,7.781250e-03
1.621187e-09,8.265625e-03
1.625187e-09,8.906250e-03
1.629188e-09,8.906250e-03
1.633188e-09,9.171875e-03
1.637188e-09,9.390625e-03
1.641188e-09,9.531250e-03
1.645188e-09,9.640625e-03
1.649187e-09,9.968750e-03
1.653187e-09,9.640625e-03
1.657187e-09,9.453125e-03
1.661187e-09,9.406250e-03
1.665187e-09,9.515625e-03
1.669187e-09,8.953125e-03
1.673187e-09,8.640625e-03
1.677187e-09,8.281250e-03
1.681187e-09,7.906250e-03
1.685187e-09,7.468750e-03
1.689188e-09,7.328125e-03
1.693188e-09,6.562500e-03
1.697188e-09,5.968750e-03
1.701188e-09,5.593750e-03
1.705188e-09,5.421875e-03
1.709187e-09,4.640625e-03
1.713187e-09,4.187500e-03
1.717187e-09,3.765625e-03
1.721187e-09,3.359375e-03
1.725187e-09,2.984375e-03
1.729187e-09,2.937500e-03
1.733187e-09,2.343750e-03
1.737187e-09,1.984375e-03
1.741187e-09,1.859375e-03
1.745187e-09,1.984375e-03
1.749188e-09,1.546875e-03
1.753188e-09,1.453125e-03
