Measurements-streak-laser-independent/Photodiode-on-Tek-6GHz/Tek000_ch1_20190613132812362.csv

Model,MSO64
Waveform Type,ANALOG
Horizontal Units,s
Sample Interval,4.000000e-12
Record Length,1000
Zero Index,310.945312
Vertical Units,V

TIME,CH1
-1.243781e-09,9.468750e-03
-1.239781e-09,9.250000e-03
-1.235781e-09,9.171875e-03
-1.231781e-09,9.218750e-03
-1.227781e-09,9.406250e-03
-1.223781e-09,8.906250e-03
-1.219781e-09,8.671875e-03
-1.215781e-09,8.375000e-03
-1.211781e-09,8.015625e-03
-1.207781e-09,7.640625e-03
-1.203781e-09,7.531250e-03
-1.199781e-09,6.796875e-03
-1.195781e-09,6.234375e-03
-1.191781e-09,5.890625e-03
-1.187781e-09,5.750000e-03
-1.183781e-09,5.015625e-03
-1.179781e-09,4.609375e-03
-1.175781e-09,4.234375e-03
-1.171781e-09,3.890625e-03
-1.167781e-09,3.593750e-03
-1.163781e-09,3.640625e-03
-1.159781e-09,3.125000e-03
-1.155781e-09,2.875000e-03
-1.151781e-09,2.875000e-03
-1.147781e-09,3.140625e-03
-1.143781e-09,2.828125e-03
-1.139781e-09,2.890625e-03
-1.135781e-09,2.984375e-03
-1.131781e-09,3.109375e-03
-1.127781e-09,3.265625e-03
-1.123781e-09,3.750000e-03
-1.119781e-09,3.656250e-03
-1.115781e-09,3.765625e-03
-1.111781e-09,4.078125e-03
-1.107781e-09,4.593750e-03
-1.103781e-09,4.468750e-03
-1.099781e-09,4.640625e-03
-1.095781e-09,4.765625e-03
-1.091781e-09,4.875000e-03
-1.087781e-09,4.937500e-03
-1.083781e-09,5.250000e-03
-1.079781e-09,4.906250e-03
-1.075781e-09,4.718750e-03
-1.071781e-09,4.687500e-03
-1.067781e-09,4.796875e-03
-1.063781e-09,4.250000e-03
-1.059781e-09,3.968750e-03
-1.055781e-09,3.625000e-03
-1.051781e-09,3.265625e-03
-1.047781e-09,2.859375e-03
-1.043781e-09,2.734375e-03
-1.039781e-09,2.000000e-03
-1.035781e-09,1.437500e-03
-1.031781e-09,1.093750e-03
-1.027781e-09,9.531250e-04
-1.023781e-09,2.343750e-04
-1.019781e-09,-1.718750e-04
-1.015781e-09,-5.312500e-04
-1.011781e-09,-8.437500e-04
-1.007781e-09,-1.109375e-03
-1.003781e-09,-1.000000e-03
-9.997813e-10,-1.453125e-03
-9.957813e-10,-1.640625e-03
-9.917813e-10,-1.546875e-03
-9.877813e-10,-1.187500e-03
-9.837813e-10,-1.359375e-03
-9.797812e-10,-1.156250e-03
-9.757812e-10,-9.062500e-04
-9.717812e-10,-5.781250e-04
-9.677812e-10,-1.875000e-04
-9.637812e-10,5.468750e-04
-9.597812e-10,7.343750e-04
-9.557812e-10,1.156250e-03
-9.517812e-10,1.796875e-03
-9.477812e-10,2.671875e-03
-9.437813e-10,2.953125e-03
-9.397813e-10,3.531250e-03
-9.357813e-10,4.125000e-03
-9.317813e-10,4.687500e-03
-9.277812e-10,5.218750e-03
-9.237812e-10,6.046875e-03
-9.197812e-10,6.218750e-03
-9.157813e-10,6.546875e-03
-9.117813e-10,7.046875e-03
-9.077813e-10,7.687500e-03
-9.037812e-10,7.671875e-03
-8.997812e-10,7.906250e-03
-8.957812e-10,8.093750e-03
-8.917812e-10,8.218750e-03
-8.877812e-10,8.296875e-03
-8.837813e-10,8.640625e-03
-8.797813e-10,8.328125e-03
-8.757812e-10,8.187500e-03
-8.717812e-10,8.218750e-03
-8.677812e-10,8.421875e-03
-8.637812e-10,8.000000e-03
-8.597812e-10,7.875000e-03
-8.557813e-10,7.765625e-03
-8.517813e-10,7.640625e-03
-8.477813e-10,7.531250e-03
-8.437812e-10,7.734375e-03
-8.397812e-10,7.359375e-03
-8.357812e-10,7.218750e-03
-8.317812e-10,7.296875e-03
-8.277812e-10,7.609375e-03
-8.237813e-10,7.359375e-03
-8.197813e-10,7.437500e-03
-8.157812e-10,7.546875e-03
-8.117812e-10,7.687500e-03
-8.077812e-10,7.843750e-03
-8.037812e-10,8.343750e-03
-7.997812e-10,8.250000e-03
-7.957813e-10,8.359375e-03
-7.917813e-10,8.687500e-03
-7.877813e-10,9.203125e-03
-7.837812e-10,9.109375e-03
-7.797812e-10,9.296875e-03
-7.757812e-10,9.468750e-03
-7.717812e-10,9.593750e-03
-7.677812e-10,9.687500e-03
-7.637813e-10,1.003125e-02
-7.597813e-10,9.718750e-03
-7.557813e-10,9.562500e-03
-7.517812e-10,9.546875e-03
-7.477812e-10,9.671875e-03
-7.437812e-10,9.109375e-03
-7.397812e-10,8.812500e-03
-7.357813e-10,8.437500e-03
-7.317813e-10,8.031250e-03
-7.277813e-10,7.546875e-03
-7.237812e-10,7.328125e-03
-7.197812e-10,6.468750e-03
-7.157812e-10,5.781250e-03
-7.117812e-10,5.265625e-03
-7.077812e-10,4.937500e-03
-7.037813e-10,4.015625e-03
-6.997813e-10,3.390625e-03
-6.957813e-10,2.781250e-03
-6.917812e-10,2.218750e-03
-6.877812e-10,1.687500e-03
-6.837812e-10,1.500000e-03
-6.797812e-10,7.656250e-04
-6.757813e-10,2.968750e-04
-6.717813e-10,1.093750e-04
-6.677813e-10,2.031250e-04
-6.637812e-10,-2.343750e-04
-6.597812e-10,-2.656250e-04
-6.557812e-10,-2.343750e-04
-6.517812e-10,-9.375000e-05
-6.477812e-10,1.093750e-04
-6.437813e-10,7.031250e-04
-6.397813e-10,7.656250e-04
-6.357813e-10,1.109375e-03
-6.317812e-10,1.703125e-03
-6.277812e-10,2.562500e-03
-6.237812e-10,2.843750e-03
-6.197812e-10,3.468750e-03
-6.157813e-10,4.109375e-03
-6.117813e-10,4.750000e-03
-6.077813e-10,5.390625e-03
-6.037812e-10,6.312500e-03
-5.997812e-10,6.609375e-03
-5.957812e-10,7.062500e-03
-5.917812e-10,7.671875e-03
-5.877812e-10,8.406250e-03
-5.837813e-10,8.484375e-03
-5.797813e-10,8.796875e-03
-5.757813e-10,9.015625e-03
-5.717812e-10,9.171875e-03
-5.677812e-10,9.234375e-03
-5.637812e-10,9.515625e-03
-5.597812e-10,9.109375e-03
-5.557813e-10,8.828125e-03
-5.517813e-10,8.671875e-03
-5.477813e-10,8.656250e-03
-5.437812e-10,7.968750e-03
-5.397812e-10,7.531250e-03
-5.357812e-10,7.062500e-03
-5.317812e-10,6.546875e-03
-5.277812e-10,6.015625e-03
-5.237813e-10,5.781250e-03
-5.197813e-10,4.937500e-03
-5.157813e-10,4.312500e-03
-5.117812e-10,3.921875e-03
-5.077812e-10,3.750000e-03
-5.037812e-10,3.031250e-03
-4.997812e-10,2.656250e-03
-4.957813e-10,2.328125e-03
-4.917813e-10,2.078125e-03
-4.877813e-10,1.875000e-03
-4.837812e-10,2.062500e-03
-4.797812e-10,1.703125e-03
-4.757812e-10,1.609375e-03
-4.717812e-10,1.781250e-03
-4.677812e-10,2.234375e-03
-4.637813e-10,2.125000e-03
-4.597812e-10,2.375000e-03
-4.557812e-10,2.640625e-03
-4.517813e-10,2.953125e-03
-4.477813e-10,3.281250e-03
-4.437812e-10,3.937500e-03
-4.397812e-10,3.984375e-03
-4.357813e-10,4.218750e-03
-4.317812e-10,4.640625e-03
-4.277812e-10,5.250000e-03
-4.237812e-10,5.203125e-03
-4.197813e-10,5.421875e-03
-4.157812e-10,5.562500e-03
-4.117812e-10,5.656250e-03
-4.077812e-10,5.671875e-03
-4.037813e-10,5.921875e-03
-3.997812e-10,5.500000e-03
-3.957812e-10,5.203125e-03
-3.917813e-10,5.062500e-03
-3.877813e-10,5.031250e-03
-3.837812e-10,4.359375e-03
-3.797812e-10,3.921875e-03
-3.757813e-10,3.390625e-03
-3.717813e-10,2.828125e-03
-3.677812e-10,2.234375e-03
-3.637812e-10,1.937500e-03
-3.597813e-10,1.000000e-03
-3.557812e-10,2.500000e-04
-3.517812e-10,-2.500000e-04
-3.477812e-10,-5.468750e-04
-3.437813e-10,-1.390625e-03
-3.397812e-10,-1.906250e-03
-3.357812e-10,-2.406250e-03
-3.317813e-10,-2.859375e-03
-3.277813e-10,-3.218750e-03
-3.237812e-10,-3.203125e-03
-3.197812e-10,-3.718750e-03
-3.157813e-10,-3.937500e-03
-3.117813e-10,-3.843750e-03
-3.077812e-10,-3.484375e-03
-3.037812e-10,-3.593750e-03
-2.997813e-10,-3.328125e-03
-2.957812e-10,-3.031250e-03
-2.917812e-10,-2.656250e-03
-2.877812e-10,-2.156250e-03
-2.837813e-10,-1.328125e-03
-2.797812e-10,-1.015625e-03
-2.757812e-10,-4.531250e-04
-2.717813e-10,3.750000e-04
-2.677813e-10,1.421875e-03
-2.637812e-10,1.921875e-03
-2.597812e-10,2.750000e-03
-2.557813e-10,3.500000e-03
-2.517813e-10,4.218750e-03
-2.477812e-10,5.000000e-03
-2.437812e-10,6.015625e-03
-2.397813e-10,6.437500e-03
-2.357812e-10,6.968750e-03
-2.317812e-10,7.703125e-03
-2.277812e-10,8.562500e-03
-2.237812e-10,8.781250e-03
-2.197813e-10,9.250000e-03
-2.157812e-10,9.578125e-03
-2.117813e-10,9.812500e-03
-2.077812e-10,1.009375e-02
-2.037813e-10,1.051563e-02
-1.997812e-10,1.034375e-02
-1.957813e-10,1.026563e-02
-1.917812e-10,1.035938e-02
-1.877813e-10,1.057813e-02
-1.837812e-10,1.015625e-02
-1.797813e-10,1.001563e-02
-1.757812e-10,9.765625e-03
-1.717812e-10,9.453125e-03
-1.677812e-10,9.218750e-03
-1.637812e-10,9.156250e-03
-1.597813e-10,8.593750e-03
-1.557812e-10,8.140625e-03
-1.517813e-10,7.921875e-03
-1.477812e-10,7.890625e-03
-1.437813e-10,7.265625e-03
-1.397812e-10,6.968750e-03
-1.357813e-10,6.656250e-03
-1.317812e-10,6.328125e-03
-1.277813e-10,6.125000e-03
-1.237812e-10,6.156250e-03
-1.197813e-10,5.781250e-03
-1.157812e-10,5.546875e-03
-1.117812e-10,5.562500e-03
-1.077812e-10,5.859375e-03
-1.037813e-10,5.625000e-03
-9.978125e-11,5.718750e-03
-9.578125e-11,5.875000e-03
-9.178125e-11,6.093750e-03
-8.778125e-11,6.453125e-03
-8.378125e-11,7.125000e-03
-7.978125e-11,7.437500e-03
-7.578125e-11,7.968750e-03
-7.178125e-11,8.765625e-03
-6.778125e-11,9.921875e-03
-6.378125e-11,1.060938e-02
-5.978125e-11,1.170313e-02
-5.578125e-11,1.290625e-02
-5.178125e-11,1.425000e-02
-4.778125e-11,1.578125e-02
-4.378125e-11,1.773438e-02
-3.978125e-11,1.937500e-02
-3.578125e-11,2.131250e-02
-3.178125e-11,2.357813e-02
-2.778125e-11,2.626563e-02
-2.378125e-11,2.857813e-02
-1.978125e-11,3.131250e-02
-1.578125e-11,3.425000e-02
-1.178125e-11,3.737500e-02
-7.781250e-12,4.071875e-02
-3.781250e-12,4.453125e-02
2.187500e-13,4.806250e-02
4.218750e-12,5.192188e-02
8.218750e-12,5.609375e-02
1.221875e-11,6.068750e-02
1.621875e-11,6.493750e-02
2.021875e-11,6.954688e-02
2.421875e-11,7.432813e-02
2.821875e-11,7.926563e-02
3.221875e-11,8.434375e-02
3.621875e-11,8.984375e-02
4.021875e-11,9.496875e-02
4.421875e-11,1.003438e-01
4.821875e-11,1.059063e-01
5.221875e-11,1.117500e-01
5.621875e-11,1.171875e-01
6.021875e-11,1.228281e-01
6.421875e-11,1.285000e-01
6.821875e-11,1.341875e-01
7.221875e-11,1.398438e-01
7.621875e-11,1.457813e-01
8.021875e-11,1.512031e-01
8.421875e-11,1.567031e-01
8.821875e-11,1.622188e-01
9.221875e-11,1.678594e-01
9.621875e-11,1.729375e-01
1.002187e-10,1.780781e-01
1.042187e-10,1.830938e-01
1.082187e-10,1.879844e-01
1.122188e-10,1.927031e-01
1.162188e-10,1.975625e-01
1.202187e-10,2.017813e-01
1.242188e-10,2.059688e-01
1.282187e-10,2.100625e-01
1.322187e-10,2.141563e-01
1.362187e-10,2.176250e-01
1.402187e-10,2.210625e-01
1.442188e-10,2.242969e-01
1.482187e-10,2.273438e-01
1.522188e-10,2.301563e-01
1.562187e-10,2.330156e-01
1.602188e-10,2.352500e-01
1.642187e-10,2.373906e-01
1.682188e-10,2.394063e-01
1.722187e-10,2.413906e-01
1.762188e-10,2.427500e-01
1.802187e-10,2.440781e-01
1.842188e-10,2.451875e-01
1.882187e-10,2.461250e-01
1.922187e-10,2.468281e-01
1.962187e-10,2.475469e-01
2.002187e-10,2.476875e-01
2.042187e-10,2.477500e-01
2.082187e-10,2.477031e-01
2.122188e-10,2.476406e-01
2.162187e-10,2.469531e-01
2.202188e-10,2.462969e-01
2.242187e-10,2.454531e-01
2.282188e-10,2.444531e-01
2.322187e-10,2.432656e-01
2.362188e-10,2.421094e-01
2.402187e-10,2.403906e-01
2.442187e-10,2.386563e-01
2.482188e-10,2.368594e-01
2.522187e-10,2.350625e-01
2.562187e-10,2.326875e-01
2.602187e-10,2.304219e-01
2.642188e-10,2.279844e-01
2.682187e-10,2.254375e-01
2.722187e-10,2.227813e-01
2.762188e-10,2.201719e-01
2.802188e-10,2.170469e-01
2.842187e-10,2.139844e-01
2.882187e-10,2.109063e-01
2.922188e-10,2.078906e-01
2.962188e-10,2.043281e-01
3.002187e-10,2.009688e-01
3.042187e-10,1.975000e-01
3.082188e-10,1.939844e-01
3.122187e-10,1.904219e-01
3.162187e-10,1.869688e-01
3.202187e-10,1.830625e-01
3.242188e-10,1.792969e-01
3.282187e-10,1.755781e-01
3.322187e-10,1.719844e-01
3.362188e-10,1.679219e-01
3.402188e-10,1.641406e-01
3.442187e-10,1.603281e-01
3.482187e-10,1.565313e-01
3.522188e-10,1.527656e-01
3.562188e-10,1.492031e-01
3.602187e-10,1.452031e-01
3.642187e-10,1.414531e-01
3.682188e-10,1.378281e-01
3.722187e-10,1.343750e-01
3.762187e-10,1.305313e-01
3.802187e-10,1.270469e-01
3.842188e-10,1.235781e-01
3.882187e-10,1.202031e-01
3.922187e-10,1.169219e-01
3.962187e-10,1.139063e-01
4.002188e-10,1.104844e-01
4.042187e-10,1.073750e-01
4.082187e-10,1.044375e-01
4.122188e-10,1.017188e-01
4.162188e-10,9.865625e-02
4.202187e-10,9.595313e-02
4.242187e-10,9.332813e-02
4.282188e-10,9.081250e-02
4.322187e-10,8.840625e-02
4.362187e-10,8.629688e-02
4.402187e-10,8.375000e-02
4.442188e-10,8.151563e-02
4.482187e-10,7.948438e-02
4.522187e-10,7.764063e-02
4.562187e-10,7.543750e-02
4.602188e-10,7.354688e-02
4.642187e-10,7.175000e-02
4.682187e-10,7.001563e-02
4.722187e-10,6.832813e-02
4.762187e-10,6.693750e-02
4.802188e-10,6.504688e-02
4.842188e-10,6.340625e-02
4.882188e-10,6.195313e-02
4.922187e-10,6.062500e-02
4.962187e-10,5.890625e-02
5.002187e-10,5.740625e-02
5.042187e-10,5.600000e-02
5.082187e-10,5.457813e-02
5.122188e-10,5.315625e-02
5.162188e-10,5.201563e-02
5.202188e-10,5.031250e-02
5.242187e-10,4.882813e-02
5.282187e-10,4.751563e-02
5.322187e-10,4.632813e-02
5.362187e-10,4.470313e-02
5.402188e-10,4.329688e-02
5.442188e-10,4.198438e-02
5.482188e-10,4.067188e-02
5.522187e-10,3.932813e-02
5.562187e-10,3.829688e-02
5.602187e-10,3.673438e-02
5.642187e-10,3.539063e-02
5.682187e-10,3.429688e-02
5.722188e-10,3.334375e-02
5.762188e-10,3.198438e-02
5.802188e-10,3.089063e-02
5.842187e-10,2.993750e-02
5.882187e-10,2.903125e-02
5.922187e-10,2.812500e-02
5.962187e-10,2.756250e-02
6.002188e-10,2.653125e-02
6.042188e-10,2.575000e-02
6.082188e-10,2.525000e-02
6.122187e-10,2.496875e-02
6.162187e-10,2.426563e-02
6.202187e-10,2.384375e-02
6.242187e-10,2.357813e-02
6.282187e-10,2.335938e-02
6.322188e-10,2.314063e-02
6.362188e-10,2.325000e-02
6.402188e-10,2.287500e-02
6.442187e-10,2.271875e-02
6.482187e-10,2.281250e-02
6.522187e-10,2.309375e-02
6.562187e-10,2.287500e-02
6.602188e-10,2.289063e-02
6.642188e-10,2.300000e-02
6.682188e-10,2.307813e-02
6.722187e-10,2.307813e-02
6.762187e-10,2.335938e-02
6.802187e-10,2.304688e-02
6.842187e-10,2.287500e-02
6.882187e-10,2.289063e-02
6.922188e-10,2.301563e-02
6.962188e-10,2.254688e-02
7.002188e-10,2.228125e-02
7.042187e-10,2.201563e-02
7.082187e-10,2.165625e-02
7.122187e-10,2.120313e-02
7.162187e-10,2.096875e-02
7.202188e-10,2.012500e-02
7.242188e-10,1.940625e-02
7.282188e-10,1.884375e-02
7.322187e-10,1.843750e-02
7.362187e-10,1.740625e-02
7.402187e-10,1.662500e-02
7.442187e-10,1.585938e-02
7.482187e-10,1.507813e-02
7.522188e-10,1.423438e-02
7.562188e-10,1.368750e-02
7.602188e-10,1.257813e-02
7.642187e-10,1.168750e-02
7.682187e-10,1.103125e-02
7.722187e-10,1.062500e-02
7.762187e-10,9.671875e-03
7.802187e-10,9.062500e-03
7.842188e-10,8.546875e-03
7.882188e-10,8.093750e-03
7.922187e-10,7.687500e-03
7.962187e-10,7.640625e-03
8.002187e-10,7.093750e-03
8.042187e-10,6.843750e-03
8.082187e-10,6.875000e-03
8.122188e-10,7.171875e-03
8.162188e-10,6.968750e-03
8.202188e-10,7.140625e-03
8.242187e-10,7.375000e-03
8.282187e-10,7.703125e-03
8.322187e-10,8.031250e-03
8.362187e-10,8.703125e-03
8.402187e-10,8.843750e-03
8.442188e-10,9.187500e-03
8.482188e-10,9.765625e-03
8.522187e-10,1.054688e-02
8.562187e-10,1.073438e-02
8.602187e-10,1.120313e-02
8.642187e-10,1.165625e-02
8.682187e-10,1.206250e-02
8.722188e-10,1.242188e-02
8.762188e-10,1.301563e-02
8.802188e-10,1.295313e-02
8.842187e-10,1.303125e-02
8.882187e-10,1.323438e-02
8.922187e-10,1.357813e-02
8.962187e-10,1.323438e-02
9.002187e-10,1.310938e-02
9.042188e-10,1.290625e-02
9.082188e-10,1.264063e-02
9.122187e-10,1.228125e-02
9.162187e-10,1.215625e-02
9.202187e-10,1.137500e-02
9.242187e-10,1.073438e-02
9.282187e-10,1.026563e-02
9.322187e-10,9.953125e-03
9.362187e-10,9.015625e-03
9.402187e-10,8.359375e-03
9.442187e-10,7.703125e-03
9.482188e-10,7.046875e-03
9.522188e-10,6.406250e-03
9.562188e-10,6.093750e-03
9.602188e-10,5.218750e-03
9.642188e-10,4.593750e-03
9.682188e-10,4.234375e-03
9.722187e-10,4.140625e-03
9.762187e-10,3.515625e-03
9.802187e-10,3.281250e-03
9.842187e-10,3.109375e-03
9.882187e-10,3.046875e-03
9.922187e-10,3.062500e-03
9.962187e-10,3.453125e-03
1.000219e-09,3.343750e-03
1.004219e-09,3.515625e-03
1.008219e-09,3.968750e-03
1.012219e-09,4.687500e-03
1.016219e-09,4.890625e-03
1.020219e-09,5.453125e-03
1.024219e-09,6.062500e-03
1.028219e-09,6.718750e-03
1.032219e-09,7.390625e-03
1.036219e-09,8.390625e-03
1.040219e-09,8.796875e-03
1.044219e-09,9.406250e-03
1.048219e-09,1.020313e-02
1.052219e-09,1.117188e-02
1.056219e-09,1.151563e-02
1.060219e-09,1.210938e-02
1.064219e-09,1.267188e-02
1.068219e-09,1.315625e-02
1.072219e-09,1.357813e-02
1.076219e-09,1.423438e-02
1.080219e-09,1.420313e-02
1.084219e-09,1.431250e-02
1.088219e-09,1.453125e-02
1.092219e-09,1.487500e-02
1.096219e-09,1.453125e-02
1.100219e-09,1.442188e-02
1.104219e-09,1.425000e-02
1.108219e-09,1.400000e-02
1.112219e-09,1.368750e-02
1.116219e-09,1.362500e-02
1.120219e-09,1.290625e-02
1.124219e-09,1.234375e-02
1.128219e-09,1.195313e-02
1.132219e-09,1.175000e-02
1.136219e-09,1.093750e-02
1.140219e-09,1.040625e-02
1.144219e-09,9.875000e-03
1.148219e-09,9.375000e-03
1.152219e-09,8.875000e-03
1.156219e-09,8.718750e-03
1.160219e-09,7.984375e-03
1.164219e-09,7.484375e-03
1.168219e-09,7.234375e-03
1.172219e-09,7.234375e-03
1.176219e-09,6.671875e-03
1.180219e-09,6.468750e-03
1.184219e-09,6.328125e-03
1.188219e-09,6.218750e-03
1.192219e-09,6.171875e-03
1.196219e-09,6.453125e-03
1.200219e-09,6.187500e-03
1.204219e-09,6.156250e-03
1.208219e-09,6.375000e-03
1.212219e-09,6.812500e-03
1.216219e-09,6.656250e-03
1.220219e-09,6.843750e-03
1.224219e-09,7.015625e-03
1.228219e-09,7.218750e-03
1.232219e-09,7.406250e-03
1.236219e-09,7.875000e-03
1.240219e-09,7.750000e-03
1.244219e-09,7.796875e-03
1.248219e-09,8.031250e-03
1.252219e-09,8.437500e-03
1.256219e-09,8.203125e-03
1.260219e-09,8.250000e-03
1.264219e-09,8.281250e-03
1.268219e-09,8.265625e-03
1.272219e-09,8.218750e-03
1.276219e-09,8.437500e-03
1.280219e-09,8.031250e-03
1.284219e-09,7.812500e-03
1.288219e-09,7.765625e-03
1.292219e-09,7.890625e-03
1.296219e-09,7.421875e-03
1.300219e-09,7.234375e-03
1.304219e-09,7.046875e-03
1.308219e-09,6.843750e-03
1.312219e-09,6.671875e-03
1.316219e-09,6.796875e-03
1.320219e-09,6.343750e-03
1.324219e-09,6.109375e-03
1.328219e-09,6.109375e-03
1.332219e-09,6.328125e-03
1.336219e-09,5.984375e-03
1.340219e-09,5.984375e-03
1.344219e-09,6.015625e-03
1.348219e-09,6.078125e-03
1.352219e-09,6.171875e-03
1.356219e-09,6.625000e-03
1.360219e-09,6.500000e-03
1.364219e-09,6.609375e-03
1.368219e-09,6.953125e-03
1.372219e-09,7.531250e-03
1.376219e-09,7.531250e-03
1.380219e-09,7.843750e-03
1.384219e-09,8.187500e-03
1.388219e-09,8.531250e-03
1.392219e-09,8.875000e-03
1.396219e-09,9.531250e-03
1.400219e-09,9.578125e-03
1.404219e-09,9.828125e-03
1.408219e-09,1.025000e-02
1.412219e-09,1.084375e-02
1.416219e-09,1.082813e-02
1.420219e-09,1.107813e-02
1.424219e-09,1.129688e-02
1.428219e-09,1.146875e-02
1.432219e-09,1.160938e-02
1.436219e-09,1.201563e-02
1.440219e-09,1.176563e-02
1.444219e-09,1.168750e-02
1.448219e-09,1.175000e-02
1.452219e-09,1.198438e-02
1.456219e-09,1.156250e-02
1.460219e-09,1.140625e-02
1.464219e-09,1.121875e-02
1.468219e-09,1.098438e-02
1.472219e-09,1.071875e-02
1.476219e-09,1.073438e-02
1.480219e-09,1.010938e-02
1.484219e-09,9.671875e-03
1.488219e-09,9.406250e-03
1.492219e-09,9.343750e-03
1.496219e-09,8.656250e-03
1.500219e-09,8.265625e-03
1.504219e-09,7.890625e-03
1.508219e-09,7.500000e-03
1.512219e-09,7.109375e-03
1.516219e-09,7.046875e-03
1.520219e-09,6.375000e-03
1.524219e-09,5.937500e-03
1.528219e-09,5.703125e-03
1.532219e-09,5.687500e-03
1.536219e-09,5.093750e-03
1.540219e-09,4.828125e-03
1.544219e-09,4.578125e-03
1.548219e-09,4.343750e-03
1.552219e-09,4.140625e-03
1.556219e-09,4.250000e-03
1.560219e-09,3.781250e-03
1.564219e-09,3.546875e-03
1.568219e-09,3.515625e-03
1.572219e-09,3.718750e-03
1.576219e-09,3.328125e-03
1.580219e-09,3.265625e-03
1.584219e-09,3.218750e-03
1.588219e-09,3.171875e-03
1.592219e-09,3.140625e-03
1.596219e-09,3.437500e-03
1.600219e-09,3.125000e-03
1.604219e-09,3.031250e-03
1.608219e-09,3.140625e-03
1.612219e-09,3.468750e-03
1.616219e-09,3.187500e-03
1.620219e-09,3.234375e-03
1.624219e-09,3.281250e-03
1.628219e-09,3.312500e-03
1.632219e-09,3.375000e-03
1.636219e-09,3.734375e-03
1.640219e-09,3.500000e-03
1.644219e-09,3.468750e-03
1.648219e-09,3.640625e-03
1.652219e-09,4.015625e-03
1.656219e-09,3.796875e-03
1.660219e-09,3.890625e-03
1.664219e-09,4.000000e-03
1.668219e-09,4.093750e-03
1.672219e-09,4.218750e-03
1.676219e-09,4.625000e-03
1.680219e-09,4.453125e-03
1.684219e-09,4.484375e-03
1.688219e-09,4.718750e-03
1.692219e-09,5.156250e-03
1.696219e-09,5.000000e-03
1.700219e-09,5.156250e-03
1.704219e-09,5.296875e-03
1.708219e-09,5.453125e-03
1.712219e-09,5.625000e-03
1.716219e-09,6.078125e-03
1.720219e-09,5.937500e-03
1.724219e-09,5.984375e-03
1.728219e-09,6.250000e-03
1.732219e-09,6.687500e-03
1.736219e-09,6.531250e-03
1.740219e-09,6.656250e-03
1.744219e-09,6.781250e-03
1.748219e-09,6.906250e-03
1.752219e-09,7.015625e-03
