Measurements-streak-laser-independent/Photodiode-on-Tek-6GHz/Tek000_ch1_20190613132820284.csv

Model,MSO64
Waveform Type,ANALOG
Horizontal Units,s
Sample Interval,4.000000e-12
Record Length,1000
Zero Index,310.039062
Vertical Units,V

TIME,CH1
-1.240156e-09,6.312500e-03
-1.236156e-09,6.921875e-03
-1.232156e-09,7.703125e-03
-1.228156e-09,7.859375e-03
-1.224156e-09,8.265625e-03
-1.220156e-09,8.625000e-03
-1.216156e-09,8.906250e-03
-1.212156e-09,9.140625e-03
-1.208156e-09,9.609375e-03
-1.204156e-09,9.375000e-03
-1.200156e-09,9.281250e-03
-1.196156e-09,9.312500e-03
-1.192156e-09,9.453125e-03
-1.188156e-09,8.921875e-03
-1.184156e-09,8.609375e-03
-1.180156e-09,8.250000e-03
-1.176156e-09,7.812500e-03
-1.172156e-09,7.328125e-03
-1.168156e-09,7.093750e-03
-1.164156e-09,6.234375e-03
-1.160156e-09,5.531250e-03
-1.156156e-09,5.031250e-03
-1.152156e-09,4.718750e-03
-1.148156e-09,3.796875e-03
-1.144156e-09,3.218750e-03
-1.140156e-09,2.656250e-03
-1.136156e-09,2.125000e-03
-1.132156e-09,1.640625e-03
-1.128156e-09,1.500000e-03
-1.124156e-09,8.281250e-04
-1.120156e-09,4.062500e-04
-1.116156e-09,2.656250e-04
-1.112156e-09,3.906250e-04
-1.108156e-09,-1.562500e-05
-1.104156e-09,-4.687500e-05
-1.100156e-09,-1.562500e-05
-1.096156e-09,9.375000e-05
-1.092156e-09,2.500000e-04
-1.088156e-09,7.812500e-04
-1.084156e-09,7.500000e-04
-1.080156e-09,9.531250e-04
-1.076156e-09,1.406250e-03
-1.072156e-09,2.078125e-03
-1.068156e-09,2.156250e-03
-1.064156e-09,2.546875e-03
-1.060156e-09,2.937500e-03
-1.056156e-09,3.328125e-03
-1.052156e-09,3.671875e-03
-1.048156e-09,4.312500e-03
-1.044156e-09,4.296875e-03
-1.040156e-09,4.437500e-03
-1.036156e-09,4.750000e-03
-1.032156e-09,5.203125e-03
-1.028156e-09,4.984375e-03
-1.024156e-09,5.015625e-03
-1.020156e-09,5.000000e-03
-1.016156e-09,4.906250e-03
-1.012156e-09,4.781250e-03
-1.008156e-09,4.890625e-03
-1.004156e-09,4.359375e-03
-1.000156e-09,3.968750e-03
-9.961563e-10,3.765625e-03
-9.921563e-10,3.734375e-03
-9.881563e-10,3.062500e-03
-9.841562e-10,2.687500e-03
-9.801562e-10,2.312500e-03
-9.761562e-10,1.953125e-03
-9.721562e-10,1.593750e-03
-9.681562e-10,1.562500e-03
-9.641562e-10,9.531250e-04
-9.601562e-10,5.937500e-04
-9.561562e-10,4.687500e-04
-9.521562e-10,6.093750e-04
-9.481563e-10,2.031250e-04
-9.441563e-10,1.406250e-04
-9.401563e-10,1.562500e-04
-9.361563e-10,2.187500e-04
-9.321563e-10,3.593750e-04
-9.281562e-10,8.437500e-04
-9.241562e-10,7.968750e-04
-9.201562e-10,1.000000e-03
-9.161563e-10,1.468750e-03
-9.121563e-10,2.171875e-03
-9.081562e-10,2.296875e-03
-9.041562e-10,2.781250e-03
-9.001562e-10,3.265625e-03
-8.961562e-10,3.781250e-03
-8.921562e-10,4.296875e-03
-8.881563e-10,5.125000e-03
-8.841563e-10,5.312500e-03
-8.801563e-10,5.718750e-03
-8.761562e-10,6.281250e-03
-8.721562e-10,7.015625e-03
-8.681562e-10,7.109375e-03
-8.641562e-10,7.468750e-03
-8.601562e-10,7.781250e-03
-8.561563e-10,8.031250e-03
-8.521563e-10,8.250000e-03
-8.481562e-10,8.703125e-03
-8.441562e-10,8.484375e-03
-8.401562e-10,8.421875e-03
-8.361562e-10,8.515625e-03
-8.321562e-10,8.750000e-03
-8.281563e-10,8.343750e-03
-8.241563e-10,8.187500e-03
-8.201563e-10,7.984375e-03
-8.161562e-10,7.765625e-03
-8.121562e-10,7.500000e-03
-8.081562e-10,7.515625e-03
-8.041562e-10,6.921875e-03
-8.001562e-10,6.515625e-03
-7.961563e-10,6.296875e-03
-7.921563e-10,6.281250e-03
-7.881562e-10,5.671875e-03
-7.841562e-10,5.359375e-03
-7.801562e-10,5.078125e-03
-7.761562e-10,4.812500e-03
-7.721562e-10,4.546875e-03
-7.681563e-10,4.625000e-03
-7.641563e-10,4.125000e-03
-7.601563e-10,3.843750e-03
-7.561562e-10,3.796875e-03
-7.521562e-10,3.968750e-03
-7.481562e-10,3.562500e-03
-7.441562e-10,3.484375e-03
-7.401562e-10,3.421875e-03
-7.361563e-10,3.390625e-03
-7.321563e-10,3.359375e-03
-7.281562e-10,3.656250e-03
-7.241562e-10,3.359375e-03
-7.201562e-10,3.265625e-03
-7.161562e-10,3.390625e-03
-7.121562e-10,3.703125e-03
-7.081563e-10,3.421875e-03
-7.041563e-10,3.453125e-03
-7.001563e-10,3.468750e-03
-6.961562e-10,3.484375e-03
-6.921562e-10,3.484375e-03
-6.881562e-10,3.796875e-03
-6.841562e-10,3.500000e-03
-6.801563e-10,3.406250e-03
-6.761563e-10,3.500000e-03
-6.721563e-10,3.812500e-03
-6.681562e-10,3.515625e-03
-6.641562e-10,3.515625e-03
-6.601562e-10,3.531250e-03
-6.561562e-10,3.562500e-03
-6.521562e-10,3.593750e-03
-6.481563e-10,3.968750e-03
-6.441563e-10,3.718750e-03
-6.401563e-10,3.718750e-03
-6.361562e-10,3.937500e-03
-6.321562e-10,4.375000e-03
-6.281562e-10,4.234375e-03
-6.241562e-10,4.406250e-03
-6.201563e-10,4.625000e-03
-6.161563e-10,4.843750e-03
-6.121563e-10,5.109375e-03
-6.081562e-10,5.671875e-03
-6.041562e-10,5.656250e-03
-6.001562e-10,5.859375e-03
-5.961562e-10,6.281250e-03
-5.921562e-10,6.890625e-03
-5.881563e-10,6.906250e-03
-5.841563e-10,7.218750e-03
-5.801563e-10,7.531250e-03
-5.761562e-10,7.812500e-03
-5.721562e-10,8.078125e-03
-5.681562e-10,8.625000e-03
-5.641562e-10,8.531250e-03
-5.601563e-10,8.609375e-03
-5.561563e-10,8.859375e-03
-5.521563e-10,9.250000e-03
-5.481562e-10,9.000000e-03
-5.441562e-10,9.000000e-03
-5.401562e-10,8.968750e-03
-5.361562e-10,8.875000e-03
-5.321562e-10,8.718750e-03
-5.281563e-10,8.843750e-03
-5.241563e-10,8.296875e-03
-5.201563e-10,7.921875e-03
-5.161562e-10,7.703125e-03
-5.121562e-10,7.656250e-03
-5.081562e-10,6.968750e-03
-5.041562e-10,6.562500e-03
-5.001563e-10,6.125000e-03
-4.961563e-10,5.687500e-03
-4.921563e-10,5.234375e-03
-4.881562e-10,5.093750e-03
-4.841562e-10,4.343750e-03
-4.801562e-10,3.812500e-03
-4.761562e-10,3.515625e-03
-4.721562e-10,3.437500e-03
-4.681563e-10,2.781250e-03
-4.641562e-10,2.468750e-03
-4.601562e-10,2.171875e-03
-4.561562e-10,1.921875e-03
-4.521563e-10,1.718750e-03
-4.481562e-10,1.875000e-03
-4.441562e-10,1.453125e-03
-4.401563e-10,1.296875e-03
-4.361563e-10,1.375000e-03
-4.321562e-10,1.703125e-03
-4.281562e-10,1.484375e-03
-4.241563e-10,1.593750e-03
-4.201562e-10,1.687500e-03
-4.161562e-10,1.843750e-03
-4.121562e-10,2.015625e-03
-4.081563e-10,2.515625e-03
-4.041562e-10,2.390625e-03
-4.001562e-10,2.500000e-03
-3.961562e-10,2.812500e-03
-3.921563e-10,3.328125e-03
-3.881562e-10,3.250000e-03
-3.841562e-10,3.437500e-03
-3.801563e-10,3.531250e-03
-3.761563e-10,3.640625e-03
-3.721562e-10,3.718750e-03
-3.681562e-10,4.078125e-03
-3.641563e-10,3.765625e-03
-3.601562e-10,3.640625e-03
-3.561562e-10,3.703125e-03
-3.521562e-10,3.921875e-03
-3.481563e-10,3.546875e-03
-3.441562e-10,3.421875e-03
-3.401562e-10,3.187500e-03
-3.361562e-10,2.937500e-03
-3.321563e-10,2.687500e-03
-3.281562e-10,2.750000e-03
-3.241562e-10,2.140625e-03
-3.201563e-10,1.765625e-03
-3.161563e-10,1.640625e-03
-3.121562e-10,1.671875e-03
-3.081562e-10,1.203125e-03
-3.041563e-10,1.015625e-03
-3.001562e-10,7.500000e-04
-2.961562e-10,5.156250e-04
-2.921562e-10,3.750000e-04
-2.881563e-10,5.625000e-04
-2.841562e-10,1.718750e-04
-2.801562e-10,3.125000e-05
-2.761562e-10,2.187500e-04
-2.721563e-10,5.937500e-04
-2.681562e-10,5.156250e-04
-2.641562e-10,7.656250e-04
-2.601563e-10,9.375000e-04
-2.561563e-10,1.109375e-03
-2.521562e-10,1.468750e-03
-2.481562e-10,2.093750e-03
-2.441563e-10,2.203125e-03
-2.401563e-10,2.500000e-03
-2.361562e-10,3.140625e-03
-2.321562e-10,3.906250e-03
-2.281562e-10,4.187500e-03
-2.241562e-10,4.781250e-03
-2.201562e-10,5.234375e-03
-2.161562e-10,5.625000e-03
-2.121562e-10,6.187500e-03
-2.081563e-10,6.906250e-03
-2.041562e-10,7.125000e-03
-2.001563e-10,7.406250e-03
-1.961562e-10,7.968750e-03
-1.921563e-10,8.609375e-03
-1.881562e-10,8.687500e-03
-1.841563e-10,9.031250e-03
-1.801562e-10,9.187500e-03
-1.761563e-10,9.218750e-03
-1.721562e-10,9.406250e-03
-1.681562e-10,9.640625e-03
-1.641562e-10,9.437500e-03
-1.601562e-10,9.203125e-03
-1.561563e-10,9.218750e-03
-1.521562e-10,9.328125e-03
-1.481563e-10,8.828125e-03
-1.441562e-10,8.593750e-03
-1.401563e-10,8.203125e-03
-1.361562e-10,7.687500e-03
-1.321563e-10,7.375000e-03
-1.281562e-10,7.125000e-03
-1.241563e-10,6.531250e-03
-1.201562e-10,5.937500e-03
-1.161562e-10,5.578125e-03
-1.121562e-10,5.453125e-03
-1.081562e-10,4.734375e-03
-1.041562e-10,4.359375e-03
-1.001562e-10,3.953125e-03
-9.615625e-11,3.531250e-03
-9.215625e-11,3.375000e-03
-8.815625e-11,3.375000e-03
-8.415625e-11,3.187500e-03
-8.015625e-11,3.109375e-03
-7.615625e-11,3.343750e-03
-7.215625e-11,3.953125e-03
-6.815625e-11,4.109375e-03
-6.415625e-11,4.687500e-03
-6.015625e-11,5.390625e-03
-5.615625e-11,6.265625e-03
-5.215625e-11,7.468750e-03
-4.815625e-11,9.031250e-03
-4.415625e-11,1.056250e-02
-4.015625e-11,1.232813e-02
-3.615625e-11,1.448438e-02
-3.215625e-11,1.721875e-02
-2.815625e-11,1.967188e-02
-2.415625e-11,2.262500e-02
-2.015625e-11,2.587500e-02
-1.615625e-11,2.945313e-02
-1.215625e-11,3.343750e-02
-8.156250e-12,3.800000e-02
-4.156250e-12,4.260938e-02
-1.562500e-13,4.762500e-02
3.843750e-12,5.309375e-02
7.843750e-12,5.923438e-02
1.184375e-11,6.528125e-02
1.584375e-11,7.185938e-02
1.984375e-11,7.882813e-02
2.384375e-11,8.621875e-02
2.784375e-11,9.403125e-02
3.184375e-11,1.025000e-01
3.584375e-11,1.110625e-01
3.984375e-11,1.200469e-01
4.384375e-11,1.294375e-01
4.784375e-11,1.394844e-01
5.184375e-11,1.494844e-01
5.584375e-11,1.599063e-01
5.984375e-11,1.706563e-01
6.384375e-11,1.817500e-01
6.784375e-11,1.931250e-01
7.184375e-11,2.050625e-01
7.584375e-11,2.169375e-01
7.984375e-11,2.290781e-01
8.384375e-11,2.414063e-01
8.784375e-11,2.541406e-01
9.184375e-11,2.667031e-01
9.584375e-11,2.793906e-01
9.984375e-11,2.921406e-01
1.038437e-10,3.049688e-01
1.078437e-10,3.177656e-01
1.118437e-10,3.308125e-01
1.158438e-10,3.435000e-01
1.198438e-10,3.561250e-01
1.238437e-10,3.685938e-01
1.278438e-10,3.810625e-01
1.318437e-10,3.930938e-01
1.358437e-10,4.048438e-01
1.398437e-10,4.163438e-01
1.438437e-10,4.275469e-01
1.478438e-10,4.383438e-01
1.518437e-10,4.490469e-01
1.558438e-10,4.590781e-01
1.598437e-10,4.687031e-01
1.638438e-10,4.778438e-01
1.678437e-10,4.866406e-01
1.718438e-10,4.947500e-01
1.758437e-10,5.023281e-01
1.798438e-10,5.093906e-01
1.838437e-10,5.159219e-01
1.878438e-10,5.218438e-01
1.918437e-10,5.273906e-01
1.958437e-10,5.321875e-01
1.998437e-10,5.364219e-01
2.038437e-10,5.400313e-01
2.078437e-10,5.432031e-01
2.118437e-10,5.455938e-01
2.158438e-10,5.474844e-01
2.198437e-10,5.488125e-01
2.238438e-10,5.496094e-01
2.278437e-10,5.498438e-01
2.318438e-10,5.496719e-01
2.358437e-10,5.488750e-01
2.398437e-10,5.476250e-01
2.438438e-10,5.458438e-01
2.478438e-10,5.437344e-01
2.518437e-10,5.409844e-01
2.558437e-10,5.379531e-01
2.598438e-10,5.345000e-01
2.638437e-10,5.307031e-01
2.678437e-10,5.265469e-01
2.718437e-10,5.221094e-01
2.758438e-10,5.172813e-01
2.798437e-10,5.122188e-01
2.838437e-10,5.068281e-01
2.878438e-10,5.013125e-01
2.918438e-10,4.953125e-01
2.958437e-10,4.893438e-01
2.998437e-10,4.830938e-01
3.038438e-10,4.767188e-01
3.078437e-10,4.701875e-01
3.118437e-10,4.635313e-01
3.158437e-10,4.566250e-01
3.198438e-10,4.497188e-01
3.238437e-10,4.426406e-01
3.278437e-10,4.355938e-01
3.318437e-10,4.281719e-01
3.358438e-10,4.209844e-01
3.398437e-10,4.136406e-01
3.438437e-10,4.063125e-01
3.478438e-10,3.989844e-01
3.518438e-10,3.916250e-01
3.558437e-10,3.840469e-01
3.598437e-10,3.766719e-01
3.638438e-10,3.692031e-01
3.678437e-10,3.618281e-01
3.718437e-10,3.542188e-01
3.758437e-10,3.469063e-01
3.798438e-10,3.395469e-01
3.838437e-10,3.322813e-01
3.878437e-10,3.251094e-01
3.918437e-10,3.180000e-01
3.958438e-10,3.106719e-01
3.998437e-10,3.036406e-01
4.038437e-10,2.966094e-01
4.078438e-10,2.897188e-01
4.118438e-10,2.826406e-01
4.158437e-10,2.759219e-01
4.198437e-10,2.692188e-01
4.238438e-10,2.626406e-01
4.278437e-10,2.562031e-01
4.318437e-10,2.499219e-01
4.358437e-10,2.433594e-01
4.398438e-10,2.371563e-01
4.438437e-10,2.310000e-01
4.478437e-10,2.249844e-01
4.518437e-10,2.188125e-01
4.558438e-10,2.129531e-01
4.598437e-10,2.071719e-01
4.638437e-10,2.015156e-01
4.678437e-10,1.959531e-01
4.718437e-10,1.906250e-01
4.758438e-10,1.849219e-01
4.798438e-10,1.795781e-01
4.838438e-10,1.743281e-01
4.878437e-10,1.691719e-01
4.918437e-10,1.638906e-01
4.958437e-10,1.588281e-01
4.998437e-10,1.539531e-01
5.038437e-10,1.491406e-01
5.078438e-10,1.444063e-01
5.118438e-10,1.399531e-01
5.158438e-10,1.351250e-01
5.198437e-10,1.306406e-01
5.238437e-10,1.263594e-01
5.278437e-10,1.221719e-01
5.318437e-10,1.178906e-01
5.358438e-10,1.138438e-01
5.398438e-10,1.100781e-01
5.438438e-10,1.064063e-01
5.478437e-10,1.028438e-01
5.518437e-10,9.965625e-02
5.558437e-10,9.614063e-02
5.598437e-10,9.298438e-02
5.638437e-10,9.015625e-02
5.678438e-10,8.748438e-02
5.718438e-10,8.475000e-02
5.758438e-10,8.229688e-02
5.798437e-10,8.018750e-02
5.838437e-10,7.820313e-02
5.878437e-10,7.631250e-02
5.918437e-10,7.482813e-02
5.958438e-10,7.301563e-02
5.998438e-10,7.153125e-02
6.038438e-10,7.040625e-02
6.078437e-10,6.942188e-02
6.118437e-10,6.826563e-02
6.158437e-10,6.732813e-02
6.198437e-10,6.668750e-02
6.238437e-10,6.604688e-02
6.278438e-10,6.539063e-02
6.318438e-10,6.501563e-02
6.358438e-10,6.420313e-02
6.398437e-10,6.356250e-02
6.438437e-10,6.315625e-02
6.478437e-10,6.276563e-02
6.518437e-10,6.200000e-02
6.558437e-10,6.131250e-02
6.598438e-10,6.075000e-02
6.638438e-10,6.006250e-02
6.678437e-10,5.917188e-02
6.718437e-10,5.845313e-02
6.758437e-10,5.714063e-02
6.798437e-10,5.589063e-02
6.838437e-10,5.478125e-02
6.878438e-10,5.365625e-02
6.918438e-10,5.200000e-02
6.958438e-10,5.040625e-02
6.998437e-10,4.889063e-02
7.038437e-10,4.725000e-02
7.078437e-10,4.540625e-02
7.118437e-10,4.375000e-02
7.158437e-10,4.156250e-02
7.198438e-10,3.950000e-02
7.238438e-10,3.765625e-02
7.278437e-10,3.592188e-02
7.318437e-10,3.373438e-02
7.358437e-10,3.178125e-02
7.398437e-10,2.998438e-02
7.438437e-10,2.823438e-02
7.478438e-10,2.643750e-02
7.518438e-10,2.500000e-02
7.558438e-10,2.315625e-02
7.598437e-10,2.159375e-02
7.638437e-10,2.039063e-02
7.678437e-10,1.948438e-02
7.718437e-10,1.818750e-02
7.758437e-10,1.729688e-02
7.798438e-10,1.660938e-02
7.838438e-10,1.607813e-02
7.878437e-10,1.557813e-02
7.918437e-10,1.550000e-02
7.958437e-10,1.503125e-02
7.998437e-10,1.485938e-02
8.038437e-10,1.504688e-02
8.078438e-10,1.550000e-02
8.118438e-10,1.550000e-02
8.158438e-10,1.585938e-02
8.198437e-10,1.632813e-02
8.238437e-10,1.685938e-02
8.278437e-10,1.734375e-02
8.318437e-10,1.810938e-02
8.358437e-10,1.837500e-02
8.398438e-10,1.879688e-02
8.438438e-10,1.943750e-02
8.478437e-10,2.021875e-02
8.518437e-10,2.039063e-02
8.558437e-10,2.079688e-02
8.598437e-10,2.118750e-02
8.638437e-10,2.150000e-02
8.678438e-10,2.168750e-02
8.718438e-10,2.207813e-02
8.758438e-10,2.184375e-02
8.798437e-10,2.170313e-02
8.838437e-10,2.171875e-02
8.878437e-10,2.184375e-02
8.918437e-10,2.132813e-02
8.958437e-10,2.104688e-02
8.998438e-10,2.073438e-02
9.038438e-10,2.037500e-02
9.078437e-10,1.992188e-02
9.118437e-10,1.971875e-02
9.158437e-10,1.895313e-02
9.198437e-10,1.834375e-02
9.238437e-10,1.795313e-02
9.278438e-10,1.776563e-02
9.318437e-10,1.700000e-02
9.358437e-10,1.654688e-02
9.398437e-10,1.614063e-02
9.438438e-10,1.578125e-02
9.478438e-10,1.542188e-02
9.518438e-10,1.539063e-02
9.558438e-10,1.484375e-02
9.598438e-10,1.451563e-02
9.638438e-10,1.445313e-02
9.678437e-10,1.464063e-02
9.718437e-10,1.428125e-02
9.758437e-10,1.425000e-02
9.798437e-10,1.426563e-02
9.838437e-10,1.434375e-02
9.878437e-10,1.439063e-02
9.918437e-10,1.478125e-02
9.958437e-10,1.459375e-02
9.998437e-10,1.462500e-02
1.003844e-09,1.487500e-02
1.007844e-09,1.531250e-02
1.011844e-09,1.515625e-02
1.015844e-09,1.528125e-02
1.019844e-09,1.540625e-02
1.023844e-09,1.553125e-02
1.027844e-09,1.560938e-02
1.031844e-09,1.595313e-02
1.035844e-09,1.571875e-02
1.039844e-09,1.562500e-02
1.043844e-09,1.573438e-02
1.047844e-09,1.600000e-02
1.051844e-09,1.567188e-02
1.055844e-09,1.560938e-02
1.059844e-09,1.556250e-02
1.063844e-09,1.548438e-02
1.067844e-09,1.539063e-02
1.071844e-09,1.559375e-02
1.075844e-09,1.521875e-02
1.079844e-09,1.503125e-02
1.083844e-09,1.506250e-02
1.087844e-09,1.531250e-02
1.091844e-09,1.498438e-02
1.095844e-09,1.496875e-02
1.099844e-09,1.498438e-02
1.103844e-09,1.501563e-02
1.107844e-09,1.507813e-02
1.111844e-09,1.545313e-02
1.115844e-09,1.528125e-02
1.119844e-09,1.532813e-02
1.123844e-09,1.559375e-02
1.127844e-09,1.607813e-02
1.131844e-09,1.600000e-02
1.135844e-09,1.623438e-02
1.139844e-09,1.648438e-02
1.143844e-09,1.673438e-02
1.147844e-09,1.700000e-02
1.151844e-09,1.754688e-02
1.155844e-09,1.750000e-02
1.159844e-09,1.764063e-02
1.163844e-09,1.798438e-02
1.167844e-09,1.848438e-02
1.171844e-09,1.839063e-02
1.175844e-09,1.856250e-02
1.179844e-09,1.870313e-02
1.183844e-09,1.884375e-02
1.187844e-09,1.892188e-02
1.191844e-09,1.928125e-02
1.195844e-09,1.901563e-02
1.199844e-09,1.892188e-02
1.203844e-09,1.898438e-02
1.207844e-09,1.923438e-02
1.211844e-09,1.887500e-02
1.215844e-09,1.878125e-02
1.219844e-09,1.868750e-02
1.223844e-09,1.857813e-02
1.227844e-09,1.845313e-02
1.231844e-09,1.862500e-02
1.235844e-09,1.820313e-02
1.239844e-09,1.798438e-02
1.243844e-09,1.796875e-02
1.247844e-09,1.817188e-02
1.251844e-09,1.778125e-02
1.255844e-09,1.771875e-02
1.259844e-09,1.768750e-02
1.263844e-09,1.765625e-02
1.267844e-09,1.765625e-02
1.271844e-09,1.796875e-02
1.275844e-09,1.770313e-02
1.279844e-09,1.764063e-02
1.283844e-09,1.781250e-02
1.287844e-09,1.817188e-02
1.291844e-09,1.795313e-02
1.295844e-09,1.803125e-02
1.299844e-09,1.812500e-02
1.303844e-09,1.818750e-02
1.307844e-09,1.825000e-02
1.311844e-09,1.859375e-02
1.315844e-09,1.831250e-02
1.319844e-09,1.820313e-02
1.323844e-09,1.826563e-02
1.327844e-09,1.848438e-02
1.331844e-09,1.806250e-02
1.335844e-09,1.790625e-02
1.339844e-09,1.770313e-02
1.343844e-09,1.745313e-02
1.347844e-09,1.715625e-02
1.351844e-09,1.710938e-02
1.355844e-09,1.643750e-02
1.359844e-09,1.592188e-02
1.363844e-09,1.556250e-02
1.367844e-09,1.537500e-02
1.371844e-09,1.456250e-02
1.375844e-09,1.403125e-02
1.379844e-09,1.350000e-02
1.383844e-09,1.295313e-02
1.387844e-09,1.240625e-02
1.391844e-09,1.215625e-02
1.395844e-09,1.134375e-02
1.399844e-09,1.075000e-02
1.403844e-09,1.039063e-02
1.407844e-09,1.026563e-02
1.411844e-09,9.593750e-03
1.415844e-09,9.281250e-03
1.419844e-09,9.015625e-03
1.423844e-09,8.812500e-03
1.427844e-09,8.671875e-03
1.431844e-09,8.890625e-03
1.435844e-09,8.578125e-03
1.439844e-09,8.531250e-03
1.443844e-09,8.750000e-03
1.447844e-09,9.218750e-03
1.451844e-09,9.156250e-03
1.455844e-09,9.453125e-03
1.459844e-09,9.781250e-03
1.463844e-09,1.015625e-02
1.467844e-09,1.056250e-02
1.471844e-09,1.129688e-02
1.475844e-09,1.143750e-02
1.479844e-09,1.179688e-02
1.483844e-09,1.234375e-02
1.487844e-09,1.307813e-02
1.491844e-09,1.318750e-02
1.495844e-09,1.356250e-02
1.499844e-09,1.392188e-02
1.503844e-09,1.421875e-02
1.507844e-09,1.446875e-02
1.511844e-09,1.496875e-02
1.515844e-09,1.479688e-02
1.519844e-09,1.475000e-02
1.523844e-09,1.484375e-02
1.527844e-09,1.507813e-02
1.531844e-09,1.462500e-02
1.535844e-09,1.440625e-02
1.539844e-09,1.412500e-02
1.543844e-09,1.378125e-02
1.547844e-09,1.337500e-02
1.551844e-09,1.321875e-02
1.555844e-09,1.240625e-02
1.559844e-09,1.175000e-02
1.563844e-09,1.126563e-02
1.567844e-09,1.093750e-02
1.571844e-09,1.000000e-02
1.575844e-09,9.343750e-03
1.579844e-09,8.703125e-03
1.583844e-09,8.046875e-03
1.587844e-09,7.406250e-03
1.591844e-09,7.093750e-03
1.595844e-09,6.187500e-03
1.599844e-09,5.531250e-03
1.603844e-09,5.093750e-03
1.607844e-09,4.906250e-03
1.611844e-09,4.171875e-03
1.615844e-09,3.781250e-03
1.619844e-09,3.437500e-03
1.623844e-09,3.140625e-03
1.627844e-09,2.890625e-03
1.631844e-09,3.000000e-03
1.635844e-09,2.546875e-03
1.639844e-09,2.343750e-03
1.643844e-09,2.406250e-03
1.647844e-09,2.687500e-03
1.651844e-09,2.421875e-03
1.655844e-09,2.484375e-03
1.659844e-09,2.578125e-03
1.663844e-09,2.687500e-03
1.667844e-09,2.828125e-03
1.671844e-09,3.296875e-03
1.675844e-09,3.156250e-03
1.679844e-09,3.234375e-03
1.683844e-09,3.531250e-03
1.687844e-09,4.015625e-03
1.691844e-09,3.906250e-03
1.695844e-09,4.093750e-03
1.699844e-09,4.281250e-03
1.703844e-09,4.453125e-03
1.707844e-09,4.609375e-03
1.711844e-09,5.062500e-03
1.715844e-09,4.906250e-03
1.719844e-09,4.937500e-03
1.723844e-09,5.171875e-03
1.727844e-09,5.578125e-03
1.731844e-09,5.375000e-03
1.735844e-09,5.468750e-03
1.739844e-09,5.562500e-03
1.743844e-09,5.625000e-03
1.747844e-09,5.687500e-03
1.751844e-09,6.046875e-03
1.755844e-09,5.781250e-03
1.759844e-09,5.718750e-03
