Measurements-streak-laser-independent/Photodiode-on-Tek-6GHz/Tek000_ch1_20190613132811961.csv

Model,MSO64
Waveform Type,ANALOG
Horizontal Units,s
Sample Interval,4.000000e-12
Record Length,1000
Zero Index,310.335938
Vertical Units,V

TIME,CH1
-1.241344e-09,1.114063e-02
-1.237344e-09,1.150000e-02
-1.233344e-09,1.203125e-02
-1.229344e-09,1.270313e-02
-1.225344e-09,1.271875e-02
-1.221344e-09,1.298438e-02
-1.217344e-09,1.318750e-02
-1.213344e-09,1.332813e-02
-1.209344e-09,1.340625e-02
-1.205344e-09,1.371875e-02
-1.201344e-09,1.337500e-02
-1.197344e-09,1.317188e-02
-1.193344e-09,1.310938e-02
-1.189344e-09,1.320313e-02
-1.185344e-09,1.262500e-02
-1.181344e-09,1.231250e-02
-1.177344e-09,1.196875e-02
-1.173344e-09,1.157813e-02
-1.169344e-09,1.115625e-02
-1.165344e-09,1.101563e-02
-1.161344e-09,1.026563e-02
-1.157344e-09,9.687500e-03
-1.153344e-09,9.312500e-03
-1.149344e-09,9.156250e-03
-1.145344e-09,8.390625e-03
-1.141344e-09,7.937500e-03
-1.137344e-09,7.515625e-03
-1.133344e-09,7.109375e-03
-1.129344e-09,6.734375e-03
-1.125344e-09,6.687500e-03
-1.121344e-09,6.078125e-03
-1.117344e-09,5.718750e-03
-1.113344e-09,5.578125e-03
-1.109344e-09,5.703125e-03
-1.105344e-09,5.250000e-03
-1.101344e-09,5.156250e-03
-1.097344e-09,5.109375e-03
-1.093344e-09,5.093750e-03
-1.089344e-09,5.109375e-03
-1.085344e-09,5.468750e-03
-1.081344e-09,5.265625e-03
-1.077344e-09,5.296875e-03
-1.073344e-09,5.546875e-03
-1.069344e-09,6.031250e-03
-1.065344e-09,5.921875e-03
-1.061344e-09,6.140625e-03
-1.057344e-09,6.359375e-03
-1.053344e-09,6.593750e-03
-1.049344e-09,6.828125e-03
-1.045344e-09,7.359375e-03
-1.041344e-09,7.281250e-03
-1.037344e-09,7.390625e-03
-1.033344e-09,7.687500e-03
-1.029344e-09,8.171875e-03
-1.025344e-09,8.031250e-03
-1.021344e-09,8.171875e-03
-1.017344e-09,8.281250e-03
-1.013344e-09,8.359375e-03
-1.009344e-09,8.406250e-03
-1.005344e-09,8.718750e-03
-1.001344e-09,8.390625e-03
-9.973437e-10,8.234375e-03
-9.933437e-10,8.250000e-03
-9.893437e-10,8.421875e-03
-9.853437e-10,7.968750e-03
-9.813438e-10,7.781250e-03
-9.773438e-10,7.546875e-03
-9.733438e-10,7.296875e-03
-9.693438e-10,7.015625e-03
-9.653438e-10,7.015625e-03
-9.613438e-10,6.390625e-03
-9.573438e-10,5.937500e-03
-9.533437e-10,5.671875e-03
-9.493437e-10,5.593750e-03
-9.453437e-10,4.906250e-03
-9.413437e-10,4.515625e-03
-9.373437e-10,4.125000e-03
-9.333437e-10,3.718750e-03
-9.293437e-10,3.343750e-03
-9.253437e-10,3.265625e-03
-9.213438e-10,2.593750e-03
-9.173438e-10,2.156250e-03
-9.133438e-10,1.921875e-03
-9.093437e-10,1.921875e-03
-9.053437e-10,1.343750e-03
-9.013437e-10,1.109375e-03
-8.973437e-10,8.906250e-04
-8.933437e-10,7.187500e-04
-8.893438e-10,5.937500e-04
-8.853438e-10,8.125000e-04
-8.813437e-10,4.531250e-04
-8.773437e-10,3.437500e-04
-8.733437e-10,4.843750e-04
-8.693437e-10,8.593750e-04
-8.653437e-10,6.875000e-04
-8.613438e-10,8.593750e-04
-8.573438e-10,1.062500e-03
-8.533438e-10,1.328125e-03
-8.493437e-10,1.609375e-03
-8.453437e-10,2.234375e-03
-8.413437e-10,2.296875e-03
-8.373437e-10,2.578125e-03
-8.333437e-10,3.093750e-03
-8.293438e-10,3.828125e-03
-8.253438e-10,3.968750e-03
-8.213437e-10,4.421875e-03
-8.173437e-10,4.890625e-03
-8.133437e-10,5.343750e-03
-8.093437e-10,5.796875e-03
-8.053437e-10,6.546875e-03
-8.013438e-10,6.671875e-03
-7.973438e-10,6.984375e-03
-7.933438e-10,7.453125e-03
-7.893437e-10,8.109375e-03
-7.853437e-10,8.109375e-03
-7.813437e-10,8.375000e-03
-7.773437e-10,8.609375e-03
-7.733437e-10,8.781250e-03
-7.693438e-10,8.890625e-03
-7.653438e-10,9.265625e-03
-7.613437e-10,8.984375e-03
-7.573437e-10,8.828125e-03
-7.533437e-10,8.843750e-03
-7.493437e-10,8.984375e-03
-7.453437e-10,8.484375e-03
-7.413438e-10,8.218750e-03
-7.373438e-10,7.921875e-03
-7.333438e-10,7.562500e-03
-7.293437e-10,7.187500e-03
-7.253437e-10,7.062500e-03
-7.213437e-10,6.296875e-03
-7.173437e-10,5.718750e-03
-7.133437e-10,5.328125e-03
-7.093438e-10,5.125000e-03
-7.053438e-10,4.312500e-03
-7.013438e-10,3.796875e-03
-6.973437e-10,3.296875e-03
-6.933437e-10,2.828125e-03
-6.893437e-10,2.359375e-03
-6.853437e-10,2.234375e-03
-6.813438e-10,1.546875e-03
-6.773438e-10,1.093750e-03
-6.733438e-10,8.750000e-04
-6.693437e-10,9.375000e-04
-6.653437e-10,4.375000e-04
-6.613437e-10,2.968750e-04
-6.573437e-10,2.187500e-04
-6.533437e-10,2.031250e-04
-6.493438e-10,2.343750e-04
-6.453438e-10,6.562500e-04
-6.413438e-10,5.156250e-04
-6.373437e-10,6.406250e-04
-6.333437e-10,1.015625e-03
-6.293437e-10,1.656250e-03
-6.253437e-10,1.734375e-03
-6.213438e-10,2.171875e-03
-6.173438e-10,2.625000e-03
-6.133438e-10,3.125000e-03
-6.093437e-10,3.640625e-03
-6.053437e-10,4.484375e-03
-6.013437e-10,4.718750e-03
-5.973437e-10,5.171875e-03
-5.933437e-10,5.812500e-03
-5.893438e-10,6.656250e-03
-5.853438e-10,6.859375e-03
-5.813438e-10,7.343750e-03
-5.773437e-10,7.812500e-03
-5.733437e-10,8.218750e-03
-5.693437e-10,8.593750e-03
-5.653437e-10,9.234375e-03
-5.613438e-10,9.203125e-03
-5.573438e-10,9.328125e-03
-5.533438e-10,9.593750e-03
-5.493437e-10,1.001563e-02
-5.453437e-10,9.750000e-03
-5.413437e-10,9.750000e-03
-5.373437e-10,9.671875e-03
-5.333437e-10,9.546875e-03
-5.293438e-10,9.375000e-03
-5.253438e-10,9.453125e-03
-5.213438e-10,8.875000e-03
-5.173437e-10,8.468750e-03
-5.133437e-10,8.234375e-03
-5.093437e-10,8.156250e-03
-5.053437e-10,7.468750e-03
-5.013438e-10,7.062500e-03
-4.973438e-10,6.625000e-03
-4.933438e-10,6.203125e-03
-4.893437e-10,5.781250e-03
-4.853437e-10,5.687500e-03
-4.813437e-10,4.984375e-03
-4.773437e-10,4.515625e-03
-4.733437e-10,4.281250e-03
-4.693438e-10,4.281250e-03
-4.653437e-10,3.703125e-03
-4.613437e-10,3.484375e-03
-4.573438e-10,3.296875e-03
-4.533438e-10,3.171875e-03
-4.493437e-10,3.078125e-03
-4.453437e-10,3.343750e-03
-4.413438e-10,3.046875e-03
-4.373437e-10,3.015625e-03
-4.333437e-10,3.234375e-03
-4.293437e-10,3.687500e-03
-4.253438e-10,3.609375e-03
-4.213437e-10,3.859375e-03
-4.173437e-10,4.109375e-03
-4.133437e-10,4.406250e-03
-4.093438e-10,4.734375e-03
-4.053437e-10,5.390625e-03
-4.013437e-10,5.437500e-03
-3.973438e-10,5.703125e-03
-3.933438e-10,6.171875e-03
-3.893437e-10,6.843750e-03
-3.853437e-10,6.921875e-03
-3.813438e-10,7.265625e-03
-3.773437e-10,7.546875e-03
-3.733437e-10,7.812500e-03
-3.693437e-10,8.062500e-03
-3.653438e-10,8.562500e-03
-3.613437e-10,8.406250e-03
-3.573437e-10,8.421875e-03
-3.533437e-10,8.609375e-03
-3.493438e-10,8.921875e-03
-3.453437e-10,8.593750e-03
-3.413437e-10,8.515625e-03
-3.373438e-10,8.343750e-03
-3.333438e-10,8.109375e-03
-3.293437e-10,7.843750e-03
-3.253437e-10,7.828125e-03
-3.213438e-10,7.156250e-03
-3.173438e-10,6.625000e-03
-3.133437e-10,6.296875e-03
-3.093437e-10,6.109375e-03
-3.053438e-10,5.312500e-03
-3.013437e-10,4.796875e-03
-2.973437e-10,4.203125e-03
-2.933437e-10,3.593750e-03
-2.893438e-10,3.015625e-03
-2.853437e-10,2.718750e-03
-2.813437e-10,1.843750e-03
-2.773438e-10,1.156250e-03
-2.733438e-10,7.343750e-04
-2.693437e-10,5.000000e-04
-2.653437e-10,-2.500000e-04
-2.613438e-10,-6.718750e-04
-2.573438e-10,-1.109375e-03
-2.533437e-10,-1.515625e-03
-2.493437e-10,-1.812500e-03
-2.453438e-10,-1.781250e-03
-2.413437e-10,-2.265625e-03
-2.373437e-10,-2.515625e-03
-2.333437e-10,-2.453125e-03
-2.293437e-10,-2.171875e-03
-2.253438e-10,-2.390625e-03
-2.213437e-10,-2.234375e-03
-2.173438e-10,-2.078125e-03
-2.133437e-10,-1.890625e-03
-2.093438e-10,-1.562500e-03
-2.053437e-10,-9.531250e-04
-2.013438e-10,-8.125000e-04
-1.973437e-10,-5.000000e-04
-1.933438e-10,1.093750e-04
-1.893437e-10,9.218750e-04
-1.853437e-10,1.171875e-03
-1.813437e-10,1.750000e-03
-1.773437e-10,2.296875e-03
-1.733437e-10,2.812500e-03
-1.693437e-10,3.437500e-03
-1.653438e-10,4.265625e-03
-1.613437e-10,4.578125e-03
-1.573438e-10,5.015625e-03
-1.533437e-10,5.640625e-03
-1.493438e-10,6.437500e-03
-1.453437e-10,6.609375e-03
-1.413438e-10,7.046875e-03
-1.373437e-10,7.437500e-03
-1.333438e-10,7.734375e-03
-1.293437e-10,8.093750e-03
-1.253438e-10,8.640625e-03
-1.213437e-10,8.671875e-03
-1.173437e-10,8.781250e-03
-1.133437e-10,9.078125e-03
-1.093438e-10,9.578125e-03
-1.053438e-10,9.453125e-03
-1.013438e-10,9.609375e-03
-9.734375e-11,9.765625e-03
-9.334375e-11,9.921875e-03
-8.934375e-11,1.015625e-02
-8.534375e-11,1.065625e-02
-8.134375e-11,1.075000e-02
-7.734375e-11,1.101563e-02
-7.334375e-11,1.153125e-02
-6.934375e-11,1.237500e-02
-6.534375e-11,1.273438e-02
-6.134375e-11,1.346875e-02
-5.734375e-11,1.432813e-02
-5.334375e-11,1.532813e-02
-4.934375e-11,1.651563e-02
-4.534375e-11,1.814063e-02
-4.134375e-11,1.946875e-02
-3.734375e-11,2.110938e-02
-3.334375e-11,2.310938e-02
-2.934375e-11,2.554688e-02
-2.534375e-11,2.765625e-02
-2.134375e-11,3.020313e-02
-1.734375e-11,3.298438e-02
-1.334375e-11,3.600000e-02
-9.343750e-12,3.923438e-02
-5.343750e-12,4.300000e-02
-1.343750e-12,4.648438e-02
2.656250e-12,5.034375e-02
6.656250e-12,5.453125e-02
1.065625e-11,5.915625e-02
1.465625e-11,6.345313e-02
1.865625e-11,6.814063e-02
2.265625e-11,7.300000e-02
2.665625e-11,7.803125e-02
3.065625e-11,8.318750e-02
3.465625e-11,8.878125e-02
3.865625e-11,9.398438e-02
4.265625e-11,9.942188e-02
4.665625e-11,1.050469e-01
5.065625e-11,1.109375e-01
5.465625e-11,1.163750e-01
5.865625e-11,1.220156e-01
6.265625e-11,1.276563e-01
6.665625e-11,1.332656e-01
7.065625e-11,1.388281e-01
7.465625e-11,1.446250e-01
7.865625e-11,1.498438e-01
8.265625e-11,1.551094e-01
8.665625e-11,1.603750e-01
9.065625e-11,1.656875e-01
9.465625e-11,1.704063e-01
9.865625e-11,1.751250e-01
1.026563e-10,1.796875e-01
1.066563e-10,1.840781e-01
1.106563e-10,1.882500e-01
1.146563e-10,1.925000e-01
1.186563e-10,1.960781e-01
1.226562e-10,1.995781e-01
1.266562e-10,2.029688e-01
1.306562e-10,2.062969e-01
1.346562e-10,2.089688e-01
1.386563e-10,2.115938e-01
1.426562e-10,2.140000e-01
1.466563e-10,2.161719e-01
1.506562e-10,2.181094e-01
1.546563e-10,2.200938e-01
1.586562e-10,2.214063e-01
1.626563e-10,2.226250e-01
1.666562e-10,2.237500e-01
1.706563e-10,2.248438e-01
1.746562e-10,2.252813e-01
1.786563e-10,2.257500e-01
1.826562e-10,2.260000e-01
1.866562e-10,2.260938e-01
1.906562e-10,2.259844e-01
1.946562e-10,2.259375e-01
1.986563e-10,2.253125e-01
2.026562e-10,2.246719e-01
2.066563e-10,2.239688e-01
2.106562e-10,2.232813e-01
2.146563e-10,2.220156e-01
2.186562e-10,2.208438e-01
2.226563e-10,2.195313e-01
2.266562e-10,2.181094e-01
2.306563e-10,2.165469e-01
2.346562e-10,2.150938e-01
2.386562e-10,2.131094e-01
2.426563e-10,2.111719e-01
2.466562e-10,2.092188e-01
2.506562e-10,2.073438e-01
2.546562e-10,2.049063e-01
2.586563e-10,2.026563e-01
2.626562e-10,2.002813e-01
2.666562e-10,1.978438e-01
2.706563e-10,1.953281e-01
2.746563e-10,1.929063e-01
2.786562e-10,1.900000e-01
2.826562e-10,1.871875e-01
2.866563e-10,1.844063e-01
2.906563e-10,1.817188e-01
2.946562e-10,1.784844e-01
2.986562e-10,1.754844e-01
3.026563e-10,1.723906e-01
3.066562e-10,1.692500e-01
3.106562e-10,1.660938e-01
3.146562e-10,1.630469e-01
3.186563e-10,1.595156e-01
3.226562e-10,1.561250e-01
3.266562e-10,1.527969e-01
3.306563e-10,1.495938e-01
3.346563e-10,1.458594e-01
3.386562e-10,1.424063e-01
3.426562e-10,1.388906e-01
3.466563e-10,1.353906e-01
3.506563e-10,1.318750e-01
3.546562e-10,1.285469e-01
3.586562e-10,1.247188e-01
3.626563e-10,1.211094e-01
3.666562e-10,1.176094e-01
3.706562e-10,1.142656e-01
3.746562e-10,1.104531e-01
3.786563e-10,1.069531e-01
3.826562e-10,1.034688e-01
3.866562e-10,1.000313e-01
3.906563e-10,9.664063e-02
3.946563e-10,9.351563e-02
3.986562e-10,8.992188e-02
4.026562e-10,8.662500e-02
4.066563e-10,8.350000e-02
4.106563e-10,8.057813e-02
4.146562e-10,7.728125e-02
4.186562e-10,7.434375e-02
4.226563e-10,7.148438e-02
4.266562e-10,6.875000e-02
4.306562e-10,6.610938e-02
4.346562e-10,6.381250e-02
4.386563e-10,6.109375e-02
4.426562e-10,5.870313e-02
4.466562e-10,5.657813e-02
4.506562e-10,5.468750e-02
4.546563e-10,5.248438e-02
4.586562e-10,5.064063e-02
4.626562e-10,4.895313e-02
4.666562e-10,4.739063e-02
4.706562e-10,4.595313e-02
4.746563e-10,4.490625e-02
4.786563e-10,4.340625e-02
4.826563e-10,4.223438e-02
4.866562e-10,4.134375e-02
4.906562e-10,4.068750e-02
4.946562e-10,3.967188e-02
4.986562e-10,3.898438e-02
5.026562e-10,3.843750e-02
5.066563e-10,3.795313e-02
5.106563e-10,3.753125e-02
5.146563e-10,3.743750e-02
5.186562e-10,3.684375e-02
5.226562e-10,3.650000e-02
5.266562e-10,3.637500e-02
5.306562e-10,3.640625e-02
5.346563e-10,3.598438e-02
5.386563e-10,3.578125e-02
5.426563e-10,3.567188e-02
5.466562e-10,3.553125e-02
5.506562e-10,3.532813e-02
5.546562e-10,3.540625e-02
5.586562e-10,3.487500e-02
5.626562e-10,3.450000e-02
5.666563e-10,3.431250e-02
5.706563e-10,3.418750e-02
5.746563e-10,3.353125e-02
5.786562e-10,3.306250e-02
5.826562e-10,3.260938e-02
5.866562e-10,3.209375e-02
5.906562e-10,3.146875e-02
5.946563e-10,3.109375e-02
5.986563e-10,3.009375e-02
6.026563e-10,2.925000e-02
6.066562e-10,2.857813e-02
6.106562e-10,2.801563e-02
6.146562e-10,2.690625e-02
6.186562e-10,2.600000e-02
6.226562e-10,2.515625e-02
6.266563e-10,2.428125e-02
6.306563e-10,2.332813e-02
6.346563e-10,2.267188e-02
6.386562e-10,2.145313e-02
6.426562e-10,2.043750e-02
6.466562e-10,1.965625e-02
6.506562e-10,1.904688e-02
6.546563e-10,1.792188e-02
6.586563e-10,1.709375e-02
6.626563e-10,1.634375e-02
6.666562e-10,1.564063e-02
6.706562e-10,1.490625e-02
6.746562e-10,1.451563e-02
6.786562e-10,1.360938e-02
6.826562e-10,1.292188e-02
6.866563e-10,1.251563e-02
6.906563e-10,1.231250e-02
6.946563e-10,1.162500e-02
6.986562e-10,1.123438e-02
7.026562e-10,1.092188e-02
7.066562e-10,1.065625e-02
7.106562e-10,1.037500e-02
7.146563e-10,1.042188e-02
7.186563e-10,9.937500e-03
7.226563e-10,9.671875e-03
7.266562e-10,9.656250e-03
7.306562e-10,9.843750e-03
7.346562e-10,9.468750e-03
7.386562e-10,9.406250e-03
7.426562e-10,9.375000e-03
7.466563e-10,9.359375e-03
7.506563e-10,9.296875e-03
7.546563e-10,9.546875e-03
7.586562e-10,9.218750e-03
7.626562e-10,9.078125e-03
7.666562e-10,9.156250e-03
7.706562e-10,9.437500e-03
7.746563e-10,9.109375e-03
7.786563e-10,9.093750e-03
7.826563e-10,9.078125e-03
7.866562e-10,9.062500e-03
7.906562e-10,9.015625e-03
7.946562e-10,9.250000e-03
7.986562e-10,8.906250e-03
8.026562e-10,8.750000e-03
8.066563e-10,8.812500e-03
8.106563e-10,9.078125e-03
8.146563e-10,8.734375e-03
8.186562e-10,8.703125e-03
8.226562e-10,8.671875e-03
8.266562e-10,8.656250e-03
8.306562e-10,8.609375e-03
8.346562e-10,8.859375e-03
8.386563e-10,8.531250e-03
8.426563e-10,8.390625e-03
8.466562e-10,8.468750e-03
8.506562e-10,8.734375e-03
8.546562e-10,8.406250e-03
8.586562e-10,8.375000e-03
8.626562e-10,8.328125e-03
8.666563e-10,8.296875e-03
8.706563e-10,8.250000e-03
8.746563e-10,8.468750e-03
8.786562e-10,8.109375e-03
8.826562e-10,7.921875e-03
8.866562e-10,7.937500e-03
8.906562e-10,8.125000e-03
8.946562e-10,7.718750e-03
8.986563e-10,7.578125e-03
9.026563e-10,7.437500e-03
9.066562e-10,7.296875e-03
9.106562e-10,7.109375e-03
9.146562e-10,7.218750e-03
9.186562e-10,6.718750e-03
9.226562e-10,6.406250e-03
9.266563e-10,6.296875e-03
9.306563e-10,6.375000e-03
9.346563e-10,5.843750e-03
9.386562e-10,5.593750e-03
9.426562e-10,5.375000e-03
9.466562e-10,5.140625e-03
9.506562e-10,4.906250e-03
9.546562e-10,4.968750e-03
9.586562e-10,4.453125e-03
9.626562e-10,4.140625e-03
9.666562e-10,4.046875e-03
9.706563e-10,4.171875e-03
9.746563e-10,3.703125e-03
9.786563e-10,3.578125e-03
9.826563e-10,3.468750e-03
9.866563e-10,3.375000e-03
9.906563e-10,3.312500e-03
9.946562e-10,3.562500e-03
9.986562e-10,3.250000e-03
1.002656e-09,3.171875e-03
1.006656e-09,3.312500e-03
1.010656e-09,3.703125e-03
1.014656e-09,3.500000e-03
1.018656e-09,3.625000e-03
1.022656e-09,3.796875e-03
1.026656e-09,3.968750e-03
1.030656e-09,4.171875e-03
1.034656e-09,4.703125e-03
1.038656e-09,4.640625e-03
1.042656e-09,4.796875e-03
1.046656e-09,5.187500e-03
1.050656e-09,5.781250e-03
1.054656e-09,5.781250e-03
1.058656e-09,6.078125e-03
1.062656e-09,6.406250e-03
1.066656e-09,6.718750e-03
1.070656e-09,7.031250e-03
1.074656e-09,7.656250e-03
1.078656e-09,7.671875e-03
1.082656e-09,7.875000e-03
1.086656e-09,8.281250e-03
1.090656e-09,8.875000e-03
1.094656e-09,8.859375e-03
1.098656e-09,9.140625e-03
1.102656e-09,9.390625e-03
1.106656e-09,9.640625e-03
1.110656e-09,9.875000e-03
1.114656e-09,1.040625e-02
1.118656e-09,1.029688e-02
1.122656e-09,1.039063e-02
1.126656e-09,1.065625e-02
1.130656e-09,1.110938e-02
1.134656e-09,1.095313e-02
1.138656e-09,1.106250e-02
1.142656e-09,1.117188e-02
1.146656e-09,1.125000e-02
1.150656e-09,1.131250e-02
1.154656e-09,1.165625e-02
1.158656e-09,1.139063e-02
1.162656e-09,1.129688e-02
1.166656e-09,1.137500e-02
1.170656e-09,1.165625e-02
1.174656e-09,1.131250e-02
1.178656e-09,1.123438e-02
1.182656e-09,1.115625e-02
1.186656e-09,1.106250e-02
1.190656e-09,1.095313e-02
1.194656e-09,1.114063e-02
1.198656e-09,1.070313e-02
1.202656e-09,1.045313e-02
1.206656e-09,1.039063e-02
1.210656e-09,1.053125e-02
1.214656e-09,1.006250e-02
1.218656e-09,9.875000e-03
1.222656e-09,9.703125e-03
1.226656e-09,9.515625e-03
1.230656e-09,9.343750e-03
1.234656e-09,9.468750e-03
1.238656e-09,8.984375e-03
1.242656e-09,8.718750e-03
1.246656e-09,8.671875e-03
1.250656e-09,8.828125e-03
1.254656e-09,8.390625e-03
1.258656e-09,8.265625e-03
1.262656e-09,8.156250e-03
1.266656e-09,8.078125e-03
1.270656e-09,8.000000e-03
1.274656e-09,8.250000e-03
1.278656e-09,7.921875e-03
1.282656e-09,7.812500e-03
1.286656e-09,7.921875e-03
1.290656e-09,8.250000e-03
1.294656e-09,8.000000e-03
1.298656e-09,8.062500e-03
1.302656e-09,8.156250e-03
1.306656e-09,8.250000e-03
1.310656e-09,8.375000e-03
1.314656e-09,8.796875e-03
1.318656e-09,8.640625e-03
1.322656e-09,8.703125e-03
1.326656e-09,8.953125e-03
1.330656e-09,9.421875e-03
1.334656e-09,9.296875e-03
1.338656e-09,9.468750e-03
1.342656e-09,9.640625e-03
1.346656e-09,9.796875e-03
1.350656e-09,9.953125e-03
1.354656e-09,1.040625e-02
1.358656e-09,1.025000e-02
1.362656e-09,1.028125e-02
1.366656e-09,1.050000e-02
1.370656e-09,1.089063e-02
1.374656e-09,1.068750e-02
1.378656e-09,1.075000e-02
1.382656e-09,1.079688e-02
1.386656e-09,1.084375e-02
1.390656e-09,1.085938e-02
1.394656e-09,1.115625e-02
1.398656e-09,1.084375e-02
1.402656e-09,1.071875e-02
1.406656e-09,1.076563e-02
1.410656e-09,1.100000e-02
1.414656e-09,1.062500e-02
1.418656e-09,1.054688e-02
1.422656e-09,1.045313e-02
1.426656e-09,1.034375e-02
1.430656e-09,1.023438e-02
1.434656e-09,1.042188e-02
1.438656e-09,1.000000e-02
1.442656e-09,9.765625e-03
1.446656e-09,9.734375e-03
1.450656e-09,9.906250e-03
1.454656e-09,9.484375e-03
1.458656e-09,9.343750e-03
1.462656e-09,9.218750e-03
1.466656e-09,9.093750e-03
1.470656e-09,8.984375e-03
1.474656e-09,9.156250e-03
1.478656e-09,8.750000e-03
1.482656e-09,8.531250e-03
1.486656e-09,8.531250e-03
1.490656e-09,8.734375e-03
1.494656e-09,8.328125e-03
1.498656e-09,8.234375e-03
1.502656e-09,8.140625e-03
1.506656e-09,8.046875e-03
1.510656e-09,7.953125e-03
1.514656e-09,8.171875e-03
1.518656e-09,7.781250e-03
1.522656e-09,7.578125e-03
1.526656e-09,7.593750e-03
1.530656e-09,7.796875e-03
1.534656e-09,7.390625e-03
1.538656e-09,7.281250e-03
1.542656e-09,7.171875e-03
1.546656e-09,7.062500e-03
1.550656e-09,6.937500e-03
1.554656e-09,7.109375e-03
1.558656e-09,6.671875e-03
1.562656e-09,6.421875e-03
1.566656e-09,6.375000e-03
1.570656e-09,6.515625e-03
1.574656e-09,6.046875e-03
1.578656e-09,5.875000e-03
1.582656e-09,5.687500e-03
1.586656e-09,5.484375e-03
1.590656e-09,5.281250e-03
1.594656e-09,5.375000e-03
1.598656e-09,4.859375e-03
1.602656e-09,4.531250e-03
1.606656e-09,4.406250e-03
1.610656e-09,4.484375e-03
1.614656e-09,3.953125e-03
1.618656e-09,3.718750e-03
1.622656e-09,3.500000e-03
1.626656e-09,3.265625e-03
1.630656e-09,3.046875e-03
1.634656e-09,3.125000e-03
1.638656e-09,2.609375e-03
1.642656e-09,2.312500e-03
1.646656e-09,2.218750e-03
1.650656e-09,2.343750e-03
1.654656e-09,1.875000e-03
1.658656e-09,1.734375e-03
1.662656e-09,1.609375e-03
1.666656e-09,1.515625e-03
1.670656e-09,1.437500e-03
1.674656e-09,1.687500e-03
1.678656e-09,1.343750e-03
1.682656e-09,1.250000e-03
1.686656e-09,1.375000e-03
1.690656e-09,1.718750e-03
1.694656e-09,1.500000e-03
1.698656e-09,1.609375e-03
1.702656e-09,1.750000e-03
1.706656e-09,1.906250e-03
1.710656e-09,2.093750e-03
1.714656e-09,2.593750e-03
1.718656e-09,2.531250e-03
1.722656e-09,2.671875e-03
1.726656e-09,3.031250e-03
1.730656e-09,3.609375e-03
1.734656e-09,3.593750e-03
1.738656e-09,3.890625e-03
1.742656e-09,4.171875e-03
1.746656e-09,4.468750e-03
1.750656e-09,4.750000e-03
1.754656e-09,5.343750e-03
