Measurements-streak-laser-independent/Photodiode-on-Tek-6GHz/Tek000_ch1_20190613132813164.csv

Model,MSO64
Waveform Type,ANALOG
Horizontal Units,s
Sample Interval,4.000000e-12
Record Length,1000
Zero Index,310.632812
Vertical Units,V

TIME,CH1
-1.242531e-09,1.051563e-02
-1.238531e-09,9.828125e-03
-1.234531e-09,9.343750e-03
-1.230531e-09,9.015625e-03
-1.226531e-09,8.890625e-03
-1.222531e-09,8.140625e-03
-1.218531e-09,7.671875e-03
-1.214531e-09,7.218750e-03
-1.210531e-09,6.750000e-03
-1.206531e-09,6.281250e-03
-1.202531e-09,6.109375e-03
-1.198531e-09,5.343750e-03
-1.194531e-09,4.796875e-03
-1.190531e-09,4.468750e-03
-1.186531e-09,4.343750e-03
-1.182531e-09,3.640625e-03
-1.178531e-09,3.250000e-03
-1.174531e-09,2.906250e-03
-1.170531e-09,2.562500e-03
-1.166531e-09,2.265625e-03
-1.162531e-09,2.281250e-03
-1.158531e-09,1.734375e-03
-1.154531e-09,1.421875e-03
-1.150531e-09,1.343750e-03
-1.146531e-09,1.500000e-03
-1.142531e-09,1.078125e-03
-1.138531e-09,1.000000e-03
-1.134531e-09,9.375000e-04
-1.130531e-09,9.375000e-04
-1.126531e-09,9.531250e-04
-1.122531e-09,1.296875e-03
-1.118531e-09,1.078125e-03
-1.114531e-09,1.093750e-03
-1.110531e-09,1.328125e-03
-1.106531e-09,1.796875e-03
-1.102531e-09,1.687500e-03
-1.098531e-09,1.890625e-03
-1.094531e-09,2.125000e-03
-1.090531e-09,2.359375e-03
-1.086531e-09,2.625000e-03
-1.082531e-09,3.187500e-03
-1.078531e-09,3.156250e-03
-1.074531e-09,3.328125e-03
-1.070531e-09,3.687500e-03
-1.066531e-09,4.265625e-03
-1.062531e-09,4.218750e-03
-1.058531e-09,4.468750e-03
-1.054531e-09,4.687500e-03
-1.050531e-09,4.906250e-03
-1.046531e-09,5.093750e-03
-1.042531e-09,5.578125e-03
-1.038531e-09,5.406250e-03
-1.034531e-09,5.421875e-03
-1.030531e-09,5.609375e-03
-1.026531e-09,5.953125e-03
-1.022531e-09,5.671875e-03
-1.018531e-09,5.656250e-03
-1.014531e-09,5.625000e-03
-1.010531e-09,5.546875e-03
-1.006531e-09,5.437500e-03
-1.002531e-09,5.609375e-03
-9.985313e-10,5.140625e-03
-9.945313e-10,4.843750e-03
-9.905313e-10,4.734375e-03
-9.865312e-10,4.812500e-03
-9.825312e-10,4.265625e-03
-9.785312e-10,4.000000e-03
-9.745312e-10,3.750000e-03
-9.705312e-10,3.468750e-03
-9.665312e-10,3.203125e-03
-9.625312e-10,3.250000e-03
-9.585312e-10,2.687500e-03
-9.545312e-10,2.343750e-03
-9.505313e-10,2.218750e-03
-9.465313e-10,2.312500e-03
-9.425313e-10,1.828125e-03
-9.385313e-10,1.671875e-03
-9.345313e-10,1.546875e-03
-9.305312e-10,1.468750e-03
-9.265312e-10,1.406250e-03
-9.225313e-10,1.687500e-03
-9.185313e-10,1.406250e-03
-9.145313e-10,1.375000e-03
-9.105312e-10,1.578125e-03
-9.065312e-10,2.015625e-03
-9.025312e-10,1.906250e-03
-8.985312e-10,2.109375e-03
-8.945312e-10,2.375000e-03
-8.905313e-10,2.656250e-03
-8.865313e-10,2.984375e-03
-8.825312e-10,3.625000e-03
-8.785312e-10,3.703125e-03
-8.745312e-10,3.984375e-03
-8.705312e-10,4.500000e-03
-8.665312e-10,5.234375e-03
-8.625313e-10,5.359375e-03
-8.585313e-10,5.796875e-03
-8.545313e-10,6.250000e-03
-8.505312e-10,6.671875e-03
-8.465312e-10,7.093750e-03
-8.425312e-10,7.812500e-03
-8.385312e-10,7.906250e-03
-8.345312e-10,8.171875e-03
-8.305313e-10,8.625000e-03
-8.265313e-10,9.250000e-03
-8.225312e-10,9.234375e-03
-8.185312e-10,9.484375e-03
-8.145312e-10,9.703125e-03
-8.105312e-10,9.875000e-03
-8.065312e-10,1.001563e-02
-8.025313e-10,1.040625e-02
-7.985313e-10,1.015625e-02
-7.945313e-10,1.006250e-02
-7.905312e-10,1.012500e-02
-7.865312e-10,1.035938e-02
-7.825312e-10,9.937500e-03
-7.785312e-10,9.781250e-03
-7.745312e-10,9.593750e-03
-7.705313e-10,9.359375e-03
-7.665313e-10,9.093750e-03
-7.625312e-10,9.109375e-03
-7.585312e-10,8.500000e-03
-7.545312e-10,8.062500e-03
-7.505312e-10,7.812500e-03
-7.465312e-10,7.765625e-03
-7.425313e-10,7.078125e-03
-7.385313e-10,6.703125e-03
-7.345313e-10,6.328125e-03
-7.305312e-10,5.968750e-03
-7.265312e-10,5.609375e-03
-7.225312e-10,5.562500e-03
-7.185312e-10,4.937500e-03
-7.145312e-10,4.546875e-03
-7.105313e-10,4.375000e-03
-7.065313e-10,4.421875e-03
-7.025312e-10,3.906250e-03
-6.985312e-10,3.734375e-03
-6.945312e-10,3.593750e-03
-6.905312e-10,3.500000e-03
-6.865312e-10,3.453125e-03
-6.825313e-10,3.734375e-03
-6.785313e-10,3.468750e-03
-6.745313e-10,3.421875e-03
-6.705312e-10,3.640625e-03
-6.665312e-10,4.078125e-03
-6.625312e-10,3.953125e-03
-6.585312e-10,4.171875e-03
-6.545312e-10,4.406250e-03
-6.505313e-10,4.687500e-03
-6.465313e-10,4.968750e-03
-6.425312e-10,5.578125e-03
-6.385312e-10,5.593750e-03
-6.345312e-10,5.812500e-03
-6.305312e-10,6.250000e-03
-6.265312e-10,6.875000e-03
-6.225313e-10,6.906250e-03
-6.185313e-10,7.218750e-03
-6.145313e-10,7.515625e-03
-6.105312e-10,7.781250e-03
-6.065312e-10,8.031250e-03
-6.025312e-10,8.562500e-03
-5.985312e-10,8.453125e-03
-5.945312e-10,8.531250e-03
-5.905313e-10,8.750000e-03
-5.865313e-10,9.156250e-03
-5.825312e-10,8.906250e-03
-5.785312e-10,8.937500e-03
-5.745312e-10,8.937500e-03
-5.705312e-10,8.890625e-03
-5.665312e-10,8.812500e-03
-5.625313e-10,9.015625e-03
-5.585313e-10,8.578125e-03
-5.545313e-10,8.328125e-03
-5.505312e-10,8.250000e-03
-5.465312e-10,8.359375e-03
-5.425312e-10,7.859375e-03
-5.385312e-10,7.656250e-03
-5.345312e-10,7.437500e-03
-5.305313e-10,7.234375e-03
-5.265313e-10,7.031250e-03
-5.225313e-10,7.140625e-03
-5.185312e-10,6.656250e-03
-5.145312e-10,6.390625e-03
-5.105312e-10,6.343750e-03
-5.065312e-10,6.515625e-03
-5.025313e-10,6.125000e-03
-4.985313e-10,6.046875e-03
-4.945313e-10,5.984375e-03
-4.905312e-10,5.968750e-03
-4.865312e-10,5.953125e-03
-4.825312e-10,6.281250e-03
-4.785312e-10,6.015625e-03
-4.745312e-10,5.968750e-03
-4.705313e-10,6.156250e-03
-4.665313e-10,6.546875e-03
-4.625312e-10,6.359375e-03
-4.585313e-10,6.468750e-03
-4.545312e-10,6.578125e-03
-4.505312e-10,6.687500e-03
-4.465312e-10,6.781250e-03
-4.425313e-10,7.187500e-03
-4.385312e-10,6.968750e-03
-4.345312e-10,6.953125e-03
-4.305312e-10,7.109375e-03
-4.265313e-10,7.453125e-03
-4.225312e-10,7.187500e-03
-4.185312e-10,7.203125e-03
-4.145312e-10,7.140625e-03
-4.105313e-10,7.093750e-03
-4.065312e-10,7.015625e-03
-4.025312e-10,7.218750e-03
-3.985313e-10,6.781250e-03
-3.945313e-10,6.546875e-03
-3.905312e-10,6.500000e-03
-3.865312e-10,6.640625e-03
-3.825313e-10,6.203125e-03
-3.785312e-10,6.031250e-03
-3.745312e-10,5.812500e-03
-3.705312e-10,5.609375e-03
-3.665313e-10,5.406250e-03
-3.625312e-10,5.515625e-03
-3.585312e-10,5.015625e-03
-3.545313e-10,4.750000e-03
-3.505313e-10,4.734375e-03
-3.465312e-10,4.906250e-03
-3.425312e-10,4.546875e-03
-3.385313e-10,4.500000e-03
-3.345313e-10,4.375000e-03
-3.305312e-10,4.296875e-03
-3.265312e-10,4.265625e-03
-3.225313e-10,4.562500e-03
-3.185312e-10,4.250000e-03
-3.145312e-10,4.171875e-03
-3.105312e-10,4.359375e-03
-3.065313e-10,4.718750e-03
-3.025312e-10,4.562500e-03
-2.985312e-10,4.703125e-03
-2.945313e-10,4.734375e-03
-2.905313e-10,4.781250e-03
-2.865312e-10,4.875000e-03
-2.825312e-10,5.250000e-03
-2.785313e-10,5.031250e-03
-2.745313e-10,4.984375e-03
-2.705312e-10,5.203125e-03
-2.665312e-10,5.546875e-03
-2.625313e-10,5.375000e-03
-2.585312e-10,5.468750e-03
-2.545312e-10,5.437500e-03
-2.505312e-10,5.375000e-03
-2.465313e-10,5.406250e-03
-2.425312e-10,5.671875e-03
-2.385312e-10,5.390625e-03
-2.345313e-10,5.250000e-03
-2.305312e-10,5.390625e-03
-2.265313e-10,5.671875e-03
-2.225312e-10,5.453125e-03
-2.185313e-10,5.546875e-03
-2.145312e-10,5.531250e-03
-2.105313e-10,5.468750e-03
-2.065312e-10,5.609375e-03
-2.025313e-10,5.937500e-03
-1.985312e-10,5.812500e-03
-1.945312e-10,5.828125e-03
-1.905312e-10,6.171875e-03
-1.865312e-10,6.656250e-03
-1.825312e-10,6.656250e-03
-1.785312e-10,6.984375e-03
-1.745313e-10,7.234375e-03
-1.705312e-10,7.421875e-03
-1.665313e-10,7.843750e-03
-1.625312e-10,8.390625e-03
-1.585313e-10,8.546875e-03
-1.545312e-10,8.765625e-03
-1.505313e-10,9.250000e-03
-1.465312e-10,9.906250e-03
-1.425313e-10,9.968750e-03
-1.385312e-10,1.032813e-02
-1.345312e-10,1.056250e-02
-1.305312e-10,1.071875e-02
-1.265312e-10,1.101563e-02
-1.225313e-10,1.140625e-02
-1.185312e-10,1.139063e-02
-1.145313e-10,1.137500e-02
-1.105313e-10,1.154688e-02
-1.065313e-10,1.189063e-02
-1.025312e-10,1.160938e-02
-9.853125e-11,1.159375e-02
-9.453125e-11,1.150000e-02
-9.053125e-11,1.135938e-02
-8.653125e-11,1.135938e-02
-8.253125e-11,1.151563e-02
-7.853125e-11,1.137500e-02
-7.453125e-11,1.129688e-02
-7.053125e-11,1.146875e-02
-6.653125e-11,1.198438e-02
-6.253125e-11,1.200000e-02
-5.853125e-11,1.242188e-02
-5.453125e-11,1.293750e-02
-5.053125e-11,1.362500e-02
-4.653125e-11,1.460938e-02
-4.253125e-11,1.600000e-02
-3.853125e-11,1.731250e-02
-3.453125e-11,1.892188e-02
-3.053125e-11,2.096875e-02
-2.653125e-11,2.359375e-02
-2.253125e-11,2.600000e-02
-1.853125e-11,2.895313e-02
-1.453125e-11,3.226563e-02
-1.053125e-11,3.596875e-02
-6.531250e-12,4.009375e-02
-2.531250e-12,4.487500e-02
1.468750e-12,4.971875e-02
5.468750e-12,5.503125e-02
9.468750e-12,6.084375e-02
1.346875e-11,6.732813e-02
1.746875e-11,7.375000e-02
2.146875e-11,8.071875e-02
2.546875e-11,8.806250e-02
2.946875e-11,9.581250e-02
3.346875e-11,1.039375e-01
3.746875e-11,1.127031e-01
4.146875e-11,1.214219e-01
4.546875e-11,1.305313e-01
4.946875e-11,1.399844e-01
5.346875e-11,1.499375e-01
5.746875e-11,1.597344e-01
6.146875e-11,1.698281e-01
6.546875e-11,1.801094e-01
6.946875e-11,1.905938e-01
7.346875e-11,2.011719e-01
7.746875e-11,2.121719e-01
8.146875e-11,2.228906e-01
8.546875e-11,2.337344e-01
8.946875e-11,2.446250e-01
9.346875e-11,2.557188e-01
9.746875e-11,2.664688e-01
1.014688e-10,2.772031e-01
1.054688e-10,2.878750e-01
1.094688e-10,2.984688e-01
1.134687e-10,3.089063e-01
1.174687e-10,3.195000e-01
1.214688e-10,3.295781e-01
1.254687e-10,3.395469e-01
1.294688e-10,3.493125e-01
1.334687e-10,3.590156e-01
1.374688e-10,3.682188e-01
1.414687e-10,3.771875e-01
1.454688e-10,3.858906e-01
1.494687e-10,3.943125e-01
1.534688e-10,4.023906e-01
1.574687e-10,4.103906e-01
1.614688e-10,4.177656e-01
1.654687e-10,4.248594e-01
1.694687e-10,4.315625e-01
1.734687e-10,4.380313e-01
1.774687e-10,4.438750e-01
1.814687e-10,4.493594e-01
1.854687e-10,4.544219e-01
1.894688e-10,4.590938e-01
1.934687e-10,4.632969e-01
1.974688e-10,4.672500e-01
2.014687e-10,4.705156e-01
2.054688e-10,4.733906e-01
2.094687e-10,4.757813e-01
2.134688e-10,4.778438e-01
2.174687e-10,4.792031e-01
2.214688e-10,4.802031e-01
2.254687e-10,4.807188e-01
2.294687e-10,4.808125e-01
2.334687e-10,4.804063e-01
2.374687e-10,4.797031e-01
2.414688e-10,4.783594e-01
2.454687e-10,4.766406e-01
2.494687e-10,4.745000e-01
2.534688e-10,4.720625e-01
2.574688e-10,4.689688e-01
2.614687e-10,4.656719e-01
2.654687e-10,4.619844e-01
2.694688e-10,4.579688e-01
2.734688e-10,4.536250e-01
2.774687e-10,4.490625e-01
2.814687e-10,4.440469e-01
2.854688e-10,4.388594e-01
2.894687e-10,4.334063e-01
2.934687e-10,4.278438e-01
2.974687e-10,4.217969e-01
3.014688e-10,4.158125e-01
3.054687e-10,4.096094e-01
3.094687e-10,4.033125e-01
3.134688e-10,3.969063e-01
3.174688e-10,3.904531e-01
3.214687e-10,3.837188e-01
3.254687e-10,3.770625e-01
3.294688e-10,3.703125e-01
3.334688e-10,3.636563e-01
3.374687e-10,3.566563e-01
3.414687e-10,3.499375e-01
3.454688e-10,3.431250e-01
3.494687e-10,3.363906e-01
3.534687e-10,3.296875e-01
3.574687e-10,3.230469e-01
3.614688e-10,3.161719e-01
3.654687e-10,3.095313e-01
3.694687e-10,3.028906e-01
3.734687e-10,2.963750e-01
3.774688e-10,2.895938e-01
3.814687e-10,2.831406e-01
3.854687e-10,2.766563e-01
3.894688e-10,2.702656e-01
3.934688e-10,2.639531e-01
3.974687e-10,2.577500e-01
4.014687e-10,2.512344e-01
4.054688e-10,2.450156e-01
4.094687e-10,2.388125e-01
4.134687e-10,2.327188e-01
4.174687e-10,2.263750e-01
4.214688e-10,2.203438e-01
4.254687e-10,2.143281e-01
4.294687e-10,2.083906e-01
4.334687e-10,2.025469e-01
4.374688e-10,1.968750e-01
4.414687e-10,1.908438e-01
4.454687e-10,1.851250e-01
4.494688e-10,1.795000e-01
4.534688e-10,1.740000e-01
4.574687e-10,1.683125e-01
4.614687e-10,1.629219e-01
4.654688e-10,1.576563e-01
4.694687e-10,1.525000e-01
4.734688e-10,1.474531e-01
4.774688e-10,1.427031e-01
4.814688e-10,1.375938e-01
4.854687e-10,1.328594e-01
4.894687e-10,1.283438e-01
4.934687e-10,1.239688e-01
4.974687e-10,1.194844e-01
5.014687e-10,1.153125e-01
5.054688e-10,1.113750e-01
5.094688e-10,1.075781e-01
5.134688e-10,1.039219e-01
5.174687e-10,1.006406e-01
5.214687e-10,9.701563e-02
5.254687e-10,9.378125e-02
5.294687e-10,9.082813e-02
5.334688e-10,8.804688e-02
5.374688e-10,8.517188e-02
5.414688e-10,8.256250e-02
5.454687e-10,8.025000e-02
5.494687e-10,7.804688e-02
5.534687e-10,7.595313e-02
5.574687e-10,7.423438e-02
5.614687e-10,7.212500e-02
5.654688e-10,7.035938e-02
5.694688e-10,6.889063e-02
5.734688e-10,6.754688e-02
5.774687e-10,6.603125e-02
5.814687e-10,6.471875e-02
5.854687e-10,6.367188e-02
5.894687e-10,6.265625e-02
5.934688e-10,6.164063e-02
5.974688e-10,6.095313e-02
6.014688e-10,5.981250e-02
6.054687e-10,5.890625e-02
6.094687e-10,5.825000e-02
6.134687e-10,5.767188e-02
6.174687e-10,5.678125e-02
6.214687e-10,5.603125e-02
6.254688e-10,5.548438e-02
6.294688e-10,5.487500e-02
6.334687e-10,5.417188e-02
6.374687e-10,5.371875e-02
6.414687e-10,5.276563e-02
6.454687e-10,5.193750e-02
6.494687e-10,5.134375e-02
6.534688e-10,5.078125e-02
6.574688e-10,4.978125e-02
6.614688e-10,4.892188e-02
6.654687e-10,4.818750e-02
6.694687e-10,4.735938e-02
6.734687e-10,4.639063e-02
6.774687e-10,4.564063e-02
6.814687e-10,4.435938e-02
6.854688e-10,4.320313e-02
6.894688e-10,4.226563e-02
6.934687e-10,4.139063e-02
6.974687e-10,4.004688e-02
7.014687e-10,3.885938e-02
7.054687e-10,3.779688e-02
7.094687e-10,3.667188e-02
7.134688e-10,3.543750e-02
7.174688e-10,3.446875e-02
7.214688e-10,3.300000e-02
7.254687e-10,3.168750e-02
7.294687e-10,3.062500e-02
7.334687e-10,2.973438e-02
7.374687e-10,2.835938e-02
7.414687e-10,2.725000e-02
7.454688e-10,2.626563e-02
7.494688e-10,2.531250e-02
7.534687e-10,2.429688e-02
7.574687e-10,2.359375e-02
7.614687e-10,2.243750e-02
7.654687e-10,2.150000e-02
7.694687e-10,2.084375e-02
7.734688e-10,2.042188e-02
7.774688e-10,1.951563e-02
7.814688e-10,1.893750e-02
7.854687e-10,1.846875e-02
7.894687e-10,1.806250e-02
7.934687e-10,1.762500e-02
7.974687e-10,1.750000e-02
8.014687e-10,1.692188e-02
8.054688e-10,1.656250e-02
8.094688e-10,1.646875e-02
8.134687e-10,1.659375e-02
8.174687e-10,1.618750e-02
8.214687e-10,1.609375e-02
8.254687e-10,1.607813e-02
8.294687e-10,1.607813e-02
8.334688e-10,1.603125e-02
8.374688e-10,1.626563e-02
8.414688e-10,1.598438e-02
8.454687e-10,1.587500e-02
8.494687e-10,1.598438e-02
8.534687e-10,1.629688e-02
8.574687e-10,1.601563e-02
8.614687e-10,1.601563e-02
8.654688e-10,1.603125e-02
8.694688e-10,1.604688e-02
8.734687e-10,1.600000e-02
8.774687e-10,1.621875e-02
8.814687e-10,1.585938e-02
8.854687e-10,1.568750e-02
8.894687e-10,1.571875e-02
8.934688e-10,1.592188e-02
8.974688e-10,1.554688e-02
9.014688e-10,1.545313e-02
9.054687e-10,1.535938e-02
9.094687e-10,1.529688e-02
9.134687e-10,1.517188e-02
9.174687e-10,1.534375e-02
9.214687e-10,1.493750e-02
9.254688e-10,1.475000e-02
9.294688e-10,1.476563e-02
9.334687e-10,1.500000e-02
9.374687e-10,1.464063e-02
9.414688e-10,1.459375e-02
9.454688e-10,1.457813e-02
9.494688e-10,1.459375e-02
9.534688e-10,1.457813e-02
9.574688e-10,1.487500e-02
9.614688e-10,1.459375e-02
9.654687e-10,1.454688e-02
9.694687e-10,1.470313e-02
9.734687e-10,1.506250e-02
9.774687e-10,1.485938e-02
9.814687e-10,1.495313e-02
9.854687e-10,1.507813e-02
9.894687e-10,1.520313e-02
9.934687e-10,1.531250e-02
9.974687e-10,1.571875e-02
1.001469e-09,1.554688e-02
1.005469e-09,1.557813e-02
1.009469e-09,1.581250e-02
1.013469e-09,1.623438e-02
1.017469e-09,1.607813e-02
1.021469e-09,1.620313e-02
1.025469e-09,1.634375e-02
1.029469e-09,1.646875e-02
1.033469e-09,1.659375e-02
1.037469e-09,1.700000e-02
1.041469e-09,1.681250e-02
1.045469e-09,1.682813e-02
1.049469e-09,1.704688e-02
1.053469e-09,1.745313e-02
1.057469e-09,1.726563e-02
1.061469e-09,1.737500e-02
1.065469e-09,1.748438e-02
1.069469e-09,1.759375e-02
1.073469e-09,1.768750e-02
1.077469e-09,1.807813e-02
1.081469e-09,1.787500e-02
1.085469e-09,1.787500e-02
1.089469e-09,1.806250e-02
1.093469e-09,1.845313e-02
1.097469e-09,1.823438e-02
1.101469e-09,1.831250e-02
1.105469e-09,1.837500e-02
1.109469e-09,1.842188e-02
1.113469e-09,1.845313e-02
1.117469e-09,1.876563e-02
1.121469e-09,1.846875e-02
1.125469e-09,1.834375e-02
1.129469e-09,1.839063e-02
1.133469e-09,1.860938e-02
1.137469e-09,1.820313e-02
1.141469e-09,1.806250e-02
1.145469e-09,1.790625e-02
1.149469e-09,1.770313e-02
1.153469e-09,1.746875e-02
1.157469e-09,1.748438e-02
1.161469e-09,1.687500e-02
1.165469e-09,1.643750e-02
1.169469e-09,1.617188e-02
1.173469e-09,1.607813e-02
1.177469e-09,1.534375e-02
1.181469e-09,1.489063e-02
1.185469e-09,1.443750e-02
1.189469e-09,1.395313e-02
1.193469e-09,1.345313e-02
1.197469e-09,1.325000e-02
1.201469e-09,1.245313e-02
1.205469e-09,1.185938e-02
1.209469e-09,1.148438e-02
1.213469e-09,1.131250e-02
1.217469e-09,1.057813e-02
1.221469e-09,1.017188e-02
1.225469e-09,9.796875e-03
1.229469e-09,9.484375e-03
1.233469e-09,9.187500e-03
1.237469e-09,9.250000e-03
1.241469e-09,8.765625e-03
1.245469e-09,8.546875e-03
1.249469e-09,8.562500e-03
1.253469e-09,8.859375e-03
1.257469e-09,8.609375e-03
1.261469e-09,8.718750e-03
1.265469e-09,8.890625e-03
1.269469e-09,9.125000e-03
1.273469e-09,9.406250e-03
1.277469e-09,1.004688e-02
1.281469e-09,1.012500e-02
1.285469e-09,1.045313e-02
1.289469e-09,1.101563e-02
1.293469e-09,1.179688e-02
1.297469e-09,1.201563e-02
1.301469e-09,1.253125e-02
1.305469e-09,1.307813e-02
1.309469e-09,1.360938e-02
1.313469e-09,1.414063e-02
1.317469e-09,1.496875e-02
1.321469e-09,1.515625e-02
1.325469e-09,1.553125e-02
1.329469e-09,1.607813e-02
1.333469e-09,1.678125e-02
1.337469e-09,1.684375e-02
1.341469e-09,1.715625e-02
1.345469e-09,1.742188e-02
1.349469e-09,1.762500e-02
1.353469e-09,1.778125e-02
1.357469e-09,1.817188e-02
1.361469e-09,1.792188e-02
1.365469e-09,1.781250e-02
1.369469e-09,1.784375e-02
1.373469e-09,1.801563e-02
1.377469e-09,1.754688e-02
1.381469e-09,1.734375e-02
1.385469e-09,1.709375e-02
1.389469e-09,1.679688e-02
1.393469e-09,1.648438e-02
1.397469e-09,1.643750e-02
1.401469e-09,1.578125e-02
1.405469e-09,1.529688e-02
1.409469e-09,1.501563e-02
1.413469e-09,1.492188e-02
1.417469e-09,1.423438e-02
1.421469e-09,1.384375e-02
1.425469e-09,1.348438e-02
1.429469e-09,1.312500e-02
1.433469e-09,1.279688e-02
1.437469e-09,1.278125e-02
1.441469e-09,1.218750e-02
1.445469e-09,1.182813e-02
1.449469e-09,1.168750e-02
1.453469e-09,1.178125e-02
1.457469e-09,1.131250e-02
1.461469e-09,1.115625e-02
1.465469e-09,1.104688e-02
1.469469e-09,1.095313e-02
1.473469e-09,1.087500e-02
1.477469e-09,1.110938e-02
1.481469e-09,1.078125e-02
1.485469e-09,1.065625e-02
1.489469e-09,1.075000e-02
1.493469e-09,1.104688e-02
1.497469e-09,1.075000e-02
1.501469e-09,1.075000e-02
1.505469e-09,1.075000e-02
1.509469e-09,1.073438e-02
1.513469e-09,1.071875e-02
1.517469e-09,1.098438e-02
1.521469e-09,1.064063e-02
1.525469e-09,1.046875e-02
1.529469e-09,1.048438e-02
1.533469e-09,1.068750e-02
1.537469e-09,1.025000e-02
1.541469e-09,1.009375e-02
1.545469e-09,9.937500e-03
1.549469e-09,9.734375e-03
1.553469e-09,9.531250e-03
1.557469e-09,9.593750e-03
1.561469e-09,9.031250e-03
1.565469e-09,8.656250e-03
1.569469e-09,8.468750e-03
1.573469e-09,8.468750e-03
1.577469e-09,7.859375e-03
1.581469e-09,7.546875e-03
1.585469e-09,7.234375e-03
1.589469e-09,6.937500e-03
1.593469e-09,6.625000e-03
1.597469e-09,6.625000e-03
1.601469e-09,6.031250e-03
1.605469e-09,5.671875e-03
1.609469e-09,5.515625e-03
1.613469e-09,5.593750e-03
1.617469e-09,5.078125e-03
1.621469e-09,4.906250e-03
1.625469e-09,4.750000e-03
1.629469e-09,4.656250e-03
1.633469e-09,4.562500e-03
1.637469e-09,4.828125e-03
1.641469e-09,4.500000e-03
1.645469e-09,4.437500e-03
1.649469e-09,4.593750e-03
1.653469e-09,4.984375e-03
1.657469e-09,4.812500e-03
1.661469e-09,4.968750e-03
1.665469e-09,5.156250e-03
1.669469e-09,5.375000e-03
1.673469e-09,5.625000e-03
1.677469e-09,6.187500e-03
1.681469e-09,6.156250e-03
1.685469e-09,6.359375e-03
1.689469e-09,6.750000e-03
1.693469e-09,7.359375e-03
1.697469e-09,7.375000e-03
1.701469e-09,7.671875e-03
1.705469e-09,7.984375e-03
1.709469e-09,8.265625e-03
1.713469e-09,8.531250e-03
1.717469e-09,9.093750e-03
1.721469e-09,9.015625e-03
1.725469e-09,9.125000e-03
1.729469e-09,9.390625e-03
1.733469e-09,9.828125e-03
1.737469e-09,9.625000e-03
1.741469e-09,9.687500e-03
1.745469e-09,9.734375e-03
1.749469e-09,9.718750e-03
1.753469e-09,9.671875e-03
1.757469e-09,9.890625e-03
