Measurements-streak-laser-independent/Photodiode-on-Tek-6GHz/Tek000_ch1_20190613132759826.csv

Model,MSO64
Waveform Type,ANALOG
Horizontal Units,s
Sample Interval,4.000000e-12
Record Length,1000
Zero Index,310.031250
Vertical Units,V

TIME,CH1
-1.240125e-09,4.781250e-03
-1.236125e-09,5.609375e-03
-1.232125e-09,5.828125e-03
-1.228125e-09,6.265625e-03
-1.224125e-09,6.906250e-03
-1.220125e-09,7.718750e-03
-1.216125e-09,7.906250e-03
-1.212125e-09,8.359375e-03
-1.208125e-09,8.781250e-03
-1.204125e-09,9.125000e-03
-1.200125e-09,9.406250e-03
-1.196125e-09,9.937500e-03
-1.192125e-09,9.765625e-03
-1.188125e-09,9.734375e-03
-1.184125e-09,9.812500e-03
-1.180125e-09,1.000000e-02
-1.176125e-09,9.500000e-03
-1.172125e-09,9.234375e-03
-1.168125e-09,8.890625e-03
-1.164125e-09,8.453125e-03
-1.160125e-09,7.968750e-03
-1.156125e-09,7.734375e-03
-1.152125e-09,6.828125e-03
-1.148125e-09,6.093750e-03
-1.144125e-09,5.531250e-03
-1.140125e-09,5.156250e-03
-1.136125e-09,4.171875e-03
-1.132125e-09,3.500000e-03
-1.128125e-09,2.859375e-03
-1.124125e-09,2.234375e-03
-1.120125e-09,1.656250e-03
-1.116125e-09,1.437500e-03
-1.112125e-09,6.718750e-04
-1.108125e-09,1.875000e-04
-1.104125e-09,-3.125000e-05
-1.100125e-09,6.250000e-05
-1.096125e-09,-3.750000e-04
-1.092125e-09,-4.218750e-04
-1.088125e-09,-3.750000e-04
-1.084125e-09,-2.187500e-04
-1.080125e-09,1.562500e-05
-1.076125e-09,6.406250e-04
-1.072125e-09,7.343750e-04
-1.068125e-09,1.125000e-03
-1.064125e-09,1.765625e-03
-1.060125e-09,2.671875e-03
-1.056125e-09,3.031250e-03
-1.052125e-09,3.718750e-03
-1.048125e-09,4.437500e-03
-1.044125e-09,5.156250e-03
-1.040125e-09,5.890625e-03
-1.036125e-09,6.921875e-03
-1.032125e-09,7.312500e-03
-1.028125e-09,7.875000e-03
-1.024125e-09,8.609375e-03
-1.020125e-09,9.484375e-03
-1.016125e-09,9.687500e-03
-1.012125e-09,1.014063e-02
-1.008125e-09,1.050000e-02
-1.004125e-09,1.079688e-02
-1.000125e-09,1.101563e-02
-9.961250e-10,1.143750e-02
-9.921250e-10,1.117188e-02
-9.881250e-10,1.103125e-02
-9.841250e-10,1.101563e-02
-9.801250e-10,1.112500e-02
-9.761250e-10,1.054688e-02
-9.721250e-10,1.020313e-02
-9.681250e-10,9.812500e-03
-9.641250e-10,9.359375e-03
-9.601250e-10,8.875000e-03
-9.561250e-10,8.640625e-03
-9.521250e-10,7.796875e-03
-9.481250e-10,7.125000e-03
-9.441250e-10,6.656250e-03
-9.401250e-10,6.390625e-03
-9.361250e-10,5.531250e-03
-9.321250e-10,5.000000e-03
-9.281250e-10,4.500000e-03
-9.241250e-10,4.015625e-03
-9.201250e-10,3.578125e-03
-9.161250e-10,3.500000e-03
-9.121250e-10,2.859375e-03
-9.081250e-10,2.468750e-03
-9.041250e-10,2.328125e-03
-9.001250e-10,2.453125e-03
-8.961250e-10,2.031250e-03
-8.921250e-10,1.953125e-03
-8.881250e-10,1.937500e-03
-8.841250e-10,1.953125e-03
-8.801250e-10,2.031250e-03
-8.761250e-10,2.437500e-03
-8.721250e-10,2.281250e-03
-8.681250e-10,2.359375e-03
-8.641250e-10,2.656250e-03
-8.601250e-10,3.187500e-03
-8.561250e-10,3.125000e-03
-8.521250e-10,3.359375e-03
-8.481250e-10,3.609375e-03
-8.441250e-10,3.859375e-03
-8.401250e-10,4.109375e-03
-8.361250e-10,4.656250e-03
-8.321250e-10,4.578125e-03
-8.281250e-10,4.687500e-03
-8.241250e-10,5.000000e-03
-8.201250e-10,5.484375e-03
-8.161250e-10,5.343750e-03
-8.121250e-10,5.500000e-03
-8.081250e-10,5.640625e-03
-8.041250e-10,5.750000e-03
-8.001250e-10,5.875000e-03
-7.961250e-10,6.265625e-03
-7.921250e-10,6.062500e-03
-7.881250e-10,6.031250e-03
-7.841250e-10,6.218750e-03
-7.801250e-10,6.609375e-03
-7.761250e-10,6.375000e-03
-7.721250e-10,6.468750e-03
-7.681250e-10,6.562500e-03
-7.641250e-10,6.656250e-03
-7.601250e-10,6.765625e-03
-7.561250e-10,7.171875e-03
-7.521250e-10,7.000000e-03
-7.481250e-10,7.031250e-03
-7.441250e-10,7.281250e-03
-7.401250e-10,7.734375e-03
-7.361250e-10,7.593750e-03
-7.321250e-10,7.750000e-03
-7.281250e-10,7.921875e-03
-7.241250e-10,8.078125e-03
-7.201250e-10,8.234375e-03
-7.161250e-10,8.687500e-03
-7.121250e-10,8.531250e-03
-7.081250e-10,8.562500e-03
-7.041250e-10,8.765625e-03
-7.001250e-10,9.156250e-03
-6.961250e-10,8.921875e-03
-6.921250e-10,8.953125e-03
-6.881250e-10,8.968750e-03
-6.841250e-10,8.937500e-03
-6.801250e-10,8.875000e-03
-6.761250e-10,9.093750e-03
-6.721250e-10,8.671875e-03
-6.681250e-10,8.421875e-03
-6.641250e-10,8.328125e-03
-6.601250e-10,8.421875e-03
-6.561250e-10,7.875000e-03
-6.521250e-10,7.609375e-03
-6.481250e-10,7.328125e-03
-6.441250e-10,7.046875e-03
-6.401250e-10,6.734375e-03
-6.361250e-10,6.734375e-03
-6.321250e-10,6.125000e-03
-6.281250e-10,5.718750e-03
-6.241250e-10,5.546875e-03
-6.201250e-10,5.578125e-03
-6.161250e-10,5.046875e-03
-6.121250e-10,4.843750e-03
-6.081250e-10,4.671875e-03
-6.041250e-10,4.531250e-03
-6.001250e-10,4.453125e-03
-5.961250e-10,4.718750e-03
-5.921250e-10,4.421875e-03
-5.881250e-10,4.390625e-03
-5.841250e-10,4.609375e-03
-5.801250e-10,5.078125e-03
-5.761250e-10,5.000000e-03
-5.721250e-10,5.265625e-03
-5.681250e-10,5.578125e-03
-5.641250e-10,5.937500e-03
-5.601250e-10,6.328125e-03
-5.561250e-10,7.062500e-03
-5.521250e-10,7.203125e-03
-5.481250e-10,7.562500e-03
-5.441250e-10,8.140625e-03
-5.401250e-10,8.937500e-03
-5.361250e-10,9.109375e-03
-5.321250e-10,9.562500e-03
-5.281250e-10,1.001563e-02
-5.241250e-10,1.042188e-02
-5.201250e-10,1.079688e-02
-5.161250e-10,1.143750e-02
-5.121250e-10,1.142188e-02
-5.081250e-10,1.156250e-02
-5.041250e-10,1.184375e-02
-5.001250e-10,1.226563e-02
-4.961250e-10,1.201563e-02
-4.921250e-10,1.200000e-02
-4.881250e-10,1.190625e-02
-4.841250e-10,1.175000e-02
-4.801250e-10,1.154688e-02
-4.761250e-10,1.156250e-02
-4.721250e-10,1.092188e-02
-4.681250e-10,1.043750e-02
-4.641250e-10,1.010938e-02
-4.601250e-10,9.937500e-03
-4.561250e-10,9.125000e-03
-4.521250e-10,8.593750e-03
-4.481250e-10,8.031250e-03
-4.441250e-10,7.468750e-03
-4.401250e-10,6.906250e-03
-4.361250e-10,6.656250e-03
-4.321250e-10,5.796875e-03
-4.281250e-10,5.187500e-03
-4.241250e-10,4.796875e-03
-4.201250e-10,4.656250e-03
-4.161250e-10,3.968750e-03
-4.121250e-10,3.640625e-03
-4.081250e-10,3.328125e-03
-4.041250e-10,3.093750e-03
-4.001250e-10,2.906250e-03
-3.961250e-10,3.109375e-03
-3.921250e-10,2.750000e-03
-3.881250e-10,2.671875e-03
-3.841250e-10,2.859375e-03
-3.801250e-10,3.296875e-03
-3.761250e-10,3.218750e-03
-3.721250e-10,3.468750e-03
-3.681250e-10,3.750000e-03
-3.641250e-10,4.062500e-03
-3.601250e-10,4.406250e-03
-3.561250e-10,5.093750e-03
-3.521250e-10,5.171875e-03
-3.481250e-10,5.468750e-03
-3.441250e-10,6.000000e-03
-3.401250e-10,6.687500e-03
-3.361250e-10,6.796875e-03
-3.321250e-10,7.171875e-03
-3.281250e-10,7.484375e-03
-3.241250e-10,7.750000e-03
-3.201250e-10,8.000000e-03
-3.161250e-10,8.500000e-03
-3.121250e-10,8.343750e-03
-3.081250e-10,8.328125e-03
-3.041250e-10,8.484375e-03
-3.001250e-10,8.765625e-03
-2.961250e-10,8.421875e-03
-2.921250e-10,8.312500e-03
-2.881250e-10,8.109375e-03
-2.841250e-10,7.843750e-03
-2.801250e-10,7.578125e-03
-2.761250e-10,7.531250e-03
-2.721250e-10,6.875000e-03
-2.681250e-10,6.375000e-03
-2.641250e-10,6.078125e-03
-2.601250e-10,5.937500e-03
-2.561250e-10,5.203125e-03
-2.521250e-10,4.781250e-03
-2.481250e-10,4.312500e-03
-2.441250e-10,3.828125e-03
-2.401250e-10,3.421875e-03
-2.361250e-10,3.296875e-03
-2.321250e-10,2.640625e-03
-2.281250e-10,2.187500e-03
-2.241250e-10,2.000000e-03
-2.201250e-10,2.046875e-03
-2.161250e-10,1.562500e-03
-2.121250e-10,1.421875e-03
-2.081250e-10,1.296875e-03
-2.041250e-10,1.187500e-03
-2.001250e-10,1.203125e-03
-1.961250e-10,1.515625e-03
-1.921250e-10,1.343750e-03
-1.881250e-10,1.375000e-03
-1.841250e-10,1.671875e-03
-1.801250e-10,2.187500e-03
-1.761250e-10,2.156250e-03
-1.721250e-10,2.468750e-03
-1.681250e-10,2.765625e-03
-1.641250e-10,3.046875e-03
-1.601250e-10,3.437500e-03
-1.561250e-10,4.062500e-03
-1.521250e-10,4.187500e-03
-1.481250e-10,4.468750e-03
-1.441250e-10,4.953125e-03
-1.401250e-10,5.640625e-03
-1.361250e-10,5.718750e-03
-1.321250e-10,6.093750e-03
-1.281250e-10,6.437500e-03
-1.241250e-10,6.750000e-03
-1.201250e-10,7.140625e-03
-1.161250e-10,7.750000e-03
-1.121250e-10,7.859375e-03
-1.081250e-10,8.109375e-03
-1.041250e-10,8.562500e-03
-1.001250e-10,9.265625e-03
-9.612500e-11,9.375000e-03
-9.212500e-11,9.796875e-03
-8.812500e-11,1.025000e-02
-8.412500e-11,1.073438e-02
-8.012500e-11,1.132813e-02
-7.612500e-11,1.223438e-02
-7.212500e-11,1.271875e-02
-6.812500e-11,1.342188e-02
-6.412500e-11,1.439063e-02
-6.012500e-11,1.570313e-02
-5.612500e-11,1.653125e-02
-5.212500e-11,1.775000e-02
-4.812500e-11,1.910938e-02
-4.412500e-11,2.059375e-02
-4.012500e-11,2.225000e-02
-3.612500e-11,2.432813e-02
-3.212500e-11,2.606250e-02
-2.812500e-11,2.810938e-02
-2.412500e-11,3.045313e-02
-2.012500e-11,3.321875e-02
-1.612500e-11,3.557813e-02
-1.212500e-11,3.834375e-02
-8.125000e-12,4.126563e-02
-4.125000e-12,4.435938e-02
-1.250000e-13,4.760938e-02
3.875000e-12,5.129688e-02
7.875000e-12,5.464063e-02
1.187500e-11,5.825000e-02
1.587500e-11,6.212500e-02
1.987500e-11,6.634375e-02
2.387500e-11,7.014063e-02
2.787500e-11,7.423438e-02
3.187500e-11,7.842188e-02
3.587500e-11,8.268750e-02
3.987500e-11,8.700000e-02
4.387500e-11,9.167188e-02
4.787500e-11,9.585938e-02
5.187500e-11,1.002188e-01
5.587500e-11,1.047188e-01
5.987500e-11,1.094063e-01
6.387500e-11,1.135781e-01
6.787500e-11,1.179375e-01
7.187500e-11,1.222500e-01
7.587500e-11,1.265156e-01
7.987500e-11,1.307031e-01
8.387500e-11,1.351250e-01
8.787500e-11,1.389688e-01
9.187500e-11,1.428750e-01
9.587500e-11,1.467969e-01
9.987500e-11,1.508125e-01
1.038750e-10,1.542500e-01
1.078750e-10,1.577656e-01
1.118750e-10,1.611563e-01
1.158750e-10,1.644375e-01
1.198750e-10,1.675781e-01
1.238750e-10,1.708594e-01
1.278750e-10,1.735313e-01
1.318750e-10,1.762188e-01
1.358750e-10,1.788750e-01
1.398750e-10,1.815625e-01
1.438750e-10,1.836719e-01
1.478750e-10,1.858125e-01
1.518750e-10,1.878281e-01
1.558750e-10,1.896875e-01
1.598750e-10,1.913906e-01
1.638750e-10,1.932031e-01
1.678750e-10,1.944063e-01
1.718750e-10,1.956094e-01
1.758750e-10,1.967656e-01
1.798750e-10,1.979531e-01
1.838750e-10,1.985156e-01
1.878750e-10,1.991563e-01
1.918750e-10,1.996406e-01
1.958750e-10,1.999688e-01
1.998750e-10,2.001406e-01
2.038750e-10,2.003906e-01
2.078750e-10,2.000469e-01
2.118750e-10,1.997031e-01
2.158750e-10,1.993125e-01
2.198750e-10,1.989531e-01
2.238750e-10,1.979688e-01
2.278750e-10,1.970781e-01
2.318750e-10,1.960469e-01
2.358750e-10,1.948750e-01
2.398750e-10,1.935625e-01
2.438750e-10,1.923281e-01
2.478750e-10,1.905313e-01
2.518750e-10,1.887656e-01
2.558750e-10,1.869844e-01
2.598750e-10,1.852500e-01
2.638750e-10,1.829375e-01
2.678750e-10,1.807969e-01
2.718750e-10,1.785156e-01
2.758750e-10,1.761719e-01
2.798750e-10,1.737500e-01
2.838750e-10,1.714219e-01
2.878750e-10,1.685938e-01
2.918750e-10,1.658750e-01
2.958750e-10,1.632031e-01
2.998750e-10,1.606406e-01
3.038750e-10,1.575469e-01
3.078750e-10,1.546875e-01
3.118750e-10,1.517813e-01
3.158750e-10,1.488594e-01
3.198750e-10,1.459219e-01
3.238750e-10,1.431563e-01
3.278750e-10,1.399063e-01
3.318750e-10,1.368438e-01
3.358750e-10,1.338906e-01
3.398750e-10,1.310781e-01
3.438750e-10,1.277813e-01
3.478750e-10,1.247969e-01
3.518750e-10,1.217813e-01
3.558750e-10,1.188125e-01
3.598750e-10,1.158438e-01
3.638750e-10,1.131094e-01
3.678750e-10,1.099063e-01
3.718750e-10,1.069219e-01
3.758750e-10,1.040781e-01
3.798750e-10,1.013906e-01
3.838750e-10,9.826563e-02
3.878750e-10,9.545313e-02
3.918750e-10,9.265625e-02
3.958750e-10,8.990625e-02
3.998750e-10,8.721875e-02
4.038750e-10,8.476563e-02
4.078750e-10,8.184375e-02
4.118750e-10,7.920313e-02
4.158750e-10,7.671875e-02
4.198750e-10,7.442188e-02
4.238750e-10,7.171875e-02
4.278750e-10,6.932813e-02
4.318750e-10,6.701563e-02
4.358750e-10,6.478125e-02
4.398750e-10,6.259375e-02
4.438750e-10,6.073438e-02
4.478750e-10,5.840625e-02
4.518750e-10,5.637500e-02
4.558750e-10,5.454688e-02
4.598750e-10,5.295313e-02
4.638750e-10,5.095313e-02
4.678750e-10,4.929688e-02
4.718750e-10,4.775000e-02
4.758750e-10,4.629688e-02
4.798750e-10,4.490625e-02
4.838750e-10,4.385938e-02
4.878750e-10,4.234375e-02
4.918750e-10,4.110938e-02
4.958750e-10,4.012500e-02
4.998750e-10,3.934375e-02
5.038750e-10,3.815625e-02
5.078750e-10,3.728125e-02
5.118750e-10,3.653125e-02
5.158750e-10,3.581250e-02
5.198750e-10,3.512500e-02
5.238750e-10,3.478125e-02
5.278750e-10,3.389063e-02
5.318750e-10,3.326563e-02
5.358750e-10,3.285938e-02
5.398750e-10,3.259375e-02
5.438750e-10,3.189063e-02
5.478750e-10,3.142188e-02
5.518750e-10,3.103125e-02
5.558750e-10,3.062500e-02
5.598750e-10,3.020313e-02
5.638750e-10,3.006250e-02
5.678750e-10,2.934375e-02
5.718750e-10,2.881250e-02
5.758750e-10,2.848438e-02
5.798750e-10,2.826563e-02
5.838750e-10,2.753125e-02
5.878750e-10,2.703125e-02
5.918750e-10,2.657813e-02
5.958750e-10,2.607813e-02
5.998750e-10,2.553125e-02
6.038750e-10,2.526563e-02
6.078750e-10,2.440625e-02
6.118750e-10,2.371875e-02
6.158750e-10,2.325000e-02
6.198750e-10,2.292188e-02
6.238750e-10,2.206250e-02
6.278750e-10,2.143750e-02
6.318750e-10,2.089063e-02
6.358750e-10,2.031250e-02
6.398750e-10,1.971875e-02
6.438750e-10,1.940625e-02
6.478750e-10,1.854688e-02
6.518750e-10,1.789063e-02
6.558750e-10,1.746875e-02
6.598750e-10,1.721875e-02
6.638750e-10,1.646875e-02
6.678750e-10,1.598438e-02
6.718750e-10,1.557813e-02
6.758750e-10,1.520313e-02
6.798750e-10,1.478125e-02
6.838750e-10,1.468750e-02
6.878750e-10,1.404688e-02
6.918750e-10,1.362500e-02
6.958750e-10,1.343750e-02
6.998750e-10,1.345313e-02
7.038750e-10,1.290625e-02
7.078750e-10,1.265625e-02
7.118750e-10,1.245313e-02
7.158750e-10,1.226563e-02
7.198750e-10,1.201563e-02
7.238750e-10,1.207813e-02
7.278750e-10,1.156250e-02
7.318750e-10,1.121875e-02
7.358750e-10,1.109375e-02
7.398750e-10,1.114063e-02
7.438750e-10,1.057813e-02
7.478750e-10,1.029688e-02
7.518750e-10,1.003125e-02
7.558750e-10,9.718750e-03
7.598750e-10,9.359375e-03
7.638750e-10,9.265625e-03
7.678750e-10,8.578125e-03
7.718750e-10,8.046875e-03
7.758750e-10,7.703125e-03
7.798750e-10,7.546875e-03
7.838750e-10,6.765625e-03
7.878750e-10,6.265625e-03
7.918750e-10,5.765625e-03
7.958750e-10,5.250000e-03
7.998750e-10,4.703125e-03
8.038750e-10,4.453125e-03
8.078750e-10,3.625000e-03
8.118750e-10,2.984375e-03
8.158750e-10,2.562500e-03
8.198750e-10,2.375000e-03
8.238750e-10,1.593750e-03
8.278750e-10,1.156250e-03
8.318750e-10,7.500000e-04
8.358750e-10,3.906250e-04
8.398750e-10,4.687500e-05
8.438750e-10,4.687500e-05
8.478750e-10,-5.000000e-04
8.518750e-10,-7.968750e-04
8.558750e-10,-8.125000e-04
8.598750e-10,-5.937500e-04
8.638750e-10,-9.062500e-04
8.678750e-10,-8.593750e-04
8.718750e-10,-7.500000e-04
8.758750e-10,-5.625000e-04
8.798750e-10,-3.593750e-04
8.838750e-10,2.187500e-04
8.878750e-10,2.343750e-04
8.918750e-10,5.000000e-04
8.958750e-10,1.015625e-03
8.998750e-10,1.781250e-03
9.038750e-10,1.968750e-03
9.078750e-10,2.484375e-03
9.118750e-10,3.031250e-03
9.158750e-10,3.593750e-03
9.198750e-10,4.156250e-03
9.238750e-10,5.031250e-03
9.278750e-10,5.281250e-03
9.318750e-10,5.734375e-03
9.358750e-10,6.390625e-03
9.398750e-10,7.203125e-03
9.438750e-10,7.406250e-03
9.478750e-10,7.859375e-03
9.518750e-10,8.281250e-03
9.558750e-10,8.687500e-03
9.598750e-10,9.015625e-03
9.638750e-10,9.609375e-03
9.678750e-10,9.546875e-03
9.718750e-10,9.640625e-03
9.758750e-10,9.890625e-03
9.798750e-10,1.029688e-02
9.838750e-10,1.003125e-02
9.878750e-10,1.003125e-02
9.918750e-10,9.984375e-03
9.958750e-10,9.890625e-03
9.998750e-10,9.734375e-03
1.003875e-09,9.859375e-03
1.007875e-09,9.343750e-03
1.011875e-09,9.000000e-03
1.015875e-09,8.828125e-03
1.019875e-09,8.843750e-03
1.023875e-09,8.218750e-03
1.027875e-09,7.890625e-03
1.031875e-09,7.578125e-03
1.035875e-09,7.234375e-03
1.039875e-09,6.906250e-03
1.043875e-09,6.875000e-03
1.047875e-09,6.265625e-03
1.051875e-09,5.859375e-03
1.055875e-09,5.687500e-03
1.059875e-09,5.718750e-03
1.063875e-09,5.187500e-03
1.067875e-09,4.984375e-03
1.071875e-09,4.812500e-03
1.075875e-09,4.656250e-03
1.079875e-09,4.546875e-03
1.083875e-09,4.765625e-03
1.087875e-09,4.421875e-03
1.091875e-09,4.312500e-03
1.095875e-09,4.421875e-03
1.099875e-09,4.781250e-03
1.103875e-09,4.578125e-03
1.107875e-09,4.687500e-03
1.111875e-09,4.828125e-03
1.115875e-09,5.015625e-03
1.119875e-09,5.203125e-03
1.123875e-09,5.718750e-03
1.127875e-09,5.656250e-03
1.131875e-09,5.812500e-03
1.135875e-09,6.187500e-03
1.139875e-09,6.765625e-03
1.143875e-09,6.750000e-03
1.147875e-09,7.046875e-03
1.151875e-09,7.343750e-03
1.155875e-09,7.656250e-03
1.159875e-09,7.953125e-03
1.163875e-09,8.546875e-03
1.167875e-09,8.515625e-03
1.171875e-09,8.687500e-03
1.175875e-09,9.046875e-03
1.179875e-09,9.593750e-03
1.183875e-09,9.515625e-03
1.187875e-09,9.718750e-03
1.191875e-09,9.906250e-03
1.195875e-09,1.004688e-02
1.199875e-09,1.018750e-02
1.203875e-09,1.059375e-02
1.207875e-09,1.035938e-02
1.211875e-09,1.029688e-02
1.215875e-09,1.040625e-02
1.219875e-09,1.067188e-02
1.223875e-09,1.031250e-02
1.227875e-09,1.021875e-02
1.231875e-09,1.009375e-02
1.235875e-09,9.937500e-03
1.239875e-09,9.750000e-03
1.243875e-09,9.843750e-03
1.247875e-09,9.296875e-03
1.251875e-09,8.921875e-03
1.255875e-09,8.718750e-03
1.259875e-09,8.718750e-03
1.263875e-09,8.078125e-03
1.267875e-09,7.734375e-03
1.271875e-09,7.375000e-03
1.275875e-09,7.000000e-03
1.279875e-09,6.640625e-03
1.283875e-09,6.578125e-03
1.287875e-09,5.921875e-03
1.291875e-09,5.468750e-03
1.295875e-09,5.250000e-03
1.299875e-09,5.234375e-03
1.303875e-09,4.656250e-03
1.307875e-09,4.406250e-03
1.311875e-09,4.171875e-03
1.315875e-09,4.000000e-03
1.319875e-09,3.843750e-03
1.323875e-09,4.046875e-03
1.327875e-09,3.687500e-03
1.331875e-09,3.578125e-03
1.335875e-09,3.718750e-03
1.339875e-09,4.093750e-03
1.343875e-09,3.921875e-03
1.347875e-09,4.093750e-03
1.351875e-09,4.312500e-03
1.355875e-09,4.562500e-03
1.359875e-09,4.859375e-03
1.363875e-09,5.484375e-03
1.367875e-09,5.531250e-03
1.371875e-09,5.812500e-03
1.375875e-09,6.312500e-03
1.379875e-09,7.015625e-03
1.383875e-09,7.125000e-03
1.387875e-09,7.546875e-03
1.391875e-09,7.953125e-03
1.395875e-09,8.343750e-03
1.399875e-09,8.703125e-03
1.403875e-09,9.359375e-03
1.407875e-09,9.359375e-03
1.411875e-09,9.531250e-03
1.415875e-09,9.875000e-03
1.419875e-09,1.035938e-02
1.423875e-09,1.018750e-02
1.427875e-09,1.028125e-02
1.431875e-09,1.031250e-02
1.435875e-09,1.028125e-02
1.439875e-09,1.020313e-02
1.443875e-09,1.035938e-02
1.447875e-09,9.875000e-03
1.451875e-09,9.531250e-03
1.455875e-09,9.359375e-03
1.459875e-09,9.328125e-03
1.463875e-09,8.671875e-03
1.467875e-09,8.281250e-03
1.471875e-09,7.875000e-03
1.475875e-09,7.437500e-03
1.479875e-09,7.000000e-03
1.483875e-09,6.875000e-03
1.487875e-09,6.125000e-03
1.491875e-09,5.609375e-03
1.495875e-09,5.312500e-03
1.499875e-09,5.234375e-03
1.503875e-09,4.593750e-03
1.507875e-09,4.281250e-03
1.511875e-09,4.015625e-03
1.515875e-09,3.812500e-03
1.519875e-09,3.640625e-03
1.523875e-09,3.843750e-03
1.527875e-09,3.484375e-03
1.531875e-09,3.375000e-03
1.535875e-09,3.531250e-03
1.539875e-09,3.953125e-03
1.543875e-09,3.812500e-03
1.547875e-09,4.015625e-03
1.551875e-09,4.265625e-03
1.555875e-09,4.546875e-03
1.559875e-09,4.859375e-03
1.563875e-09,5.515625e-03
1.567875e-09,5.578125e-03
1.571875e-09,5.843750e-03
1.575875e-09,6.328125e-03
1.579875e-09,7.000000e-03
1.583875e-09,7.062500e-03
1.587875e-09,7.421875e-03
1.591875e-09,7.734375e-03
1.595875e-09,8.031250e-03
1.599875e-09,8.296875e-03
1.603875e-09,8.812500e-03
1.607875e-09,8.687500e-03
1.611875e-09,8.703125e-03
1.615875e-09,8.890625e-03
1.619875e-09,9.218750e-03
1.623875e-09,8.890625e-03
1.627875e-09,8.812500e-03
1.631875e-09,8.687500e-03
1.635875e-09,8.515625e-03
1.639875e-09,8.296875e-03
1.643875e-09,8.343750e-03
1.647875e-09,7.765625e-03
1.651875e-09,7.343750e-03
1.655875e-09,7.109375e-03
1.659875e-09,7.062500e-03
1.663875e-09,6.406250e-03
1.667875e-09,6.046875e-03
1.671875e-09,5.687500e-03
1.675875e-09,5.359375e-03
1.679875e-09,5.031250e-03
1.683875e-09,5.031250e-03
1.687875e-09,4.468750e-03
1.691875e-09,4.140625e-03
1.695875e-09,4.031250e-03
1.699875e-09,4.187500e-03
1.703875e-09,3.781250e-03
1.707875e-09,3.718750e-03
1.711875e-09,3.687500e-03
1.715875e-09,3.718750e-03
1.719875e-09,3.796875e-03
1.723875e-09,4.218750e-03
1.727875e-09,4.062500e-03
1.731875e-09,4.156250e-03
1.735875e-09,4.484375e-03
1.739875e-09,5.031250e-03
1.743875e-09,5.000000e-03
1.747875e-09,5.281250e-03
1.751875e-09,5.578125e-03
1.755875e-09,5.890625e-03
1.759875e-09,6.187500e-03
