Measurements-streak-laser-independent/Photodiode-on-Tek-6GHz/Tek000_ch1_20190613132812061.csv

Model,MSO64
Waveform Type,ANALOG
Horizontal Units,s
Sample Interval,4.000000e-12
Record Length,1000
Zero Index,310.421875
Vertical Units,V

TIME,CH1
-1.241687e-09,5.578125e-03
-1.237687e-09,6.078125e-03
-1.233687e-09,5.968750e-03
-1.229687e-09,6.031250e-03
-1.225687e-09,6.281250e-03
-1.221687e-09,6.703125e-03
-1.217687e-09,6.500000e-03
-1.213688e-09,6.593750e-03
-1.209688e-09,6.656250e-03
-1.205688e-09,6.687500e-03
-1.201688e-09,6.703125e-03
-1.197688e-09,7.015625e-03
-1.193688e-09,6.687500e-03
-1.189687e-09,6.546875e-03
-1.185687e-09,6.609375e-03
-1.181687e-09,6.859375e-03
-1.177687e-09,6.500000e-03
-1.173687e-09,6.437500e-03
-1.169687e-09,6.375000e-03
-1.165687e-09,6.328125e-03
-1.161687e-09,6.296875e-03
-1.157687e-09,6.562500e-03
-1.153688e-09,6.250000e-03
-1.149688e-09,6.140625e-03
-1.145688e-09,6.250000e-03
-1.141688e-09,6.593750e-03
-1.137688e-09,6.343750e-03
-1.133688e-09,6.406250e-03
-1.129687e-09,6.500000e-03
-1.125687e-09,6.593750e-03
-1.121687e-09,6.703125e-03
-1.117687e-09,7.125000e-03
-1.113687e-09,6.937500e-03
-1.109687e-09,6.968750e-03
-1.105687e-09,7.187500e-03
-1.101687e-09,7.609375e-03
-1.097687e-09,7.406250e-03
-1.093688e-09,7.500000e-03
-1.089688e-09,7.562500e-03
-1.085688e-09,7.609375e-03
-1.081688e-09,7.640625e-03
-1.077688e-09,7.921875e-03
-1.073688e-09,7.578125e-03
-1.069687e-09,7.390625e-03
-1.065687e-09,7.390625e-03
-1.061687e-09,7.546875e-03
-1.057687e-09,7.046875e-03
-1.053687e-09,6.828125e-03
-1.049687e-09,6.593750e-03
-1.045687e-09,6.312500e-03
-1.041687e-09,6.015625e-03
-1.037687e-09,6.000000e-03
-1.033688e-09,5.359375e-03
-1.029688e-09,4.906250e-03
-1.025688e-09,4.656250e-03
-1.021688e-09,4.625000e-03
-1.017688e-09,3.984375e-03
-1.013688e-09,3.656250e-03
-1.009687e-09,3.359375e-03
-1.005687e-09,3.093750e-03
-1.001687e-09,2.859375e-03
-9.976875e-10,2.953125e-03
-9.936875e-10,2.500000e-03
-9.896875e-10,2.281250e-03
-9.856875e-10,2.312500e-03
-9.816875e-10,2.609375e-03
-9.776875e-10,2.328125e-03
-9.736875e-10,2.421875e-03
-9.696875e-10,2.546875e-03
-9.656875e-10,2.734375e-03
-9.616875e-10,2.953125e-03
-9.576875e-10,3.531250e-03
-9.536875e-10,3.515625e-03
-9.496875e-10,3.750000e-03
-9.456875e-10,4.203125e-03
-9.416875e-10,4.875000e-03
-9.376875e-10,4.937500e-03
-9.336875e-10,5.328125e-03
-9.296875e-10,5.687500e-03
-9.256875e-10,6.062500e-03
-9.216875e-10,6.406250e-03
-9.176875e-10,7.015625e-03
-9.136875e-10,7.000000e-03
-9.096875e-10,7.140625e-03
-9.056875e-10,7.453125e-03
-9.016875e-10,7.921875e-03
-8.976875e-10,7.734375e-03
-8.936875e-10,7.796875e-03
-8.896875e-10,7.812500e-03
-8.856875e-10,7.765625e-03
-8.816875e-10,7.671875e-03
-8.776875e-10,7.843750e-03
-8.736875e-10,7.359375e-03
-8.696875e-10,7.046875e-03
-8.656875e-10,6.890625e-03
-8.616875e-10,6.906250e-03
-8.576875e-10,6.281250e-03
-8.536875e-10,5.953125e-03
-8.496875e-10,5.625000e-03
-8.456875e-10,5.265625e-03
-8.416875e-10,4.921875e-03
-8.376875e-10,4.890625e-03
-8.336875e-10,4.265625e-03
-8.296875e-10,3.859375e-03
-8.256875e-10,3.687500e-03
-8.216875e-10,3.750000e-03
-8.176875e-10,3.234375e-03
-8.136875e-10,3.046875e-03
-8.096875e-10,2.906250e-03
-8.056875e-10,2.812500e-03
-8.016875e-10,2.750000e-03
-7.976875e-10,3.031250e-03
-7.936875e-10,2.750000e-03
-7.896875e-10,2.703125e-03
-7.856875e-10,2.890625e-03
-7.816875e-10,3.312500e-03
-7.776875e-10,3.140625e-03
-7.736875e-10,3.296875e-03
-7.696875e-10,3.468750e-03
-7.656875e-10,3.640625e-03
-7.616875e-10,3.812500e-03
-7.576875e-10,4.296875e-03
-7.536875e-10,4.156250e-03
-7.496875e-10,4.203125e-03
-7.456875e-10,4.437500e-03
-7.416875e-10,4.859375e-03
-7.376875e-10,4.625000e-03
-7.336875e-10,4.671875e-03
-7.296875e-10,4.687500e-03
-7.256875e-10,4.671875e-03
-7.216875e-10,4.625000e-03
-7.176875e-10,4.828125e-03
-7.136875e-10,4.406250e-03
-7.096875e-10,4.140625e-03
-7.056875e-10,4.046875e-03
-7.016875e-10,4.125000e-03
-6.976875e-10,3.578125e-03
-6.936875e-10,3.312500e-03
-6.896875e-10,3.031250e-03
-6.856875e-10,2.734375e-03
-6.816875e-10,2.421875e-03
-6.776875e-10,2.421875e-03
-6.736875e-10,1.812500e-03
-6.696875e-10,1.406250e-03
-6.656875e-10,1.234375e-03
-6.616875e-10,1.265625e-03
-6.576875e-10,7.187500e-04
-6.536875e-10,5.000000e-04
-6.496875e-10,2.968750e-04
-6.456875e-10,1.406250e-04
-6.416875e-10,5.551115e-17
-6.376875e-10,2.187500e-04
-6.336875e-10,-1.562500e-04
-6.296875e-10,-2.968750e-04
-6.256875e-10,-1.875000e-04
-6.216875e-10,1.562500e-04
-6.176875e-10,-9.375000e-05
-6.136875e-10,5.551115e-17
-6.096875e-10,1.250000e-04
-6.056875e-10,2.500000e-04
-6.016875e-10,4.218750e-04
-5.976875e-10,8.906250e-04
-5.936875e-10,7.812500e-04
-5.896875e-10,8.750000e-04
-5.856875e-10,1.187500e-03
-5.816875e-10,1.703125e-03
-5.776875e-10,1.609375e-03
-5.736875e-10,1.812500e-03
-5.696875e-10,2.015625e-03
-5.656875e-10,2.218750e-03
-5.616875e-10,2.421875e-03
-5.576875e-10,2.906250e-03
-5.536875e-10,2.781250e-03
-5.496875e-10,2.859375e-03
-5.456875e-10,3.125000e-03
-5.416875e-10,3.593750e-03
-5.376875e-10,3.453125e-03
-5.336875e-10,3.593750e-03
-5.296875e-10,3.734375e-03
-5.256875e-10,3.890625e-03
-5.216875e-10,4.031250e-03
-5.176875e-10,4.484375e-03
-5.136875e-10,4.328125e-03
-5.096875e-10,4.375000e-03
-5.056875e-10,4.625000e-03
-5.016875e-10,5.093750e-03
-4.976875e-10,4.968750e-03
-4.936875e-10,5.140625e-03
-4.896875e-10,5.312500e-03
-4.856875e-10,5.500000e-03
-4.816875e-10,5.687500e-03
-4.776875e-10,6.171875e-03
-4.736875e-10,6.046875e-03
-4.696875e-10,6.140625e-03
-4.656875e-10,6.421875e-03
-4.616875e-10,6.890625e-03
-4.576875e-10,6.765625e-03
-4.536875e-10,6.906250e-03
-4.496875e-10,7.031250e-03
-4.456875e-10,7.140625e-03
-4.416875e-10,7.234375e-03
-4.376875e-10,7.609375e-03
-4.336875e-10,7.343750e-03
-4.296875e-10,7.250000e-03
-4.256875e-10,7.343750e-03
-4.216875e-10,7.609375e-03
-4.176875e-10,7.234375e-03
-4.136875e-10,7.140625e-03
-4.096875e-10,7.000000e-03
-4.056875e-10,6.843750e-03
-4.016875e-10,6.656250e-03
-3.976875e-10,6.750000e-03
-3.936875e-10,6.218750e-03
-3.896875e-10,5.890625e-03
-3.856875e-10,5.750000e-03
-3.816875e-10,5.812500e-03
-3.776875e-10,5.265625e-03
-3.736875e-10,5.031250e-03
-3.696875e-10,4.781250e-03
-3.656875e-10,4.531250e-03
-3.616875e-10,4.328125e-03
-3.576875e-10,4.437500e-03
-3.536875e-10,3.984375e-03
-3.496875e-10,3.750000e-03
-3.456875e-10,3.765625e-03
-3.416875e-10,4.000000e-03
-3.376875e-10,3.703125e-03
-3.336875e-10,3.750000e-03
-3.296875e-10,3.796875e-03
-3.256875e-10,3.875000e-03
-3.216875e-10,4.015625e-03
-3.176875e-10,4.484375e-03
-3.136875e-10,4.406250e-03
-3.096875e-10,4.531250e-03
-3.056875e-10,4.921875e-03
-3.016875e-10,5.531250e-03
-2.976875e-10,5.562500e-03
-2.936875e-10,5.921875e-03
-2.896875e-10,6.234375e-03
-2.856875e-10,6.562500e-03
-2.816875e-10,6.906250e-03
-2.776875e-10,7.531250e-03
-2.736875e-10,7.546875e-03
-2.696875e-10,7.734375e-03
-2.656875e-10,8.125000e-03
-2.616875e-10,8.671875e-03
-2.576875e-10,8.593750e-03
-2.536875e-10,8.796875e-03
-2.496875e-10,8.906250e-03
-2.456875e-10,8.968750e-03
-2.416875e-10,9.031250e-03
-2.376875e-10,9.312500e-03
-2.336875e-10,9.000000e-03
-2.296875e-10,8.812500e-03
-2.256875e-10,8.812500e-03
-2.216875e-10,8.953125e-03
-2.176875e-10,8.484375e-03
-2.136875e-10,8.281250e-03
-2.096875e-10,8.031250e-03
-2.056875e-10,7.734375e-03
-2.016875e-10,7.484375e-03
-1.976875e-10,7.484375e-03
-1.936875e-10,6.953125e-03
-1.896875e-10,6.562500e-03
-1.856875e-10,6.421875e-03
-1.816875e-10,6.500000e-03
-1.776875e-10,6.000000e-03
-1.736875e-10,5.828125e-03
-1.696875e-10,5.671875e-03
-1.656875e-10,5.546875e-03
-1.616875e-10,5.515625e-03
-1.576875e-10,5.781250e-03
-1.536875e-10,5.578125e-03
-1.496875e-10,5.578125e-03
-1.456875e-10,5.843750e-03
-1.416875e-10,6.375000e-03
-1.376875e-10,6.359375e-03
-1.336875e-10,6.703125e-03
-1.296875e-10,7.093750e-03
-1.256875e-10,7.531250e-03
-1.216875e-10,8.062500e-03
-1.176875e-10,8.906250e-03
-1.136875e-10,9.296875e-03
-1.096875e-10,9.875000e-03
-1.056875e-10,1.068750e-02
-1.016875e-10,1.178125e-02
-9.768750e-11,1.231250e-02
-9.368750e-11,1.317188e-02
-8.968750e-11,1.407813e-02
-8.568750e-11,1.500000e-02
-8.168750e-11,1.601563e-02
-7.768750e-11,1.731250e-02
-7.368750e-11,1.815625e-02
-6.968750e-11,1.917188e-02
-6.568750e-11,2.040625e-02
-6.168750e-11,2.190625e-02
-5.768750e-11,2.287500e-02
-5.368750e-11,2.415625e-02
-4.968750e-11,2.548438e-02
-4.568750e-11,2.685938e-02
-4.168750e-11,2.831250e-02
-3.768750e-11,3.010938e-02
-3.368750e-11,3.143750e-02
-2.968750e-11,3.300000e-02
-2.568750e-11,3.479688e-02
-2.168750e-11,3.689063e-02
-1.768750e-11,3.850000e-02
-1.368750e-11,4.043750e-02
-9.687500e-12,4.246875e-02
-5.687500e-12,4.459375e-02
-1.687500e-12,4.679688e-02
2.312500e-12,4.940625e-02
6.312500e-12,5.157813e-02
1.031250e-11,5.400000e-02
1.431250e-11,5.667188e-02
1.831250e-11,5.965625e-02
2.231250e-11,6.217188e-02
2.631250e-11,6.501563e-02
3.031250e-11,6.795313e-02
3.431250e-11,7.096875e-02
3.831250e-11,7.404688e-02
4.231250e-11,7.750000e-02
4.631250e-11,8.050000e-02
5.031250e-11,8.370313e-02
5.431250e-11,8.707813e-02
5.831250e-11,9.070313e-02
6.231250e-11,9.384375e-02
6.631250e-11,9.723438e-02
7.031250e-11,1.006094e-01
7.431250e-11,1.040156e-01
7.831250e-11,1.073750e-01
8.231250e-11,1.110313e-01
8.631250e-11,1.141250e-01
9.031250e-11,1.173438e-01
9.431250e-11,1.206406e-01
9.831250e-11,1.240625e-01
1.023125e-10,1.269375e-01
1.063125e-10,1.299375e-01
1.103125e-10,1.328438e-01
1.143125e-10,1.356563e-01
1.183125e-10,1.383594e-01
1.223125e-10,1.412344e-01
1.263125e-10,1.434844e-01
1.303125e-10,1.457656e-01
1.343125e-10,1.480313e-01
1.383125e-10,1.503594e-01
1.423125e-10,1.520469e-01
1.463125e-10,1.537969e-01
1.503125e-10,1.554063e-01
1.543125e-10,1.568594e-01
1.583125e-10,1.581406e-01
1.623125e-10,1.595313e-01
1.663125e-10,1.602656e-01
1.703125e-10,1.609844e-01
1.743125e-10,1.616563e-01
1.783125e-10,1.623438e-01
1.823125e-10,1.623750e-01
1.863125e-10,1.624844e-01
1.903125e-10,1.624219e-01
1.943125e-10,1.621875e-01
1.983125e-10,1.617813e-01
2.023125e-10,1.614688e-01
2.063125e-10,1.605156e-01
2.103125e-10,1.595625e-01
2.143125e-10,1.585938e-01
2.183125e-10,1.576563e-01
2.223125e-10,1.560781e-01
2.263125e-10,1.546406e-01
2.303125e-10,1.530469e-01
2.343125e-10,1.513438e-01
2.383125e-10,1.495313e-01
2.423125e-10,1.478281e-01
2.463125e-10,1.455625e-01
2.503125e-10,1.433750e-01
2.543125e-10,1.412188e-01
2.583125e-10,1.391719e-01
2.623125e-10,1.365469e-01
2.663125e-10,1.341406e-01
2.703125e-10,1.316719e-01
2.743125e-10,1.291719e-01
2.783125e-10,1.266250e-01
2.823125e-10,1.242813e-01
2.863125e-10,1.214219e-01
2.903125e-10,1.187500e-01
2.943125e-10,1.161875e-01
2.983125e-10,1.137969e-01
3.023125e-10,1.108906e-01
3.063125e-10,1.082969e-01
3.103125e-10,1.056875e-01
3.143125e-10,1.031250e-01
3.183125e-10,1.005781e-01
3.223125e-10,9.826563e-02
3.263125e-10,9.548438e-02
3.303125e-10,9.293750e-02
3.343125e-10,9.054688e-02
3.383125e-10,8.835938e-02
3.423125e-10,8.567188e-02
3.463125e-10,8.331250e-02
3.503125e-10,8.098438e-02
3.543125e-10,7.868750e-02
3.583125e-10,7.643750e-02
3.623125e-10,7.445313e-02
3.663125e-10,7.196875e-02
3.703125e-10,6.973438e-02
3.743125e-10,6.765625e-02
3.783125e-10,6.578125e-02
3.823125e-10,6.340625e-02
3.863125e-10,6.137500e-02
3.903125e-10,5.935938e-02
3.943125e-10,5.739063e-02
3.983125e-10,5.545313e-02
4.023125e-10,5.381250e-02
4.063125e-10,5.165625e-02
4.103125e-10,4.975000e-02
4.143125e-10,4.804688e-02
4.183125e-10,4.654688e-02
4.223125e-10,4.459375e-02
4.263125e-10,4.295313e-02
4.303125e-10,4.139063e-02
4.343125e-10,3.989063e-02
4.383125e-10,3.843750e-02
4.423125e-10,3.732813e-02
4.463125e-10,3.571875e-02
4.503125e-10,3.439063e-02
4.543125e-10,3.329688e-02
4.583125e-10,3.243750e-02
4.623125e-10,3.114063e-02
4.663125e-10,3.018750e-02
4.703125e-10,2.932813e-02
4.743125e-10,2.854688e-02
4.783125e-10,2.784375e-02
4.823125e-10,2.748438e-02
4.863125e-10,2.660938e-02
4.903125e-10,2.603125e-02
4.943125e-10,2.570313e-02
4.983125e-10,2.557813e-02
5.023125e-10,2.500000e-02
5.063125e-10,2.473438e-02
5.103125e-10,2.456250e-02
5.143125e-10,2.442188e-02
5.183125e-10,2.431250e-02
5.223125e-10,2.450000e-02
5.263125e-10,2.414063e-02
5.303125e-10,2.400000e-02
5.343125e-10,2.407813e-02
5.383125e-10,2.429688e-02
5.423125e-10,2.400000e-02
5.463125e-10,2.393750e-02
5.503125e-10,2.392188e-02
5.543125e-10,2.385938e-02
5.583125e-10,2.375000e-02
5.623125e-10,2.390625e-02
5.663125e-10,2.343750e-02
5.703125e-10,2.312500e-02
5.743125e-10,2.296875e-02
5.783125e-10,2.293750e-02
5.823125e-10,2.231250e-02
5.863125e-10,2.189063e-02
5.903125e-10,2.148438e-02
5.943125e-10,2.098438e-02
5.983125e-10,2.042188e-02
6.023125e-10,2.009375e-02
6.063125e-10,1.914063e-02
6.103125e-10,1.832813e-02
6.143125e-10,1.770313e-02
6.183125e-10,1.718750e-02
6.223125e-10,1.607813e-02
6.263125e-10,1.521875e-02
6.303125e-10,1.437500e-02
6.343125e-10,1.348438e-02
6.383125e-10,1.254688e-02
6.423125e-10,1.189063e-02
6.463125e-10,1.065625e-02
6.503125e-10,9.593750e-03
6.543125e-10,8.781250e-03
6.583125e-10,8.140625e-03
6.623125e-10,6.953125e-03
6.663125e-10,6.062500e-03
6.703125e-10,5.234375e-03
6.743125e-10,4.437500e-03
6.783125e-10,3.640625e-03
6.823125e-10,3.171875e-03
6.863125e-10,2.187500e-03
6.903125e-10,1.453125e-03
6.943125e-10,9.843750e-04
6.983125e-10,7.656250e-04
7.023125e-10,1.562500e-05
7.063125e-10,-3.593750e-04
7.103125e-10,-6.562500e-04
7.143125e-10,-8.750000e-04
7.183125e-10,-1.078125e-03
7.223125e-10,-8.906250e-04
7.263125e-10,-1.234375e-03
7.303125e-10,-1.296875e-03
7.343125e-10,-1.093750e-03
7.383125e-10,-6.250000e-04
7.423125e-10,-6.875000e-04
7.463125e-10,-3.906250e-04
7.503125e-10,-3.125000e-05
7.543125e-10,3.906250e-04
7.583125e-10,8.281250e-04
7.623125e-10,1.593750e-03
7.663125e-10,1.812500e-03
7.703125e-10,2.265625e-03
7.743125e-10,2.937500e-03
7.783125e-10,3.812500e-03
7.823125e-10,4.109375e-03
7.863125e-10,4.703125e-03
7.903125e-10,5.296875e-03
7.943125e-10,5.890625e-03
7.983125e-10,6.437500e-03
8.023125e-10,7.250000e-03
8.063125e-10,7.453125e-03
8.103125e-10,7.796875e-03
8.143125e-10,8.312500e-03
8.183125e-10,8.984375e-03
8.223125e-10,9.015625e-03
8.263125e-10,9.281250e-03
8.303125e-10,9.484375e-03
8.343125e-10,9.656250e-03
8.383125e-10,9.734375e-03
8.423125e-10,1.007813e-02
8.463125e-10,9.750000e-03
8.503125e-10,9.578125e-03
8.543125e-10,9.562500e-03
8.583125e-10,9.687500e-03
8.623125e-10,9.187500e-03
8.663125e-10,8.937500e-03
8.703125e-10,8.656250e-03
8.743125e-10,8.359375e-03
8.783125e-10,8.031250e-03
8.823125e-10,8.000000e-03
8.863125e-10,7.359375e-03
8.903125e-10,6.921875e-03
8.943125e-10,6.703125e-03
8.983125e-10,6.703125e-03
9.023125e-10,6.125000e-03
9.063125e-10,5.875000e-03
9.103125e-10,5.656250e-03
9.143125e-10,5.500000e-03
9.183125e-10,5.375000e-03
9.223125e-10,5.609375e-03
9.263125e-10,5.281250e-03
9.303125e-10,5.218750e-03
9.343125e-10,5.421875e-03
9.383125e-10,5.875000e-03
9.423125e-10,5.796875e-03
9.463125e-10,6.062500e-03
9.503125e-10,6.390625e-03
9.543125e-10,6.750000e-03
9.583125e-10,7.156250e-03
9.623125e-10,7.906250e-03
9.663125e-10,8.078125e-03
9.703125e-10,8.484375e-03
9.743125e-10,9.109375e-03
9.783125e-10,9.937500e-03
9.823125e-10,1.018750e-02
9.863125e-10,1.070313e-02
9.903125e-10,1.123438e-02
9.943125e-10,1.173438e-02
9.983125e-10,1.220313e-02
1.002312e-09,1.293750e-02
1.006312e-09,1.303125e-02
1.010312e-09,1.326563e-02
1.014312e-09,1.367188e-02
1.018312e-09,1.421875e-02
1.022312e-09,1.410938e-02
1.026312e-09,1.423438e-02
1.030312e-09,1.431250e-02
1.034312e-09,1.431250e-02
1.038313e-09,1.426563e-02
1.042313e-09,1.445313e-02
1.046313e-09,1.398438e-02
1.050313e-09,1.367188e-02
1.054313e-09,1.351563e-02
1.058313e-09,1.351563e-02
1.062312e-09,1.287500e-02
1.066312e-09,1.251563e-02
1.070312e-09,1.212500e-02
1.074312e-09,1.171875e-02
1.078312e-09,1.129688e-02
1.082312e-09,1.118750e-02
1.086312e-09,1.046875e-02
1.090312e-09,9.968750e-03
1.094312e-09,9.671875e-03
1.098313e-09,9.609375e-03
1.102313e-09,8.968750e-03
1.106313e-09,8.656250e-03
1.110313e-09,8.359375e-03
1.114313e-09,8.109375e-03
1.118313e-09,7.906250e-03
1.122312e-09,8.015625e-03
1.126312e-09,7.562500e-03
1.130312e-09,7.359375e-03
1.134312e-09,7.375000e-03
1.138312e-09,7.625000e-03
1.142312e-09,7.281250e-03
1.146312e-09,7.265625e-03
1.150312e-09,7.281250e-03
1.154312e-09,7.281250e-03
1.158313e-09,7.312500e-03
1.162313e-09,7.625000e-03
1.166313e-09,7.343750e-03
1.170313e-09,7.234375e-03
1.174313e-09,7.328125e-03
1.178313e-09,7.593750e-03
1.182312e-09,7.234375e-03
1.186312e-09,7.156250e-03
1.190312e-09,7.046875e-03
1.194312e-09,6.890625e-03
1.198312e-09,6.718750e-03
1.202312e-09,6.796875e-03
1.206312e-09,6.250000e-03
1.210312e-09,5.875000e-03
1.214312e-09,5.671875e-03
1.218313e-09,5.640625e-03
1.222313e-09,4.984375e-03
1.226313e-09,4.625000e-03
1.230313e-09,4.250000e-03
1.234313e-09,3.859375e-03
1.238313e-09,3.468750e-03
1.242312e-09,3.406250e-03
1.246312e-09,2.734375e-03
1.250312e-09,2.281250e-03
1.254312e-09,2.062500e-03
1.258312e-09,2.093750e-03
1.262312e-09,1.531250e-03
1.266312e-09,1.343750e-03
1.270312e-09,1.187500e-03
1.274312e-09,1.078125e-03
1.278313e-09,1.031250e-03
1.282313e-09,1.343750e-03
1.286313e-09,1.109375e-03
1.290313e-09,1.140625e-03
1.294313e-09,1.437500e-03
1.298313e-09,1.968750e-03
1.302312e-09,1.968750e-03
1.306312e-09,2.312500e-03
1.310312e-09,2.703125e-03
1.314312e-09,3.140625e-03
1.318312e-09,3.609375e-03
1.322312e-09,4.406250e-03
1.326312e-09,4.609375e-03
1.330312e-09,5.031250e-03
1.334312e-09,5.656250e-03
1.338312e-09,6.484375e-03
1.342313e-09,6.687500e-03
1.346313e-09,7.171875e-03
1.350313e-09,7.640625e-03
1.354313e-09,8.062500e-03
1.358313e-09,8.437500e-03
1.362312e-09,9.078125e-03
1.366312e-09,9.062500e-03
1.370312e-09,9.187500e-03
1.374312e-09,9.437500e-03
1.378312e-09,9.843750e-03
1.382312e-09,9.578125e-03
1.386312e-09,9.531250e-03
1.390312e-09,9.437500e-03
1.394312e-09,9.281250e-03
1.398312e-09,9.062500e-03
1.402313e-09,9.093750e-03
1.406313e-09,8.453125e-03
1.410313e-09,7.984375e-03
1.414313e-09,7.671875e-03
1.418313e-09,7.531250e-03
1.422312e-09,6.750000e-03
1.426312e-09,6.250000e-03
1.430312e-09,5.765625e-03
1.434312e-09,5.265625e-03
1.438312e-09,4.765625e-03
1.442312e-09,4.593750e-03
1.446312e-09,3.843750e-03
1.450312e-09,3.312500e-03
1.454312e-09,3.031250e-03
1.458312e-09,3.000000e-03
1.462313e-09,2.406250e-03
1.466313e-09,2.171875e-03
1.470313e-09,2.000000e-03
1.474313e-09,1.875000e-03
1.478313e-09,1.828125e-03
1.482312e-09,2.140625e-03
1.486312e-09,1.906250e-03
1.490312e-09,1.953125e-03
1.494312e-09,2.265625e-03
1.498312e-09,2.843750e-03
1.502312e-09,2.859375e-03
1.506312e-09,3.234375e-03
1.510312e-09,3.671875e-03
1.514312e-09,4.140625e-03
1.518312e-09,4.640625e-03
1.522313e-09,5.484375e-03
1.526313e-09,5.734375e-03
1.530313e-09,6.203125e-03
1.534313e-09,6.890625e-03
1.538313e-09,7.781250e-03
1.542312e-09,8.062500e-03
1.546312e-09,8.625000e-03
1.550312e-09,9.171875e-03
1.554312e-09,9.687500e-03
1.558312e-09,1.017188e-02
1.562312e-09,1.092188e-02
1.566312e-09,1.101563e-02
1.570312e-09,1.126563e-02
1.574312e-09,1.167188e-02
1.578312e-09,1.221875e-02
1.582313e-09,1.210938e-02
1.586313e-09,1.225000e-02
1.590313e-09,1.231250e-02
1.594313e-09,1.232813e-02
1.598313e-09,1.229688e-02
1.602312e-09,1.250000e-02
1.606312e-09,1.203125e-02
1.610312e-09,1.173438e-02
1.614312e-09,1.157813e-02
1.618312e-09,1.157813e-02
1.622312e-09,1.092188e-02
1.626312e-09,1.054688e-02
1.630312e-09,1.014063e-02
1.634312e-09,9.687500e-03
1.638312e-09,9.234375e-03
1.642313e-09,9.046875e-03
1.646313e-09,8.250000e-03
1.650313e-09,7.656250e-03
1.654313e-09,7.250000e-03
1.658313e-09,7.046875e-03
1.662312e-09,6.250000e-03
1.666312e-09,5.765625e-03
1.670312e-09,5.281250e-03
1.674312e-09,4.828125e-03
1.678312e-09,4.406250e-03
1.682312e-09,4.296875e-03
1.686312e-09,3.609375e-03
1.690312e-09,3.156250e-03
1.694312e-09,2.937500e-03
1.698312e-09,2.953125e-03
1.702313e-09,2.390625e-03
1.706313e-09,2.171875e-03
1.710313e-09,1.984375e-03
1.714313e-09,1.828125e-03
1.718313e-09,1.703125e-03
1.722312e-09,1.921875e-03
1.726312e-09,1.578125e-03
1.730312e-09,1.453125e-03
1.734312e-09,1.578125e-03
1.738312e-09,1.921875e-03
1.742312e-09,1.687500e-03
1.746312e-09,1.781250e-03
1.750312e-09,1.906250e-03
1.754312e-09,2.062500e-03
