Measurements-streak-laser-independent/Photodiode-on-Tek-6GHz/Tek000_ch1_20190613132804840.csv

Model,MSO64
Waveform Type,ANALOG
Horizontal Units,s
Sample Interval,4.000000e-12
Record Length,1000
Zero Index,310.976562
Vertical Units,V

TIME,CH1
-1.243906e-09,8.031250e-03
-1.239906e-09,7.968750e-03
-1.235906e-09,7.890625e-03
-1.231906e-09,8.078125e-03
-1.227906e-09,7.625000e-03
-1.223906e-09,7.328125e-03
-1.219906e-09,7.218750e-03
-1.215906e-09,7.281250e-03
-1.211906e-09,6.703125e-03
-1.207906e-09,6.406250e-03
-1.203906e-09,6.093750e-03
-1.199906e-09,5.750000e-03
-1.195906e-09,5.406250e-03
-1.191906e-09,5.343750e-03
-1.187906e-09,4.687500e-03
-1.183906e-09,4.203125e-03
-1.179906e-09,3.937500e-03
-1.175906e-09,3.890625e-03
-1.171906e-09,3.234375e-03
-1.167906e-09,2.906250e-03
-1.163906e-09,2.578125e-03
-1.159906e-09,2.296875e-03
-1.155906e-09,2.015625e-03
-1.151906e-09,2.078125e-03
-1.147906e-09,1.562500e-03
-1.143906e-09,1.296875e-03
-1.139906e-09,1.250000e-03
-1.135906e-09,1.453125e-03
-1.131906e-09,1.093750e-03
-1.127906e-09,1.062500e-03
-1.123906e-09,1.093750e-03
-1.119906e-09,1.140625e-03
-1.115906e-09,1.250000e-03
-1.111906e-09,1.687500e-03
-1.107906e-09,1.546875e-03
-1.103906e-09,1.656250e-03
-1.099906e-09,1.984375e-03
-1.095906e-09,2.562500e-03
-1.091906e-09,2.546875e-03
-1.087906e-09,2.843750e-03
-1.083906e-09,3.171875e-03
-1.079906e-09,3.515625e-03
-1.075906e-09,3.859375e-03
-1.071906e-09,4.515625e-03
-1.067906e-09,4.562500e-03
-1.063906e-09,4.812500e-03
-1.059906e-09,5.250000e-03
-1.055906e-09,5.890625e-03
-1.051906e-09,5.890625e-03
-1.047906e-09,6.187500e-03
-1.043906e-09,6.453125e-03
-1.039906e-09,6.687500e-03
-1.035906e-09,6.890625e-03
-1.031906e-09,7.375000e-03
-1.027906e-09,7.218750e-03
-1.023906e-09,7.234375e-03
-1.019906e-09,7.406250e-03
-1.015906e-09,7.750000e-03
-1.011906e-09,7.453125e-03
-1.007906e-09,7.421875e-03
-1.003906e-09,7.375000e-03
-9.999062e-10,7.281250e-03
-9.959062e-10,7.156250e-03
-9.919062e-10,7.312500e-03
-9.879062e-10,6.828125e-03
-9.839063e-10,6.531250e-03
-9.799063e-10,6.421875e-03
-9.759063e-10,6.500000e-03
-9.719063e-10,5.953125e-03
-9.679063e-10,5.718750e-03
-9.639063e-10,5.468750e-03
-9.599062e-10,5.203125e-03
-9.559062e-10,4.953125e-03
-9.519062e-10,5.015625e-03
-9.479062e-10,4.484375e-03
-9.439062e-10,4.156250e-03
-9.399062e-10,4.046875e-03
-9.359062e-10,4.156250e-03
-9.319062e-10,3.671875e-03
-9.279062e-10,3.500000e-03
-9.239063e-10,3.375000e-03
-9.199063e-10,3.250000e-03
-9.159062e-10,3.156250e-03
-9.119062e-10,3.375000e-03
-9.079062e-10,3.015625e-03
-9.039062e-10,2.890625e-03
-8.999062e-10,2.968750e-03
-8.959063e-10,3.281250e-03
-8.919063e-10,3.000000e-03
-8.879063e-10,3.031250e-03
-8.839062e-10,3.078125e-03
-8.799062e-10,3.156250e-03
-8.759062e-10,3.218750e-03
-8.719062e-10,3.609375e-03
-8.679062e-10,3.390625e-03
-8.639063e-10,3.390625e-03
-8.599063e-10,3.593750e-03
-8.559062e-10,3.984375e-03
-8.519062e-10,3.781250e-03
-8.479062e-10,3.875000e-03
-8.439062e-10,3.968750e-03
-8.399062e-10,4.046875e-03
-8.359063e-10,4.125000e-03
-8.319063e-10,4.500000e-03
-8.279063e-10,4.250000e-03
-8.239062e-10,4.203125e-03
-8.199062e-10,4.343750e-03
-8.159062e-10,4.671875e-03
-8.119062e-10,4.375000e-03
-8.079062e-10,4.390625e-03
-8.039063e-10,4.375000e-03
-7.999063e-10,4.359375e-03
-7.959062e-10,4.343750e-03
-7.919062e-10,4.609375e-03
-7.879062e-10,4.265625e-03
-7.839062e-10,4.109375e-03
-7.799062e-10,4.156250e-03
-7.759063e-10,4.390625e-03
-7.719063e-10,4.015625e-03
-7.679063e-10,3.937500e-03
-7.639062e-10,3.875000e-03
-7.599062e-10,3.796875e-03
-7.559062e-10,3.718750e-03
-7.519062e-10,3.953125e-03
-7.479062e-10,3.578125e-03
-7.439063e-10,3.421875e-03
-7.399063e-10,3.468750e-03
-7.359062e-10,3.718750e-03
-7.319062e-10,3.390625e-03
-7.279062e-10,3.359375e-03
-7.239062e-10,3.343750e-03
-7.199062e-10,3.359375e-03
-7.159063e-10,3.375000e-03
-7.119063e-10,3.718750e-03
-7.079063e-10,3.468750e-03
-7.039062e-10,3.437500e-03
-6.999062e-10,3.625000e-03
-6.959062e-10,4.046875e-03
-6.919062e-10,3.875000e-03
-6.879062e-10,4.031250e-03
-6.839063e-10,4.187500e-03
-6.799063e-10,4.390625e-03
-6.759062e-10,4.593750e-03
-6.719062e-10,5.125000e-03
-6.679062e-10,5.062500e-03
-6.639062e-10,5.218750e-03
-6.599062e-10,5.593750e-03
-6.559063e-10,6.171875e-03
-6.519063e-10,6.171875e-03
-6.479063e-10,6.453125e-03
-6.439062e-10,6.765625e-03
-6.399062e-10,7.062500e-03
-6.359062e-10,7.359375e-03
-6.319062e-10,7.953125e-03
-6.279062e-10,7.921875e-03
-6.239063e-10,8.093750e-03
-6.199063e-10,8.437500e-03
-6.159062e-10,8.984375e-03
-6.119062e-10,8.890625e-03
-6.079062e-10,9.062500e-03
-6.039062e-10,9.234375e-03
-5.999062e-10,9.359375e-03
-5.959063e-10,9.453125e-03
-5.919063e-10,9.812500e-03
-5.879063e-10,9.531250e-03
-5.839062e-10,9.421875e-03
-5.799062e-10,9.484375e-03
-5.759062e-10,9.703125e-03
-5.719062e-10,9.281250e-03
-5.679063e-10,9.140625e-03
-5.639063e-10,8.968750e-03
-5.599063e-10,8.750000e-03
-5.559062e-10,8.515625e-03
-5.519062e-10,8.562500e-03
-5.479062e-10,7.968750e-03
-5.439062e-10,7.578125e-03
-5.399062e-10,7.375000e-03
-5.359063e-10,7.359375e-03
-5.319063e-10,6.750000e-03
-5.279063e-10,6.421875e-03
-5.239062e-10,6.109375e-03
-5.199062e-10,5.812500e-03
-5.159062e-10,5.531250e-03
-5.119062e-10,5.562500e-03
-5.079063e-10,5.015625e-03
-5.039063e-10,4.703125e-03
-4.999063e-10,4.609375e-03
-4.959062e-10,4.750000e-03
-4.919062e-10,4.328125e-03
-4.879062e-10,4.234375e-03
-4.839062e-10,4.171875e-03
-4.799062e-10,4.156250e-03
-4.759063e-10,4.156250e-03
-4.719063e-10,4.500000e-03
-4.679063e-10,4.265625e-03
-4.639062e-10,4.265625e-03
-4.599063e-10,4.500000e-03
-4.559062e-10,4.937500e-03
-4.519062e-10,4.812500e-03
-4.479063e-10,4.984375e-03
-4.439063e-10,5.156250e-03
-4.399062e-10,5.343750e-03
-4.359062e-10,5.515625e-03
-4.319063e-10,6.000000e-03
-4.279062e-10,5.859375e-03
-4.239062e-10,5.906250e-03
-4.199062e-10,6.140625e-03
-4.159063e-10,6.546875e-03
-4.119062e-10,6.343750e-03
-4.079062e-10,6.406250e-03
-4.039062e-10,6.406250e-03
-3.999063e-10,6.390625e-03
-3.959062e-10,6.343750e-03
-3.919062e-10,6.562500e-03
-3.879063e-10,6.140625e-03
-3.839063e-10,5.890625e-03
-3.799062e-10,5.828125e-03
-3.759062e-10,5.937500e-03
-3.719063e-10,5.421875e-03
-3.679062e-10,5.203125e-03
-3.639062e-10,4.937500e-03
-3.599062e-10,4.656250e-03
-3.559063e-10,4.375000e-03
-3.519062e-10,4.421875e-03
-3.479062e-10,3.843750e-03
-3.439062e-10,3.500000e-03
-3.399063e-10,3.375000e-03
-3.359062e-10,3.468750e-03
-3.319062e-10,3.015625e-03
-3.279063e-10,2.875000e-03
-3.239063e-10,2.750000e-03
-3.199062e-10,2.656250e-03
-3.159062e-10,2.625000e-03
-3.119063e-10,2.921875e-03
-3.079063e-10,2.671875e-03
-3.039062e-10,2.656250e-03
-2.999062e-10,2.906250e-03
-2.959063e-10,3.375000e-03
-2.919062e-10,3.312500e-03
-2.879062e-10,3.593750e-03
-2.839062e-10,3.843750e-03
-2.799063e-10,4.125000e-03
-2.759062e-10,4.453125e-03
-2.719062e-10,5.093750e-03
-2.679063e-10,5.140625e-03
-2.639063e-10,5.390625e-03
-2.599062e-10,5.859375e-03
-2.559062e-10,6.500000e-03
-2.519063e-10,6.546875e-03
-2.479063e-10,6.859375e-03
-2.439062e-10,7.125000e-03
-2.399062e-10,7.312500e-03
-2.359063e-10,7.531250e-03
-2.319062e-10,7.968750e-03
-2.279062e-10,7.796875e-03
-2.239062e-10,7.734375e-03
-2.199062e-10,7.859375e-03
-2.159063e-10,8.109375e-03
-2.119062e-10,7.718750e-03
-2.079063e-10,7.593750e-03
-2.039062e-10,7.375000e-03
-1.999063e-10,7.078125e-03
-1.959062e-10,6.812500e-03
-1.919063e-10,6.750000e-03
-1.879062e-10,6.109375e-03
-1.839063e-10,5.593750e-03
-1.799062e-10,5.296875e-03
-1.759062e-10,5.171875e-03
-1.719062e-10,4.453125e-03
-1.679062e-10,4.031250e-03
-1.639062e-10,3.593750e-03
-1.599062e-10,3.140625e-03
-1.559063e-10,2.796875e-03
-1.519062e-10,2.718750e-03
-1.479063e-10,2.156250e-03
-1.439062e-10,1.812500e-03
-1.399063e-10,1.718750e-03
-1.359062e-10,1.906250e-03
-1.319063e-10,1.562500e-03
-1.279062e-10,1.593750e-03
-1.239063e-10,1.671875e-03
-1.199062e-10,1.828125e-03
-1.159062e-10,2.140625e-03
-1.119062e-10,2.765625e-03
-1.079062e-10,3.000000e-03
-1.039062e-10,3.453125e-03
-9.990625e-11,4.203125e-03
-9.590625e-11,5.265625e-03
-9.190625e-11,5.828125e-03
-8.790625e-11,6.781250e-03
-8.390625e-11,7.796875e-03
-7.990625e-11,8.906250e-03
-7.590625e-11,1.014063e-02
-7.190625e-11,1.171875e-02
-6.790625e-11,1.287500e-02
-6.390625e-11,1.425000e-02
-5.990625e-11,1.589063e-02
-5.590625e-11,1.782813e-02
-5.190625e-11,1.926563e-02
-4.790625e-11,2.103125e-02
-4.390625e-11,2.287500e-02
-3.990625e-11,2.478125e-02
-3.590625e-11,2.678125e-02
-3.190625e-11,2.912500e-02
-2.790625e-11,3.103125e-02
-2.390625e-11,3.314063e-02
-1.990625e-11,3.548438e-02
-1.590625e-11,3.812500e-02
-1.190625e-11,4.026563e-02
-7.906250e-12,4.271875e-02
-3.906250e-12,4.525000e-02
9.375000e-14,4.785938e-02
4.093750e-12,5.053125e-02
8.093750e-12,5.357813e-02
1.209375e-11,5.618750e-02
1.609375e-11,5.900000e-02
2.009375e-11,6.204688e-02
2.409375e-11,6.537500e-02
2.809375e-11,6.825000e-02
3.209375e-11,7.140625e-02
3.609375e-11,7.464063e-02
4.009375e-11,7.793750e-02
4.409375e-11,8.129688e-02
4.809375e-11,8.501563e-02
5.209375e-11,8.826563e-02
5.609375e-11,9.171875e-02
6.009375e-11,9.534375e-02
6.409375e-11,9.921875e-02
6.809375e-11,1.026094e-01
7.209375e-11,1.062344e-01
7.609375e-11,1.098750e-01
8.009375e-11,1.135156e-01
8.409375e-11,1.171406e-01
8.809375e-11,1.210625e-01
9.209375e-11,1.244375e-01
9.609375e-11,1.279375e-01
1.000937e-10,1.315156e-01
1.040937e-10,1.352344e-01
1.080937e-10,1.384063e-01
1.120938e-10,1.417188e-01
1.160938e-10,1.449375e-01
1.200938e-10,1.480781e-01
1.240937e-10,1.510938e-01
1.280938e-10,1.542969e-01
1.320937e-10,1.569063e-01
1.360937e-10,1.595313e-01
1.400937e-10,1.621563e-01
1.440937e-10,1.648125e-01
1.480938e-10,1.668750e-01
1.520937e-10,1.690156e-01
1.560938e-10,1.710000e-01
1.600937e-10,1.728281e-01
1.640938e-10,1.745156e-01
1.680937e-10,1.762969e-01
1.720938e-10,1.774688e-01
1.760937e-10,1.786250e-01
1.800938e-10,1.797500e-01
1.840937e-10,1.808906e-01
1.880937e-10,1.814219e-01
1.920937e-10,1.820156e-01
1.960937e-10,1.824688e-01
2.000937e-10,1.827656e-01
2.040937e-10,1.829063e-01
2.080938e-10,1.831563e-01
2.120937e-10,1.827813e-01
2.160938e-10,1.824375e-01
2.200937e-10,1.820781e-01
2.240938e-10,1.817500e-01
2.280937e-10,1.807969e-01
2.320938e-10,1.799688e-01
2.360938e-10,1.790000e-01
2.400938e-10,1.779063e-01
2.440937e-10,1.766875e-01
2.480937e-10,1.755469e-01
2.520938e-10,1.738438e-01
2.560937e-10,1.721875e-01
2.600937e-10,1.705156e-01
2.640937e-10,1.689063e-01
2.680938e-10,1.666719e-01
2.720937e-10,1.646250e-01
2.760937e-10,1.624375e-01
2.800938e-10,1.601563e-01
2.840938e-10,1.577813e-01
2.880937e-10,1.555000e-01
2.920937e-10,1.526719e-01
2.960938e-10,1.499219e-01
3.000938e-10,1.472031e-01
3.040937e-10,1.445781e-01
3.080937e-10,1.413594e-01
3.120938e-10,1.383750e-01
3.160937e-10,1.353125e-01
3.200937e-10,1.321875e-01
3.240937e-10,1.290313e-01
3.280938e-10,1.260313e-01
3.320937e-10,1.225313e-01
3.360937e-10,1.191875e-01
3.400938e-10,1.159375e-01
3.440938e-10,1.128594e-01
3.480937e-10,1.092656e-01
3.520937e-10,1.059844e-01
3.560938e-10,1.026875e-01
3.600938e-10,9.943750e-02
3.640937e-10,9.623438e-02
3.680937e-10,9.329688e-02
3.720938e-10,8.989063e-02
3.760937e-10,8.675000e-02
3.800937e-10,8.381250e-02
3.840937e-10,8.109375e-02
3.880938e-10,7.795313e-02
3.920937e-10,7.520313e-02
3.960937e-10,7.251563e-02
4.000938e-10,6.993750e-02
4.040938e-10,6.746875e-02
4.080937e-10,6.532813e-02
4.120937e-10,6.276563e-02
4.160938e-10,6.051563e-02
4.200938e-10,5.851563e-02
4.240937e-10,5.675000e-02
4.280937e-10,5.460938e-02
4.320938e-10,5.284375e-02
4.360937e-10,5.118750e-02
4.400937e-10,4.962500e-02
4.440937e-10,4.817188e-02
4.480938e-10,4.704688e-02
4.520937e-10,4.545313e-02
4.560937e-10,4.415625e-02
4.600937e-10,4.310938e-02
4.640938e-10,4.225000e-02
4.680938e-10,4.098438e-02
4.720938e-10,4.003125e-02
4.760938e-10,3.915625e-02
4.800937e-10,3.832813e-02
4.840937e-10,3.754688e-02
4.880937e-10,3.707813e-02
4.920937e-10,3.606250e-02
4.960937e-10,3.528125e-02
5.000938e-10,3.471875e-02
5.040938e-10,3.429688e-02
5.080938e-10,3.340625e-02
5.120937e-10,3.278125e-02
5.160937e-10,3.221875e-02
5.200937e-10,3.164063e-02
5.240937e-10,3.104688e-02
5.280938e-10,3.075000e-02
5.320938e-10,2.987500e-02
5.360938e-10,2.921875e-02
5.400937e-10,2.873438e-02
5.440937e-10,2.840625e-02
5.480937e-10,2.757813e-02
5.520937e-10,2.696875e-02
5.560937e-10,2.645313e-02
5.600938e-10,2.589063e-02
5.640938e-10,2.532813e-02
5.680938e-10,2.504688e-02
5.720937e-10,2.420313e-02
5.760937e-10,2.354688e-02
5.800937e-10,2.312500e-02
5.840937e-10,2.284375e-02
5.880937e-10,2.204688e-02
5.920938e-10,2.151563e-02
5.960938e-10,2.106250e-02
6.000937e-10,2.059375e-02
6.040937e-10,2.010938e-02
6.080937e-10,1.992188e-02
6.120937e-10,1.917188e-02
6.160937e-10,1.864063e-02
6.200938e-10,1.832813e-02
6.240938e-10,1.817188e-02
6.280938e-10,1.750000e-02
6.320937e-10,1.709375e-02
6.360937e-10,1.675000e-02
6.400937e-10,1.640625e-02
6.440937e-10,1.601563e-02
6.480937e-10,1.593750e-02
6.520938e-10,1.528125e-02
6.560938e-10,1.482813e-02
6.600937e-10,1.457813e-02
6.640937e-10,1.451563e-02
6.680937e-10,1.389063e-02
6.720937e-10,1.351563e-02
6.760937e-10,1.320313e-02
6.800938e-10,1.285938e-02
6.840938e-10,1.248438e-02
6.880938e-10,1.239063e-02
6.920937e-10,1.171875e-02
6.960937e-10,1.123438e-02
7.000937e-10,1.096875e-02
7.040937e-10,1.089063e-02
7.080937e-10,1.023438e-02
7.120938e-10,9.843750e-03
7.160938e-10,9.515625e-03
7.200937e-10,9.171875e-03
7.240937e-10,8.796875e-03
7.280937e-10,8.734375e-03
7.320937e-10,8.109375e-03
7.360937e-10,7.687500e-03
7.400938e-10,7.500000e-03
7.440938e-10,7.531250e-03
7.480938e-10,7.000000e-03
7.520937e-10,6.796875e-03
7.560937e-10,6.640625e-03
7.600937e-10,6.515625e-03
7.640937e-10,6.406250e-03
7.680937e-10,6.625000e-03
7.720938e-10,6.296875e-03
7.760938e-10,6.218750e-03
7.800937e-10,6.390625e-03
7.840937e-10,6.796875e-03
7.880937e-10,6.671875e-03
7.920937e-10,6.875000e-03
7.960937e-10,7.125000e-03
8.000938e-10,7.437500e-03
8.040938e-10,7.750000e-03
8.080938e-10,8.390625e-03
8.120937e-10,8.484375e-03
8.160937e-10,8.796875e-03
8.200937e-10,9.343750e-03
8.240937e-10,1.010938e-02
8.280937e-10,1.029688e-02
8.320938e-10,1.078125e-02
8.360938e-10,1.128125e-02
8.400937e-10,1.178125e-02
8.440937e-10,1.225000e-02
8.480937e-10,1.300000e-02
8.520937e-10,1.314063e-02
8.560937e-10,1.345313e-02
8.600938e-10,1.393750e-02
8.640938e-10,1.457813e-02
8.680938e-10,1.459375e-02
8.720937e-10,1.484375e-02
8.760937e-10,1.504688e-02
8.800937e-10,1.521875e-02
8.840937e-10,1.529688e-02
8.880937e-10,1.562500e-02
8.920938e-10,1.531250e-02
8.960938e-10,1.512500e-02
9.000937e-10,1.507813e-02
9.040937e-10,1.517188e-02
9.080937e-10,1.462500e-02
9.120937e-10,1.431250e-02
9.160937e-10,1.395313e-02
9.200938e-10,1.354688e-02
9.240938e-10,1.309375e-02
9.280938e-10,1.289063e-02
9.320937e-10,1.207813e-02
9.360937e-10,1.142188e-02
9.400937e-10,1.096875e-02
9.440937e-10,1.068750e-02
9.480937e-10,9.812500e-03
9.520937e-10,9.234375e-03
9.560937e-10,8.687500e-03
9.600937e-10,8.140625e-03
9.640937e-10,7.609375e-03
9.680938e-10,7.406250e-03
9.720938e-10,6.656250e-03
9.760938e-10,6.125000e-03
9.800938e-10,5.859375e-03
9.840938e-10,5.843750e-03
9.880938e-10,5.281250e-03
9.920937e-10,5.078125e-03
9.960937e-10,4.937500e-03
1.000094e-09,4.843750e-03
1.004094e-09,4.828125e-03
1.008094e-09,5.156250e-03
1.012094e-09,4.953125e-03
1.016094e-09,5.015625e-03
1.020094e-09,5.328125e-03
1.024094e-09,5.890625e-03
1.028094e-09,5.906250e-03
1.032094e-09,6.265625e-03
1.036094e-09,6.656250e-03
1.040094e-09,7.093750e-03
1.044094e-09,7.546875e-03
1.048094e-09,8.312500e-03
1.052094e-09,8.500000e-03
1.056094e-09,8.890625e-03
1.060094e-09,9.468750e-03
1.064094e-09,1.025000e-02
1.068094e-09,1.040625e-02
1.072094e-09,1.084375e-02
1.076094e-09,1.125000e-02
1.080094e-09,1.160938e-02
1.084094e-09,1.193750e-02
1.088094e-09,1.251563e-02
1.092094e-09,1.243750e-02
1.096094e-09,1.250000e-02
1.100094e-09,1.271875e-02
1.104094e-09,1.306250e-02
1.108094e-09,1.275000e-02
1.112094e-09,1.268750e-02
1.116094e-09,1.256250e-02
1.120094e-09,1.235938e-02
1.124094e-09,1.212500e-02
1.128094e-09,1.212500e-02
1.132094e-09,1.148438e-02
1.136094e-09,1.100000e-02
1.140094e-09,1.067188e-02
1.144094e-09,1.051563e-02
1.148094e-09,9.734375e-03
1.152094e-09,9.234375e-03
1.156094e-09,8.734375e-03
1.160094e-09,8.218750e-03
1.164094e-09,7.718750e-03
1.168094e-09,7.531250e-03
1.172094e-09,6.765625e-03
1.176094e-09,6.234375e-03
1.180094e-09,5.937500e-03
1.184094e-09,5.890625e-03
1.188094e-09,5.296875e-03
1.192094e-09,5.046875e-03
1.196094e-09,4.859375e-03
1.200094e-09,4.750000e-03
1.204094e-09,4.703125e-03
1.208094e-09,5.031250e-03
1.212094e-09,4.828125e-03
1.216094e-09,4.906250e-03
1.220094e-09,5.250000e-03
1.224094e-09,5.859375e-03
1.228094e-09,5.937500e-03
1.232094e-09,6.390625e-03
1.236094e-09,6.890625e-03
1.240094e-09,7.437500e-03
1.244094e-09,8.046875e-03
1.248094e-09,8.984375e-03
1.252094e-09,9.359375e-03
1.256094e-09,9.953125e-03
1.260094e-09,1.076563e-02
1.264094e-09,1.176563e-02
1.268094e-09,1.217188e-02
1.272094e-09,1.285938e-02
1.276094e-09,1.353125e-02
1.280094e-09,1.415625e-02
1.284094e-09,1.473438e-02
1.288094e-09,1.557813e-02
1.292094e-09,1.575000e-02
1.296094e-09,1.606250e-02
1.300094e-09,1.650000e-02
1.304094e-09,1.706250e-02
1.308094e-09,1.693750e-02
1.312094e-09,1.703125e-02
1.316094e-09,1.704688e-02
1.320094e-09,1.696875e-02
1.324094e-09,1.681250e-02
1.328094e-09,1.685938e-02
1.332094e-09,1.621875e-02
1.336094e-09,1.570313e-02
1.340094e-09,1.532813e-02
1.344094e-09,1.507813e-02
1.348094e-09,1.415625e-02
1.352094e-09,1.348438e-02
1.356094e-09,1.276563e-02
1.360094e-09,1.201563e-02
1.364094e-09,1.125000e-02
1.368094e-09,1.075000e-02
1.372094e-09,9.640625e-03
1.376094e-09,8.734375e-03
1.380094e-09,8.031250e-03
1.384094e-09,7.562500e-03
1.388094e-09,6.515625e-03
1.392094e-09,5.812500e-03
1.396094e-09,5.156250e-03
1.400094e-09,4.546875e-03
1.404094e-09,4.000000e-03
1.408094e-09,3.812500e-03
1.412094e-09,3.093750e-03
1.416094e-09,2.640625e-03
1.420094e-09,2.468750e-03
1.424094e-09,2.578125e-03
1.428094e-09,2.156250e-03
1.432094e-09,2.125000e-03
1.436094e-09,2.140625e-03
1.440094e-09,2.250000e-03
1.444094e-09,2.406250e-03
1.448094e-09,2.937500e-03
1.452094e-09,2.906250e-03
1.456094e-09,3.125000e-03
1.460094e-09,3.593750e-03
1.464094e-09,4.296875e-03
1.468094e-09,4.421875e-03
1.472094e-09,4.875000e-03
1.476094e-09,5.328125e-03
1.480094e-09,5.781250e-03
1.484094e-09,6.234375e-03
1.488094e-09,6.968750e-03
1.492094e-09,7.078125e-03
1.496094e-09,7.375000e-03
1.500094e-09,7.843750e-03
1.504094e-09,8.453125e-03
1.508094e-09,8.437500e-03
1.512094e-09,8.671875e-03
1.516094e-09,8.875000e-03
1.520094e-09,9.015625e-03
1.524094e-09,9.109375e-03
1.528094e-09,9.453125e-03
1.532094e-09,9.156250e-03
1.536094e-09,9.000000e-03
1.540094e-09,9.015625e-03
1.544094e-09,9.187500e-03
1.548094e-09,8.734375e-03
1.552094e-09,8.546875e-03
1.556094e-09,8.343750e-03
1.560094e-09,8.109375e-03
1.564094e-09,7.875000e-03
1.568094e-09,7.921875e-03
1.572094e-09,7.375000e-03
1.576094e-09,7.031250e-03
1.580094e-09,6.906250e-03
1.584094e-09,7.000000e-03
1.588094e-09,6.515625e-03
1.592094e-09,6.359375e-03
1.596094e-09,6.234375e-03
1.600094e-09,6.140625e-03
1.604094e-09,6.078125e-03
1.608094e-09,6.359375e-03
1.612094e-09,6.078125e-03
1.616094e-09,6.031250e-03
1.620094e-09,6.234375e-03
1.624094e-09,6.656250e-03
1.628094e-09,6.531250e-03
1.632094e-09,6.718750e-03
1.636094e-09,6.937500e-03
1.640094e-09,7.187500e-03
1.644094e-09,7.453125e-03
1.648094e-09,8.031250e-03
1.652094e-09,8.031250e-03
1.656094e-09,8.218750e-03
1.660094e-09,8.593750e-03
1.664094e-09,9.171875e-03
1.668094e-09,9.140625e-03
1.672094e-09,9.390625e-03
1.676094e-09,9.609375e-03
1.680094e-09,9.796875e-03
1.684094e-09,9.953125e-03
1.688094e-09,1.039063e-02
1.692094e-09,1.017188e-02
1.696094e-09,1.010938e-02
1.700094e-09,1.021875e-02
1.704094e-09,1.046875e-02
1.708094e-09,1.009375e-02
1.712094e-09,9.968750e-03
1.716094e-09,9.796875e-03
1.720094e-09,9.593750e-03
1.724094e-09,9.359375e-03
1.728094e-09,9.390625e-03
1.732094e-09,8.796875e-03
1.736094e-09,8.375000e-03
1.740094e-09,8.125000e-03
1.744094e-09,8.078125e-03
1.748094e-09,7.406250e-03
1.752094e-09,7.031250e-03
1.756094e-09,6.671875e-03
