Measurements-streak-laser-independent/Photodiode-on-Tek-6GHz/Tek000_ch1_20190613132703264.csv

Model,MSO64
Waveform Type,ANALOG
Horizontal Units,s
Sample Interval,4.000000e-12
Record Length,1000
Zero Index,310.304688
Vertical Units,V

TIME,CH1
-1.241219e-09,-6.250000e-05
-1.237219e-09,5.937500e-04
-1.233219e-09,6.718750e-04
-1.229219e-09,9.687500e-04
-1.225219e-09,1.500000e-03
-1.221219e-09,2.265625e-03
-1.217219e-09,2.437500e-03
-1.213219e-09,2.937500e-03
-1.209219e-09,3.453125e-03
-1.205219e-09,3.968750e-03
-1.201219e-09,4.500000e-03
-1.197219e-09,5.328125e-03
-1.193219e-09,5.546875e-03
-1.189219e-09,5.953125e-03
-1.185219e-09,6.562500e-03
-1.181219e-09,7.343750e-03
-1.177219e-09,7.484375e-03
-1.173219e-09,7.906250e-03
-1.169219e-09,8.312500e-03
-1.165219e-09,8.656250e-03
-1.161219e-09,8.968750e-03
-1.157219e-09,9.515625e-03
-1.153219e-09,9.421875e-03
-1.149219e-09,9.468750e-03
-1.145219e-09,9.671875e-03
-1.141219e-09,1.000000e-02
-1.137219e-09,9.671875e-03
-1.133219e-09,9.593750e-03
-1.129219e-09,9.453125e-03
-1.125219e-09,9.250000e-03
-1.121219e-09,8.984375e-03
-1.117219e-09,8.984375e-03
-1.113219e-09,8.328125e-03
-1.109219e-09,7.812500e-03
-1.105219e-09,7.468750e-03
-1.101219e-09,7.296875e-03
-1.097219e-09,6.500000e-03
-1.093219e-09,5.968750e-03
-1.089219e-09,5.421875e-03
-1.085219e-09,4.890625e-03
-1.081219e-09,4.328125e-03
-1.077219e-09,4.093750e-03
-1.073219e-09,3.281250e-03
-1.069219e-09,2.671875e-03
-1.065219e-09,2.296875e-03
-1.061219e-09,2.156250e-03
-1.057219e-09,1.437500e-03
-1.053219e-09,1.078125e-03
-1.049219e-09,7.656250e-04
-1.045219e-09,5.156250e-04
-1.041219e-09,3.125000e-04
-1.037219e-09,4.687500e-04
-1.033219e-09,6.250000e-05
-1.029219e-09,-6.250000e-05
-1.025219e-09,6.250000e-05
-1.021219e-09,4.531250e-04
-1.017219e-09,2.812500e-04
-1.013219e-09,4.687500e-04
-1.009219e-09,7.031250e-04
-1.005219e-09,1.000000e-03
-1.001219e-09,1.312500e-03
-9.972188e-10,1.984375e-03
-9.932188e-10,2.062500e-03
-9.892188e-10,2.375000e-03
-9.852188e-10,2.921875e-03
-9.812188e-10,3.671875e-03
-9.772188e-10,3.828125e-03
-9.732187e-10,4.296875e-03
-9.692187e-10,4.765625e-03
-9.652187e-10,5.218750e-03
-9.612187e-10,5.671875e-03
-9.572187e-10,6.406250e-03
-9.532187e-10,6.515625e-03
-9.492187e-10,6.828125e-03
-9.452187e-10,7.312500e-03
-9.412187e-10,7.968750e-03
-9.372188e-10,8.000000e-03
-9.332188e-10,8.312500e-03
-9.292187e-10,8.593750e-03
-9.252187e-10,8.843750e-03
-9.212187e-10,9.078125e-03
-9.172187e-10,9.593750e-03
-9.132187e-10,9.484375e-03
-9.092188e-10,9.546875e-03
-9.052188e-10,9.812500e-03
-9.012188e-10,1.025000e-02
-8.972187e-10,1.006250e-02
-8.932187e-10,1.017188e-02
-8.892187e-10,1.028125e-02
-8.852187e-10,1.035938e-02
-8.812187e-10,1.045313e-02
-8.772188e-10,1.084375e-02
-8.732188e-10,1.060938e-02
-8.692187e-10,1.059375e-02
-8.652187e-10,1.075000e-02
-8.612187e-10,1.112500e-02
-8.572187e-10,1.089063e-02
-8.532187e-10,1.096875e-02
-8.492188e-10,1.101563e-02
-8.452188e-10,1.107813e-02
-8.412188e-10,1.114063e-02
-8.372187e-10,1.150000e-02
-8.332187e-10,1.123438e-02
-8.292187e-10,1.117188e-02
-8.252187e-10,1.129688e-02
-8.212187e-10,1.160938e-02
-8.172188e-10,1.131250e-02
-8.132188e-10,1.129688e-02
-8.092187e-10,1.125000e-02
-8.052187e-10,1.120313e-02
-8.012187e-10,1.114063e-02
-7.972187e-10,1.134375e-02
-7.932187e-10,1.092188e-02
-7.892188e-10,1.068750e-02
-7.852188e-10,1.062500e-02
-7.812188e-10,1.073438e-02
-7.772187e-10,1.021875e-02
-7.732187e-10,9.968750e-03
-7.692187e-10,9.718750e-03
-7.652187e-10,9.421875e-03
-7.612187e-10,9.109375e-03
-7.572188e-10,9.078125e-03
-7.532188e-10,8.421875e-03
-7.492187e-10,7.937500e-03
-7.452187e-10,7.640625e-03
-7.412187e-10,7.531250e-03
-7.372187e-10,6.796875e-03
-7.332187e-10,6.359375e-03
-7.292188e-10,5.921875e-03
-7.252188e-10,5.453125e-03
-7.212188e-10,5.000000e-03
-7.172187e-10,4.843750e-03
-7.132187e-10,4.078125e-03
-7.092187e-10,3.531250e-03
-7.052187e-10,3.187500e-03
-7.012187e-10,3.046875e-03
-6.972188e-10,2.328125e-03
-6.932188e-10,1.921875e-03
-6.892187e-10,1.531250e-03
-6.852187e-10,1.187500e-03
-6.812187e-10,8.437500e-04
-6.772187e-10,8.437500e-04
-6.732187e-10,2.656250e-04
-6.692188e-10,-6.250000e-05
-6.652188e-10,-1.718750e-04
-6.612188e-10,-3.125000e-05
-6.572187e-10,-4.531250e-04
-6.532187e-10,-5.312500e-04
-6.492187e-10,-5.781250e-04
-6.452187e-10,-5.625000e-04
-6.412187e-10,-5.000000e-04
-6.372188e-10,-1.093750e-04
-6.332188e-10,-2.812500e-04
-6.292187e-10,-1.875000e-04
-6.252187e-10,1.406250e-04
-6.212187e-10,7.031250e-04
-6.172187e-10,7.031250e-04
-6.132187e-10,1.046875e-03
-6.092188e-10,1.421875e-03
-6.052188e-10,1.828125e-03
-6.012188e-10,2.265625e-03
-5.972187e-10,3.015625e-03
-5.932187e-10,3.187500e-03
-5.892187e-10,3.562500e-03
-5.852187e-10,4.156250e-03
-5.812187e-10,4.937500e-03
-5.772188e-10,5.125000e-03
-5.732188e-10,5.593750e-03
-5.692187e-10,6.062500e-03
-5.652187e-10,6.500000e-03
-5.612187e-10,6.906250e-03
-5.572187e-10,7.593750e-03
-5.532187e-10,7.625000e-03
-5.492188e-10,7.812500e-03
-5.452188e-10,8.171875e-03
-5.412188e-10,8.671875e-03
-5.372187e-10,8.515625e-03
-5.332187e-10,8.593750e-03
-5.292187e-10,8.625000e-03
-5.252187e-10,8.593750e-03
-5.212187e-10,8.500000e-03
-5.172188e-10,8.656250e-03
-5.132188e-10,8.140625e-03
-5.092188e-10,7.765625e-03
-5.052187e-10,7.546875e-03
-5.012187e-10,7.484375e-03
-4.972187e-10,6.765625e-03
-4.932187e-10,6.296875e-03
-4.892188e-10,5.796875e-03
-4.852188e-10,5.281250e-03
-4.812188e-10,4.734375e-03
-4.772187e-10,4.484375e-03
-4.732187e-10,3.609375e-03
-4.692187e-10,2.953125e-03
-4.652187e-10,2.500000e-03
-4.612188e-10,2.281250e-03
-4.572188e-10,1.468750e-03
-4.532187e-10,1.000000e-03
-4.492187e-10,5.625000e-04
-4.452188e-10,1.875000e-04
-4.412187e-10,-1.562500e-04
-4.372187e-10,-1.250000e-04
-4.332187e-10,-6.562500e-04
-4.292188e-10,-8.906250e-04
-4.252187e-10,-8.593750e-04
-4.212187e-10,-5.468750e-04
-4.172187e-10,-7.500000e-04
-4.132188e-10,-5.937500e-04
-4.092187e-10,-3.906250e-04
-4.052187e-10,-9.375000e-05
-4.012188e-10,2.500000e-04
-3.972188e-10,9.687500e-04
-3.932187e-10,1.125000e-03
-3.892187e-10,1.546875e-03
-3.852188e-10,2.218750e-03
-3.812188e-10,3.140625e-03
-3.772187e-10,3.500000e-03
-3.732187e-10,4.156250e-03
-3.692188e-10,4.796875e-03
-3.652187e-10,5.453125e-03
-3.612187e-10,6.109375e-03
-3.572187e-10,7.046875e-03
-3.532188e-10,7.343750e-03
-3.492187e-10,7.812500e-03
-3.452187e-10,8.484375e-03
-3.412188e-10,9.265625e-03
-3.372188e-10,9.437500e-03
-3.332187e-10,9.843750e-03
-3.292187e-10,1.012500e-02
-3.252188e-10,1.034375e-02
-3.212188e-10,1.051563e-02
-3.172187e-10,1.090625e-02
-3.132187e-10,1.060938e-02
-3.092188e-10,1.045313e-02
-3.052187e-10,1.045313e-02
-3.012187e-10,1.056250e-02
-2.972187e-10,1.003125e-02
-2.932188e-10,9.750000e-03
-2.892187e-10,9.343750e-03
-2.852187e-10,8.890625e-03
-2.812188e-10,8.437500e-03
-2.772188e-10,8.218750e-03
-2.732187e-10,7.406250e-03
-2.692187e-10,6.734375e-03
-2.652188e-10,6.312500e-03
-2.612188e-10,6.046875e-03
-2.572187e-10,5.218750e-03
-2.532187e-10,4.718750e-03
-2.492188e-10,4.171875e-03
-2.452187e-10,3.625000e-03
-2.412187e-10,3.187500e-03
-2.372187e-10,3.031250e-03
-2.332188e-10,2.375000e-03
-2.292188e-10,1.921875e-03
-2.252187e-10,1.765625e-03
-2.212188e-10,1.828125e-03
-2.172187e-10,1.359375e-03
-2.132188e-10,1.265625e-03
-2.092187e-10,1.156250e-03
-2.052188e-10,1.062500e-03
-2.012187e-10,1.109375e-03
-1.972188e-10,1.421875e-03
-1.932187e-10,1.265625e-03
-1.892188e-10,1.265625e-03
-1.852187e-10,1.546875e-03
-1.812187e-10,2.031250e-03
-1.772187e-10,1.937500e-03
-1.732187e-10,2.156250e-03
-1.692188e-10,2.343750e-03
-1.652187e-10,2.500000e-03
-1.612188e-10,2.734375e-03
-1.572187e-10,3.171875e-03
-1.532188e-10,3.109375e-03
-1.492187e-10,3.140625e-03
-1.452188e-10,3.390625e-03
-1.412187e-10,3.796875e-03
-1.372188e-10,3.593750e-03
-1.332187e-10,3.656250e-03
-1.292188e-10,3.656250e-03
-1.252187e-10,3.625000e-03
-1.212187e-10,3.656250e-03
-1.172187e-10,3.875000e-03
-1.132188e-10,3.640625e-03
-1.092188e-10,3.500000e-03
-1.052188e-10,3.578125e-03
-1.012188e-10,3.906250e-03
-9.721875e-11,3.656250e-03
-9.321875e-11,3.734375e-03
-8.921875e-11,3.843750e-03
-8.521875e-11,4.015625e-03
-8.121875e-11,4.328125e-03
-7.721875e-11,4.968750e-03
-7.321875e-11,5.250000e-03
-6.921875e-11,5.781250e-03
-6.521875e-11,6.609375e-03
-6.121875e-11,7.843750e-03
-5.721875e-11,8.656250e-03
-5.321875e-11,9.906250e-03
-4.921875e-11,1.134375e-02
-4.521875e-11,1.296875e-02
-4.121875e-11,1.484375e-02
-3.721875e-11,1.721875e-02
-3.321875e-11,1.932813e-02
-2.921875e-11,2.179688e-02
-2.521875e-11,2.465625e-02
-2.121875e-11,2.798438e-02
-1.721875e-11,3.100000e-02
-1.321875e-11,3.448438e-02
-9.218750e-12,3.820313e-02
-5.218750e-12,4.215625e-02
-1.218750e-12,4.632813e-02
2.781250e-12,5.101563e-02
6.781250e-12,5.540625e-02
1.078125e-11,6.014063e-02
1.478125e-11,6.517188e-02
1.878125e-11,7.057813e-02
2.278125e-11,7.562500e-02
2.678125e-11,8.101563e-02
3.078125e-11,8.650000e-02
3.478125e-11,9.209375e-02
3.878125e-11,9.776563e-02
4.278125e-11,1.037813e-01
4.678125e-11,1.093594e-01
5.078125e-11,1.150781e-01
5.478125e-11,1.209063e-01
5.878125e-11,1.269375e-01
6.278125e-11,1.324375e-01
6.678125e-11,1.380625e-01
7.078125e-11,1.436250e-01
7.478125e-11,1.491094e-01
7.878125e-11,1.544531e-01
8.278125e-11,1.600000e-01
8.678125e-11,1.649375e-01
9.078125e-11,1.698594e-01
9.478125e-11,1.747344e-01
9.878125e-11,1.796406e-01
1.027813e-10,1.839375e-01
1.067813e-10,1.882188e-01
1.107813e-10,1.923281e-01
1.147813e-10,1.962813e-01
1.187812e-10,2.000000e-01
1.227812e-10,2.038281e-01
1.267812e-10,2.070156e-01
1.307812e-10,2.101406e-01
1.347813e-10,2.131719e-01
1.387812e-10,2.162031e-01
1.427813e-10,2.186094e-01
1.467812e-10,2.210156e-01
1.507813e-10,2.232500e-01
1.547812e-10,2.253125e-01
1.587813e-10,2.271719e-01
1.627812e-10,2.291250e-01
1.667813e-10,2.304844e-01
1.707812e-10,2.318125e-01
1.747813e-10,2.330625e-01
1.787812e-10,2.343125e-01
1.827812e-10,2.349844e-01
1.867812e-10,2.357031e-01
1.907812e-10,2.362500e-01
1.947812e-10,2.366563e-01
1.987812e-10,2.369063e-01
2.027813e-10,2.372031e-01
2.067812e-10,2.369531e-01
2.107813e-10,2.366875e-01
2.147812e-10,2.363750e-01
2.187813e-10,2.360469e-01
2.227812e-10,2.351406e-01
2.267813e-10,2.343281e-01
2.307812e-10,2.333281e-01
2.347812e-10,2.322031e-01
2.387813e-10,2.309063e-01
2.427812e-10,2.296719e-01
2.467812e-10,2.278906e-01
2.507812e-10,2.261094e-01
2.547813e-10,2.242813e-01
2.587812e-10,2.224688e-01
2.627812e-10,2.200625e-01
2.667813e-10,2.177969e-01
2.707813e-10,2.153750e-01
2.747812e-10,2.128438e-01
2.787812e-10,2.102031e-01
2.827813e-10,2.076250e-01
2.867813e-10,2.045313e-01
2.907812e-10,2.015156e-01
2.947812e-10,1.984844e-01
2.987813e-10,1.955313e-01
3.027812e-10,1.920313e-01
3.067812e-10,1.887656e-01
3.107812e-10,1.853906e-01
3.147813e-10,1.819844e-01
3.187812e-10,1.785313e-01
3.227812e-10,1.752188e-01
3.267813e-10,1.714375e-01
3.307813e-10,1.678281e-01
3.347812e-10,1.642656e-01
3.387812e-10,1.608438e-01
3.427813e-10,1.569531e-01
3.467813e-10,1.533438e-01
3.507812e-10,1.497188e-01
3.547812e-10,1.460938e-01
3.587813e-10,1.425156e-01
3.627812e-10,1.391250e-01
3.667812e-10,1.352813e-01
3.707812e-10,1.316875e-01
3.747813e-10,1.281875e-01
3.787812e-10,1.248594e-01
3.827812e-10,1.211094e-01
3.867812e-10,1.176563e-01
3.907813e-10,1.142344e-01
3.947812e-10,1.108594e-01
3.987812e-10,1.075469e-01
4.027813e-10,1.044688e-01
4.067813e-10,1.009375e-01
4.107812e-10,9.767188e-02
4.147812e-10,9.456250e-02
4.187813e-10,9.164063e-02
4.227812e-10,8.832813e-02
4.267812e-10,8.532813e-02
4.307812e-10,8.240625e-02
4.347813e-10,7.956250e-02
4.387812e-10,7.679688e-02
4.427812e-10,7.432813e-02
4.467812e-10,7.140625e-02
4.507813e-10,6.879688e-02
4.547812e-10,6.640625e-02
4.587812e-10,6.420313e-02
4.627813e-10,6.167188e-02
4.667813e-10,5.946875e-02
4.707812e-10,5.739063e-02
4.747812e-10,5.542188e-02
4.787812e-10,5.354688e-02
4.827812e-10,5.201563e-02
4.867813e-10,5.004688e-02
4.907813e-10,4.839063e-02
4.947813e-10,4.700000e-02
4.987812e-10,4.582813e-02
5.027812e-10,4.429688e-02
5.067812e-10,4.309375e-02
5.107812e-10,4.203125e-02
5.147812e-10,4.104688e-02
5.187813e-10,4.012500e-02
5.227813e-10,3.953125e-02
5.267813e-10,3.846875e-02
5.307812e-10,3.765625e-02
5.347812e-10,3.709375e-02
5.387812e-10,3.668750e-02
5.427812e-10,3.587500e-02
5.467813e-10,3.531250e-02
5.507813e-10,3.485938e-02
5.547813e-10,3.439063e-02
5.587812e-10,3.390625e-02
5.627812e-10,3.371875e-02
5.667812e-10,3.295313e-02
5.707812e-10,3.239063e-02
5.747812e-10,3.201563e-02
5.787813e-10,3.173438e-02
5.827813e-10,3.098438e-02
5.867812e-10,3.040625e-02
5.907812e-10,2.990625e-02
5.947812e-10,2.935938e-02
5.987812e-10,2.873438e-02
6.027812e-10,2.837500e-02
6.067813e-10,2.742188e-02
6.107813e-10,2.665625e-02
6.147813e-10,2.606250e-02
6.187812e-10,2.560938e-02
6.227812e-10,2.464063e-02
6.267812e-10,2.390625e-02
6.307812e-10,2.323438e-02
6.347812e-10,2.254688e-02
6.387813e-10,2.181250e-02
6.427813e-10,2.137500e-02
6.467812e-10,2.040625e-02
6.507812e-10,1.964063e-02
6.547812e-10,1.912500e-02
6.587812e-10,1.879688e-02
6.627812e-10,1.798438e-02
6.667813e-10,1.743750e-02
6.707813e-10,1.701563e-02
6.747813e-10,1.660938e-02
6.787812e-10,1.618750e-02
6.827812e-10,1.610938e-02
6.867812e-10,1.551563e-02
6.907812e-10,1.514063e-02
6.947812e-10,1.503125e-02
6.987813e-10,1.512500e-02
7.027813e-10,1.470313e-02
7.067812e-10,1.456250e-02
7.107812e-10,1.451563e-02
7.147812e-10,1.448438e-02
7.187812e-10,1.440625e-02
7.227812e-10,1.462500e-02
7.267813e-10,1.428125e-02
7.307813e-10,1.414063e-02
7.347813e-10,1.420313e-02
7.387812e-10,1.443750e-02
7.427812e-10,1.409375e-02
7.467812e-10,1.400000e-02
7.507812e-10,1.392188e-02
7.547812e-10,1.381250e-02
7.587813e-10,1.364063e-02
7.627813e-10,1.371875e-02
7.667812e-10,1.320313e-02
7.707812e-10,1.284375e-02
7.747812e-10,1.267188e-02
7.787812e-10,1.267188e-02
7.827812e-10,1.204688e-02
7.867813e-10,1.168750e-02
7.907813e-10,1.134375e-02
7.947813e-10,1.100000e-02
7.987812e-10,1.059375e-02
8.027812e-10,1.048438e-02
8.067812e-10,9.796875e-03
8.107812e-10,9.312500e-03
8.147812e-10,9.062500e-03
8.187813e-10,9.015625e-03
8.227813e-10,8.421875e-03
8.267812e-10,8.140625e-03
8.307812e-10,7.921875e-03
8.347812e-10,7.734375e-03
8.387812e-10,7.578125e-03
8.427812e-10,7.750000e-03
8.467813e-10,7.390625e-03
8.507813e-10,7.281250e-03
8.547813e-10,7.437500e-03
8.587812e-10,7.828125e-03
8.627812e-10,7.671875e-03
8.667812e-10,7.859375e-03
8.707812e-10,8.093750e-03
8.747812e-10,8.375000e-03
8.787813e-10,8.656250e-03
8.827813e-10,9.250000e-03
8.867812e-10,9.281250e-03
8.907812e-10,9.515625e-03
8.947812e-10,9.968750e-03
8.987812e-10,1.059375e-02
9.027812e-10,1.062500e-02
9.067813e-10,1.092188e-02
9.107813e-10,1.118750e-02
9.147813e-10,1.143750e-02
9.187812e-10,1.162500e-02
9.227812e-10,1.207813e-02
9.267812e-10,1.187500e-02
9.307812e-10,1.181250e-02
9.347812e-10,1.190625e-02
9.387812e-10,1.214063e-02
9.427812e-10,1.171875e-02
9.467812e-10,1.154688e-02
9.507812e-10,1.132813e-02
9.547813e-10,1.106250e-02
9.587813e-10,1.075000e-02
9.627813e-10,1.068750e-02
9.667813e-10,1.001563e-02
9.707813e-10,9.500000e-03
9.747813e-10,9.187500e-03
9.787812e-10,9.062500e-03
9.827812e-10,8.343750e-03
9.867812e-10,7.937500e-03
9.907812e-10,7.562500e-03
9.947812e-10,7.203125e-03
9.987812e-10,6.875000e-03
1.002781e-09,6.906250e-03
1.006781e-09,6.375000e-03
1.010781e-09,6.093750e-03
1.014781e-09,6.093750e-03
1.018781e-09,6.343750e-03
1.022781e-09,6.062500e-03
1.026781e-09,6.156250e-03
1.030781e-09,6.312500e-03
1.034781e-09,6.515625e-03
1.038781e-09,6.796875e-03
1.042781e-09,7.421875e-03
1.046781e-09,7.500000e-03
1.050781e-09,7.812500e-03
1.054781e-09,8.375000e-03
1.058781e-09,9.156250e-03
1.062781e-09,9.343750e-03
1.066781e-09,9.843750e-03
1.070781e-09,1.034375e-02
1.074781e-09,1.082813e-02
1.078781e-09,1.128125e-02
1.082781e-09,1.200000e-02
1.086781e-09,1.206250e-02
1.090781e-09,1.229688e-02
1.094781e-09,1.265625e-02
1.098781e-09,1.315625e-02
1.102781e-09,1.298438e-02
1.106781e-09,1.303125e-02
1.110781e-09,1.300000e-02
1.114781e-09,1.290625e-02
1.118781e-09,1.271875e-02
1.122781e-09,1.276563e-02
1.126781e-09,1.212500e-02
1.130781e-09,1.162500e-02
1.134781e-09,1.126563e-02
1.138781e-09,1.104688e-02
1.142781e-09,1.018750e-02
1.146781e-09,9.593750e-03
1.150781e-09,8.968750e-03
1.154781e-09,8.328125e-03
1.158781e-09,7.671875e-03
1.162781e-09,7.328125e-03
1.166781e-09,6.406250e-03
1.170781e-09,5.703125e-03
1.174781e-09,5.234375e-03
1.178781e-09,5.015625e-03
1.182781e-09,4.234375e-03
1.186781e-09,3.812500e-03
1.190781e-09,3.453125e-03
1.194781e-09,3.171875e-03
1.198781e-09,2.953125e-03
1.202781e-09,3.093750e-03
1.206781e-09,2.718750e-03
1.210781e-09,2.609375e-03
1.214781e-09,2.765625e-03
1.218781e-09,3.171875e-03
1.222781e-09,3.046875e-03
1.226781e-09,3.265625e-03
1.230781e-09,3.531250e-03
1.234781e-09,3.812500e-03
1.238781e-09,4.140625e-03
1.242781e-09,4.781250e-03
1.246781e-09,4.828125e-03
1.250781e-09,5.062500e-03
1.254781e-09,5.500000e-03
1.258781e-09,6.125000e-03
1.262781e-09,6.125000e-03
1.266781e-09,6.390625e-03
1.270781e-09,6.625000e-03
1.274781e-09,6.828125e-03
1.278781e-09,6.984375e-03
1.282781e-09,7.406250e-03
1.286781e-09,7.171875e-03
1.290781e-09,7.109375e-03
1.294781e-09,7.203125e-03
1.298781e-09,7.453125e-03
1.302781e-09,7.078125e-03
1.306781e-09,6.968750e-03
1.310781e-09,6.843750e-03
1.314781e-09,6.718750e-03
1.318781e-09,6.578125e-03
1.322781e-09,6.734375e-03
1.326781e-09,6.296875e-03
1.330781e-09,6.078125e-03
1.334781e-09,6.078125e-03
1.338781e-09,6.312500e-03
1.342781e-09,5.968750e-03
1.346781e-09,5.984375e-03
1.350781e-09,6.031250e-03
1.354781e-09,6.125000e-03
1.358781e-09,6.265625e-03
1.362781e-09,6.750000e-03
1.366781e-09,6.671875e-03
1.370781e-09,6.859375e-03
1.374781e-09,7.281250e-03
1.378781e-09,7.937500e-03
1.382781e-09,8.015625e-03
1.386781e-09,8.421875e-03
1.390781e-09,8.843750e-03
1.394781e-09,9.265625e-03
1.398781e-09,9.687500e-03
1.402781e-09,1.040625e-02
1.406781e-09,1.050000e-02
1.410781e-09,1.076563e-02
1.414781e-09,1.118750e-02
1.418781e-09,1.176563e-02
1.422781e-09,1.168750e-02
1.426781e-09,1.185938e-02
1.430781e-09,1.196875e-02
1.434781e-09,1.200000e-02
1.438781e-09,1.195313e-02
1.442781e-09,1.214063e-02
1.446781e-09,1.165625e-02
1.450781e-09,1.129688e-02
1.454781e-09,1.107813e-02
1.458781e-09,1.100000e-02
1.462781e-09,1.025000e-02
1.466781e-09,9.765625e-03
1.470781e-09,9.218750e-03
1.474781e-09,8.671875e-03
1.478781e-09,8.078125e-03
1.482781e-09,7.781250e-03
1.486781e-09,6.890625e-03
1.490781e-09,6.203125e-03
1.494781e-09,5.750000e-03
1.498781e-09,5.531250e-03
1.502781e-09,4.750000e-03
1.506781e-09,4.328125e-03
1.510781e-09,3.984375e-03
1.514781e-09,3.687500e-03
1.518781e-09,3.484375e-03
1.522781e-09,3.656250e-03
1.526781e-09,3.312500e-03
1.530781e-09,3.250000e-03
1.534781e-09,3.484375e-03
1.538781e-09,4.000000e-03
1.542781e-09,3.984375e-03
1.546781e-09,4.359375e-03
1.550781e-09,4.796875e-03
1.554781e-09,5.281250e-03
1.558781e-09,5.828125e-03
1.562781e-09,6.718750e-03
1.566781e-09,7.031250e-03
1.570781e-09,7.562500e-03
1.574781e-09,8.312500e-03
1.578781e-09,9.250000e-03
1.582781e-09,9.562500e-03
1.586781e-09,1.014063e-02
1.590781e-09,1.068750e-02
1.594781e-09,1.118750e-02
1.598781e-09,1.164063e-02
1.602781e-09,1.231250e-02
1.606781e-09,1.231250e-02
1.610781e-09,1.243750e-02
1.614781e-09,1.268750e-02
1.618781e-09,1.304688e-02
1.622781e-09,1.271875e-02
1.626781e-09,1.262500e-02
1.630781e-09,1.245313e-02
1.634781e-09,1.220313e-02
1.638781e-09,1.189063e-02
1.642781e-09,1.181250e-02
1.646781e-09,1.109375e-02
1.650781e-09,1.053125e-02
1.654781e-09,1.012500e-02
1.658781e-09,9.921875e-03
1.662781e-09,9.093750e-03
1.666781e-09,8.562500e-03
1.670781e-09,8.046875e-03
1.674781e-09,7.562500e-03
1.678781e-09,7.109375e-03
1.682781e-09,6.984375e-03
1.686781e-09,6.312500e-03
1.690781e-09,5.890625e-03
1.694781e-09,5.718750e-03
1.698781e-09,5.828125e-03
1.702781e-09,5.390625e-03
1.706781e-09,5.328125e-03
1.710781e-09,5.328125e-03
1.714781e-09,5.390625e-03
1.718781e-09,5.500000e-03
1.722781e-09,5.984375e-03
1.726781e-09,5.906250e-03
1.730781e-09,6.078125e-03
1.734781e-09,6.484375e-03
1.738781e-09,7.109375e-03
1.742781e-09,7.156250e-03
1.746781e-09,7.515625e-03
1.750781e-09,7.859375e-03
1.754781e-09,8.203125e-03
