Measurements-streak-laser-independent/Photodiode-on-Tek-6GHz/Tek000_ch1_20190613132834926.csv

Model,MSO64
Waveform Type,ANALOG
Horizontal Units,s
Sample Interval,4.000000e-12
Record Length,1000
Zero Index,310.234375
Vertical Units,V

TIME,CH1
-1.240937e-09,4.484375e-03
-1.236937e-09,4.750000e-03
-1.232937e-09,5.000000e-03
-1.228937e-09,5.562500e-03
-1.224937e-09,5.515625e-03
-1.220937e-09,5.671875e-03
-1.216937e-09,6.031250e-03
-1.212937e-09,6.593750e-03
-1.208937e-09,6.546875e-03
-1.204938e-09,6.781250e-03
-1.200938e-09,7.031250e-03
-1.196938e-09,7.250000e-03
-1.192938e-09,7.468750e-03
-1.188938e-09,7.984375e-03
-1.184938e-09,7.890625e-03
-1.180937e-09,7.968750e-03
-1.176937e-09,8.250000e-03
-1.172937e-09,8.718750e-03
-1.168937e-09,8.562500e-03
-1.164937e-09,8.703125e-03
-1.160937e-09,8.812500e-03
-1.156937e-09,8.921875e-03
-1.152937e-09,9.000000e-03
-1.148937e-09,9.375000e-03
-1.144938e-09,9.125000e-03
-1.140938e-09,9.062500e-03
-1.136938e-09,9.171875e-03
-1.132938e-09,9.453125e-03
-1.128938e-09,9.125000e-03
-1.124938e-09,9.078125e-03
-1.120937e-09,9.000000e-03
-1.116937e-09,8.890625e-03
-1.112937e-09,8.781250e-03
-1.108937e-09,8.937500e-03
-1.104937e-09,8.468750e-03
-1.100937e-09,8.187500e-03
-1.096937e-09,8.093750e-03
-1.092937e-09,8.171875e-03
-1.088937e-09,7.640625e-03
-1.084938e-09,7.390625e-03
-1.080938e-09,7.125000e-03
-1.076938e-09,6.859375e-03
-1.072938e-09,6.593750e-03
-1.068938e-09,6.609375e-03
-1.064938e-09,6.031250e-03
-1.060937e-09,5.656250e-03
-1.056937e-09,5.484375e-03
-1.052937e-09,5.531250e-03
-1.048937e-09,4.968750e-03
-1.044937e-09,4.734375e-03
-1.040937e-09,4.515625e-03
-1.036937e-09,4.296875e-03
-1.032937e-09,4.125000e-03
-1.028937e-09,4.265625e-03
-1.024938e-09,3.828125e-03
-1.020938e-09,3.609375e-03
-1.016938e-09,3.625000e-03
-1.012938e-09,3.859375e-03
-1.008938e-09,3.515625e-03
-1.004938e-09,3.500000e-03
-1.000937e-09,3.515625e-03
-9.969375e-10,3.531250e-03
-9.929375e-10,3.578125e-03
-9.889375e-10,3.953125e-03
-9.849375e-10,3.718750e-03
-9.809375e-10,3.703125e-03
-9.769375e-10,3.890625e-03
-9.729375e-10,4.296875e-03
-9.689375e-10,4.093750e-03
-9.649375e-10,4.187500e-03
-9.609375e-10,4.265625e-03
-9.569375e-10,4.343750e-03
-9.529375e-10,4.421875e-03
-9.489375e-10,4.781250e-03
-9.449375e-10,4.515625e-03
-9.409375e-10,4.421875e-03
-9.369375e-10,4.531250e-03
-9.329375e-10,4.812500e-03
-9.289375e-10,4.468750e-03
-9.249375e-10,4.390625e-03
-9.209375e-10,4.312500e-03
-9.169375e-10,4.203125e-03
-9.129375e-10,4.062500e-03
-9.089375e-10,4.218750e-03
-9.049375e-10,3.750000e-03
-9.009375e-10,3.468750e-03
-8.969375e-10,3.375000e-03
-8.929375e-10,3.468750e-03
-8.889375e-10,2.953125e-03
-8.849375e-10,2.734375e-03
-8.809375e-10,2.500000e-03
-8.769375e-10,2.281250e-03
-8.729375e-10,2.062500e-03
-8.689375e-10,2.156250e-03
-8.649375e-10,1.640625e-03
-8.609375e-10,1.343750e-03
-8.569375e-10,1.250000e-03
-8.529375e-10,1.390625e-03
-8.489375e-10,9.375000e-04
-8.449375e-10,7.968750e-04
-8.409375e-10,6.875000e-04
-8.369375e-10,5.781250e-04
-8.329375e-10,5.000000e-04
-8.289375e-10,7.500000e-04
-8.249375e-10,4.062500e-04
-8.209375e-10,2.812500e-04
-8.169375e-10,3.906250e-04
-8.129375e-10,7.031250e-04
-8.089375e-10,4.375000e-04
-8.049375e-10,4.843750e-04
-8.009375e-10,5.468750e-04
-7.969375e-10,6.250000e-04
-7.929375e-10,7.187500e-04
-7.889375e-10,1.125000e-03
-7.849375e-10,9.375000e-04
-7.809375e-10,9.531250e-04
-7.769375e-10,1.187500e-03
-7.729375e-10,1.625000e-03
-7.689375e-10,1.468750e-03
-7.649375e-10,1.625000e-03
-7.609375e-10,1.781250e-03
-7.569375e-10,1.937500e-03
-7.529375e-10,2.109375e-03
-7.489375e-10,2.593750e-03
-7.449375e-10,2.468750e-03
-7.409375e-10,2.562500e-03
-7.369375e-10,2.859375e-03
-7.329375e-10,3.359375e-03
-7.289375e-10,3.265625e-03
-7.249375e-10,3.484375e-03
-7.209375e-10,3.687500e-03
-7.169375e-10,3.906250e-03
-7.129375e-10,4.140625e-03
-7.089375e-10,4.656250e-03
-7.049375e-10,4.578125e-03
-7.009375e-10,4.703125e-03
-6.969375e-10,5.015625e-03
-6.929375e-10,5.531250e-03
-6.889375e-10,5.437500e-03
-6.849375e-10,5.625000e-03
-6.809375e-10,5.812500e-03
-6.769375e-10,5.968750e-03
-6.729375e-10,6.109375e-03
-6.689375e-10,6.531250e-03
-6.649375e-10,6.343750e-03
-6.609375e-10,6.312500e-03
-6.569375e-10,6.453125e-03
-6.529375e-10,6.781250e-03
-6.489375e-10,6.468750e-03
-6.449375e-10,6.421875e-03
-6.409375e-10,6.343750e-03
-6.369375e-10,6.250000e-03
-6.329375e-10,6.109375e-03
-6.289375e-10,6.265625e-03
-6.249375e-10,5.781250e-03
-6.209375e-10,5.468750e-03
-6.169375e-10,5.343750e-03
-6.129375e-10,5.421875e-03
-6.089375e-10,4.875000e-03
-6.049375e-10,4.625000e-03
-6.009375e-10,4.375000e-03
-5.969375e-10,4.125000e-03
-5.929375e-10,3.890625e-03
-5.889375e-10,3.984375e-03
-5.849375e-10,3.484375e-03
-5.809375e-10,3.234375e-03
-5.769375e-10,3.203125e-03
-5.729375e-10,3.421875e-03
-5.689375e-10,3.078125e-03
-5.649375e-10,3.078125e-03
-5.609375e-10,3.125000e-03
-5.569375e-10,3.234375e-03
-5.529375e-10,3.390625e-03
-5.489375e-10,3.906250e-03
-5.449375e-10,3.875000e-03
-5.409375e-10,4.093750e-03
-5.369375e-10,4.562500e-03
-5.329375e-10,5.281250e-03
-5.289375e-10,5.421875e-03
-5.249375e-10,5.921875e-03
-5.209375e-10,6.421875e-03
-5.169375e-10,6.968750e-03
-5.129375e-10,7.515625e-03
-5.089375e-10,8.359375e-03
-5.049375e-10,8.609375e-03
-5.009375e-10,9.046875e-03
-4.969375e-10,9.671875e-03
-4.929375e-10,1.045313e-02
-4.889375e-10,1.060938e-02
-4.849375e-10,1.100000e-02
-4.809375e-10,1.134375e-02
-4.769375e-10,1.164063e-02
-4.729375e-10,1.185938e-02
-4.689375e-10,1.231250e-02
-4.649375e-10,1.209375e-02
-4.609375e-10,1.198438e-02
-4.569375e-10,1.203125e-02
-4.529375e-10,1.218750e-02
-4.489375e-10,1.167188e-02
-4.449375e-10,1.139063e-02
-4.409375e-10,1.101563e-02
-4.369375e-10,1.059375e-02
-4.329375e-10,1.012500e-02
-4.289375e-10,9.921875e-03
-4.249375e-10,9.046875e-03
-4.209375e-10,8.375000e-03
-4.169375e-10,7.875000e-03
-4.129375e-10,7.578125e-03
-4.089375e-10,6.687500e-03
-4.049375e-10,6.109375e-03
-4.009375e-10,5.515625e-03
-3.969375e-10,4.984375e-03
-3.929375e-10,4.468750e-03
-3.889375e-10,4.328125e-03
-3.849375e-10,3.625000e-03
-3.809375e-10,3.203125e-03
-3.769375e-10,3.062500e-03
-3.729375e-10,3.171875e-03
-3.689375e-10,2.781250e-03
-3.649375e-10,2.765625e-03
-3.609375e-10,2.781250e-03
-3.569375e-10,2.890625e-03
-3.529375e-10,3.062500e-03
-3.489375e-10,3.625000e-03
-3.449375e-10,3.625000e-03
-3.409375e-10,3.890625e-03
-3.369375e-10,4.421875e-03
-3.329375e-10,5.187500e-03
-3.289375e-10,5.406250e-03
-3.249375e-10,5.937500e-03
-3.209375e-10,6.437500e-03
-3.169375e-10,6.937500e-03
-3.129375e-10,7.468750e-03
-3.089375e-10,8.265625e-03
-3.049375e-10,8.453125e-03
-3.009375e-10,8.796875e-03
-2.969375e-10,9.328125e-03
-2.929375e-10,9.984375e-03
-2.889375e-10,1.003125e-02
-2.849375e-10,1.032813e-02
-2.809375e-10,1.050000e-02
-2.769375e-10,1.060938e-02
-2.729375e-10,1.071875e-02
-2.689375e-10,1.103125e-02
-2.649375e-10,1.070313e-02
-2.609375e-10,1.050000e-02
-2.569375e-10,1.050000e-02
-2.529375e-10,1.060938e-02
-2.489375e-10,1.010938e-02
-2.449375e-10,9.875000e-03
-2.409375e-10,9.578125e-03
-2.369375e-10,9.234375e-03
-2.329375e-10,8.937500e-03
-2.289375e-10,8.890625e-03
-2.249375e-10,8.296875e-03
-2.209375e-10,7.875000e-03
-2.169375e-10,7.687500e-03
-2.129375e-10,7.718750e-03
-2.089375e-10,7.187500e-03
-2.049375e-10,7.000000e-03
-2.009375e-10,6.796875e-03
-1.969375e-10,6.593750e-03
-1.929375e-10,6.531250e-03
-1.889375e-10,6.718750e-03
-1.849375e-10,6.437500e-03
-1.809375e-10,6.343750e-03
-1.769375e-10,6.500000e-03
-1.729375e-10,6.890625e-03
-1.689375e-10,6.734375e-03
-1.649375e-10,6.906250e-03
-1.609375e-10,7.062500e-03
-1.569375e-10,7.218750e-03
-1.529375e-10,7.468750e-03
-1.489375e-10,7.968750e-03
-1.449375e-10,7.968750e-03
-1.409375e-10,8.109375e-03
-1.369375e-10,8.468750e-03
-1.329375e-10,9.046875e-03
-1.289375e-10,9.015625e-03
-1.249375e-10,9.281250e-03
-1.209375e-10,9.531250e-03
-1.169375e-10,9.765625e-03
-1.129375e-10,1.006250e-02
-1.089375e-10,1.059375e-02
-1.049375e-10,1.065625e-02
-1.009375e-10,1.087500e-02
-9.693750e-11,1.128125e-02
-9.293750e-11,1.195313e-02
-8.893750e-11,1.206250e-02
-8.493750e-11,1.250000e-02
-8.093750e-11,1.298438e-02
-7.693750e-11,1.351563e-02
-7.293750e-11,1.417188e-02
-6.893750e-11,1.515625e-02
-6.493750e-11,1.575000e-02
-6.093750e-11,1.657813e-02
-5.693750e-11,1.768750e-02
-5.293750e-11,1.914063e-02
-4.893750e-11,2.015625e-02
-4.493750e-11,2.156250e-02
-4.093750e-11,2.310938e-02
-3.693750e-11,2.479688e-02
-3.293750e-11,2.667188e-02
-2.893750e-11,2.896875e-02
-2.493750e-11,3.093750e-02
-2.093750e-11,3.320313e-02
-1.693750e-11,3.578125e-02
-1.293750e-11,3.875000e-02
-8.937500e-12,4.132813e-02
-4.937500e-12,4.428125e-02
-9.375000e-13,4.740625e-02
3.062500e-12,5.068750e-02
7.062500e-12,5.409375e-02
1.106250e-11,5.792188e-02
1.506250e-11,6.139063e-02
1.906250e-11,6.510938e-02
2.306250e-11,6.907813e-02
2.706250e-11,7.335938e-02
3.106250e-11,7.721875e-02
3.506250e-11,8.135938e-02
3.906250e-11,8.557813e-02
4.306250e-11,8.985938e-02
4.706250e-11,9.417188e-02
5.106250e-11,9.884375e-02
5.506250e-11,1.030000e-01
5.906250e-11,1.073438e-01
6.306250e-11,1.118125e-01
6.706250e-11,1.164844e-01
7.106250e-11,1.206563e-01
7.506250e-11,1.249844e-01
7.906250e-11,1.292813e-01
8.306250e-11,1.335469e-01
8.706250e-11,1.377344e-01
9.106250e-11,1.421563e-01
9.506250e-11,1.460000e-01
9.906250e-11,1.499219e-01
1.030625e-10,1.538750e-01
1.070625e-10,1.578906e-01
1.110625e-10,1.613594e-01
1.150625e-10,1.648906e-01
1.190625e-10,1.682969e-01
1.230625e-10,1.715781e-01
1.270625e-10,1.747031e-01
1.310625e-10,1.779531e-01
1.350625e-10,1.805781e-01
1.390625e-10,1.831719e-01
1.430625e-10,1.857188e-01
1.470625e-10,1.882656e-01
1.510625e-10,1.901719e-01
1.550625e-10,1.920938e-01
1.590625e-10,1.938125e-01
1.630625e-10,1.953438e-01
1.670625e-10,1.966719e-01
1.710625e-10,1.980313e-01
1.750625e-10,1.987500e-01
1.790625e-10,1.994063e-01
1.830625e-10,1.999688e-01
1.870625e-10,2.004844e-01
1.910625e-10,2.003438e-01
1.950625e-10,2.002344e-01
1.990625e-10,1.999219e-01
2.030625e-10,1.994219e-01
2.070625e-10,1.987188e-01
2.110625e-10,1.980625e-01
2.150625e-10,1.968125e-01
2.190625e-10,1.955313e-01
2.230625e-10,1.942031e-01
2.270625e-10,1.929063e-01
2.310625e-10,1.909844e-01
2.350625e-10,1.891875e-01
2.390625e-10,1.872656e-01
2.430625e-10,1.852344e-01
2.470625e-10,1.830938e-01
2.510625e-10,1.810625e-01
2.550625e-10,1.785313e-01
2.590625e-10,1.760625e-01
2.630625e-10,1.736406e-01
2.670625e-10,1.713281e-01
2.710625e-10,1.684688e-01
2.750625e-10,1.658594e-01
2.790625e-10,1.631719e-01
2.830625e-10,1.604531e-01
2.870625e-10,1.577188e-01
2.910625e-10,1.551406e-01
2.950625e-10,1.520781e-01
2.990625e-10,1.491875e-01
3.030625e-10,1.463750e-01
3.070625e-10,1.436875e-01
3.110625e-10,1.404844e-01
3.150625e-10,1.375625e-01
3.190625e-10,1.345938e-01
3.230625e-10,1.316094e-01
3.270625e-10,1.286094e-01
3.310625e-10,1.257813e-01
3.350625e-10,1.224531e-01
3.390625e-10,1.193125e-01
3.430625e-10,1.162500e-01
3.470625e-10,1.133438e-01
3.510625e-10,1.099063e-01
3.550625e-10,1.067500e-01
3.590625e-10,1.035625e-01
3.630625e-10,1.003906e-01
3.670625e-10,9.721875e-02
3.710625e-10,9.426563e-02
3.750625e-10,9.081250e-02
3.790625e-10,8.760938e-02
3.830625e-10,8.453125e-02
3.870625e-10,8.165625e-02
3.910625e-10,7.832813e-02
3.950625e-10,7.534375e-02
3.990625e-10,7.240625e-02
4.030625e-10,6.956250e-02
4.070625e-10,6.679688e-02
4.110625e-10,6.437500e-02
4.150625e-10,6.148438e-02
4.190625e-10,5.895313e-02
4.230625e-10,5.667188e-02
4.270625e-10,5.464063e-02
4.310625e-10,5.226563e-02
4.350625e-10,5.029688e-02
4.390625e-10,4.848438e-02
4.430625e-10,4.681250e-02
4.470625e-10,4.528125e-02
4.510625e-10,4.415625e-02
4.550625e-10,4.260938e-02
4.590625e-10,4.142188e-02
4.630625e-10,4.053125e-02
4.670625e-10,3.990625e-02
4.710625e-10,3.893750e-02
4.750625e-10,3.831250e-02
4.790625e-10,3.784375e-02
4.830625e-10,3.746875e-02
4.870625e-10,3.718750e-02
4.910625e-10,3.725000e-02
4.950625e-10,3.679688e-02
4.990625e-10,3.662500e-02
5.030625e-10,3.667188e-02
5.070625e-10,3.685938e-02
5.110625e-10,3.660938e-02
5.150625e-10,3.660938e-02
5.190625e-10,3.665625e-02
5.230625e-10,3.667188e-02
5.270625e-10,3.664063e-02
5.310625e-10,3.687500e-02
5.350625e-10,3.650000e-02
5.390625e-10,3.626563e-02
5.430625e-10,3.618750e-02
5.470625e-10,3.618750e-02
5.510625e-10,3.564063e-02
5.550625e-10,3.526563e-02
5.590625e-10,3.489063e-02
5.630625e-10,3.443750e-02
5.670625e-10,3.389063e-02
5.710625e-10,3.357813e-02
5.750625e-10,3.264063e-02
5.790625e-10,3.184375e-02
5.830625e-10,3.120313e-02
5.870625e-10,3.067188e-02
5.910625e-10,2.959375e-02
5.950625e-10,2.871875e-02
5.990625e-10,2.789063e-02
6.030625e-10,2.701563e-02
6.070625e-10,2.609375e-02
6.110625e-10,2.545313e-02
6.150625e-10,2.426563e-02
6.190625e-10,2.325000e-02
6.230625e-10,2.246875e-02
6.270625e-10,2.184375e-02
6.310625e-10,2.071875e-02
6.350625e-10,1.987500e-02
6.390625e-10,1.910938e-02
6.430625e-10,1.835938e-02
6.470625e-10,1.757813e-02
6.510625e-10,1.712500e-02
6.550625e-10,1.615625e-02
6.590625e-10,1.540625e-02
6.630625e-10,1.489063e-02
6.670625e-10,1.459375e-02
6.710625e-10,1.376563e-02
6.750625e-10,1.323438e-02
6.790625e-10,1.278125e-02
6.830625e-10,1.235938e-02
6.870625e-10,1.190625e-02
6.910625e-10,1.176563e-02
6.950625e-10,1.107813e-02
6.990625e-10,1.060938e-02
7.030625e-10,1.037500e-02
7.070625e-10,1.034375e-02
7.110625e-10,9.750000e-03
7.150625e-10,9.453125e-03
7.190625e-10,9.218750e-03
7.230625e-10,8.984375e-03
7.270625e-10,8.734375e-03
7.310625e-10,8.781250e-03
7.350625e-10,8.281250e-03
7.390625e-10,7.984375e-03
7.430625e-10,7.921875e-03
7.470625e-10,8.062500e-03
7.510625e-10,7.640625e-03
7.550625e-10,7.531250e-03
7.590625e-10,7.468750e-03
7.630625e-10,7.421875e-03
7.670625e-10,7.359375e-03
7.710625e-10,7.625000e-03
7.750625e-10,7.328125e-03
7.790625e-10,7.234375e-03
7.830625e-10,7.390625e-03
7.870625e-10,7.765625e-03
7.910625e-10,7.562500e-03
7.950625e-10,7.671875e-03
7.990625e-10,7.812500e-03
8.030625e-10,7.984375e-03
8.070625e-10,8.125000e-03
8.110625e-10,8.593750e-03
8.150625e-10,8.468750e-03
8.190625e-10,8.546875e-03
8.230625e-10,8.843750e-03
8.270625e-10,9.328125e-03
8.310625e-10,9.218750e-03
8.350625e-10,9.390625e-03
8.390625e-10,9.578125e-03
8.430625e-10,9.734375e-03
8.470625e-10,9.875000e-03
8.510625e-10,1.028125e-02
8.550625e-10,1.007813e-02
8.590625e-10,1.006250e-02
8.630625e-10,1.020313e-02
8.670625e-10,1.053125e-02
8.710625e-10,1.023438e-02
8.750625e-10,1.020313e-02
8.790625e-10,1.014063e-02
8.830625e-10,1.006250e-02
8.870625e-10,9.937500e-03
8.910625e-10,1.009375e-02
8.950625e-10,9.625000e-03
8.990625e-10,9.328125e-03
9.030625e-10,9.218750e-03
9.070625e-10,9.296875e-03
9.110625e-10,8.750000e-03
9.150625e-10,8.484375e-03
9.190625e-10,8.234375e-03
9.230625e-10,7.968750e-03
9.270625e-10,7.687500e-03
9.310625e-10,7.703125e-03
9.350625e-10,7.125000e-03
9.390625e-10,6.765625e-03
9.430625e-10,6.609375e-03
9.470625e-10,6.671875e-03
9.510625e-10,6.156250e-03
9.550625e-10,5.937500e-03
9.590625e-10,5.765625e-03
9.630625e-10,5.593750e-03
9.670625e-10,5.437500e-03
9.710625e-10,5.625000e-03
9.750625e-10,5.218750e-03
9.790625e-10,5.031250e-03
9.830625e-10,5.078125e-03
9.870625e-10,5.359375e-03
9.910625e-10,5.031250e-03
9.950625e-10,5.046875e-03
9.990625e-10,5.078125e-03
1.003063e-09,5.109375e-03
1.007063e-09,5.156250e-03
1.011062e-09,5.531250e-03
1.015062e-09,5.296875e-03
1.019062e-09,5.265625e-03
1.023062e-09,5.453125e-03
1.027062e-09,5.843750e-03
1.031062e-09,5.625000e-03
1.035062e-09,5.718750e-03
1.039062e-09,5.796875e-03
1.043062e-09,5.859375e-03
1.047063e-09,5.921875e-03
1.051063e-09,6.281250e-03
1.055063e-09,6.031250e-03
1.059063e-09,5.953125e-03
1.063063e-09,6.078125e-03
1.067063e-09,6.406250e-03
1.071062e-09,6.093750e-03
1.075062e-09,6.093750e-03
1.079062e-09,6.078125e-03
1.083062e-09,6.062500e-03
1.087062e-09,6.031250e-03
1.091062e-09,6.296875e-03
1.095062e-09,5.968750e-03
1.099062e-09,5.828125e-03
1.103062e-09,5.890625e-03
1.107063e-09,6.156250e-03
1.111063e-09,5.828125e-03
1.115063e-09,5.812500e-03
1.119063e-09,5.812500e-03
1.123063e-09,5.812500e-03
1.127063e-09,5.828125e-03
1.131062e-09,6.156250e-03
1.135062e-09,5.890625e-03
1.139062e-09,5.843750e-03
1.143062e-09,6.031250e-03
1.147062e-09,6.421875e-03
1.151062e-09,6.218750e-03
1.155062e-09,6.343750e-03
1.159062e-09,6.484375e-03
1.163062e-09,6.640625e-03
1.167063e-09,6.812500e-03
1.171063e-09,7.296875e-03
1.175063e-09,7.171875e-03
1.179063e-09,7.265625e-03
1.183063e-09,7.562500e-03
1.187063e-09,8.062500e-03
1.191062e-09,7.953125e-03
1.195062e-09,8.140625e-03
1.199062e-09,8.312500e-03
1.203062e-09,8.484375e-03
1.207062e-09,8.640625e-03
1.211062e-09,9.078125e-03
1.215062e-09,8.890625e-03
1.219062e-09,8.890625e-03
1.223062e-09,9.062500e-03
1.227063e-09,9.406250e-03
1.231063e-09,9.109375e-03
1.235063e-09,9.093750e-03
1.239063e-09,9.046875e-03
1.243063e-09,8.968750e-03
1.247063e-09,8.843750e-03
1.251062e-09,9.015625e-03
1.255062e-09,8.546875e-03
1.259062e-09,8.250000e-03
1.263062e-09,8.140625e-03
1.267062e-09,8.203125e-03
1.271062e-09,7.656250e-03
1.275062e-09,7.390625e-03
1.279062e-09,7.125000e-03
1.283062e-09,6.843750e-03
1.287063e-09,6.562500e-03
1.291063e-09,6.593750e-03
1.295063e-09,6.046875e-03
1.299063e-09,5.703125e-03
1.303063e-09,5.593750e-03
1.307063e-09,5.703125e-03
1.311062e-09,5.250000e-03
1.315062e-09,5.125000e-03
1.319062e-09,5.046875e-03
1.323062e-09,5.000000e-03
1.327062e-09,5.015625e-03
1.331062e-09,5.375000e-03
1.335062e-09,5.187500e-03
1.339062e-09,5.250000e-03
1.343062e-09,5.562500e-03
1.347063e-09,6.125000e-03
1.351063e-09,6.140625e-03
1.355063e-09,6.500000e-03
1.359063e-09,6.906250e-03
1.363063e-09,7.359375e-03
1.367063e-09,7.859375e-03
1.371062e-09,8.671875e-03
1.375062e-09,8.921875e-03
1.379062e-09,9.390625e-03
1.383062e-09,1.006250e-02
1.387062e-09,1.095313e-02
1.391062e-09,1.125000e-02
1.395062e-09,1.182813e-02
1.399062e-09,1.239063e-02
1.403062e-09,1.292188e-02
1.407063e-09,1.343750e-02
1.411063e-09,1.421875e-02
1.415063e-09,1.432813e-02
1.419063e-09,1.460938e-02
1.423063e-09,1.503125e-02
1.427063e-09,1.557813e-02
1.431062e-09,1.546875e-02
1.435062e-09,1.557813e-02
1.439062e-09,1.562500e-02
1.443062e-09,1.557813e-02
1.447062e-09,1.546875e-02
1.451062e-09,1.557813e-02
1.455062e-09,1.500000e-02
1.459062e-09,1.454688e-02
1.463062e-09,1.423438e-02
1.467063e-09,1.404688e-02
1.471063e-09,1.318750e-02
1.475063e-09,1.256250e-02
1.479063e-09,1.190625e-02
1.483063e-09,1.118750e-02
1.487063e-09,1.043750e-02
1.491062e-09,9.953125e-03
1.495062e-09,8.859375e-03
1.499062e-09,7.937500e-03
1.503062e-09,7.218750e-03
1.507062e-09,6.718750e-03
1.511062e-09,5.625000e-03
1.515062e-09,4.859375e-03
1.519062e-09,4.109375e-03
1.523062e-09,3.421875e-03
1.527063e-09,2.781250e-03
1.531063e-09,2.484375e-03
1.535063e-09,1.656250e-03
1.539063e-09,1.109375e-03
1.543063e-09,8.125000e-04
1.547063e-09,8.125000e-04
1.551062e-09,2.812500e-04
1.555062e-09,1.406250e-04
1.559062e-09,6.250000e-05
1.563062e-09,9.375000e-05
1.567062e-09,1.875000e-04
1.571062e-09,6.562500e-04
1.575062e-09,6.093750e-04
1.579062e-09,8.281250e-04
1.583062e-09,1.312500e-03
1.587063e-09,2.062500e-03
1.591063e-09,2.250000e-03
1.595063e-09,2.796875e-03
1.599063e-09,3.359375e-03
1.603063e-09,3.968750e-03
1.607063e-09,4.593750e-03
1.611062e-09,5.531250e-03
1.615062e-09,5.859375e-03
1.619062e-09,6.390625e-03
1.623062e-09,7.109375e-03
1.627062e-09,8.000000e-03
1.631062e-09,8.265625e-03
1.635062e-09,8.781250e-03
1.639062e-09,9.265625e-03
1.643062e-09,9.687500e-03
1.647063e-09,1.006250e-02
1.651063e-09,1.067188e-02
1.655063e-09,1.060938e-02
1.659063e-09,1.068750e-02
1.663063e-09,1.090625e-02
1.667063e-09,1.125000e-02
1.671062e-09,1.093750e-02
1.675062e-09,1.084375e-02
1.679062e-09,1.068750e-02
1.683062e-09,1.048438e-02
1.687062e-09,1.021875e-02
1.691062e-09,1.020313e-02
1.695062e-09,9.546875e-03
1.699062e-09,9.046875e-03
1.703062e-09,8.718750e-03
1.707062e-09,8.562500e-03
1.711063e-09,7.781250e-03
1.715063e-09,7.312500e-03
1.719063e-09,6.828125e-03
1.723063e-09,6.343750e-03
1.727063e-09,5.890625e-03
1.731062e-09,5.750000e-03
1.735062e-09,5.046875e-03
1.739062e-09,4.562500e-03
1.743062e-09,4.328125e-03
1.747062e-09,4.328125e-03
1.751062e-09,3.781250e-03
1.755062e-09,3.593750e-03
1.759062e-09,3.453125e-03
