Measurements-streak-laser-independent/Photodiode-on-Tek-6GHz/Tek000_ch1_20190613132750198.csv

Model,MSO64
Waveform Type,ANALOG
Horizontal Units,s
Sample Interval,4.000000e-12
Record Length,1000
Zero Index,310.781250
Vertical Units,V

TIME,CH1
-1.243125e-09,1.367188e-02
-1.239125e-09,1.368750e-02
-1.235125e-09,1.381250e-02
-1.231125e-09,1.323438e-02
-1.227125e-09,1.284375e-02
-1.223125e-09,1.237500e-02
-1.219125e-09,1.181250e-02
-1.215125e-09,1.117188e-02
-1.211125e-09,1.078125e-02
-1.207125e-09,9.734375e-03
-1.203125e-09,8.843750e-03
-1.199125e-09,8.109375e-03
-1.195125e-09,7.578125e-03
-1.191125e-09,6.421875e-03
-1.187125e-09,5.578125e-03
-1.183125e-09,4.750000e-03
-1.179125e-09,3.968750e-03
-1.175125e-09,3.203125e-03
-1.171125e-09,2.796875e-03
-1.167125e-09,1.843750e-03
-1.163125e-09,1.171875e-03
-1.159125e-09,7.500000e-04
-1.155125e-09,6.250000e-04
-1.151125e-09,-3.125000e-05
-1.147125e-09,-2.968750e-04
-1.143125e-09,-4.843750e-04
-1.139125e-09,-5.625000e-04
-1.135125e-09,-5.781250e-04
-1.131125e-09,-2.031250e-04
-1.127125e-09,-3.437500e-04
-1.123125e-09,-2.187500e-04
-1.119125e-09,1.875000e-04
-1.115125e-09,8.593750e-04
-1.111125e-09,9.843750e-04
-1.107125e-09,1.453125e-03
-1.103125e-09,1.968750e-03
-1.099125e-09,2.531250e-03
-1.095125e-09,3.109375e-03
-1.091125e-09,4.015625e-03
-1.087125e-09,4.328125e-03
-1.083125e-09,4.843750e-03
-1.079125e-09,5.546875e-03
-1.075125e-09,6.437500e-03
-1.071125e-09,6.718750e-03
-1.067125e-09,7.265625e-03
-1.063125e-09,7.781250e-03
-1.059125e-09,8.250000e-03
-1.055125e-09,8.671875e-03
-1.051125e-09,9.375000e-03
-1.047125e-09,9.390625e-03
-1.043125e-09,9.578125e-03
-1.039125e-09,9.906250e-03
-1.035125e-09,1.039063e-02
-1.031125e-09,1.020313e-02
-1.027125e-09,1.028125e-02
-1.023125e-09,1.029688e-02
-1.019125e-09,1.025000e-02
-1.015125e-09,1.017188e-02
-1.011125e-09,1.035938e-02
-1.007125e-09,9.875000e-03
-1.003125e-09,9.578125e-03
-9.991250e-10,9.437500e-03
-9.951250e-10,9.468750e-03
-9.911250e-10,8.875000e-03
-9.871250e-10,8.562500e-03
-9.831250e-10,8.234375e-03
-9.791250e-10,7.906250e-03
-9.751250e-10,7.562500e-03
-9.711250e-10,7.531250e-03
-9.671250e-10,6.890625e-03
-9.631250e-10,6.468750e-03
-9.591250e-10,6.250000e-03
-9.551250e-10,6.265625e-03
-9.511250e-10,5.687500e-03
-9.471250e-10,5.437500e-03
-9.431250e-10,5.203125e-03
-9.391250e-10,5.015625e-03
-9.351250e-10,4.843750e-03
-9.311250e-10,5.031250e-03
-9.271250e-10,4.625000e-03
-9.231250e-10,4.453125e-03
-9.191250e-10,4.531250e-03
-9.151250e-10,4.828125e-03
-9.111250e-10,4.562500e-03
-9.071250e-10,4.625000e-03
-9.031250e-10,4.718750e-03
-8.991250e-10,4.828125e-03
-8.951250e-10,4.968750e-03
-8.911250e-10,5.421875e-03
-8.871250e-10,5.296875e-03
-8.831250e-10,5.390625e-03
-8.791250e-10,5.687500e-03
-8.751250e-10,6.171875e-03
-8.711250e-10,6.062500e-03
-8.671250e-10,6.250000e-03
-8.631250e-10,6.437500e-03
-8.591250e-10,6.593750e-03
-8.551250e-10,6.734375e-03
-8.511250e-10,7.156250e-03
-8.471250e-10,6.953125e-03
-8.431250e-10,6.906250e-03
-8.391250e-10,7.031250e-03
-8.351250e-10,7.328125e-03
-8.311250e-10,6.984375e-03
-8.271250e-10,6.890625e-03
-8.231250e-10,6.781250e-03
-8.191250e-10,6.609375e-03
-8.151250e-10,6.406250e-03
-8.111250e-10,6.484375e-03
-8.071250e-10,5.906250e-03
-8.031250e-10,5.500000e-03
-7.991250e-10,5.265625e-03
-7.951250e-10,5.203125e-03
-7.911250e-10,4.515625e-03
-7.871250e-10,4.125000e-03
-7.831250e-10,3.718750e-03
-7.791250e-10,3.296875e-03
-7.751250e-10,2.875000e-03
-7.711250e-10,2.765625e-03
-7.671250e-10,2.062500e-03
-7.631250e-10,1.578125e-03
-7.591250e-10,1.312500e-03
-7.551250e-10,1.265625e-03
-7.511250e-10,6.562500e-04
-7.471250e-10,3.750000e-04
-7.431250e-10,1.250000e-04
-7.391250e-10,-6.250000e-05
-7.351250e-10,-2.343750e-04
-7.311250e-10,-4.687500e-05
-7.271250e-10,-4.218750e-04
-7.231250e-10,-5.468750e-04
-7.191250e-10,-4.375000e-04
-7.151250e-10,-6.250000e-05
-7.111250e-10,-2.812500e-04
-7.071250e-10,-1.406250e-04
-7.031250e-10,3.125000e-05
-6.991250e-10,2.500000e-04
-6.951250e-10,4.687500e-04
-6.911250e-10,1.031250e-03
-6.871250e-10,1.000000e-03
-6.831250e-10,1.187500e-03
-6.791250e-10,1.578125e-03
-6.751250e-10,2.187500e-03
-6.711250e-10,2.171875e-03
-6.671250e-10,2.468750e-03
-6.631250e-10,2.734375e-03
-6.591250e-10,3.000000e-03
-6.551250e-10,3.250000e-03
-6.511250e-10,3.781250e-03
-6.471250e-10,3.671875e-03
-6.431250e-10,3.734375e-03
-6.391250e-10,3.984375e-03
-6.351250e-10,4.406250e-03
-6.311250e-10,4.187500e-03
-6.271250e-10,4.250000e-03
-6.231250e-10,4.296875e-03
-6.191250e-10,4.296875e-03
-6.151250e-10,4.296875e-03
-6.111250e-10,4.562500e-03
-6.071250e-10,4.218750e-03
-6.031250e-10,4.046875e-03
-5.991250e-10,4.078125e-03
-5.951250e-10,4.312500e-03
-5.911250e-10,3.937500e-03
-5.871250e-10,3.843750e-03
-5.831250e-10,3.781250e-03
-5.791250e-10,3.703125e-03
-5.751250e-10,3.640625e-03
-5.711250e-10,3.890625e-03
-5.671250e-10,3.546875e-03
-5.631250e-10,3.421875e-03
-5.591250e-10,3.515625e-03
-5.551250e-10,3.812500e-03
-5.511250e-10,3.531250e-03
-5.471250e-10,3.562500e-03
-5.431250e-10,3.593750e-03
-5.391250e-10,3.656250e-03
-5.351250e-10,3.703125e-03
-5.311250e-10,4.062500e-03
-5.271250e-10,3.828125e-03
-5.231250e-10,3.781250e-03
-5.191250e-10,3.937500e-03
-5.151250e-10,4.296875e-03
-5.111250e-10,4.031250e-03
-5.071250e-10,4.046875e-03
-5.031250e-10,4.046875e-03
-4.991250e-10,4.031250e-03
-4.951250e-10,4.000000e-03
-4.911250e-10,4.234375e-03
-4.871250e-10,3.843750e-03
-4.831250e-10,3.625000e-03
-4.791250e-10,3.593750e-03
-4.751250e-10,3.734375e-03
-4.711250e-10,3.250000e-03
-4.671250e-10,3.046875e-03
-4.631250e-10,2.812500e-03
-4.591250e-10,2.578125e-03
-4.551250e-10,2.312500e-03
-4.511250e-10,2.343750e-03
-4.471250e-10,1.750000e-03
-4.431250e-10,1.375000e-03
-4.391250e-10,1.218750e-03
-4.351250e-10,1.250000e-03
-4.311250e-10,7.031250e-04
-4.271250e-10,4.843750e-04
-4.231250e-10,2.500000e-04
-4.191250e-10,6.250000e-05
-4.151250e-10,-1.250000e-04
-4.111250e-10,6.250000e-05
-4.071250e-10,-3.593750e-04
-4.031250e-10,-5.156250e-04
-3.991250e-10,-4.375000e-04
-3.951250e-10,-1.093750e-04
-3.911250e-10,-3.437500e-04
-3.871250e-10,-2.343750e-04
-3.831250e-10,-1.406250e-04
-3.791250e-10,1.562500e-05
-3.751250e-10,1.875000e-04
-3.711250e-10,7.187500e-04
-3.671250e-10,6.406250e-04
-3.631250e-10,7.968750e-04
-3.591250e-10,1.187500e-03
-3.551250e-10,1.781250e-03
-3.511250e-10,1.812500e-03
-3.471250e-10,2.125000e-03
-3.431250e-10,2.375000e-03
-3.391250e-10,2.640625e-03
-3.351250e-10,2.906250e-03
-3.311250e-10,3.453125e-03
-3.271250e-10,3.359375e-03
-3.231250e-10,3.453125e-03
-3.191250e-10,3.734375e-03
-3.151250e-10,4.187500e-03
-3.111250e-10,4.015625e-03
-3.071250e-10,4.125000e-03
-3.031250e-10,4.140625e-03
-2.991250e-10,4.125000e-03
-2.951250e-10,4.109375e-03
-2.911250e-10,4.359375e-03
-2.871250e-10,4.000000e-03
-2.831250e-10,3.796875e-03
-2.791250e-10,3.812500e-03
-2.751250e-10,4.000000e-03
-2.711250e-10,3.609375e-03
-2.671250e-10,3.515625e-03
-2.631250e-10,3.359375e-03
-2.591250e-10,3.187500e-03
-2.551250e-10,3.109375e-03
-2.511250e-10,3.281250e-03
-2.471250e-10,2.937500e-03
-2.431250e-10,2.765625e-03
-2.391250e-10,2.875000e-03
-2.351250e-10,3.187500e-03
-2.311250e-10,2.953125e-03
-2.271250e-10,3.062500e-03
-2.231250e-10,3.140625e-03
-2.191250e-10,3.218750e-03
-2.151250e-10,3.421875e-03
-2.111250e-10,3.890625e-03
-2.071250e-10,3.859375e-03
-2.031250e-10,3.984375e-03
-1.991250e-10,4.390625e-03
-1.951250e-10,4.984375e-03
-1.911250e-10,5.000000e-03
-1.871250e-10,5.328125e-03
-1.831250e-10,5.609375e-03
-1.791250e-10,5.859375e-03
-1.751250e-10,6.187500e-03
-1.711250e-10,6.718750e-03
-1.671250e-10,6.718750e-03
-1.631250e-10,6.828125e-03
-1.591250e-10,7.140625e-03
-1.551250e-10,7.625000e-03
-1.511250e-10,7.468750e-03
-1.471250e-10,7.578125e-03
-1.431250e-10,7.625000e-03
-1.391250e-10,7.593750e-03
-1.351250e-10,7.609375e-03
-1.311250e-10,7.828125e-03
-1.271250e-10,7.531250e-03
-1.231250e-10,7.328125e-03
-1.191250e-10,7.328125e-03
-1.151250e-10,7.531250e-03
-1.111250e-10,7.125000e-03
-1.071250e-10,7.031250e-03
-1.031250e-10,6.937500e-03
-9.912500e-11,6.843750e-03
-9.512500e-11,6.859375e-03
-9.112500e-11,7.171875e-03
-8.712500e-11,7.078125e-03
-8.312500e-11,7.187500e-03
-7.912500e-11,7.578125e-03
-7.512500e-11,8.312500e-03
-7.112500e-11,8.562500e-03
-6.712500e-11,9.218750e-03
-6.312500e-11,1.001563e-02
-5.912500e-11,1.095313e-02
-5.512500e-11,1.209375e-02
-5.112500e-11,1.368750e-02
-4.712500e-11,1.496875e-02
-4.312500e-11,1.657813e-02
-3.912500e-11,1.854688e-02
-3.512500e-11,2.093750e-02
-3.112500e-11,2.298438e-02
-2.712500e-11,2.546875e-02
-2.312500e-11,2.815625e-02
-1.912500e-11,3.106250e-02
-1.512500e-11,3.417188e-02
-1.112500e-11,3.776563e-02
-7.125000e-12,4.107813e-02
-3.125000e-12,4.471875e-02
8.750000e-13,4.865625e-02
4.875000e-12,5.300000e-02
8.875000e-12,5.698438e-02
1.287500e-11,6.132813e-02
1.687500e-11,6.581250e-02
2.087500e-11,7.043750e-02
2.487500e-11,7.517188e-02
2.887500e-11,8.031250e-02
3.287500e-11,8.506250e-02
3.687500e-11,9.001563e-02
4.087500e-11,9.515625e-02
4.487500e-11,1.005781e-01
4.887500e-11,1.055313e-01
5.287500e-11,1.107188e-01
5.687500e-11,1.159219e-01
6.087500e-11,1.211250e-01
6.487500e-11,1.263281e-01
6.887500e-11,1.318125e-01
7.287500e-11,1.367969e-01
7.687500e-11,1.418594e-01
8.087500e-11,1.470000e-01
8.487500e-11,1.522813e-01
8.887500e-11,1.570469e-01
9.287500e-11,1.619063e-01
9.687500e-11,1.667031e-01
1.008750e-10,1.714219e-01
1.048750e-10,1.760313e-01
1.088750e-10,1.808281e-01
1.128750e-10,1.850625e-01
1.168750e-10,1.893125e-01
1.208750e-10,1.935469e-01
1.248750e-10,1.978438e-01
1.288750e-10,2.015781e-01
1.328750e-10,2.053438e-01
1.368750e-10,2.089688e-01
1.408750e-10,2.124531e-01
1.448750e-10,2.157813e-01
1.488750e-10,2.192031e-01
1.528750e-10,2.220313e-01
1.568750e-10,2.248281e-01
1.608750e-10,2.275313e-01
1.648750e-10,2.302188e-01
1.688750e-10,2.323125e-01
1.728750e-10,2.344063e-01
1.768750e-10,2.362969e-01
1.808750e-10,2.380000e-01
1.848750e-10,2.394844e-01
1.888750e-10,2.410156e-01
1.928750e-10,2.419219e-01
1.968750e-10,2.427500e-01
2.008750e-10,2.434531e-01
2.048750e-10,2.441094e-01
2.088750e-10,2.441250e-01
2.128750e-10,2.441563e-01
2.168750e-10,2.439531e-01
2.208750e-10,2.435625e-01
2.248750e-10,2.429688e-01
2.288750e-10,2.423750e-01
2.328750e-10,2.411875e-01
2.368750e-10,2.399375e-01
2.408750e-10,2.386094e-01
2.448750e-10,2.372500e-01
2.488750e-10,2.352813e-01
2.528750e-10,2.334063e-01
2.568750e-10,2.313438e-01
2.608750e-10,2.291406e-01
2.648750e-10,2.268125e-01
2.688750e-10,2.245313e-01
2.728750e-10,2.217344e-01
2.768750e-10,2.189844e-01
2.808750e-10,2.162031e-01
2.848750e-10,2.134844e-01
2.888750e-10,2.102344e-01
2.928750e-10,2.071875e-01
2.968750e-10,2.040313e-01
3.008750e-10,2.008438e-01
3.048750e-10,1.976250e-01
3.088750e-10,1.945156e-01
3.128750e-10,1.909531e-01
3.168750e-10,1.875625e-01
3.208750e-10,1.842031e-01
3.248750e-10,1.810000e-01
3.288750e-10,1.773125e-01
3.328750e-10,1.739219e-01
3.368750e-10,1.704688e-01
3.408750e-10,1.670625e-01
3.448750e-10,1.636719e-01
3.488750e-10,1.604688e-01
3.528750e-10,1.568125e-01
3.568750e-10,1.533750e-01
3.608750e-10,1.500469e-01
3.648750e-10,1.468750e-01
3.688750e-10,1.432500e-01
3.728750e-10,1.399531e-01
3.768750e-10,1.366250e-01
3.808750e-10,1.333594e-01
3.848750e-10,1.301250e-01
3.888750e-10,1.270938e-01
3.928750e-10,1.235938e-01
3.968750e-10,1.203438e-01
4.008750e-10,1.172031e-01
4.048750e-10,1.142344e-01
4.088750e-10,1.108281e-01
4.128750e-10,1.077188e-01
4.168750e-10,1.046250e-01
4.208750e-10,1.015781e-01
4.248750e-10,9.856250e-02
4.288750e-10,9.579688e-02
4.328750e-10,9.254688e-02
4.368750e-10,8.954688e-02
4.408750e-10,8.671875e-02
4.448750e-10,8.403125e-02
4.488750e-10,8.095313e-02
4.528750e-10,7.817188e-02
4.568750e-10,7.546875e-02
4.608750e-10,7.282813e-02
4.648750e-10,7.023438e-02
4.688750e-10,6.795313e-02
4.728750e-10,6.518750e-02
4.768750e-10,6.271875e-02
4.808750e-10,6.046875e-02
4.848750e-10,5.840625e-02
4.888750e-10,5.600000e-02
4.928750e-10,5.392188e-02
4.968750e-10,5.198438e-02
5.008750e-10,5.012500e-02
5.048750e-10,4.835938e-02
5.088750e-10,4.695313e-02
5.128750e-10,4.509375e-02
5.168750e-10,4.354688e-02
5.208750e-10,4.229688e-02
5.248750e-10,4.125000e-02
5.288750e-10,3.985938e-02
5.328750e-10,3.881250e-02
5.368750e-10,3.792188e-02
5.408750e-10,3.710938e-02
5.448750e-10,3.637500e-02
5.488750e-10,3.600000e-02
5.528750e-10,3.515625e-02
5.568750e-10,3.459375e-02
5.608750e-10,3.428125e-02
5.648750e-10,3.415625e-02
5.688750e-10,3.362500e-02
5.728750e-10,3.334375e-02
5.768750e-10,3.318750e-02
5.808750e-10,3.303125e-02
5.848750e-10,3.285938e-02
5.888750e-10,3.295313e-02
5.928750e-10,3.250000e-02
5.968750e-10,3.221875e-02
6.008750e-10,3.212500e-02
6.048750e-10,3.210938e-02
6.088750e-10,3.157813e-02
6.128750e-10,3.121875e-02
6.168750e-10,3.089063e-02
6.208750e-10,3.046875e-02
6.248750e-10,2.993750e-02
6.288750e-10,2.962500e-02
6.328750e-10,2.867188e-02
6.368750e-10,2.782813e-02
6.408750e-10,2.715625e-02
6.448750e-10,2.653125e-02
6.488750e-10,2.534375e-02
6.528750e-10,2.432813e-02
6.568750e-10,2.334375e-02
6.608750e-10,2.228125e-02
6.648750e-10,2.112500e-02
6.688750e-10,2.023438e-02
6.728750e-10,1.876563e-02
6.768750e-10,1.745313e-02
6.808750e-10,1.637500e-02
6.848750e-10,1.548438e-02
6.888750e-10,1.406250e-02
6.928750e-10,1.293750e-02
6.968750e-10,1.190625e-02
7.008750e-10,1.093750e-02
7.048750e-10,9.968750e-03
7.088750e-10,9.359375e-03
7.128750e-10,8.281250e-03
7.168750e-10,7.468750e-03
7.208750e-10,6.984375e-03
7.248750e-10,6.765625e-03
7.288750e-10,6.078125e-03
7.328750e-10,5.781250e-03
7.368750e-10,5.609375e-03
7.408750e-10,5.546875e-03
7.448750e-10,5.515625e-03
7.488750e-10,5.859375e-03
7.528750e-10,5.718750e-03
7.568750e-10,5.843750e-03
7.608750e-10,6.250000e-03
7.648750e-10,6.906250e-03
7.688750e-10,7.015625e-03
7.728750e-10,7.437500e-03
7.768750e-10,7.921875e-03
7.808750e-10,8.390625e-03
7.848750e-10,8.828125e-03
7.888750e-10,9.531250e-03
7.928750e-10,9.640625e-03
7.968750e-10,9.890625e-03
8.008750e-10,1.032813e-02
8.048750e-10,1.089063e-02
8.088750e-10,1.078125e-02
8.128750e-10,1.090625e-02
8.168750e-10,1.098438e-02
8.208750e-10,1.096875e-02
8.248750e-10,1.084375e-02
8.288750e-10,1.093750e-02
8.328750e-10,1.037500e-02
8.368750e-10,9.921875e-03
8.408750e-10,9.609375e-03
8.448750e-10,9.437500e-03
8.488750e-10,8.609375e-03
8.528750e-10,8.031250e-03
8.568750e-10,7.421875e-03
8.608750e-10,6.796875e-03
8.648750e-10,6.125000e-03
8.688750e-10,5.750000e-03
8.728750e-10,4.796875e-03
8.768750e-10,4.046875e-03
8.808750e-10,3.546875e-03
8.848750e-10,3.281250e-03
8.888750e-10,2.468750e-03
8.928750e-10,2.031250e-03
8.968750e-10,1.640625e-03
9.008750e-10,1.359375e-03
9.048750e-10,1.109375e-03
9.088750e-10,1.265625e-03
9.128750e-10,9.062500e-04
9.168750e-10,8.281250e-04
9.208750e-10,1.046875e-03
9.248750e-10,1.562500e-03
9.288750e-10,1.546875e-03
9.328750e-10,1.906250e-03
9.368750e-10,2.328125e-03
9.408750e-10,2.828125e-03
9.448750e-10,3.359375e-03
9.488750e-10,4.250000e-03
9.528750e-10,4.562500e-03
9.568750e-10,5.109375e-03
9.608750e-10,5.859375e-03
9.648750e-10,6.812500e-03
9.688750e-10,7.156250e-03
9.728750e-10,7.781250e-03
9.768750e-10,8.375000e-03
9.808750e-10,8.953125e-03
9.848750e-10,9.453125e-03
9.888750e-10,1.021875e-02
9.928750e-10,1.031250e-02
9.968750e-10,1.054688e-02
1.000875e-09,1.092188e-02
1.004875e-09,1.143750e-02
1.008875e-09,1.128125e-02
1.012875e-09,1.134375e-02
1.016875e-09,1.137500e-02
1.020875e-09,1.132813e-02
1.024875e-09,1.121875e-02
1.028875e-09,1.137500e-02
1.032875e-09,1.089063e-02
1.036875e-09,1.056250e-02
1.040875e-09,1.040625e-02
1.044875e-09,1.045313e-02
1.048875e-09,9.875000e-03
1.052875e-09,9.593750e-03
1.056875e-09,9.343750e-03
1.060875e-09,9.093750e-03
1.064875e-09,8.859375e-03
1.068875e-09,8.953125e-03
1.072875e-09,8.484375e-03
1.076875e-09,8.265625e-03
1.080875e-09,8.281250e-03
1.084875e-09,8.546875e-03
1.088875e-09,8.250000e-03
1.092875e-09,8.312500e-03
1.096875e-09,8.421875e-03
1.100875e-09,8.562500e-03
1.104875e-09,8.750000e-03
1.108875e-09,9.281250e-03
1.112875e-09,9.234375e-03
1.116875e-09,9.421875e-03
1.120875e-09,9.843750e-03
1.124875e-09,1.046875e-02
1.128875e-09,1.048438e-02
1.132875e-09,1.082813e-02
1.136875e-09,1.114063e-02
1.140875e-09,1.146875e-02
1.144875e-09,1.175000e-02
1.148875e-09,1.231250e-02
1.152875e-09,1.225000e-02
1.156875e-09,1.235938e-02
1.160875e-09,1.260938e-02
1.164875e-09,1.303125e-02
1.168875e-09,1.281250e-02
1.172875e-09,1.284375e-02
1.176875e-09,1.284375e-02
1.180875e-09,1.278125e-02
1.184875e-09,1.268750e-02
1.188875e-09,1.285938e-02
1.192875e-09,1.239063e-02
1.196875e-09,1.209375e-02
1.200875e-09,1.198438e-02
1.204875e-09,1.204688e-02
1.208875e-09,1.150000e-02
1.212875e-09,1.123438e-02
1.216875e-09,1.096875e-02
1.220875e-09,1.071875e-02
1.224875e-09,1.048438e-02
1.228875e-09,1.054688e-02
1.232875e-09,1.003125e-02
1.236875e-09,9.750000e-03
1.240875e-09,9.687500e-03
1.244875e-09,9.843750e-03
1.248875e-09,9.437500e-03
1.252875e-09,9.359375e-03
1.256875e-09,9.328125e-03
1.260875e-09,9.312500e-03
1.264875e-09,9.312500e-03
1.268875e-09,9.640625e-03
1.272875e-09,9.390625e-03
1.276875e-09,9.359375e-03
1.280875e-09,9.531250e-03
1.284875e-09,9.906250e-03
1.288875e-09,9.671875e-03
1.292875e-09,9.734375e-03
1.296875e-09,9.781250e-03
1.300875e-09,9.812500e-03
1.304875e-09,9.828125e-03
1.308875e-09,1.009375e-02
1.312875e-09,9.718750e-03
1.316875e-09,9.515625e-03
1.320875e-09,9.468750e-03
1.324875e-09,9.593750e-03
1.328875e-09,9.046875e-03
1.332875e-09,8.765625e-03
1.336875e-09,8.437500e-03
1.340875e-09,8.078125e-03
1.344875e-09,7.671875e-03
1.348875e-09,7.546875e-03
1.352875e-09,6.765625e-03
1.356875e-09,6.171875e-03
1.360875e-09,5.781250e-03
1.364875e-09,5.562500e-03
1.368875e-09,4.750000e-03
1.372875e-09,4.234375e-03
1.376875e-09,3.750000e-03
1.380875e-09,3.281250e-03
1.384875e-09,2.843750e-03
1.388875e-09,2.750000e-03
1.392875e-09,2.078125e-03
1.396875e-09,1.687500e-03
1.400875e-09,1.546875e-03
1.404875e-09,1.656250e-03
1.408875e-09,1.234375e-03
1.412875e-09,1.187500e-03
1.416875e-09,1.203125e-03
1.420875e-09,1.296875e-03
1.424875e-09,1.453125e-03
1.428875e-09,1.968750e-03
1.432875e-09,1.937500e-03
1.436875e-09,2.156250e-03
1.440875e-09,2.625000e-03
1.444875e-09,3.343750e-03
1.448875e-09,3.484375e-03
1.452875e-09,3.953125e-03
1.456875e-09,4.437500e-03
1.460875e-09,4.921875e-03
1.464875e-09,5.390625e-03
1.468875e-09,6.156250e-03
1.472875e-09,6.281250e-03
1.476875e-09,6.593750e-03
1.480875e-09,7.046875e-03
1.484875e-09,7.656250e-03
1.488875e-09,7.609375e-03
1.492875e-09,7.796875e-03
1.496875e-09,7.906250e-03
1.500875e-09,7.968750e-03
1.504875e-09,7.937500e-03
1.508875e-09,8.156250e-03
1.512875e-09,7.687500e-03
1.516875e-09,7.343750e-03
1.520875e-09,7.140625e-03
1.524875e-09,7.093750e-03
1.528875e-09,6.375000e-03
1.532875e-09,5.906250e-03
1.536875e-09,5.421875e-03
1.540875e-09,4.890625e-03
1.544875e-09,4.343750e-03
1.548875e-09,4.093750e-03
1.552875e-09,3.234375e-03
1.556875e-09,2.578125e-03
1.560875e-09,2.156250e-03
1.564875e-09,1.953125e-03
1.568875e-09,1.187500e-03
1.572875e-09,7.656250e-04
1.576875e-09,4.062500e-04
1.580875e-09,1.093750e-04
1.584875e-09,-1.250000e-04
1.588875e-09,5.551115e-17
1.592875e-09,-4.062500e-04
1.596875e-09,-5.312500e-04
1.600875e-09,-3.906250e-04
1.604875e-09,3.125000e-05
1.608875e-09,-9.375000e-05
1.612875e-09,1.562500e-04
1.616875e-09,4.531250e-04
1.620875e-09,7.968750e-04
1.624875e-09,1.187500e-03
1.628875e-09,1.921875e-03
1.632875e-09,2.062500e-03
1.636875e-09,2.437500e-03
1.640875e-09,3.015625e-03
1.644875e-09,3.796875e-03
1.648875e-09,3.968750e-03
1.652875e-09,4.406250e-03
1.656875e-09,4.828125e-03
1.660875e-09,5.218750e-03
1.664875e-09,5.562500e-03
1.668875e-09,6.156250e-03
1.672875e-09,6.109375e-03
1.676875e-09,6.187500e-03
1.680875e-09,6.421875e-03
1.684875e-09,6.796875e-03
1.688875e-09,6.500000e-03
1.692875e-09,6.468750e-03
1.696875e-09,6.375000e-03
1.700875e-09,6.218750e-03
1.704875e-09,6.031250e-03
1.708875e-09,6.109375e-03
1.712875e-09,5.546875e-03
1.716875e-09,5.156250e-03
1.720875e-09,4.968750e-03
1.724875e-09,4.968750e-03
1.728875e-09,4.359375e-03
1.732875e-09,4.062500e-03
1.736875e-09,3.781250e-03
1.740875e-09,3.531250e-03
1.744875e-09,3.312500e-03
1.748875e-09,3.453125e-03
1.752875e-09,3.015625e-03
