Measurements-streak-laser-independent/Photodiode-on-Tek-6GHz/Tek000_ch1_20190613132800929.csv

Model,MSO64
Waveform Type,ANALOG
Horizontal Units,s
Sample Interval,4.000000e-12
Record Length,1000
Zero Index,310.031250
Vertical Units,V

TIME,CH1
-1.240125e-09,8.453125e-03
-1.236125e-09,9.015625e-03
-1.232125e-09,8.953125e-03
-1.228125e-09,9.078125e-03
-1.224125e-09,9.359375e-03
-1.220125e-09,9.828125e-03
-1.216125e-09,9.640625e-03
-1.212125e-09,9.718750e-03
-1.208125e-09,9.734375e-03
-1.204125e-09,9.718750e-03
-1.200125e-09,9.656250e-03
-1.196125e-09,9.843750e-03
-1.192125e-09,9.375000e-03
-1.188125e-09,9.046875e-03
-1.184125e-09,8.890625e-03
-1.180125e-09,8.906250e-03
-1.176125e-09,8.265625e-03
-1.172125e-09,7.906250e-03
-1.168125e-09,7.515625e-03
-1.164125e-09,7.093750e-03
-1.160125e-09,6.687500e-03
-1.156125e-09,6.562500e-03
-1.152125e-09,5.828125e-03
-1.148125e-09,5.312500e-03
-1.144125e-09,5.015625e-03
-1.140125e-09,4.937500e-03
-1.136125e-09,4.281250e-03
-1.132125e-09,3.968750e-03
-1.128125e-09,3.687500e-03
-1.124125e-09,3.468750e-03
-1.120125e-09,3.281250e-03
-1.116125e-09,3.453125e-03
-1.112125e-09,3.062500e-03
-1.108125e-09,2.937500e-03
-1.104125e-09,3.078125e-03
-1.100125e-09,3.453125e-03
-1.096125e-09,3.281250e-03
-1.092125e-09,3.468750e-03
-1.088125e-09,3.703125e-03
-1.084125e-09,3.968750e-03
-1.080125e-09,4.265625e-03
-1.076125e-09,4.906250e-03
-1.072125e-09,4.953125e-03
-1.068125e-09,5.234375e-03
-1.064125e-09,5.718750e-03
-1.060125e-09,6.406250e-03
-1.056125e-09,6.484375e-03
-1.052125e-09,6.859375e-03
-1.048125e-09,7.203125e-03
-1.044125e-09,7.531250e-03
-1.040125e-09,7.828125e-03
-1.036125e-09,8.390625e-03
-1.032125e-09,8.312500e-03
-1.028125e-09,8.375000e-03
-1.024125e-09,8.609375e-03
-1.020125e-09,8.968750e-03
-1.016125e-09,8.687500e-03
-1.012125e-09,8.640625e-03
-1.008125e-09,8.562500e-03
-1.004125e-09,8.406250e-03
-1.000125e-09,8.218750e-03
-9.961250e-10,8.281250e-03
-9.921250e-10,7.687500e-03
-9.881250e-10,7.250000e-03
-9.841250e-10,6.984375e-03
-9.801250e-10,6.906250e-03
-9.761250e-10,6.187500e-03
-9.721250e-10,5.750000e-03
-9.681250e-10,5.312500e-03
-9.641250e-10,4.859375e-03
-9.601250e-10,4.421875e-03
-9.561250e-10,4.296875e-03
-9.521250e-10,3.578125e-03
-9.481250e-10,3.093750e-03
-9.441250e-10,2.828125e-03
-9.401250e-10,2.812500e-03
-9.361250e-10,2.218750e-03
-9.321250e-10,1.984375e-03
-9.281250e-10,1.781250e-03
-9.241250e-10,1.656250e-03
-9.201250e-10,1.562500e-03
-9.161250e-10,1.828125e-03
-9.121250e-10,1.531250e-03
-9.081250e-10,1.500000e-03
-9.041250e-10,1.718750e-03
-9.001250e-10,2.203125e-03
-8.961250e-10,2.109375e-03
-8.921250e-10,2.359375e-03
-8.881250e-10,2.656250e-03
-8.841250e-10,2.968750e-03
-8.801250e-10,3.312500e-03
-8.761250e-10,3.984375e-03
-8.721250e-10,4.062500e-03
-8.681250e-10,4.359375e-03
-8.641250e-10,4.859375e-03
-8.601250e-10,5.546875e-03
-8.561250e-10,5.625000e-03
-8.521250e-10,5.984375e-03
-8.481250e-10,6.312500e-03
-8.441250e-10,6.625000e-03
-8.401250e-10,6.921875e-03
-8.361250e-10,7.468750e-03
-8.321250e-10,7.375000e-03
-8.281250e-10,7.453125e-03
-8.241250e-10,7.687500e-03
-8.201250e-10,8.078125e-03
-8.161250e-10,7.812500e-03
-8.121250e-10,7.828125e-03
-8.081250e-10,7.796875e-03
-8.041250e-10,7.718750e-03
-8.001250e-10,7.609375e-03
-7.961250e-10,7.781250e-03
-7.921250e-10,7.312500e-03
-7.881250e-10,7.015625e-03
-7.841250e-10,6.906250e-03
-7.801250e-10,6.984375e-03
-7.761250e-10,6.453125e-03
-7.721250e-10,6.218750e-03
-7.681250e-10,5.968750e-03
-7.641250e-10,5.750000e-03
-7.601250e-10,5.515625e-03
-7.561250e-10,5.609375e-03
-7.521250e-10,5.109375e-03
-7.481250e-10,4.843750e-03
-7.441250e-10,4.796875e-03
-7.401250e-10,4.984375e-03
-7.361250e-10,4.593750e-03
-7.321250e-10,4.531250e-03
-7.281250e-10,4.500000e-03
-7.241250e-10,4.515625e-03
-7.201250e-10,4.546875e-03
-7.161250e-10,4.921875e-03
-7.121250e-10,4.718750e-03
-7.081250e-10,4.750000e-03
-7.041250e-10,5.015625e-03
-7.001250e-10,5.500000e-03
-6.961250e-10,5.390625e-03
-6.921250e-10,5.625000e-03
-6.881250e-10,5.859375e-03
-6.841250e-10,6.093750e-03
-6.801250e-10,6.359375e-03
-6.761250e-10,6.921875e-03
-6.721250e-10,6.875000e-03
-6.681250e-10,7.046875e-03
-6.641250e-10,7.406250e-03
-6.601250e-10,7.953125e-03
-6.561250e-10,7.906250e-03
-6.521250e-10,8.140625e-03
-6.481250e-10,8.359375e-03
-6.441250e-10,8.562500e-03
-6.401250e-10,8.750000e-03
-6.361250e-10,9.218750e-03
-6.321250e-10,9.062500e-03
-6.281250e-10,9.109375e-03
-6.241250e-10,9.328125e-03
-6.201250e-10,9.734375e-03
-6.161250e-10,9.515625e-03
-6.121250e-10,9.578125e-03
-6.081250e-10,9.640625e-03
-6.041250e-10,9.671875e-03
-6.001250e-10,9.703125e-03
-5.961250e-10,1.000000e-02
-5.921250e-10,9.703125e-03
-5.881250e-10,9.578125e-03
-5.841250e-10,9.640625e-03
-5.801250e-10,9.890625e-03
-5.761250e-10,9.531250e-03
-5.721250e-10,9.453125e-03
-5.681250e-10,9.375000e-03
-5.641250e-10,9.265625e-03
-5.601250e-10,9.140625e-03
-5.561250e-10,9.296875e-03
-5.521250e-10,8.843750e-03
-5.481250e-10,8.562500e-03
-5.441250e-10,8.468750e-03
-5.401250e-10,8.546875e-03
-5.361250e-10,8.000000e-03
-5.321250e-10,7.750000e-03
-5.281250e-10,7.453125e-03
-5.241250e-10,7.156250e-03
-5.201250e-10,6.828125e-03
-5.161250e-10,6.765625e-03
-5.121250e-10,6.093750e-03
-5.081250e-10,5.593750e-03
-5.041250e-10,5.296875e-03
-5.001250e-10,5.171875e-03
-4.961250e-10,4.437500e-03
-4.921250e-10,4.000000e-03
-4.881250e-10,3.531250e-03
-4.841250e-10,3.078125e-03
-4.801250e-10,2.625000e-03
-4.761250e-10,2.484375e-03
-4.721250e-10,1.734375e-03
-4.681250e-10,1.218750e-03
-4.641250e-10,9.218750e-04
-4.601250e-10,8.593750e-04
-4.561250e-10,2.187500e-04
-4.521250e-10,-9.375000e-05
-4.481250e-10,-3.750000e-04
-4.441250e-10,-6.093750e-04
-4.401250e-10,-7.968750e-04
-4.361250e-10,-6.250000e-04
-4.321250e-10,-1.031250e-03
-4.281250e-10,-1.171875e-03
-4.241250e-10,-1.046875e-03
-4.201250e-10,-6.875000e-04
-4.161250e-10,-8.593750e-04
-4.121250e-10,-6.875000e-04
-4.081250e-10,-4.843750e-04
-4.041250e-10,-2.187500e-04
-4.001250e-10,7.812500e-05
-3.961250e-10,7.187500e-04
-3.921250e-10,7.812500e-04
-3.881250e-10,1.093750e-03
-3.841250e-10,1.625000e-03
-3.801250e-10,2.390625e-03
-3.761250e-10,2.562500e-03
-3.721250e-10,3.046875e-03
-3.681250e-10,3.515625e-03
-3.641250e-10,3.968750e-03
-3.601250e-10,4.437500e-03
-3.561250e-10,5.187500e-03
-3.521250e-10,5.312500e-03
-3.481250e-10,5.609375e-03
-3.441250e-10,6.109375e-03
-3.401250e-10,6.750000e-03
-3.361250e-10,6.796875e-03
-3.321250e-10,7.093750e-03
-3.281250e-10,7.328125e-03
-3.241250e-10,7.515625e-03
-3.201250e-10,7.703125e-03
-3.161250e-10,8.140625e-03
-3.121250e-10,7.937500e-03
-3.081250e-10,7.906250e-03
-3.041250e-10,8.062500e-03
-3.001250e-10,8.375000e-03
-2.961250e-10,8.078125e-03
-2.921250e-10,8.062500e-03
-2.881250e-10,8.000000e-03
-2.841250e-10,7.921875e-03
-2.801250e-10,7.859375e-03
-2.761250e-10,8.062500e-03
-2.721250e-10,7.703125e-03
-2.681250e-10,7.500000e-03
-2.641250e-10,7.546875e-03
-2.601250e-10,7.765625e-03
-2.561250e-10,7.421875e-03
-2.521250e-10,7.390625e-03
-2.481250e-10,7.328125e-03
-2.441250e-10,7.281250e-03
-2.401250e-10,7.281250e-03
-2.361250e-10,7.546875e-03
-2.321250e-10,7.265625e-03
-2.281250e-10,7.171875e-03
-2.241250e-10,7.312500e-03
-2.201250e-10,7.640625e-03
-2.161250e-10,7.375000e-03
-2.121250e-10,7.421875e-03
-2.081250e-10,7.437500e-03
-2.041250e-10,7.437500e-03
-2.001250e-10,7.484375e-03
-1.961250e-10,7.765625e-03
-1.921250e-10,7.500000e-03
-1.881250e-10,7.390625e-03
-1.841250e-10,7.468750e-03
-1.801250e-10,7.734375e-03
-1.761250e-10,7.390625e-03
-1.721250e-10,7.343750e-03
-1.681250e-10,7.250000e-03
-1.641250e-10,7.140625e-03
-1.601250e-10,7.062500e-03
-1.561250e-10,7.234375e-03
-1.521250e-10,6.875000e-03
-1.481250e-10,6.671875e-03
-1.441250e-10,6.687500e-03
-1.401250e-10,6.906250e-03
-1.361250e-10,6.562500e-03
-1.321250e-10,6.531250e-03
-1.281250e-10,6.515625e-03
-1.241250e-10,6.531250e-03
-1.201250e-10,6.625000e-03
-1.161250e-10,7.031250e-03
-1.121250e-10,6.968750e-03
-1.081250e-10,7.125000e-03
-1.041250e-10,7.531250e-03
-1.001250e-10,8.250000e-03
-9.612500e-11,8.437500e-03
-9.212500e-11,9.015625e-03
-8.812500e-11,9.671875e-03
-8.412500e-11,1.042188e-02
-8.012500e-11,1.128125e-02
-7.612500e-11,1.253125e-02
-7.212500e-11,1.334375e-02
-6.812500e-11,1.442188e-02
-6.412500e-11,1.576563e-02
-6.012500e-11,1.745313e-02
-5.612500e-11,1.864063e-02
-5.212500e-11,2.020313e-02
-4.812500e-11,2.184375e-02
-4.412500e-11,2.359375e-02
-4.012500e-11,2.543750e-02
-3.612500e-11,2.765625e-02
-3.212500e-11,2.940625e-02
-2.812500e-11,3.140625e-02
-2.412500e-11,3.362500e-02
-2.012500e-11,3.612500e-02
-1.612500e-11,3.814063e-02
-1.212500e-11,4.043750e-02
-8.125000e-12,4.279688e-02
-4.125000e-12,4.520313e-02
-1.250000e-13,4.764063e-02
3.875000e-12,5.042188e-02
7.875000e-12,5.267188e-02
1.187500e-11,5.512500e-02
1.587500e-11,5.776563e-02
1.987500e-11,6.060938e-02
2.387500e-11,6.293750e-02
2.787500e-11,6.551563e-02
3.187500e-11,6.810938e-02
3.587500e-11,7.070313e-02
3.987500e-11,7.329688e-02
4.387500e-11,7.618750e-02
4.787500e-11,7.854688e-02
5.187500e-11,8.104688e-02
5.587500e-11,8.370313e-02
5.987500e-11,8.653125e-02
6.387500e-11,8.884375e-02
6.787500e-11,9.134375e-02
7.187500e-11,9.384375e-02
7.587500e-11,9.629688e-02
7.987500e-11,9.873438e-02
8.387500e-11,1.014063e-01
8.787500e-11,1.035313e-01
9.187500e-11,1.057656e-01
9.587500e-11,1.080938e-01
9.987500e-11,1.105625e-01
1.038750e-10,1.124531e-01
1.078750e-10,1.145000e-01
1.118750e-10,1.164844e-01
1.158750e-10,1.183906e-01
1.198750e-10,1.201875e-01
1.238750e-10,1.221875e-01
1.278750e-10,1.235781e-01
1.318750e-10,1.250313e-01
1.358750e-10,1.265313e-01
1.398750e-10,1.280938e-01
1.438750e-10,1.290313e-01
1.478750e-10,1.301094e-01
1.518750e-10,1.310469e-01
1.558750e-10,1.318750e-01
1.598750e-10,1.325625e-01
1.638750e-10,1.334063e-01
1.678750e-10,1.336250e-01
1.718750e-10,1.338750e-01
1.758750e-10,1.341563e-01
1.798750e-10,1.344844e-01
1.838750e-10,1.341875e-01
1.878750e-10,1.340469e-01
1.918750e-10,1.337656e-01
1.958750e-10,1.333906e-01
1.998750e-10,1.329063e-01
2.038750e-10,1.325781e-01
2.078750e-10,1.316563e-01
2.118750e-10,1.308125e-01
2.158750e-10,1.300156e-01
2.198750e-10,1.293125e-01
2.238750e-10,1.280313e-01
2.278750e-10,1.269375e-01
2.318750e-10,1.257656e-01
2.358750e-10,1.245313e-01
2.398750e-10,1.232344e-01
2.438750e-10,1.221094e-01
2.478750e-10,1.204375e-01
2.518750e-10,1.188906e-01
2.558750e-10,1.174219e-01
2.598750e-10,1.160781e-01
2.638750e-10,1.141563e-01
2.678750e-10,1.124844e-01
2.718750e-10,1.107500e-01
2.758750e-10,1.089688e-01
2.798750e-10,1.071563e-01
2.838750e-10,1.055156e-01
2.878750e-10,1.033438e-01
2.918750e-10,1.013125e-01
2.958750e-10,9.937500e-02
2.998750e-10,9.757813e-02
3.038750e-10,9.520313e-02
3.078750e-10,9.310938e-02
3.118750e-10,9.095313e-02
3.158750e-10,8.878125e-02
3.198750e-10,8.660938e-02
3.238750e-10,8.464063e-02
3.278750e-10,8.212500e-02
3.318750e-10,7.981250e-02
3.358750e-10,7.764063e-02
3.398750e-10,7.564063e-02
3.438750e-10,7.312500e-02
3.478750e-10,7.092188e-02
3.518750e-10,6.873438e-02
3.558750e-10,6.659375e-02
3.598750e-10,6.448438e-02
3.638750e-10,6.267188e-02
3.678750e-10,6.035938e-02
3.718750e-10,5.832813e-02
3.758750e-10,5.650000e-02
3.798750e-10,5.490625e-02
3.838750e-10,5.285938e-02
3.878750e-10,5.118750e-02
3.918750e-10,4.959375e-02
3.958750e-10,4.807813e-02
3.998750e-10,4.667188e-02
4.038750e-10,4.559375e-02
4.078750e-10,4.404688e-02
4.118750e-10,4.279688e-02
4.158750e-10,4.178125e-02
4.198750e-10,4.100000e-02
4.238750e-10,3.978125e-02
4.278750e-10,3.890625e-02
4.318750e-10,3.810938e-02
4.358750e-10,3.737500e-02
4.398750e-10,3.668750e-02
4.438750e-10,3.631250e-02
4.478750e-10,3.540625e-02
4.518750e-10,3.473438e-02
4.558750e-10,3.426563e-02
4.598750e-10,3.396875e-02
4.638750e-10,3.317188e-02
4.678750e-10,3.264063e-02
4.718750e-10,3.212500e-02
4.758750e-10,3.160938e-02
4.798750e-10,3.107813e-02
4.838750e-10,3.081250e-02
4.878750e-10,2.993750e-02
4.918750e-10,2.926563e-02
4.958750e-10,2.876563e-02
4.998750e-10,2.839063e-02
5.038750e-10,2.748438e-02
5.078750e-10,2.681250e-02
5.118750e-10,2.617188e-02
5.158750e-10,2.551563e-02
5.198750e-10,2.484375e-02
5.238750e-10,2.445313e-02
5.278750e-10,2.348438e-02
5.318750e-10,2.271875e-02
5.358750e-10,2.218750e-02
5.398750e-10,2.181250e-02
5.438750e-10,2.095313e-02
5.478750e-10,2.037500e-02
5.518750e-10,1.987500e-02
5.558750e-10,1.940625e-02
5.598750e-10,1.896875e-02
5.638750e-10,1.885938e-02
5.678750e-10,1.821875e-02
5.718750e-10,1.782813e-02
5.758750e-10,1.768750e-02
5.798750e-10,1.776563e-02
5.838750e-10,1.734375e-02
5.878750e-10,1.723438e-02
5.918750e-10,1.720313e-02
5.958750e-10,1.720313e-02
5.998750e-10,1.721875e-02
6.038750e-10,1.753125e-02
6.078750e-10,1.729688e-02
6.118750e-10,1.726563e-02
6.158750e-10,1.746875e-02
6.198750e-10,1.781250e-02
6.238750e-10,1.760938e-02
6.278750e-10,1.764063e-02
6.318750e-10,1.770313e-02
6.358750e-10,1.771875e-02
6.398750e-10,1.767188e-02
6.438750e-10,1.787500e-02
6.478750e-10,1.745313e-02
6.518750e-10,1.715625e-02
6.558750e-10,1.703125e-02
6.598750e-10,1.703125e-02
6.638750e-10,1.640625e-02
6.678750e-10,1.600000e-02
6.718750e-10,1.556250e-02
6.758750e-10,1.507813e-02
6.798750e-10,1.451563e-02
6.838750e-10,1.418750e-02
6.878750e-10,1.325000e-02
6.918750e-10,1.248438e-02
6.958750e-10,1.189063e-02
6.998750e-10,1.146875e-02
7.038750e-10,1.046875e-02
7.078750e-10,9.750000e-03
7.118750e-10,9.062500e-03
7.158750e-10,8.375000e-03
7.198750e-10,7.703125e-03
7.238750e-10,7.359375e-03
7.278750e-10,6.468750e-03
7.318750e-10,5.812500e-03
7.358750e-10,5.437500e-03
7.398750e-10,5.312500e-03
7.438750e-10,4.656250e-03
7.478750e-10,4.359375e-03
7.518750e-10,4.156250e-03
7.558750e-10,4.015625e-03
7.598750e-10,3.937500e-03
7.638750e-10,4.218750e-03
7.678750e-10,3.968750e-03
7.718750e-10,4.000000e-03
7.758750e-10,4.296875e-03
7.798750e-10,4.843750e-03
7.838750e-10,4.843750e-03
7.878750e-10,5.187500e-03
7.918750e-10,5.562500e-03
7.958750e-10,5.984375e-03
7.998750e-10,6.406250e-03
8.038750e-10,7.125000e-03
8.078750e-10,7.265625e-03
8.118750e-10,7.593750e-03
8.158750e-10,8.109375e-03
8.198750e-10,8.812500e-03
8.238750e-10,8.890625e-03
8.278750e-10,9.234375e-03
8.318750e-10,9.546875e-03
8.358750e-10,9.812500e-03
8.398750e-10,1.001563e-02
8.438750e-10,1.046875e-02
8.478750e-10,1.028125e-02
8.518750e-10,1.025000e-02
8.558750e-10,1.035938e-02
8.598750e-10,1.060938e-02
8.638750e-10,1.021875e-02
8.678750e-10,1.007813e-02
8.718750e-10,9.906250e-03
8.758750e-10,9.703125e-03
8.798750e-10,9.453125e-03
8.838750e-10,9.468750e-03
8.878750e-10,8.875000e-03
8.918750e-10,8.453125e-03
8.958750e-10,8.234375e-03
8.998750e-10,8.203125e-03
9.038750e-10,7.578125e-03
9.078750e-10,7.250000e-03
9.118750e-10,6.953125e-03
9.158750e-10,6.656250e-03
9.198750e-10,6.390625e-03
9.238750e-10,6.437500e-03
9.278750e-10,5.906250e-03
9.318750e-10,5.609375e-03
9.358750e-10,5.546875e-03
9.398750e-10,5.718750e-03
9.438750e-10,5.312500e-03
9.478750e-10,5.234375e-03
9.518750e-10,5.187500e-03
9.558750e-10,5.171875e-03
9.598750e-10,5.171875e-03
9.638750e-10,5.500000e-03
9.678750e-10,5.234375e-03
9.718750e-10,5.187500e-03
9.758750e-10,5.359375e-03
9.798750e-10,5.734375e-03
9.838750e-10,5.500000e-03
9.878750e-10,5.578125e-03
9.918750e-10,5.656250e-03
9.958750e-10,5.718750e-03
9.998750e-10,5.781250e-03
1.003875e-09,6.125000e-03
1.007875e-09,5.859375e-03
1.011875e-09,5.781250e-03
1.015875e-09,5.906250e-03
1.019875e-09,6.203125e-03
1.023875e-09,5.890625e-03
1.027875e-09,5.875000e-03
1.031875e-09,5.859375e-03
1.035875e-09,5.828125e-03
1.039875e-09,5.796875e-03
1.043875e-09,6.062500e-03
1.047875e-09,5.718750e-03
1.051875e-09,5.593750e-03
1.055875e-09,5.687500e-03
1.059875e-09,5.984375e-03
1.063875e-09,5.687500e-03
1.067875e-09,5.703125e-03
1.071875e-09,5.750000e-03
1.075875e-09,5.828125e-03
1.079875e-09,5.906250e-03
1.083875e-09,6.328125e-03
1.087875e-09,6.156250e-03
1.091875e-09,6.203125e-03
1.095875e-09,6.484375e-03
1.099875e-09,6.984375e-03
1.103875e-09,6.890625e-03
1.107875e-09,7.109375e-03
1.111875e-09,7.359375e-03
1.115875e-09,7.593750e-03
1.119875e-09,7.843750e-03
1.123875e-09,8.406250e-03
1.127875e-09,8.343750e-03
1.131875e-09,8.468750e-03
1.135875e-09,8.796875e-03
1.139875e-09,9.312500e-03
1.143875e-09,9.187500e-03
1.147875e-09,9.343750e-03
1.151875e-09,9.468750e-03
1.155875e-09,9.578125e-03
1.159875e-09,9.640625e-03
1.163875e-09,9.968750e-03
1.167875e-09,9.671875e-03
1.171875e-09,9.531250e-03
1.175875e-09,9.562500e-03
1.179875e-09,9.765625e-03
1.183875e-09,9.328125e-03
1.187875e-09,9.156250e-03
1.191875e-09,8.984375e-03
1.195875e-09,8.781250e-03
1.199875e-09,8.562500e-03
1.203875e-09,8.625000e-03
1.207875e-09,8.093750e-03
1.211875e-09,7.765625e-03
1.215875e-09,7.640625e-03
1.219875e-09,7.734375e-03
1.223875e-09,7.234375e-03
1.227875e-09,7.078125e-03
1.231875e-09,6.937500e-03
1.235875e-09,6.828125e-03
1.239875e-09,6.750000e-03
1.243875e-09,7.015625e-03
1.247875e-09,6.718750e-03
1.251875e-09,6.656250e-03
1.255875e-09,6.859375e-03
1.259875e-09,7.281250e-03
1.263875e-09,7.156250e-03
1.267875e-09,7.375000e-03
1.271875e-09,7.625000e-03
1.275875e-09,7.890625e-03
1.279875e-09,8.203125e-03
1.283875e-09,8.828125e-03
1.287875e-09,8.859375e-03
1.291875e-09,9.109375e-03
1.295875e-09,9.562500e-03
1.299875e-09,1.020313e-02
1.303875e-09,1.023438e-02
1.307875e-09,1.054688e-02
1.311875e-09,1.084375e-02
1.315875e-09,1.109375e-02
1.319875e-09,1.131250e-02
1.323875e-09,1.179688e-02
1.327875e-09,1.162500e-02
1.331875e-09,1.159375e-02
1.335875e-09,1.171875e-02
1.339875e-09,1.198438e-02
1.343875e-09,1.159375e-02
1.347875e-09,1.145313e-02
1.351875e-09,1.125000e-02
1.355875e-09,1.100000e-02
1.359875e-09,1.070313e-02
1.363875e-09,1.065625e-02
1.367875e-09,9.968750e-03
1.371875e-09,9.437500e-03
1.375875e-09,9.093750e-03
1.379875e-09,8.906250e-03
1.383875e-09,8.109375e-03
1.387875e-09,7.609375e-03
1.391875e-09,7.109375e-03
1.395875e-09,6.593750e-03
1.399875e-09,6.109375e-03
1.403875e-09,5.937500e-03
1.407875e-09,5.171875e-03
1.411875e-09,4.640625e-03
1.415875e-09,4.343750e-03
1.419875e-09,4.296875e-03
1.423875e-09,3.671875e-03
1.427875e-09,3.390625e-03
1.431875e-09,3.140625e-03
1.435875e-09,2.953125e-03
1.439875e-09,2.796875e-03
1.443875e-09,2.984375e-03
1.447875e-09,2.593750e-03
1.451875e-09,2.453125e-03
1.455875e-09,2.546875e-03
1.459875e-09,2.875000e-03
1.463875e-09,2.609375e-03
1.467875e-09,2.671875e-03
1.471875e-09,2.765625e-03
1.475875e-09,2.859375e-03
1.479875e-09,2.953125e-03
1.483875e-09,3.359375e-03
1.487875e-09,3.156250e-03
1.491875e-09,3.140625e-03
1.495875e-09,3.343750e-03
1.499875e-09,3.718750e-03
1.503875e-09,3.468750e-03
1.507875e-09,3.515625e-03
1.511875e-09,3.546875e-03
1.515875e-09,3.578125e-03
1.519875e-09,3.578125e-03
1.523875e-09,3.875000e-03
1.527875e-09,3.546875e-03
1.531875e-09,3.421875e-03
1.535875e-09,3.484375e-03
1.539875e-09,3.750000e-03
1.543875e-09,3.421875e-03
1.547875e-09,3.390625e-03
1.551875e-09,3.375000e-03
1.555875e-09,3.359375e-03
1.559875e-09,3.375000e-03
1.563875e-09,3.703125e-03
1.567875e-09,3.468750e-03
1.571875e-09,3.437500e-03
1.575875e-09,3.656250e-03
1.579875e-09,4.093750e-03
1.583875e-09,3.968750e-03
1.587875e-09,4.171875e-03
1.591875e-09,4.406250e-03
1.595875e-09,4.656250e-03
1.599875e-09,4.937500e-03
1.603875e-09,5.562500e-03
1.607875e-09,5.593750e-03
1.611875e-09,5.828125e-03
1.615875e-09,6.296875e-03
1.619875e-09,6.953125e-03
1.623875e-09,7.015625e-03
1.627875e-09,7.375000e-03
1.631875e-09,7.734375e-03
1.635875e-09,8.062500e-03
1.639875e-09,8.375000e-03
1.643875e-09,8.953125e-03
1.647875e-09,8.906250e-03
1.651875e-09,9.031250e-03
1.655875e-09,9.312500e-03
1.659875e-09,9.750000e-03
1.663875e-09,9.531250e-03
1.667875e-09,9.578125e-03
1.671875e-09,9.593750e-03
1.675875e-09,9.546875e-03
1.679875e-09,9.453125e-03
1.683875e-09,9.640625e-03
1.687875e-09,9.171875e-03
1.691875e-09,8.875000e-03
1.695875e-09,8.750000e-03
1.699875e-09,8.796875e-03
1.703875e-09,8.234375e-03
1.707875e-09,7.953125e-03
1.711875e-09,7.671875e-03
1.715875e-09,7.390625e-03
1.719875e-09,7.109375e-03
1.723875e-09,7.156250e-03
1.727875e-09,6.609375e-03
1.731875e-09,6.296875e-03
1.735875e-09,6.218750e-03
1.739875e-09,6.375000e-03
1.743875e-09,5.968750e-03
1.747875e-09,5.906250e-03
1.751875e-09,5.906250e-03
1.755875e-09,5.937500e-03
1.759875e-09,6.015625e-03
