Measurements-streak-laser-independent/Photodiode-on-Tek-6GHz/Tek000_ch1_20190613132827405.csv

Model,MSO64
Waveform Type,ANALOG
Horizontal Units,s
Sample Interval,4.000000e-12
Record Length,1000
Zero Index,310.421875
Vertical Units,V

TIME,CH1
-1.241687e-09,3.953125e-03
-1.237687e-09,4.156250e-03
-1.233687e-09,3.734375e-03
-1.229687e-09,3.546875e-03
-1.225687e-09,3.546875e-03
-1.221687e-09,3.765625e-03
-1.217687e-09,3.375000e-03
-1.213688e-09,3.296875e-03
-1.209688e-09,3.203125e-03
-1.205688e-09,3.125000e-03
-1.201688e-09,3.031250e-03
-1.197688e-09,3.250000e-03
-1.193688e-09,2.859375e-03
-1.189687e-09,2.656250e-03
-1.185687e-09,2.656250e-03
-1.181687e-09,2.859375e-03
-1.177687e-09,2.453125e-03
-1.173687e-09,2.343750e-03
-1.169687e-09,2.218750e-03
-1.165687e-09,2.125000e-03
-1.161687e-09,2.015625e-03
-1.157687e-09,2.218750e-03
-1.153688e-09,1.812500e-03
-1.149688e-09,1.625000e-03
-1.145688e-09,1.656250e-03
-1.141688e-09,1.921875e-03
-1.137688e-09,1.578125e-03
-1.133688e-09,1.562500e-03
-1.129687e-09,1.578125e-03
-1.125687e-09,1.609375e-03
-1.121687e-09,1.656250e-03
-1.117687e-09,2.062500e-03
-1.113687e-09,1.875000e-03
-1.109687e-09,1.921875e-03
-1.105687e-09,2.203125e-03
-1.101687e-09,2.718750e-03
-1.097687e-09,2.640625e-03
-1.093688e-09,2.906250e-03
-1.089688e-09,3.203125e-03
-1.085688e-09,3.500000e-03
-1.081688e-09,3.843750e-03
-1.077688e-09,4.484375e-03
-1.073688e-09,4.546875e-03
-1.069687e-09,4.812500e-03
-1.065687e-09,5.296875e-03
-1.061687e-09,5.968750e-03
-1.057687e-09,6.046875e-03
-1.053687e-09,6.421875e-03
-1.049687e-09,6.781250e-03
-1.045687e-09,7.125000e-03
-1.041687e-09,7.437500e-03
-1.037687e-09,8.046875e-03
-1.033688e-09,8.031250e-03
-1.029688e-09,8.187500e-03
-1.025688e-09,8.500000e-03
-1.021688e-09,9.000000e-03
-1.017688e-09,8.875000e-03
-1.013688e-09,9.000000e-03
-1.009687e-09,9.093750e-03
-1.005687e-09,9.171875e-03
-1.001687e-09,9.218750e-03
-9.976875e-10,9.531250e-03
-9.936875e-10,9.203125e-03
-9.896875e-10,9.062500e-03
-9.856875e-10,9.093750e-03
-9.816875e-10,9.312500e-03
-9.776875e-10,8.890625e-03
-9.736875e-10,8.765625e-03
-9.696875e-10,8.625000e-03
-9.656875e-10,8.484375e-03
-9.616875e-10,8.328125e-03
-9.576875e-10,8.468750e-03
-9.536875e-10,7.984375e-03
-9.496875e-10,7.718750e-03
-9.456875e-10,7.640625e-03
-9.416875e-10,7.765625e-03
-9.376875e-10,7.296875e-03
-9.336875e-10,7.109375e-03
-9.296875e-10,6.953125e-03
-9.256875e-10,6.781250e-03
-9.216875e-10,6.609375e-03
-9.176875e-10,6.750000e-03
-9.136875e-10,6.281250e-03
-9.096875e-10,6.015625e-03
-9.056875e-10,5.953125e-03
-9.016875e-10,6.093750e-03
-8.976875e-10,5.609375e-03
-8.936875e-10,5.437500e-03
-8.896875e-10,5.281250e-03
-8.856875e-10,5.093750e-03
-8.816875e-10,4.921875e-03
-8.776875e-10,5.046875e-03
-8.736875e-10,4.562500e-03
-8.696875e-10,4.281250e-03
-8.656875e-10,4.203125e-03
-8.616875e-10,4.328125e-03
-8.576875e-10,3.843750e-03
-8.536875e-10,3.671875e-03
-8.496875e-10,3.515625e-03
-8.456875e-10,3.359375e-03
-8.416875e-10,3.218750e-03
-8.376875e-10,3.390625e-03
-8.336875e-10,2.984375e-03
-8.296875e-10,2.796875e-03
-8.256875e-10,2.828125e-03
-8.216875e-10,3.093750e-03
-8.176875e-10,2.781250e-03
-8.136875e-10,2.796875e-03
-8.096875e-10,2.843750e-03
-8.056875e-10,2.937500e-03
-8.016875e-10,3.046875e-03
-7.976875e-10,3.500000e-03
-7.936875e-10,3.375000e-03
-7.896875e-10,3.484375e-03
-7.856875e-10,3.812500e-03
-7.816875e-10,4.375000e-03
-7.776875e-10,4.359375e-03
-7.736875e-10,4.671875e-03
-7.696875e-10,5.000000e-03
-7.656875e-10,5.328125e-03
-7.616875e-10,5.671875e-03
-7.576875e-10,6.312500e-03
-7.536875e-10,6.343750e-03
-7.496875e-10,6.578125e-03
-7.456875e-10,7.000000e-03
-7.416875e-10,7.593750e-03
-7.376875e-10,7.562500e-03
-7.336875e-10,7.812500e-03
-7.296875e-10,8.015625e-03
-7.256875e-10,8.187500e-03
-7.216875e-10,8.328125e-03
-7.176875e-10,8.734375e-03
-7.136875e-10,8.468750e-03
-7.096875e-10,8.375000e-03
-7.056875e-10,8.437500e-03
-7.016875e-10,8.640625e-03
-6.976875e-10,8.203125e-03
-6.936875e-10,8.031250e-03
-6.896875e-10,7.812500e-03
-6.856875e-10,7.578125e-03
-6.816875e-10,7.296875e-03
-6.776875e-10,7.296875e-03
-6.736875e-10,6.656250e-03
-6.696875e-10,6.218750e-03
-6.656875e-10,5.968750e-03
-6.616875e-10,5.906250e-03
-6.576875e-10,5.250000e-03
-6.536875e-10,4.906250e-03
-6.496875e-10,4.562500e-03
-6.456875e-10,4.250000e-03
-6.416875e-10,3.953125e-03
-6.376875e-10,4.000000e-03
-6.336875e-10,3.453125e-03
-6.296875e-10,3.156250e-03
-6.256875e-10,3.093750e-03
-6.216875e-10,3.265625e-03
-6.176875e-10,2.875000e-03
-6.136875e-10,2.828125e-03
-6.096875e-10,2.828125e-03
-6.056875e-10,2.843750e-03
-6.016875e-10,2.906250e-03
-5.976875e-10,3.296875e-03
-5.936875e-10,3.109375e-03
-5.896875e-10,3.156250e-03
-5.856875e-10,3.421875e-03
-5.816875e-10,3.906250e-03
-5.776875e-10,3.781250e-03
-5.736875e-10,3.968750e-03
-5.696875e-10,4.171875e-03
-5.656875e-10,4.343750e-03
-5.616875e-10,4.531250e-03
-5.576875e-10,5.000000e-03
-5.536875e-10,4.843750e-03
-5.496875e-10,4.875000e-03
-5.456875e-10,5.078125e-03
-5.416875e-10,5.468750e-03
-5.376875e-10,5.218750e-03
-5.336875e-10,5.265625e-03
-5.296875e-10,5.265625e-03
-5.256875e-10,5.265625e-03
-5.216875e-10,5.234375e-03
-5.176875e-10,5.484375e-03
-5.136875e-10,5.109375e-03
-5.096875e-10,4.937500e-03
-5.056875e-10,4.953125e-03
-5.016875e-10,5.171875e-03
-4.976875e-10,4.781250e-03
-4.936875e-10,4.687500e-03
-4.896875e-10,4.609375e-03
-4.856875e-10,4.546875e-03
-4.816875e-10,4.500000e-03
-4.776875e-10,4.765625e-03
-4.736875e-10,4.453125e-03
-4.696875e-10,4.359375e-03
-4.656875e-10,4.500000e-03
-4.616875e-10,4.875000e-03
-4.576875e-10,4.656250e-03
-4.536875e-10,4.765625e-03
-4.496875e-10,4.890625e-03
-4.456875e-10,5.046875e-03
-4.416875e-10,5.203125e-03
-4.376875e-10,5.687500e-03
-4.336875e-10,5.562500e-03
-4.296875e-10,5.656250e-03
-4.256875e-10,5.937500e-03
-4.216875e-10,6.421875e-03
-4.176875e-10,6.296875e-03
-4.136875e-10,6.437500e-03
-4.096875e-10,6.546875e-03
-4.056875e-10,6.625000e-03
-4.016875e-10,6.671875e-03
-3.976875e-10,7.000000e-03
-3.936875e-10,6.656250e-03
-3.896875e-10,6.484375e-03
-3.856875e-10,6.468750e-03
-3.816875e-10,6.609375e-03
-3.776875e-10,6.125000e-03
-3.736875e-10,5.875000e-03
-3.696875e-10,5.562500e-03
-3.656875e-10,5.234375e-03
-3.616875e-10,4.859375e-03
-3.576875e-10,4.781250e-03
-3.536875e-10,4.062500e-03
-3.496875e-10,3.546875e-03
-3.456875e-10,3.234375e-03
-3.416875e-10,3.109375e-03
-3.376875e-10,2.437500e-03
-3.336875e-10,2.078125e-03
-3.296875e-10,1.703125e-03
-3.256875e-10,1.375000e-03
-3.216875e-10,1.109375e-03
-3.176875e-10,1.187500e-03
-3.136875e-10,7.343750e-04
-3.096875e-10,5.468750e-04
-3.056875e-10,6.562500e-04
-3.016875e-10,1.015625e-03
-2.976875e-10,8.906250e-04
-2.936875e-10,1.125000e-03
-2.896875e-10,1.406250e-03
-2.856875e-10,1.750000e-03
-2.816875e-10,2.218750e-03
-2.776875e-10,3.015625e-03
-2.736875e-10,3.312500e-03
-2.696875e-10,3.828125e-03
-2.656875e-10,4.640625e-03
-2.616875e-10,5.656250e-03
-2.576875e-10,6.125000e-03
-2.536875e-10,6.921875e-03
-2.496875e-10,7.687500e-03
-2.456875e-10,8.421875e-03
-2.416875e-10,9.203125e-03
-2.376875e-10,1.020313e-02
-2.336875e-10,1.062500e-02
-2.296875e-10,1.115625e-02
-2.256875e-10,1.187500e-02
-2.216875e-10,1.270313e-02
-2.176875e-10,1.287500e-02
-2.136875e-10,1.326563e-02
-2.096875e-10,1.354688e-02
-2.056875e-10,1.370313e-02
-2.016875e-10,1.384375e-02
-1.976875e-10,1.414063e-02
-1.936875e-10,1.381250e-02
-1.896875e-10,1.353125e-02
-1.856875e-10,1.340625e-02
-1.816875e-10,1.340625e-02
-1.776875e-10,1.271875e-02
-1.736875e-10,1.228125e-02
-1.696875e-10,1.176563e-02
-1.656875e-10,1.117188e-02
-1.616875e-10,1.060938e-02
-1.576875e-10,1.026563e-02
-1.536875e-10,9.390625e-03
-1.496875e-10,8.656250e-03
-1.456875e-10,8.156250e-03
-1.416875e-10,7.875000e-03
-1.376875e-10,7.031250e-03
-1.336875e-10,6.531250e-03
-1.296875e-10,6.078125e-03
-1.256875e-10,5.671875e-03
-1.216875e-10,5.406250e-03
-1.176875e-10,5.453125e-03
-1.136875e-10,5.109375e-03
-1.096875e-10,5.000000e-03
-1.056875e-10,5.171875e-03
-1.016875e-10,5.703125e-03
-9.768750e-11,5.734375e-03
-9.368750e-11,6.171875e-03
-8.968750e-11,6.718750e-03
-8.568750e-11,7.375000e-03
-8.168750e-11,8.203125e-03
-7.768750e-11,9.390625e-03
-7.368750e-11,1.021875e-02
-6.968750e-11,1.128125e-02
-6.568750e-11,1.264063e-02
-6.168750e-11,1.435938e-02
-5.768750e-11,1.557813e-02
-5.368750e-11,1.718750e-02
-4.968750e-11,1.889063e-02
-4.568750e-11,2.068750e-02
-4.168750e-11,2.260938e-02
-3.768750e-11,2.490625e-02
-3.368750e-11,2.676563e-02
-2.968750e-11,2.887500e-02
-2.568750e-11,3.123438e-02
-2.168750e-11,3.390625e-02
-1.768750e-11,3.609375e-02
-1.368750e-11,3.859375e-02
-9.687500e-12,4.118750e-02
-5.687500e-12,4.385938e-02
-1.687500e-12,4.660938e-02
2.312500e-12,4.973438e-02
6.312500e-12,5.240625e-02
1.031250e-11,5.529688e-02
1.431250e-11,5.842188e-02
1.831250e-11,6.181250e-02
2.231250e-11,6.475000e-02
2.631250e-11,6.796875e-02
3.031250e-11,7.125000e-02
3.431250e-11,7.459375e-02
3.831250e-11,7.798438e-02
4.231250e-11,8.173438e-02
4.631250e-11,8.501563e-02
5.031250e-11,8.848438e-02
5.431250e-11,9.214063e-02
5.831250e-11,9.601563e-02
6.231250e-11,9.942188e-02
6.631250e-11,1.030469e-01
7.031250e-11,1.066875e-01
7.431250e-11,1.103281e-01
7.831250e-11,1.139688e-01
8.231250e-11,1.178750e-01
8.631250e-11,1.212656e-01
9.031250e-11,1.247656e-01
9.431250e-11,1.283594e-01
9.831250e-11,1.320938e-01
1.023125e-10,1.352813e-01
1.063125e-10,1.386094e-01
1.103125e-10,1.418594e-01
1.143125e-10,1.450313e-01
1.183125e-10,1.480781e-01
1.223125e-10,1.513125e-01
1.263125e-10,1.539375e-01
1.303125e-10,1.565781e-01
1.343125e-10,1.592344e-01
1.383125e-10,1.619063e-01
1.423125e-10,1.639844e-01
1.463125e-10,1.661094e-01
1.503125e-10,1.680781e-01
1.543125e-10,1.698750e-01
1.583125e-10,1.715000e-01
1.623125e-10,1.732188e-01
1.663125e-10,1.742813e-01
1.703125e-10,1.753125e-01
1.743125e-10,1.762969e-01
1.783125e-10,1.772656e-01
1.823125e-10,1.775781e-01
1.863125e-10,1.779375e-01
1.903125e-10,1.781094e-01
1.943125e-10,1.780938e-01
1.983125e-10,1.779063e-01
2.023125e-10,1.777813e-01
2.063125e-10,1.770156e-01
2.103125e-10,1.762344e-01
2.143125e-10,1.754219e-01
2.183125e-10,1.746250e-01
2.223125e-10,1.731875e-01
2.263125e-10,1.718594e-01
2.303125e-10,1.703906e-01
2.343125e-10,1.687813e-01
2.383125e-10,1.670625e-01
2.423125e-10,1.654375e-01
2.463125e-10,1.632656e-01
2.503125e-10,1.611563e-01
2.543125e-10,1.590781e-01
2.583125e-10,1.570938e-01
2.623125e-10,1.545469e-01
2.663125e-10,1.522188e-01
2.703125e-10,1.498125e-01
2.743125e-10,1.473750e-01
2.783125e-10,1.449063e-01
2.823125e-10,1.426250e-01
2.863125e-10,1.398438e-01
2.903125e-10,1.372500e-01
2.943125e-10,1.347500e-01
2.983125e-10,1.324219e-01
3.023125e-10,1.295781e-01
3.063125e-10,1.270625e-01
3.103125e-10,1.245000e-01
3.143125e-10,1.219844e-01
3.183125e-10,1.195000e-01
3.223125e-10,1.172188e-01
3.263125e-10,1.144844e-01
3.303125e-10,1.119688e-01
3.343125e-10,1.095938e-01
3.383125e-10,1.073906e-01
3.423125e-10,1.047031e-01
3.463125e-10,1.023281e-01
3.503125e-10,9.993750e-02
3.543125e-10,9.757813e-02
3.583125e-10,9.525000e-02
3.623125e-10,9.315625e-02
3.663125e-10,9.054688e-02
3.703125e-10,8.815625e-02
3.743125e-10,8.590625e-02
3.783125e-10,8.381250e-02
3.823125e-10,8.123438e-02
3.863125e-10,7.893750e-02
3.903125e-10,7.665625e-02
3.943125e-10,7.439063e-02
3.983125e-10,7.214063e-02
4.023125e-10,7.014063e-02
4.063125e-10,6.762500e-02
4.103125e-10,6.535938e-02
4.143125e-10,6.325000e-02
4.183125e-10,6.132813e-02
4.223125e-10,5.893750e-02
4.263125e-10,5.687500e-02
4.303125e-10,5.487500e-02
4.343125e-10,5.293750e-02
4.383125e-10,5.106250e-02
4.423125e-10,4.950000e-02
4.463125e-10,4.746875e-02
4.503125e-10,4.573438e-02
4.543125e-10,4.425000e-02
4.583125e-10,4.298438e-02
4.623125e-10,4.134375e-02
4.663125e-10,4.004688e-02
4.703125e-10,3.889063e-02
4.743125e-10,3.784375e-02
4.783125e-10,3.687500e-02
4.823125e-10,3.631250e-02
4.863125e-10,3.526563e-02
4.903125e-10,3.453125e-02
4.943125e-10,3.409375e-02
4.983125e-10,3.385938e-02
5.023125e-10,3.325000e-02
5.063125e-10,3.296875e-02
5.103125e-10,3.281250e-02
5.143125e-10,3.270313e-02
5.183125e-10,3.264063e-02
5.223125e-10,3.290625e-02
5.263125e-10,3.265625e-02
5.303125e-10,3.262500e-02
5.343125e-10,3.281250e-02
5.383125e-10,3.314063e-02
5.423125e-10,3.298438e-02
5.463125e-10,3.304688e-02
5.503125e-10,3.315625e-02
5.543125e-10,3.320313e-02
5.583125e-10,3.318750e-02
5.623125e-10,3.342188e-02
5.663125e-10,3.303125e-02
5.703125e-10,3.276563e-02
5.743125e-10,3.264063e-02
5.783125e-10,3.259375e-02
5.823125e-10,3.196875e-02
5.863125e-10,3.150000e-02
5.903125e-10,3.103125e-02
5.943125e-10,3.046875e-02
5.983125e-10,2.979688e-02
6.023125e-10,2.934375e-02
6.063125e-10,2.825000e-02
6.103125e-10,2.729688e-02
6.143125e-10,2.651563e-02
6.183125e-10,2.582813e-02
6.223125e-10,2.457813e-02
6.263125e-10,2.353125e-02
6.303125e-10,2.254688e-02
6.343125e-10,2.151563e-02
6.383125e-10,2.043750e-02
6.423125e-10,1.965625e-02
6.463125e-10,1.831250e-02
6.503125e-10,1.718750e-02
6.543125e-10,1.629688e-02
6.583125e-10,1.562500e-02
6.623125e-10,1.442188e-02
6.663125e-10,1.354688e-02
6.703125e-10,1.276563e-02
6.743125e-10,1.203125e-02
6.783125e-10,1.132813e-02
6.823125e-10,1.096875e-02
6.863125e-10,1.010938e-02
6.903125e-10,9.500000e-03
6.943125e-10,9.171875e-03
6.983125e-10,9.093750e-03
7.023125e-10,8.515625e-03
7.063125e-10,8.281250e-03
7.103125e-10,8.125000e-03
7.143125e-10,8.031250e-03
7.183125e-10,7.937500e-03
7.223125e-10,8.187500e-03
7.263125e-10,7.906250e-03
7.303125e-10,7.843750e-03
7.343125e-10,8.031250e-03
7.383125e-10,8.437500e-03
7.423125e-10,8.265625e-03
7.463125e-10,8.406250e-03
7.503125e-10,8.578125e-03
7.543125e-10,8.734375e-03
7.583125e-10,8.875000e-03
7.623125e-10,9.281250e-03
7.663125e-10,9.109375e-03
7.703125e-10,9.093750e-03
7.743125e-10,9.296875e-03
7.783125e-10,9.656250e-03
7.823125e-10,9.406250e-03
7.863125e-10,9.406250e-03
7.903125e-10,9.421875e-03
7.943125e-10,9.390625e-03
7.983125e-10,9.312500e-03
8.023125e-10,9.500000e-03
8.063125e-10,9.062500e-03
8.103125e-10,8.812500e-03
8.143125e-10,8.734375e-03
8.183125e-10,8.843750e-03
8.223125e-10,8.328125e-03
8.263125e-10,8.093750e-03
8.303125e-10,7.843750e-03
8.343125e-10,7.593750e-03
8.383125e-10,7.328125e-03
8.423125e-10,7.343750e-03
8.463125e-10,6.750000e-03
8.503125e-10,6.375000e-03
8.543125e-10,6.203125e-03
8.583125e-10,6.234375e-03
8.623125e-10,5.687500e-03
8.663125e-10,5.437500e-03
8.703125e-10,5.218750e-03
8.743125e-10,5.031250e-03
8.783125e-10,4.843750e-03
8.823125e-10,4.968750e-03
8.863125e-10,4.531250e-03
8.903125e-10,4.312500e-03
8.943125e-10,4.328125e-03
8.983125e-10,4.578125e-03
9.023125e-10,4.250000e-03
9.063125e-10,4.250000e-03
9.103125e-10,4.281250e-03
9.143125e-10,4.359375e-03
9.183125e-10,4.437500e-03
9.223125e-10,4.843750e-03
9.263125e-10,4.671875e-03
9.303125e-10,4.734375e-03
9.343125e-10,5.015625e-03
9.383125e-10,5.515625e-03
9.423125e-10,5.421875e-03
9.463125e-10,5.640625e-03
9.503125e-10,5.890625e-03
9.543125e-10,6.125000e-03
9.583125e-10,6.359375e-03
9.623125e-10,6.906250e-03
9.663125e-10,6.843750e-03
9.703125e-10,6.968750e-03
9.743125e-10,7.296875e-03
9.783125e-10,7.812500e-03
9.823125e-10,7.703125e-03
9.863125e-10,7.875000e-03
9.903125e-10,8.046875e-03
9.943125e-10,8.187500e-03
9.983125e-10,8.296875e-03
1.002312e-09,8.671875e-03
1.006312e-09,8.437500e-03
1.010312e-09,8.375000e-03
1.014312e-09,8.500000e-03
1.018312e-09,8.781250e-03
1.022312e-09,8.453125e-03
1.026312e-09,8.406250e-03
1.030312e-09,8.343750e-03
1.034312e-09,8.250000e-03
1.038313e-09,8.156250e-03
1.042313e-09,8.343750e-03
1.046313e-09,7.921875e-03
1.050313e-09,7.703125e-03
1.054313e-09,7.687500e-03
1.058313e-09,7.875000e-03
1.062312e-09,7.468750e-03
1.066312e-09,7.375000e-03
1.070312e-09,7.312500e-03
1.074312e-09,7.250000e-03
1.078312e-09,7.218750e-03
1.082312e-09,7.515625e-03
1.086312e-09,7.234375e-03
1.090312e-09,7.187500e-03
1.094312e-09,7.375000e-03
1.098313e-09,7.781250e-03
1.102313e-09,7.640625e-03
1.106313e-09,7.812500e-03
1.110313e-09,8.015625e-03
1.114313e-09,8.265625e-03
1.118313e-09,8.515625e-03
1.122312e-09,9.109375e-03
1.126312e-09,9.109375e-03
1.130312e-09,9.328125e-03
1.134312e-09,9.750000e-03
1.138312e-09,1.037500e-02
1.142312e-09,1.040625e-02
1.146312e-09,1.071875e-02
1.150312e-09,1.103125e-02
1.154312e-09,1.131250e-02
1.158313e-09,1.156250e-02
1.162313e-09,1.209375e-02
1.166313e-09,1.200000e-02
1.170313e-09,1.204688e-02
1.174313e-09,1.225000e-02
1.178313e-09,1.260938e-02
1.182312e-09,1.231250e-02
1.186312e-09,1.226563e-02
1.190312e-09,1.217188e-02
1.194312e-09,1.200000e-02
1.198312e-09,1.179688e-02
1.202312e-09,1.182813e-02
1.206312e-09,1.121875e-02
1.210312e-09,1.075000e-02
1.214312e-09,1.043750e-02
1.218313e-09,1.029688e-02
1.222313e-09,9.515625e-03
1.226313e-09,9.000000e-03
1.230313e-09,8.484375e-03
1.234313e-09,7.937500e-03
1.238313e-09,7.390625e-03
1.242312e-09,7.156250e-03
1.246312e-09,6.328125e-03
1.250312e-09,5.718750e-03
1.254312e-09,5.328125e-03
1.258312e-09,5.187500e-03
1.262312e-09,4.484375e-03
1.266312e-09,4.109375e-03
1.270312e-09,3.812500e-03
1.274312e-09,3.546875e-03
1.278313e-09,3.359375e-03
1.282313e-09,3.531250e-03
1.286313e-09,3.156250e-03
1.290313e-09,3.062500e-03
1.294313e-09,3.234375e-03
1.298313e-09,3.656250e-03
1.302312e-09,3.546875e-03
1.306312e-09,3.796875e-03
1.310312e-09,4.093750e-03
1.314312e-09,4.453125e-03
1.318312e-09,4.843750e-03
1.322312e-09,5.578125e-03
1.326312e-09,5.750000e-03
1.330312e-09,6.125000e-03
1.334312e-09,6.718750e-03
1.338312e-09,7.531250e-03
1.342313e-09,7.734375e-03
1.346313e-09,8.234375e-03
1.350313e-09,8.703125e-03
1.354313e-09,9.171875e-03
1.358313e-09,9.593750e-03
1.362312e-09,1.029688e-02
1.366312e-09,1.035938e-02
1.370312e-09,1.057813e-02
1.374312e-09,1.093750e-02
1.378312e-09,1.146875e-02
1.382312e-09,1.132813e-02
1.386312e-09,1.145313e-02
1.390312e-09,1.153125e-02
1.394312e-09,1.154688e-02
1.398312e-09,1.153125e-02
1.402313e-09,1.176563e-02
1.406313e-09,1.134375e-02
1.410313e-09,1.110938e-02
1.414313e-09,1.103125e-02
1.418313e-09,1.112500e-02
1.422312e-09,1.060938e-02
1.426312e-09,1.035938e-02
1.430312e-09,1.012500e-02
1.434312e-09,9.859375e-03
1.438312e-09,9.609375e-03
1.442312e-09,9.671875e-03
1.446312e-09,9.125000e-03
1.450312e-09,8.812500e-03
1.454312e-09,8.703125e-03
1.458312e-09,8.812500e-03
1.462313e-09,8.359375e-03
1.466313e-09,8.218750e-03
1.470313e-09,8.109375e-03
1.474313e-09,8.015625e-03
1.478313e-09,7.953125e-03
1.482312e-09,8.218750e-03
1.486312e-09,7.906250e-03
1.490312e-09,7.812500e-03
1.494312e-09,7.937500e-03
1.498312e-09,8.281250e-03
1.502312e-09,8.046875e-03
1.506312e-09,8.109375e-03
1.510312e-09,8.187500e-03
1.514312e-09,8.250000e-03
1.518312e-09,8.328125e-03
1.522313e-09,8.703125e-03
1.526313e-09,8.468750e-03
1.530313e-09,8.421875e-03
1.534313e-09,8.562500e-03
1.538313e-09,8.890625e-03
1.542312e-09,8.609375e-03
1.546312e-09,8.609375e-03
1.550312e-09,8.609375e-03
1.554312e-09,8.578125e-03
1.558312e-09,8.531250e-03
1.562312e-09,8.781250e-03
1.566312e-09,8.406250e-03
1.570312e-09,8.218750e-03
1.574312e-09,8.234375e-03
1.578312e-09,8.453125e-03
1.582313e-09,8.046875e-03
1.586313e-09,7.953125e-03
1.590313e-09,7.859375e-03
1.594313e-09,7.765625e-03
1.598313e-09,7.671875e-03
1.602312e-09,7.890625e-03
1.606312e-09,7.531250e-03
1.610312e-09,7.375000e-03
1.614312e-09,7.421875e-03
1.618312e-09,7.687500e-03
1.622312e-09,7.375000e-03
1.626312e-09,7.375000e-03
1.630312e-09,7.375000e-03
1.634312e-09,7.406250e-03
1.638312e-09,7.437500e-03
1.642313e-09,7.781250e-03
1.646313e-09,7.515625e-03
1.650313e-09,7.468750e-03
1.654313e-09,7.625000e-03
1.658313e-09,7.968750e-03
1.662312e-09,7.703125e-03
1.666312e-09,7.734375e-03
1.670312e-09,7.750000e-03
1.674312e-09,7.765625e-03
1.678312e-09,7.750000e-03
1.682312e-09,8.015625e-03
1.686312e-09,7.656250e-03
1.690312e-09,7.468750e-03
1.694312e-09,7.453125e-03
1.698312e-09,7.625000e-03
1.702313e-09,7.156250e-03
1.706313e-09,6.968750e-03
1.710313e-09,6.734375e-03
1.714313e-09,6.500000e-03
1.718313e-09,6.234375e-03
1.722312e-09,6.250000e-03
1.726312e-09,5.640625e-03
1.730312e-09,5.218750e-03
1.734312e-09,4.984375e-03
1.738312e-09,4.953125e-03
1.742312e-09,4.312500e-03
1.746312e-09,3.968750e-03
1.750312e-09,3.656250e-03
1.754312e-09,3.328125e-03
1.758312e-09,3.031250e-03
