Measurements-streak-laser-simulataneous/Photodiode-on-Tek/1ns-lq/Tek000_ch1_20190624105537453.csv

Model,MSO64
Waveform Type,ANALOG
Horizontal Units,s
Sample Interval,2.000000e-11
Record Length,1000
Zero Index,-0.437500
Vertical Units,V

TIME,CH1
8.750000e-12,1.156250e-02
2.875000e-11,7.250000e-03
4.875000e-11,4.093750e-03
6.875000e-11,2.875000e-03
8.875000e-11,3.750000e-03
1.087500e-10,6.312500e-03
1.287500e-10,9.750000e-03
1.487500e-10,1.315625e-02
1.687500e-10,1.571875e-02
1.887500e-10,1.684375e-02
2.087500e-10,1.643750e-02
2.287500e-10,1.471875e-02
2.487500e-10,1.231250e-02
2.687500e-10,9.968750e-03
2.887500e-10,8.406250e-03
3.087500e-10,7.906250e-03
3.287500e-10,8.375000e-03
3.487500e-10,9.156250e-03
3.687500e-10,9.593750e-03
3.887500e-10,9.218750e-03
4.087500e-10,8.062500e-03
4.287500e-10,6.750000e-03
4.487500e-10,6.218750e-03
4.687500e-10,7.281250e-03
4.887500e-10,1.015625e-02
5.087500e-10,1.425000e-02
5.287500e-10,1.821875e-02
5.487500e-10,2.056250e-02
5.687500e-10,2.018750e-02
5.887500e-10,1.690625e-02
6.087500e-10,1.168750e-02
6.287500e-10,6.187500e-03
6.487500e-10,2.312500e-03
6.687500e-10,1.343750e-03
6.887500e-10,3.468750e-03
7.087500e-10,7.718750e-03
7.287500e-10,1.234375e-02
7.487500e-10,1.550000e-02
7.687500e-10,1.600000e-02
7.887500e-10,1.381250e-02
8.087500e-10,9.937500e-03
8.287500e-10,6.000000e-03
8.487500e-10,3.500000e-03
8.687500e-10,3.187500e-03
8.887500e-10,4.750000e-03
9.087500e-10,7.000000e-03
9.287500e-10,8.500000e-03
9.487500e-10,8.250000e-03
9.687500e-10,6.250000e-03
9.887500e-10,3.562500e-03
1.008750e-09,1.781250e-03
1.028750e-09,2.187500e-03
1.048750e-09,5.156250e-03
1.068750e-09,9.750000e-03
1.088750e-09,1.412500e-02
1.108750e-09,1.637500e-02
1.128750e-09,1.534375e-02
1.148750e-09,1.134375e-02
1.168750e-09,6.093750e-03
1.188750e-09,1.843750e-03
1.208750e-09,5.000000e-04
1.228750e-09,2.687500e-03
1.248750e-09,7.562500e-03
1.268750e-09,1.315625e-02
1.288750e-09,1.743750e-02
1.308750e-09,1.921875e-02
1.328750e-09,1.865625e-02
1.348750e-09,1.696875e-02
1.368750e-09,1.575000e-02
1.388750e-09,1.593750e-02
1.408750e-09,1.743750e-02
1.428750e-09,1.903125e-02
1.448750e-09,1.909375e-02
1.468750e-09,1.662500e-02
1.488750e-09,1.168750e-02
1.508750e-09,5.593750e-03
1.528750e-09,4.375000e-04
1.548750e-09,-2.093750e-03
1.568750e-09,-1.312500e-03
1.588750e-09,2.125000e-03
1.608750e-09,6.406250e-03
1.628750e-09,9.500000e-03
1.648750e-09,1.006250e-02
1.668750e-09,7.937500e-03
1.688750e-09,4.156250e-03
1.708750e-09,5.312500e-04
1.728750e-09,-1.343750e-03
1.748750e-09,-6.875000e-04
1.768750e-09,2.250000e-03
1.788750e-09,6.343750e-03
1.808750e-09,1.025000e-02
1.828750e-09,1.281250e-02
1.848750e-09,1.368750e-02
1.868750e-09,1.315625e-02
1.888750e-09,1.187500e-02
1.908750e-09,1.050000e-02
1.928750e-09,9.375000e-03
1.948750e-09,8.593750e-03
1.968750e-09,8.000000e-03
1.988750e-09,7.625000e-03
2.008750e-09,7.531250e-03
2.028750e-09,7.968750e-03
2.048750e-09,8.937500e-03
2.068750e-09,1.009375e-02
2.088750e-09,1.075000e-02
2.108750e-09,1.012500e-02
2.128750e-09,7.812500e-03
2.148750e-09,4.000000e-03
2.168750e-09,-2.812500e-04
2.188750e-09,-3.593750e-03
2.208750e-09,-4.593750e-03
2.228750e-09,-2.593750e-03
2.248750e-09,1.875000e-03
2.268750e-09,7.343750e-03
2.288750e-09,1.190625e-02
2.308750e-09,1.387500e-02
2.328750e-09,1.262500e-02
2.348750e-09,8.718750e-03
2.368750e-09,3.812500e-03
2.388750e-09,-9.375000e-05
2.408750e-09,-1.500000e-03
2.428750e-09,3.125000e-05
2.448750e-09,3.718750e-03
2.468750e-09,7.937500e-03
2.488750e-09,1.087500e-02
2.508750e-09,1.150000e-02
2.528750e-09,9.625000e-03
2.548750e-09,6.156250e-03
2.568750e-09,2.468750e-03
2.588750e-09,-3.125000e-05
2.608750e-09,-5.312500e-04
2.628750e-09,1.031250e-03
2.648750e-09,4.093750e-03
2.668750e-09,7.750000e-03
2.688750e-09,1.125000e-02
2.708750e-09,1.409375e-02
2.728750e-09,1.612500e-02
2.748750e-09,1.743750e-02
2.768750e-09,1.806250e-02
2.788750e-09,1.800000e-02
2.808750e-09,1.712500e-02
2.828750e-09,1.528125e-02
2.848750e-09,1.253125e-02
2.868750e-09,9.281250e-03
2.888750e-09,6.125000e-03
2.908750e-09,3.812500e-03
2.928750e-09,2.906250e-03
2.948750e-09,3.531250e-03
2.968750e-09,5.312500e-03
2.988750e-09,7.406250e-03
3.008750e-09,8.781250e-03
3.028750e-09,8.718750e-03
3.048750e-09,7.125000e-03
3.068750e-09,4.625000e-03
3.088750e-09,2.437500e-03
3.108750e-09,1.812500e-03
3.128750e-09,3.406250e-03
3.148750e-09,6.781250e-03
3.168750e-09,1.056250e-02
3.188750e-09,1.284375e-02
3.208750e-09,1.212500e-02
3.228750e-09,8.062500e-03
3.248750e-09,1.812500e-03
3.268750e-09,-4.375000e-03
3.288750e-09,-8.062500e-03
3.308750e-09,-7.593750e-03
3.328750e-09,-3.031250e-03
3.348750e-09,3.968750e-03
3.368750e-09,1.093750e-02
3.388750e-09,1.553125e-02
3.408750e-09,1.671875e-02
3.428750e-09,1.496875e-02
3.448750e-09,1.203125e-02
3.468750e-09,9.781250e-03
3.488750e-09,9.375000e-03
3.508750e-09,1.062500e-02
3.528750e-09,1.209375e-02
3.548750e-09,1.215625e-02
3.568750e-09,9.812500e-03
3.588750e-09,5.406250e-03
3.608750e-09,4.375000e-04
3.628750e-09,-3.093750e-03
3.648750e-09,-3.750000e-03
3.668750e-09,-1.312500e-03
3.688750e-09,3.031250e-03
3.708750e-09,7.406250e-03
3.728750e-09,1.009375e-02
3.748750e-09,1.050000e-02
3.768750e-09,9.187500e-03
3.788750e-09,7.562500e-03
3.808750e-09,6.906250e-03
3.828750e-09,7.843750e-03
3.848750e-09,9.875000e-03
3.868750e-09,1.187500e-02
3.888750e-09,1.275000e-02
3.908750e-09,1.212500e-02
3.928750e-09,1.068750e-02
3.948750e-09,9.562500e-03
3.968750e-09,9.843750e-03
3.988750e-09,1.168750e-02
4.008750e-09,1.431250e-02
4.028750e-09,1.618750e-02
4.048750e-09,1.603125e-02
4.068750e-09,1.343750e-02
4.088750e-09,9.312500e-03
4.108750e-09,5.531250e-03
4.128750e-09,3.937500e-03
4.148750e-09,5.437500e-03
4.168750e-09,9.562500e-03
4.188750e-09,1.431250e-02
4.208750e-09,1.731250e-02
4.228750e-09,1.656250e-02
4.248750e-09,1.162500e-02
4.268750e-09,3.687500e-03
4.288750e-09,-4.781250e-03
4.308750e-09,-1.106250e-02
4.328750e-09,-1.315625e-02
4.348750e-09,-1.062500e-02
4.368750e-09,-4.406250e-03
4.388750e-09,3.531250e-03
4.408750e-09,1.090625e-02
4.428750e-09,1.603125e-02
4.448750e-09,1.809375e-02
4.468750e-09,1.725000e-02
4.488750e-09,1.431250e-02
4.508750e-09,1.053125e-02
4.528750e-09,7.093750e-03
4.548750e-09,4.875000e-03
4.568750e-09,4.312500e-03
4.588750e-09,5.312500e-03
4.608750e-09,7.375000e-03
4.628750e-09,9.531250e-03
4.648750e-09,1.087500e-02
4.668750e-09,1.081250e-02
4.688750e-09,9.250000e-03
4.708750e-09,6.875000e-03
4.728750e-09,4.812500e-03
4.748750e-09,4.093750e-03
4.768750e-09,5.312500e-03
4.788750e-09,8.187500e-03
4.808750e-09,1.165625e-02
4.828750e-09,1.428125e-02
4.848750e-09,1.490625e-02
4.868750e-09,1.306250e-02
4.888750e-09,9.312500e-03
4.908750e-09,4.906250e-03
4.928750e-09,1.406250e-03
4.948750e-09,-6.250000e-05
4.968750e-09,9.687500e-04
4.988750e-09,4.031250e-03
5.008750e-09,8.187500e-03
5.028750e-09,1.234375e-02
5.048750e-09,1.556250e-02
5.068750e-09,1.737500e-02
5.088750e-09,1.759375e-02
5.108750e-09,1.637500e-02
5.128750e-09,1.396875e-02
5.148750e-09,1.071875e-02
5.168750e-09,7.125000e-03
5.188750e-09,3.875000e-03
5.208750e-09,1.625000e-03
5.228750e-09,1.000000e-03
5.248750e-09,2.187500e-03
5.268750e-09,4.937500e-03
5.288750e-09,8.531250e-03
5.308750e-09,1.206250e-02
5.328750e-09,1.468750e-02
5.348750e-09,1.600000e-02
5.368750e-09,1.606250e-02
5.388750e-09,1.531250e-02
5.408750e-09,1.425000e-02
5.428750e-09,1.331250e-02
5.448750e-09,1.259375e-02
5.468750e-09,1.190625e-02
5.488750e-09,1.087500e-02
5.508750e-09,9.187500e-03
5.528750e-09,6.656250e-03
5.548750e-09,3.500000e-03
5.568750e-09,2.500000e-04
5.588750e-09,-2.406250e-03
5.608750e-09,-3.625000e-03
5.628750e-09,-2.875000e-03
5.648750e-09,-6.250000e-05
5.668750e-09,4.437500e-03
5.688750e-09,9.718750e-03
5.708750e-09,1.443750e-02
5.728750e-09,1.740625e-02
5.748750e-09,1.775000e-02
5.768750e-09,1.537500e-02
5.788750e-09,1.109375e-02
5.808750e-09,6.187500e-03
5.828750e-09,2.250000e-03
5.848750e-09,3.437500e-04
5.868750e-09,8.750000e-04
5.888750e-09,3.281250e-03
5.908750e-09,6.437500e-03
5.928750e-09,9.156250e-03
5.948750e-09,1.056250e-02
5.968750e-09,1.037500e-02
5.988750e-09,9.031250e-03
6.008750e-09,7.250000e-03
6.028750e-09,5.750000e-03
6.048750e-09,4.843750e-03
6.068750e-09,4.625000e-03
6.088750e-09,4.812500e-03
6.108750e-09,5.187500e-03
6.128750e-09,5.656250e-03
6.148750e-09,6.187500e-03
6.168750e-09,6.718750e-03
6.188750e-09,7.093750e-03
6.208750e-09,7.062500e-03
6.228750e-09,6.468750e-03
6.248750e-09,5.375000e-03
6.268750e-09,4.218750e-03
6.288750e-09,3.687500e-03
6.308750e-09,4.343750e-03
6.328750e-09,6.312500e-03
6.348750e-09,9.156250e-03
6.368750e-09,1.187500e-02
6.388750e-09,1.353125e-02
6.408750e-09,1.365625e-02
6.428750e-09,1.256250e-02
6.448750e-09,1.134375e-02
6.468750e-09,1.128125e-02
6.488750e-09,1.309375e-02
6.508750e-09,1.659375e-02
6.528750e-09,2.046875e-02
6.548750e-09,2.296875e-02
6.568750e-09,2.250000e-02
6.588750e-09,1.868750e-02
6.608750e-09,1.212500e-02
6.628750e-09,4.843750e-03
6.648750e-09,-1.437500e-03
6.668750e-09,-4.875000e-03
6.688750e-09,-5.343750e-03
6.708750e-09,-2.937500e-03
6.728750e-09,8.125000e-04
6.748750e-09,5.406250e-03
6.768750e-09,9.687500e-03
6.788750e-09,1.396875e-02
6.808750e-09,1.750000e-02
6.828750e-09,2.053125e-02
6.848750e-09,2.215625e-02
6.868750e-09,2.287500e-02
6.888750e-09,2.359375e-02
6.908750e-09,2.753125e-02
6.928750e-09,3.887500e-02
6.948750e-09,6.306250e-02
6.968750e-09,1.040938e-01
6.988750e-09,1.640625e-01
7.008750e-09,2.411250e-01
7.028750e-09,3.303438e-01
7.048750e-09,4.240313e-01
7.068750e-09,5.140625e-01
7.088750e-09,5.930313e-01
7.108750e-09,6.560938e-01
7.128750e-09,7.007500e-01
7.148750e-09,7.267500e-01
7.168750e-09,7.349063e-01
7.188750e-09,7.265313e-01
7.208750e-09,7.028750e-01
7.228750e-09,6.652813e-01
7.248750e-09,6.158750e-01
7.268750e-09,5.576875e-01
7.288750e-09,4.948750e-01
7.308750e-09,4.319688e-01
7.328750e-09,3.731563e-01
7.348750e-09,3.211563e-01
7.368750e-09,2.768750e-01
7.388750e-09,2.395625e-01
7.408750e-09,2.075313e-01
7.428750e-09,1.790000e-01
7.448750e-09,1.531250e-01
7.468750e-09,1.298750e-01
7.488750e-09,1.104375e-01
7.508750e-09,9.546875e-02
7.528750e-09,8.553125e-02
7.548750e-09,7.934375e-02
7.568750e-09,7.537500e-02
7.588750e-09,7.093750e-02
7.608750e-09,6.465625e-02
7.628750e-09,5.540625e-02
7.648750e-09,4.440625e-02
7.668750e-09,3.296875e-02
7.688750e-09,2.371875e-02
7.708750e-09,1.781250e-02
7.728750e-09,1.631250e-02
7.748750e-09,1.825000e-02
7.768750e-09,2.256250e-02
7.788750e-09,2.728125e-02
7.808750e-09,3.131250e-02
7.828750e-09,3.390625e-02
7.848750e-09,3.515625e-02
7.868750e-09,3.543750e-02
7.888750e-09,3.525000e-02
7.908750e-09,3.475000e-02
7.928750e-09,3.393750e-02
7.948750e-09,3.265625e-02
7.968750e-09,3.093750e-02
7.988750e-09,2.906250e-02
8.008750e-09,2.750000e-02
8.028750e-09,2.665625e-02
8.048750e-09,2.653125e-02
8.068750e-09,2.675000e-02
8.088750e-09,2.659375e-02
8.108750e-09,2.537500e-02
8.128750e-09,2.278125e-02
8.148750e-09,1.918750e-02
8.168750e-09,1.540625e-02
8.188750e-09,1.262500e-02
8.208750e-09,1.168750e-02
8.228750e-09,1.271875e-02
8.248750e-09,1.509375e-02
8.268750e-09,1.759375e-02
8.288750e-09,1.903125e-02
8.308750e-09,1.862500e-02
8.328750e-09,1.659375e-02
8.348750e-09,1.384375e-02
8.368750e-09,1.184375e-02
8.388750e-09,1.175000e-02
8.408750e-09,1.396875e-02
8.428750e-09,1.787500e-02
8.448750e-09,2.203125e-02
8.468750e-09,2.484375e-02
8.488750e-09,2.525000e-02
8.508750e-09,2.328125e-02
8.528750e-09,2.000000e-02
8.548750e-09,1.703125e-02
8.568750e-09,1.575000e-02
8.588750e-09,1.668750e-02
8.608750e-09,1.909375e-02
8.628750e-09,2.134375e-02
8.648750e-09,2.175000e-02
8.668750e-09,1.931250e-02
8.688750e-09,1.443750e-02
8.708750e-09,8.687500e-03
8.728750e-09,4.093750e-03
8.748750e-09,2.312500e-03
8.768750e-09,3.812500e-03
8.788750e-09,7.656250e-03
8.808750e-09,1.209375e-02
8.828750e-09,1.525000e-02
8.848750e-09,1.612500e-02
8.868750e-09,1.493750e-02
8.888750e-09,1.290625e-02
8.908750e-09,1.150000e-02
8.928750e-09,1.171875e-02
8.948750e-09,1.356250e-02
8.968750e-09,1.606250e-02
8.988750e-09,1.787500e-02
9.008750e-09,1.800000e-02
9.028750e-09,1.625000e-02
9.048750e-09,1.343750e-02
9.068750e-09,1.100000e-02
9.088750e-09,1.012500e-02
9.108750e-09,1.131250e-02
9.128750e-09,1.412500e-02
9.148750e-09,1.731250e-02
9.168750e-09,1.950000e-02
9.188750e-09,1.975000e-02
9.208750e-09,1.790625e-02
9.228750e-09,1.453125e-02
9.248750e-09,1.059375e-02
9.268750e-09,7.093750e-03
9.288750e-09,4.687500e-03
9.308750e-09,3.593750e-03
9.328750e-09,3.687500e-03
9.348750e-09,4.750000e-03
9.368750e-09,6.500000e-03
9.388750e-09,8.656250e-03
9.408750e-09,1.090625e-02
9.428750e-09,1.284375e-02
9.448750e-09,1.409375e-02
9.468750e-09,1.443750e-02
9.488750e-09,1.400000e-02
9.508750e-09,1.315625e-02
9.528750e-09,1.256250e-02
9.548750e-09,1.265625e-02
9.568750e-09,1.346875e-02
9.588750e-09,1.446875e-02
9.608750e-09,1.496875e-02
9.628750e-09,1.425000e-02
9.648750e-09,1.225000e-02
9.668750e-09,9.500000e-03
9.688750e-09,7.187500e-03
9.708750e-09,6.562500e-03
9.728750e-09,8.312500e-03
9.748750e-09,1.225000e-02
9.768750e-09,1.725000e-02
9.788750e-09,2.171875e-02
9.808750e-09,2.418750e-02
9.828750e-09,2.384375e-02
9.848750e-09,2.096875e-02
9.868750e-09,1.653125e-02
9.888750e-09,1.181250e-02
9.908750e-09,7.843750e-03
9.928750e-09,5.156250e-03
9.948750e-09,3.656250e-03
9.968750e-09,3.000000e-03
9.988750e-09,2.875000e-03
1.000875e-08,3.250000e-03
1.002875e-08,4.281250e-03
1.004875e-08,6.031250e-03
1.006875e-08,8.312500e-03
1.008875e-08,1.050000e-02
1.010875e-08,1.190625e-02
1.012875e-08,1.196875e-02
1.014875e-08,1.068750e-02
1.016875e-08,8.656250e-03
1.018875e-08,6.656250e-03
1.020875e-08,5.375000e-03
1.022875e-08,5.000000e-03
1.024875e-08,5.156250e-03
1.026875e-08,5.218750e-03
1.028875e-08,4.750000e-03
1.030875e-08,3.843750e-03
1.032875e-08,3.187500e-03
1.034875e-08,3.625000e-03
1.036875e-08,5.687500e-03
1.038875e-08,9.062500e-03
1.040875e-08,1.265625e-02
1.042875e-08,1.487500e-02
1.044875e-08,1.465625e-02
1.046875e-08,1.175000e-02
1.048875e-08,7.281250e-03
1.050875e-08,3.125000e-03
1.052875e-08,1.187500e-03
1.054875e-08,2.500000e-03
1.056875e-08,6.812500e-03
1.058875e-08,1.262500e-02
1.060875e-08,1.778125e-02
1.062875e-08,2.056250e-02
1.064875e-08,2.012500e-02
1.066875e-08,1.696875e-02
1.068875e-08,1.237500e-02
1.070875e-08,8.000000e-03
1.072875e-08,5.156250e-03
1.074875e-08,4.468750e-03
1.076875e-08,5.750000e-03
1.078875e-08,8.312500e-03
1.080875e-08,1.118750e-02
1.082875e-08,1.343750e-02
1.084875e-08,1.450000e-02
1.086875e-08,1.403125e-02
1.088875e-08,1.221875e-02
1.090875e-08,9.625000e-03
1.092875e-08,7.062500e-03
1.094875e-08,5.500000e-03
1.096875e-08,5.593750e-03
1.098875e-08,7.406250e-03
1.100875e-08,1.028125e-02
1.102875e-08,1.309375e-02
1.104875e-08,1.471875e-02
1.106875e-08,1.443750e-02
1.108875e-08,1.246875e-02
1.110875e-08,9.718750e-03
1.112875e-08,7.375000e-03
1.114875e-08,6.218750e-03
1.116875e-08,6.312500e-03
1.118875e-08,6.906250e-03
1.120875e-08,6.875000e-03
1.122875e-08,5.500000e-03
1.124875e-08,2.875000e-03
1.126875e-08,-6.250000e-05
1.128875e-08,-2.062500e-03
1.130875e-08,-2.218750e-03
1.132875e-08,-6.250000e-04
1.134875e-08,1.656250e-03
1.136875e-08,3.125000e-03
1.138875e-08,2.781250e-03
1.140875e-08,8.125000e-04
1.142875e-08,-1.250000e-03
1.144875e-08,-1.406250e-03
1.146875e-08,1.843750e-03
1.148875e-08,8.531250e-03
1.150875e-08,1.684375e-02
1.152875e-08,2.396875e-02
1.154875e-08,2.734375e-02
1.156875e-08,2.584375e-02
1.158875e-08,2.050000e-02
1.160875e-08,1.396875e-02
1.162875e-08,9.437500e-03
1.164875e-08,8.875000e-03
1.166875e-08,1.237500e-02
1.168875e-08,1.803125e-02
1.170875e-08,2.287500e-02
1.172875e-08,2.446875e-02
1.174875e-08,2.187500e-02
1.176875e-08,1.609375e-02
1.178875e-08,9.437500e-03
1.180875e-08,4.437500e-03
1.182875e-08,2.593750e-03
1.184875e-08,3.875000e-03
1.186875e-08,6.968750e-03
1.188875e-08,1.006250e-02
1.190875e-08,1.168750e-02
1.192875e-08,1.131250e-02
1.194875e-08,9.406250e-03
1.196875e-08,6.875000e-03
1.198875e-08,4.656250e-03
1.200875e-08,3.281250e-03
1.202875e-08,2.781250e-03
1.204875e-08,3.062500e-03
1.206875e-08,3.968750e-03
1.208875e-08,5.500000e-03
1.210875e-08,7.625000e-03
1.212875e-08,1.006250e-02
1.214875e-08,1.215625e-02
1.216875e-08,1.321875e-02
1.218875e-08,1.275000e-02
1.220875e-08,1.084375e-02
1.222875e-08,8.312500e-03
1.224875e-08,6.406250e-03
1.226875e-08,6.093750e-03
1.228875e-08,7.687500e-03
1.230875e-08,1.050000e-02
1.232875e-08,1.312500e-02
1.234875e-08,1.418750e-02
1.236875e-08,1.296875e-02
1.238875e-08,9.937500e-03
1.240875e-08,6.468750e-03
1.242875e-08,4.218750e-03
1.244875e-08,4.281250e-03
1.246875e-08,6.687500e-03
1.248875e-08,1.021875e-02
1.250875e-08,1.318750e-02
1.252875e-08,1.412500e-02
1.254875e-08,1.253125e-02
1.256875e-08,9.000000e-03
1.258875e-08,4.968750e-03
1.260875e-08,1.843750e-03
1.262875e-08,4.687500e-04
1.264875e-08,8.750000e-04
1.266875e-08,2.281250e-03
1.268875e-08,3.812500e-03
1.270875e-08,4.937500e-03
1.272875e-08,5.625000e-03
1.274875e-08,6.343750e-03
1.276875e-08,7.500000e-03
1.278875e-08,9.093750e-03
1.280875e-08,1.078125e-02
1.282875e-08,1.187500e-02
1.284875e-08,1.203125e-02
1.286875e-08,1.125000e-02
1.288875e-08,1.006250e-02
1.290875e-08,9.125000e-03
1.292875e-08,8.843750e-03
1.294875e-08,9.093750e-03
1.296875e-08,9.312500e-03
1.298875e-08,8.968750e-03
1.300875e-08,7.937500e-03
1.302875e-08,6.812500e-03
1.304875e-08,6.531250e-03
1.306875e-08,8.000000e-03
1.308875e-08,1.137500e-02
1.310875e-08,1.581250e-02
1.312875e-08,1.975000e-02
1.314875e-08,2.134375e-02
1.316875e-08,1.946875e-02
1.318875e-08,1.425000e-02
1.320875e-08,7.000000e-03
1.322875e-08,-1.250000e-04
1.324875e-08,-5.000000e-03
1.326875e-08,-6.375000e-03
1.328875e-08,-4.125000e-03
1.330875e-08,6.875000e-04
1.332875e-08,6.500000e-03
1.334875e-08,1.165625e-02
1.336875e-08,1.487500e-02
1.338875e-08,1.562500e-02
1.340875e-08,1.384375e-02
1.342875e-08,1.000000e-02
1.344875e-08,5.000000e-03
1.346875e-08,1.110223e-16
1.348875e-08,-3.781250e-03
1.350875e-08,-5.156250e-03
1.352875e-08,-3.437500e-03
1.354875e-08,1.187500e-03
1.356875e-08,7.656250e-03
1.358875e-08,1.409375e-02
1.360875e-08,1.865625e-02
1.362875e-08,2.006250e-02
1.364875e-08,1.818750e-02
1.366875e-08,1.409375e-02
1.368875e-08,9.531250e-03
1.370875e-08,6.281250e-03
1.372875e-08,5.281250e-03
1.374875e-08,6.343750e-03
1.376875e-08,8.375000e-03
1.378875e-08,9.937500e-03
1.380875e-08,1.003125e-02
1.382875e-08,8.593750e-03
1.384875e-08,6.375000e-03
1.386875e-08,4.625000e-03
1.388875e-08,4.375000e-03
1.390875e-08,6.000000e-03
1.392875e-08,8.968750e-03
1.394875e-08,1.225000e-02
1.396875e-08,1.478125e-02
1.398875e-08,1.593750e-02
1.400875e-08,1.568750e-02
1.402875e-08,1.459375e-02
1.404875e-08,1.340625e-02
1.406875e-08,1.271875e-02
1.408875e-08,1.275000e-02
1.410875e-08,1.328125e-02
1.412875e-08,1.400000e-02
1.414875e-08,1.453125e-02
1.416875e-08,1.475000e-02
1.418875e-08,1.465625e-02
1.420875e-08,1.443750e-02
1.422875e-08,1.428125e-02
1.424875e-08,1.415625e-02
1.426875e-08,1.403125e-02
1.428875e-08,1.387500e-02
1.430875e-08,1.356250e-02
1.432875e-08,1.318750e-02
1.434875e-08,1.268750e-02
1.436875e-08,1.206250e-02
1.438875e-08,1.112500e-02
1.440875e-08,9.875000e-03
1.442875e-08,8.312500e-03
1.444875e-08,6.562500e-03
1.446875e-08,4.906250e-03
1.448875e-08,3.625000e-03
1.450875e-08,3.000000e-03
1.452875e-08,3.125000e-03
1.454875e-08,4.031250e-03
1.456875e-08,5.593750e-03
1.458875e-08,7.687500e-03
1.460875e-08,1.006250e-02
1.462875e-08,1.234375e-02
1.464875e-08,1.400000e-02
1.466875e-08,1.456250e-02
1.468875e-08,1.359375e-02
1.470875e-08,1.115625e-02
1.472875e-08,7.718750e-03
1.474875e-08,4.187500e-03
1.476875e-08,1.593750e-03
1.478875e-08,7.500000e-04
1.480875e-08,1.937500e-03
1.482875e-08,4.750000e-03
1.484875e-08,8.375000e-03
1.486875e-08,1.187500e-02
1.488875e-08,1.456250e-02
1.490875e-08,1.625000e-02
1.492875e-08,1.706250e-02
1.494875e-08,1.728125e-02
1.496875e-08,1.703125e-02
1.498875e-08,1.618750e-02
1.500875e-08,1.440625e-02
1.502875e-08,1.150000e-02
1.504875e-08,7.562500e-03
1.506875e-08,3.187500e-03
1.508875e-08,-6.562500e-04
1.510875e-08,-3.187500e-03
1.512875e-08,-3.937500e-03
1.514875e-08,-3.062500e-03
1.516875e-08,-1.250000e-03
1.518875e-08,6.562500e-04
1.520875e-08,2.093750e-03
