Measurements-streak-laser-simulataneous/Photodiode-on-Tek/1ns-lq/Tek000_ch1_20190624104903318.csv

Model,MSO64
Waveform Type,ANALOG
Horizontal Units,s
Sample Interval,1.000000e-11
Record Length,1000
Zero Index,19.125000
Vertical Units,V

TIME,CH1
-1.912500e-10,-1.750000e-03
-1.812500e-10,-3.906250e-03
-1.712500e-10,-6.343750e-03
-1.612500e-10,-8.937500e-03
-1.512500e-10,-1.137500e-02
-1.412500e-10,-1.350000e-02
-1.312500e-10,-1.503125e-02
-1.212500e-10,-1.587500e-02
-1.112500e-10,-1.590625e-02
-1.012500e-10,-1.521875e-02
-9.125000e-11,-1.381250e-02
-8.125000e-11,-1.196875e-02
-7.125000e-11,-9.843750e-03
-6.125000e-11,-7.718750e-03
-5.125000e-11,-5.781250e-03
-4.125000e-11,-4.343750e-03
-3.125000e-11,-3.500000e-03
-2.125000e-11,-3.375000e-03
-1.125000e-11,-3.875000e-03
-1.250000e-12,-5.000000e-03
8.750000e-12,-6.531250e-03
1.875000e-11,-8.343750e-03
2.875000e-11,-1.006250e-02
3.875000e-11,-1.153125e-02
4.875000e-11,-1.253125e-02
5.875000e-11,-1.290625e-02
6.875000e-11,-1.253125e-02
7.875000e-11,-1.153125e-02
8.875000e-11,-9.875000e-03
9.875000e-11,-7.812500e-03
1.087500e-10,-5.437500e-03
1.187500e-10,-3.125000e-03
1.287500e-10,-9.375000e-04
1.387500e-10,7.500000e-04
1.487500e-10,2.000000e-03
1.587500e-10,2.593750e-03
1.687500e-10,2.625000e-03
1.787500e-10,2.062500e-03
1.887500e-10,1.156250e-03
1.987500e-10,-9.375000e-05
2.087500e-10,-1.375000e-03
2.187500e-10,-2.656250e-03
2.287500e-10,-3.687500e-03
2.387500e-10,-4.562500e-03
2.487500e-10,-5.125000e-03
2.587500e-10,-5.531250e-03
2.687500e-10,-5.718750e-03
2.787500e-10,-5.937500e-03
2.887500e-10,-6.218750e-03
2.987500e-10,-6.687500e-03
3.087500e-10,-7.375000e-03
3.187500e-10,-8.375000e-03
3.287500e-10,-9.593750e-03
3.387500e-10,-1.103125e-02
3.487500e-10,-1.246875e-02
3.587500e-10,-1.387500e-02
3.687500e-10,-1.506250e-02
3.787500e-10,-1.593750e-02
3.887500e-10,-1.631250e-02
3.987500e-10,-1.628125e-02
4.087500e-10,-1.575000e-02
4.187500e-10,-1.490625e-02
4.287500e-10,-1.375000e-02
4.387500e-10,-1.253125e-02
4.487500e-10,-1.137500e-02
4.587500e-10,-1.050000e-02
4.687500e-10,-9.937500e-03
4.787500e-10,-9.906250e-03
4.887500e-10,-1.034375e-02
4.987500e-10,-1.134375e-02
5.087500e-10,-1.268750e-02
5.187500e-10,-1.431250e-02
5.287500e-10,-1.603125e-02
5.387500e-10,-1.775000e-02
5.487500e-10,-1.918750e-02
5.587500e-10,-2.031250e-02
5.687500e-10,-2.096875e-02
5.787500e-10,-2.121875e-02
5.887500e-10,-2.096875e-02
5.987500e-10,-2.037500e-02
6.087500e-10,-1.950000e-02
6.187500e-10,-1.853125e-02
6.287500e-10,-1.750000e-02
6.387500e-10,-1.665625e-02
6.487500e-10,-1.600000e-02
6.587500e-10,-1.562500e-02
6.687500e-10,-1.553125e-02
6.787500e-10,-1.575000e-02
6.887500e-10,-1.615625e-02
6.987500e-10,-1.675000e-02
7.087500e-10,-1.734375e-02
7.187500e-10,-1.793750e-02
7.287500e-10,-1.834375e-02
7.387500e-10,-1.853125e-02
7.487500e-10,-1.840625e-02
7.587500e-10,-1.796875e-02
7.687500e-10,-1.715625e-02
7.787500e-10,-1.603125e-02
7.887500e-10,-1.450000e-02
7.987500e-10,-1.271875e-02
8.087500e-10,-1.065625e-02
8.187500e-10,-8.437500e-03
8.287500e-10,-6.031250e-03
8.387500e-10,-3.656250e-03
8.487500e-10,-1.312500e-03
8.587500e-10,8.125000e-04
8.687500e-10,2.750000e-03
8.787500e-10,4.250000e-03
8.887500e-10,5.312500e-03
8.987500e-10,5.750000e-03
9.087500e-10,5.687500e-03
9.187500e-10,4.968750e-03
9.287500e-10,3.687500e-03
9.387500e-10,1.906250e-03
9.487500e-10,-1.875000e-04
9.587500e-10,-2.531250e-03
9.687500e-10,-4.875000e-03
9.787500e-10,-7.062500e-03
9.887500e-10,-8.875000e-03
9.987500e-10,-1.021875e-02
1.008750e-09,-1.093750e-02
1.018750e-09,-1.106250e-02
1.028750e-09,-1.053125e-02
1.038750e-09,-9.468750e-03
1.048750e-09,-8.000000e-03
1.058750e-09,-6.312500e-03
1.068750e-09,-4.562500e-03
1.078750e-09,-3.000000e-03
1.088750e-09,-1.718750e-03
1.098750e-09,-9.375000e-04
1.108750e-09,-5.625000e-04
1.118750e-09,-7.187500e-04
1.128750e-09,-1.281250e-03
1.138750e-09,-2.187500e-03
1.148750e-09,-3.218750e-03
1.158750e-09,-4.312500e-03
1.168750e-09,-5.281250e-03
1.178750e-09,-6.062500e-03
1.188750e-09,-6.531250e-03
1.198750e-09,-6.718750e-03
1.208750e-09,-6.625000e-03
1.218750e-09,-6.375000e-03
1.228750e-09,-6.000000e-03
1.238750e-09,-5.656250e-03
1.248750e-09,-5.406250e-03
1.258750e-09,-5.375000e-03
1.268750e-09,-5.500000e-03
1.278750e-09,-5.843750e-03
1.288750e-09,-6.312500e-03
1.298750e-09,-6.812500e-03
1.308750e-09,-7.250000e-03
1.318750e-09,-7.500000e-03
1.328750e-09,-7.468750e-03
1.338750e-09,-7.156250e-03
1.348750e-09,-6.437500e-03
1.358750e-09,-5.500000e-03
1.368750e-09,-4.343750e-03
1.378750e-09,-3.156250e-03
1.388750e-09,-2.031250e-03
1.398750e-09,-1.187500e-03
1.408750e-09,-6.875000e-04
1.418750e-09,-6.875000e-04
1.428750e-09,-1.093750e-03
1.438750e-09,-1.968750e-03
1.448750e-09,-3.125000e-03
1.458750e-09,-4.500000e-03
1.468750e-09,-5.781250e-03
1.478750e-09,-6.843750e-03
1.488750e-09,-7.500000e-03
1.498750e-09,-7.656250e-03
1.508750e-09,-7.187500e-03
1.518750e-09,-6.218750e-03
1.528750e-09,-4.812500e-03
1.538750e-09,-3.218750e-03
1.548750e-09,-1.593750e-03
1.558750e-09,-2.812500e-04
1.568750e-09,5.312500e-04
1.578750e-09,6.250000e-04
1.588750e-09,-3.125000e-05
1.598750e-09,-1.562500e-03
1.608750e-09,-3.812500e-03
1.618750e-09,-6.656250e-03
1.628750e-09,-9.750000e-03
1.638750e-09,-1.284375e-02
1.648750e-09,-1.559375e-02
1.658750e-09,-1.775000e-02
1.668750e-09,-1.896875e-02
1.678750e-09,-1.925000e-02
1.688750e-09,-1.843750e-02
1.698750e-09,-1.675000e-02
1.708750e-09,-1.418750e-02
1.718750e-09,-1.118750e-02
1.728750e-09,-7.968750e-03
1.738750e-09,-4.937500e-03
1.748750e-09,-2.312500e-03
1.758750e-09,-4.375000e-04
1.768750e-09,5.937500e-04
1.778750e-09,6.562500e-04
1.788750e-09,-6.250000e-05
1.798750e-09,-1.531250e-03
1.808750e-09,-3.437500e-03
1.818750e-09,-5.562500e-03
1.828750e-09,-7.500000e-03
1.838750e-09,-9.093750e-03
1.848750e-09,-1.006250e-02
1.858750e-09,-1.034375e-02
1.868750e-09,-9.812500e-03
1.878750e-09,-8.593750e-03
1.888750e-09,-6.812500e-03
1.898750e-09,-4.750000e-03
1.908750e-09,-2.531250e-03
1.918750e-09,-5.937500e-04
1.928750e-09,9.062500e-04
1.938750e-09,1.750000e-03
1.948750e-09,1.843750e-03
1.958750e-09,1.062500e-03
1.968750e-09,-4.687500e-04
1.978750e-09,-2.687500e-03
1.988750e-09,-5.281250e-03
1.998750e-09,-8.125000e-03
2.008750e-09,-1.087500e-02
2.018750e-09,-1.337500e-02
2.028750e-09,-1.528125e-02
2.038750e-09,-1.653125e-02
2.048750e-09,-1.693750e-02
2.058750e-09,-1.659375e-02
2.068750e-09,-1.537500e-02
2.078750e-09,-1.356250e-02
2.088750e-09,-1.118750e-02
2.098750e-09,-8.562500e-03
2.108750e-09,-5.718750e-03
2.118750e-09,-3.000000e-03
2.128750e-09,-4.687500e-04
2.138750e-09,1.625000e-03
2.148750e-09,3.312500e-03
2.158750e-09,4.406250e-03
2.168750e-09,5.031250e-03
2.178750e-09,5.062500e-03
2.188750e-09,4.687500e-03
2.198750e-09,3.875000e-03
2.208750e-09,2.781250e-03
2.218750e-09,1.375000e-03
2.228750e-09,-9.375000e-05
2.238750e-09,-1.687500e-03
2.248750e-09,-3.312500e-03
2.258750e-09,-4.937500e-03
2.268750e-09,-6.468750e-03
2.278750e-09,-7.968750e-03
2.288750e-09,-9.375000e-03
2.298750e-09,-1.071875e-02
2.308750e-09,-1.187500e-02
2.318750e-09,-1.300000e-02
2.328750e-09,-1.396875e-02
2.338750e-09,-1.481250e-02
2.348750e-09,-1.540625e-02
2.358750e-09,-1.587500e-02
2.368750e-09,-1.606250e-02
2.378750e-09,-1.606250e-02
2.388750e-09,-1.575000e-02
2.398750e-09,-1.518750e-02
2.408750e-09,-1.437500e-02
2.418750e-09,-1.337500e-02
2.428750e-09,-1.215625e-02
2.438750e-09,-1.087500e-02
2.448750e-09,-9.531250e-03
2.458750e-09,-8.312500e-03
2.468750e-09,-7.125000e-03
2.478750e-09,-6.187500e-03
2.488750e-09,-5.500000e-03
2.498750e-09,-5.093750e-03
2.508750e-09,-4.937500e-03
2.518750e-09,-5.093750e-03
2.528750e-09,-5.437500e-03
2.538750e-09,-5.937500e-03
2.548750e-09,-6.468750e-03
2.558750e-09,-7.000000e-03
2.568750e-09,-7.406250e-03
2.578750e-09,-7.625000e-03
2.588750e-09,-7.593750e-03
2.598750e-09,-7.375000e-03
2.608750e-09,-6.906250e-03
2.618750e-09,-6.343750e-03
2.628750e-09,-5.625000e-03
2.638750e-09,-5.000000e-03
2.648750e-09,-4.468750e-03
2.658750e-09,-4.218750e-03
2.668750e-09,-4.156250e-03
2.678750e-09,-4.468750e-03
2.688750e-09,-5.031250e-03
2.698750e-09,-5.875000e-03
2.708750e-09,-6.750000e-03
2.718750e-09,-7.656250e-03
2.728750e-09,-8.375000e-03
2.738750e-09,-8.812500e-03
2.748750e-09,-8.750000e-03
2.758750e-09,-8.250000e-03
2.768750e-09,-7.187500e-03
2.778750e-09,-5.687500e-03
2.788750e-09,-3.718750e-03
2.798750e-09,-1.593750e-03
2.808750e-09,5.625000e-04
2.818750e-09,2.468750e-03
2.828750e-09,3.968750e-03
2.838750e-09,4.812500e-03
2.848750e-09,4.906250e-03
2.858750e-09,4.093750e-03
2.868750e-09,2.562500e-03
2.878750e-09,2.812500e-04
2.888750e-09,-2.500000e-03
2.898750e-09,-5.562500e-03
2.908750e-09,-8.562500e-03
2.918750e-09,-1.128125e-02
2.928750e-09,-1.340625e-02
2.938750e-09,-1.484375e-02
2.948750e-09,-1.534375e-02
2.958750e-09,-1.496875e-02
2.968750e-09,-1.375000e-02
2.978750e-09,-1.190625e-02
2.988750e-09,-9.562500e-03
2.998750e-09,-7.125000e-03
3.008750e-09,-4.781250e-03
3.018750e-09,-2.843750e-03
3.028750e-09,-1.468750e-03
3.038750e-09,-9.062500e-04
3.048750e-09,-1.125000e-03
3.058750e-09,-2.187500e-03
3.068750e-09,-3.843750e-03
3.078750e-09,-6.031250e-03
3.088750e-09,-8.468750e-03
3.098750e-09,-1.093750e-02
3.108750e-09,-1.315625e-02
3.118750e-09,-1.496875e-02
3.128750e-09,-1.618750e-02
3.138750e-09,-1.681250e-02
3.148750e-09,-1.675000e-02
3.158750e-09,-1.612500e-02
3.168750e-09,-1.506250e-02
3.178750e-09,-1.375000e-02
3.188750e-09,-1.225000e-02
3.198750e-09,-1.090625e-02
3.208750e-09,-9.750000e-03
3.218750e-09,-9.000000e-03
3.228750e-09,-8.625000e-03
3.238750e-09,-8.718750e-03
3.248750e-09,-9.218750e-03
3.258750e-09,-1.012500e-02
3.268750e-09,-1.121875e-02
3.278750e-09,-1.250000e-02
3.288750e-09,-1.371875e-02
3.298750e-09,-1.487500e-02
3.308750e-09,-1.575000e-02
3.318750e-09,-1.628125e-02
3.328750e-09,-1.637500e-02
3.338750e-09,-1.606250e-02
3.348750e-09,-1.518750e-02
3.358750e-09,-1.384375e-02
3.368750e-09,-1.200000e-02
3.378750e-09,-9.843750e-03
3.388750e-09,-7.281250e-03
3.398750e-09,-4.562500e-03
3.408750e-09,-1.781250e-03
3.418750e-09,8.750000e-04
3.428750e-09,3.312500e-03
3.438750e-09,5.281250e-03
3.448750e-09,6.656250e-03
3.458750e-09,7.281250e-03
3.468750e-09,7.125000e-03
3.478750e-09,6.062500e-03
3.488750e-09,4.187500e-03
3.498750e-09,1.531250e-03
3.508750e-09,-1.687500e-03
3.518750e-09,-5.312500e-03
3.528750e-09,-9.062500e-03
3.538750e-09,-1.271875e-02
3.548750e-09,-1.590625e-02
3.558750e-09,-1.850000e-02
3.568750e-09,-2.025000e-02
3.578750e-09,-2.109375e-02
3.588750e-09,-2.096875e-02
3.598750e-09,-1.996875e-02
3.608750e-09,-1.821875e-02
3.618750e-09,-1.600000e-02
3.628750e-09,-1.350000e-02
3.638750e-09,-1.103125e-02
3.648750e-09,-8.812500e-03
3.658750e-09,-7.125000e-03
3.668750e-09,-6.000000e-03
3.678750e-09,-5.625000e-03
3.688750e-09,-5.875000e-03
3.698750e-09,-6.718750e-03
3.708750e-09,-7.906250e-03
3.718750e-09,-9.250000e-03
3.728750e-09,-1.050000e-02
3.738750e-09,-1.143750e-02
3.748750e-09,-1.187500e-02
3.758750e-09,-1.168750e-02
3.768750e-09,-1.081250e-02
3.778750e-09,-9.375000e-03
3.788750e-09,-7.375000e-03
3.798750e-09,-5.093750e-03
3.808750e-09,-2.687500e-03
3.818750e-09,-4.375000e-04
3.828750e-09,1.531250e-03
3.838750e-09,2.937500e-03
3.848750e-09,3.687500e-03
3.858750e-09,3.718750e-03
3.868750e-09,3.093750e-03
3.878750e-09,1.843750e-03
3.888750e-09,1.562500e-04
3.898750e-09,-1.843750e-03
3.908750e-09,-3.875000e-03
3.918750e-09,-5.781250e-03
3.928750e-09,-7.343750e-03
3.938750e-09,-8.500000e-03
3.948750e-09,-9.000000e-03
3.958750e-09,-8.968750e-03
3.968750e-09,-8.312500e-03
3.978750e-09,-7.187500e-03
3.988750e-09,-5.593750e-03
3.998750e-09,-3.812500e-03
4.008750e-09,-1.843750e-03
4.018750e-09,6.250000e-05
4.028750e-09,1.812500e-03
4.038750e-09,3.281250e-03
4.048750e-09,4.406250e-03
4.058750e-09,5.062500e-03
4.068750e-09,5.343750e-03
4.078750e-09,5.156250e-03
4.088750e-09,4.625000e-03
4.098750e-09,3.750000e-03
4.108750e-09,2.656250e-03
4.118750e-09,1.375000e-03
4.128750e-09,9.375000e-05
4.138750e-09,-1.187500e-03
4.148750e-09,-2.281250e-03
4.158750e-09,-3.187500e-03
4.168750e-09,-3.812500e-03
4.178750e-09,-4.187500e-03
4.188750e-09,-4.218750e-03
4.198750e-09,-4.031250e-03
4.208750e-09,-3.593750e-03
4.218750e-09,-3.031250e-03
4.228750e-09,-2.375000e-03
4.238750e-09,-1.781250e-03
4.248750e-09,-1.312500e-03
4.258750e-09,-1.125000e-03
4.268750e-09,-1.187500e-03
4.278750e-09,-1.656250e-03
4.288750e-09,-2.468750e-03
4.298750e-09,-3.687500e-03
4.308750e-09,-5.125000e-03
4.318750e-09,-6.875000e-03
4.328750e-09,-8.718750e-03
4.338750e-09,-1.062500e-02
4.348750e-09,-1.234375e-02
4.358750e-09,-1.390625e-02
4.368750e-09,-1.512500e-02
4.378750e-09,-1.600000e-02
4.388750e-09,-1.637500e-02
4.398750e-09,-1.637500e-02
4.408750e-09,-1.590625e-02
4.418750e-09,-1.509375e-02
4.428750e-09,-1.390625e-02
4.438750e-09,-1.250000e-02
4.448750e-09,-1.090625e-02
4.458750e-09,-9.250000e-03
4.468750e-09,-7.562500e-03
4.478750e-09,-5.968750e-03
4.488750e-09,-4.500000e-03
4.498750e-09,-3.281250e-03
4.508750e-09,-2.281250e-03
4.518750e-09,-1.593750e-03
4.528750e-09,-1.218750e-03
4.538750e-09,-1.187500e-03
4.548750e-09,-1.468750e-03
4.558750e-09,-2.093750e-03
4.568750e-09,-3.000000e-03
4.578750e-09,-4.187500e-03
4.588750e-09,-5.468750e-03
4.598750e-09,-6.906250e-03
4.608750e-09,-8.312500e-03
4.618750e-09,-9.656250e-03
4.628750e-09,-1.068750e-02
4.638750e-09,-1.150000e-02
4.648750e-09,-1.187500e-02
4.658750e-09,-1.190625e-02
4.668750e-09,-1.143750e-02
4.678750e-09,-1.065625e-02
4.688750e-09,-9.562500e-03
4.698750e-09,-8.375000e-03
4.708750e-09,-7.093750e-03
4.718750e-09,-6.031250e-03
4.728750e-09,-5.250000e-03
4.738750e-09,-4.968750e-03
4.748750e-09,-5.187500e-03
4.758750e-09,-6.031250e-03
4.768750e-09,-7.437500e-03
4.778750e-09,-9.343750e-03
4.788750e-09,-1.150000e-02
4.798750e-09,-1.384375e-02
4.808750e-09,-1.603125e-02
4.818750e-09,-1.793750e-02
4.828750e-09,-1.921875e-02
4.838750e-09,-1.981250e-02
4.848750e-09,-1.956250e-02
4.858750e-09,-1.853125e-02
4.868750e-09,-1.668750e-02
4.878750e-09,-1.428125e-02
4.888750e-09,-1.143750e-02
4.898750e-09,-8.500000e-03
4.908750e-09,-5.656250e-03
4.918750e-09,-3.250000e-03
4.928750e-09,-1.437500e-03
4.938750e-09,-4.062500e-04
4.948750e-09,-1.562500e-04
4.958750e-09,-7.500000e-04
4.968750e-09,-2.031250e-03
4.978750e-09,-3.875000e-03
4.988750e-09,-5.968750e-03
4.998750e-09,-8.187500e-03
5.008750e-09,-1.025000e-02
5.018750e-09,-1.200000e-02
5.028750e-09,-1.321875e-02
5.038750e-09,-1.390625e-02
5.048750e-09,-1.400000e-02
5.058750e-09,-1.365625e-02
5.068750e-09,-1.284375e-02
5.078750e-09,-1.184375e-02
5.088750e-09,-1.071875e-02
5.098750e-09,-9.656250e-03
5.108750e-09,-8.718750e-03
5.118750e-09,-8.031250e-03
5.128750e-09,-7.593750e-03
5.138750e-09,-7.468750e-03
5.148750e-09,-7.468750e-03
5.158750e-09,-7.656250e-03
5.168750e-09,-7.843750e-03
5.178750e-09,-8.062500e-03
5.188750e-09,-8.125000e-03
5.198750e-09,-8.125000e-03
5.208750e-09,-7.906250e-03
5.218750e-09,-7.593750e-03
5.228750e-09,-7.093750e-03
5.238750e-09,-6.531250e-03
5.248750e-09,-5.843750e-03
5.258750e-09,-5.156250e-03
5.268750e-09,-4.312500e-03
5.278750e-09,-3.500000e-03
5.288750e-09,-2.531250e-03
5.298750e-09,-1.531250e-03
5.308750e-09,-4.062500e-04
5.318750e-09,7.187500e-04
5.328750e-09,1.875000e-03
5.338750e-09,2.875000e-03
5.348750e-09,3.718750e-03
5.358750e-09,4.187500e-03
5.368750e-09,4.187500e-03
5.378750e-09,3.562500e-03
5.388750e-09,2.343750e-03
5.398750e-09,3.750000e-04
5.408750e-09,-2.218750e-03
5.418750e-09,-5.406250e-03
5.428750e-09,-8.875000e-03
5.438750e-09,-1.250000e-02
5.448750e-09,-1.593750e-02
5.458750e-09,-1.896875e-02
5.468750e-09,-2.125000e-02
5.478750e-09,-2.268750e-02
5.488750e-09,-2.306250e-02
5.498750e-09,-2.243750e-02
5.508750e-09,-2.075000e-02
5.518750e-09,-1.834375e-02
5.528750e-09,-1.534375e-02
5.538750e-09,-1.218750e-02
5.548750e-09,-9.093750e-03
5.558750e-09,-6.500000e-03
5.568750e-09,-4.593750e-03
5.578750e-09,-3.656250e-03
5.588750e-09,-3.687500e-03
5.598750e-09,-4.718750e-03
5.608750e-09,-6.562500e-03
5.618750e-09,-9.093750e-03
5.628750e-09,-1.184375e-02
5.638750e-09,-1.462500e-02
5.648750e-09,-1.703125e-02
5.658750e-09,-1.884375e-02
5.668750e-09,-1.971875e-02
5.678750e-09,-1.968750e-02
5.688750e-09,-1.865625e-02
5.698750e-09,-1.681250e-02
5.708750e-09,-1.425000e-02
5.718750e-09,-1.137500e-02
5.728750e-09,-8.406250e-03
5.738750e-09,-5.812500e-03
5.748750e-09,-3.718750e-03
5.758750e-09,-2.531250e-03
5.768750e-09,-2.250000e-03
5.778750e-09,-3.062500e-03
5.788750e-09,-4.781250e-03
5.798750e-09,-7.343750e-03
5.808750e-09,-1.043750e-02
5.818750e-09,-1.384375e-02
5.828750e-09,-1.715625e-02
5.838750e-09,-2.018750e-02
5.848750e-09,-2.256250e-02
5.858750e-09,-2.418750e-02
5.868750e-09,-2.487500e-02
5.878750e-09,-2.465625e-02
5.888750e-09,-2.350000e-02
5.898750e-09,-2.165625e-02
5.908750e-09,-1.915625e-02
5.918750e-09,-1.631250e-02
5.928750e-09,-1.331250e-02
5.938750e-09,-1.040625e-02
5.948750e-09,-7.656250e-03
5.958750e-09,-5.312500e-03
5.968750e-09,-3.375000e-03
5.978750e-09,-1.906250e-03
5.988750e-09,-8.437500e-04
5.998750e-09,-2.500000e-04
6.008750e-09,9.375000e-05
6.018750e-09,1.562500e-04
6.028750e-09,1.250000e-04
6.038750e-09,-6.250000e-05
6.048750e-09,-2.500000e-04
6.058750e-09,-4.687500e-04
6.068750e-09,-5.937500e-04
6.078750e-09,-7.500000e-04
6.088750e-09,-8.750000e-04
6.098750e-09,-1.031250e-03
6.108750e-09,-1.156250e-03
6.118750e-09,-1.343750e-03
6.128750e-09,-1.531250e-03
6.138750e-09,-1.843750e-03
6.148750e-09,-2.125000e-03
6.158750e-09,-2.500000e-03
6.168750e-09,-2.937500e-03
6.178750e-09,-3.500000e-03
6.188750e-09,-4.062500e-03
6.198750e-09,-4.750000e-03
6.208750e-09,-5.468750e-03
6.218750e-09,-6.312500e-03
6.228750e-09,-7.093750e-03
6.238750e-09,-7.906250e-03
6.248750e-09,-8.625000e-03
6.258750e-09,-9.250000e-03
6.268750e-09,-9.656250e-03
6.278750e-09,-9.843750e-03
6.288750e-09,-9.750000e-03
6.298750e-09,-9.437500e-03
6.308750e-09,-8.781250e-03
6.318750e-09,-7.937500e-03
6.328750e-09,-6.906250e-03
6.338750e-09,-5.843750e-03
6.348750e-09,-4.718750e-03
6.358750e-09,-3.750000e-03
6.368750e-09,-3.000000e-03
6.378750e-09,-2.562500e-03
6.388750e-09,-2.406250e-03
6.398750e-09,-2.656250e-03
6.408750e-09,-3.250000e-03
6.418750e-09,-4.156250e-03
6.428750e-09,-5.218750e-03
6.438750e-09,-6.468750e-03
6.448750e-09,-7.687500e-03
6.458750e-09,-8.906250e-03
6.468750e-09,-9.875000e-03
6.478750e-09,-1.062500e-02
6.488750e-09,-1.106250e-02
6.498750e-09,-1.125000e-02
6.508750e-09,-1.103125e-02
6.518750e-09,-1.059375e-02
6.528750e-09,-9.875000e-03
6.538750e-09,-8.968750e-03
6.548750e-09,-7.906250e-03
6.558750e-09,-6.781250e-03
6.568750e-09,-5.593750e-03
6.578750e-09,-4.437500e-03
6.588750e-09,-3.281250e-03
6.598750e-09,-2.187500e-03
6.608750e-09,-1.125000e-03
6.618750e-09,-2.500000e-04
6.628750e-09,5.000000e-04
6.638750e-09,1.093750e-03
6.648750e-09,1.531250e-03
6.658750e-09,1.718750e-03
6.668750e-09,1.531250e-03
6.678750e-09,1.156250e-03
6.688750e-09,5.312500e-04
6.698750e-09,-3.750000e-04
6.708750e-09,-1.718750e-03
6.718750e-09,-3.000000e-03
6.728750e-09,-4.343750e-03
6.738750e-09,-5.687500e-03
6.748750e-09,-7.156250e-03
6.758750e-09,-8.093750e-03
6.768750e-09,-8.687500e-03
6.778750e-09,-8.812500e-03
6.788750e-09,-8.812500e-03
6.798750e-09,-7.906250e-03
6.808750e-09,-6.593750e-03
6.818750e-09,-4.718750e-03
6.828750e-09,-2.906250e-03
6.838750e-09,-4.375000e-04
6.848750e-09,1.937500e-03
6.858750e-09,4.343750e-03
6.868750e-09,6.093750e-03
6.878750e-09,7.843750e-03
6.888750e-09,8.875000e-03
6.898750e-09,9.406250e-03
6.908750e-09,8.906250e-03
6.918750e-09,8.281250e-03
6.928750e-09,6.906250e-03
6.938750e-09,5.500000e-03
6.948750e-09,3.750000e-03
6.958750e-09,2.875000e-03
6.968750e-09,2.531250e-03
6.978750e-09,3.843750e-03
6.988750e-09,6.656250e-03
6.998750e-09,1.237500e-02
7.008750e-09,2.062500e-02
7.018750e-09,3.262500e-02
7.028750e-09,4.803125e-02
7.038750e-09,6.803125e-02
7.048750e-09,9.187500e-02
7.058750e-09,1.203750e-01
7.068750e-09,1.527500e-01
7.078750e-09,1.895938e-01
7.088750e-09,2.296875e-01
7.098750e-09,2.732500e-01
7.108750e-09,3.190625e-01
7.118750e-09,3.671250e-01
7.128750e-09,4.160313e-01
7.138750e-09,4.655000e-01
7.148750e-09,5.142500e-01
7.158750e-09,5.619688e-01
7.168750e-09,6.073750e-01
7.178750e-09,6.500313e-01
7.188750e-09,6.889375e-01
