Measurements-streak-laser/Photodiode-on-Tek-6GHz/Tek000_ch1_20190613132812863.csv

Model,MSO64
Waveform Type,ANALOG
Horizontal Units,s
Sample Interval,4.000000e-12
Record Length,1000
Zero Index,310.890625
Vertical Units,V

TIME,CH1
-1.243562e-09,8.312500e-03
-1.239562e-09,8.343750e-03
-1.235562e-09,7.812500e-03
-1.231563e-09,7.515625e-03
-1.227563e-09,7.437500e-03
-1.223563e-09,7.609375e-03
-1.219563e-09,7.203125e-03
-1.215563e-09,7.125000e-03
-1.211563e-09,7.078125e-03
-1.207562e-09,7.046875e-03
-1.203562e-09,7.046875e-03
-1.199562e-09,7.375000e-03
-1.195562e-09,7.109375e-03
-1.191562e-09,7.046875e-03
-1.187562e-09,7.203125e-03
-1.183562e-09,7.578125e-03
-1.179562e-09,7.328125e-03
-1.175562e-09,7.375000e-03
-1.171563e-09,7.437500e-03
-1.167563e-09,7.468750e-03
-1.163563e-09,7.484375e-03
-1.159563e-09,7.796875e-03
-1.155563e-09,7.468750e-03
-1.151563e-09,7.328125e-03
-1.147562e-09,7.375000e-03
-1.143562e-09,7.593750e-03
-1.139562e-09,7.187500e-03
-1.135562e-09,7.062500e-03
-1.131562e-09,6.906250e-03
-1.127562e-09,6.750000e-03
-1.123562e-09,6.562500e-03
-1.119562e-09,6.671875e-03
-1.115562e-09,6.171875e-03
-1.111563e-09,5.843750e-03
-1.107563e-09,5.734375e-03
-1.103563e-09,5.812500e-03
-1.099563e-09,5.296875e-03
-1.095563e-09,5.078125e-03
-1.091563e-09,4.875000e-03
-1.087562e-09,4.687500e-03
-1.083562e-09,4.515625e-03
-1.079562e-09,4.671875e-03
-1.075562e-09,4.218750e-03
-1.071562e-09,4.000000e-03
-1.067562e-09,4.000000e-03
-1.063562e-09,4.234375e-03
-1.059562e-09,3.859375e-03
-1.055562e-09,3.828125e-03
-1.051563e-09,3.796875e-03
-1.047563e-09,3.796875e-03
-1.043563e-09,3.796875e-03
-1.039563e-09,4.125000e-03
-1.035563e-09,3.843750e-03
-1.031563e-09,3.765625e-03
-1.027562e-09,3.906250e-03
-1.023562e-09,4.234375e-03
-1.019562e-09,3.937500e-03
-1.015562e-09,3.953125e-03
-1.011562e-09,3.953125e-03
-1.007562e-09,3.921875e-03
-1.003562e-09,3.890625e-03
-9.995625e-10,4.125000e-03
-9.955625e-10,3.750000e-03
-9.915625e-10,3.546875e-03
-9.875625e-10,3.515625e-03
-9.835625e-10,3.671875e-03
-9.795625e-10,3.203125e-03
-9.755625e-10,3.000000e-03
-9.715625e-10,2.796875e-03
-9.675625e-10,2.578125e-03
-9.635625e-10,2.359375e-03
-9.595625e-10,2.437500e-03
-9.555625e-10,1.890625e-03
-9.515625e-10,1.562500e-03
-9.475625e-10,1.453125e-03
-9.435625e-10,1.546875e-03
-9.395625e-10,1.078125e-03
-9.355625e-10,9.218750e-04
-9.315625e-10,8.125000e-04
-9.275625e-10,7.343750e-04
-9.235625e-10,6.875000e-04
-9.195625e-10,1.000000e-03
-9.155625e-10,7.500000e-04
-9.115625e-10,7.656250e-04
-9.075625e-10,1.031250e-03
-9.035625e-10,1.546875e-03
-8.995625e-10,1.531250e-03
-8.955625e-10,1.843750e-03
-8.915625e-10,2.218750e-03
-8.875625e-10,2.656250e-03
-8.835625e-10,3.125000e-03
-8.795625e-10,3.921875e-03
-8.755625e-10,4.156250e-03
-8.715625e-10,4.625000e-03
-8.675625e-10,5.296875e-03
-8.635625e-10,6.187500e-03
-8.595625e-10,6.484375e-03
-8.555625e-10,7.062500e-03
-8.515625e-10,7.640625e-03
-8.475625e-10,8.171875e-03
-8.435625e-10,8.687500e-03
-8.395625e-10,9.453125e-03
-8.355625e-10,9.562500e-03
-8.315625e-10,9.828125e-03
-8.275625e-10,1.021875e-02
-8.235625e-10,1.075000e-02
-8.195625e-10,1.059375e-02
-8.155625e-10,1.065625e-02
-8.115625e-10,1.065625e-02
-8.075625e-10,1.056250e-02
-8.035625e-10,1.037500e-02
-7.995625e-10,1.043750e-02
-7.955625e-10,9.796875e-03
-7.915625e-10,9.281250e-03
-7.875625e-10,8.906250e-03
-7.835625e-10,8.671875e-03
-7.795625e-10,7.765625e-03
-7.755625e-10,7.125000e-03
-7.715625e-10,6.453125e-03
-7.675625e-10,5.734375e-03
-7.635625e-10,5.000000e-03
-7.595625e-10,4.562500e-03
-7.555625e-10,3.531250e-03
-7.515625e-10,2.703125e-03
-7.475625e-10,2.109375e-03
-7.435625e-10,1.734375e-03
-7.395625e-10,8.125000e-04
-7.355625e-10,2.343750e-04
-7.315625e-10,-2.812500e-04
-7.275625e-10,-7.187500e-04
-7.235625e-10,-1.093750e-03
-7.195625e-10,-1.093750e-03
-7.155625e-10,-1.609375e-03
-7.115625e-10,-1.828125e-03
-7.075625e-10,-1.781250e-03
-7.035625e-10,-1.437500e-03
-6.995625e-10,-1.609375e-03
-6.955625e-10,-1.406250e-03
-6.915625e-10,-1.140625e-03
-6.875625e-10,-7.812500e-04
-6.835625e-10,-3.750000e-04
-6.795625e-10,4.062500e-04
-6.755625e-10,6.093750e-04
-6.715625e-10,1.078125e-03
-6.675625e-10,1.765625e-03
-6.635625e-10,2.687500e-03
-6.595625e-10,3.000000e-03
-6.555625e-10,3.625000e-03
-6.515625e-10,4.250000e-03
-6.475625e-10,4.843750e-03
-6.435625e-10,5.421875e-03
-6.395625e-10,6.265625e-03
-6.355625e-10,6.468750e-03
-6.315625e-10,6.828125e-03
-6.275625e-10,7.328125e-03
-6.235625e-10,7.984375e-03
-6.195625e-10,7.968750e-03
-6.155625e-10,8.203125e-03
-6.115625e-10,8.359375e-03
-6.075625e-10,8.468750e-03
-6.035625e-10,8.500000e-03
-5.995625e-10,8.796875e-03
-5.955625e-10,8.406250e-03
-5.915625e-10,8.171875e-03
-5.875625e-10,8.093750e-03
-5.835625e-10,8.187500e-03
-5.795625e-10,7.625000e-03
-5.755625e-10,7.343750e-03
-5.715625e-10,7.031250e-03
-5.675625e-10,6.703125e-03
-5.635625e-10,6.359375e-03
-5.595625e-10,6.328125e-03
-5.555625e-10,5.687500e-03
-5.515625e-10,5.265625e-03
-5.475625e-10,5.062500e-03
-5.435625e-10,5.078125e-03
-5.395625e-10,4.515625e-03
-5.355625e-10,4.296875e-03
-5.315625e-10,4.093750e-03
-5.275625e-10,3.937500e-03
-5.235625e-10,3.828125e-03
-5.195625e-10,4.062500e-03
-5.155625e-10,3.718750e-03
-5.115625e-10,3.625000e-03
-5.075625e-10,3.765625e-03
-5.035625e-10,4.156250e-03
-4.995625e-10,3.984375e-03
-4.955625e-10,4.125000e-03
-4.915625e-10,4.296875e-03
-4.875625e-10,4.515625e-03
-4.835625e-10,4.734375e-03
-4.795625e-10,5.281250e-03
-4.755625e-10,5.218750e-03
-4.715625e-10,5.375000e-03
-4.675625e-10,5.750000e-03
-4.635625e-10,6.312500e-03
-4.595625e-10,6.265625e-03
-4.555625e-10,6.515625e-03
-4.515625e-10,6.734375e-03
-4.475625e-10,6.953125e-03
-4.435625e-10,7.140625e-03
-4.395625e-10,7.609375e-03
-4.355625e-10,7.437500e-03
-4.315625e-10,7.453125e-03
-4.275625e-10,7.656250e-03
-4.235625e-10,8.015625e-03
-4.195625e-10,7.750000e-03
-4.155625e-10,7.750000e-03
-4.115625e-10,7.718750e-03
-4.075625e-10,7.640625e-03
-4.035625e-10,7.546875e-03
-3.995625e-10,7.734375e-03
-3.955625e-10,7.265625e-03
-3.915625e-10,7.000000e-03
-3.875625e-10,6.906250e-03
-3.835625e-10,7.000000e-03
-3.795625e-10,6.484375e-03
-3.755625e-10,6.234375e-03
-3.715625e-10,5.953125e-03
-3.675625e-10,5.671875e-03
-3.635625e-10,5.375000e-03
-3.595625e-10,5.375000e-03
-3.555625e-10,4.781250e-03
-3.515625e-10,4.375000e-03
-3.475625e-10,4.171875e-03
-3.435625e-10,4.187500e-03
-3.395625e-10,3.609375e-03
-3.355625e-10,3.343750e-03
-3.315625e-10,3.062500e-03
-3.275625e-10,2.781250e-03
-3.235625e-10,2.546875e-03
-3.195625e-10,2.625000e-03
-3.155625e-10,2.125000e-03
-3.115625e-10,1.843750e-03
-3.075625e-10,1.828125e-03
-3.035625e-10,2.015625e-03
-2.995625e-10,1.656250e-03
-2.955625e-10,1.640625e-03
-2.915625e-10,1.609375e-03
-2.875625e-10,1.609375e-03
-2.835625e-10,1.687500e-03
-2.795625e-10,2.093750e-03
-2.755625e-10,1.953125e-03
-2.715625e-10,2.031250e-03
-2.675625e-10,2.390625e-03
-2.635625e-10,2.953125e-03
-2.595625e-10,3.000000e-03
-2.555625e-10,3.359375e-03
-2.515625e-10,3.718750e-03
-2.475625e-10,4.093750e-03
-2.435625e-10,4.562500e-03
-2.395625e-10,5.296875e-03
-2.355625e-10,5.500000e-03
-2.315625e-10,5.875000e-03
-2.275625e-10,6.484375e-03
-2.235625e-10,7.281250e-03
-2.195625e-10,7.500000e-03
-2.155625e-10,8.015625e-03
-2.115625e-10,8.468750e-03
-2.075625e-10,8.875000e-03
-2.035625e-10,9.328125e-03
-1.995625e-10,9.984375e-03
-1.955625e-10,1.006250e-02
-1.915625e-10,1.026563e-02
-1.875625e-10,1.065625e-02
-1.835625e-10,1.117188e-02
-1.795625e-10,1.104688e-02
-1.755625e-10,1.117188e-02
-1.715625e-10,1.123438e-02
-1.675625e-10,1.120313e-02
-1.635625e-10,1.118750e-02
-1.595625e-10,1.137500e-02
-1.555625e-10,1.100000e-02
-1.515625e-10,1.071875e-02
-1.475625e-10,1.062500e-02
-1.435625e-10,1.071875e-02
-1.395625e-10,1.018750e-02
-1.355625e-10,9.937500e-03
-1.315625e-10,9.671875e-03
-1.275625e-10,9.406250e-03
-1.235625e-10,9.203125e-03
-1.195625e-10,9.281250e-03
-1.155625e-10,8.890625e-03
-1.115625e-10,8.687500e-03
-1.075625e-10,8.734375e-03
-1.035625e-10,9.078125e-03
-9.956250e-11,8.890625e-03
-9.556250e-11,9.093750e-03
-9.156250e-11,9.375000e-03
-8.756250e-11,9.750000e-03
-8.356250e-11,1.028125e-02
-7.956250e-11,1.117188e-02
-7.556250e-11,1.170313e-02
-7.156250e-11,1.248438e-02
-6.756250e-11,1.357813e-02
-6.356250e-11,1.501563e-02
-5.956250e-11,1.600000e-02
-5.556250e-11,1.739063e-02
-5.156250e-11,1.889063e-02
-4.756250e-11,2.051563e-02
-4.356250e-11,2.228125e-02
-3.956250e-11,2.443750e-02
-3.556250e-11,2.620313e-02
-3.156250e-11,2.820313e-02
-2.756250e-11,3.046875e-02
-2.356250e-11,3.306250e-02
-1.956250e-11,3.517188e-02
-1.556250e-11,3.760938e-02
-1.156250e-11,4.012500e-02
-7.562500e-12,4.270313e-02
-3.562500e-12,4.535938e-02
4.375000e-13,4.835938e-02
4.437500e-12,5.089063e-02
8.437500e-12,5.362500e-02
1.243750e-11,5.654688e-02
1.643750e-11,5.971875e-02
2.043750e-11,6.240625e-02
2.443750e-11,6.534375e-02
2.843750e-11,6.832813e-02
3.243750e-11,7.134375e-02
3.643750e-11,7.439063e-02
4.043750e-11,7.776563e-02
4.443750e-11,8.065625e-02
4.843750e-11,8.373438e-02
5.243750e-11,8.696875e-02
5.643750e-11,9.045313e-02
6.043750e-11,9.343750e-02
6.443750e-11,9.668750e-02
6.843750e-11,9.993750e-02
7.243750e-11,1.032500e-01
7.643750e-11,1.065469e-01
8.043750e-11,1.101719e-01
8.443750e-11,1.132969e-01
8.843750e-11,1.165938e-01
9.243750e-11,1.200156e-01
9.643750e-11,1.236406e-01
1.004375e-10,1.267500e-01
1.044375e-10,1.300625e-01
1.084375e-10,1.333438e-01
1.124375e-10,1.365938e-01
1.164375e-10,1.397656e-01
1.204375e-10,1.431875e-01
1.244375e-10,1.460313e-01
1.284375e-10,1.489375e-01
1.324375e-10,1.518906e-01
1.364375e-10,1.549063e-01
1.404375e-10,1.573281e-01
1.444375e-10,1.598438e-01
1.484375e-10,1.622031e-01
1.524375e-10,1.644375e-01
1.564375e-10,1.664844e-01
1.604375e-10,1.686406e-01
1.644375e-10,1.701406e-01
1.684375e-10,1.716094e-01
1.724375e-10,1.730156e-01
1.764375e-10,1.743906e-01
1.804375e-10,1.751094e-01
1.844375e-10,1.758594e-01
1.884375e-10,1.764063e-01
1.924375e-10,1.767813e-01
1.964375e-10,1.769375e-01
2.004375e-10,1.771563e-01
2.044375e-10,1.767344e-01
2.084375e-10,1.762813e-01
2.124375e-10,1.757813e-01
2.164375e-10,1.752813e-01
2.204375e-10,1.741563e-01
2.244375e-10,1.731250e-01
2.284375e-10,1.719531e-01
2.324375e-10,1.706563e-01
2.364375e-10,1.692344e-01
2.404375e-10,1.679219e-01
2.444375e-10,1.660625e-01
2.484375e-10,1.642500e-01
2.524375e-10,1.625000e-01
2.564375e-10,1.608281e-01
2.604375e-10,1.585938e-01
2.644375e-10,1.565625e-01
2.684375e-10,1.544688e-01
2.724375e-10,1.523281e-01
2.764375e-10,1.501406e-01
2.804375e-10,1.481250e-01
2.844375e-10,1.455938e-01
2.884375e-10,1.432188e-01
2.924375e-10,1.409063e-01
2.964375e-10,1.387500e-01
3.004375e-10,1.360469e-01
3.044375e-10,1.336094e-01
3.084375e-10,1.311094e-01
3.124375e-10,1.285938e-01
3.164375e-10,1.260625e-01
3.204375e-10,1.237188e-01
3.244375e-10,1.208594e-01
3.284375e-10,1.181719e-01
3.324375e-10,1.155781e-01
3.364375e-10,1.131250e-01
3.404375e-10,1.101563e-01
3.444375e-10,1.074688e-01
3.484375e-10,1.047500e-01
3.524375e-10,1.020469e-01
3.564375e-10,9.932813e-02
3.604375e-10,9.684375e-02
3.644375e-10,9.385938e-02
3.684375e-10,9.110938e-02
3.724375e-10,8.848438e-02
3.764375e-10,8.606250e-02
3.804375e-10,8.315625e-02
3.844375e-10,8.057813e-02
3.884375e-10,7.804688e-02
3.924375e-10,7.557813e-02
3.964375e-10,7.317188e-02
4.004375e-10,7.106250e-02
4.044375e-10,6.848438e-02
4.084375e-10,6.620313e-02
4.124375e-10,6.414063e-02
4.164375e-10,6.231250e-02
4.204375e-10,6.006250e-02
4.244375e-10,5.817188e-02
4.284375e-10,5.639063e-02
4.324375e-10,5.468750e-02
4.364375e-10,5.309375e-02
4.404375e-10,5.182813e-02
4.444375e-10,5.007813e-02
4.484375e-10,4.864063e-02
4.524375e-10,4.743750e-02
4.564375e-10,4.645313e-02
4.604375e-10,4.504688e-02
4.644375e-10,4.396875e-02
4.684375e-10,4.296875e-02
4.724375e-10,4.203125e-02
4.764375e-10,4.114063e-02
4.804375e-10,4.056250e-02
4.844375e-10,3.943750e-02
4.884375e-10,3.857813e-02
4.924375e-10,3.792188e-02
4.964375e-10,3.740625e-02
5.004375e-10,3.645313e-02
5.044375e-10,3.575000e-02
5.084375e-10,3.509375e-02
5.124375e-10,3.445313e-02
5.164375e-10,3.379688e-02
5.204375e-10,3.343750e-02
5.244375e-10,3.251563e-02
5.284375e-10,3.179688e-02
5.324375e-10,3.128125e-02
5.364375e-10,3.090625e-02
5.404375e-10,3.004688e-02
5.444375e-10,2.943750e-02
5.484375e-10,2.889063e-02
5.524375e-10,2.834375e-02
5.564375e-10,2.778125e-02
5.604375e-10,2.753125e-02
5.644375e-10,2.671875e-02
5.684375e-10,2.612500e-02
5.724375e-10,2.575000e-02
5.764375e-10,2.554688e-02
5.804375e-10,2.484375e-02
5.844375e-10,2.440625e-02
5.884375e-10,2.406250e-02
5.924375e-10,2.370313e-02
5.964375e-10,2.332813e-02
6.004375e-10,2.326563e-02
6.044375e-10,2.264063e-02
6.084375e-10,2.221875e-02
6.124375e-10,2.203125e-02
6.164375e-10,2.198438e-02
6.204375e-10,2.140625e-02
6.244375e-10,2.107813e-02
6.284375e-10,2.081250e-02
6.324375e-10,2.051563e-02
6.364375e-10,2.015625e-02
6.404375e-10,2.006250e-02
6.444375e-10,1.939063e-02
6.484375e-10,1.887500e-02
6.524375e-10,1.856250e-02
6.564375e-10,1.837500e-02
6.604375e-10,1.759375e-02
6.644375e-10,1.706250e-02
6.684375e-10,1.654688e-02
6.724375e-10,1.598438e-02
6.764375e-10,1.535938e-02
6.804375e-10,1.498438e-02
6.844375e-10,1.403125e-02
6.884375e-10,1.323438e-02
6.924375e-10,1.264063e-02
6.964375e-10,1.221875e-02
7.004375e-10,1.121875e-02
7.044375e-10,1.050000e-02
7.084375e-10,9.812500e-03
7.124375e-10,9.140625e-03
7.164375e-10,8.437500e-03
7.204375e-10,8.062500e-03
7.244375e-10,7.125000e-03
7.284375e-10,6.421875e-03
7.324375e-10,5.984375e-03
7.364375e-10,5.781250e-03
7.404375e-10,5.031250e-03
7.444375e-10,4.625000e-03
7.484375e-10,4.296875e-03
7.524375e-10,4.046875e-03
7.564375e-10,3.796875e-03
7.604375e-10,3.921875e-03
7.644375e-10,3.515625e-03
7.684375e-10,3.359375e-03
7.724375e-10,3.484375e-03
7.764375e-10,3.843750e-03
7.804375e-10,3.656250e-03
7.844375e-10,3.828125e-03
7.884375e-10,4.046875e-03
7.924375e-10,4.296875e-03
7.964375e-10,4.546875e-03
8.004375e-10,5.109375e-03
8.044375e-10,5.109375e-03
8.084375e-10,5.312500e-03
8.124375e-10,5.718750e-03
8.164375e-10,6.328125e-03
8.204375e-10,6.312500e-03
8.244375e-10,6.593750e-03
8.284375e-10,6.843750e-03
8.324375e-10,7.078125e-03
8.364375e-10,7.250000e-03
8.404375e-10,7.703125e-03
8.444375e-10,7.500000e-03
8.484375e-10,7.468750e-03
8.524375e-10,7.593750e-03
8.564375e-10,7.875000e-03
8.604375e-10,7.515625e-03
8.644375e-10,7.406250e-03
8.684375e-10,7.281250e-03
8.724375e-10,7.109375e-03
8.764375e-10,6.890625e-03
8.804375e-10,6.953125e-03
8.844375e-10,6.406250e-03
8.884375e-10,6.031250e-03
8.924375e-10,5.843750e-03
8.964375e-10,5.875000e-03
9.004375e-10,5.296875e-03
9.044375e-10,5.015625e-03
9.084375e-10,4.765625e-03
9.124375e-10,4.546875e-03
9.164375e-10,4.343750e-03
9.204375e-10,4.468750e-03
9.244375e-10,4.031250e-03
9.284375e-10,3.828125e-03
9.324375e-10,3.875000e-03
9.364375e-10,4.156250e-03
9.404375e-10,3.906250e-03
9.444375e-10,3.984375e-03
9.484375e-10,4.125000e-03
9.524375e-10,4.296875e-03
9.564375e-10,4.515625e-03
9.604375e-10,5.062500e-03
9.644375e-10,5.046875e-03
9.684375e-10,5.265625e-03
9.724375e-10,5.718750e-03
9.764375e-10,6.390625e-03
9.804375e-10,6.468750e-03
9.844375e-10,6.859375e-03
9.884375e-10,7.250000e-03
9.924375e-10,7.625000e-03
9.964375e-10,7.984375e-03
1.000437e-09,8.625000e-03
1.004437e-09,8.640625e-03
1.008437e-09,8.828125e-03
1.012437e-09,9.171875e-03
1.016437e-09,9.687500e-03
1.020438e-09,9.531250e-03
1.024438e-09,9.640625e-03
1.028438e-09,9.703125e-03
1.032438e-09,9.703125e-03
1.036438e-09,9.640625e-03
1.040438e-09,9.828125e-03
1.044437e-09,9.375000e-03
1.048437e-09,9.062500e-03
1.052437e-09,8.906250e-03
1.056437e-09,8.906250e-03
1.060437e-09,8.265625e-03
1.064437e-09,7.890625e-03
1.068437e-09,7.500000e-03
1.072437e-09,7.093750e-03
1.076437e-09,6.671875e-03
1.080438e-09,6.546875e-03
1.084438e-09,5.828125e-03
1.088438e-09,5.312500e-03
1.092438e-09,5.015625e-03
1.096438e-09,4.968750e-03
1.100438e-09,4.328125e-03
1.104437e-09,4.046875e-03
1.108437e-09,3.812500e-03
1.112437e-09,3.625000e-03
1.116437e-09,3.484375e-03
1.120437e-09,3.703125e-03
1.124437e-09,3.390625e-03
1.128437e-09,3.343750e-03
1.132437e-09,3.546875e-03
1.136437e-09,4.031250e-03
1.140438e-09,3.968750e-03
1.144438e-09,4.250000e-03
1.148438e-09,4.593750e-03
1.152438e-09,5.000000e-03
1.156438e-09,5.437500e-03
1.160438e-09,6.203125e-03
1.164437e-09,6.406250e-03
1.168437e-09,6.843750e-03
1.172437e-09,7.484375e-03
1.176437e-09,8.343750e-03
1.180437e-09,8.593750e-03
1.184437e-09,9.140625e-03
1.188437e-09,9.656250e-03
1.192437e-09,1.017188e-02
1.196437e-09,1.064063e-02
1.200438e-09,1.139063e-02
1.204438e-09,1.148438e-02
1.208438e-09,1.173438e-02
1.212438e-09,1.212500e-02
1.216438e-09,1.267188e-02
1.220438e-09,1.256250e-02
1.224437e-09,1.268750e-02
1.228437e-09,1.276563e-02
1.232437e-09,1.276563e-02
1.236437e-09,1.271875e-02
1.240437e-09,1.292188e-02
1.244437e-09,1.246875e-02
1.248437e-09,1.215625e-02
1.252437e-09,1.201563e-02
1.256437e-09,1.203125e-02
1.260438e-09,1.142188e-02
1.264438e-09,1.107813e-02
1.268438e-09,1.071875e-02
1.272438e-09,1.034375e-02
1.276438e-09,9.953125e-03
1.280438e-09,9.875000e-03
1.284437e-09,9.187500e-03
1.288437e-09,8.718750e-03
1.292437e-09,8.468750e-03
1.296437e-09,8.453125e-03
1.300437e-09,7.843750e-03
1.304437e-09,7.562500e-03
1.308437e-09,7.328125e-03
1.312437e-09,7.109375e-03
1.316437e-09,6.937500e-03
1.320438e-09,7.093750e-03
1.324438e-09,6.703125e-03
1.328438e-09,6.531250e-03
1.332438e-09,6.593750e-03
1.336438e-09,6.890625e-03
1.340438e-09,6.593750e-03
1.344437e-09,6.640625e-03
1.348437e-09,6.718750e-03
1.352437e-09,6.796875e-03
1.356437e-09,6.890625e-03
1.360437e-09,7.281250e-03
1.364437e-09,7.078125e-03
1.368437e-09,7.078125e-03
1.372437e-09,7.281250e-03
1.376437e-09,7.656250e-03
1.380438e-09,7.421875e-03
1.384438e-09,7.484375e-03
1.388438e-09,7.515625e-03
1.392438e-09,7.515625e-03
1.396438e-09,7.500000e-03
1.400438e-09,7.765625e-03
1.404437e-09,7.406250e-03
1.408437e-09,7.203125e-03
1.412437e-09,7.187500e-03
1.416437e-09,7.343750e-03
1.420437e-09,6.875000e-03
1.424437e-09,6.687500e-03
1.428437e-09,6.484375e-03
1.432437e-09,6.265625e-03
1.436437e-09,6.046875e-03
1.440438e-09,6.093750e-03
1.444438e-09,5.546875e-03
1.448438e-09,5.203125e-03
1.452438e-09,5.046875e-03
1.456438e-09,5.109375e-03
1.460438e-09,4.562500e-03
1.464437e-09,4.343750e-03
1.468437e-09,4.140625e-03
1.472437e-09,3.937500e-03
1.476437e-09,3.765625e-03
1.480437e-09,3.906250e-03
1.484437e-09,3.468750e-03
1.488437e-09,3.265625e-03
1.492437e-09,3.265625e-03
1.496437e-09,3.500000e-03
1.500438e-09,3.156250e-03
1.504438e-09,3.140625e-03
1.508438e-09,3.125000e-03
1.512438e-09,3.140625e-03
1.516438e-09,3.187500e-03
1.520438e-09,3.531250e-03
1.524437e-09,3.296875e-03
1.528437e-09,3.265625e-03
1.532437e-09,3.453125e-03
1.536437e-09,3.843750e-03
1.540437e-09,3.640625e-03
1.544437e-09,3.734375e-03
1.548437e-09,3.843750e-03
1.552437e-09,3.937500e-03
1.556437e-09,4.046875e-03
1.560437e-09,4.453125e-03
1.564438e-09,4.250000e-03
1.568438e-09,4.250000e-03
1.572438e-09,4.437500e-03
1.576438e-09,4.843750e-03
1.580438e-09,4.640625e-03
1.584437e-09,4.734375e-03
1.588437e-09,4.843750e-03
1.592437e-09,4.937500e-03
1.596437e-09,5.062500e-03
1.600437e-09,5.484375e-03
1.604437e-09,5.312500e-03
1.608437e-09,5.359375e-03
1.612437e-09,5.625000e-03
1.616437e-09,6.093750e-03
1.620437e-09,6.000000e-03
1.624438e-09,6.203125e-03
1.628438e-09,6.453125e-03
1.632438e-09,6.703125e-03
1.636438e-09,6.984375e-03
1.640438e-09,7.593750e-03
1.644437e-09,7.609375e-03
1.648437e-09,7.843750e-03
1.652437e-09,8.296875e-03
1.656437e-09,8.984375e-03
1.660437e-09,9.062500e-03
1.664437e-09,9.453125e-03
1.668437e-09,9.859375e-03
1.672437e-09,1.025000e-02
1.676437e-09,1.065625e-02
1.680437e-09,1.134375e-02
1.684438e-09,1.140625e-02
1.688438e-09,1.167188e-02
1.692438e-09,1.209375e-02
1.696438e-09,1.270313e-02
1.700438e-09,1.267188e-02
1.704437e-09,1.290625e-02
1.708437e-09,1.309375e-02
1.712437e-09,1.321875e-02
1.716437e-09,1.331250e-02
1.720437e-09,1.365625e-02
1.724437e-09,1.332813e-02
1.728437e-09,1.314063e-02
1.732437e-09,1.310938e-02
1.736437e-09,1.321875e-02
1.740437e-09,1.265625e-02
1.744438e-09,1.234375e-02
1.748438e-09,1.198438e-02
1.752438e-09,1.156250e-02
1.756438e-09,1.109375e-02
