Measurements-streak-laser/Photodiode-on-Tek-6GHz/Tek000_ch1_20190613132709281.csv

Model,MSO64
Waveform Type,ANALOG
Horizontal Units,s
Sample Interval,4.000000e-12
Record Length,1000
Zero Index,310.726562
Vertical Units,V

TIME,CH1
-1.242906e-09,4.500000e-03
-1.238906e-09,4.500000e-03
-1.234906e-09,4.515625e-03
-1.230906e-09,4.546875e-03
-1.226906e-09,4.875000e-03
-1.222906e-09,4.593750e-03
-1.218906e-09,4.546875e-03
-1.214906e-09,4.703125e-03
-1.210906e-09,5.062500e-03
-1.206906e-09,4.843750e-03
-1.202906e-09,4.937500e-03
-1.198906e-09,5.031250e-03
-1.194906e-09,5.156250e-03
-1.190906e-09,5.281250e-03
-1.186906e-09,5.734375e-03
-1.182906e-09,5.593750e-03
-1.178906e-09,5.656250e-03
-1.174906e-09,5.937500e-03
-1.170906e-09,6.421875e-03
-1.166906e-09,6.312500e-03
-1.162906e-09,6.484375e-03
-1.158906e-09,6.687500e-03
-1.154906e-09,6.875000e-03
-1.150906e-09,7.046875e-03
-1.146906e-09,7.531250e-03
-1.142906e-09,7.406250e-03
-1.138906e-09,7.468750e-03
-1.134906e-09,7.718750e-03
-1.130906e-09,8.156250e-03
-1.126906e-09,7.984375e-03
-1.122906e-09,8.109375e-03
-1.118906e-09,8.218750e-03
-1.114906e-09,8.312500e-03
-1.110906e-09,8.390625e-03
-1.106906e-09,8.765625e-03
-1.102906e-09,8.531250e-03
-1.098906e-09,8.484375e-03
-1.094906e-09,8.640625e-03
-1.090906e-09,8.984375e-03
-1.086906e-09,8.734375e-03
-1.082906e-09,8.781250e-03
-1.078906e-09,8.843750e-03
-1.074906e-09,8.890625e-03
-1.070906e-09,8.953125e-03
-1.066906e-09,9.328125e-03
-1.062906e-09,9.093750e-03
-1.058906e-09,9.078125e-03
-1.054906e-09,9.265625e-03
-1.050906e-09,9.671875e-03
-1.046906e-09,9.484375e-03
-1.042906e-09,9.593750e-03
-1.038906e-09,9.718750e-03
-1.034906e-09,9.828125e-03
-1.030906e-09,9.953125e-03
-1.026906e-09,1.037500e-02
-1.022906e-09,1.020313e-02
-1.018906e-09,1.020313e-02
-1.014906e-09,1.040625e-02
-1.010906e-09,1.079688e-02
-1.006906e-09,1.056250e-02
-1.002906e-09,1.059375e-02
-9.989063e-10,1.062500e-02
-9.949063e-10,1.060938e-02
-9.909062e-10,1.056250e-02
-9.869062e-10,1.079688e-02
-9.829062e-10,1.039063e-02
-9.789062e-10,1.014063e-02
-9.749062e-10,1.004688e-02
-9.709062e-10,1.012500e-02
-9.669062e-10,9.562500e-03
-9.629062e-10,9.265625e-03
-9.589062e-10,8.921875e-03
-9.549063e-10,8.562500e-03
-9.509063e-10,8.171875e-03
-9.469063e-10,8.046875e-03
-9.429063e-10,7.296875e-03
-9.389063e-10,6.734375e-03
-9.349063e-10,6.375000e-03
-9.309062e-10,6.187500e-03
-9.269063e-10,5.406250e-03
-9.229063e-10,4.937500e-03
-9.189063e-10,4.468750e-03
-9.149062e-10,4.031250e-03
-9.109062e-10,3.609375e-03
-9.069062e-10,3.515625e-03
-9.029062e-10,2.843750e-03
-8.989062e-10,2.421875e-03
-8.949063e-10,2.218750e-03
-8.909063e-10,2.281250e-03
-8.869062e-10,1.781250e-03
-8.829062e-10,1.625000e-03
-8.789062e-10,1.500000e-03
-8.749062e-10,1.437500e-03
-8.709062e-10,1.421875e-03
-8.669063e-10,1.750000e-03
-8.629063e-10,1.500000e-03
-8.589063e-10,1.500000e-03
-8.549062e-10,1.734375e-03
-8.509062e-10,2.203125e-03
-8.469062e-10,2.078125e-03
-8.429062e-10,2.281250e-03
-8.389062e-10,2.484375e-03
-8.349063e-10,2.703125e-03
-8.309063e-10,2.921875e-03
-8.269062e-10,3.453125e-03
-8.229062e-10,3.343750e-03
-8.189062e-10,3.437500e-03
-8.149062e-10,3.718750e-03
-8.109062e-10,4.171875e-03
-8.069063e-10,4.000000e-03
-8.029063e-10,4.109375e-03
-7.989063e-10,4.187500e-03
-7.949062e-10,4.234375e-03
-7.909062e-10,4.250000e-03
-7.869062e-10,4.546875e-03
-7.829062e-10,4.203125e-03
-7.789062e-10,4.046875e-03
-7.749063e-10,4.078125e-03
-7.709063e-10,4.296875e-03
-7.669062e-10,3.890625e-03
-7.629062e-10,3.781250e-03
-7.589062e-10,3.671875e-03
-7.549062e-10,3.578125e-03
-7.509062e-10,3.484375e-03
-7.469063e-10,3.718750e-03
-7.429063e-10,3.359375e-03
-7.389063e-10,3.218750e-03
-7.349062e-10,3.328125e-03
-7.309062e-10,3.656250e-03
-7.269062e-10,3.437500e-03
-7.229062e-10,3.531250e-03
-7.189062e-10,3.687500e-03
-7.149063e-10,3.875000e-03
-7.109063e-10,4.093750e-03
-7.069063e-10,4.656250e-03
-7.029062e-10,4.656250e-03
-6.989062e-10,4.875000e-03
-6.949062e-10,5.343750e-03
-6.909062e-10,6.015625e-03
-6.869063e-10,6.109375e-03
-6.829063e-10,6.515625e-03
-6.789063e-10,6.921875e-03
-6.749062e-10,7.343750e-03
-6.709062e-10,7.734375e-03
-6.669062e-10,8.421875e-03
-6.629062e-10,8.468750e-03
-6.589062e-10,8.703125e-03
-6.549063e-10,9.093750e-03
-6.509063e-10,9.656250e-03
-6.469063e-10,9.546875e-03
-6.429062e-10,9.703125e-03
-6.389062e-10,9.796875e-03
-6.349062e-10,9.828125e-03
-6.309062e-10,9.812500e-03
-6.269063e-10,1.001563e-02
-6.229063e-10,9.578125e-03
-6.189063e-10,9.265625e-03
-6.149062e-10,9.109375e-03
-6.109062e-10,9.109375e-03
-6.069062e-10,8.437500e-03
-6.029062e-10,8.031250e-03
-5.989062e-10,7.593750e-03
-5.949063e-10,7.109375e-03
-5.909063e-10,6.609375e-03
-5.869063e-10,6.390625e-03
-5.829062e-10,5.562500e-03
-5.789062e-10,4.937500e-03
-5.749062e-10,4.515625e-03
-5.709062e-10,4.312500e-03
-5.669063e-10,3.515625e-03
-5.629063e-10,3.046875e-03
-5.589063e-10,2.625000e-03
-5.549062e-10,2.218750e-03
-5.509062e-10,1.875000e-03
-5.469062e-10,1.875000e-03
-5.429062e-10,1.312500e-03
-5.389062e-10,1.015625e-03
-5.349063e-10,9.531250e-04
-5.309063e-10,1.171875e-03
-5.269063e-10,8.125000e-04
-5.229062e-10,8.281250e-04
-5.189062e-10,8.750000e-04
-5.149062e-10,9.843750e-04
-5.109062e-10,1.125000e-03
-5.069063e-10,1.609375e-03
-5.029063e-10,1.515625e-03
-4.989063e-10,1.656250e-03
-4.949062e-10,2.031250e-03
-4.909062e-10,2.625000e-03
-4.869062e-10,2.625000e-03
-4.829062e-10,2.937500e-03
-4.789062e-10,3.250000e-03
-4.749063e-10,3.562500e-03
-4.709063e-10,3.875000e-03
-4.669063e-10,4.500000e-03
-4.629063e-10,4.484375e-03
-4.589063e-10,4.687500e-03
-4.549062e-10,5.062500e-03
-4.509062e-10,5.640625e-03
-4.469063e-10,5.593750e-03
-4.429062e-10,5.843750e-03
-4.389062e-10,6.062500e-03
-4.349062e-10,6.281250e-03
-4.309063e-10,6.484375e-03
-4.269062e-10,6.984375e-03
-4.229062e-10,6.875000e-03
-4.189062e-10,6.953125e-03
-4.149063e-10,7.250000e-03
-4.109062e-10,7.750000e-03
-4.069062e-10,7.656250e-03
-4.029063e-10,7.843750e-03
-3.989063e-10,8.015625e-03
-3.949062e-10,8.203125e-03
-3.909062e-10,8.375000e-03
-3.869063e-10,8.875000e-03
-3.829062e-10,8.750000e-03
-3.789062e-10,8.843750e-03
-3.749062e-10,9.156250e-03
-3.709063e-10,9.640625e-03
-3.669062e-10,9.562500e-03
-3.629062e-10,9.750000e-03
-3.589062e-10,9.859375e-03
-3.549063e-10,9.984375e-03
-3.509062e-10,1.007813e-02
-3.469062e-10,1.046875e-02
-3.429063e-10,1.021875e-02
-3.389063e-10,1.014063e-02
-3.349062e-10,1.026563e-02
-3.309062e-10,1.051563e-02
-3.269063e-10,1.018750e-02
-3.229063e-10,1.010938e-02
-3.189062e-10,9.921875e-03
-3.149062e-10,9.703125e-03
-3.109063e-10,9.468750e-03
-3.069062e-10,9.500000e-03
-3.029062e-10,8.906250e-03
-2.989062e-10,8.468750e-03
-2.949063e-10,8.265625e-03
-2.909062e-10,8.187500e-03
-2.869062e-10,7.578125e-03
-2.829063e-10,7.250000e-03
-2.789063e-10,6.828125e-03
-2.749062e-10,6.406250e-03
-2.709062e-10,6.062500e-03
-2.669063e-10,6.000000e-03
-2.629063e-10,5.390625e-03
-2.589062e-10,5.000000e-03
-2.549062e-10,4.906250e-03
-2.509063e-10,5.000000e-03
-2.469062e-10,4.609375e-03
-2.429062e-10,4.562500e-03
-2.389062e-10,4.500000e-03
-2.349063e-10,4.437500e-03
-2.309063e-10,4.546875e-03
-2.269062e-10,4.937500e-03
-2.229063e-10,4.859375e-03
-2.189062e-10,4.953125e-03
-2.149063e-10,5.375000e-03
-2.109062e-10,5.984375e-03
-2.069063e-10,6.078125e-03
-2.029062e-10,6.500000e-03
-1.989063e-10,6.859375e-03
-1.949062e-10,7.171875e-03
-1.909062e-10,7.625000e-03
-1.869062e-10,8.250000e-03
-1.829062e-10,8.390625e-03
-1.789062e-10,8.609375e-03
-1.749062e-10,9.046875e-03
-1.709063e-10,9.609375e-03
-1.669062e-10,9.531250e-03
-1.629063e-10,9.734375e-03
-1.589062e-10,9.781250e-03
-1.549063e-10,9.703125e-03
-1.509062e-10,9.718750e-03
-1.469063e-10,9.812500e-03
-1.429062e-10,9.406250e-03
-1.389063e-10,9.000000e-03
-1.349062e-10,8.781250e-03
-1.309063e-10,8.687500e-03
-1.269062e-10,7.968750e-03
-1.229062e-10,7.500000e-03
-1.189062e-10,6.937500e-03
-1.149063e-10,6.328125e-03
-1.109063e-10,5.828125e-03
-1.069063e-10,5.515625e-03
-1.029063e-10,4.812500e-03
-9.890625e-11,4.234375e-03
-9.490625e-11,3.906250e-03
-9.090625e-11,3.890625e-03
-8.690625e-11,3.375000e-03
-8.290625e-11,3.234375e-03
-7.890625e-11,3.203125e-03
-7.490625e-11,3.312500e-03
-7.090625e-11,3.656250e-03
-6.690625e-11,4.375000e-03
-6.290625e-11,4.906250e-03
-5.890625e-11,5.718750e-03
-5.490625e-11,6.906250e-03
-5.090625e-11,8.578125e-03
-4.690625e-11,9.906250e-03
-4.290625e-11,1.173438e-02
-3.890625e-11,1.381250e-02
-3.490625e-11,1.614063e-02
-3.090625e-11,1.876563e-02
-2.690625e-11,2.192188e-02
-2.290625e-11,2.492188e-02
-1.890625e-11,2.828125e-02
-1.490625e-11,3.201563e-02
-1.090625e-11,3.626563e-02
-6.906250e-12,4.025000e-02
-2.906250e-12,4.467188e-02
1.093750e-12,4.932813e-02
5.093750e-12,5.423438e-02
9.093750e-12,5.937500e-02
1.309375e-11,6.503125e-02
1.709375e-11,7.045313e-02
2.109375e-11,7.618750e-02
2.509375e-11,8.221875e-02
2.909375e-11,8.865625e-02
3.309375e-11,9.481250e-02
3.709375e-11,1.012656e-01
4.109375e-11,1.078906e-01
4.509375e-11,1.146875e-01
4.909375e-11,1.215938e-01
5.309375e-11,1.289531e-01
5.709375e-11,1.359844e-01
6.109375e-11,1.432344e-01
6.509375e-11,1.506719e-01
6.909375e-11,1.584063e-01
7.309375e-11,1.658125e-01
7.709375e-11,1.734063e-01
8.109375e-11,1.810469e-01
8.509375e-11,1.887656e-01
8.909375e-11,1.965000e-01
9.309375e-11,2.045469e-01
9.709375e-11,2.121875e-01
1.010938e-10,2.199063e-01
1.050938e-10,2.276719e-01
1.090938e-10,2.355781e-01
1.130938e-10,2.430625e-01
1.170937e-10,2.505625e-01
1.210937e-10,2.579688e-01
1.250937e-10,2.652813e-01
1.290937e-10,2.724063e-01
1.330938e-10,2.796563e-01
1.370937e-10,2.863438e-01
1.410938e-10,2.929219e-01
1.450937e-10,2.993281e-01
1.490938e-10,3.056563e-01
1.530937e-10,3.113750e-01
1.570938e-10,3.169063e-01
1.610937e-10,3.221563e-01
1.650938e-10,3.270938e-01
1.690937e-10,3.316719e-01
1.730938e-10,3.361250e-01
1.770937e-10,3.398906e-01
1.810937e-10,3.433594e-01
1.850937e-10,3.465000e-01
1.890937e-10,3.493906e-01
1.930938e-10,3.515469e-01
1.970937e-10,3.534531e-01
2.010938e-10,3.549531e-01
2.050937e-10,3.560781e-01
2.090938e-10,3.567813e-01
2.130937e-10,3.572969e-01
2.170938e-10,3.571250e-01
2.210937e-10,3.566875e-01
2.250938e-10,3.559219e-01
2.290937e-10,3.549688e-01
2.330937e-10,3.533438e-01
2.370938e-10,3.515938e-01
2.410937e-10,3.495313e-01
2.450937e-10,3.472031e-01
2.490937e-10,3.446250e-01
2.530938e-10,3.419531e-01
2.570937e-10,3.387813e-01
2.610937e-10,3.355156e-01
2.650938e-10,3.321094e-01
2.690938e-10,3.287031e-01
2.730937e-10,3.247656e-01
2.770937e-10,3.209688e-01
2.810938e-10,3.170000e-01
2.850938e-10,3.129688e-01
2.890937e-10,3.088750e-01
2.930937e-10,3.048125e-01
2.970938e-10,3.004063e-01
3.010937e-10,2.960938e-01
3.050937e-10,2.917813e-01
3.090937e-10,2.875625e-01
3.130938e-10,2.829375e-01
3.170937e-10,2.785625e-01
3.210937e-10,2.741094e-01
3.250938e-10,2.696719e-01
3.290938e-10,2.652500e-01
3.330937e-10,2.609063e-01
3.370937e-10,2.562031e-01
3.410938e-10,2.516719e-01
3.450938e-10,2.471406e-01
3.490937e-10,2.427344e-01
3.530937e-10,2.378906e-01
3.570938e-10,2.333438e-01
3.610937e-10,2.287031e-01
3.650937e-10,2.240781e-01
3.690937e-10,2.194531e-01
3.730938e-10,2.149375e-01
3.770937e-10,2.100000e-01
3.810937e-10,2.052813e-01
3.850938e-10,2.005625e-01
3.890938e-10,1.959531e-01
3.930937e-10,1.909375e-01
3.970937e-10,1.862344e-01
4.010938e-10,1.814688e-01
4.050938e-10,1.767656e-01
4.090937e-10,1.721094e-01
4.130937e-10,1.676250e-01
4.170938e-10,1.627344e-01
4.210937e-10,1.581094e-01
4.250937e-10,1.535938e-01
4.290937e-10,1.492344e-01
4.330938e-10,1.445781e-01
4.370937e-10,1.402500e-01
4.410937e-10,1.359844e-01
4.450937e-10,1.318438e-01
4.490938e-10,1.277969e-01
4.530937e-10,1.240469e-01
4.570937e-10,1.199063e-01
4.610938e-10,1.161094e-01
4.650937e-10,1.125000e-01
4.690938e-10,1.090938e-01
4.730938e-10,1.054531e-01
4.770938e-10,1.021250e-01
4.810937e-10,9.895313e-02
4.850937e-10,9.589063e-02
4.890937e-10,9.295313e-02
4.930937e-10,9.032813e-02
4.970937e-10,8.728125e-02
5.010938e-10,8.457813e-02
5.050938e-10,8.209375e-02
5.090938e-10,7.976563e-02
5.130937e-10,7.718750e-02
5.170937e-10,7.485938e-02
5.210937e-10,7.270313e-02
5.250937e-10,7.060938e-02
5.290938e-10,6.856250e-02
5.330938e-10,6.682813e-02
5.370938e-10,6.462500e-02
5.410937e-10,6.270313e-02
5.450937e-10,6.101563e-02
5.490937e-10,5.945313e-02
5.530937e-10,5.757813e-02
5.570937e-10,5.595313e-02
5.610938e-10,5.448438e-02
5.650938e-10,5.304688e-02
5.690938e-10,5.164063e-02
5.730937e-10,5.054688e-02
5.770937e-10,4.900000e-02
5.810937e-10,4.770313e-02
5.850937e-10,4.668750e-02
5.890938e-10,4.581250e-02
5.930938e-10,4.460938e-02
5.970938e-10,4.365625e-02
6.010937e-10,4.290625e-02
6.050937e-10,4.218750e-02
6.090937e-10,4.148438e-02
6.130937e-10,4.110938e-02
6.170937e-10,4.028125e-02
6.210938e-10,3.970313e-02
6.250938e-10,3.939063e-02
6.290938e-10,3.925000e-02
6.330937e-10,3.871875e-02
6.370937e-10,3.840625e-02
6.410937e-10,3.826563e-02
6.450937e-10,3.810938e-02
6.490938e-10,3.790625e-02
6.530938e-10,3.796875e-02
6.570938e-10,3.753125e-02
6.610937e-10,3.723438e-02
6.650937e-10,3.715625e-02
6.690937e-10,3.717188e-02
6.730937e-10,3.667188e-02
6.770937e-10,3.634375e-02
6.810938e-10,3.604688e-02
6.850938e-10,3.567188e-02
6.890938e-10,3.514063e-02
6.930937e-10,3.481250e-02
6.970937e-10,3.389063e-02
7.010937e-10,3.303125e-02
7.050937e-10,3.234375e-02
7.090938e-10,3.170313e-02
7.130938e-10,3.046875e-02
7.170938e-10,2.940625e-02
7.210937e-10,2.834375e-02
7.250937e-10,2.718750e-02
7.290937e-10,2.590625e-02
7.330937e-10,2.485938e-02
7.370937e-10,2.323438e-02
7.410938e-10,2.175000e-02
7.450938e-10,2.046875e-02
7.490938e-10,1.937500e-02
7.530937e-10,1.771875e-02
7.570937e-10,1.637500e-02
7.610937e-10,1.510938e-02
7.650937e-10,1.390625e-02
7.690938e-10,1.268750e-02
7.730938e-10,1.182813e-02
7.770938e-10,1.051563e-02
7.810937e-10,9.484375e-03
7.850937e-10,8.781250e-03
7.890937e-10,8.375000e-03
7.930937e-10,7.531250e-03
7.970937e-10,7.093750e-03
8.010938e-10,6.828125e-03
8.050938e-10,6.687500e-03
8.090938e-10,6.609375e-03
8.130937e-10,6.953125e-03
8.170937e-10,6.859375e-03
8.210937e-10,7.062500e-03
8.250937e-10,7.593750e-03
8.290937e-10,8.406250e-03
8.330938e-10,8.718750e-03
8.370938e-10,9.390625e-03
8.410937e-10,1.015625e-02
8.450937e-10,1.095313e-02
8.490937e-10,1.173438e-02
8.530937e-10,1.281250e-02
8.570937e-10,1.332813e-02
8.610938e-10,1.401563e-02
8.650938e-10,1.489063e-02
8.690938e-10,1.590625e-02
8.730937e-10,1.628125e-02
8.770937e-10,1.687500e-02
8.810937e-10,1.740625e-02
8.850937e-10,1.787500e-02
8.890937e-10,1.820313e-02
8.930938e-10,1.871875e-02
8.970938e-10,1.856250e-02
9.010937e-10,1.851563e-02
9.050937e-10,1.856250e-02
9.090937e-10,1.871875e-02
9.130937e-10,1.820313e-02
9.170937e-10,1.787500e-02
9.210938e-10,1.750000e-02
9.250938e-10,1.707813e-02
9.290938e-10,1.654688e-02
9.330937e-10,1.628125e-02
9.370938e-10,1.540625e-02
9.410938e-10,1.470313e-02
9.450938e-10,1.418750e-02
9.490938e-10,1.389063e-02
9.530938e-10,1.301563e-02
9.570938e-10,1.246875e-02
9.610937e-10,1.195313e-02
9.650937e-10,1.151563e-02
9.690937e-10,1.109375e-02
9.730937e-10,1.104688e-02
9.770937e-10,1.050000e-02
9.810937e-10,1.020313e-02
9.850937e-10,1.018750e-02
9.890937e-10,1.045313e-02
9.930937e-10,1.021875e-02
9.970938e-10,1.034375e-02
1.001094e-09,1.053125e-02
1.005094e-09,1.081250e-02
1.009094e-09,1.112500e-02
1.013094e-09,1.179688e-02
1.017094e-09,1.192188e-02
1.021094e-09,1.226563e-02
1.025094e-09,1.284375e-02
1.029094e-09,1.364063e-02
1.033094e-09,1.384375e-02
1.037094e-09,1.432813e-02
1.041094e-09,1.481250e-02
1.045094e-09,1.526563e-02
1.049094e-09,1.565625e-02
1.053094e-09,1.631250e-02
1.057094e-09,1.634375e-02
1.061094e-09,1.650000e-02
1.065094e-09,1.679688e-02
1.069094e-09,1.721875e-02
1.073094e-09,1.700000e-02
1.077094e-09,1.700000e-02
1.081094e-09,1.693750e-02
1.085094e-09,1.681250e-02
1.089094e-09,1.662500e-02
1.093094e-09,1.667188e-02
1.097094e-09,1.607813e-02
1.101094e-09,1.562500e-02
1.105094e-09,1.535938e-02
1.109094e-09,1.526563e-02
1.113094e-09,1.454688e-02
1.117094e-09,1.410938e-02
1.121094e-09,1.368750e-02
1.125094e-09,1.325000e-02
1.129094e-09,1.284375e-02
1.133094e-09,1.275000e-02
1.137094e-09,1.207813e-02
1.141094e-09,1.165625e-02
1.145094e-09,1.146875e-02
1.149094e-09,1.151563e-02
1.153094e-09,1.101563e-02
1.157094e-09,1.087500e-02
1.161094e-09,1.078125e-02
1.165094e-09,1.073438e-02
1.169094e-09,1.071875e-02
1.173094e-09,1.106250e-02
1.177094e-09,1.084375e-02
1.181094e-09,1.085938e-02
1.185094e-09,1.109375e-02
1.189094e-09,1.157813e-02
1.193094e-09,1.146875e-02
1.197094e-09,1.167188e-02
1.201094e-09,1.187500e-02
1.205094e-09,1.209375e-02
1.209094e-09,1.229688e-02
1.213094e-09,1.278125e-02
1.217094e-09,1.265625e-02
1.221094e-09,1.268750e-02
1.225094e-09,1.290625e-02
1.229094e-09,1.328125e-02
1.233094e-09,1.303125e-02
1.237094e-09,1.303125e-02
1.241094e-09,1.298438e-02
1.245094e-09,1.292188e-02
1.249094e-09,1.279688e-02
1.253094e-09,1.295313e-02
1.257094e-09,1.245313e-02
1.261094e-09,1.214063e-02
1.265094e-09,1.198438e-02
1.269094e-09,1.200000e-02
1.273094e-09,1.140625e-02
1.277094e-09,1.109375e-02
1.281094e-09,1.078125e-02
1.285094e-09,1.045313e-02
1.289094e-09,1.012500e-02
1.293094e-09,1.010938e-02
1.297094e-09,9.500000e-03
1.301094e-09,9.109375e-03
1.305094e-09,8.937500e-03
1.309094e-09,8.984375e-03
1.313094e-09,8.468750e-03
1.317094e-09,8.265625e-03
1.321094e-09,8.109375e-03
1.325094e-09,7.968750e-03
1.329094e-09,7.859375e-03
1.333094e-09,8.093750e-03
1.337094e-09,7.750000e-03
1.341094e-09,7.640625e-03
1.345094e-09,7.750000e-03
1.349094e-09,8.078125e-03
1.353094e-09,7.828125e-03
1.357094e-09,7.890625e-03
1.361094e-09,7.984375e-03
1.365094e-09,8.078125e-03
1.369094e-09,8.156250e-03
1.373094e-09,8.562500e-03
1.377094e-09,8.359375e-03
1.381094e-09,8.343750e-03
1.385094e-09,8.531250e-03
1.389094e-09,8.906250e-03
1.393094e-09,8.671875e-03
1.397094e-09,8.734375e-03
1.401094e-09,8.781250e-03
1.405094e-09,8.812500e-03
1.409094e-09,8.828125e-03
1.413094e-09,9.140625e-03
1.417094e-09,8.828125e-03
1.421094e-09,8.734375e-03
1.425094e-09,8.812500e-03
1.429094e-09,9.109375e-03
1.433094e-09,8.796875e-03
1.437094e-09,8.796875e-03
1.441094e-09,8.812500e-03
1.445094e-09,8.828125e-03
1.449094e-09,8.859375e-03
1.453094e-09,9.203125e-03
1.457094e-09,8.968750e-03
1.461094e-09,8.968750e-03
1.465094e-09,9.187500e-03
1.469094e-09,9.625000e-03
1.473094e-09,9.484375e-03
1.477094e-09,9.656250e-03
1.481094e-09,9.875000e-03
1.485094e-09,1.009375e-02
1.489094e-09,1.034375e-02
1.493094e-09,1.089063e-02
1.497094e-09,1.085938e-02
1.501094e-09,1.103125e-02
1.505094e-09,1.139063e-02
1.509094e-09,1.196875e-02
1.513094e-09,1.192188e-02
1.517094e-09,1.215625e-02
1.521094e-09,1.237500e-02
1.525094e-09,1.256250e-02
1.529094e-09,1.270313e-02
1.533094e-09,1.312500e-02
1.537094e-09,1.289063e-02
1.541094e-09,1.281250e-02
1.545094e-09,1.287500e-02
1.549094e-09,1.309375e-02
1.553094e-09,1.264063e-02
1.557094e-09,1.243750e-02
1.561094e-09,1.217188e-02
1.565094e-09,1.184375e-02
1.569094e-09,1.145313e-02
1.573094e-09,1.131250e-02
1.577094e-09,1.053125e-02
1.581094e-09,9.890625e-03
1.585094e-09,9.406250e-03
1.589094e-09,9.093750e-03
1.593094e-09,8.125000e-03
1.597094e-09,7.453125e-03
1.601094e-09,6.765625e-03
1.605094e-09,6.078125e-03
1.609094e-09,5.390625e-03
1.613094e-09,5.000000e-03
1.617094e-09,4.046875e-03
1.621094e-09,3.296875e-03
1.625094e-09,2.796875e-03
1.629094e-09,2.546875e-03
1.633094e-09,1.734375e-03
1.637094e-09,1.296875e-03
1.641094e-09,9.062500e-04
1.645094e-09,6.093750e-04
1.649094e-09,3.593750e-04
1.653094e-09,5.000000e-04
1.657094e-09,1.093750e-04
1.661094e-09,5.551115e-17
1.665094e-09,1.718750e-04
1.669094e-09,6.250000e-04
1.673094e-09,5.312500e-04
1.677094e-09,8.437500e-04
1.681094e-09,1.187500e-03
1.685094e-09,1.625000e-03
1.689094e-09,2.093750e-03
1.693094e-09,2.921875e-03
1.697094e-09,3.171875e-03
1.701094e-09,3.671875e-03
1.705094e-09,4.390625e-03
1.709094e-09,5.312500e-03
1.713094e-09,5.640625e-03
1.717094e-09,6.281250e-03
1.721094e-09,6.890625e-03
1.725094e-09,7.468750e-03
1.729094e-09,8.031250e-03
1.733094e-09,8.843750e-03
1.737094e-09,9.000000e-03
1.741094e-09,9.312500e-03
1.745094e-09,9.765625e-03
1.749094e-09,1.035938e-02
1.753094e-09,1.028125e-02
1.757094e-09,1.043750e-02
