Measurements-streak-laser/Photodiode-on-Tek-6GHz/Tek000_ch1_20190613132816875.csv

Model,MSO64
Waveform Type,ANALOG
Horizontal Units,s
Sample Interval,4.000000e-12
Record Length,1000
Zero Index,310.593750
Vertical Units,V

TIME,CH1
-1.242375e-09,2.781250e-03
-1.238375e-09,2.046875e-03
-1.234375e-09,1.531250e-03
-1.230375e-09,1.218750e-03
-1.226375e-09,1.125000e-03
-1.222375e-09,4.531250e-04
-1.218375e-09,1.093750e-04
-1.214375e-09,-2.031250e-04
-1.210375e-09,-4.687500e-04
-1.206375e-09,-6.875000e-04
-1.202375e-09,-5.468750e-04
-1.198375e-09,-9.687500e-04
-1.194375e-09,-1.125000e-03
-1.190375e-09,-1.031250e-03
-1.186375e-09,-6.875000e-04
-1.182375e-09,-8.906250e-04
-1.178375e-09,-7.187500e-04
-1.174375e-09,-5.312500e-04
-1.170375e-09,-2.812500e-04
-1.166375e-09,1.562500e-05
-1.162375e-09,6.406250e-04
-1.158375e-09,6.718750e-04
-1.154375e-09,9.375000e-04
-1.150375e-09,1.437500e-03
-1.146375e-09,2.125000e-03
-1.142375e-09,2.218750e-03
-1.138375e-09,2.593750e-03
-1.134375e-09,2.953125e-03
-1.130375e-09,3.312500e-03
-1.126375e-09,3.625000e-03
-1.122375e-09,4.234375e-03
-1.118375e-09,4.187500e-03
-1.114375e-09,4.296875e-03
-1.110375e-09,4.562500e-03
-1.106375e-09,5.000000e-03
-1.102375e-09,4.781250e-03
-1.098375e-09,4.812500e-03
-1.094375e-09,4.812500e-03
-1.090375e-09,4.750000e-03
-1.086375e-09,4.656250e-03
-1.082375e-09,4.828125e-03
-1.078375e-09,4.359375e-03
-1.074375e-09,4.046875e-03
-1.070375e-09,3.937500e-03
-1.066375e-09,3.984375e-03
-1.062375e-09,3.421875e-03
-1.058375e-09,3.156250e-03
-1.054375e-09,2.890625e-03
-1.050375e-09,2.609375e-03
-1.046375e-09,2.343750e-03
-1.042375e-09,2.406250e-03
-1.038375e-09,1.859375e-03
-1.034375e-09,1.546875e-03
-1.030375e-09,1.453125e-03
-1.026375e-09,1.609375e-03
-1.022375e-09,1.171875e-03
-1.018375e-09,1.078125e-03
-1.014375e-09,1.015625e-03
-1.010375e-09,9.843750e-04
-1.006375e-09,9.843750e-04
-1.002375e-09,1.328125e-03
-9.983750e-10,1.093750e-03
-9.943750e-10,1.078125e-03
-9.903750e-10,1.312500e-03
-9.863750e-10,1.765625e-03
-9.823750e-10,1.625000e-03
-9.783750e-10,1.812500e-03
-9.743750e-10,2.015625e-03
-9.703750e-10,2.234375e-03
-9.663750e-10,2.453125e-03
-9.623750e-10,2.984375e-03
-9.583750e-10,2.890625e-03
-9.543750e-10,3.015625e-03
-9.503750e-10,3.328125e-03
-9.463750e-10,3.828125e-03
-9.423750e-10,3.718750e-03
-9.383750e-10,3.890625e-03
-9.343750e-10,4.031250e-03
-9.303750e-10,4.171875e-03
-9.263750e-10,4.296875e-03
-9.223750e-10,4.703125e-03
-9.183750e-10,4.468750e-03
-9.143750e-10,4.437500e-03
-9.103750e-10,4.578125e-03
-9.063750e-10,4.906250e-03
-9.023750e-10,4.609375e-03
-8.983750e-10,4.609375e-03
-8.943750e-10,4.578125e-03
-8.903750e-10,4.546875e-03
-8.863750e-10,4.515625e-03
-8.823750e-10,4.765625e-03
-8.783750e-10,4.406250e-03
-8.743750e-10,4.250000e-03
-8.703750e-10,4.281250e-03
-8.663750e-10,4.531250e-03
-8.623750e-10,4.156250e-03
-8.583750e-10,4.093750e-03
-8.543750e-10,4.046875e-03
-8.503750e-10,3.984375e-03
-8.463750e-10,3.937500e-03
-8.423750e-10,4.187500e-03
-8.383750e-10,3.843750e-03
-8.343750e-10,3.703125e-03
-8.303750e-10,3.781250e-03
-8.263750e-10,4.046875e-03
-8.223750e-10,3.718750e-03
-8.183750e-10,3.703125e-03
-8.143750e-10,3.671875e-03
-8.103750e-10,3.656250e-03
-8.063750e-10,3.640625e-03
-8.023750e-10,3.937500e-03
-7.983750e-10,3.625000e-03
-7.943750e-10,3.500000e-03
-7.903750e-10,3.593750e-03
-7.863750e-10,3.906250e-03
-7.823750e-10,3.593750e-03
-7.783750e-10,3.593750e-03
-7.743750e-10,3.593750e-03
-7.703750e-10,3.593750e-03
-7.663750e-10,3.593750e-03
-7.623750e-10,3.921875e-03
-7.583750e-10,3.640625e-03
-7.543750e-10,3.562500e-03
-7.503750e-10,3.703125e-03
-7.463750e-10,4.046875e-03
-7.423750e-10,3.796875e-03
-7.383750e-10,3.875000e-03
-7.343750e-10,3.937500e-03
-7.303750e-10,4.031250e-03
-7.263750e-10,4.125000e-03
-7.223750e-10,4.546875e-03
-7.183750e-10,4.359375e-03
-7.143750e-10,4.390625e-03
-7.103750e-10,4.625000e-03
-7.063750e-10,5.078125e-03
-7.023750e-10,4.921875e-03
-6.983750e-10,5.078125e-03
-6.943750e-10,5.218750e-03
-6.903750e-10,5.375000e-03
-6.863750e-10,5.531250e-03
-6.823750e-10,5.984375e-03
-6.783750e-10,5.812500e-03
-6.743750e-10,5.843750e-03
-6.703750e-10,6.046875e-03
-6.663750e-10,6.453125e-03
-6.623750e-10,6.218750e-03
-6.583750e-10,6.265625e-03
-6.543750e-10,6.296875e-03
-6.503750e-10,6.281250e-03
-6.463750e-10,6.250000e-03
-6.423750e-10,6.500000e-03
-6.383750e-10,6.093750e-03
-6.343750e-10,5.859375e-03
-6.303750e-10,5.796875e-03
-6.263750e-10,5.906250e-03
-6.223750e-10,5.375000e-03
-6.183750e-10,5.109375e-03
-6.143750e-10,4.812500e-03
-6.103750e-10,4.500000e-03
-6.063750e-10,4.140625e-03
-6.023750e-10,4.078125e-03
-5.983750e-10,3.375000e-03
-5.943750e-10,2.875000e-03
-5.903750e-10,2.546875e-03
-5.863750e-10,2.421875e-03
-5.823750e-10,1.687500e-03
-5.783750e-10,1.250000e-03
-5.743750e-10,8.281250e-04
-5.703750e-10,4.062500e-04
-5.663750e-10,5.551115e-17
-5.623750e-10,-6.250000e-05
-5.583750e-10,-7.187500e-04
-5.543750e-10,-1.140625e-03
-5.503750e-10,-1.328125e-03
-5.463750e-10,-1.265625e-03
-5.423750e-10,-1.781250e-03
-5.383750e-10,-1.921875e-03
-5.343750e-10,-2.031250e-03
-5.303750e-10,-2.078125e-03
-5.263750e-10,-2.062500e-03
-5.223750e-10,-1.703125e-03
-5.183750e-10,-1.875000e-03
-5.143750e-10,-1.796875e-03
-5.103750e-10,-1.468750e-03
-5.063750e-10,-8.750000e-04
-5.023750e-10,-8.281250e-04
-4.983750e-10,-4.218750e-04
-4.943750e-10,1.562500e-05
-4.903750e-10,5.156250e-04
-4.863750e-10,1.031250e-03
-4.823750e-10,1.906250e-03
-4.783750e-10,2.203125e-03
-4.743750e-10,2.718750e-03
-4.703750e-10,3.453125e-03
-4.663750e-10,4.406250e-03
-4.623750e-10,4.765625e-03
-4.583750e-10,5.421875e-03
-4.543750e-10,6.046875e-03
-4.503750e-10,6.671875e-03
-4.463750e-10,7.250000e-03
-4.423750e-10,8.125000e-03
-4.383750e-10,8.328125e-03
-4.343750e-10,8.718750e-03
-4.303750e-10,9.250000e-03
-4.263750e-10,9.921875e-03
-4.223750e-10,9.937500e-03
-4.183750e-10,1.018750e-02
-4.143750e-10,1.034375e-02
-4.103750e-10,1.043750e-02
-4.063750e-10,1.045313e-02
-4.023750e-10,1.071875e-02
-3.983750e-10,1.026563e-02
-3.943750e-10,9.968750e-03
-3.903750e-10,9.812500e-03
-3.863750e-10,9.781250e-03
-3.823750e-10,9.093750e-03
-3.783750e-10,8.656250e-03
-3.743750e-10,8.109375e-03
-3.703750e-10,7.531250e-03
-3.663750e-10,6.921875e-03
-3.623750e-10,6.593750e-03
-3.583750e-10,5.609375e-03
-3.543750e-10,4.828125e-03
-3.503750e-10,4.265625e-03
-3.463750e-10,3.890625e-03
-3.423750e-10,2.968750e-03
-3.383750e-10,2.359375e-03
-3.343750e-10,1.703125e-03
-3.303750e-10,1.125000e-03
-3.263750e-10,5.937500e-04
-3.223750e-10,4.375000e-04
-3.183750e-10,-2.812500e-04
-3.143750e-10,-7.031250e-04
-3.103750e-10,-8.281250e-04
-3.063750e-10,-6.875000e-04
-3.023750e-10,-1.031250e-03
-2.983750e-10,-9.843750e-04
-2.943750e-10,-9.375000e-04
-2.903750e-10,-7.968750e-04
-2.863750e-10,-5.312500e-04
-2.823750e-10,9.375000e-05
-2.783750e-10,2.187500e-04
-2.743750e-10,5.937500e-04
-2.703750e-10,1.281250e-03
-2.663750e-10,2.203125e-03
-2.623750e-10,2.609375e-03
-2.583750e-10,3.375000e-03
-2.543750e-10,4.062500e-03
-2.503750e-10,4.750000e-03
-2.463750e-10,5.546875e-03
-2.423750e-10,6.578125e-03
-2.383750e-10,7.046875e-03
-2.343750e-10,7.656250e-03
-2.303750e-10,8.484375e-03
-2.263750e-10,9.421875e-03
-2.223750e-10,9.750000e-03
-2.183750e-10,1.032813e-02
-2.143750e-10,1.076563e-02
-2.103750e-10,1.106250e-02
-2.063750e-10,1.140625e-02
-2.023750e-10,1.187500e-02
-1.983750e-10,1.173438e-02
-1.943750e-10,1.164063e-02
-1.903750e-10,1.171875e-02
-1.863750e-10,1.185938e-02
-1.823750e-10,1.135938e-02
-1.783750e-10,1.107813e-02
-1.743750e-10,1.065625e-02
-1.703750e-10,1.010938e-02
-1.663750e-10,9.640625e-03
-1.623750e-10,9.281250e-03
-1.583750e-10,8.437500e-03
-1.543750e-10,7.656250e-03
-1.503750e-10,7.093750e-03
-1.463750e-10,6.718750e-03
-1.423750e-10,5.750000e-03
-1.383750e-10,5.109375e-03
-1.343750e-10,4.437500e-03
-1.303750e-10,3.765625e-03
-1.263750e-10,3.265625e-03
-1.223750e-10,3.000000e-03
-1.183750e-10,2.390625e-03
-1.143750e-10,1.937500e-03
-1.103750e-10,1.781250e-03
-1.063750e-10,1.968750e-03
-1.023750e-10,1.640625e-03
-9.837500e-11,1.734375e-03
-9.437500e-11,1.906250e-03
-9.037500e-11,2.171875e-03
-8.637500e-11,2.671875e-03
-8.237500e-11,3.484375e-03
-7.837500e-11,4.031250e-03
-7.437500e-11,4.796875e-03
-7.037500e-11,5.890625e-03
-6.637500e-11,7.343750e-03
-6.237500e-11,8.375000e-03
-5.837500e-11,9.781250e-03
-5.437500e-11,1.132813e-02
-5.037500e-11,1.300000e-02
-4.637500e-11,1.487500e-02
-4.237500e-11,1.712500e-02
-3.837500e-11,1.910938e-02
-3.437500e-11,2.132813e-02
-3.037500e-11,2.384375e-02
-2.637500e-11,2.676563e-02
-2.237500e-11,2.926563e-02
-1.837500e-11,3.215625e-02
-1.437500e-11,3.521875e-02
-1.037500e-11,3.843750e-02
-6.375000e-12,4.187500e-02
-2.375000e-12,4.575000e-02
1.625000e-12,4.937500e-02
5.625000e-12,5.331250e-02
9.625000e-12,5.754688e-02
1.362500e-11,6.223438e-02
1.762500e-11,6.662500e-02
2.162500e-11,7.140625e-02
2.562500e-11,7.642188e-02
2.962500e-11,8.167188e-02
3.362500e-11,8.714063e-02
3.762500e-11,9.312500e-02
4.162500e-11,9.890625e-02
4.562500e-11,1.050313e-01
4.962500e-11,1.114531e-01
5.362500e-11,1.183125e-01
5.762500e-11,1.249219e-01
6.162500e-11,1.318906e-01
6.562500e-11,1.390313e-01
6.962500e-11,1.463594e-01
7.362500e-11,1.538281e-01
7.762500e-11,1.617188e-01
8.162500e-11,1.692969e-01
8.562500e-11,1.770938e-01
8.962500e-11,1.850156e-01
9.362500e-11,1.931719e-01
9.762500e-11,2.009531e-01
1.016250e-10,2.088281e-01
1.056250e-10,2.166719e-01
1.096250e-10,2.244688e-01
1.136250e-10,2.321250e-01
1.176250e-10,2.399531e-01
1.216250e-10,2.472031e-01
1.256250e-10,2.543750e-01
1.296250e-10,2.614063e-01
1.336250e-10,2.683594e-01
1.376250e-10,2.746719e-01
1.416250e-10,2.808281e-01
1.456250e-10,2.866875e-01
1.496250e-10,2.922188e-01
1.536250e-10,2.973750e-01
1.576250e-10,3.024531e-01
1.616250e-10,3.067969e-01
1.656250e-10,3.108438e-01
1.696250e-10,3.145938e-01
1.736250e-10,3.180938e-01
1.776250e-10,3.208906e-01
1.816250e-10,3.234219e-01
1.856250e-10,3.255938e-01
1.896250e-10,3.274219e-01
1.936250e-10,3.288594e-01
1.976250e-10,3.301719e-01
2.016250e-10,3.308281e-01
2.056250e-10,3.312500e-01
2.096250e-10,3.314375e-01
2.136250e-10,3.314844e-01
2.176250e-10,3.309063e-01
2.216250e-10,3.302656e-01
2.256250e-10,3.293594e-01
2.296250e-10,3.282656e-01
2.336250e-10,3.269531e-01
2.376250e-10,3.256094e-01
2.416250e-10,3.237969e-01
2.456250e-10,3.219219e-01
2.496250e-10,3.199531e-01
2.536250e-10,3.179844e-01
2.576250e-10,3.155000e-01
2.616250e-10,3.131250e-01
2.656250e-10,3.105938e-01
2.696250e-10,3.079688e-01
2.736250e-10,3.052188e-01
2.776250e-10,3.025000e-01
2.816250e-10,2.993594e-01
2.856250e-10,2.962344e-01
2.896250e-10,2.930469e-01
2.936250e-10,2.898750e-01
2.976250e-10,2.861719e-01
3.016250e-10,2.826406e-01
3.056250e-10,2.789219e-01
3.096250e-10,2.751094e-01
3.136250e-10,2.711875e-01
3.176250e-10,2.672500e-01
3.216250e-10,2.628438e-01
3.256250e-10,2.585000e-01
3.296250e-10,2.540469e-01
3.336250e-10,2.496250e-01
3.376250e-10,2.446875e-01
3.416250e-10,2.399375e-01
3.456250e-10,2.350156e-01
3.496250e-10,2.300625e-01
3.536250e-10,2.250469e-01
3.576250e-10,2.200938e-01
3.616250e-10,2.146875e-01
3.656250e-10,2.094688e-01
3.696250e-10,2.042656e-01
3.736250e-10,1.991719e-01
3.776250e-10,1.936719e-01
3.816250e-10,1.885000e-01
3.856250e-10,1.833125e-01
3.896250e-10,1.782188e-01
3.936250e-10,1.732188e-01
3.976250e-10,1.684219e-01
4.016250e-10,1.632813e-01
4.056250e-10,1.584844e-01
4.096250e-10,1.538438e-01
4.136250e-10,1.494375e-01
4.176250e-10,1.447500e-01
4.216250e-10,1.404688e-01
4.256250e-10,1.362969e-01
4.296250e-10,1.322813e-01
4.336250e-10,1.284219e-01
4.376250e-10,1.248594e-01
4.416250e-10,1.209375e-01
4.456250e-10,1.173750e-01
4.496250e-10,1.140000e-01
4.536250e-10,1.108281e-01
4.576250e-10,1.073750e-01
4.616250e-10,1.042344e-01
4.656250e-10,1.012188e-01
4.696250e-10,9.826563e-02
4.736250e-10,9.537500e-02
4.776250e-10,9.276563e-02
4.816250e-10,8.967188e-02
4.856250e-10,8.685938e-02
4.896250e-10,8.420313e-02
4.936250e-10,8.164063e-02
4.976250e-10,7.875000e-02
5.016250e-10,7.607813e-02
5.056250e-10,7.350000e-02
5.096250e-10,7.093750e-02
5.136250e-10,6.839063e-02
5.176250e-10,6.612500e-02
5.216250e-10,6.335938e-02
5.256250e-10,6.085938e-02
5.296250e-10,5.857813e-02
5.336250e-10,5.642188e-02
5.376250e-10,5.396875e-02
5.416250e-10,5.178125e-02
5.456250e-10,4.979688e-02
5.496250e-10,4.787500e-02
5.536250e-10,4.603125e-02
5.576250e-10,4.457813e-02
5.616250e-10,4.270313e-02
5.656250e-10,4.117188e-02
5.696250e-10,3.998438e-02
5.736250e-10,3.900000e-02
5.776250e-10,3.778125e-02
5.816250e-10,3.687500e-02
5.856250e-10,3.625000e-02
5.896250e-10,3.571875e-02
5.936250e-10,3.526563e-02
5.976250e-10,3.521875e-02
6.016250e-10,3.475000e-02
6.056250e-10,3.457813e-02
6.096250e-10,3.471875e-02
6.136250e-10,3.501563e-02
6.176250e-10,3.495313e-02
6.216250e-10,3.510938e-02
6.256250e-10,3.542188e-02
6.296250e-10,3.568750e-02
6.336250e-10,3.589063e-02
6.376250e-10,3.632813e-02
6.416250e-10,3.617188e-02
6.456250e-10,3.614063e-02
6.496250e-10,3.623438e-02
6.536250e-10,3.634375e-02
6.576250e-10,3.585938e-02
6.616250e-10,3.546875e-02
6.656250e-10,3.503125e-02
6.696250e-10,3.442188e-02
6.736250e-10,3.359375e-02
6.776250e-10,3.289063e-02
6.816250e-10,3.150000e-02
6.856250e-10,3.010938e-02
6.896250e-10,2.882813e-02
6.936250e-10,2.756250e-02
6.976250e-10,2.564063e-02
7.016250e-10,2.384375e-02
7.056250e-10,2.204688e-02
7.096250e-10,2.015625e-02
7.136250e-10,1.812500e-02
7.176250e-10,1.632813e-02
7.216250e-10,1.398438e-02
7.256250e-10,1.182813e-02
7.296250e-10,9.921875e-03
7.336250e-10,8.234375e-03
7.376250e-10,6.078125e-03
7.416250e-10,4.281250e-03
7.456250e-10,2.640625e-03
7.496250e-10,1.140625e-03
7.536250e-10,-2.812500e-04
7.576250e-10,-1.265625e-03
7.616250e-10,-2.625000e-03
7.656250e-10,-3.609375e-03
7.696250e-10,-4.171875e-03
7.736250e-10,-4.359375e-03
7.776250e-10,-4.921875e-03
7.816250e-10,-5.000000e-03
7.856250e-10,-4.859375e-03
7.896250e-10,-4.531250e-03
7.936250e-10,-4.078125e-03
7.976250e-10,-3.187500e-03
8.016250e-10,-2.687500e-03
8.056250e-10,-1.875000e-03
8.096250e-10,-7.187500e-04
8.136250e-10,7.187500e-04
8.176250e-10,1.640625e-03
8.216250e-10,2.921875e-03
8.256250e-10,4.250000e-03
8.296250e-10,5.609375e-03
8.336250e-10,6.921875e-03
8.376250e-10,8.484375e-03
8.416250e-10,9.421875e-03
8.456250e-10,1.050000e-02
8.496250e-10,1.170313e-02
8.536250e-10,1.301563e-02
8.576250e-10,1.360938e-02
8.616250e-10,1.439063e-02
8.656250e-10,1.504688e-02
8.696250e-10,1.559375e-02
8.736250e-10,1.595313e-02
8.776250e-10,1.646875e-02
8.816250e-10,1.626563e-02
8.856250e-10,1.610938e-02
8.896250e-10,1.604688e-02
8.936250e-10,1.606250e-02
8.976250e-10,1.535938e-02
9.016250e-10,1.484375e-02
9.056250e-10,1.428125e-02
9.096250e-10,1.362500e-02
9.136250e-10,1.287500e-02
9.176250e-10,1.239063e-02
9.216250e-10,1.128125e-02
9.256250e-10,1.035938e-02
9.296250e-10,9.640625e-03
9.336250e-10,9.140625e-03
9.376250e-10,8.078125e-03
9.416250e-10,7.359375e-03
9.456250e-10,6.687500e-03
9.496250e-10,6.109375e-03
9.536250e-10,5.562500e-03
9.576250e-10,5.421875e-03
9.616250e-10,4.765625e-03
9.656250e-10,4.406250e-03
9.696250e-10,4.343750e-03
9.736250e-10,4.593750e-03
9.776250e-10,4.328125e-03
9.816250e-10,4.453125e-03
9.856250e-10,4.671875e-03
9.896250e-10,5.000000e-03
9.936250e-10,5.359375e-03
9.976250e-10,6.109375e-03
1.001625e-09,6.312500e-03
1.005625e-09,6.781250e-03
1.009625e-09,7.484375e-03
1.013625e-09,8.406250e-03
1.017625e-09,8.765625e-03
1.021625e-09,9.421875e-03
1.025625e-09,1.007813e-02
1.029625e-09,1.071875e-02
1.033625e-09,1.131250e-02
1.037625e-09,1.218750e-02
1.041625e-09,1.242188e-02
1.045625e-09,1.281250e-02
1.049625e-09,1.334375e-02
1.053625e-09,1.401563e-02
1.057625e-09,1.403125e-02
1.061625e-09,1.426563e-02
1.065625e-09,1.445313e-02
1.069625e-09,1.454688e-02
1.073625e-09,1.459375e-02
1.077625e-09,1.485938e-02
1.081625e-09,1.446875e-02
1.085625e-09,1.421875e-02
1.089625e-09,1.412500e-02
1.093625e-09,1.417188e-02
1.097625e-09,1.357813e-02
1.101625e-09,1.326563e-02
1.105625e-09,1.292188e-02
1.109625e-09,1.254688e-02
1.113625e-09,1.217188e-02
1.117625e-09,1.207813e-02
1.121625e-09,1.137500e-02
1.125625e-09,1.090625e-02
1.129625e-09,1.064063e-02
1.133625e-09,1.059375e-02
1.137625e-09,9.968750e-03
1.141625e-09,9.671875e-03
1.145625e-09,9.406250e-03
1.149625e-09,9.187500e-03
1.153625e-09,9.000000e-03
1.157625e-09,9.156250e-03
1.161625e-09,8.734375e-03
1.165625e-09,8.562500e-03
1.169625e-09,8.640625e-03
1.173625e-09,8.937500e-03
1.177625e-09,8.687500e-03
1.181625e-09,8.765625e-03
1.185625e-09,8.859375e-03
1.189625e-09,9.000000e-03
1.193625e-09,9.156250e-03
1.197625e-09,9.625000e-03
1.201625e-09,9.515625e-03
1.205625e-09,9.625000e-03
1.209625e-09,9.937500e-03
1.213625e-09,1.045313e-02
1.217625e-09,1.037500e-02
1.221625e-09,1.057813e-02
1.225625e-09,1.078125e-02
1.229625e-09,1.098438e-02
1.233625e-09,1.117188e-02
1.237625e-09,1.164063e-02
1.241625e-09,1.150000e-02
1.245625e-09,1.151563e-02
1.249625e-09,1.173438e-02
1.253625e-09,1.212500e-02
1.257625e-09,1.187500e-02
1.261625e-09,1.192188e-02
1.265625e-09,1.193750e-02
1.269625e-09,1.192188e-02
1.273625e-09,1.189063e-02
1.277625e-09,1.212500e-02
1.281625e-09,1.173438e-02
1.285625e-09,1.153125e-02
1.289625e-09,1.148438e-02
1.293625e-09,1.162500e-02
1.297625e-09,1.115625e-02
1.301625e-09,1.095313e-02
1.305625e-09,1.073438e-02
1.309625e-09,1.048438e-02
1.313625e-09,1.023438e-02
1.317625e-09,1.026563e-02
1.321625e-09,9.671875e-03
1.325625e-09,9.281250e-03
1.329625e-09,9.062500e-03
1.333625e-09,9.046875e-03
1.337625e-09,8.406250e-03
1.341625e-09,8.062500e-03
1.345625e-09,7.734375e-03
1.349625e-09,7.390625e-03
1.353625e-09,7.046875e-03
1.357625e-09,7.000000e-03
1.361625e-09,6.375000e-03
1.365625e-09,5.953125e-03
1.369625e-09,5.734375e-03
1.373625e-09,5.734375e-03
1.377625e-09,5.156250e-03
1.381625e-09,4.890625e-03
1.385625e-09,4.656250e-03
1.389625e-09,4.453125e-03
1.393625e-09,4.281250e-03
1.397625e-09,4.453125e-03
1.401625e-09,4.046875e-03
1.405625e-09,3.875000e-03
1.409625e-09,3.953125e-03
1.413625e-09,4.281250e-03
1.417625e-09,4.062500e-03
1.421625e-09,4.171875e-03
1.425625e-09,4.343750e-03
1.429625e-09,4.546875e-03
1.433625e-09,4.812500e-03
1.437625e-09,5.421875e-03
1.441625e-09,5.468750e-03
1.445625e-09,5.765625e-03
1.449625e-09,6.296875e-03
1.453625e-09,7.062500e-03
1.457625e-09,7.265625e-03
1.461625e-09,7.796875e-03
1.465625e-09,8.343750e-03
1.469625e-09,8.921875e-03
1.473625e-09,9.500000e-03
1.477625e-09,1.037500e-02
1.481625e-09,1.065625e-02
1.485625e-09,1.110938e-02
1.489625e-09,1.176563e-02
1.493625e-09,1.259375e-02
1.497625e-09,1.278125e-02
1.501625e-09,1.325000e-02
1.505625e-09,1.367188e-02
1.509625e-09,1.404688e-02
1.513625e-09,1.435938e-02
1.517625e-09,1.492188e-02
1.521625e-09,1.482813e-02
1.525625e-09,1.487500e-02
1.529625e-09,1.504688e-02
1.533625e-09,1.535938e-02
1.537625e-09,1.501563e-02
1.541625e-09,1.490625e-02
1.545625e-09,1.471875e-02
1.549625e-09,1.450000e-02
1.553625e-09,1.420313e-02
1.557625e-09,1.417188e-02
1.561625e-09,1.348438e-02
1.565625e-09,1.296875e-02
1.569625e-09,1.260938e-02
1.573625e-09,1.243750e-02
1.577625e-09,1.164063e-02
1.581625e-09,1.114063e-02
1.585625e-09,1.064063e-02
1.589625e-09,1.014063e-02
1.593625e-09,9.656250e-03
1.597625e-09,9.484375e-03
1.601625e-09,8.750000e-03
1.605625e-09,8.234375e-03
1.609625e-09,7.968750e-03
1.613625e-09,7.953125e-03
1.617625e-09,7.375000e-03
1.621625e-09,7.156250e-03
1.625625e-09,6.984375e-03
1.629625e-09,6.875000e-03
1.633625e-09,6.828125e-03
1.637625e-09,7.125000e-03
1.641625e-09,6.875000e-03
1.645625e-09,6.875000e-03
1.649625e-09,7.109375e-03
1.653625e-09,7.593750e-03
1.657625e-09,7.531250e-03
1.661625e-09,7.781250e-03
1.665625e-09,8.062500e-03
1.669625e-09,8.359375e-03
1.673625e-09,8.656250e-03
1.677625e-09,9.265625e-03
1.681625e-09,9.265625e-03
1.685625e-09,9.453125e-03
1.689625e-09,9.828125e-03
1.693625e-09,1.039063e-02
1.697625e-09,1.029688e-02
1.701625e-09,1.048438e-02
1.705625e-09,1.062500e-02
1.709625e-09,1.070313e-02
1.713625e-09,1.075000e-02
1.717625e-09,1.104688e-02
1.721625e-09,1.068750e-02
1.725625e-09,1.046875e-02
1.729625e-09,1.040625e-02
1.733625e-09,1.050000e-02
1.737625e-09,9.921875e-03
1.741625e-09,9.625000e-03
1.745625e-09,9.281250e-03
1.749625e-09,8.890625e-03
