Measurements-streak-laser/Photodiode-on-Tek-6GHz/Tek000_ch1_20190613132733450.csv

Model,MSO64
Waveform Type,ANALOG
Horizontal Units,s
Sample Interval,4.000000e-12
Record Length,1000
Zero Index,310.296875
Vertical Units,V

TIME,CH1
-1.241187e-09,6.750000e-03
-1.237187e-09,6.828125e-03
-1.233187e-09,6.875000e-03
-1.229188e-09,6.875000e-03
-1.225188e-09,7.156250e-03
-1.221188e-09,6.781250e-03
-1.217188e-09,6.562500e-03
-1.213188e-09,6.500000e-03
-1.209188e-09,6.578125e-03
-1.205187e-09,6.000000e-03
-1.201187e-09,5.687500e-03
-1.197187e-09,5.312500e-03
-1.193187e-09,4.906250e-03
-1.189187e-09,4.437500e-03
-1.185187e-09,4.250000e-03
-1.181187e-09,3.421875e-03
-1.177187e-09,2.750000e-03
-1.173187e-09,2.281250e-03
-1.169188e-09,2.000000e-03
-1.165188e-09,1.109375e-03
-1.161188e-09,5.156250e-04
-1.157188e-09,-4.687500e-05
-1.153188e-09,-5.937500e-04
-1.149188e-09,-1.125000e-03
-1.145187e-09,-1.296875e-03
-1.141187e-09,-2.031250e-03
-1.137187e-09,-2.500000e-03
-1.133187e-09,-2.718750e-03
-1.129187e-09,-2.656250e-03
-1.125187e-09,-3.140625e-03
-1.121187e-09,-3.234375e-03
-1.117187e-09,-3.265625e-03
-1.113187e-09,-3.203125e-03
-1.109188e-09,-3.062500e-03
-1.105188e-09,-2.546875e-03
-1.101188e-09,-2.578125e-03
-1.097188e-09,-2.312500e-03
-1.093188e-09,-1.781250e-03
-1.089188e-09,-1.000000e-03
-1.085187e-09,-7.656250e-04
-1.081187e-09,-1.718750e-04
-1.077187e-09,4.375000e-04
-1.073187e-09,1.093750e-03
-1.069187e-09,1.765625e-03
-1.065187e-09,2.750000e-03
-1.061187e-09,3.109375e-03
-1.057187e-09,3.687500e-03
-1.053187e-09,4.421875e-03
-1.049188e-09,5.343750e-03
-1.045188e-09,5.625000e-03
-1.041188e-09,6.156250e-03
-1.037188e-09,6.625000e-03
-1.033188e-09,7.046875e-03
-1.029188e-09,7.406250e-03
-1.025187e-09,8.015625e-03
-1.021187e-09,7.937500e-03
-1.017187e-09,7.984375e-03
-1.013187e-09,8.171875e-03
-1.009187e-09,8.500000e-03
-1.005187e-09,8.140625e-03
-1.001187e-09,8.031250e-03
-9.971875e-10,7.875000e-03
-9.931875e-10,7.656250e-03
-9.891875e-10,7.390625e-03
-9.851875e-10,7.390625e-03
-9.811875e-10,6.765625e-03
-9.771875e-10,6.312500e-03
-9.731875e-10,6.046875e-03
-9.691875e-10,5.984375e-03
-9.651875e-10,5.312500e-03
-9.611875e-10,4.953125e-03
-9.571875e-10,4.625000e-03
-9.531875e-10,4.312500e-03
-9.491875e-10,4.031250e-03
-9.451875e-10,4.093750e-03
-9.411875e-10,3.593750e-03
-9.371875e-10,3.343750e-03
-9.331875e-10,3.359375e-03
-9.291875e-10,3.609375e-03
-9.251875e-10,3.312500e-03
-9.211875e-10,3.375000e-03
-9.171875e-10,3.500000e-03
-9.131875e-10,3.656250e-03
-9.091875e-10,3.859375e-03
-9.051875e-10,4.406250e-03
-9.011875e-10,4.390625e-03
-8.971875e-10,4.609375e-03
-8.931875e-10,5.046875e-03
-8.891875e-10,5.718750e-03
-8.851875e-10,5.781250e-03
-8.811875e-10,6.156250e-03
-8.771875e-10,6.531250e-03
-8.731875e-10,6.890625e-03
-8.691875e-10,7.234375e-03
-8.651875e-10,7.859375e-03
-8.611875e-10,7.859375e-03
-8.571875e-10,8.015625e-03
-8.531875e-10,8.343750e-03
-8.491875e-10,8.812500e-03
-8.451875e-10,8.640625e-03
-8.411875e-10,8.718750e-03
-8.371875e-10,8.750000e-03
-8.331875e-10,8.734375e-03
-8.291875e-10,8.656250e-03
-8.251875e-10,8.828125e-03
-8.211875e-10,8.343750e-03
-8.171875e-10,8.031250e-03
-8.131875e-10,7.859375e-03
-8.091875e-10,7.843750e-03
-8.051875e-10,7.187500e-03
-8.011875e-10,6.812500e-03
-7.971875e-10,6.406250e-03
-7.931875e-10,5.968750e-03
-7.891875e-10,5.515625e-03
-7.851875e-10,5.359375e-03
-7.811875e-10,4.578125e-03
-7.771875e-10,4.015625e-03
-7.731875e-10,3.640625e-03
-7.691875e-10,3.500000e-03
-7.651875e-10,2.750000e-03
-7.611875e-10,2.312500e-03
-7.571875e-10,1.906250e-03
-7.531875e-10,1.531250e-03
-7.491875e-10,1.171875e-03
-7.451875e-10,1.156250e-03
-7.411875e-10,5.625000e-04
-7.371875e-10,2.031250e-04
-7.331875e-10,7.812500e-05
-7.291875e-10,2.031250e-04
-7.251875e-10,-2.500000e-04
-7.211875e-10,-3.593750e-04
-7.171875e-10,-4.375000e-04
-7.131875e-10,-4.843750e-04
-7.091875e-10,-5.000000e-04
-7.051875e-10,-1.562500e-04
-7.011875e-10,-4.062500e-04
-6.971875e-10,-4.218750e-04
-6.931875e-10,-2.031250e-04
-6.891875e-10,2.343750e-04
-6.851875e-10,1.093750e-04
-6.811875e-10,3.125000e-04
-6.771875e-10,5.156250e-04
-6.731875e-10,7.656250e-04
-6.691875e-10,1.015625e-03
-6.651875e-10,1.593750e-03
-6.611875e-10,1.593750e-03
-6.571875e-10,1.796875e-03
-6.531875e-10,2.218750e-03
-6.491875e-10,2.859375e-03
-6.451875e-10,2.890625e-03
-6.411875e-10,3.250000e-03
-6.371875e-10,3.609375e-03
-6.331875e-10,3.968750e-03
-6.291875e-10,4.343750e-03
-6.251875e-10,5.015625e-03
-6.211875e-10,5.078125e-03
-6.171875e-10,5.328125e-03
-6.131875e-10,5.796875e-03
-6.091875e-10,6.437500e-03
-6.051875e-10,6.468750e-03
-6.011875e-10,6.796875e-03
-5.971875e-10,7.093750e-03
-5.931875e-10,7.375000e-03
-5.891875e-10,7.640625e-03
-5.851875e-10,8.171875e-03
-5.811875e-10,8.062500e-03
-5.771875e-10,8.125000e-03
-5.731875e-10,8.359375e-03
-5.691875e-10,8.750000e-03
-5.651875e-10,8.484375e-03
-5.611875e-10,8.468750e-03
-5.571875e-10,8.421875e-03
-5.531875e-10,8.312500e-03
-5.491875e-10,8.156250e-03
-5.451875e-10,8.250000e-03
-5.411875e-10,7.687500e-03
-5.371875e-10,7.281250e-03
-5.331875e-10,7.015625e-03
-5.291875e-10,6.921875e-03
-5.251875e-10,6.171875e-03
-5.211875e-10,5.671875e-03
-5.171875e-10,5.140625e-03
-5.131875e-10,4.593750e-03
-5.091875e-10,4.000000e-03
-5.051875e-10,3.703125e-03
-5.011875e-10,2.781250e-03
-4.971875e-10,2.062500e-03
-4.931875e-10,1.546875e-03
-4.891875e-10,1.250000e-03
-4.851875e-10,3.593750e-04
-4.811875e-10,-1.875000e-04
-4.771875e-10,-7.187500e-04
-4.731875e-10,-1.187500e-03
-4.691875e-10,-1.625000e-03
-4.651875e-10,-1.687500e-03
-4.611875e-10,-2.296875e-03
-4.571875e-10,-2.640625e-03
-4.531875e-10,-2.687500e-03
-4.491875e-10,-2.453125e-03
-4.451875e-10,-2.750000e-03
-4.411875e-10,-2.640625e-03
-4.371875e-10,-2.484375e-03
-4.331875e-10,-2.218750e-03
-4.291875e-10,-1.890625e-03
-4.251875e-10,-1.156250e-03
-4.211875e-10,-9.687500e-04
-4.171875e-10,-5.000000e-04
-4.131875e-10,2.500000e-04
-4.091875e-10,1.250000e-03
-4.051875e-10,1.703125e-03
-4.011875e-10,2.500000e-03
-3.971875e-10,3.296875e-03
-3.931875e-10,4.125000e-03
-3.891875e-10,4.953125e-03
-3.851875e-10,6.093750e-03
-3.811875e-10,6.593750e-03
-3.771875e-10,7.296875e-03
-3.731875e-10,8.171875e-03
-3.691875e-10,9.187500e-03
-3.651875e-10,9.578125e-03
-3.611875e-10,1.020313e-02
-3.571875e-10,1.068750e-02
-3.531875e-10,1.112500e-02
-3.491875e-10,1.146875e-02
-3.451875e-10,1.204688e-02
-3.411875e-10,1.190625e-02
-3.371875e-10,1.187500e-02
-3.331875e-10,1.200000e-02
-3.291875e-10,1.218750e-02
-3.251875e-10,1.175000e-02
-3.211875e-10,1.150000e-02
-3.171875e-10,1.110938e-02
-3.131875e-10,1.064063e-02
-3.091875e-10,1.015625e-02
-3.051875e-10,9.906250e-03
-3.011875e-10,9.000000e-03
-2.971875e-10,8.250000e-03
-2.931875e-10,7.734375e-03
-2.891875e-10,7.359375e-03
-2.851875e-10,6.437500e-03
-2.811875e-10,5.828125e-03
-2.771875e-10,5.156250e-03
-2.731875e-10,4.500000e-03
-2.691875e-10,3.953125e-03
-2.651875e-10,3.718750e-03
-2.611875e-10,2.984375e-03
-2.571875e-10,2.484375e-03
-2.531875e-10,2.296875e-03
-2.491875e-10,2.359375e-03
-2.451875e-10,1.937500e-03
-2.411875e-10,1.921875e-03
-2.371875e-10,1.890625e-03
-2.331875e-10,1.921875e-03
-2.291875e-10,2.125000e-03
-2.251875e-10,2.640625e-03
-2.211875e-10,2.687500e-03
-2.171875e-10,2.937500e-03
-2.131875e-10,3.500000e-03
-2.091875e-10,4.265625e-03
-2.051875e-10,4.515625e-03
-2.011875e-10,5.093750e-03
-1.971875e-10,5.609375e-03
-1.931875e-10,6.109375e-03
-1.891875e-10,6.703125e-03
-1.851875e-10,7.484375e-03
-1.811875e-10,7.750000e-03
-1.771875e-10,8.109375e-03
-1.731875e-10,8.656250e-03
-1.691875e-10,9.328125e-03
-1.651875e-10,9.343750e-03
-1.611875e-10,9.625000e-03
-1.571875e-10,9.765625e-03
-1.531875e-10,9.796875e-03
-1.491875e-10,9.875000e-03
-1.451875e-10,1.006250e-02
-1.411875e-10,9.703125e-03
-1.371875e-10,9.390625e-03
-1.331875e-10,9.234375e-03
-1.291875e-10,9.234375e-03
-1.251875e-10,8.578125e-03
-1.211875e-10,8.171875e-03
-1.171875e-10,7.718750e-03
-1.131875e-10,7.203125e-03
-1.091875e-10,6.781250e-03
-1.051875e-10,6.578125e-03
-1.011875e-10,5.968750e-03
-9.718750e-11,5.484375e-03
-9.318750e-11,5.265625e-03
-8.918750e-11,5.343750e-03
-8.518750e-11,4.921875e-03
-8.118750e-11,4.890625e-03
-7.718750e-11,4.953125e-03
-7.318750e-11,5.156250e-03
-6.918750e-11,5.578125e-03
-6.518750e-11,6.390625e-03
-6.118750e-11,6.953125e-03
-5.718750e-11,7.828125e-03
-5.318750e-11,9.062500e-03
-4.918750e-11,1.078125e-02
-4.518750e-11,1.214063e-02
-4.118750e-11,1.398438e-02
-3.718750e-11,1.606250e-02
-3.318750e-11,1.840625e-02
-2.918750e-11,2.103125e-02
-2.518750e-11,2.417188e-02
-2.118750e-11,2.712500e-02
-1.718750e-11,3.043750e-02
-1.318750e-11,3.414063e-02
-9.187500e-12,3.834375e-02
-5.187500e-12,4.225000e-02
-1.187500e-12,4.660938e-02
2.812500e-12,5.120313e-02
6.812500e-12,5.603125e-02
1.081250e-11,6.106250e-02
1.481250e-11,6.660938e-02
1.881250e-11,7.187500e-02
2.281250e-11,7.743750e-02
2.681250e-11,8.328125e-02
3.081250e-11,8.950000e-02
3.481250e-11,9.539063e-02
3.881250e-11,1.015469e-01
4.281250e-11,1.078281e-01
4.681250e-11,1.142188e-01
5.081250e-11,1.206563e-01
5.481250e-11,1.274688e-01
5.881250e-11,1.338594e-01
6.281250e-11,1.404063e-01
6.681250e-11,1.470469e-01
7.081250e-11,1.538750e-01
7.481250e-11,1.602500e-01
7.881250e-11,1.667344e-01
8.281250e-11,1.731719e-01
8.681250e-11,1.795469e-01
9.081250e-11,1.858281e-01
9.481250e-11,1.922969e-01
9.881250e-11,1.982031e-01
1.028125e-10,2.040938e-01
1.068125e-10,2.099375e-01
1.108125e-10,2.158125e-01
1.148125e-10,2.211094e-01
1.188125e-10,2.263750e-01
1.228125e-10,2.314688e-01
1.268125e-10,2.363750e-01
1.308125e-10,2.410469e-01
1.348125e-10,2.457813e-01
1.388125e-10,2.498750e-01
1.428125e-10,2.538594e-01
1.468125e-10,2.576875e-01
1.508125e-10,2.614531e-01
1.548125e-10,2.645938e-01
1.588125e-10,2.676250e-01
1.628125e-10,2.704219e-01
1.668125e-10,2.730000e-01
1.708125e-10,2.752813e-01
1.748125e-10,2.775625e-01
1.788125e-10,2.792031e-01
1.828125e-10,2.807188e-01
1.868125e-10,2.820469e-01
1.908125e-10,2.832969e-01
1.948125e-10,2.839063e-01
1.988125e-10,2.844688e-01
2.028125e-10,2.847813e-01
2.068125e-10,2.848594e-01
2.108125e-10,2.847031e-01
2.148125e-10,2.845156e-01
2.188125e-10,2.837500e-01
2.228125e-10,2.828750e-01
2.268125e-10,2.818594e-01
2.308125e-10,2.807969e-01
2.348125e-10,2.791250e-01
2.388125e-10,2.774688e-01
2.428125e-10,2.756094e-01
2.468125e-10,2.735625e-01
2.508125e-10,2.713438e-01
2.548125e-10,2.691094e-01
2.588125e-10,2.663594e-01
2.628125e-10,2.635781e-01
2.668125e-10,2.607187e-01
2.708125e-10,2.578594e-01
2.748125e-10,2.544375e-01
2.788125e-10,2.511406e-01
2.828125e-10,2.476875e-01
2.868125e-10,2.441406e-01
2.908125e-10,2.405000e-01
2.948125e-10,2.368906e-01
2.988125e-10,2.328281e-01
3.028125e-10,2.288594e-01
3.068125e-10,2.248750e-01
3.108125e-10,2.209844e-01
3.148125e-10,2.165938e-01
3.188125e-10,2.124688e-01
3.228125e-10,2.082500e-01
3.268125e-10,2.040469e-01
3.308125e-10,1.998438e-01
3.348125e-10,1.957813e-01
3.388125e-10,1.913125e-01
3.428125e-10,1.870625e-01
3.468125e-10,1.828906e-01
3.508125e-10,1.788906e-01
3.548125e-10,1.744844e-01
3.588125e-10,1.704219e-01
3.628125e-10,1.663594e-01
3.668125e-10,1.623906e-01
3.708125e-10,1.585000e-01
3.748125e-10,1.548281e-01
3.788125e-10,1.507656e-01
3.828125e-10,1.470000e-01
3.868125e-10,1.433750e-01
3.908125e-10,1.399375e-01
3.948125e-10,1.361406e-01
3.988125e-10,1.326875e-01
4.028125e-10,1.292813e-01
4.068125e-10,1.259688e-01
4.108125e-10,1.227188e-01
4.148125e-10,1.197188e-01
4.188125e-10,1.162813e-01
4.228125e-10,1.131250e-01
4.268125e-10,1.101094e-01
4.308125e-10,1.072344e-01
4.348125e-10,1.040000e-01
4.388125e-10,1.010313e-01
4.428125e-10,9.810938e-02
4.468125e-10,9.523438e-02
4.508125e-10,9.237500e-02
4.548125e-10,8.978125e-02
4.588125e-10,8.665625e-02
4.628125e-10,8.379688e-02
4.668125e-10,8.107813e-02
4.708125e-10,7.848438e-02
4.748125e-10,7.550000e-02
4.788125e-10,7.276563e-02
4.828125e-10,7.012500e-02
4.868125e-10,6.750000e-02
4.908125e-10,6.490625e-02
4.948125e-10,6.260938e-02
4.988125e-10,5.981250e-02
5.028125e-10,5.731250e-02
5.068125e-10,5.501563e-02
5.108125e-10,5.289063e-02
5.148125e-10,5.043750e-02
5.188125e-10,4.828125e-02
5.228125e-10,4.628125e-02
5.268125e-10,4.437500e-02
5.308125e-10,4.254688e-02
5.348125e-10,4.110938e-02
5.388125e-10,3.921875e-02
5.428125e-10,3.767188e-02
5.468125e-10,3.642188e-02
5.508125e-10,3.540625e-02
5.548125e-10,3.409375e-02
5.588125e-10,3.310938e-02
5.628125e-10,3.232813e-02
5.668125e-10,3.165625e-02
5.708125e-10,3.106250e-02
5.748125e-10,3.084375e-02
5.788125e-10,3.020313e-02
5.828125e-10,2.982813e-02
5.868125e-10,2.976563e-02
5.908125e-10,2.989063e-02
5.948125e-10,2.962500e-02
5.988125e-10,2.962500e-02
6.028125e-10,2.978125e-02
6.068125e-10,2.992188e-02
6.108125e-10,3.003125e-02
6.148125e-10,3.043750e-02
6.188125e-10,3.028125e-02
6.228125e-10,3.029688e-02
6.268125e-10,3.050000e-02
6.308125e-10,3.079688e-02
6.348125e-10,3.054688e-02
6.388125e-10,3.045313e-02
6.428125e-10,3.039063e-02
6.468125e-10,3.021875e-02
6.508125e-10,2.992188e-02
6.548125e-10,2.979688e-02
6.588125e-10,2.904688e-02
6.628125e-10,2.839063e-02
6.668125e-10,2.785938e-02
6.708125e-10,2.739063e-02
6.748125e-10,2.631250e-02
6.788125e-10,2.539063e-02
6.828125e-10,2.448438e-02
6.868125e-10,2.348438e-02
6.908125e-10,2.234375e-02
6.948125e-10,2.143750e-02
6.988125e-10,1.995313e-02
7.028125e-10,1.859375e-02
7.068125e-10,1.745313e-02
7.108125e-10,1.646875e-02
7.148125e-10,1.493750e-02
7.188125e-10,1.367188e-02
7.228125e-10,1.248438e-02
7.268125e-10,1.132813e-02
7.308125e-10,1.015625e-02
7.348125e-10,9.328125e-03
7.388125e-10,8.015625e-03
7.428125e-10,6.953125e-03
7.468125e-10,6.187500e-03
7.508125e-10,5.703125e-03
7.548125e-10,4.750000e-03
7.588125e-10,4.156250e-03
7.628125e-10,3.718750e-03
7.668125e-10,3.375000e-03
7.708125e-10,3.078125e-03
7.748125e-10,3.187500e-03
7.788125e-10,2.828125e-03
7.828125e-10,2.765625e-03
7.868125e-10,3.000000e-03
7.908125e-10,3.531250e-03
7.948125e-10,3.562500e-03
7.988125e-10,3.968750e-03
8.028125e-10,4.453125e-03
8.068125e-10,5.031250e-03
8.108125e-10,5.593750e-03
8.148125e-10,6.515625e-03
8.188125e-10,6.890625e-03
8.228125e-10,7.484375e-03
8.268125e-10,8.328125e-03
8.308125e-10,9.359375e-03
8.348125e-10,9.812500e-03
8.388125e-10,1.054688e-02
8.428125e-10,1.128125e-02
8.468125e-10,1.198438e-02
8.508125e-10,1.262500e-02
8.548125e-10,1.353125e-02
8.588125e-10,1.381250e-02
8.628125e-10,1.421875e-02
8.668125e-10,1.479688e-02
8.708125e-10,1.550000e-02
8.748125e-10,1.556250e-02
8.788125e-10,1.584375e-02
8.828125e-10,1.606250e-02
8.868125e-10,1.623438e-02
8.908125e-10,1.631250e-02
8.948125e-10,1.660938e-02
8.988125e-10,1.625000e-02
9.028125e-10,1.603125e-02
9.068125e-10,1.596875e-02
9.108125e-10,1.604688e-02
9.148125e-10,1.546875e-02
9.188125e-10,1.514063e-02
9.228125e-10,1.478125e-02
9.268125e-10,1.440625e-02
9.308125e-10,1.395313e-02
9.348125e-10,1.379688e-02
9.388125e-10,1.301563e-02
9.428125e-10,1.242188e-02
9.468125e-10,1.203125e-02
9.508125e-10,1.182813e-02
9.548125e-10,1.104688e-02
9.588125e-10,1.056250e-02
9.628125e-10,1.009375e-02
9.668125e-10,9.671875e-03
9.708125e-10,9.234375e-03
9.748125e-10,9.140625e-03
9.788125e-10,8.468750e-03
9.828125e-10,8.046875e-03
9.868125e-10,7.859375e-03
9.908125e-10,7.906250e-03
9.948125e-10,7.390625e-03
9.988125e-10,7.218750e-03
1.002812e-09,7.078125e-03
1.006812e-09,7.000000e-03
1.010812e-09,6.937500e-03
1.014812e-09,7.203125e-03
1.018812e-09,6.906250e-03
1.022813e-09,6.843750e-03
1.026813e-09,7.015625e-03
1.030813e-09,7.421875e-03
1.034813e-09,7.218750e-03
1.038813e-09,7.359375e-03
1.042813e-09,7.500000e-03
1.046812e-09,7.640625e-03
1.050812e-09,7.781250e-03
1.054812e-09,8.234375e-03
1.058812e-09,8.062500e-03
1.062812e-09,8.093750e-03
1.066812e-09,8.312500e-03
1.070812e-09,8.703125e-03
1.074812e-09,8.468750e-03
1.078812e-09,8.515625e-03
1.082813e-09,8.531250e-03
1.086813e-09,8.531250e-03
1.090813e-09,8.484375e-03
1.094813e-09,8.703125e-03
1.098813e-09,8.296875e-03
1.102813e-09,8.062500e-03
1.106812e-09,7.984375e-03
1.110812e-09,8.093750e-03
1.114812e-09,7.562500e-03
1.118812e-09,7.312500e-03
1.122812e-09,7.046875e-03
1.126812e-09,6.750000e-03
1.130812e-09,6.437500e-03
1.134812e-09,6.421875e-03
1.138812e-09,5.796875e-03
1.142813e-09,5.375000e-03
1.146813e-09,5.156250e-03
1.150813e-09,5.156250e-03
1.154813e-09,4.562500e-03
1.158813e-09,4.296875e-03
1.162813e-09,4.031250e-03
1.166812e-09,3.812500e-03
1.170812e-09,3.625000e-03
1.174812e-09,3.765625e-03
1.178812e-09,3.343750e-03
1.182812e-09,3.156250e-03
1.186812e-09,3.218750e-03
1.190812e-09,3.531250e-03
1.194812e-09,3.265625e-03
1.198812e-09,3.359375e-03
1.202812e-09,3.484375e-03
1.206813e-09,3.656250e-03
1.210813e-09,3.875000e-03
1.214813e-09,4.406250e-03
1.218813e-09,4.375000e-03
1.222813e-09,4.578125e-03
1.226812e-09,5.000000e-03
1.230812e-09,5.640625e-03
1.234812e-09,5.687500e-03
1.238812e-09,6.031250e-03
1.242812e-09,6.390625e-03
1.246812e-09,6.734375e-03
1.250812e-09,7.062500e-03
1.254812e-09,7.687500e-03
1.258812e-09,7.671875e-03
1.262812e-09,7.843750e-03
1.266813e-09,8.187500e-03
1.270813e-09,8.687500e-03
1.274813e-09,8.546875e-03
1.278813e-09,8.656250e-03
1.282813e-09,8.750000e-03
1.286812e-09,8.781250e-03
1.290812e-09,8.765625e-03
1.294812e-09,9.015625e-03
1.298812e-09,8.625000e-03
1.302812e-09,8.390625e-03
1.306812e-09,8.328125e-03
1.310812e-09,8.421875e-03
1.314812e-09,7.890625e-03
1.318812e-09,7.625000e-03
1.322812e-09,7.359375e-03
1.326813e-09,7.062500e-03
1.330813e-09,6.765625e-03
1.334813e-09,6.765625e-03
1.338813e-09,6.171875e-03
1.342813e-09,5.765625e-03
1.346812e-09,5.593750e-03
1.350812e-09,5.640625e-03
1.354812e-09,5.109375e-03
1.358812e-09,4.890625e-03
1.362812e-09,4.718750e-03
1.366812e-09,4.593750e-03
1.370812e-09,4.484375e-03
1.374812e-09,4.718750e-03
1.378812e-09,4.406250e-03
1.382812e-09,4.328125e-03
1.386813e-09,4.484375e-03
1.390813e-09,4.890625e-03
1.394813e-09,4.734375e-03
1.398813e-09,4.906250e-03
1.402813e-09,5.109375e-03
1.406812e-09,5.343750e-03
1.410812e-09,5.593750e-03
1.414812e-09,6.171875e-03
1.418812e-09,6.156250e-03
1.422812e-09,6.359375e-03
1.426812e-09,6.765625e-03
1.430812e-09,7.359375e-03
1.434812e-09,7.359375e-03
1.438812e-09,7.640625e-03
1.442812e-09,7.906250e-03
1.446813e-09,8.156250e-03
1.450813e-09,8.390625e-03
1.454813e-09,8.890625e-03
1.458813e-09,8.765625e-03
1.462813e-09,8.812500e-03
1.466812e-09,9.031250e-03
1.470812e-09,9.421875e-03
1.474812e-09,9.171875e-03
1.478812e-09,9.203125e-03
1.482812e-09,9.203125e-03
1.486812e-09,9.171875e-03
1.490812e-09,9.125000e-03
1.494812e-09,9.375000e-03
1.498812e-09,9.000000e-03
1.502812e-09,8.812500e-03
1.506813e-09,8.812500e-03
1.510813e-09,9.015625e-03
1.514813e-09,8.625000e-03
1.518813e-09,8.546875e-03
1.522813e-09,8.468750e-03
1.526812e-09,8.421875e-03
1.530812e-09,8.375000e-03
1.534812e-09,8.656250e-03
1.538812e-09,8.359375e-03
1.542812e-09,8.296875e-03
1.546812e-09,8.453125e-03
1.550812e-09,8.843750e-03
1.554812e-09,8.656250e-03
1.558812e-09,8.781250e-03
1.562812e-09,8.953125e-03
1.566813e-09,9.140625e-03
1.570813e-09,9.343750e-03
1.574813e-09,9.859375e-03
1.578813e-09,9.796875e-03
1.582813e-09,9.937500e-03
1.586812e-09,1.028125e-02
1.590812e-09,1.082813e-02
1.594812e-09,1.075000e-02
1.598812e-09,1.098438e-02
1.602812e-09,1.118750e-02
1.606812e-09,1.139063e-02
1.610812e-09,1.154688e-02
1.614812e-09,1.198438e-02
1.618812e-09,1.179688e-02
1.622812e-09,1.176563e-02
1.626813e-09,1.189063e-02
1.630813e-09,1.218750e-02
1.634813e-09,1.182813e-02
1.638813e-09,1.173438e-02
1.642813e-09,1.160938e-02
1.646812e-09,1.143750e-02
1.650812e-09,1.121875e-02
1.654812e-09,1.126563e-02
1.658812e-09,1.068750e-02
1.662812e-09,1.026563e-02
1.666812e-09,1.001563e-02
1.670812e-09,9.953125e-03
1.674812e-09,9.265625e-03
1.678812e-09,8.875000e-03
1.682812e-09,8.453125e-03
1.686813e-09,8.046875e-03
1.690813e-09,7.640625e-03
1.694813e-09,7.531250e-03
1.698813e-09,6.828125e-03
1.702813e-09,6.343750e-03
1.706812e-09,6.062500e-03
1.710812e-09,6.015625e-03
1.714812e-09,5.390625e-03
1.718812e-09,5.078125e-03
1.722812e-09,4.812500e-03
1.726812e-09,4.562500e-03
1.730812e-09,4.328125e-03
1.734812e-09,4.437500e-03
1.738812e-09,3.953125e-03
1.742812e-09,3.703125e-03
1.746813e-09,3.671875e-03
1.750813e-09,3.859375e-03
