Measurements-streak-laser/Photodiode-on-Tek-6GHz/Tek000_ch1_20190613132726531.csv

Model,MSO64
Waveform Type,ANALOG
Horizontal Units,s
Sample Interval,4.000000e-12
Record Length,1000
Zero Index,310.609375
Vertical Units,V

TIME,CH1
-1.242437e-09,4.609375e-03
-1.238437e-09,4.843750e-03
-1.234437e-09,5.093750e-03
-1.230437e-09,5.359375e-03
-1.226437e-09,5.937500e-03
-1.222437e-09,5.890625e-03
-1.218438e-09,6.062500e-03
-1.214438e-09,6.421875e-03
-1.210438e-09,6.968750e-03
-1.206438e-09,6.890625e-03
-1.202438e-09,7.093750e-03
-1.198437e-09,7.265625e-03
-1.194437e-09,7.406250e-03
-1.190437e-09,7.515625e-03
-1.186437e-09,7.890625e-03
-1.182437e-09,7.609375e-03
-1.178437e-09,7.500000e-03
-1.174437e-09,7.531250e-03
-1.170437e-09,7.734375e-03
-1.166437e-09,7.296875e-03
-1.162437e-09,7.093750e-03
-1.158438e-09,6.875000e-03
-1.154438e-09,6.593750e-03
-1.150438e-09,6.281250e-03
-1.146438e-09,6.250000e-03
-1.142438e-09,5.562500e-03
-1.138437e-09,5.062500e-03
-1.134437e-09,4.734375e-03
-1.130437e-09,4.609375e-03
-1.126437e-09,3.843750e-03
-1.122437e-09,3.390625e-03
-1.118437e-09,2.937500e-03
-1.114437e-09,2.468750e-03
-1.110437e-09,2.031250e-03
-1.106437e-09,1.906250e-03
-1.102437e-09,1.187500e-03
-1.098438e-09,6.875000e-04
-1.094438e-09,4.375000e-04
-1.090438e-09,4.062500e-04
-1.086438e-09,-1.875000e-04
-1.082438e-09,-4.531250e-04
-1.078437e-09,-6.562500e-04
-1.074437e-09,-8.437500e-04
-1.070437e-09,-9.687500e-04
-1.066437e-09,-7.656250e-04
-1.062437e-09,-1.109375e-03
-1.058437e-09,-1.218750e-03
-1.054437e-09,-1.078125e-03
-1.050437e-09,-7.031250e-04
-1.046437e-09,-8.906250e-04
-1.042437e-09,-7.343750e-04
-1.038438e-09,-5.468750e-04
-1.034438e-09,-3.125000e-04
-1.030438e-09,-6.250000e-05
-1.026438e-09,5.156250e-04
-1.022438e-09,5.156250e-04
-1.018438e-09,7.500000e-04
-1.014437e-09,1.187500e-03
-1.010437e-09,1.843750e-03
-1.006437e-09,1.906250e-03
-1.002437e-09,2.281250e-03
-9.984375e-10,2.640625e-03
-9.944375e-10,3.015625e-03
-9.904375e-10,3.390625e-03
-9.864375e-10,4.062500e-03
-9.824375e-10,4.109375e-03
-9.784375e-10,4.343750e-03
-9.744375e-10,4.765625e-03
-9.704375e-10,5.375000e-03
-9.664375e-10,5.359375e-03
-9.624375e-10,5.625000e-03
-9.584375e-10,5.875000e-03
-9.544375e-10,6.078125e-03
-9.504375e-10,6.265625e-03
-9.464375e-10,6.734375e-03
-9.424375e-10,6.546875e-03
-9.384375e-10,6.546875e-03
-9.344375e-10,6.718750e-03
-9.304375e-10,7.046875e-03
-9.264375e-10,6.750000e-03
-9.224375e-10,6.718750e-03
-9.184375e-10,6.671875e-03
-9.144375e-10,6.578125e-03
-9.104375e-10,6.468750e-03
-9.064375e-10,6.625000e-03
-9.024375e-10,6.156250e-03
-8.984375e-10,5.875000e-03
-8.944375e-10,5.765625e-03
-8.904375e-10,5.859375e-03
-8.864375e-10,5.312500e-03
-8.824375e-10,5.062500e-03
-8.784375e-10,4.812500e-03
-8.744375e-10,4.562500e-03
-8.704375e-10,4.312500e-03
-8.664375e-10,4.375000e-03
-8.624375e-10,3.828125e-03
-8.584375e-10,3.500000e-03
-8.544375e-10,3.406250e-03
-8.504375e-10,3.515625e-03
-8.464375e-10,3.062500e-03
-8.424375e-10,2.921875e-03
-8.384375e-10,2.812500e-03
-8.344375e-10,2.750000e-03
-8.304375e-10,2.718750e-03
-8.264375e-10,3.046875e-03
-8.224375e-10,2.796875e-03
-8.184375e-10,2.781250e-03
-8.144375e-10,3.015625e-03
-8.104375e-10,3.500000e-03
-8.064375e-10,3.421875e-03
-8.024375e-10,3.687500e-03
-7.984375e-10,3.984375e-03
-7.944375e-10,4.328125e-03
-7.904375e-10,4.703125e-03
-7.864375e-10,5.406250e-03
-7.824375e-10,5.531250e-03
-7.784375e-10,5.890625e-03
-7.744375e-10,6.453125e-03
-7.704375e-10,7.234375e-03
-7.664375e-10,7.421875e-03
-7.624375e-10,7.906250e-03
-7.584375e-10,8.390625e-03
-7.544375e-10,8.843750e-03
-7.504375e-10,9.296875e-03
-7.464375e-10,1.001563e-02
-7.424375e-10,1.010938e-02
-7.384375e-10,1.035938e-02
-7.344375e-10,1.078125e-02
-7.304375e-10,1.135938e-02
-7.264375e-10,1.128125e-02
-7.224375e-10,1.143750e-02
-7.184375e-10,1.156250e-02
-7.144375e-10,1.160938e-02
-7.104375e-10,1.160938e-02
-7.064375e-10,1.184375e-02
-7.024375e-10,1.142188e-02
-6.984375e-10,1.114063e-02
-6.944375e-10,1.101563e-02
-6.904375e-10,1.103125e-02
-6.864375e-10,1.039063e-02
-6.824375e-10,1.001563e-02
-6.784375e-10,9.593750e-03
-6.744375e-10,9.125000e-03
-6.704375e-10,8.640625e-03
-6.664375e-10,8.437500e-03
-6.624375e-10,7.609375e-03
-6.584375e-10,6.984375e-03
-6.544375e-10,6.546875e-03
-6.504375e-10,6.328125e-03
-6.464375e-10,5.500000e-03
-6.424375e-10,5.000000e-03
-6.384375e-10,4.515625e-03
-6.344375e-10,4.078125e-03
-6.304375e-10,3.656250e-03
-6.264375e-10,3.593750e-03
-6.224375e-10,2.968750e-03
-6.184375e-10,2.578125e-03
-6.144375e-10,2.453125e-03
-6.104375e-10,2.578125e-03
-6.064375e-10,2.156250e-03
-6.024375e-10,2.078125e-03
-5.984375e-10,2.062500e-03
-5.944375e-10,2.078125e-03
-5.904375e-10,2.156250e-03
-5.864375e-10,2.578125e-03
-5.824375e-10,2.437500e-03
-5.784375e-10,2.531250e-03
-5.744375e-10,2.859375e-03
-5.704375e-10,3.421875e-03
-5.664375e-10,3.390625e-03
-5.624375e-10,3.671875e-03
-5.584375e-10,3.953125e-03
-5.544375e-10,4.250000e-03
-5.504375e-10,4.531250e-03
-5.464375e-10,5.093750e-03
-5.424375e-10,5.031250e-03
-5.384375e-10,5.156250e-03
-5.344375e-10,5.437500e-03
-5.304375e-10,5.890625e-03
-5.264375e-10,5.703125e-03
-5.224375e-10,5.765625e-03
-5.184375e-10,5.781250e-03
-5.144375e-10,5.734375e-03
-5.104375e-10,5.656250e-03
-5.064375e-10,5.812500e-03
-5.024375e-10,5.312500e-03
-4.984375e-10,4.968750e-03
-4.944375e-10,4.781250e-03
-4.904375e-10,4.750000e-03
-4.864375e-10,4.062500e-03
-4.824375e-10,3.640625e-03
-4.784375e-10,3.187500e-03
-4.744375e-10,2.703125e-03
-4.704375e-10,2.187500e-03
-4.664375e-10,1.984375e-03
-4.624375e-10,1.140625e-03
-4.584375e-10,5.000000e-04
-4.544375e-10,6.250000e-05
-4.504375e-10,-1.406250e-04
-4.464375e-10,-9.375000e-04
-4.424375e-10,-1.421875e-03
-4.384375e-10,-1.890625e-03
-4.344375e-10,-2.296875e-03
-4.304375e-10,-2.687500e-03
-4.264375e-10,-2.703125e-03
-4.224375e-10,-3.296875e-03
-4.184375e-10,-3.625000e-03
-4.144375e-10,-3.687500e-03
-4.104375e-10,-3.500000e-03
-4.064375e-10,-3.843750e-03
-4.024375e-10,-3.828125e-03
-3.984375e-10,-3.781250e-03
-3.944375e-10,-3.656250e-03
-3.904375e-10,-3.484375e-03
-3.864375e-10,-2.937500e-03
-3.824375e-10,-2.968750e-03
-3.784375e-10,-2.734375e-03
-3.744375e-10,-2.234375e-03
-3.704375e-10,-1.515625e-03
-3.664375e-10,-1.343750e-03
-3.624375e-10,-8.281250e-04
-3.584375e-10,-3.281250e-04
-3.544375e-10,1.875000e-04
-3.504375e-10,7.500000e-04
-3.464375e-10,1.609375e-03
-3.424375e-10,1.875000e-03
-3.384375e-10,2.343750e-03
-3.344375e-10,3.031250e-03
-3.304375e-10,3.890625e-03
-3.264375e-10,4.171875e-03
-3.224375e-10,4.718750e-03
-3.184375e-10,5.218750e-03
-3.144375e-10,5.687500e-03
-3.104375e-10,6.156250e-03
-3.064375e-10,6.890625e-03
-3.024375e-10,7.000000e-03
-2.984375e-10,7.281250e-03
-2.944375e-10,7.750000e-03
-2.904375e-10,8.359375e-03
-2.864375e-10,8.375000e-03
-2.824375e-10,8.640625e-03
-2.784375e-10,8.843750e-03
-2.744375e-10,9.015625e-03
-2.704375e-10,9.187500e-03
-2.664375e-10,9.609375e-03
-2.624375e-10,9.421875e-03
-2.584375e-10,9.375000e-03
-2.544375e-10,9.546875e-03
-2.504375e-10,9.875000e-03
-2.464375e-10,9.593750e-03
-2.424375e-10,9.593750e-03
-2.384375e-10,9.531250e-03
-2.344375e-10,9.437500e-03
-2.304375e-10,9.390625e-03
-2.264375e-10,9.578125e-03
-2.224375e-10,9.203125e-03
-2.184375e-10,8.968750e-03
-2.144375e-10,8.953125e-03
-2.104375e-10,9.125000e-03
-2.064375e-10,8.703125e-03
-2.024375e-10,8.562500e-03
-1.984375e-10,8.406250e-03
-1.944375e-10,8.218750e-03
-1.904375e-10,8.078125e-03
-1.864375e-10,8.203125e-03
-1.824375e-10,7.796875e-03
-1.784375e-10,7.562500e-03
-1.744375e-10,7.546875e-03
-1.704375e-10,7.734375e-03
-1.664375e-10,7.359375e-03
-1.624375e-10,7.296875e-03
-1.584375e-10,7.218750e-03
-1.544375e-10,7.171875e-03
-1.504375e-10,7.187500e-03
-1.464375e-10,7.500000e-03
-1.424375e-10,7.312500e-03
-1.384375e-10,7.328125e-03
-1.344375e-10,7.578125e-03
-1.304375e-10,8.093750e-03
-1.264375e-10,8.046875e-03
-1.224375e-10,8.359375e-03
-1.184375e-10,8.703125e-03
-1.144375e-10,9.093750e-03
-1.104375e-10,9.593750e-03
-1.064375e-10,1.040625e-02
-1.024375e-10,1.078125e-02
-9.843750e-11,1.135938e-02
-9.443750e-11,1.218750e-02
-9.043750e-11,1.331250e-02
-8.643750e-11,1.390625e-02
-8.243750e-11,1.485938e-02
-7.843750e-11,1.587500e-02
-7.443750e-11,1.695313e-02
-7.043750e-11,1.812500e-02
-6.643750e-11,1.964063e-02
-6.243750e-11,2.070313e-02
-5.843750e-11,2.196875e-02
-5.443750e-11,2.348438e-02
-5.043750e-11,2.528125e-02
-4.643750e-11,2.654688e-02
-4.243750e-11,2.812500e-02
-3.843750e-11,2.978125e-02
-3.443750e-11,3.146875e-02
-3.043750e-11,3.323438e-02
-2.643750e-11,3.531250e-02
-2.243750e-11,3.692188e-02
-1.843750e-11,3.873438e-02
-1.443750e-11,4.075000e-02
-1.043750e-11,4.301563e-02
-6.437500e-12,4.476563e-02
-2.437500e-12,4.679688e-02
1.562500e-12,4.887500e-02
5.562500e-12,5.100000e-02
9.562500e-12,5.314063e-02
1.356250e-11,5.564063e-02
1.756250e-11,5.764063e-02
2.156250e-11,5.984375e-02
2.556250e-11,6.223438e-02
2.956250e-11,6.487500e-02
3.356250e-11,6.703125e-02
3.756250e-11,6.945313e-02
4.156250e-11,7.193750e-02
4.556250e-11,7.446875e-02
4.956250e-11,7.703125e-02
5.356250e-11,7.996875e-02
5.756250e-11,8.240625e-02
6.156250e-11,8.506250e-02
6.556250e-11,8.789063e-02
6.956250e-11,9.098438e-02
7.356250e-11,9.359375e-02
7.756250e-11,9.648438e-02
8.156250e-11,9.940625e-02
8.556250e-11,1.023594e-01
8.956250e-11,1.053281e-01
9.356250e-11,1.086250e-01
9.756250e-11,1.114219e-01
1.015625e-10,1.143750e-01
1.055625e-10,1.174688e-01
1.095625e-10,1.207500e-01
1.135625e-10,1.235000e-01
1.175625e-10,1.264531e-01
1.215625e-10,1.293594e-01
1.255625e-10,1.322188e-01
1.295625e-10,1.350000e-01
1.335625e-10,1.379688e-01
1.375625e-10,1.403594e-01
1.415625e-10,1.427969e-01
1.455625e-10,1.452656e-01
1.495625e-10,1.477656e-01
1.535625e-10,1.496406e-01
1.575625e-10,1.516094e-01
1.615625e-10,1.533906e-01
1.655625e-10,1.550156e-01
1.695625e-10,1.564531e-01
1.735625e-10,1.579531e-01
1.775625e-10,1.587656e-01
1.815625e-10,1.595469e-01
1.855625e-10,1.602500e-01
1.895625e-10,1.609063e-01
1.935625e-10,1.608594e-01
1.975625e-10,1.608594e-01
2.015625e-10,1.606250e-01
2.055625e-10,1.602031e-01
2.095625e-10,1.595625e-01
2.135625e-10,1.589688e-01
2.175625e-10,1.577031e-01
2.215625e-10,1.564219e-01
2.255625e-10,1.550938e-01
2.295625e-10,1.537656e-01
2.335625e-10,1.517813e-01
2.375625e-10,1.499375e-01
2.415625e-10,1.479375e-01
2.455625e-10,1.458281e-01
2.495625e-10,1.436094e-01
2.535625e-10,1.415313e-01
2.575625e-10,1.388906e-01
2.615625e-10,1.363594e-01
2.655625e-10,1.338906e-01
2.695625e-10,1.315625e-01
2.735625e-10,1.286875e-01
2.775625e-10,1.260938e-01
2.815625e-10,1.234531e-01
2.855625e-10,1.208281e-01
2.895625e-10,1.182031e-01
2.935625e-10,1.158281e-01
2.975625e-10,1.129688e-01
3.015625e-10,1.103438e-01
3.055625e-10,1.078594e-01
3.095625e-10,1.055938e-01
3.135625e-10,1.028281e-01
3.175625e-10,1.004219e-01
3.215625e-10,9.801563e-02
3.255625e-10,9.567188e-02
3.295625e-10,9.335938e-02
3.335625e-10,9.132813e-02
3.375625e-10,8.881250e-02
3.415625e-10,8.653125e-02
3.455625e-10,8.440625e-02
3.495625e-10,8.250000e-02
3.535625e-10,8.007813e-02
3.575625e-10,7.798438e-02
3.615625e-10,7.590625e-02
3.655625e-10,7.385938e-02
3.695625e-10,7.184375e-02
3.735625e-10,7.006250e-02
3.775625e-10,6.778125e-02
3.815625e-10,6.571875e-02
3.855625e-10,6.382813e-02
3.895625e-10,6.210938e-02
3.935625e-10,5.989063e-02
3.975625e-10,5.798438e-02
4.015625e-10,5.610938e-02
4.055625e-10,5.425000e-02
4.095625e-10,5.243750e-02
4.135625e-10,5.090625e-02
4.175625e-10,4.885938e-02
4.215625e-10,4.706250e-02
4.255625e-10,4.548438e-02
4.295625e-10,4.409375e-02
4.335625e-10,4.225000e-02
4.375625e-10,4.075000e-02
4.415625e-10,3.931250e-02
4.455625e-10,3.795313e-02
4.495625e-10,3.667188e-02
4.535625e-10,3.571875e-02
4.575625e-10,3.426563e-02
4.615625e-10,3.312500e-02
4.655625e-10,3.221875e-02
4.695625e-10,3.154688e-02
4.735625e-10,3.045313e-02
4.775625e-10,2.970313e-02
4.815625e-10,2.906250e-02
4.855625e-10,2.848438e-02
4.895625e-10,2.798438e-02
4.935625e-10,2.781250e-02
4.975625e-10,2.714063e-02
5.015625e-10,2.675000e-02
5.055625e-10,2.657813e-02
5.095625e-10,2.660938e-02
5.135625e-10,2.617188e-02
5.175625e-10,2.603125e-02
5.215625e-10,2.595313e-02
5.255625e-10,2.587500e-02
5.295625e-10,2.579688e-02
5.335625e-10,2.601563e-02
5.375625e-10,2.564063e-02
5.415625e-10,2.546875e-02
5.455625e-10,2.546875e-02
5.495625e-10,2.559375e-02
5.535625e-10,2.515625e-02
5.575625e-10,2.493750e-02
5.615625e-10,2.475000e-02
5.655625e-10,2.446875e-02
5.695625e-10,2.412500e-02
5.735625e-10,2.401563e-02
5.775625e-10,2.328125e-02
5.815625e-10,2.267188e-02
5.855625e-10,2.221875e-02
5.895625e-10,2.187500e-02
5.935625e-10,2.093750e-02
5.975625e-10,2.018750e-02
6.015625e-10,1.946875e-02
6.055625e-10,1.867188e-02
6.095625e-10,1.782813e-02
6.135625e-10,1.721875e-02
6.175625e-10,1.603125e-02
6.215625e-10,1.500000e-02
6.255625e-10,1.417188e-02
6.295625e-10,1.351563e-02
6.335625e-10,1.231250e-02
6.375625e-10,1.137500e-02
6.415625e-10,1.051563e-02
6.455625e-10,9.671875e-03
6.495625e-10,8.828125e-03
6.535625e-10,8.296875e-03
6.575625e-10,7.265625e-03
6.615625e-10,6.468750e-03
6.655625e-10,5.937500e-03
6.695625e-10,5.656250e-03
6.735625e-10,4.875000e-03
6.775625e-10,4.437500e-03
6.815625e-10,4.093750e-03
6.855625e-10,3.828125e-03
6.895625e-10,3.593750e-03
6.935625e-10,3.718750e-03
6.975625e-10,3.343750e-03
7.015625e-10,3.218750e-03
7.055625e-10,3.359375e-03
7.095625e-10,3.765625e-03
7.135625e-10,3.625000e-03
7.175625e-10,3.812500e-03
7.215625e-10,4.078125e-03
7.255625e-10,4.359375e-03
7.295625e-10,4.640625e-03
7.335625e-10,5.234375e-03
7.375625e-10,5.265625e-03
7.415625e-10,5.484375e-03
7.455625e-10,5.921875e-03
7.495625e-10,6.531250e-03
7.535625e-10,6.546875e-03
7.575625e-10,6.828125e-03
7.615625e-10,7.093750e-03
7.655625e-10,7.343750e-03
7.695625e-10,7.531250e-03
7.735625e-10,8.000000e-03
7.775625e-10,7.812500e-03
7.815625e-10,7.812500e-03
7.855625e-10,7.968750e-03
7.895625e-10,8.281250e-03
7.935625e-10,7.968750e-03
7.975625e-10,7.921875e-03
8.015625e-10,7.843750e-03
8.055625e-10,7.750000e-03
8.095625e-10,7.625000e-03
8.135625e-10,7.765625e-03
8.175625e-10,7.296875e-03
8.215625e-10,7.015625e-03
8.255625e-10,6.937500e-03
8.295625e-10,7.062500e-03
8.335625e-10,6.593750e-03
8.375625e-10,6.437500e-03
8.415625e-10,6.281250e-03
8.455625e-10,6.156250e-03
8.495625e-10,6.031250e-03
8.535625e-10,6.250000e-03
8.575625e-10,5.875000e-03
8.615625e-10,5.734375e-03
8.655625e-10,5.828125e-03
8.695625e-10,6.140625e-03
8.735625e-10,5.890625e-03
8.775625e-10,5.968750e-03
8.815625e-10,6.078125e-03
8.855625e-10,6.234375e-03
8.895625e-10,6.375000e-03
8.935625e-10,6.859375e-03
8.975625e-10,6.765625e-03
9.015625e-10,6.875000e-03
9.055625e-10,7.218750e-03
9.095625e-10,7.750000e-03
9.135625e-10,7.718750e-03
9.175625e-10,7.968750e-03
9.215625e-10,8.218750e-03
9.255625e-10,8.484375e-03
9.295625e-10,8.734375e-03
9.335625e-10,9.265625e-03
9.375625e-10,9.203125e-03
9.415625e-10,9.312500e-03
9.455625e-10,9.609375e-03
9.495625e-10,1.009375e-02
9.535625e-10,9.953125e-03
9.575625e-10,1.009375e-02
9.615625e-10,1.023438e-02
9.655625e-10,1.032813e-02
9.695625e-10,1.040625e-02
9.735625e-10,1.076563e-02
9.775625e-10,1.050000e-02
9.815625e-10,1.040625e-02
9.855625e-10,1.051563e-02
9.895625e-10,1.078125e-02
9.935625e-10,1.043750e-02
9.975625e-10,1.037500e-02
1.001562e-09,1.031250e-02
1.005562e-09,1.021875e-02
1.009562e-09,1.010938e-02
1.013562e-09,1.028125e-02
1.017562e-09,9.828125e-03
1.021562e-09,9.578125e-03
1.025562e-09,9.515625e-03
1.029562e-09,9.640625e-03
1.033563e-09,9.140625e-03
1.037563e-09,8.937500e-03
1.041563e-09,8.718750e-03
1.045563e-09,8.500000e-03
1.049563e-09,8.265625e-03
1.053563e-09,8.312500e-03
1.057562e-09,7.765625e-03
1.061562e-09,7.390625e-03
1.065562e-09,7.218750e-03
1.069562e-09,7.250000e-03
1.073562e-09,6.656250e-03
1.077562e-09,6.375000e-03
1.081562e-09,6.078125e-03
1.085562e-09,5.796875e-03
1.089562e-09,5.515625e-03
1.093563e-09,5.531250e-03
1.097563e-09,4.937500e-03
1.101563e-09,4.578125e-03
1.105563e-09,4.406250e-03
1.109563e-09,4.468750e-03
1.113562e-09,3.937500e-03
1.117562e-09,3.734375e-03
1.121562e-09,3.531250e-03
1.125562e-09,3.375000e-03
1.129562e-09,3.218750e-03
1.133562e-09,3.406250e-03
1.137562e-09,3.015625e-03
1.141562e-09,2.859375e-03
1.145562e-09,2.921875e-03
1.149562e-09,3.218750e-03
1.153563e-09,2.937500e-03
1.157563e-09,3.000000e-03
1.161563e-09,3.078125e-03
1.165563e-09,3.171875e-03
1.169563e-09,3.296875e-03
1.173562e-09,3.734375e-03
1.177562e-09,3.593750e-03
1.181562e-09,3.656250e-03
1.185562e-09,3.937500e-03
1.189562e-09,4.406250e-03
1.193562e-09,4.296875e-03
1.197562e-09,4.468750e-03
1.201562e-09,4.625000e-03
1.205562e-09,4.781250e-03
1.209562e-09,4.921875e-03
1.213563e-09,5.343750e-03
1.217563e-09,5.125000e-03
1.221563e-09,5.093750e-03
1.225563e-09,5.250000e-03
1.229563e-09,5.562500e-03
1.233562e-09,5.250000e-03
1.237562e-09,5.203125e-03
1.241562e-09,5.125000e-03
1.245562e-09,5.015625e-03
1.249562e-09,4.890625e-03
1.253562e-09,5.031250e-03
1.257562e-09,4.562500e-03
1.261562e-09,4.265625e-03
1.265562e-09,4.156250e-03
1.269562e-09,4.250000e-03
1.273563e-09,3.734375e-03
1.277563e-09,3.515625e-03
1.281563e-09,3.296875e-03
1.285563e-09,3.109375e-03
1.289563e-09,2.921875e-03
1.293562e-09,3.078125e-03
1.297562e-09,2.640625e-03
1.301562e-09,2.437500e-03
1.305562e-09,2.468750e-03
1.309562e-09,2.750000e-03
1.313562e-09,2.468750e-03
1.317562e-09,2.515625e-03
1.321562e-09,2.625000e-03
1.325562e-09,2.765625e-03
1.329562e-09,2.953125e-03
1.333563e-09,3.484375e-03
1.337563e-09,3.437500e-03
1.341563e-09,3.640625e-03
1.345563e-09,4.078125e-03
1.349563e-09,4.734375e-03
1.353562e-09,4.812500e-03
1.357562e-09,5.203125e-03
1.361562e-09,5.609375e-03
1.365562e-09,6.000000e-03
1.369562e-09,6.406250e-03
1.373562e-09,7.093750e-03
1.377562e-09,7.156250e-03
1.381562e-09,7.406250e-03
1.385562e-09,7.812500e-03
1.389562e-09,8.390625e-03
1.393563e-09,8.328125e-03
1.397563e-09,8.515625e-03
1.401563e-09,8.671875e-03
1.405563e-09,8.765625e-03
1.409563e-09,8.812500e-03
1.413562e-09,9.093750e-03
1.417562e-09,8.734375e-03
1.421562e-09,8.531250e-03
1.425562e-09,8.468750e-03
1.429562e-09,8.578125e-03
1.433562e-09,8.031250e-03
1.437562e-09,7.765625e-03
1.441562e-09,7.468750e-03
1.445562e-09,7.140625e-03
1.449562e-09,6.796875e-03
1.453563e-09,6.750000e-03
1.457563e-09,6.109375e-03
1.461563e-09,5.656250e-03
1.465563e-09,5.437500e-03
1.469563e-09,5.421875e-03
1.473562e-09,4.843750e-03
1.477562e-09,4.578125e-03
1.481562e-09,4.359375e-03
1.485562e-09,4.187500e-03
1.489562e-09,4.062500e-03
1.493562e-09,4.265625e-03
1.497562e-09,3.937500e-03
1.501562e-09,3.843750e-03
1.505562e-09,4.000000e-03
1.509562e-09,4.421875e-03
1.513563e-09,4.265625e-03
1.517563e-09,4.468750e-03
1.521563e-09,4.687500e-03
1.525563e-09,4.968750e-03
1.529563e-09,5.265625e-03
1.533562e-09,5.890625e-03
1.537562e-09,5.921875e-03
1.541562e-09,6.171875e-03
1.545562e-09,6.625000e-03
1.549562e-09,7.281250e-03
1.553562e-09,7.328125e-03
1.557562e-09,7.671875e-03
1.561562e-09,8.000000e-03
1.565562e-09,8.296875e-03
1.569562e-09,8.562500e-03
1.573563e-09,9.125000e-03
1.577563e-09,9.031250e-03
1.581563e-09,9.125000e-03
1.585563e-09,9.375000e-03
1.589563e-09,9.796875e-03
1.593562e-09,9.578125e-03
1.597562e-09,9.640625e-03
1.601562e-09,9.687500e-03
1.605562e-09,9.687500e-03
1.609562e-09,9.687500e-03
1.613562e-09,9.968750e-03
1.617562e-09,9.640625e-03
1.621562e-09,9.515625e-03
1.625562e-09,9.578125e-03
1.629562e-09,9.859375e-03
1.633563e-09,9.546875e-03
1.637563e-09,9.546875e-03
1.641563e-09,9.578125e-03
1.645563e-09,9.625000e-03
1.649563e-09,9.687500e-03
1.653562e-09,1.009375e-02
1.657562e-09,9.937500e-03
1.661562e-09,1.000000e-02
1.665562e-09,1.029688e-02
1.669562e-09,1.082813e-02
1.673562e-09,1.078125e-02
1.677562e-09,1.106250e-02
1.681562e-09,1.137500e-02
1.685562e-09,1.168750e-02
1.689562e-09,1.201563e-02
1.693563e-09,1.265625e-02
1.697563e-09,1.268750e-02
1.701563e-09,1.292188e-02
1.705563e-09,1.334375e-02
1.709563e-09,1.393750e-02
1.713562e-09,1.390625e-02
1.717562e-09,1.414063e-02
1.721562e-09,1.434375e-02
1.725562e-09,1.448438e-02
1.729562e-09,1.457813e-02
1.733562e-09,1.493750e-02
1.737562e-09,1.460938e-02
1.741562e-09,1.443750e-02
1.745562e-09,1.439063e-02
1.749562e-09,1.450000e-02
1.753563e-09,1.392188e-02
