Measurements-streak-laser/Photodiode-on-Tek-6GHz/Tek000_ch1_20190613132743779.csv

Model,MSO64
Waveform Type,ANALOG
Horizontal Units,s
Sample Interval,4.000000e-12
Record Length,1000
Zero Index,310.812500
Vertical Units,V

TIME,CH1
-1.243250e-09,3.828125e-03
-1.239250e-09,4.234375e-03
-1.235250e-09,4.031250e-03
-1.231250e-09,4.031250e-03
-1.227250e-09,4.218750e-03
-1.223250e-09,4.593750e-03
-1.219250e-09,4.343750e-03
-1.215250e-09,4.359375e-03
-1.211250e-09,4.359375e-03
-1.207250e-09,4.343750e-03
-1.203250e-09,4.296875e-03
-1.199250e-09,4.515625e-03
-1.195250e-09,4.093750e-03
-1.191250e-09,3.843750e-03
-1.187250e-09,3.781250e-03
-1.183250e-09,3.875000e-03
-1.179250e-09,3.343750e-03
-1.175250e-09,3.093750e-03
-1.171250e-09,2.812500e-03
-1.167250e-09,2.531250e-03
-1.163250e-09,2.234375e-03
-1.159250e-09,2.218750e-03
-1.155250e-09,1.609375e-03
-1.151250e-09,1.203125e-03
-1.147250e-09,1.000000e-03
-1.143250e-09,1.015625e-03
-1.139250e-09,4.375000e-04
-1.135250e-09,1.875000e-04
-1.131250e-09,-3.125000e-05
-1.127250e-09,-2.343750e-04
-1.123250e-09,-3.906250e-04
-1.119250e-09,-2.031250e-04
-1.115250e-09,-5.937500e-04
-1.111250e-09,-7.343750e-04
-1.107250e-09,-6.250000e-04
-1.103250e-09,-2.656250e-04
-1.099250e-09,-4.843750e-04
-1.095250e-09,-3.437500e-04
-1.091250e-09,-1.718750e-04
-1.087250e-09,4.687500e-05
-1.083250e-09,2.968750e-04
-1.079250e-09,8.906250e-04
-1.075250e-09,9.062500e-04
-1.071250e-09,1.140625e-03
-1.067250e-09,1.609375e-03
-1.063250e-09,2.281250e-03
-1.059250e-09,2.375000e-03
-1.055250e-09,2.765625e-03
-1.051250e-09,3.171875e-03
-1.047250e-09,3.562500e-03
-1.043250e-09,3.953125e-03
-1.039250e-09,4.625000e-03
-1.035250e-09,4.671875e-03
-1.031250e-09,4.906250e-03
-1.027250e-09,5.328125e-03
-1.023250e-09,5.921875e-03
-1.019250e-09,5.875000e-03
-1.015250e-09,6.093750e-03
-1.011250e-09,6.281250e-03
-1.007250e-09,6.437500e-03
-1.003250e-09,6.562500e-03
-9.992500e-10,6.953125e-03
-9.952500e-10,6.703125e-03
-9.912500e-10,6.625000e-03
-9.872500e-10,6.703125e-03
-9.832500e-10,6.968750e-03
-9.792500e-10,6.578125e-03
-9.752500e-10,6.484375e-03
-9.712500e-10,6.359375e-03
-9.672500e-10,6.203125e-03
-9.632500e-10,6.031250e-03
-9.592500e-10,6.140625e-03
-9.552500e-10,5.640625e-03
-9.512500e-10,5.312500e-03
-9.472500e-10,5.187500e-03
-9.432500e-10,5.250000e-03
-9.392500e-10,4.703125e-03
-9.352500e-10,4.453125e-03
-9.312500e-10,4.187500e-03
-9.272500e-10,3.937500e-03
-9.232500e-10,3.687500e-03
-9.192500e-10,3.734375e-03
-9.152500e-10,3.187500e-03
-9.112500e-10,2.843750e-03
-9.072500e-10,2.703125e-03
-9.032500e-10,2.781250e-03
-8.992500e-10,2.250000e-03
-8.952500e-10,2.031250e-03
-8.912500e-10,1.812500e-03
-8.872500e-10,1.625000e-03
-8.832500e-10,1.437500e-03
-8.792500e-10,1.562500e-03
-8.752500e-10,1.109375e-03
-8.712500e-10,8.593750e-04
-8.672500e-10,8.281250e-04
-8.632500e-10,1.015625e-03
-8.592500e-10,5.937500e-04
-8.552500e-10,5.156250e-04
-8.512500e-10,4.375000e-04
-8.472500e-10,3.906250e-04
-8.432500e-10,3.593750e-04
-8.392500e-10,6.562500e-04
-8.352500e-10,3.593750e-04
-8.312500e-10,2.812500e-04
-8.272500e-10,4.218750e-04
-8.232500e-10,7.968750e-04
-8.192500e-10,5.625000e-04
-8.152500e-10,6.718750e-04
-8.112500e-10,7.812500e-04
-8.072500e-10,9.218750e-04
-8.032500e-10,1.078125e-03
-7.992500e-10,1.546875e-03
-7.952500e-10,1.406250e-03
-7.912500e-10,1.500000e-03
-7.872500e-10,1.796875e-03
-7.832500e-10,2.312500e-03
-7.792500e-10,2.218750e-03
-7.752500e-10,2.421875e-03
-7.712500e-10,2.640625e-03
-7.672500e-10,2.843750e-03
-7.632500e-10,3.046875e-03
-7.592500e-10,3.546875e-03
-7.552500e-10,3.421875e-03
-7.512500e-10,3.484375e-03
-7.472500e-10,3.734375e-03
-7.432500e-10,4.187500e-03
-7.392500e-10,4.000000e-03
-7.352500e-10,4.093750e-03
-7.312500e-10,4.156250e-03
-7.272500e-10,4.203125e-03
-7.232500e-10,4.234375e-03
-7.192500e-10,4.546875e-03
-7.152500e-10,4.218750e-03
-7.112500e-10,4.062500e-03
-7.072500e-10,4.093750e-03
-7.032500e-10,4.296875e-03
-6.992500e-10,3.875000e-03
-6.952500e-10,3.734375e-03
-6.912500e-10,3.593750e-03
-6.872500e-10,3.421875e-03
-6.832500e-10,3.234375e-03
-6.792500e-10,3.343750e-03
-6.752500e-10,2.843750e-03
-6.712500e-10,2.546875e-03
-6.672500e-10,2.453125e-03
-6.632500e-10,2.562500e-03
-6.592500e-10,2.062500e-03
-6.552500e-10,1.875000e-03
-6.512500e-10,1.703125e-03
-6.472500e-10,1.562500e-03
-6.432500e-10,1.421875e-03
-6.392500e-10,1.609375e-03
-6.352500e-10,1.218750e-03
-6.312500e-10,1.062500e-03
-6.272500e-10,1.125000e-03
-6.232500e-10,1.421875e-03
-6.192500e-10,1.140625e-03
-6.152500e-10,1.187500e-03
-6.112500e-10,1.265625e-03
-6.072500e-10,1.390625e-03
-6.032500e-10,1.531250e-03
-5.992500e-10,2.000000e-03
-5.952500e-10,1.906250e-03
-5.912500e-10,2.015625e-03
-5.872500e-10,2.375000e-03
-5.832500e-10,2.937500e-03
-5.792500e-10,2.921875e-03
-5.752500e-10,3.234375e-03
-5.712500e-10,3.546875e-03
-5.672500e-10,3.859375e-03
-5.632500e-10,4.187500e-03
-5.592500e-10,4.812500e-03
-5.552500e-10,4.828125e-03
-5.512500e-10,5.031250e-03
-5.472500e-10,5.437500e-03
-5.432500e-10,6.015625e-03
-5.392500e-10,5.984375e-03
-5.352500e-10,6.218750e-03
-5.312500e-10,6.421875e-03
-5.272500e-10,6.609375e-03
-5.232500e-10,6.750000e-03
-5.192500e-10,7.171875e-03
-5.152500e-10,6.953125e-03
-5.112500e-10,6.890625e-03
-5.072500e-10,6.984375e-03
-5.032500e-10,7.250000e-03
-4.992500e-10,6.875000e-03
-4.952500e-10,6.765625e-03
-4.912500e-10,6.593750e-03
-4.872500e-10,6.406250e-03
-4.832500e-10,6.171875e-03
-4.792500e-10,6.218750e-03
-4.752500e-10,5.640625e-03
-4.712500e-10,5.218750e-03
-4.672500e-10,5.000000e-03
-4.632500e-10,4.953125e-03
-4.592500e-10,4.296875e-03
-4.552500e-10,3.937500e-03
-4.512500e-10,3.562500e-03
-4.472500e-10,3.187500e-03
-4.432500e-10,2.828125e-03
-4.392500e-10,2.781250e-03
-4.352500e-10,2.156250e-03
-4.312500e-10,1.750000e-03
-4.272500e-10,1.562500e-03
-4.232500e-10,1.625000e-03
-4.192500e-10,1.125000e-03
-4.152500e-10,9.531250e-04
-4.112500e-10,7.968750e-04
-4.072500e-10,6.875000e-04
-4.032500e-10,6.250000e-04
-3.992500e-10,9.218750e-04
-3.952500e-10,6.250000e-04
-3.912500e-10,5.937500e-04
-3.872500e-10,8.125000e-04
-3.832500e-10,1.265625e-03
-3.792500e-10,1.187500e-03
-3.752500e-10,1.406250e-03
-3.712500e-10,1.625000e-03
-3.672500e-10,1.875000e-03
-3.632500e-10,2.156250e-03
-3.592500e-10,2.750000e-03
-3.552500e-10,2.734375e-03
-3.512500e-10,2.937500e-03
-3.472500e-10,3.343750e-03
-3.432500e-10,3.953125e-03
-3.392500e-10,3.953125e-03
-3.352500e-10,4.234375e-03
-3.312500e-10,4.437500e-03
-3.272500e-10,4.609375e-03
-3.232500e-10,4.765625e-03
-3.192500e-10,5.187500e-03
-3.152500e-10,4.968750e-03
-3.112500e-10,4.906250e-03
-3.072500e-10,5.031250e-03
-3.032500e-10,5.281250e-03
-2.992500e-10,4.937500e-03
-2.952500e-10,4.843750e-03
-2.912500e-10,4.656250e-03
-2.872500e-10,4.390625e-03
-2.832500e-10,4.171875e-03
-2.792500e-10,4.203125e-03
-2.752500e-10,3.609375e-03
-2.712500e-10,3.187500e-03
-2.672500e-10,3.015625e-03
-2.632500e-10,3.000000e-03
-2.592500e-10,2.437500e-03
-2.552500e-10,2.187500e-03
-2.512500e-10,1.875000e-03
-2.472500e-10,1.578125e-03
-2.432500e-10,1.390625e-03
-2.392500e-10,1.484375e-03
-2.352500e-10,1.093750e-03
-2.312500e-10,8.906250e-04
-2.272500e-10,1.015625e-03
-2.232500e-10,1.359375e-03
-2.192500e-10,1.203125e-03
-2.152500e-10,1.421875e-03
-2.112500e-10,1.625000e-03
-2.072500e-10,1.875000e-03
-2.032500e-10,2.281250e-03
-1.992500e-10,2.968750e-03
-1.952500e-10,3.203125e-03
-1.912500e-10,3.609375e-03
-1.872500e-10,4.312500e-03
-1.832500e-10,5.234375e-03
-1.792500e-10,5.593750e-03
-1.752500e-10,6.296875e-03
-1.712500e-10,6.937500e-03
-1.672500e-10,7.546875e-03
-1.632500e-10,8.265625e-03
-1.592500e-10,9.156250e-03
-1.552500e-10,9.562500e-03
-1.512500e-10,1.003125e-02
-1.472500e-10,1.068750e-02
-1.432500e-10,1.148438e-02
-1.392500e-10,1.162500e-02
-1.352500e-10,1.201563e-02
-1.312500e-10,1.229688e-02
-1.272500e-10,1.246875e-02
-1.232500e-10,1.268750e-02
-1.192500e-10,1.303125e-02
-1.152500e-10,1.285938e-02
-1.112500e-10,1.273438e-02
-1.072500e-10,1.275000e-02
-1.032500e-10,1.295313e-02
-9.925000e-11,1.251563e-02
-9.525000e-11,1.234375e-02
-9.125000e-11,1.214063e-02
-8.725000e-11,1.193750e-02
-8.325000e-11,1.182813e-02
-7.925000e-11,1.198438e-02
-7.525000e-11,1.178125e-02
-7.125000e-11,1.175000e-02
-6.725000e-11,1.198438e-02
-6.325000e-11,1.259375e-02
-5.925000e-11,1.278125e-02
-5.525000e-11,1.337500e-02
-5.125000e-11,1.415625e-02
-4.725000e-11,1.514063e-02
-4.325000e-11,1.639063e-02
-3.925000e-11,1.812500e-02
-3.525000e-11,1.968750e-02
-3.125000e-11,2.162500e-02
-2.725000e-11,2.398438e-02
-2.325000e-11,2.689063e-02
-1.925000e-11,2.956250e-02
-1.525000e-11,3.273438e-02
-1.125000e-11,3.623438e-02
-7.250000e-12,4.004688e-02
-3.250000e-12,4.417188e-02
7.500000e-13,4.889063e-02
4.750000e-12,5.343750e-02
8.750000e-12,5.839063e-02
1.275000e-11,6.375000e-02
1.675000e-11,6.959375e-02
2.075000e-11,7.518750e-02
2.475000e-11,8.118750e-02
2.875000e-11,8.739063e-02
3.275000e-11,9.381250e-02
3.675000e-11,1.003750e-01
4.075000e-11,1.073906e-01
4.475000e-11,1.140469e-01
4.875000e-11,1.209375e-01
5.275000e-11,1.279844e-01
5.675000e-11,1.352969e-01
6.075000e-11,1.421719e-01
6.475000e-11,1.492031e-01
6.875000e-11,1.562188e-01
7.275000e-11,1.631875e-01
7.675000e-11,1.700781e-01
8.075000e-11,1.771563e-01
8.475000e-11,1.836875e-01
8.875000e-11,1.902031e-01
9.275000e-11,1.966563e-01
9.675000e-11,2.031250e-01
1.007500e-10,2.090156e-01
1.047500e-10,2.148594e-01
1.087500e-10,2.205000e-01
1.127500e-10,2.259375e-01
1.167500e-10,2.311250e-01
1.207500e-10,2.363594e-01
1.247500e-10,2.409375e-01
1.287500e-10,2.453750e-01
1.327500e-10,2.496719e-01
1.367500e-10,2.538594e-01
1.407500e-10,2.574219e-01
1.447500e-10,2.608750e-01
1.487500e-10,2.640625e-01
1.527500e-10,2.670156e-01
1.567500e-10,2.696875e-01
1.607500e-10,2.723594e-01
1.647500e-10,2.743750e-01
1.687500e-10,2.762656e-01
1.727500e-10,2.779688e-01
1.767500e-10,2.795781e-01
1.807500e-10,2.805625e-01
1.847500e-10,2.814688e-01
1.887500e-10,2.821406e-01
1.927500e-10,2.825781e-01
1.967500e-10,2.827500e-01
2.007500e-10,2.829219e-01
2.047500e-10,2.824844e-01
2.087500e-10,2.819375e-01
2.127500e-10,2.812500e-01
2.167500e-10,2.805000e-01
2.207500e-10,2.791250e-01
2.247500e-10,2.777656e-01
2.287500e-10,2.761719e-01
2.327500e-10,2.743906e-01
2.367500e-10,2.724219e-01
2.407500e-10,2.704219e-01
2.447500e-10,2.679063e-01
2.487500e-10,2.653281e-01
2.527500e-10,2.626563e-01
2.567500e-10,2.599844e-01
2.607500e-10,2.567344e-01
2.647500e-10,2.535938e-01
2.687500e-10,2.502813e-01
2.727500e-10,2.468594e-01
2.767500e-10,2.433438e-01
2.807500e-10,2.398438e-01
2.847500e-10,2.358906e-01
2.887500e-10,2.320156e-01
2.927500e-10,2.281250e-01
2.967500e-10,2.243125e-01
3.007500e-10,2.200000e-01
3.047500e-10,2.159375e-01
3.087500e-10,2.117813e-01
3.127500e-10,2.076406e-01
3.167500e-10,2.034844e-01
3.207500e-10,1.994688e-01
3.247500e-10,1.950469e-01
3.287500e-10,1.908438e-01
3.327500e-10,1.867031e-01
3.367500e-10,1.827500e-01
3.407500e-10,1.783750e-01
3.447500e-10,1.743594e-01
3.487500e-10,1.703125e-01
3.527500e-10,1.663750e-01
3.567500e-10,1.625000e-01
3.607500e-10,1.588438e-01
3.647500e-10,1.548125e-01
3.687500e-10,1.510625e-01
3.727500e-10,1.474531e-01
3.767500e-10,1.440469e-01
3.807500e-10,1.402656e-01
3.847500e-10,1.368594e-01
3.887500e-10,1.334844e-01
3.927500e-10,1.302188e-01
3.967500e-10,1.270156e-01
4.007500e-10,1.240781e-01
4.047500e-10,1.207188e-01
4.087500e-10,1.176563e-01
4.127500e-10,1.147344e-01
4.167500e-10,1.119844e-01
4.207500e-10,1.088750e-01
4.247500e-10,1.060625e-01
4.287500e-10,1.033125e-01
4.327500e-10,1.006250e-01
4.367500e-10,9.798438e-02
4.407500e-10,9.559375e-02
4.447500e-10,9.271875e-02
4.487500e-10,9.012500e-02
4.527500e-10,8.767188e-02
4.567500e-10,8.535938e-02
4.607500e-10,8.267188e-02
4.647500e-10,8.023438e-02
4.687500e-10,7.789063e-02
4.727500e-10,7.556250e-02
4.767500e-10,7.326563e-02
4.807500e-10,7.125000e-02
4.847500e-10,6.873438e-02
4.887500e-10,6.648438e-02
4.927500e-10,6.442188e-02
4.967500e-10,6.250000e-02
5.007500e-10,6.021875e-02
5.047500e-10,5.820313e-02
5.087500e-10,5.631250e-02
5.127500e-10,5.446875e-02
5.167500e-10,5.265625e-02
5.207500e-10,5.118750e-02
5.247500e-10,4.923438e-02
5.287500e-10,4.756250e-02
5.327500e-10,4.614063e-02
5.367500e-10,4.489063e-02
5.407500e-10,4.329688e-02
5.447500e-10,4.198438e-02
5.487500e-10,4.085938e-02
5.527500e-10,3.976563e-02
5.567500e-10,3.871875e-02
5.607500e-10,3.803125e-02
5.647500e-10,3.685938e-02
5.687500e-10,3.595313e-02
5.727500e-10,3.532813e-02
5.767500e-10,3.487500e-02
5.807500e-10,3.401563e-02
5.847500e-10,3.342188e-02
5.887500e-10,3.296875e-02
5.927500e-10,3.253125e-02
5.967500e-10,3.207813e-02
6.007500e-10,3.192188e-02
6.047500e-10,3.125000e-02
6.087500e-10,3.075000e-02
6.127500e-10,3.050000e-02
6.167500e-10,3.034375e-02
6.207500e-10,2.970313e-02
6.247500e-10,2.928125e-02
6.287500e-10,2.890625e-02
6.327500e-10,2.848438e-02
6.367500e-10,2.796875e-02
6.407500e-10,2.768750e-02
6.447500e-10,2.682813e-02
6.487500e-10,2.609375e-02
6.527500e-10,2.554688e-02
6.567500e-10,2.509375e-02
6.607500e-10,2.407813e-02
6.647500e-10,2.325000e-02
6.687500e-10,2.246875e-02
6.727500e-10,2.160938e-02
6.767500e-10,2.065625e-02
6.807500e-10,1.995313e-02
6.847500e-10,1.867188e-02
6.887500e-10,1.754688e-02
6.927500e-10,1.664063e-02
6.967500e-10,1.589063e-02
7.007500e-10,1.459375e-02
7.047500e-10,1.356250e-02
7.087500e-10,1.259375e-02
7.127500e-10,1.165625e-02
7.167500e-10,1.067188e-02
7.207500e-10,1.003125e-02
7.247500e-10,8.875000e-03
7.287500e-10,7.937500e-03
7.327500e-10,7.312500e-03
7.367500e-10,6.906250e-03
7.407500e-10,6.015625e-03
7.447500e-10,5.484375e-03
7.487500e-10,5.062500e-03
7.527500e-10,4.718750e-03
7.567500e-10,4.406250e-03
7.607500e-10,4.468750e-03
7.647500e-10,4.046875e-03
7.687500e-10,3.890625e-03
7.727500e-10,4.046875e-03
7.767500e-10,4.468750e-03
7.807500e-10,4.375000e-03
7.847500e-10,4.640625e-03
7.887500e-10,5.000000e-03
7.927500e-10,5.406250e-03
7.967500e-10,5.843750e-03
8.007500e-10,6.593750e-03
8.047500e-10,6.828125e-03
8.087500e-10,7.281250e-03
8.127500e-10,7.968750e-03
8.167500e-10,8.875000e-03
8.207500e-10,9.203125e-03
8.247500e-10,9.812500e-03
8.287500e-10,1.045313e-02
8.327500e-10,1.107813e-02
8.367500e-10,1.164063e-02
8.407500e-10,1.248438e-02
8.447500e-10,1.271875e-02
8.487500e-10,1.310938e-02
8.527500e-10,1.367188e-02
8.567500e-10,1.439063e-02
8.607500e-10,1.446875e-02
8.647500e-10,1.479688e-02
8.687500e-10,1.509375e-02
8.727500e-10,1.532813e-02
8.767500e-10,1.548438e-02
8.807500e-10,1.589063e-02
8.847500e-10,1.565625e-02
8.887500e-10,1.554688e-02
8.927500e-10,1.560938e-02
8.967500e-10,1.581250e-02
9.007500e-10,1.537500e-02
9.047500e-10,1.518750e-02
9.087500e-10,1.496875e-02
9.127500e-10,1.470313e-02
9.167500e-10,1.437500e-02
9.207500e-10,1.431250e-02
9.247500e-10,1.362500e-02
9.287500e-10,1.309375e-02
9.327500e-10,1.275000e-02
9.367500e-10,1.257813e-02
9.407500e-10,1.179688e-02
9.447500e-10,1.128125e-02
9.487500e-10,1.076563e-02
9.527500e-10,1.025000e-02
9.567500e-10,9.703125e-03
9.607500e-10,9.453125e-03
9.647500e-10,8.625000e-03
9.687500e-10,7.984375e-03
9.727500e-10,7.562500e-03
9.767500e-10,7.343750e-03
9.807500e-10,6.546875e-03
9.847500e-10,6.062500e-03
9.887500e-10,5.593750e-03
9.927500e-10,5.171875e-03
9.967500e-10,4.750000e-03
1.000750e-09,4.671875e-03
1.004750e-09,4.031250e-03
1.008750e-09,3.625000e-03
1.012750e-09,3.453125e-03
1.016750e-09,3.531250e-03
1.020750e-09,3.062500e-03
1.024750e-09,2.921875e-03
1.028750e-09,2.843750e-03
1.032750e-09,2.796875e-03
1.036750e-09,2.812500e-03
1.040750e-09,3.156250e-03
1.044750e-09,2.968750e-03
1.048750e-09,3.015625e-03
1.052750e-09,3.328125e-03
1.056750e-09,3.875000e-03
1.060750e-09,3.875000e-03
1.064750e-09,4.203125e-03
1.068750e-09,4.593750e-03
1.072750e-09,5.000000e-03
1.076750e-09,5.437500e-03
1.080750e-09,6.203125e-03
1.084750e-09,6.390625e-03
1.088750e-09,6.796875e-03
1.092750e-09,7.421875e-03
1.096750e-09,8.250000e-03
1.100750e-09,8.484375e-03
1.104750e-09,9.000000e-03
1.108750e-09,9.531250e-03
1.112750e-09,1.003125e-02
1.116750e-09,1.051563e-02
1.120750e-09,1.128125e-02
1.124750e-09,1.140625e-02
1.128750e-09,1.170313e-02
1.132750e-09,1.217188e-02
1.136750e-09,1.279688e-02
1.140750e-09,1.278125e-02
1.144750e-09,1.301563e-02
1.148750e-09,1.320313e-02
1.152750e-09,1.335938e-02
1.156750e-09,1.345313e-02
1.160750e-09,1.381250e-02
1.164750e-09,1.351563e-02
1.168750e-09,1.337500e-02
1.172750e-09,1.340625e-02
1.176750e-09,1.357813e-02
1.180750e-09,1.312500e-02
1.184750e-09,1.293750e-02
1.188750e-09,1.273438e-02
1.192750e-09,1.250000e-02
1.196750e-09,1.223438e-02
1.200750e-09,1.226563e-02
1.204750e-09,1.167188e-02
1.208750e-09,1.128125e-02
1.212750e-09,1.109375e-02
1.216750e-09,1.109375e-02
1.220750e-09,1.051563e-02
1.224750e-09,1.023438e-02
1.228750e-09,9.968750e-03
1.232750e-09,9.718750e-03
1.236750e-09,9.500000e-03
1.240750e-09,9.578125e-03
1.244750e-09,9.093750e-03
1.248750e-09,8.828125e-03
1.252750e-09,8.781250e-03
1.256750e-09,8.968750e-03
1.260750e-09,8.562500e-03
1.264750e-09,8.484375e-03
1.268750e-09,8.421875e-03
1.272750e-09,8.375000e-03
1.276750e-09,8.343750e-03
1.280750e-09,8.640625e-03
1.284750e-09,8.328125e-03
1.288750e-09,8.234375e-03
1.292750e-09,8.343750e-03
1.296750e-09,8.656250e-03
1.300750e-09,8.375000e-03
1.304750e-09,8.375000e-03
1.308750e-09,8.375000e-03
1.312750e-09,8.375000e-03
1.316750e-09,8.359375e-03
1.320750e-09,8.640625e-03
1.324750e-09,8.312500e-03
1.328750e-09,8.156250e-03
1.332750e-09,8.203125e-03
1.336750e-09,8.437500e-03
1.340750e-09,8.046875e-03
1.344750e-09,7.953125e-03
1.348750e-09,7.859375e-03
1.352750e-09,7.750000e-03
1.356750e-09,7.625000e-03
1.360750e-09,7.812500e-03
1.364750e-09,7.390625e-03
1.368750e-09,7.171875e-03
1.372750e-09,7.156250e-03
1.376750e-09,7.343750e-03
1.380750e-09,6.953125e-03
1.384750e-09,6.859375e-03
1.388750e-09,6.781250e-03
1.392750e-09,6.734375e-03
1.396750e-09,6.687500e-03
1.400750e-09,6.968750e-03
1.404750e-09,6.656250e-03
1.408750e-09,6.578125e-03
1.412750e-09,6.734375e-03
1.416750e-09,7.093750e-03
1.420750e-09,6.875000e-03
1.424750e-09,6.984375e-03
1.428750e-09,7.125000e-03
1.432750e-09,7.265625e-03
1.436750e-09,7.437500e-03
1.440750e-09,7.921875e-03
1.444750e-09,7.796875e-03
1.448750e-09,7.906250e-03
1.452750e-09,8.218750e-03
1.456750e-09,8.718750e-03
1.460750e-09,8.640625e-03
1.464750e-09,8.843750e-03
1.468750e-09,9.046875e-03
1.472750e-09,9.234375e-03
1.476750e-09,9.406250e-03
1.480750e-09,9.859375e-03
1.484750e-09,9.703125e-03
1.488750e-09,9.718750e-03
1.492750e-09,9.906250e-03
1.496750e-09,1.026563e-02
1.500750e-09,9.984375e-03
1.504750e-09,9.984375e-03
1.508750e-09,9.953125e-03
1.512750e-09,9.875000e-03
1.516750e-09,9.765625e-03
1.520750e-09,9.937500e-03
1.524750e-09,9.468750e-03
1.528750e-09,9.156250e-03
1.532750e-09,9.031250e-03
1.536750e-09,9.062500e-03
1.540750e-09,8.468750e-03
1.544750e-09,8.156250e-03
1.548750e-09,7.828125e-03
1.552750e-09,7.468750e-03
1.556750e-09,7.109375e-03
1.560750e-09,7.031250e-03
1.564750e-09,6.343750e-03
1.568750e-09,5.843750e-03
1.572750e-09,5.562500e-03
1.576750e-09,5.484375e-03
1.580750e-09,4.796875e-03
1.584750e-09,4.437500e-03
1.588750e-09,4.078125e-03
1.592750e-09,3.750000e-03
1.596750e-09,3.437500e-03
1.600750e-09,3.468750e-03
1.604750e-09,2.906250e-03
1.608750e-09,2.578125e-03
1.612750e-09,2.484375e-03
1.616750e-09,2.625000e-03
1.620750e-09,2.187500e-03
1.624750e-09,2.093750e-03
1.628750e-09,2.031250e-03
1.632750e-09,2.031250e-03
1.636750e-09,2.031250e-03
1.640750e-09,2.390625e-03
1.644750e-09,2.156250e-03
1.648750e-09,2.171875e-03
1.652750e-09,2.421875e-03
1.656750e-09,2.890625e-03
1.660750e-09,2.781250e-03
1.664750e-09,3.000000e-03
1.668750e-09,3.234375e-03
1.672750e-09,3.500000e-03
1.676750e-09,3.750000e-03
1.680750e-09,4.328125e-03
1.684750e-09,4.312500e-03
1.688750e-09,4.484375e-03
1.692750e-09,4.859375e-03
1.696750e-09,5.437500e-03
1.700750e-09,5.406250e-03
1.704750e-09,5.656250e-03
1.708750e-09,5.906250e-03
1.712750e-09,6.125000e-03
1.716750e-09,6.328125e-03
1.720750e-09,6.812500e-03
1.724750e-09,6.671875e-03
1.728750e-09,6.718750e-03
1.732750e-09,6.921875e-03
1.736750e-09,7.312500e-03
1.740750e-09,7.093750e-03
1.744750e-09,7.125000e-03
1.748750e-09,7.156250e-03
1.752750e-09,7.140625e-03
1.756750e-09,7.125000e-03
