Measurements-streak-laser/Photodiode-on-Tek-6GHz/Tek000_ch1_20190613132814568.csv

Model,MSO64
Waveform Type,ANALOG
Horizontal Units,s
Sample Interval,4.000000e-12
Record Length,1000
Zero Index,310.617188
Vertical Units,V

TIME,CH1
-1.242469e-09,6.968750e-03
-1.238469e-09,6.343750e-03
-1.234469e-09,6.046875e-03
-1.230469e-09,5.765625e-03
-1.226469e-09,5.531250e-03
-1.222469e-09,5.312500e-03
-1.218469e-09,5.453125e-03
-1.214469e-09,5.015625e-03
-1.210469e-09,4.828125e-03
-1.206469e-09,4.890625e-03
-1.202469e-09,5.203125e-03
-1.198469e-09,4.937500e-03
-1.194469e-09,5.031250e-03
-1.190469e-09,5.156250e-03
-1.186469e-09,5.312500e-03
-1.182469e-09,5.515625e-03
-1.178469e-09,6.031250e-03
-1.174469e-09,5.984375e-03
-1.170469e-09,6.156250e-03
-1.166469e-09,6.531250e-03
-1.162469e-09,7.125000e-03
-1.158469e-09,7.125000e-03
-1.154469e-09,7.421875e-03
-1.150469e-09,7.718750e-03
-1.146469e-09,8.015625e-03
-1.142469e-09,8.296875e-03
-1.138469e-09,8.859375e-03
-1.134469e-09,8.812500e-03
-1.130469e-09,8.937500e-03
-1.126469e-09,9.234375e-03
-1.122469e-09,9.718750e-03
-1.118469e-09,9.578125e-03
-1.114469e-09,9.718750e-03
-1.110469e-09,9.843750e-03
-1.106469e-09,9.937500e-03
-1.102469e-09,1.000000e-02
-1.098469e-09,1.035938e-02
-1.094469e-09,1.009375e-02
-1.090469e-09,1.001563e-02
-1.086469e-09,1.010938e-02
-1.082469e-09,1.040625e-02
-1.078469e-09,1.007813e-02
-1.074469e-09,1.006250e-02
-1.070469e-09,1.003125e-02
-1.066469e-09,9.984375e-03
-1.062469e-09,9.937500e-03
-1.058469e-09,1.020313e-02
-1.054469e-09,9.843750e-03
-1.050469e-09,9.703125e-03
-1.046469e-09,9.750000e-03
-1.042469e-09,1.000000e-02
-1.038469e-09,9.656250e-03
-1.034469e-09,9.609375e-03
-1.030469e-09,9.562500e-03
-1.026469e-09,9.500000e-03
-1.022469e-09,9.453125e-03
-1.018469e-09,9.687500e-03
-1.014469e-09,9.328125e-03
-1.010469e-09,9.156250e-03
-1.006469e-09,9.171875e-03
-1.002469e-09,9.390625e-03
-9.984687e-10,9.000000e-03
-9.944687e-10,8.906250e-03
-9.904688e-10,8.781250e-03
-9.864688e-10,8.671875e-03
-9.824688e-10,8.546875e-03
-9.784688e-10,8.703125e-03
-9.744688e-10,8.265625e-03
-9.704688e-10,8.000000e-03
-9.664687e-10,7.953125e-03
-9.624687e-10,8.093750e-03
-9.584687e-10,7.625000e-03
-9.544687e-10,7.453125e-03
-9.504687e-10,7.281250e-03
-9.464687e-10,7.125000e-03
-9.424687e-10,6.968750e-03
-9.384687e-10,7.125000e-03
-9.344687e-10,6.687500e-03
-9.304688e-10,6.453125e-03
-9.264688e-10,6.437500e-03
-9.224687e-10,6.625000e-03
-9.184687e-10,6.234375e-03
-9.144687e-10,6.171875e-03
-9.104687e-10,6.125000e-03
-9.064687e-10,6.078125e-03
-9.024688e-10,6.062500e-03
-8.984688e-10,6.359375e-03
-8.944688e-10,6.078125e-03
-8.904687e-10,6.000000e-03
-8.864687e-10,6.156250e-03
-8.824687e-10,6.515625e-03
-8.784687e-10,6.281250e-03
-8.744687e-10,6.343750e-03
-8.704688e-10,6.421875e-03
-8.664688e-10,6.515625e-03
-8.624687e-10,6.593750e-03
-8.584687e-10,6.984375e-03
-8.544687e-10,6.750000e-03
-8.504687e-10,6.718750e-03
-8.464687e-10,6.875000e-03
-8.424688e-10,7.234375e-03
-8.384688e-10,6.968750e-03
-8.344688e-10,6.984375e-03
-8.304687e-10,6.968750e-03
-8.264687e-10,6.953125e-03
-8.224687e-10,6.921875e-03
-8.184687e-10,7.156250e-03
-8.144687e-10,6.781250e-03
-8.104688e-10,6.578125e-03
-8.064688e-10,6.562500e-03
-8.024687e-10,6.718750e-03
-7.984687e-10,6.250000e-03
-7.944687e-10,6.078125e-03
-7.904687e-10,5.890625e-03
-7.864687e-10,5.703125e-03
-7.824688e-10,5.484375e-03
-7.784688e-10,5.578125e-03
-7.744688e-10,5.046875e-03
-7.704687e-10,4.734375e-03
-7.664687e-10,4.609375e-03
-7.624687e-10,4.703125e-03
-7.584687e-10,4.187500e-03
-7.544687e-10,3.984375e-03
-7.504688e-10,3.796875e-03
-7.464688e-10,3.609375e-03
-7.424687e-10,3.453125e-03
-7.384687e-10,3.609375e-03
-7.344687e-10,3.171875e-03
-7.304687e-10,2.968750e-03
-7.264687e-10,2.984375e-03
-7.224688e-10,3.218750e-03
-7.184688e-10,2.859375e-03
-7.144688e-10,2.843750e-03
-7.104687e-10,2.843750e-03
-7.064687e-10,2.843750e-03
-7.024687e-10,2.890625e-03
-6.984687e-10,3.234375e-03
-6.944687e-10,3.000000e-03
-6.904688e-10,2.984375e-03
-6.864688e-10,3.171875e-03
-6.824688e-10,3.578125e-03
-6.784687e-10,3.390625e-03
-6.744687e-10,3.515625e-03
-6.704687e-10,3.625000e-03
-6.664687e-10,3.750000e-03
-6.624688e-10,3.875000e-03
-6.584688e-10,4.296875e-03
-6.544688e-10,4.109375e-03
-6.504687e-10,4.125000e-03
-6.464687e-10,4.328125e-03
-6.424687e-10,4.718750e-03
-6.384687e-10,4.500000e-03
-6.344687e-10,4.562500e-03
-6.304688e-10,4.625000e-03
-6.264688e-10,4.656250e-03
-6.224688e-10,4.687500e-03
-6.184687e-10,5.000000e-03
-6.144687e-10,4.687500e-03
-6.104687e-10,4.562500e-03
-6.064687e-10,4.625000e-03
-6.024688e-10,4.875000e-03
-5.984688e-10,4.500000e-03
-5.944688e-10,4.421875e-03
-5.904687e-10,4.312500e-03
-5.864687e-10,4.218750e-03
-5.824687e-10,4.093750e-03
-5.784687e-10,4.265625e-03
-5.744687e-10,3.828125e-03
-5.704688e-10,3.593750e-03
-5.664688e-10,3.546875e-03
-5.624688e-10,3.703125e-03
-5.584687e-10,3.250000e-03
-5.544687e-10,3.093750e-03
-5.504687e-10,2.937500e-03
-5.464687e-10,2.796875e-03
-5.424688e-10,2.656250e-03
-5.384688e-10,2.812500e-03
-5.344688e-10,2.375000e-03
-5.304687e-10,2.156250e-03
-5.264687e-10,2.140625e-03
-5.224687e-10,2.343750e-03
-5.184687e-10,1.953125e-03
-5.144687e-10,1.859375e-03
-5.104688e-10,1.781250e-03
-5.064688e-10,1.718750e-03
-5.024688e-10,1.671875e-03
-4.984687e-10,1.937500e-03
-4.944687e-10,1.609375e-03
-4.904687e-10,1.500000e-03
-4.864687e-10,1.609375e-03
-4.824688e-10,1.937500e-03
-4.784688e-10,1.656250e-03
-4.744688e-10,1.703125e-03
-4.704687e-10,1.750000e-03
-4.664687e-10,1.812500e-03
-4.624687e-10,1.890625e-03
-4.584687e-10,2.281250e-03
-4.544687e-10,2.078125e-03
-4.504688e-10,2.093750e-03
-4.464687e-10,2.312500e-03
-4.424687e-10,2.765625e-03
-4.384688e-10,2.625000e-03
-4.344688e-10,2.796875e-03
-4.304687e-10,2.937500e-03
-4.264687e-10,3.140625e-03
-4.224688e-10,3.312500e-03
-4.184687e-10,3.828125e-03
-4.144687e-10,3.734375e-03
-4.104687e-10,3.875000e-03
-4.064688e-10,4.218750e-03
-4.024687e-10,4.781250e-03
-3.984687e-10,4.765625e-03
-3.944687e-10,5.062500e-03
-3.904688e-10,5.296875e-03
-3.864687e-10,5.578125e-03
-3.824687e-10,5.843750e-03
-3.784688e-10,6.453125e-03
-3.744688e-10,6.421875e-03
-3.704687e-10,6.609375e-03
-3.664687e-10,7.031250e-03
-3.624688e-10,7.625000e-03
-3.584687e-10,7.656250e-03
-3.544687e-10,7.953125e-03
-3.504687e-10,8.156250e-03
-3.464688e-10,8.375000e-03
-3.424687e-10,8.578125e-03
-3.384687e-10,9.078125e-03
-3.344687e-10,8.921875e-03
-3.304688e-10,8.953125e-03
-3.264687e-10,9.203125e-03
-3.224687e-10,9.593750e-03
-3.184688e-10,9.406250e-03
-3.144688e-10,9.453125e-03
-3.104687e-10,9.375000e-03
-3.064687e-10,9.250000e-03
-3.024688e-10,9.140625e-03
-2.984688e-10,9.281250e-03
-2.944687e-10,8.781250e-03
-2.904687e-10,8.421875e-03
-2.864688e-10,8.312500e-03
-2.824687e-10,8.328125e-03
-2.784687e-10,7.781250e-03
-2.744687e-10,7.515625e-03
-2.704688e-10,7.093750e-03
-2.664687e-10,6.625000e-03
-2.624687e-10,6.265625e-03
-2.584688e-10,6.140625e-03
-2.544688e-10,5.468750e-03
-2.504687e-10,4.968750e-03
-2.464687e-10,4.765625e-03
-2.424688e-10,4.718750e-03
-2.384688e-10,4.203125e-03
-2.344687e-10,4.000000e-03
-2.304687e-10,3.718750e-03
-2.264687e-10,3.437500e-03
-2.224687e-10,3.359375e-03
-2.184687e-10,3.531250e-03
-2.144687e-10,3.265625e-03
-2.104687e-10,3.171875e-03
-2.064688e-10,3.437500e-03
-2.024687e-10,3.906250e-03
-1.984688e-10,3.906250e-03
-1.944687e-10,4.265625e-03
-1.904688e-10,4.562500e-03
-1.864687e-10,4.843750e-03
-1.824688e-10,5.375000e-03
-1.784687e-10,6.062500e-03
-1.744688e-10,6.390625e-03
-1.704687e-10,6.796875e-03
-1.664687e-10,7.500000e-03
-1.624687e-10,8.375000e-03
-1.584687e-10,8.671875e-03
-1.544687e-10,9.296875e-03
-1.504687e-10,9.781250e-03
-1.464688e-10,1.017188e-02
-1.424687e-10,1.075000e-02
-1.384688e-10,1.135938e-02
-1.344687e-10,1.157813e-02
-1.304688e-10,1.176563e-02
-1.264687e-10,1.214063e-02
-1.224688e-10,1.264063e-02
-1.184687e-10,1.248438e-02
-1.144687e-10,1.256250e-02
-1.104687e-10,1.251563e-02
-1.064687e-10,1.234375e-02
-1.024687e-10,1.229688e-02
-9.846875e-11,1.231250e-02
-9.446875e-11,1.198438e-02
-9.046875e-11,1.165625e-02
-8.646875e-11,1.150000e-02
-8.246875e-11,1.160938e-02
-7.846875e-11,1.115625e-02
-7.446875e-11,1.100000e-02
-7.046875e-11,1.089063e-02
-6.646875e-11,1.082813e-02
-6.246875e-11,1.101563e-02
-5.846875e-11,1.150000e-02
-5.446875e-11,1.184375e-02
-5.046875e-11,1.240625e-02
-4.646875e-11,1.332813e-02
-4.246875e-11,1.476563e-02
-3.846875e-11,1.592188e-02
-3.446875e-11,1.757813e-02
-3.046875e-11,1.954688e-02
-2.646875e-11,2.185938e-02
-2.246875e-11,2.459375e-02
-1.846875e-11,2.793750e-02
-1.446875e-11,3.137500e-02
-1.046875e-11,3.526563e-02
-6.468750e-12,3.967188e-02
-2.468750e-12,4.481250e-02
1.531250e-12,4.990625e-02
5.531250e-12,5.560938e-02
9.531250e-12,6.176563e-02
1.353125e-11,6.840625e-02
1.753125e-11,7.553125e-02
2.153125e-11,8.337500e-02
2.553125e-11,9.132813e-02
2.953125e-11,9.978125e-02
3.353125e-11,1.087031e-01
3.753125e-11,1.182969e-01
4.153125e-11,1.278750e-01
4.553125e-11,1.379063e-01
4.953125e-11,1.482969e-01
5.353125e-11,1.590313e-01
5.753125e-11,1.700625e-01
6.153125e-11,1.816719e-01
6.553125e-11,1.931875e-01
6.953125e-11,2.049688e-01
7.353125e-11,2.169688e-01
7.753125e-11,2.293281e-01
8.153125e-11,2.415000e-01
8.553125e-11,2.537969e-01
8.953125e-11,2.661563e-01
9.353125e-11,2.785625e-01
9.753125e-11,2.909375e-01
1.015312e-10,3.035625e-01
1.055312e-10,3.157813e-01
1.095312e-10,3.279688e-01
1.135312e-10,3.400000e-01
1.175312e-10,3.520313e-01
1.215313e-10,3.636250e-01
1.255312e-10,3.749688e-01
1.295313e-10,3.860781e-01
1.335312e-10,3.969219e-01
1.375313e-10,4.074063e-01
1.415312e-10,4.178125e-01
1.455312e-10,4.275781e-01
1.495312e-10,4.370000e-01
1.535312e-10,4.459844e-01
1.575313e-10,4.546719e-01
1.615312e-10,4.627188e-01
1.655313e-10,4.702969e-01
1.695312e-10,4.774063e-01
1.735313e-10,4.840313e-01
1.775312e-10,4.901094e-01
1.815313e-10,4.958906e-01
1.855312e-10,5.009062e-01
1.895313e-10,5.054531e-01
1.935312e-10,5.094219e-01
1.975312e-10,5.129844e-01
2.015312e-10,5.157969e-01
2.055312e-10,5.181563e-01
2.095312e-10,5.199531e-01
2.135312e-10,5.212656e-01
2.175313e-10,5.220313e-01
2.215312e-10,5.224219e-01
2.255313e-10,5.221719e-01
2.295312e-10,5.214688e-01
2.335313e-10,5.202813e-01
2.375312e-10,5.187500e-01
2.415312e-10,5.165625e-01
2.455313e-10,5.140938e-01
2.495313e-10,5.112188e-01
2.535312e-10,5.079844e-01
2.575312e-10,5.043750e-01
2.615313e-10,5.005156e-01
2.655312e-10,4.962188e-01
2.695312e-10,4.917031e-01
2.735312e-10,4.868750e-01
2.775313e-10,4.819219e-01
2.815312e-10,4.764688e-01
2.855312e-10,4.710469e-01
2.895313e-10,4.653594e-01
2.935313e-10,4.595469e-01
2.975312e-10,4.535781e-01
3.015312e-10,4.475156e-01
3.055313e-10,4.411875e-01
3.095313e-10,4.348594e-01
3.135312e-10,4.283906e-01
3.175312e-10,4.219531e-01
3.215313e-10,4.151406e-01
3.255312e-10,4.085625e-01
3.295312e-10,4.018125e-01
3.335312e-10,3.950781e-01
3.375313e-10,3.883281e-01
3.415312e-10,3.815469e-01
3.455312e-10,3.745313e-01
3.495313e-10,3.676563e-01
3.535313e-10,3.606875e-01
3.575312e-10,3.537969e-01
3.615312e-10,3.465781e-01
3.655313e-10,3.396406e-01
3.695313e-10,3.325938e-01
3.735312e-10,3.255781e-01
3.775312e-10,3.186094e-01
3.815313e-10,3.116406e-01
3.855312e-10,3.043750e-01
3.895312e-10,2.973438e-01
3.935312e-10,2.902656e-01
3.975313e-10,2.832656e-01
4.015312e-10,2.759844e-01
4.055312e-10,2.690156e-01
4.095313e-10,2.620000e-01
4.135313e-10,2.550625e-01
4.175312e-10,2.482188e-01
4.215312e-10,2.414844e-01
4.255313e-10,2.344375e-01
4.295312e-10,2.277188e-01
4.335312e-10,2.210469e-01
4.375312e-10,2.145000e-01
4.415313e-10,2.077969e-01
4.455312e-10,2.014219e-01
4.495312e-10,1.951563e-01
4.535312e-10,1.890313e-01
4.575313e-10,1.830313e-01
4.615312e-10,1.773125e-01
4.655312e-10,1.712813e-01
4.695313e-10,1.656719e-01
4.735313e-10,1.602188e-01
4.775312e-10,1.549375e-01
4.815312e-10,1.495781e-01
4.855312e-10,1.445313e-01
4.895312e-10,1.397188e-01
4.935313e-10,1.350625e-01
4.975313e-10,1.305625e-01
5.015313e-10,1.263906e-01
5.055312e-10,1.219063e-01
5.095312e-10,1.177969e-01
5.135312e-10,1.139531e-01
5.175312e-10,1.102500e-01
5.215312e-10,1.064688e-01
5.255313e-10,1.029375e-01
5.295313e-10,9.970313e-02
5.335313e-10,9.654688e-02
5.375312e-10,9.350000e-02
5.415312e-10,9.081250e-02
5.455312e-10,8.775000e-02
5.495312e-10,8.503125e-02
5.535313e-10,8.259375e-02
5.575313e-10,8.026563e-02
5.615313e-10,7.781250e-02
5.655312e-10,7.559375e-02
5.695312e-10,7.364063e-02
5.735312e-10,7.176563e-02
5.775312e-10,6.993750e-02
5.815312e-10,6.845313e-02
5.855313e-10,6.659375e-02
5.895313e-10,6.501563e-02
5.935313e-10,6.376563e-02
5.975312e-10,6.262500e-02
6.015312e-10,6.128125e-02
6.055312e-10,6.015625e-02
6.095312e-10,5.931250e-02
6.135313e-10,5.848438e-02
6.175313e-10,5.765625e-02
6.215313e-10,5.714063e-02
6.255312e-10,5.621875e-02
6.295312e-10,5.553125e-02
6.335312e-10,5.512500e-02
6.375312e-10,5.481250e-02
6.415312e-10,5.417188e-02
6.455313e-10,5.370313e-02
6.495313e-10,5.342188e-02
6.535313e-10,5.309375e-02
6.575312e-10,5.265625e-02
6.615312e-10,5.243750e-02
6.655312e-10,5.173438e-02
6.695312e-10,5.112500e-02
6.735313e-10,5.073438e-02
6.775313e-10,5.035938e-02
6.815313e-10,4.951563e-02
6.855312e-10,4.876563e-02
6.895312e-10,4.807813e-02
6.935312e-10,4.728125e-02
6.975312e-10,4.628125e-02
7.015312e-10,4.543750e-02
7.055313e-10,4.403125e-02
7.095313e-10,4.268750e-02
7.135313e-10,4.150000e-02
7.175312e-10,4.035938e-02
7.215312e-10,3.864063e-02
7.255312e-10,3.707813e-02
7.295312e-10,3.556250e-02
7.335313e-10,3.398438e-02
7.375313e-10,3.221875e-02
7.415313e-10,3.070313e-02
7.455312e-10,2.867188e-02
7.495312e-10,2.678125e-02
7.535312e-10,2.515625e-02
7.575312e-10,2.368750e-02
7.615312e-10,2.173438e-02
7.655313e-10,2.007813e-02
7.695313e-10,1.856250e-02
7.735313e-10,1.710938e-02
7.775312e-10,1.564063e-02
7.815312e-10,1.453125e-02
7.855312e-10,1.303125e-02
7.895312e-10,1.181250e-02
7.935313e-10,1.095313e-02
7.975313e-10,1.039063e-02
8.015313e-10,9.406250e-03
8.055312e-10,8.828125e-03
8.095312e-10,8.453125e-03
8.135312e-10,8.203125e-03
8.175312e-10,8.015625e-03
8.215312e-10,8.218750e-03
8.255313e-10,8.031250e-03
8.295313e-10,8.125000e-03
8.335313e-10,8.562500e-03
8.375312e-10,9.281250e-03
8.415312e-10,9.531250e-03
8.455312e-10,1.014063e-02
8.495312e-10,1.085938e-02
8.535312e-10,1.164063e-02
8.575313e-10,1.239063e-02
8.615313e-10,1.346875e-02
8.655312e-10,1.400000e-02
8.695312e-10,1.475000e-02
8.735312e-10,1.570313e-02
8.775312e-10,1.684375e-02
8.815312e-10,1.737500e-02
8.855313e-10,1.817188e-02
8.895313e-10,1.895313e-02
8.935313e-10,1.970313e-02
8.975312e-10,2.034375e-02
9.015312e-10,2.121875e-02
9.055312e-10,2.146875e-02
9.095312e-10,2.185938e-02
9.135312e-10,2.239063e-02
9.175313e-10,2.306250e-02
9.215313e-10,2.307813e-02
9.255312e-10,2.332813e-02
9.295312e-10,2.353125e-02
9.335312e-10,2.370313e-02
9.375312e-10,2.378125e-02
9.415312e-10,2.409375e-02
9.455312e-10,2.379688e-02
9.495312e-10,2.365625e-02
9.535312e-10,2.367188e-02
9.575312e-10,2.387500e-02
9.615313e-10,2.346875e-02
9.655313e-10,2.331250e-02
9.695313e-10,2.315625e-02
9.735313e-10,2.300000e-02
9.775313e-10,2.281250e-02
9.815313e-10,2.290625e-02
9.855312e-10,2.240625e-02
9.895312e-10,2.210938e-02
9.935312e-10,2.201563e-02
9.975312e-10,2.210938e-02
1.001531e-09,2.162500e-02
1.005531e-09,2.142188e-02
1.009531e-09,2.123438e-02
1.013531e-09,2.104688e-02
1.017531e-09,2.084375e-02
1.021531e-09,2.093750e-02
1.025531e-09,2.043750e-02
1.029531e-09,2.014063e-02
1.033531e-09,2.004688e-02
1.037531e-09,2.012500e-02
1.041531e-09,1.962500e-02
1.045531e-09,1.942188e-02
1.049531e-09,1.921875e-02
1.053531e-09,1.900000e-02
1.057531e-09,1.878125e-02
1.061531e-09,1.884375e-02
1.065531e-09,1.832813e-02
1.069531e-09,1.801563e-02
1.073531e-09,1.790625e-02
1.077531e-09,1.798438e-02
1.081531e-09,1.748438e-02
1.085531e-09,1.729688e-02
1.089531e-09,1.712500e-02
1.093531e-09,1.696875e-02
1.097531e-09,1.681250e-02
1.101531e-09,1.695313e-02
1.105531e-09,1.654688e-02
1.109531e-09,1.634375e-02
1.113531e-09,1.637500e-02
1.117531e-09,1.660938e-02
1.121531e-09,1.628125e-02
1.125531e-09,1.626563e-02
1.129531e-09,1.628125e-02
1.133531e-09,1.631250e-02
1.137531e-09,1.634375e-02
1.141531e-09,1.667188e-02
1.145531e-09,1.643750e-02
1.149531e-09,1.640625e-02
1.153531e-09,1.656250e-02
1.157531e-09,1.693750e-02
1.161531e-09,1.668750e-02
1.165531e-09,1.673438e-02
1.169531e-09,1.676563e-02
1.173531e-09,1.678125e-02
1.177531e-09,1.676563e-02
1.181531e-09,1.701563e-02
1.185531e-09,1.664063e-02
1.189531e-09,1.642188e-02
1.193531e-09,1.637500e-02
1.197531e-09,1.646875e-02
1.201531e-09,1.593750e-02
1.205531e-09,1.565625e-02
1.209531e-09,1.532813e-02
1.213531e-09,1.495313e-02
1.217531e-09,1.453125e-02
1.221531e-09,1.437500e-02
1.225531e-09,1.357813e-02
1.229531e-09,1.295313e-02
1.233531e-09,1.250000e-02
1.237531e-09,1.220313e-02
1.241531e-09,1.131250e-02
1.245531e-09,1.070313e-02
1.249531e-09,1.007813e-02
1.253531e-09,9.468750e-03
1.257531e-09,8.875000e-03
1.261531e-09,8.578125e-03
1.265531e-09,7.718750e-03
1.269531e-09,7.093750e-03
1.273531e-09,6.703125e-03
1.277531e-09,6.562500e-03
1.281531e-09,5.875000e-03
1.285531e-09,5.546875e-03
1.289531e-09,5.296875e-03
1.293531e-09,5.093750e-03
1.297531e-09,4.984375e-03
1.301531e-09,5.234375e-03
1.305531e-09,4.968750e-03
1.309531e-09,4.984375e-03
1.313531e-09,5.281250e-03
1.317531e-09,5.828125e-03
1.321531e-09,5.875000e-03
1.325531e-09,6.281250e-03
1.329531e-09,6.765625e-03
1.333531e-09,7.296875e-03
1.337531e-09,7.875000e-03
1.341531e-09,8.812500e-03
1.345531e-09,9.187500e-03
1.349531e-09,9.781250e-03
1.353531e-09,1.060938e-02
1.357531e-09,1.164063e-02
1.361531e-09,1.207813e-02
1.365531e-09,1.279688e-02
1.369531e-09,1.351563e-02
1.373531e-09,1.418750e-02
1.377531e-09,1.484375e-02
1.381531e-09,1.575000e-02
1.385531e-09,1.600000e-02
1.389531e-09,1.639063e-02
1.393531e-09,1.692188e-02
1.397531e-09,1.756250e-02
1.401531e-09,1.754688e-02
1.405531e-09,1.775000e-02
1.409531e-09,1.787500e-02
1.413531e-09,1.790625e-02
1.417531e-09,1.785938e-02
1.421531e-09,1.803125e-02
1.425531e-09,1.753125e-02
1.429531e-09,1.714063e-02
1.433531e-09,1.687500e-02
1.437531e-09,1.675000e-02
1.441531e-09,1.596875e-02
1.445531e-09,1.543750e-02
1.449531e-09,1.485938e-02
1.453531e-09,1.423438e-02
1.457531e-09,1.357813e-02
1.461531e-09,1.321875e-02
1.465531e-09,1.225000e-02
1.469531e-09,1.146875e-02
1.473531e-09,1.090625e-02
1.477531e-09,1.056250e-02
1.481531e-09,9.640625e-03
1.485531e-09,9.062500e-03
1.489531e-09,8.531250e-03
1.493531e-09,8.046875e-03
1.497531e-09,7.625000e-03
1.501531e-09,7.562500e-03
1.505531e-09,6.968750e-03
1.509531e-09,6.656250e-03
1.513531e-09,6.625000e-03
1.517531e-09,6.859375e-03
1.521531e-09,6.578125e-03
1.525531e-09,6.671875e-03
1.529531e-09,6.828125e-03
1.533531e-09,7.078125e-03
1.537531e-09,7.375000e-03
1.541531e-09,8.046875e-03
1.545531e-09,8.171875e-03
1.549531e-09,8.562500e-03
1.553531e-09,9.171875e-03
1.557531e-09,1.003125e-02
1.561531e-09,1.031250e-02
1.565531e-09,1.090625e-02
1.569531e-09,1.151563e-02
1.573531e-09,1.212500e-02
1.577531e-09,1.270313e-02
1.581531e-09,1.357813e-02
1.585531e-09,1.382813e-02
1.589531e-09,1.423438e-02
1.593531e-09,1.481250e-02
1.597531e-09,1.553125e-02
1.601531e-09,1.559375e-02
1.605531e-09,1.589063e-02
1.609531e-09,1.612500e-02
1.613531e-09,1.629688e-02
1.617531e-09,1.640625e-02
1.621531e-09,1.673438e-02
1.625531e-09,1.640625e-02
1.629531e-09,1.618750e-02
1.633531e-09,1.612500e-02
1.637531e-09,1.618750e-02
1.641531e-09,1.559375e-02
1.645531e-09,1.523438e-02
1.649531e-09,1.484375e-02
1.653531e-09,1.440625e-02
1.657531e-09,1.392188e-02
1.661531e-09,1.371875e-02
1.665531e-09,1.289063e-02
1.669531e-09,1.223438e-02
1.673531e-09,1.178125e-02
1.677531e-09,1.153125e-02
1.681531e-09,1.068750e-02
1.685531e-09,1.015625e-02
1.689531e-09,9.625000e-03
1.693531e-09,9.140625e-03
1.697531e-09,8.671875e-03
1.701531e-09,8.531250e-03
1.705531e-09,7.812500e-03
1.709531e-09,7.343750e-03
1.713531e-09,7.109375e-03
1.717531e-09,7.109375e-03
1.721531e-09,6.546875e-03
1.725531e-09,6.328125e-03
1.729531e-09,6.140625e-03
1.733531e-09,5.968750e-03
1.737531e-09,5.843750e-03
1.741531e-09,6.031250e-03
1.745531e-09,5.640625e-03
1.749531e-09,5.468750e-03
1.753531e-09,5.515625e-03
1.757531e-09,5.765625e-03
