Measurements-streak-laser/Photodiode-on-Tek-6GHz/Tek000_ch1_20190613132749596.csv

Model,MSO64
Waveform Type,ANALOG
Horizontal Units,s
Sample Interval,4.000000e-12
Record Length,1000
Zero Index,310.382812
Vertical Units,V

TIME,CH1
-1.241531e-09,1.109375e-03
-1.237531e-09,1.234375e-03
-1.233531e-09,7.500000e-04
-1.229531e-09,4.687500e-04
-1.225531e-09,4.062500e-04
-1.221531e-09,5.625000e-04
-1.217531e-09,1.250000e-04
-1.213531e-09,1.562500e-05
-1.209531e-09,-4.687500e-05
-1.205531e-09,-6.250000e-05
-1.201531e-09,-4.687500e-05
-1.197531e-09,3.281250e-04
-1.193531e-09,1.250000e-04
-1.189531e-09,1.875000e-04
-1.185531e-09,5.000000e-04
-1.181531e-09,1.062500e-03
-1.177531e-09,1.046875e-03
-1.173531e-09,1.375000e-03
-1.169531e-09,1.750000e-03
-1.165531e-09,2.125000e-03
-1.161531e-09,2.531250e-03
-1.157531e-09,3.265625e-03
-1.153531e-09,3.375000e-03
-1.149531e-09,3.687500e-03
-1.145531e-09,4.187500e-03
-1.141531e-09,4.875000e-03
-1.137531e-09,4.906250e-03
-1.133531e-09,5.218750e-03
-1.129531e-09,5.468750e-03
-1.125531e-09,5.687500e-03
-1.121531e-09,5.843750e-03
-1.117531e-09,6.234375e-03
-1.113531e-09,5.953125e-03
-1.109531e-09,5.812500e-03
-1.105531e-09,5.828125e-03
-1.101531e-09,5.968750e-03
-1.097531e-09,5.421875e-03
-1.093531e-09,5.140625e-03
-1.089531e-09,4.812500e-03
-1.085531e-09,4.421875e-03
-1.081531e-09,4.000000e-03
-1.077531e-09,3.843750e-03
-1.073531e-09,3.062500e-03
-1.069531e-09,2.468750e-03
-1.065531e-09,2.062500e-03
-1.061531e-09,1.875000e-03
-1.057531e-09,1.078125e-03
-1.053531e-09,6.250000e-04
-1.049531e-09,1.875000e-04
-1.045531e-09,-1.875000e-04
-1.041531e-09,-5.312500e-04
-1.037531e-09,-5.156250e-04
-1.033531e-09,-1.062500e-03
-1.029531e-09,-1.328125e-03
-1.025531e-09,-1.328125e-03
-1.021531e-09,-1.046875e-03
-1.017531e-09,-1.312500e-03
-1.013531e-09,-1.203125e-03
-1.009531e-09,-1.031250e-03
-1.005531e-09,-8.125000e-04
-1.001531e-09,-5.156250e-04
-9.975312e-10,1.250000e-04
-9.935312e-10,1.875000e-04
-9.895312e-10,5.156250e-04
-9.855312e-10,1.062500e-03
-9.815313e-10,1.828125e-03
-9.775313e-10,2.000000e-03
-9.735313e-10,2.468750e-03
-9.695313e-10,2.921875e-03
-9.655313e-10,3.375000e-03
-9.615313e-10,3.796875e-03
-9.575312e-10,4.484375e-03
-9.535312e-10,4.531250e-03
-9.495312e-10,4.734375e-03
-9.455312e-10,5.078125e-03
-9.415312e-10,5.593750e-03
-9.375312e-10,5.421875e-03
-9.335312e-10,5.515625e-03
-9.295312e-10,5.531250e-03
-9.255312e-10,5.515625e-03
-9.215313e-10,5.437500e-03
-9.175313e-10,5.609375e-03
-9.135312e-10,5.125000e-03
-9.095312e-10,4.828125e-03
-9.055312e-10,4.687500e-03
-9.015312e-10,4.734375e-03
-8.975312e-10,4.156250e-03
-8.935313e-10,3.875000e-03
-8.895313e-10,3.593750e-03
-8.855313e-10,3.312500e-03
-8.815312e-10,3.062500e-03
-8.775312e-10,3.140625e-03
-8.735312e-10,2.640625e-03
-8.695312e-10,2.390625e-03
-8.655312e-10,2.375000e-03
-8.615313e-10,2.625000e-03
-8.575313e-10,2.312500e-03
-8.535312e-10,2.343750e-03
-8.495312e-10,2.437500e-03
-8.455312e-10,2.593750e-03
-8.415312e-10,2.796875e-03
-8.375312e-10,3.343750e-03
-8.335313e-10,3.328125e-03
-8.295313e-10,3.562500e-03
-8.255313e-10,4.031250e-03
-8.215312e-10,4.718750e-03
-8.175312e-10,4.812500e-03
-8.135312e-10,5.218750e-03
-8.095312e-10,5.640625e-03
-8.055312e-10,6.031250e-03
-8.015313e-10,6.421875e-03
-7.975313e-10,7.078125e-03
-7.935313e-10,7.093750e-03
-7.895312e-10,7.281250e-03
-7.855312e-10,7.609375e-03
-7.815312e-10,8.093750e-03
-7.775312e-10,7.890625e-03
-7.735313e-10,7.953125e-03
-7.695313e-10,7.921875e-03
-7.655313e-10,7.843750e-03
-7.615312e-10,7.687500e-03
-7.575312e-10,7.765625e-03
-7.535312e-10,7.187500e-03
-7.495312e-10,6.734375e-03
-7.455312e-10,6.437500e-03
-7.415313e-10,6.296875e-03
-7.375313e-10,5.500000e-03
-7.335313e-10,4.968750e-03
-7.295312e-10,4.421875e-03
-7.255312e-10,3.843750e-03
-7.215312e-10,3.265625e-03
-7.175312e-10,3.000000e-03
-7.135313e-10,2.140625e-03
-7.095313e-10,1.484375e-03
-7.055313e-10,1.078125e-03
-7.015312e-10,9.062500e-04
-6.975312e-10,1.718750e-04
-6.935312e-10,-2.031250e-04
-6.895312e-10,-5.312500e-04
-6.855312e-10,-7.812500e-04
-6.815313e-10,-9.843750e-04
-6.775313e-10,-8.125000e-04
-6.735313e-10,-1.171875e-03
-6.695312e-10,-1.265625e-03
-6.655312e-10,-1.109375e-03
-6.615312e-10,-6.718750e-04
-6.575312e-10,-7.812500e-04
-6.535313e-10,-5.468750e-04
-6.495313e-10,-2.656250e-04
-6.455313e-10,6.250000e-05
-6.415312e-10,4.218750e-04
-6.375312e-10,1.109375e-03
-6.335312e-10,1.203125e-03
-6.295312e-10,1.515625e-03
-6.255312e-10,2.031250e-03
-6.215313e-10,2.734375e-03
-6.175313e-10,2.812500e-03
-6.135313e-10,3.187500e-03
-6.095312e-10,3.531250e-03
-6.055312e-10,3.828125e-03
-6.015312e-10,4.093750e-03
-5.975312e-10,4.625000e-03
-5.935313e-10,4.500000e-03
-5.895313e-10,4.546875e-03
-5.855313e-10,4.734375e-03
-5.815312e-10,5.078125e-03
-5.775312e-10,4.781250e-03
-5.735312e-10,4.734375e-03
-5.695312e-10,4.656250e-03
-5.655312e-10,4.546875e-03
-5.615313e-10,4.421875e-03
-5.575313e-10,4.562500e-03
-5.535313e-10,4.078125e-03
-5.495312e-10,3.796875e-03
-5.455312e-10,3.718750e-03
-5.415312e-10,3.828125e-03
-5.375312e-10,3.359375e-03
-5.335313e-10,3.203125e-03
-5.295313e-10,3.062500e-03
-5.255313e-10,2.968750e-03
-5.215312e-10,2.890625e-03
-5.175312e-10,3.156250e-03
-5.135312e-10,2.859375e-03
-5.095312e-10,2.796875e-03
-5.055312e-10,2.984375e-03
-5.015313e-10,3.421875e-03
-4.975313e-10,3.296875e-03
-4.935313e-10,3.515625e-03
-4.895312e-10,3.750000e-03
-4.855312e-10,4.046875e-03
-4.815312e-10,4.343750e-03
-4.775312e-10,5.000000e-03
-4.735313e-10,5.046875e-03
-4.695313e-10,5.328125e-03
-4.655312e-10,5.812500e-03
-4.615312e-10,6.500000e-03
-4.575313e-10,6.593750e-03
-4.535312e-10,6.968750e-03
-4.495312e-10,7.312500e-03
-4.455312e-10,7.640625e-03
-4.415313e-10,7.937500e-03
-4.375312e-10,8.515625e-03
-4.335312e-10,8.437500e-03
-4.295312e-10,8.531250e-03
-4.255313e-10,8.781250e-03
-4.215312e-10,9.187500e-03
-4.175312e-10,8.953125e-03
-4.135313e-10,8.984375e-03
-4.095313e-10,8.921875e-03
-4.055312e-10,8.843750e-03
-4.015312e-10,8.703125e-03
-3.975313e-10,8.843750e-03
-3.935312e-10,8.328125e-03
-3.895312e-10,7.984375e-03
-3.855312e-10,7.843750e-03
-3.815313e-10,7.859375e-03
-3.775312e-10,7.281250e-03
-3.735312e-10,6.984375e-03
-3.695313e-10,6.640625e-03
-3.655313e-10,6.312500e-03
-3.615312e-10,5.984375e-03
-3.575312e-10,5.984375e-03
-3.535313e-10,5.375000e-03
-3.495313e-10,4.984375e-03
-3.455312e-10,4.859375e-03
-3.415312e-10,4.937500e-03
-3.375313e-10,4.484375e-03
-3.335312e-10,4.359375e-03
-3.295312e-10,4.203125e-03
-3.255312e-10,4.093750e-03
-3.215313e-10,4.031250e-03
-3.175312e-10,4.312500e-03
-3.135312e-10,4.031250e-03
-3.095313e-10,3.984375e-03
-3.055313e-10,4.203125e-03
-3.015312e-10,4.625000e-03
-2.975312e-10,4.531250e-03
-2.935313e-10,4.750000e-03
-2.895313e-10,4.921875e-03
-2.855312e-10,5.125000e-03
-2.815312e-10,5.375000e-03
-2.775313e-10,5.921875e-03
-2.735312e-10,5.906250e-03
-2.695312e-10,6.078125e-03
-2.655312e-10,6.500000e-03
-2.615313e-10,7.078125e-03
-2.575312e-10,7.109375e-03
-2.535312e-10,7.437500e-03
-2.495313e-10,7.687500e-03
-2.455313e-10,7.906250e-03
-2.415312e-10,8.187500e-03
-2.375312e-10,8.703125e-03
-2.335313e-10,8.656250e-03
-2.295312e-10,8.750000e-03
-2.255313e-10,9.078125e-03
-2.215312e-10,9.546875e-03
-2.175313e-10,9.437500e-03
-2.135312e-10,9.609375e-03
-2.095312e-10,9.687500e-03
-2.055312e-10,9.718750e-03
-2.015312e-10,9.828125e-03
-1.975312e-10,1.010938e-02
-1.935312e-10,9.875000e-03
-1.895313e-10,9.734375e-03
-1.855312e-10,9.812500e-03
-1.815313e-10,1.004688e-02
-1.775312e-10,9.656250e-03
-1.735313e-10,9.562500e-03
-1.695312e-10,9.390625e-03
-1.655313e-10,9.156250e-03
-1.615312e-10,9.000000e-03
-1.575313e-10,9.015625e-03
-1.535312e-10,8.531250e-03
-1.495312e-10,8.156250e-03
-1.455312e-10,7.968750e-03
-1.415312e-10,7.984375e-03
-1.375313e-10,7.390625e-03
-1.335312e-10,7.093750e-03
-1.295313e-10,6.750000e-03
-1.255312e-10,6.390625e-03
-1.215313e-10,6.125000e-03
-1.175312e-10,6.093750e-03
-1.135312e-10,5.625000e-03
-1.095312e-10,5.296875e-03
-1.055312e-10,5.218750e-03
-1.015312e-10,5.406250e-03
-9.753125e-11,5.062500e-03
-9.353125e-11,5.078125e-03
-8.953125e-11,5.140625e-03
-8.553125e-11,5.281250e-03
-8.153125e-11,5.593750e-03
-7.753125e-11,6.250000e-03
-7.353125e-11,6.562500e-03
-6.953125e-11,7.125000e-03
-6.553125e-11,8.000000e-03
-6.153125e-11,9.281250e-03
-5.753125e-11,1.012500e-02
-5.353125e-11,1.139063e-02
-4.953125e-11,1.282813e-02
-4.553125e-11,1.445313e-02
-4.153125e-11,1.629688e-02
-3.753125e-11,1.860938e-02
-3.353125e-11,2.065625e-02
-2.953125e-11,2.303125e-02
-2.553125e-11,2.575000e-02
-2.153125e-11,2.892188e-02
-1.753125e-11,3.176563e-02
-1.353125e-11,3.503125e-02
-9.531250e-12,3.851563e-02
-5.531250e-12,4.220313e-02
-1.531250e-12,4.610938e-02
2.468750e-12,5.051563e-02
6.468750e-12,5.464063e-02
1.046875e-11,5.909375e-02
1.446875e-11,6.384375e-02
1.846875e-11,6.900000e-02
2.246875e-11,7.381250e-02
2.646875e-11,7.900000e-02
3.046875e-11,8.431250e-02
3.446875e-11,8.979688e-02
3.846875e-11,9.540625e-02
4.246875e-11,1.014375e-01
4.646875e-11,1.070938e-01
5.046875e-11,1.129844e-01
5.446875e-11,1.190625e-01
5.846875e-11,1.254219e-01
6.246875e-11,1.313750e-01
6.646875e-11,1.375313e-01
7.046875e-11,1.437344e-01
7.446875e-11,1.499531e-01
7.846875e-11,1.561563e-01
8.246875e-11,1.626406e-01
8.646875e-11,1.686406e-01
9.046875e-11,1.747344e-01
9.446875e-11,1.808438e-01
9.846875e-11,1.870625e-01
1.024687e-10,1.927813e-01
1.064687e-10,1.985469e-01
1.104687e-10,2.041875e-01
1.144687e-10,2.097031e-01
1.184687e-10,2.150469e-01
1.224688e-10,2.205000e-01
1.264687e-10,2.253438e-01
1.304688e-10,2.301094e-01
1.344687e-10,2.347656e-01
1.384688e-10,2.393594e-01
1.424687e-10,2.433438e-01
1.464688e-10,2.472188e-01
1.504687e-10,2.508594e-01
1.544687e-10,2.542500e-01
1.584687e-10,2.573438e-01
1.624687e-10,2.604375e-01
1.664687e-10,2.628281e-01
1.704687e-10,2.650469e-01
1.744688e-10,2.670781e-01
1.784687e-10,2.689844e-01
1.824688e-10,2.701875e-01
1.864687e-10,2.712969e-01
1.904688e-10,2.721250e-01
1.944687e-10,2.726719e-01
1.984688e-10,2.729219e-01
2.024687e-10,2.731250e-01
2.064688e-10,2.726875e-01
2.104687e-10,2.721250e-01
2.144687e-10,2.713906e-01
2.184687e-10,2.705781e-01
2.224687e-10,2.691094e-01
2.264687e-10,2.676719e-01
2.304687e-10,2.660000e-01
2.344687e-10,2.641406e-01
2.384688e-10,2.620938e-01
2.424688e-10,2.600781e-01
2.464687e-10,2.575156e-01
2.504687e-10,2.549531e-01
2.544688e-10,2.523281e-01
2.584688e-10,2.497344e-01
2.624687e-10,2.465938e-01
2.664687e-10,2.436094e-01
2.704688e-10,2.405000e-01
2.744687e-10,2.373281e-01
2.784687e-10,2.340625e-01
2.824687e-10,2.309063e-01
2.864688e-10,2.272969e-01
2.904687e-10,2.237969e-01
2.944687e-10,2.203125e-01
2.984688e-10,2.169531e-01
3.024688e-10,2.130781e-01
3.064687e-10,2.094688e-01
3.104687e-10,2.057813e-01
3.144688e-10,2.020938e-01
3.184688e-10,1.983906e-01
3.224687e-10,1.948125e-01
3.264687e-10,1.908125e-01
3.304688e-10,1.869688e-01
3.344687e-10,1.831875e-01
3.384687e-10,1.795469e-01
3.424687e-10,1.754375e-01
3.464688e-10,1.716250e-01
3.504687e-10,1.677500e-01
3.544687e-10,1.639219e-01
3.584687e-10,1.601094e-01
3.624688e-10,1.564531e-01
3.664687e-10,1.523594e-01
3.704687e-10,1.485000e-01
3.744688e-10,1.447344e-01
3.784688e-10,1.411094e-01
3.824687e-10,1.370781e-01
3.864687e-10,1.333594e-01
3.904688e-10,1.296563e-01
3.944687e-10,1.260156e-01
3.984687e-10,1.224219e-01
4.024687e-10,1.190781e-01
4.064688e-10,1.152813e-01
4.104687e-10,1.117656e-01
4.144687e-10,1.084063e-01
4.184687e-10,1.052344e-01
4.224688e-10,1.016875e-01
4.264687e-10,9.848438e-02
4.304687e-10,9.534375e-02
4.344688e-10,9.229688e-02
4.384688e-10,8.932813e-02
4.424687e-10,8.665625e-02
4.464687e-10,8.353125e-02
4.504688e-10,8.071875e-02
4.544687e-10,7.809375e-02
4.584687e-10,7.565625e-02
4.624687e-10,7.289063e-02
4.664687e-10,7.042188e-02
4.704687e-10,6.806250e-02
4.744688e-10,6.578125e-02
4.784688e-10,6.357813e-02
4.824688e-10,6.168750e-02
4.864687e-10,5.931250e-02
4.904687e-10,5.723438e-02
4.944687e-10,5.537500e-02
4.984687e-10,5.367188e-02
5.024688e-10,5.162500e-02
5.064688e-10,4.985938e-02
5.104688e-10,4.821875e-02
5.144687e-10,4.662500e-02
5.184687e-10,4.506250e-02
5.224687e-10,4.384375e-02
5.264687e-10,4.212500e-02
5.304687e-10,4.067188e-02
5.344688e-10,3.945313e-02
5.384688e-10,3.840625e-02
5.424688e-10,3.698438e-02
5.464687e-10,3.581250e-02
5.504687e-10,3.481250e-02
5.544687e-10,3.381250e-02
5.584687e-10,3.285938e-02
5.624688e-10,3.223438e-02
5.664688e-10,3.110938e-02
5.704688e-10,3.023438e-02
5.744687e-10,2.962500e-02
5.784687e-10,2.917188e-02
5.824687e-10,2.831250e-02
5.864687e-10,2.771875e-02
5.904687e-10,2.726563e-02
5.944688e-10,2.681250e-02
5.984688e-10,2.635938e-02
6.024688e-10,2.623438e-02
6.064687e-10,2.557813e-02
6.104687e-10,2.514063e-02
6.144687e-10,2.495313e-02
6.184687e-10,2.490625e-02
6.224688e-10,2.437500e-02
6.264688e-10,2.409375e-02
6.304688e-10,2.390625e-02
6.344687e-10,2.368750e-02
6.384687e-10,2.342188e-02
6.424687e-10,2.342188e-02
6.464687e-10,2.285938e-02
6.504687e-10,2.245313e-02
6.544688e-10,2.226563e-02
6.584688e-10,2.220313e-02
6.624688e-10,2.157813e-02
6.664687e-10,2.117188e-02
6.704687e-10,2.081250e-02
6.744687e-10,2.039063e-02
6.784687e-10,1.989063e-02
6.824688e-10,1.962500e-02
6.864688e-10,1.878125e-02
6.904688e-10,1.806250e-02
6.944687e-10,1.756250e-02
6.984687e-10,1.718750e-02
7.024687e-10,1.621875e-02
7.064687e-10,1.550000e-02
7.104687e-10,1.479688e-02
7.144688e-10,1.407813e-02
7.184688e-10,1.328125e-02
7.224688e-10,1.275000e-02
7.264687e-10,1.165625e-02
7.304687e-10,1.073438e-02
7.344687e-10,1.003125e-02
7.384687e-10,9.531250e-03
7.424687e-10,8.468750e-03
7.464688e-10,7.687500e-03
7.504688e-10,6.968750e-03
7.544687e-10,6.281250e-03
7.584687e-10,5.562500e-03
7.624687e-10,5.156250e-03
7.664687e-10,4.250000e-03
7.704687e-10,3.546875e-03
7.744688e-10,3.125000e-03
7.784688e-10,2.937500e-03
7.824688e-10,2.218750e-03
7.864687e-10,1.843750e-03
7.904687e-10,1.546875e-03
7.944687e-10,1.312500e-03
7.984687e-10,1.078125e-03
8.024687e-10,1.218750e-03
8.064688e-10,8.281250e-04
8.104688e-10,6.875000e-04
8.144687e-10,8.281250e-04
8.184687e-10,1.218750e-03
8.224687e-10,1.078125e-03
8.264687e-10,1.281250e-03
8.304687e-10,1.546875e-03
8.344688e-10,1.875000e-03
8.384688e-10,2.218750e-03
8.424688e-10,2.890625e-03
8.464687e-10,3.015625e-03
8.504687e-10,3.375000e-03
8.544687e-10,3.984375e-03
8.584687e-10,4.812500e-03
8.624687e-10,5.062500e-03
8.664688e-10,5.625000e-03
8.704688e-10,6.218750e-03
8.744687e-10,6.828125e-03
8.784687e-10,7.421875e-03
8.824687e-10,8.296875e-03
8.864687e-10,8.593750e-03
8.904687e-10,9.062500e-03
8.944688e-10,9.734375e-03
8.984688e-10,1.057813e-02
9.024688e-10,1.079688e-02
9.064687e-10,1.129688e-02
9.104687e-10,1.176563e-02
9.144687e-10,1.221875e-02
9.184687e-10,1.259375e-02
9.224687e-10,1.323438e-02
9.264688e-10,1.323438e-02
9.304688e-10,1.339063e-02
9.344687e-10,1.368750e-02
9.384687e-10,1.415625e-02
9.424687e-10,1.395313e-02
9.464687e-10,1.400000e-02
9.504687e-10,1.400000e-02
9.544687e-10,1.395313e-02
9.584687e-10,1.384375e-02
9.624687e-10,1.398438e-02
9.664687e-10,1.346875e-02
9.704688e-10,1.310938e-02
9.744688e-10,1.292188e-02
9.784688e-10,1.287500e-02
9.824688e-10,1.220313e-02
9.864688e-10,1.179688e-02
9.904688e-10,1.137500e-02
9.944687e-10,1.092188e-02
9.984687e-10,1.043750e-02
1.002469e-09,1.025000e-02
1.006469e-09,9.453125e-03
1.010469e-09,8.843750e-03
1.014469e-09,8.453125e-03
1.018469e-09,8.265625e-03
1.022469e-09,7.500000e-03
1.026469e-09,7.046875e-03
1.030469e-09,6.625000e-03
1.034469e-09,6.218750e-03
1.038469e-09,5.843750e-03
1.042469e-09,5.812500e-03
1.046469e-09,5.218750e-03
1.050469e-09,4.875000e-03
1.054469e-09,4.765625e-03
1.058469e-09,4.906250e-03
1.062469e-09,4.500000e-03
1.066469e-09,4.437500e-03
1.070469e-09,4.421875e-03
1.074469e-09,4.437500e-03
1.078469e-09,4.500000e-03
1.082469e-09,4.906250e-03
1.086469e-09,4.750000e-03
1.090469e-09,4.843750e-03
1.094469e-09,5.156250e-03
1.098469e-09,5.687500e-03
1.102469e-09,5.656250e-03
1.106469e-09,5.937500e-03
1.110469e-09,6.218750e-03
1.114469e-09,6.531250e-03
1.118469e-09,6.828125e-03
1.122469e-09,7.437500e-03
1.126469e-09,7.421875e-03
1.130469e-09,7.609375e-03
1.134469e-09,7.984375e-03
1.138469e-09,8.531250e-03
1.142469e-09,8.453125e-03
1.146469e-09,8.671875e-03
1.150469e-09,8.828125e-03
1.154469e-09,8.968750e-03
1.158469e-09,9.093750e-03
1.162469e-09,9.453125e-03
1.166469e-09,9.187500e-03
1.170469e-09,9.093750e-03
1.174469e-09,9.156250e-03
1.178469e-09,9.390625e-03
1.182469e-09,9.000000e-03
1.186469e-09,8.859375e-03
1.190469e-09,8.703125e-03
1.194469e-09,8.500000e-03
1.198469e-09,8.296875e-03
1.202469e-09,8.359375e-03
1.206469e-09,7.796875e-03
1.210469e-09,7.421875e-03
1.214469e-09,7.250000e-03
1.218469e-09,7.250000e-03
1.222469e-09,6.656250e-03
1.226469e-09,6.359375e-03
1.230469e-09,6.062500e-03
1.234469e-09,5.781250e-03
1.238469e-09,5.500000e-03
1.242469e-09,5.531250e-03
1.246469e-09,4.984375e-03
1.250469e-09,4.656250e-03
1.254469e-09,4.531250e-03
1.258469e-09,4.640625e-03
1.262469e-09,4.171875e-03
1.266469e-09,4.031250e-03
1.270469e-09,3.921875e-03
1.274469e-09,3.828125e-03
1.278469e-09,3.765625e-03
1.282469e-09,4.046875e-03
1.286469e-09,3.750000e-03
1.290469e-09,3.671875e-03
1.294469e-09,3.828125e-03
1.298469e-09,4.218750e-03
1.302469e-09,4.031250e-03
1.306469e-09,4.187500e-03
1.310469e-09,4.343750e-03
1.314469e-09,4.546875e-03
1.318469e-09,4.765625e-03
1.322469e-09,5.312500e-03
1.326469e-09,5.265625e-03
1.330469e-09,5.453125e-03
1.334469e-09,5.843750e-03
1.338469e-09,6.453125e-03
1.342469e-09,6.468750e-03
1.346469e-09,6.796875e-03
1.350469e-09,7.140625e-03
1.354469e-09,7.468750e-03
1.358469e-09,7.796875e-03
1.362469e-09,8.437500e-03
1.366469e-09,8.453125e-03
1.370469e-09,8.656250e-03
1.374469e-09,9.046875e-03
1.378469e-09,9.625000e-03
1.382469e-09,9.578125e-03
1.386469e-09,9.812500e-03
1.390469e-09,1.001563e-02
1.394469e-09,1.017188e-02
1.398469e-09,1.031250e-02
1.402469e-09,1.071875e-02
1.406469e-09,1.046875e-02
1.410469e-09,1.039063e-02
1.414469e-09,1.048438e-02
1.418469e-09,1.071875e-02
1.422469e-09,1.032813e-02
1.426469e-09,1.018750e-02
1.430469e-09,1.001563e-02
1.434469e-09,9.796875e-03
1.438469e-09,9.546875e-03
1.442469e-09,9.578125e-03
1.446469e-09,8.968750e-03
1.450469e-09,8.546875e-03
1.454469e-09,8.296875e-03
1.458469e-09,8.250000e-03
1.462469e-09,7.578125e-03
1.466469e-09,7.218750e-03
1.470469e-09,6.859375e-03
1.474469e-09,6.531250e-03
1.478469e-09,6.203125e-03
1.482469e-09,6.203125e-03
1.486469e-09,5.625000e-03
1.490469e-09,5.296875e-03
1.494469e-09,5.218750e-03
1.498469e-09,5.375000e-03
1.502469e-09,4.984375e-03
1.506469e-09,4.953125e-03
1.510469e-09,4.984375e-03
1.514469e-09,5.062500e-03
1.518469e-09,5.203125e-03
1.522469e-09,5.718750e-03
1.526469e-09,5.671875e-03
1.530469e-09,5.890625e-03
1.534469e-09,6.375000e-03
1.538469e-09,7.093750e-03
1.542469e-09,7.250000e-03
1.546469e-09,7.765625e-03
1.550469e-09,8.296875e-03
1.554469e-09,8.843750e-03
1.558469e-09,9.406250e-03
1.562469e-09,1.028125e-02
1.566469e-09,1.053125e-02
1.570469e-09,1.098438e-02
1.574469e-09,1.160938e-02
1.578469e-09,1.239063e-02
1.582469e-09,1.253125e-02
1.586469e-09,1.292188e-02
1.590469e-09,1.326563e-02
1.594469e-09,1.353125e-02
1.598469e-09,1.371875e-02
1.602469e-09,1.414063e-02
1.606469e-09,1.385938e-02
1.610469e-09,1.370313e-02
1.614469e-09,1.367188e-02
1.618469e-09,1.375000e-02
1.622469e-09,1.314063e-02
1.626469e-09,1.275000e-02
1.630469e-09,1.228125e-02
1.634469e-09,1.173438e-02
1.638469e-09,1.112500e-02
1.642469e-09,1.076563e-02
1.646469e-09,9.750000e-03
1.650469e-09,8.890625e-03
1.654469e-09,8.203125e-03
1.658469e-09,7.703125e-03
1.662469e-09,6.593750e-03
1.666469e-09,5.781250e-03
1.670469e-09,4.984375e-03
1.674469e-09,4.234375e-03
1.678469e-09,3.500000e-03
1.682469e-09,3.109375e-03
1.686469e-09,2.171875e-03
1.690469e-09,1.515625e-03
1.694469e-09,1.109375e-03
1.698469e-09,9.843750e-04
1.702469e-09,3.437500e-04
1.706469e-09,7.812500e-05
1.710469e-09,-1.093750e-04
1.714469e-09,-2.031250e-04
1.718469e-09,-2.187500e-04
1.722469e-09,1.562500e-04
1.726469e-09,-1.562500e-05
1.730469e-09,9.375000e-05
1.734469e-09,4.531250e-04
1.738469e-09,1.078125e-03
1.742469e-09,1.140625e-03
1.746469e-09,1.546875e-03
1.750469e-09,1.968750e-03
1.754469e-09,2.421875e-03
