Measurements-streak-laser/Photodiode-on-Tek-6GHz/Tek000_ch1_20190613132728135.csv

Model,MSO64
Waveform Type,ANALOG
Horizontal Units,s
Sample Interval,4.000000e-12
Record Length,1000
Zero Index,310.054688
Vertical Units,V

TIME,CH1
-1.240219e-09,4.531250e-03
-1.236219e-09,4.578125e-03
-1.232219e-09,4.906250e-03
-1.228219e-09,4.593750e-03
-1.224219e-09,4.468750e-03
-1.220219e-09,4.531250e-03
-1.216219e-09,4.781250e-03
-1.212219e-09,4.390625e-03
-1.208219e-09,4.296875e-03
-1.204219e-09,4.187500e-03
-1.200219e-09,4.078125e-03
-1.196219e-09,3.953125e-03
-1.192219e-09,4.140625e-03
-1.188219e-09,3.703125e-03
-1.184219e-09,3.484375e-03
-1.180219e-09,3.468750e-03
-1.176219e-09,3.671875e-03
-1.172219e-09,3.265625e-03
-1.168219e-09,3.187500e-03
-1.164219e-09,3.125000e-03
-1.160219e-09,3.062500e-03
-1.156219e-09,3.031250e-03
-1.152219e-09,3.328125e-03
-1.148219e-09,3.031250e-03
-1.144219e-09,2.953125e-03
-1.140219e-09,3.109375e-03
-1.136219e-09,3.468750e-03
-1.132219e-09,3.250000e-03
-1.128219e-09,3.343750e-03
-1.124219e-09,3.437500e-03
-1.120219e-09,3.562500e-03
-1.116219e-09,3.671875e-03
-1.112219e-09,4.109375e-03
-1.108219e-09,3.921875e-03
-1.104219e-09,3.953125e-03
-1.100219e-09,4.171875e-03
-1.096219e-09,4.578125e-03
-1.092219e-09,4.375000e-03
-1.088219e-09,4.453125e-03
-1.084219e-09,4.531250e-03
-1.080219e-09,4.578125e-03
-1.076219e-09,4.609375e-03
-1.072219e-09,4.921875e-03
-1.068219e-09,4.609375e-03
-1.064219e-09,4.484375e-03
-1.060219e-09,4.531250e-03
-1.056219e-09,4.781250e-03
-1.052219e-09,4.390625e-03
-1.048219e-09,4.281250e-03
-1.044219e-09,4.156250e-03
-1.040219e-09,4.031250e-03
-1.036219e-09,3.890625e-03
-1.032219e-09,4.062500e-03
-1.028219e-09,3.609375e-03
-1.024219e-09,3.359375e-03
-1.020219e-09,3.312500e-03
-1.016219e-09,3.484375e-03
-1.012219e-09,3.046875e-03
-1.008219e-09,2.937500e-03
-1.004219e-09,2.843750e-03
-1.000219e-09,2.765625e-03
-9.962187e-10,2.703125e-03
-9.922187e-10,2.968750e-03
-9.882187e-10,2.671875e-03
-9.842187e-10,2.578125e-03
-9.802187e-10,2.734375e-03
-9.762187e-10,3.109375e-03
-9.722187e-10,2.906250e-03
-9.682188e-10,3.046875e-03
-9.642188e-10,3.187500e-03
-9.602188e-10,3.375000e-03
-9.562188e-10,3.578125e-03
-9.522188e-10,4.093750e-03
-9.482188e-10,4.031250e-03
-9.442187e-10,4.171875e-03
-9.402187e-10,4.531250e-03
-9.362187e-10,5.093750e-03
-9.322187e-10,5.046875e-03
-9.282187e-10,5.312500e-03
-9.242187e-10,5.578125e-03
-9.202187e-10,5.812500e-03
-9.162187e-10,6.046875e-03
-9.122187e-10,6.578125e-03
-9.082188e-10,6.468750e-03
-9.042188e-10,6.562500e-03
-9.002187e-10,6.812500e-03
-8.962187e-10,7.250000e-03
-8.922187e-10,7.062500e-03
-8.882187e-10,7.156250e-03
-8.842187e-10,7.218750e-03
-8.802188e-10,7.250000e-03
-8.762188e-10,7.265625e-03
-8.722188e-10,7.546875e-03
-8.682187e-10,7.218750e-03
-8.642187e-10,7.062500e-03
-8.602187e-10,7.109375e-03
-8.562187e-10,7.328125e-03
-8.522187e-10,6.937500e-03
-8.482188e-10,6.843750e-03
-8.442188e-10,6.750000e-03
-8.402187e-10,6.640625e-03
-8.362187e-10,6.546875e-03
-8.322187e-10,6.765625e-03
-8.282187e-10,6.375000e-03
-8.242187e-10,6.203125e-03
-8.202188e-10,6.250000e-03
-8.162188e-10,6.500000e-03
-8.122188e-10,6.171875e-03
-8.082187e-10,6.156250e-03
-8.042187e-10,6.156250e-03
-8.002187e-10,6.187500e-03
-7.962187e-10,6.218750e-03
-7.922187e-10,6.593750e-03
-7.882188e-10,6.359375e-03
-7.842188e-10,6.343750e-03
-7.802187e-10,6.531250e-03
-7.762187e-10,6.937500e-03
-7.722187e-10,6.750000e-03
-7.682187e-10,6.859375e-03
-7.642187e-10,6.968750e-03
-7.602188e-10,7.078125e-03
-7.562188e-10,7.171875e-03
-7.522188e-10,7.562500e-03
-7.482187e-10,7.343750e-03
-7.442187e-10,7.296875e-03
-7.402187e-10,7.437500e-03
-7.362187e-10,7.765625e-03
-7.322187e-10,7.468750e-03
-7.282188e-10,7.437500e-03
-7.242188e-10,7.390625e-03
-7.202188e-10,7.328125e-03
-7.162187e-10,7.218750e-03
-7.122187e-10,7.406250e-03
-7.082187e-10,6.953125e-03
-7.042187e-10,6.687500e-03
-7.002188e-10,6.593750e-03
-6.962188e-10,6.687500e-03
-6.922188e-10,6.171875e-03
-6.882187e-10,5.921875e-03
-6.842187e-10,5.687500e-03
-6.802187e-10,5.437500e-03
-6.762187e-10,5.171875e-03
-6.722187e-10,5.218750e-03
-6.682188e-10,4.656250e-03
-6.642188e-10,4.312500e-03
-6.602188e-10,4.187500e-03
-6.562187e-10,4.265625e-03
-6.522187e-10,3.765625e-03
-6.482187e-10,3.578125e-03
-6.442187e-10,3.406250e-03
-6.402188e-10,3.265625e-03
-6.362188e-10,3.156250e-03
-6.322188e-10,3.375000e-03
-6.282187e-10,3.000000e-03
-6.242187e-10,2.859375e-03
-6.202187e-10,2.953125e-03
-6.162187e-10,3.265625e-03
-6.122187e-10,3.000000e-03
-6.082188e-10,3.062500e-03
-6.042188e-10,3.140625e-03
-6.002188e-10,3.234375e-03
-5.962187e-10,3.343750e-03
-5.922187e-10,3.765625e-03
-5.882187e-10,3.593750e-03
-5.842187e-10,3.640625e-03
-5.802188e-10,3.875000e-03
-5.762188e-10,4.328125e-03
-5.722188e-10,4.156250e-03
-5.682187e-10,4.296875e-03
-5.642187e-10,4.406250e-03
-5.602187e-10,4.515625e-03
-5.562187e-10,4.625000e-03
-5.522187e-10,5.000000e-03
-5.482188e-10,4.750000e-03
-5.442188e-10,4.687500e-03
-5.402188e-10,4.796875e-03
-5.362187e-10,5.093750e-03
-5.322187e-10,4.765625e-03
-5.282187e-10,4.703125e-03
-5.242187e-10,4.625000e-03
-5.202188e-10,4.531250e-03
-5.162188e-10,4.406250e-03
-5.122188e-10,4.562500e-03
-5.082187e-10,4.093750e-03
-5.042187e-10,3.812500e-03
-5.002187e-10,3.718750e-03
-4.962187e-10,3.812500e-03
-4.922187e-10,3.296875e-03
-4.882188e-10,3.062500e-03
-4.842188e-10,2.812500e-03
-4.802188e-10,2.578125e-03
-4.762187e-10,2.328125e-03
-4.722187e-10,2.375000e-03
-4.682187e-10,1.828125e-03
-4.642187e-10,1.484375e-03
-4.602188e-10,1.343750e-03
-4.562187e-10,1.406250e-03
-4.522187e-10,8.906250e-04
-4.482187e-10,6.718750e-04
-4.442188e-10,4.531250e-04
-4.402187e-10,2.500000e-04
-4.362187e-10,6.250000e-05
-4.322187e-10,1.875000e-04
-4.282188e-10,-2.968750e-04
-4.242187e-10,-5.625000e-04
-4.202187e-10,-5.937500e-04
-4.162188e-10,-4.218750e-04
-4.122188e-10,-8.281250e-04
-4.082187e-10,-9.375000e-04
-4.042187e-10,-1.046875e-03
-4.002188e-10,-1.125000e-03
-3.962187e-10,-1.218750e-03
-3.922187e-10,-9.687500e-04
-3.882187e-10,-1.328125e-03
-3.842188e-10,-1.468750e-03
-3.802187e-10,-1.375000e-03
-3.762187e-10,-1.093750e-03
-3.722187e-10,-1.375000e-03
-3.682188e-10,-1.343750e-03
-3.642187e-10,-1.328125e-03
-3.602187e-10,-1.281250e-03
-3.562188e-10,-1.234375e-03
-3.522188e-10,-8.437500e-04
-3.482187e-10,-1.062500e-03
-3.442187e-10,-1.046875e-03
-3.402188e-10,-7.968750e-04
-3.362188e-10,-3.437500e-04
-3.322187e-10,-4.531250e-04
-3.282187e-10,-2.343750e-04
-3.242188e-10,-4.687500e-05
-3.202187e-10,1.562500e-04
-3.162187e-10,4.218750e-04
-3.122187e-10,9.843750e-04
-3.082188e-10,9.687500e-04
-3.042187e-10,1.171875e-03
-3.002187e-10,1.609375e-03
-2.962188e-10,2.250000e-03
-2.922188e-10,2.328125e-03
-2.882187e-10,2.718750e-03
-2.842187e-10,3.062500e-03
-2.802188e-10,3.406250e-03
-2.762188e-10,3.812500e-03
-2.722187e-10,4.484375e-03
-2.682187e-10,4.578125e-03
-2.642188e-10,4.843750e-03
-2.602187e-10,5.328125e-03
-2.562187e-10,6.000000e-03
-2.522187e-10,6.062500e-03
-2.482188e-10,6.421875e-03
-2.442187e-10,6.718750e-03
-2.402187e-10,6.968750e-03
-2.362188e-10,7.250000e-03
-2.322187e-10,7.765625e-03
-2.282188e-10,7.687500e-03
-2.242187e-10,7.750000e-03
-2.202188e-10,8.015625e-03
-2.162187e-10,8.437500e-03
-2.122188e-10,8.234375e-03
-2.082187e-10,8.296875e-03
-2.042187e-10,8.296875e-03
-2.002187e-10,8.234375e-03
-1.962187e-10,8.203125e-03
-1.922187e-10,8.390625e-03
-1.882187e-10,8.031250e-03
-1.842188e-10,7.781250e-03
-1.802187e-10,7.734375e-03
-1.762188e-10,7.859375e-03
-1.722187e-10,7.390625e-03
-1.682188e-10,7.203125e-03
-1.642187e-10,6.968750e-03
-1.602188e-10,6.734375e-03
-1.562187e-10,6.546875e-03
-1.522188e-10,6.625000e-03
-1.482187e-10,6.187500e-03
-1.442188e-10,5.906250e-03
-1.402187e-10,5.875000e-03
-1.362187e-10,6.078125e-03
-1.322187e-10,5.703125e-03
-1.282187e-10,5.671875e-03
-1.242188e-10,5.671875e-03
-1.202187e-10,5.703125e-03
-1.162188e-10,5.843750e-03
-1.122188e-10,6.296875e-03
-1.082187e-10,6.312500e-03
-1.042187e-10,6.531250e-03
-1.002187e-10,7.000000e-03
-9.621875e-11,7.796875e-03
-9.221875e-11,8.062500e-03
-8.821875e-11,8.687500e-03
-8.421875e-11,9.406250e-03
-8.021875e-11,1.020313e-02
-7.621875e-11,1.112500e-02
-7.221875e-11,1.240625e-02
-6.821875e-11,1.328125e-02
-6.421875e-11,1.439063e-02
-6.021875e-11,1.578125e-02
-5.621875e-11,1.750000e-02
-5.221875e-11,1.871875e-02
-4.821875e-11,2.032813e-02
-4.421875e-11,2.203125e-02
-4.021875e-11,2.382813e-02
-3.621875e-11,2.575000e-02
-3.221875e-11,2.806250e-02
-2.821875e-11,2.995313e-02
-2.421875e-11,3.209375e-02
-2.021875e-11,3.450000e-02
-1.621875e-11,3.721875e-02
-1.221875e-11,3.948438e-02
-8.218750e-12,4.209375e-02
-4.218750e-12,4.479688e-02
-2.187500e-13,4.759375e-02
3.781250e-12,5.048438e-02
7.781250e-12,5.375000e-02
1.178125e-11,5.659375e-02
1.578125e-11,5.965625e-02
1.978125e-11,6.295313e-02
2.378125e-11,6.653125e-02
2.778125e-11,6.965625e-02
3.178125e-11,7.306250e-02
3.578125e-11,7.651563e-02
3.978125e-11,8.004688e-02
4.378125e-11,8.359375e-02
4.778125e-11,8.750000e-02
5.178125e-11,9.090625e-02
5.578125e-11,9.451563e-02
5.978125e-11,9.825000e-02
6.378125e-11,1.022031e-01
6.778125e-11,1.056563e-01
7.178125e-11,1.093125e-01
7.578125e-11,1.129531e-01
7.978125e-11,1.165625e-01
8.378125e-11,1.201250e-01
8.778125e-11,1.239375e-01
9.178125e-11,1.271875e-01
9.578125e-11,1.305313e-01
9.978125e-11,1.339375e-01
1.037813e-10,1.374219e-01
1.077812e-10,1.403438e-01
1.117812e-10,1.433750e-01
1.157812e-10,1.462969e-01
1.197813e-10,1.491094e-01
1.237812e-10,1.517813e-01
1.277813e-10,1.545938e-01
1.317812e-10,1.567813e-01
1.357813e-10,1.589844e-01
1.397812e-10,1.611563e-01
1.437813e-10,1.633594e-01
1.477812e-10,1.649219e-01
1.517813e-10,1.665625e-01
1.557812e-10,1.680156e-01
1.597813e-10,1.693281e-01
1.637812e-10,1.704688e-01
1.677812e-10,1.717031e-01
1.717812e-10,1.722969e-01
1.757812e-10,1.728750e-01
1.797813e-10,1.734375e-01
1.837812e-10,1.740156e-01
1.877813e-10,1.739531e-01
1.917812e-10,1.739844e-01
1.957813e-10,1.738594e-01
1.997812e-10,1.735938e-01
2.037813e-10,1.731875e-01
2.077812e-10,1.728906e-01
2.117813e-10,1.720000e-01
2.157812e-10,1.711406e-01
2.197813e-10,1.702813e-01
2.237812e-10,1.694844e-01
2.277812e-10,1.680938e-01
2.317812e-10,1.668438e-01
2.357812e-10,1.654844e-01
2.397813e-10,1.640313e-01
2.437812e-10,1.625000e-01
2.477812e-10,1.610781e-01
2.517813e-10,1.591094e-01
2.557813e-10,1.572188e-01
2.597812e-10,1.553750e-01
2.637812e-10,1.536250e-01
2.677813e-10,1.512969e-01
2.717813e-10,1.491719e-01
2.757812e-10,1.469531e-01
2.797812e-10,1.446875e-01
2.837813e-10,1.423438e-01
2.877812e-10,1.401563e-01
2.917812e-10,1.374375e-01
2.957812e-10,1.348594e-01
2.997813e-10,1.323281e-01
3.037812e-10,1.299219e-01
3.077812e-10,1.269688e-01
3.117813e-10,1.242656e-01
3.157813e-10,1.215000e-01
3.197812e-10,1.187344e-01
3.237812e-10,1.159375e-01
3.277813e-10,1.133438e-01
3.317813e-10,1.102500e-01
3.357812e-10,1.073438e-01
3.397812e-10,1.045625e-01
3.437813e-10,1.019531e-01
3.477812e-10,9.885938e-02
3.517812e-10,9.607813e-02
3.557812e-10,9.331250e-02
3.597813e-10,9.060938e-02
3.637812e-10,8.795313e-02
3.677812e-10,8.557813e-02
3.717813e-10,8.273438e-02
3.757813e-10,8.018750e-02
3.797812e-10,7.782813e-02
3.837812e-10,7.568750e-02
3.877813e-10,7.315625e-02
3.917813e-10,7.098438e-02
3.957812e-10,6.889063e-02
3.997812e-10,6.690625e-02
4.037813e-10,6.501563e-02
4.077812e-10,6.345313e-02
4.117812e-10,6.143750e-02
4.157812e-10,5.973438e-02
4.197813e-10,5.825000e-02
4.237812e-10,5.700000e-02
4.277812e-10,5.534375e-02
4.317812e-10,5.404688e-02
4.357813e-10,5.281250e-02
4.397812e-10,5.165625e-02
4.437812e-10,5.054688e-02
4.477813e-10,4.976563e-02
4.517813e-10,4.845313e-02
4.557812e-10,4.740625e-02
4.597812e-10,4.656250e-02
4.637813e-10,4.585938e-02
4.677812e-10,4.471875e-02
4.717812e-10,4.381250e-02
4.757812e-10,4.296875e-02
4.797812e-10,4.212500e-02
4.837812e-10,4.126563e-02
4.877813e-10,4.068750e-02
4.917813e-10,3.951563e-02
4.957813e-10,3.854688e-02
4.997812e-10,3.775000e-02
5.037812e-10,3.707813e-02
5.077812e-10,3.590625e-02
5.117812e-10,3.496875e-02
5.157813e-10,3.406250e-02
5.197813e-10,3.315625e-02
5.237813e-10,3.221875e-02
5.277812e-10,3.156250e-02
5.317812e-10,3.034375e-02
5.357812e-10,2.932813e-02
5.397812e-10,2.851563e-02
5.437812e-10,2.787500e-02
5.477813e-10,2.675000e-02
5.517813e-10,2.587500e-02
5.557813e-10,2.510938e-02
5.597812e-10,2.434375e-02
5.637812e-10,2.359375e-02
5.677812e-10,2.318750e-02
5.717812e-10,2.223438e-02
5.757813e-10,2.153125e-02
5.797813e-10,2.107813e-02
5.837813e-10,2.081250e-02
5.877812e-10,2.007813e-02
5.917812e-10,1.962500e-02
5.957812e-10,1.929688e-02
5.997812e-10,1.896875e-02
6.037812e-10,1.867188e-02
6.077813e-10,1.868750e-02
6.117813e-10,1.815625e-02
6.157813e-10,1.785938e-02
6.197812e-10,1.779688e-02
6.237812e-10,1.790625e-02
6.277812e-10,1.750000e-02
6.317812e-10,1.735938e-02
6.357813e-10,1.728125e-02
6.397813e-10,1.720313e-02
6.437813e-10,1.707813e-02
6.477812e-10,1.723438e-02
6.517812e-10,1.681250e-02
6.557812e-10,1.657813e-02
6.597812e-10,1.654688e-02
6.637812e-10,1.667188e-02
6.677813e-10,1.621875e-02
6.717813e-10,1.601563e-02
6.757813e-10,1.584375e-02
6.797812e-10,1.565625e-02
6.837812e-10,1.540625e-02
6.877812e-10,1.543750e-02
6.917812e-10,1.487500e-02
6.957813e-10,1.450000e-02
6.997813e-10,1.431250e-02
7.037813e-10,1.432813e-02
7.077812e-10,1.375000e-02
7.117812e-10,1.345313e-02
7.157812e-10,1.318750e-02
7.197812e-10,1.292188e-02
7.237812e-10,1.260938e-02
7.277813e-10,1.260938e-02
7.317813e-10,1.201563e-02
7.357813e-10,1.164063e-02
7.397812e-10,1.146875e-02
7.437812e-10,1.150000e-02
7.477812e-10,1.095313e-02
7.517812e-10,1.070313e-02
7.557813e-10,1.046875e-02
7.597813e-10,1.023438e-02
7.637813e-10,9.968750e-03
7.677812e-10,9.984375e-03
7.717812e-10,9.421875e-03
7.757812e-10,9.046875e-03
7.797812e-10,8.875000e-03
7.837812e-10,8.875000e-03
7.877813e-10,8.281250e-03
7.917813e-10,7.953125e-03
7.957813e-10,7.625000e-03
7.997812e-10,7.296875e-03
8.037812e-10,6.921875e-03
8.077812e-10,6.828125e-03
8.117812e-10,6.125000e-03
8.157812e-10,5.609375e-03
8.197813e-10,5.296875e-03
8.237813e-10,5.171875e-03
8.277812e-10,4.437500e-03
8.317812e-10,4.031250e-03
8.357812e-10,3.625000e-03
8.397812e-10,3.234375e-03
8.437812e-10,2.843750e-03
8.477813e-10,2.765625e-03
8.517813e-10,2.140625e-03
8.557813e-10,1.750000e-03
8.597812e-10,1.609375e-03
8.637812e-10,1.703125e-03
8.677812e-10,1.265625e-03
8.717812e-10,1.187500e-03
8.757812e-10,1.171875e-03
8.797813e-10,1.234375e-03
8.837813e-10,1.343750e-03
8.877812e-10,1.828125e-03
8.917812e-10,1.781250e-03
8.957812e-10,2.000000e-03
8.997812e-10,2.500000e-03
9.037812e-10,3.250000e-03
9.077813e-10,3.468750e-03
9.117813e-10,4.046875e-03
9.157813e-10,4.671875e-03
9.197812e-10,5.328125e-03
9.237812e-10,6.015625e-03
9.277812e-10,7.015625e-03
9.317813e-10,7.421875e-03
9.357813e-10,8.031250e-03
9.397813e-10,8.843750e-03
9.437813e-10,9.828125e-03
9.477812e-10,1.017188e-02
9.517812e-10,1.076563e-02
9.557812e-10,1.131250e-02
9.597812e-10,1.179688e-02
9.637812e-10,1.220313e-02
9.677812e-10,1.282813e-02
9.717812e-10,1.275000e-02
9.757812e-10,1.278125e-02
9.797812e-10,1.290625e-02
9.837813e-10,1.314063e-02
9.877813e-10,1.265625e-02
9.917813e-10,1.237500e-02
9.957813e-10,1.200000e-02
9.997813e-10,1.151563e-02
1.003781e-09,1.092188e-02
1.007781e-09,1.056250e-02
1.011781e-09,9.500000e-03
1.015781e-09,8.578125e-03
1.019781e-09,7.796875e-03
1.023781e-09,7.171875e-03
1.027781e-09,5.906250e-03
1.031781e-09,4.906250e-03
1.035781e-09,3.906250e-03
1.039781e-09,2.921875e-03
1.043781e-09,1.937500e-03
1.047781e-09,1.296875e-03
1.051781e-09,9.375000e-05
1.055781e-09,-8.437500e-04
1.059781e-09,-1.515625e-03
1.063781e-09,-1.906250e-03
1.067781e-09,-2.812500e-03
1.071781e-09,-3.296875e-03
1.075781e-09,-3.687500e-03
1.079781e-09,-3.968750e-03
1.083781e-09,-4.140625e-03
1.087781e-09,-3.890625e-03
1.091781e-09,-4.109375e-03
1.095781e-09,-4.015625e-03
1.099781e-09,-3.609375e-03
1.103781e-09,-2.890625e-03
1.107781e-09,-2.671875e-03
1.111781e-09,-2.046875e-03
1.115781e-09,-1.343750e-03
1.119781e-09,-5.468750e-04
1.123781e-09,3.125000e-04
1.127781e-09,1.531250e-03
1.131781e-09,2.187500e-03
1.135781e-09,3.093750e-03
1.139781e-09,4.218750e-03
1.143781e-09,5.546875e-03
1.147781e-09,6.265625e-03
1.151781e-09,7.281250e-03
1.155781e-09,8.250000e-03
1.159781e-09,9.203125e-03
1.163781e-09,1.009375e-02
1.167781e-09,1.123438e-02
1.171781e-09,1.170313e-02
1.175781e-09,1.229688e-02
1.179781e-09,1.301563e-02
1.183781e-09,1.385938e-02
1.187781e-09,1.400000e-02
1.191781e-09,1.435938e-02
1.195781e-09,1.464063e-02
1.199781e-09,1.481250e-02
1.203781e-09,1.490625e-02
1.207781e-09,1.521875e-02
1.211781e-09,1.484375e-02
1.215781e-09,1.457813e-02
1.219781e-09,1.445313e-02
1.223781e-09,1.446875e-02
1.227781e-09,1.381250e-02
1.231781e-09,1.339063e-02
1.235781e-09,1.293750e-02
1.239781e-09,1.245313e-02
1.243781e-09,1.193750e-02
1.247781e-09,1.168750e-02
1.251781e-09,1.082813e-02
1.255781e-09,1.015625e-02
1.259781e-09,9.687500e-03
1.263781e-09,9.421875e-03
1.267781e-09,8.562500e-03
1.271781e-09,8.031250e-03
1.275781e-09,7.515625e-03
1.279781e-09,7.015625e-03
1.283781e-09,6.562500e-03
1.287781e-09,6.437500e-03
1.291781e-09,5.750000e-03
1.295781e-09,5.281250e-03
1.299781e-09,5.078125e-03
1.303781e-09,5.093750e-03
1.307781e-09,4.562500e-03
1.311781e-09,4.359375e-03
1.315781e-09,4.187500e-03
1.319781e-09,4.078125e-03
1.323781e-09,3.984375e-03
1.327781e-09,4.218750e-03
1.331781e-09,3.890625e-03
1.335781e-09,3.796875e-03
1.339781e-09,3.937500e-03
1.343781e-09,4.281250e-03
1.347781e-09,4.062500e-03
1.351781e-09,4.156250e-03
1.355781e-09,4.265625e-03
1.359781e-09,4.375000e-03
1.363781e-09,4.515625e-03
1.367781e-09,4.953125e-03
1.371781e-09,4.812500e-03
1.375781e-09,4.859375e-03
1.379781e-09,5.109375e-03
1.383781e-09,5.562500e-03
1.387781e-09,5.421875e-03
1.391781e-09,5.562500e-03
1.395781e-09,5.718750e-03
1.399781e-09,5.843750e-03
1.403781e-09,5.984375e-03
1.407781e-09,6.406250e-03
1.411781e-09,6.203125e-03
1.415781e-09,6.203125e-03
1.419781e-09,6.375000e-03
1.423781e-09,6.750000e-03
1.427781e-09,6.500000e-03
1.431781e-09,6.531250e-03
1.435781e-09,6.546875e-03
1.439781e-09,6.562500e-03
1.443781e-09,6.546875e-03
1.447781e-09,6.812500e-03
1.451781e-09,6.453125e-03
1.455781e-09,6.296875e-03
1.459781e-09,6.312500e-03
1.463781e-09,6.515625e-03
1.467781e-09,6.093750e-03
1.471781e-09,5.968750e-03
1.475781e-09,5.812500e-03
1.479781e-09,5.671875e-03
1.483781e-09,5.500000e-03
1.487781e-09,5.640625e-03
1.491781e-09,5.156250e-03
1.495781e-09,4.875000e-03
1.499781e-09,4.796875e-03
1.503781e-09,4.906250e-03
1.507781e-09,4.437500e-03
1.511781e-09,4.265625e-03
1.515781e-09,4.093750e-03
1.519781e-09,3.953125e-03
1.523781e-09,3.812500e-03
1.527781e-09,4.015625e-03
1.531781e-09,3.609375e-03
1.535781e-09,3.453125e-03
1.539781e-09,3.500000e-03
1.543781e-09,3.796875e-03
1.547781e-09,3.500000e-03
1.551781e-09,3.546875e-03
1.555781e-09,3.625000e-03
1.559781e-09,3.750000e-03
1.563781e-09,3.890625e-03
1.567781e-09,4.375000e-03
1.571781e-09,4.281250e-03
1.575781e-09,4.437500e-03
1.579781e-09,4.812500e-03
1.583781e-09,5.406250e-03
1.587781e-09,5.421875e-03
1.591781e-09,5.765625e-03
1.595781e-09,6.140625e-03
1.599781e-09,6.515625e-03
1.603781e-09,6.890625e-03
1.607781e-09,7.593750e-03
1.611781e-09,7.671875e-03
1.615781e-09,7.953125e-03
1.619781e-09,8.421875e-03
1.623781e-09,9.093750e-03
1.627781e-09,9.125000e-03
1.631781e-09,9.437500e-03
1.635781e-09,9.734375e-03
1.639781e-09,9.984375e-03
1.643781e-09,1.020313e-02
1.647781e-09,1.068750e-02
1.651781e-09,1.051563e-02
1.655781e-09,1.051563e-02
1.659781e-09,1.065625e-02
1.663781e-09,1.096875e-02
1.667781e-09,1.064063e-02
1.671781e-09,1.056250e-02
1.675781e-09,1.043750e-02
1.679781e-09,1.026563e-02
1.683781e-09,1.007813e-02
1.687781e-09,1.014063e-02
1.691781e-09,9.578125e-03
1.695781e-09,9.187500e-03
1.699781e-09,8.984375e-03
1.703781e-09,8.968750e-03
1.707781e-09,8.343750e-03
1.711781e-09,8.015625e-03
1.715781e-09,7.687500e-03
1.719781e-09,7.375000e-03
1.723781e-09,7.078125e-03
1.727781e-09,7.093750e-03
1.731781e-09,6.531250e-03
1.735781e-09,6.203125e-03
1.739781e-09,6.109375e-03
1.743781e-09,6.250000e-03
1.747781e-09,5.828125e-03
1.751781e-09,5.765625e-03
