Measurements-streak-laser/Photodiode-on-Tek-6GHz/Tek000_ch1_20190613132835630.csv

Model,MSO64
Waveform Type,ANALOG
Horizontal Units,s
Sample Interval,4.000000e-12
Record Length,1000
Zero Index,310.578125
Vertical Units,V

TIME,CH1
-1.242312e-09,5.781250e-04
-1.238313e-09,1.250000e-04
-1.234313e-09,3.125000e-05
-1.230313e-09,-3.125000e-05
-1.226313e-09,-6.250000e-05
-1.222313e-09,-4.687500e-05
-1.218313e-09,3.281250e-04
-1.214312e-09,1.250000e-04
-1.210312e-09,1.562500e-04
-1.206312e-09,4.375000e-04
-1.202312e-09,9.375000e-04
-1.198312e-09,8.593750e-04
-1.194312e-09,1.109375e-03
-1.190312e-09,1.375000e-03
-1.186312e-09,1.656250e-03
-1.182312e-09,1.953125e-03
-1.178313e-09,2.546875e-03
-1.174313e-09,2.531250e-03
-1.170313e-09,2.718750e-03
-1.166313e-09,3.093750e-03
-1.162313e-09,3.671875e-03
-1.158313e-09,3.609375e-03
-1.154312e-09,3.843750e-03
-1.150312e-09,4.062500e-03
-1.146312e-09,4.250000e-03
-1.142312e-09,4.406250e-03
-1.138312e-09,4.859375e-03
-1.134312e-09,4.687500e-03
-1.130312e-09,4.687500e-03
-1.126312e-09,4.890625e-03
-1.122312e-09,5.265625e-03
-1.118313e-09,5.031250e-03
-1.114313e-09,5.093750e-03
-1.110313e-09,5.156250e-03
-1.106313e-09,5.203125e-03
-1.102313e-09,5.250000e-03
-1.098313e-09,5.625000e-03
-1.094312e-09,5.390625e-03
-1.090312e-09,5.359375e-03
-1.086312e-09,5.562500e-03
-1.082312e-09,5.984375e-03
-1.078312e-09,5.796875e-03
-1.074312e-09,5.953125e-03
-1.070312e-09,6.125000e-03
-1.066312e-09,6.312500e-03
-1.062312e-09,6.500000e-03
-1.058313e-09,7.031250e-03
-1.054313e-09,6.953125e-03
-1.050313e-09,7.093750e-03
-1.046313e-09,7.453125e-03
-1.042313e-09,8.000000e-03
-1.038313e-09,7.937500e-03
-1.034312e-09,8.187500e-03
-1.030312e-09,8.406250e-03
-1.026312e-09,8.625000e-03
-1.022312e-09,8.812500e-03
-1.018312e-09,9.265625e-03
-1.014312e-09,9.093750e-03
-1.010312e-09,9.078125e-03
-1.006312e-09,9.218750e-03
-1.002312e-09,9.531250e-03
-9.983125e-10,9.171875e-03
-9.943125e-10,9.062500e-03
-9.903125e-10,8.906250e-03
-9.863125e-10,8.687500e-03
-9.823125e-10,8.421875e-03
-9.783125e-10,8.390625e-03
-9.743125e-10,7.718750e-03
-9.703125e-10,7.187500e-03
-9.663125e-10,6.812500e-03
-9.623125e-10,6.609375e-03
-9.583125e-10,5.750000e-03
-9.543125e-10,5.171875e-03
-9.503125e-10,4.562500e-03
-9.463125e-10,3.953125e-03
-9.423125e-10,3.328125e-03
-9.383125e-10,3.000000e-03
-9.343125e-10,2.078125e-03
-9.303125e-10,1.375000e-03
-9.263125e-10,8.906250e-04
-9.223125e-10,6.562500e-04
-9.183125e-10,-1.562500e-04
-9.143125e-10,-6.093750e-04
-9.103125e-10,-1.000000e-03
-9.063125e-10,-1.343750e-03
-9.023125e-10,-1.625000e-03
-8.983125e-10,-1.531250e-03
-8.943125e-10,-1.968750e-03
-8.903125e-10,-2.125000e-03
-8.863125e-10,-2.015625e-03
-8.823125e-10,-1.625000e-03
-8.783125e-10,-1.765625e-03
-8.743125e-10,-1.515625e-03
-8.703125e-10,-1.218750e-03
-8.663125e-10,-8.437500e-04
-8.623125e-10,-4.062500e-04
-8.583125e-10,3.750000e-04
-8.543125e-10,6.093750e-04
-8.503125e-10,1.078125e-03
-8.463125e-10,1.781250e-03
-8.423125e-10,2.718750e-03
-8.383125e-10,3.062500e-03
-8.343125e-10,3.703125e-03
-8.303125e-10,4.343750e-03
-8.263125e-10,4.984375e-03
-8.223125e-10,5.609375e-03
-8.183125e-10,6.500000e-03
-8.143125e-10,6.734375e-03
-8.103125e-10,7.156250e-03
-8.063125e-10,7.718750e-03
-8.023125e-10,8.421875e-03
-7.983125e-10,8.468750e-03
-7.943125e-10,8.765625e-03
-7.903125e-10,9.000000e-03
-7.863125e-10,9.156250e-03
-7.823125e-10,9.250000e-03
-7.783125e-10,9.578125e-03
-7.743125e-10,9.234375e-03
-7.703125e-10,9.031250e-03
-7.663125e-10,8.968750e-03
-7.623125e-10,9.062500e-03
-7.583125e-10,8.484375e-03
-7.543125e-10,8.156250e-03
-7.503125e-10,7.812500e-03
-7.463125e-10,7.406250e-03
-7.423125e-10,6.984375e-03
-7.383125e-10,6.843750e-03
-7.343125e-10,6.078125e-03
-7.303125e-10,5.500000e-03
-7.263125e-10,5.125000e-03
-7.223125e-10,4.968750e-03
-7.183125e-10,4.187500e-03
-7.143125e-10,3.750000e-03
-7.103125e-10,3.312500e-03
-7.063125e-10,2.921875e-03
-7.023125e-10,2.546875e-03
-6.983125e-10,2.515625e-03
-6.943125e-10,1.906250e-03
-6.903125e-10,1.546875e-03
-6.863125e-10,1.421875e-03
-6.823125e-10,1.546875e-03
-6.783125e-10,1.093750e-03
-6.743125e-10,1.000000e-03
-6.703125e-10,9.375000e-04
-6.663125e-10,9.375000e-04
-6.623125e-10,9.531250e-04
-6.583125e-10,1.312500e-03
-6.543125e-10,1.093750e-03
-6.503125e-10,1.109375e-03
-6.463125e-10,1.359375e-03
-6.423125e-10,1.828125e-03
-6.383125e-10,1.718750e-03
-6.343125e-10,1.921875e-03
-6.303125e-10,2.125000e-03
-6.263125e-10,2.359375e-03
-6.223125e-10,2.578125e-03
-6.183125e-10,3.125000e-03
-6.143125e-10,3.046875e-03
-6.103125e-10,3.156250e-03
-6.063125e-10,3.484375e-03
-6.023125e-10,4.000000e-03
-5.983125e-10,3.875000e-03
-5.943125e-10,4.062500e-03
-5.903125e-10,4.234375e-03
-5.863125e-10,4.375000e-03
-5.823125e-10,4.500000e-03
-5.783125e-10,4.921875e-03
-5.743125e-10,4.703125e-03
-5.703125e-10,4.671875e-03
-5.663125e-10,4.812500e-03
-5.623125e-10,5.156250e-03
-5.583125e-10,4.859375e-03
-5.543125e-10,4.843750e-03
-5.503125e-10,4.812500e-03
-5.463125e-10,4.781250e-03
-5.423125e-10,4.718750e-03
-5.383125e-10,4.937500e-03
-5.343125e-10,4.546875e-03
-5.303125e-10,4.343750e-03
-5.263125e-10,4.328125e-03
-5.223125e-10,4.515625e-03
-5.183125e-10,4.093750e-03
-5.143125e-10,3.953125e-03
-5.103125e-10,3.812500e-03
-5.063125e-10,3.671875e-03
-5.023125e-10,3.531250e-03
-4.983125e-10,3.703125e-03
-4.943125e-10,3.281250e-03
-4.903125e-10,3.046875e-03
-4.863125e-10,3.031250e-03
-4.823125e-10,3.234375e-03
-4.783125e-10,2.843750e-03
-4.743125e-10,2.781250e-03
-4.703125e-10,2.703125e-03
-4.663125e-10,2.656250e-03
-4.623125e-10,2.625000e-03
-4.583125e-10,2.937500e-03
-4.543125e-10,2.640625e-03
-4.503125e-10,2.578125e-03
-4.463125e-10,2.734375e-03
-4.423125e-10,3.125000e-03
-4.383125e-10,2.937500e-03
-4.343125e-10,3.062500e-03
-4.303125e-10,3.187500e-03
-4.263125e-10,3.343750e-03
-4.223125e-10,3.515625e-03
-4.183125e-10,4.015625e-03
-4.143125e-10,3.906250e-03
-4.103125e-10,4.015625e-03
-4.063125e-10,4.343750e-03
-4.023125e-10,4.875000e-03
-3.983125e-10,4.828125e-03
-3.943125e-10,5.062500e-03
-3.903125e-10,5.250000e-03
-3.863125e-10,5.453125e-03
-3.823125e-10,5.625000e-03
-3.783125e-10,6.109375e-03
-3.743125e-10,5.953125e-03
-3.703125e-10,5.984375e-03
-3.663125e-10,6.203125e-03
-3.623125e-10,6.578125e-03
-3.583125e-10,6.359375e-03
-3.543125e-10,6.406250e-03
-3.503125e-10,6.343750e-03
-3.463125e-10,6.281250e-03
-3.423125e-10,6.187500e-03
-3.383125e-10,6.359375e-03
-3.343125e-10,5.890625e-03
-3.303125e-10,5.593750e-03
-3.263125e-10,5.500000e-03
-3.223125e-10,5.562500e-03
-3.183125e-10,5.046875e-03
-3.143125e-10,4.796875e-03
-3.103125e-10,4.468750e-03
-3.063125e-10,4.125000e-03
-3.023125e-10,3.828125e-03
-2.983125e-10,3.812500e-03
-2.943125e-10,3.203125e-03
-2.903125e-10,2.812500e-03
-2.863125e-10,2.671875e-03
-2.823125e-10,2.718750e-03
-2.783125e-10,2.250000e-03
-2.743125e-10,2.109375e-03
-2.703125e-10,1.937500e-03
-2.663125e-10,1.781250e-03
-2.623125e-10,1.750000e-03
-2.583125e-10,2.015625e-03
-2.543125e-10,1.781250e-03
-2.503125e-10,1.750000e-03
-2.463125e-10,2.046875e-03
-2.423125e-10,2.531250e-03
-2.383125e-10,2.531250e-03
-2.343125e-10,2.875000e-03
-2.303125e-10,3.187500e-03
-2.263125e-10,3.515625e-03
-2.223125e-10,3.984375e-03
-2.183125e-10,4.687500e-03
-2.143125e-10,4.906250e-03
-2.103125e-10,5.281250e-03
-2.063125e-10,5.921875e-03
-2.023125e-10,6.718750e-03
-1.983125e-10,6.953125e-03
-1.943125e-10,7.468750e-03
-1.903125e-10,7.906250e-03
-1.863125e-10,8.281250e-03
-1.823125e-10,8.718750e-03
-1.783125e-10,9.328125e-03
-1.743125e-10,9.390625e-03
-1.703125e-10,9.515625e-03
-1.663125e-10,9.828125e-03
-1.623125e-10,1.025000e-02
-1.583125e-10,1.003125e-02
-1.543125e-10,1.003125e-02
-1.503125e-10,9.921875e-03
-1.463125e-10,9.703125e-03
-1.423125e-10,9.546875e-03
-1.383125e-10,9.500000e-03
-1.343125e-10,8.953125e-03
-1.303125e-10,8.453125e-03
-1.263125e-10,8.140625e-03
-1.223125e-10,7.984375e-03
-1.183125e-10,7.218750e-03
-1.143125e-10,6.734375e-03
-1.103125e-10,6.234375e-03
-1.063125e-10,5.703125e-03
-1.023125e-10,5.296875e-03
-9.831250e-11,5.140625e-03
-9.431250e-11,4.609375e-03
-9.031250e-11,4.250000e-03
-8.631250e-11,4.156250e-03
-8.231250e-11,4.421875e-03
-7.831250e-11,4.203125e-03
-7.431250e-11,4.406250e-03
-7.031250e-11,4.750000e-03
-6.631250e-11,5.250000e-03
-6.231250e-11,6.000000e-03
-5.831250e-11,7.156250e-03
-5.431250e-11,8.109375e-03
-5.031250e-11,9.375000e-03
-4.631250e-11,1.103125e-02
-4.231250e-11,1.317188e-02
-3.831250e-11,1.498438e-02
-3.431250e-11,1.729688e-02
-3.031250e-11,1.985938e-02
-2.631250e-11,2.267188e-02
-2.231250e-11,2.578125e-02
-1.831250e-11,2.940625e-02
-1.431250e-11,3.285938e-02
-1.031250e-11,3.665625e-02
-6.312500e-12,4.084375e-02
-2.312500e-12,4.551563e-02
1.687500e-12,4.989063e-02
5.687500e-12,5.468750e-02
9.687500e-12,5.970313e-02
1.368750e-11,6.493750e-02
1.768750e-11,7.034375e-02
2.168750e-11,7.625000e-02
2.568750e-11,8.184375e-02
2.968750e-11,8.770313e-02
3.368750e-11,9.381250e-02
3.768750e-11,1.002500e-01
4.168750e-11,1.063281e-01
4.568750e-11,1.126406e-01
4.968750e-11,1.190469e-01
5.368750e-11,1.255000e-01
5.768750e-11,1.319844e-01
6.168750e-11,1.387969e-01
6.568750e-11,1.451563e-01
6.968750e-11,1.516250e-01
7.368750e-11,1.581719e-01
7.768750e-11,1.648750e-01
8.168750e-11,1.711094e-01
8.568750e-11,1.774219e-01
8.968750e-11,1.836563e-01
9.368750e-11,1.898281e-01
9.768750e-11,1.958750e-01
1.016875e-10,2.021250e-01
1.056875e-10,2.077969e-01
1.096875e-10,2.134844e-01
1.136875e-10,2.191094e-01
1.176875e-10,2.247813e-01
1.216875e-10,2.299063e-01
1.256875e-10,2.350156e-01
1.296875e-10,2.399688e-01
1.336875e-10,2.447813e-01
1.376875e-10,2.493750e-01
1.416875e-10,2.540781e-01
1.456875e-10,2.581875e-01
1.496875e-10,2.622188e-01
1.536875e-10,2.661250e-01
1.576875e-10,2.700156e-01
1.616875e-10,2.733125e-01
1.656875e-10,2.765625e-01
1.696875e-10,2.795938e-01
1.736875e-10,2.824063e-01
1.776875e-10,2.849844e-01
1.816875e-10,2.875781e-01
1.856875e-10,2.895469e-01
1.896875e-10,2.914063e-01
1.936875e-10,2.930781e-01
1.976875e-10,2.946563e-01
2.016875e-10,2.956094e-01
2.056875e-10,2.964844e-01
2.096875e-10,2.970938e-01
2.136875e-10,2.974531e-01
2.176875e-10,2.975313e-01
2.216875e-10,2.975313e-01
2.256875e-10,2.969219e-01
2.296875e-10,2.961563e-01
2.336875e-10,2.951875e-01
2.376875e-10,2.941094e-01
2.416875e-10,2.923750e-01
2.456875e-10,2.905938e-01
2.496875e-10,2.885469e-01
2.536875e-10,2.862500e-01
2.576875e-10,2.837344e-01
2.616875e-10,2.811250e-01
2.656875e-10,2.779531e-01
2.696875e-10,2.747188e-01
2.736875e-10,2.713281e-01
2.776875e-10,2.679063e-01
2.816875e-10,2.638906e-01
2.856875e-10,2.599688e-01
2.896875e-10,2.558750e-01
2.936875e-10,2.516719e-01
2.976875e-10,2.473594e-01
3.016875e-10,2.430938e-01
3.056875e-10,2.383750e-01
3.096875e-10,2.337500e-01
3.136875e-10,2.291406e-01
3.176875e-10,2.246406e-01
3.216875e-10,2.196875e-01
3.256875e-10,2.150156e-01
3.296875e-10,2.102969e-01
3.336875e-10,2.056406e-01
3.376875e-10,2.010156e-01
3.416875e-10,1.965781e-01
3.456875e-10,1.917813e-01
3.496875e-10,1.872500e-01
3.536875e-10,1.828438e-01
3.576875e-10,1.786406e-01
3.616875e-10,1.740781e-01
3.656875e-10,1.698906e-01
3.696875e-10,1.657344e-01
3.736875e-10,1.617031e-01
3.776875e-10,1.577656e-01
3.816875e-10,1.540625e-01
3.856875e-10,1.499844e-01
3.896875e-10,1.462031e-01
3.936875e-10,1.425625e-01
3.976875e-10,1.391250e-01
4.016875e-10,1.353125e-01
4.056875e-10,1.318438e-01
4.096875e-10,1.284063e-01
4.136875e-10,1.250469e-01
4.176875e-10,1.217500e-01
4.216875e-10,1.186875e-01
4.256875e-10,1.151719e-01
4.296875e-10,1.119375e-01
4.336875e-10,1.088125e-01
4.376875e-10,1.058438e-01
4.416875e-10,1.025000e-01
4.456875e-10,9.943750e-02
4.496875e-10,9.642188e-02
4.536875e-10,9.346875e-02
4.576875e-10,9.054688e-02
4.616875e-10,8.789063e-02
4.656875e-10,8.476563e-02
4.696875e-10,8.192188e-02
4.736875e-10,7.925000e-02
4.776875e-10,7.673438e-02
4.816875e-10,7.387500e-02
4.856875e-10,7.131250e-02
4.896875e-10,6.889063e-02
4.936875e-10,6.653125e-02
4.976875e-10,6.425000e-02
5.016875e-10,6.229688e-02
5.056875e-10,5.989063e-02
5.096875e-10,5.779688e-02
5.136875e-10,5.595313e-02
5.176875e-10,5.429688e-02
5.216875e-10,5.234375e-02
5.256875e-10,5.068750e-02
5.296875e-10,4.920313e-02
5.336875e-10,4.779688e-02
5.376875e-10,4.645313e-02
5.416875e-10,4.546875e-02
5.456875e-10,4.401563e-02
5.496875e-10,4.285938e-02
5.536875e-10,4.196875e-02
5.576875e-10,4.121875e-02
5.616875e-10,4.014063e-02
5.656875e-10,3.929688e-02
5.696875e-10,3.862500e-02
5.736875e-10,3.795313e-02
5.776875e-10,3.729688e-02
5.816875e-10,3.693750e-02
5.856875e-10,3.606250e-02
5.896875e-10,3.540625e-02
5.936875e-10,3.498438e-02
5.976875e-10,3.467188e-02
6.016875e-10,3.393750e-02
6.056875e-10,3.340625e-02
6.096875e-10,3.296875e-02
6.136875e-10,3.251563e-02
6.176875e-10,3.200000e-02
6.216875e-10,3.176563e-02
6.256875e-10,3.098438e-02
6.296875e-10,3.037500e-02
6.336875e-10,2.998438e-02
6.376875e-10,2.971875e-02
6.416875e-10,2.896875e-02
6.456875e-10,2.842188e-02
6.496875e-10,2.796875e-02
6.536875e-10,2.750000e-02
6.576875e-10,2.695313e-02
6.616875e-10,2.667188e-02
6.656875e-10,2.585938e-02
6.696875e-10,2.521875e-02
6.736875e-10,2.479688e-02
6.776875e-10,2.453125e-02
6.816875e-10,2.371875e-02
6.856875e-10,2.315625e-02
6.896875e-10,2.267188e-02
6.936875e-10,2.215625e-02
6.976875e-10,2.154688e-02
7.016875e-10,2.121875e-02
7.056875e-10,2.034375e-02
7.096875e-10,1.960938e-02
7.136875e-10,1.910938e-02
7.176875e-10,1.873438e-02
7.216875e-10,1.781250e-02
7.256875e-10,1.712500e-02
7.296875e-10,1.646875e-02
7.336875e-10,1.579688e-02
7.376875e-10,1.503125e-02
7.416875e-10,1.454688e-02
7.456875e-10,1.350000e-02
7.496875e-10,1.260938e-02
7.536875e-10,1.195313e-02
7.576875e-10,1.146875e-02
7.616875e-10,1.040625e-02
7.656875e-10,9.656250e-03
7.696875e-10,8.937500e-03
7.736875e-10,8.250000e-03
7.776875e-10,7.531250e-03
7.816875e-10,7.140625e-03
7.856875e-10,6.234375e-03
7.896875e-10,5.562500e-03
7.936875e-10,5.171875e-03
7.976875e-10,5.031250e-03
8.016875e-10,4.390625e-03
8.056875e-10,4.109375e-03
8.096875e-10,3.921875e-03
8.136875e-10,3.843750e-03
8.176875e-10,3.812500e-03
8.216875e-10,4.140625e-03
8.256875e-10,4.015625e-03
8.296875e-10,4.156250e-03
8.336875e-10,4.609375e-03
8.376875e-10,5.343750e-03
8.416875e-10,5.562500e-03
8.456875e-10,6.156250e-03
8.496875e-10,6.828125e-03
8.536875e-10,7.562500e-03
8.576875e-10,8.312500e-03
8.616875e-10,9.390625e-03
8.656875e-10,9.906250e-03
8.696875e-10,1.064063e-02
8.736875e-10,1.159375e-02
8.776875e-10,1.271875e-02
8.816875e-10,1.321875e-02
8.856875e-10,1.396875e-02
8.896875e-10,1.468750e-02
8.936875e-10,1.534375e-02
8.976875e-10,1.590625e-02
9.016875e-10,1.667188e-02
9.056875e-10,1.675000e-02
9.096875e-10,1.693750e-02
9.136875e-10,1.721875e-02
9.176875e-10,1.757813e-02
9.216875e-10,1.723438e-02
9.256875e-10,1.706250e-02
9.296875e-10,1.679688e-02
9.336875e-10,1.640625e-02
9.376875e-10,1.590625e-02
9.416875e-10,1.560938e-02
9.456875e-10,1.462500e-02
9.496875e-10,1.376563e-02
9.536875e-10,1.303125e-02
9.576875e-10,1.245313e-02
9.616875e-10,1.123438e-02
9.656875e-10,1.028125e-02
9.696875e-10,9.312500e-03
9.736875e-10,8.359375e-03
9.776875e-10,7.406250e-03
9.816875e-10,6.781250e-03
9.856875e-10,5.609375e-03
9.896875e-10,4.703125e-03
9.936875e-10,4.062500e-03
9.976875e-10,3.703125e-03
1.001687e-09,2.828125e-03
1.005687e-09,2.359375e-03
1.009687e-09,2.000000e-03
1.013688e-09,1.750000e-03
1.017688e-09,1.593750e-03
1.021688e-09,1.843750e-03
1.025688e-09,1.625000e-03
1.029688e-09,1.703125e-03
1.033688e-09,2.078125e-03
1.037687e-09,2.765625e-03
1.041687e-09,2.937500e-03
1.045687e-09,3.468750e-03
1.049687e-09,4.093750e-03
1.053687e-09,4.750000e-03
1.057687e-09,5.453125e-03
1.061687e-09,6.484375e-03
1.065687e-09,6.937500e-03
1.069687e-09,7.593750e-03
1.073688e-09,8.437500e-03
1.077688e-09,9.453125e-03
1.081688e-09,9.843750e-03
1.085688e-09,1.048438e-02
1.089688e-09,1.107813e-02
1.093688e-09,1.159375e-02
1.097687e-09,1.204688e-02
1.101687e-09,1.270313e-02
1.105687e-09,1.270313e-02
1.109687e-09,1.279688e-02
1.113687e-09,1.303125e-02
1.117687e-09,1.335938e-02
1.121687e-09,1.301563e-02
1.125687e-09,1.290625e-02
1.129687e-09,1.271875e-02
1.133688e-09,1.245313e-02
1.137688e-09,1.214063e-02
1.141688e-09,1.207813e-02
1.145688e-09,1.137500e-02
1.149688e-09,1.082813e-02
1.153688e-09,1.046875e-02
1.157687e-09,1.031250e-02
1.161687e-09,9.531250e-03
1.165687e-09,9.078125e-03
1.169687e-09,8.640625e-03
1.173687e-09,8.218750e-03
1.177687e-09,7.828125e-03
1.181687e-09,7.781250e-03
1.185687e-09,7.171875e-03
1.189687e-09,6.828125e-03
1.193688e-09,6.718750e-03
1.197688e-09,6.859375e-03
1.201688e-09,6.468750e-03
1.205688e-09,6.421875e-03
1.209688e-09,6.406250e-03
1.213688e-09,6.453125e-03
1.217687e-09,6.546875e-03
1.221687e-09,6.968750e-03
1.225687e-09,6.812500e-03
1.229687e-09,6.890625e-03
1.233687e-09,7.187500e-03
1.237687e-09,7.687500e-03
1.241687e-09,7.578125e-03
1.245687e-09,7.781250e-03
1.249687e-09,7.968750e-03
1.253688e-09,8.125000e-03
1.257688e-09,8.265625e-03
1.261688e-09,8.687500e-03
1.265688e-09,8.468750e-03
1.269688e-09,8.421875e-03
1.273688e-09,8.531250e-03
1.277687e-09,8.796875e-03
1.281687e-09,8.437500e-03
1.285687e-09,8.328125e-03
1.289687e-09,8.187500e-03
1.293687e-09,8.031250e-03
1.297687e-09,7.828125e-03
1.301687e-09,7.921875e-03
1.305687e-09,7.390625e-03
1.309687e-09,7.031250e-03
1.313688e-09,6.890625e-03
1.317688e-09,6.953125e-03
1.321688e-09,6.406250e-03
1.325688e-09,6.187500e-03
1.329688e-09,6.000000e-03
1.333688e-09,5.828125e-03
1.337687e-09,5.687500e-03
1.341687e-09,5.890625e-03
1.345687e-09,5.531250e-03
1.349687e-09,5.437500e-03
1.353687e-09,5.562500e-03
1.357687e-09,5.953125e-03
1.361687e-09,5.781250e-03
1.365687e-09,5.953125e-03
1.369687e-09,6.171875e-03
1.373688e-09,6.437500e-03
1.377688e-09,6.734375e-03
1.381688e-09,7.359375e-03
1.385688e-09,7.406250e-03
1.389688e-09,7.687500e-03
1.393688e-09,8.156250e-03
1.397687e-09,8.843750e-03
1.401687e-09,8.921875e-03
1.405687e-09,9.296875e-03
1.409687e-09,9.656250e-03
1.413687e-09,9.984375e-03
1.417687e-09,1.028125e-02
1.421687e-09,1.084375e-02
1.425687e-09,1.076563e-02
1.429687e-09,1.085938e-02
1.433688e-09,1.109375e-02
1.437688e-09,1.148438e-02
1.441688e-09,1.123438e-02
1.445688e-09,1.121875e-02
1.449688e-09,1.117188e-02
1.453688e-09,1.109375e-02
1.457687e-09,1.096875e-02
1.461687e-09,1.110938e-02
1.465687e-09,1.062500e-02
1.469687e-09,1.031250e-02
1.473687e-09,1.018750e-02
1.477687e-09,1.026563e-02
1.481687e-09,9.750000e-03
1.485687e-09,9.531250e-03
1.489687e-09,9.328125e-03
1.493688e-09,9.140625e-03
1.497688e-09,9.000000e-03
1.501688e-09,9.187500e-03
1.505688e-09,8.812500e-03
1.509688e-09,8.671875e-03
1.513688e-09,8.781250e-03
1.517687e-09,9.156250e-03
1.521687e-09,8.953125e-03
1.525687e-09,9.109375e-03
1.529687e-09,9.312500e-03
1.533687e-09,9.562500e-03
1.537687e-09,9.843750e-03
1.541687e-09,1.045313e-02
1.545687e-09,1.050000e-02
1.549687e-09,1.075000e-02
1.553688e-09,1.121875e-02
1.557688e-09,1.187500e-02
1.561688e-09,1.193750e-02
1.565688e-09,1.228125e-02
1.569688e-09,1.259375e-02
1.573688e-09,1.287500e-02
1.577687e-09,1.310938e-02
1.581687e-09,1.357813e-02
1.585687e-09,1.340625e-02
1.589687e-09,1.335938e-02
1.593687e-09,1.343750e-02
1.597687e-09,1.365625e-02
1.601687e-09,1.317188e-02
1.605687e-09,1.292188e-02
1.609687e-09,1.259375e-02
1.613688e-09,1.218750e-02
1.617688e-09,1.171875e-02
1.621688e-09,1.146875e-02
1.625688e-09,1.056250e-02
1.629688e-09,9.781250e-03
1.633688e-09,9.171875e-03
1.637687e-09,8.718750e-03
1.641687e-09,7.625000e-03
1.645687e-09,6.828125e-03
1.649687e-09,6.031250e-03
1.653687e-09,5.218750e-03
1.657687e-09,4.437500e-03
1.661687e-09,3.984375e-03
1.665687e-09,2.953125e-03
1.669687e-09,2.187500e-03
1.673688e-09,1.671875e-03
1.677688e-09,1.421875e-03
1.681688e-09,6.406250e-04
1.685688e-09,2.343750e-04
1.689688e-09,-9.375000e-05
1.693687e-09,-3.281250e-04
1.697687e-09,-4.687500e-04
1.701687e-09,-2.343750e-04
1.705687e-09,-5.156250e-04
1.709687e-09,-5.156250e-04
1.713687e-09,-2.343750e-04
1.717687e-09,3.125000e-04
1.721687e-09,3.281250e-04
1.725687e-09,7.031250e-04
1.729687e-09,1.125000e-03
1.733688e-09,1.578125e-03
1.737688e-09,2.062500e-03
1.741688e-09,2.890625e-03
1.745688e-09,3.093750e-03
1.749688e-09,3.515625e-03
1.753687e-09,4.140625e-03
