Measurements-streak-laser/Photodiode-on-Tek-6GHz/Tek000_ch1_20190613132701960.csv

Model,MSO64
Waveform Type,ANALOG
Horizontal Units,s
Sample Interval,4.000000e-12
Record Length,1000
Zero Index,310.437500
Vertical Units,V

TIME,CH1
-1.241750e-09,3.687500e-03
-1.237750e-09,3.828125e-03
-1.233750e-09,3.937500e-03
-1.229750e-09,4.046875e-03
-1.225750e-09,4.109375e-03
-1.221750e-09,4.468750e-03
-1.217750e-09,4.203125e-03
-1.213750e-09,4.093750e-03
-1.209750e-09,4.187500e-03
-1.205750e-09,4.453125e-03
-1.201750e-09,4.093750e-03
-1.197750e-09,4.031250e-03
-1.193750e-09,3.953125e-03
-1.189750e-09,3.890625e-03
-1.185750e-09,3.812500e-03
-1.181750e-09,4.046875e-03
-1.177750e-09,3.687500e-03
-1.173750e-09,3.531250e-03
-1.169750e-09,3.609375e-03
-1.165750e-09,3.921875e-03
-1.161750e-09,3.640625e-03
-1.157750e-09,3.703125e-03
-1.153750e-09,3.781250e-03
-1.149750e-09,3.921875e-03
-1.145750e-09,4.078125e-03
-1.141750e-09,4.593750e-03
-1.137750e-09,4.515625e-03
-1.133750e-09,4.687500e-03
-1.129750e-09,5.093750e-03
-1.125750e-09,5.734375e-03
-1.121750e-09,5.781250e-03
-1.117750e-09,6.156250e-03
-1.113750e-09,6.546875e-03
-1.109750e-09,6.937500e-03
-1.105750e-09,7.328125e-03
-1.101750e-09,8.015625e-03
-1.097750e-09,8.093750e-03
-1.093750e-09,8.328125e-03
-1.089750e-09,8.765625e-03
-1.085750e-09,9.343750e-03
-1.081750e-09,9.296875e-03
-1.077750e-09,9.484375e-03
-1.073750e-09,9.640625e-03
-1.069750e-09,9.718750e-03
-1.065750e-09,9.750000e-03
-1.061750e-09,1.001563e-02
-1.057750e-09,9.625000e-03
-1.053750e-09,9.359375e-03
-1.049750e-09,9.234375e-03
-1.045750e-09,9.265625e-03
-1.041750e-09,8.625000e-03
-1.037750e-09,8.234375e-03
-1.033750e-09,7.812500e-03
-1.029750e-09,7.343750e-03
-1.025750e-09,6.843750e-03
-1.021750e-09,6.640625e-03
-1.017750e-09,5.812500e-03
-1.013750e-09,5.187500e-03
-1.009750e-09,4.765625e-03
-1.005750e-09,4.562500e-03
-1.001750e-09,3.796875e-03
-9.977500e-10,3.375000e-03
-9.937500e-10,2.984375e-03
-9.897500e-10,2.671875e-03
-9.857500e-10,2.406250e-03
-9.817500e-10,2.515625e-03
-9.777500e-10,2.093750e-03
-9.737500e-10,1.968750e-03
-9.697500e-10,2.109375e-03
-9.657500e-10,2.546875e-03
-9.617500e-10,2.453125e-03
-9.577500e-10,2.750000e-03
-9.537500e-10,3.125000e-03
-9.497500e-10,3.562500e-03
-9.457500e-10,4.078125e-03
-9.417500e-10,4.953125e-03
-9.377500e-10,5.265625e-03
-9.337500e-10,5.828125e-03
-9.297500e-10,6.609375e-03
-9.257500e-10,7.625000e-03
-9.217500e-10,8.031250e-03
-9.177500e-10,8.734375e-03
-9.137500e-10,9.406250e-03
-9.097500e-10,1.006250e-02
-9.057500e-10,1.067188e-02
-9.017500e-10,1.153125e-02
-8.977500e-10,1.171875e-02
-8.937500e-10,1.204688e-02
-8.897500e-10,1.248438e-02
-8.857500e-10,1.303125e-02
-8.817500e-10,1.287500e-02
-8.777500e-10,1.293750e-02
-8.737500e-10,1.289063e-02
-8.697500e-10,1.273438e-02
-8.657500e-10,1.250000e-02
-8.617500e-10,1.245313e-02
-8.577500e-10,1.171875e-02
-8.537500e-10,1.109375e-02
-8.497500e-10,1.059375e-02
-8.457500e-10,1.023438e-02
-8.417500e-10,9.203125e-03
-8.377500e-10,8.421875e-03
-8.337500e-10,7.593750e-03
-8.297500e-10,6.750000e-03
-8.257500e-10,5.890625e-03
-8.217500e-10,5.343750e-03
-8.177500e-10,4.187500e-03
-8.137500e-10,3.250000e-03
-8.097500e-10,2.562500e-03
-8.057500e-10,2.109375e-03
-8.017500e-10,1.109375e-03
-7.977500e-10,4.843750e-04
-7.937500e-10,-6.250000e-05
-7.897500e-10,-5.468750e-04
-7.857500e-10,-9.375000e-04
-7.817500e-10,-9.375000e-04
-7.777500e-10,-1.468750e-03
-7.737500e-10,-1.687500e-03
-7.697500e-10,-1.625000e-03
-7.657500e-10,-1.265625e-03
-7.617500e-10,-1.437500e-03
-7.577500e-10,-1.218750e-03
-7.537500e-10,-9.375000e-04
-7.497500e-10,-5.781250e-04
-7.457500e-10,-1.718750e-04
-7.417500e-10,5.937500e-04
-7.377500e-10,7.968750e-04
-7.337500e-10,1.218750e-03
-7.297500e-10,1.875000e-03
-7.257500e-10,2.750000e-03
-7.217500e-10,3.000000e-03
-7.177500e-10,3.562500e-03
-7.137500e-10,4.109375e-03
-7.097500e-10,4.609375e-03
-7.057500e-10,5.093750e-03
-7.017500e-10,5.843750e-03
-6.977500e-10,5.937500e-03
-6.937500e-10,6.187500e-03
-6.897500e-10,6.578125e-03
-6.857500e-10,7.125000e-03
-6.817500e-10,7.015625e-03
-6.777500e-10,7.140625e-03
-6.737500e-10,7.218750e-03
-6.697500e-10,7.218750e-03
-6.657500e-10,7.187500e-03
-6.617500e-10,7.421875e-03
-6.577500e-10,6.984375e-03
-6.537500e-10,6.718750e-03
-6.497500e-10,6.625000e-03
-6.457500e-10,6.687500e-03
-6.417500e-10,6.140625e-03
-6.377500e-10,5.875000e-03
-6.337500e-10,5.593750e-03
-6.297500e-10,5.296875e-03
-6.257500e-10,5.015625e-03
-6.217500e-10,5.031250e-03
-6.177500e-10,4.468750e-03
-6.137500e-10,4.093750e-03
-6.097500e-10,3.968750e-03
-6.057500e-10,4.046875e-03
-6.017500e-10,3.546875e-03
-5.977500e-10,3.375000e-03
-5.937500e-10,3.218750e-03
-5.897500e-10,3.109375e-03
-5.857500e-10,3.015625e-03
-5.817500e-10,3.250000e-03
-5.777500e-10,2.906250e-03
-5.737500e-10,2.781250e-03
-5.697500e-10,2.875000e-03
-5.657500e-10,3.203125e-03
-5.617500e-10,2.937500e-03
-5.577500e-10,3.000000e-03
-5.537500e-10,3.062500e-03
-5.497500e-10,3.125000e-03
-5.457500e-10,3.203125e-03
-5.417500e-10,3.593750e-03
-5.377500e-10,3.375000e-03
-5.337500e-10,3.359375e-03
-5.297500e-10,3.546875e-03
-5.257500e-10,3.921875e-03
-5.217500e-10,3.703125e-03
-5.177500e-10,3.765625e-03
-5.137500e-10,3.828125e-03
-5.097500e-10,3.890625e-03
-5.057500e-10,3.937500e-03
-5.017500e-10,4.281250e-03
-4.977500e-10,4.015625e-03
-4.937500e-10,3.937500e-03
-4.897500e-10,4.062500e-03
-4.857500e-10,4.390625e-03
-4.817500e-10,4.093750e-03
-4.777500e-10,4.109375e-03
-4.737500e-10,4.109375e-03
-4.697500e-10,4.125000e-03
-4.657500e-10,4.109375e-03
-4.617500e-10,4.406250e-03
-4.577500e-10,4.093750e-03
-4.537500e-10,3.984375e-03
-4.497500e-10,4.078125e-03
-4.457500e-10,4.375000e-03
-4.417500e-10,4.062500e-03
-4.377500e-10,4.046875e-03
-4.337500e-10,4.000000e-03
-4.297500e-10,3.968750e-03
-4.257500e-10,3.906250e-03
-4.217500e-10,4.171875e-03
-4.177500e-10,3.796875e-03
-4.137500e-10,3.625000e-03
-4.097500e-10,3.656250e-03
-4.057500e-10,3.875000e-03
-4.017500e-10,3.500000e-03
-3.977500e-10,3.406250e-03
-3.937500e-10,3.265625e-03
-3.897500e-10,3.140625e-03
-3.857500e-10,3.000000e-03
-3.817500e-10,3.171875e-03
-3.777500e-10,2.718750e-03
-3.737500e-10,2.484375e-03
-3.697500e-10,2.453125e-03
-3.657500e-10,2.625000e-03
-3.617500e-10,2.218750e-03
-3.577500e-10,2.109375e-03
-3.537500e-10,1.968750e-03
-3.497500e-10,1.859375e-03
-3.457500e-10,1.765625e-03
-3.417500e-10,2.015625e-03
-3.377500e-10,1.656250e-03
-3.337500e-10,1.531250e-03
-3.297500e-10,1.656250e-03
-3.257500e-10,2.000000e-03
-3.217500e-10,1.796875e-03
-3.177500e-10,1.921875e-03
-3.137500e-10,2.031250e-03
-3.097500e-10,2.156250e-03
-3.057500e-10,2.359375e-03
-3.017500e-10,2.875000e-03
-2.977500e-10,2.828125e-03
-2.937500e-10,3.000000e-03
-2.897500e-10,3.437500e-03
-2.857500e-10,4.062500e-03
-2.817500e-10,4.140625e-03
-2.777500e-10,4.531250e-03
-2.737500e-10,4.890625e-03
-2.697500e-10,5.218750e-03
-2.657500e-10,5.625000e-03
-2.617500e-10,6.281250e-03
-2.577500e-10,6.359375e-03
-2.537500e-10,6.593750e-03
-2.497500e-10,7.062500e-03
-2.457500e-10,7.687500e-03
-2.417500e-10,7.703125e-03
-2.377500e-10,8.000000e-03
-2.337500e-10,8.203125e-03
-2.297500e-10,8.343750e-03
-2.257500e-10,8.531250e-03
-2.217500e-10,8.906250e-03
-2.177500e-10,8.703125e-03
-2.137500e-10,8.609375e-03
-2.097500e-10,8.703125e-03
-2.057500e-10,8.937500e-03
-2.017500e-10,8.562500e-03
-1.977500e-10,8.437500e-03
-1.937500e-10,8.234375e-03
-1.897500e-10,7.953125e-03
-1.857500e-10,7.750000e-03
-1.817500e-10,7.718750e-03
-1.777500e-10,7.171875e-03
-1.737500e-10,6.718750e-03
-1.697500e-10,6.500000e-03
-1.657500e-10,6.453125e-03
-1.617500e-10,5.812500e-03
-1.577500e-10,5.468750e-03
-1.537500e-10,5.109375e-03
-1.497500e-10,4.718750e-03
-1.457500e-10,4.437500e-03
-1.417500e-10,4.390625e-03
-1.377500e-10,3.890625e-03
-1.337500e-10,3.546875e-03
-1.297500e-10,3.453125e-03
-1.257500e-10,3.625000e-03
-1.217500e-10,3.234375e-03
-1.177500e-10,3.203125e-03
-1.137500e-10,3.187500e-03
-1.097500e-10,3.234375e-03
-1.057500e-10,3.406250e-03
-1.017500e-10,3.890625e-03
-9.775000e-11,3.968750e-03
-9.375000e-11,4.250000e-03
-8.975000e-11,4.812500e-03
-8.575000e-11,5.687500e-03
-8.175000e-11,6.078125e-03
-7.775000e-11,6.828125e-03
-7.375000e-11,7.671875e-03
-6.975000e-11,8.609375e-03
-6.575000e-11,9.718750e-03
-6.175000e-11,1.118750e-02
-5.775000e-11,1.231250e-02
-5.375000e-11,1.368750e-02
-4.975000e-11,1.534375e-02
-4.575000e-11,1.739063e-02
-4.175000e-11,1.900000e-02
-3.775000e-11,2.100000e-02
-3.375000e-11,2.314063e-02
-2.975000e-11,2.543750e-02
-2.575000e-11,2.790625e-02
-2.175000e-11,3.081250e-02
-1.775000e-11,3.339063e-02
-1.375000e-11,3.628125e-02
-9.750000e-12,3.945313e-02
-5.750000e-12,4.303125e-02
-1.750000e-12,4.625000e-02
2.250000e-12,4.982813e-02
6.250000e-12,5.357813e-02
1.025000e-11,5.750000e-02
1.425000e-11,6.156250e-02
1.825000e-11,6.609375e-02
2.225000e-11,7.026563e-02
2.625000e-11,7.471875e-02
3.025000e-11,7.943750e-02
3.425000e-11,8.448438e-02
3.825000e-11,8.917188e-02
4.225000e-11,9.414063e-02
4.625000e-11,9.920313e-02
5.025000e-11,1.043750e-01
5.425000e-11,1.095938e-01
5.825000e-11,1.151875e-01
6.225000e-11,1.203438e-01
6.625000e-11,1.256719e-01
7.025000e-11,1.311250e-01
7.425000e-11,1.367969e-01
7.825000e-11,1.419844e-01
8.225000e-11,1.473281e-01
8.625000e-11,1.526406e-01
9.025000e-11,1.579063e-01
9.425000e-11,1.630938e-01
9.825000e-11,1.684844e-01
1.022500e-10,1.733125e-01
1.062500e-10,1.781719e-01
1.102500e-10,1.830156e-01
1.142500e-10,1.879063e-01
1.182500e-10,1.922188e-01
1.222500e-10,1.965313e-01
1.262500e-10,2.006875e-01
1.302500e-10,2.046563e-01
1.342500e-10,2.084375e-01
1.382500e-10,2.122813e-01
1.422500e-10,2.154844e-01
1.462500e-10,2.186094e-01
1.502500e-10,2.216094e-01
1.542500e-10,2.245469e-01
1.582500e-10,2.268438e-01
1.622500e-10,2.290938e-01
1.662500e-10,2.310938e-01
1.702500e-10,2.328750e-01
1.742500e-10,2.344063e-01
1.782500e-10,2.359375e-01
1.822500e-10,2.368125e-01
1.862500e-10,2.375938e-01
1.902500e-10,2.382188e-01
1.942500e-10,2.387813e-01
1.982500e-10,2.386875e-01
2.022500e-10,2.385938e-01
2.062500e-10,2.382656e-01
2.102500e-10,2.377500e-01
2.142500e-10,2.370000e-01
2.182500e-10,2.362813e-01
2.222500e-10,2.349688e-01
2.262500e-10,2.336094e-01
2.302500e-10,2.321563e-01
2.342500e-10,2.307188e-01
2.382500e-10,2.286875e-01
2.422500e-10,2.267500e-01
2.462500e-10,2.246563e-01
2.502500e-10,2.224531e-01
2.542500e-10,2.201406e-01
2.582500e-10,2.179063e-01
2.622500e-10,2.151719e-01
2.662500e-10,2.125156e-01
2.702500e-10,2.098594e-01
2.742500e-10,2.073125e-01
2.782500e-10,2.042344e-01
2.822500e-10,2.013906e-01
2.862500e-10,1.984531e-01
2.902500e-10,1.955156e-01
2.942500e-10,1.925625e-01
2.982500e-10,1.897344e-01
3.022500e-10,1.864844e-01
3.062500e-10,1.834063e-01
3.102500e-10,1.803906e-01
3.142500e-10,1.775313e-01
3.182500e-10,1.741875e-01
3.222500e-10,1.711406e-01
3.262500e-10,1.680469e-01
3.302500e-10,1.649688e-01
3.342500e-10,1.619063e-01
3.382500e-10,1.590313e-01
3.422500e-10,1.556719e-01
3.462500e-10,1.525313e-01
3.502500e-10,1.494688e-01
3.542500e-10,1.465469e-01
3.582500e-10,1.431563e-01
3.622500e-10,1.400313e-01
3.662500e-10,1.368750e-01
3.702500e-10,1.337344e-01
3.742500e-10,1.305938e-01
3.782500e-10,1.276250e-01
3.822500e-10,1.241563e-01
3.862500e-10,1.209219e-01
3.902500e-10,1.177500e-01
3.942500e-10,1.147188e-01
3.982500e-10,1.112344e-01
4.022500e-10,1.080156e-01
4.062500e-10,1.047969e-01
4.102500e-10,1.016094e-01
4.142500e-10,9.843750e-02
4.182500e-10,9.551563e-02
4.222500e-10,9.209375e-02
4.262500e-10,8.895313e-02
4.302500e-10,8.595313e-02
4.342500e-10,8.314063e-02
4.382500e-10,7.993750e-02
4.422500e-10,7.706250e-02
4.462500e-10,7.426563e-02
4.502500e-10,7.157813e-02
4.542500e-10,6.896875e-02
4.582500e-10,6.670313e-02
4.622500e-10,6.398438e-02
4.662500e-10,6.160938e-02
4.702500e-10,5.950000e-02
4.742500e-10,5.760938e-02
4.782500e-10,5.540625e-02
4.822500e-10,5.354688e-02
4.862500e-10,5.187500e-02
4.902500e-10,5.029688e-02
4.942500e-10,4.884375e-02
4.982500e-10,4.776563e-02
5.022500e-10,4.625000e-02
5.062500e-10,4.506250e-02
5.102500e-10,4.415625e-02
5.142500e-10,4.343750e-02
5.182500e-10,4.237500e-02
5.222500e-10,4.162500e-02
5.262500e-10,4.100000e-02
5.302500e-10,4.042188e-02
5.342500e-10,3.989063e-02
5.382500e-10,3.965625e-02
5.422500e-10,3.890625e-02
5.462500e-10,3.837500e-02
5.502500e-10,3.806250e-02
5.542500e-10,3.785938e-02
5.582500e-10,3.718750e-02
5.622500e-10,3.670313e-02
5.662500e-10,3.629688e-02
5.702500e-10,3.582813e-02
5.742500e-10,3.529688e-02
5.782500e-10,3.498438e-02
5.822500e-10,3.407813e-02
5.862500e-10,3.331250e-02
5.902500e-10,3.270313e-02
5.942500e-10,3.215625e-02
5.982500e-10,3.107813e-02
6.022500e-10,3.017188e-02
6.062500e-10,2.929688e-02
6.102500e-10,2.834375e-02
6.142500e-10,2.731250e-02
6.182500e-10,2.651563e-02
6.222500e-10,2.514063e-02
6.262500e-10,2.392188e-02
6.302500e-10,2.290625e-02
6.342500e-10,2.201563e-02
6.382500e-10,2.060938e-02
6.422500e-10,1.943750e-02
6.462500e-10,1.837500e-02
6.502500e-10,1.729688e-02
6.542500e-10,1.620313e-02
6.582500e-10,1.543750e-02
6.622500e-10,1.414063e-02
6.662500e-10,1.309375e-02
6.702500e-10,1.231250e-02
6.742500e-10,1.176563e-02
6.782500e-10,1.073438e-02
6.822500e-10,1.004688e-02
6.862500e-10,9.468750e-03
6.902500e-10,8.968750e-03
6.942500e-10,8.484375e-03
6.982500e-10,8.375000e-03
7.022500e-10,7.765625e-03
7.062500e-10,7.421875e-03
7.102500e-10,7.375000e-03
7.142500e-10,7.578125e-03
7.182500e-10,7.281250e-03
7.222500e-10,7.312500e-03
7.262500e-10,7.437500e-03
7.302500e-10,7.625000e-03
7.342500e-10,7.796875e-03
7.382500e-10,8.296875e-03
7.422500e-10,8.265625e-03
7.462500e-10,8.453125e-03
7.502500e-10,8.875000e-03
7.542500e-10,9.500000e-03
7.582500e-10,9.546875e-03
7.622500e-10,9.875000e-03
7.662500e-10,1.025000e-02
7.702500e-10,1.059375e-02
7.742500e-10,1.089063e-02
7.782500e-10,1.145313e-02
7.822500e-10,1.142188e-02
7.862500e-10,1.154688e-02
7.902500e-10,1.187500e-02
7.942500e-10,1.234375e-02
7.982500e-10,1.220313e-02
8.022500e-10,1.231250e-02
8.062500e-10,1.242188e-02
8.102500e-10,1.248438e-02
8.142500e-10,1.248438e-02
8.182500e-10,1.273438e-02
8.222500e-10,1.239063e-02
8.262500e-10,1.218750e-02
8.302500e-10,1.218750e-02
8.342500e-10,1.235938e-02
8.382500e-10,1.192188e-02
8.422500e-10,1.176563e-02
8.462500e-10,1.159375e-02
8.502500e-10,1.143750e-02
8.542500e-10,1.123438e-02
8.582500e-10,1.132813e-02
8.622500e-10,1.084375e-02
8.662500e-10,1.054688e-02
8.702500e-10,1.048438e-02
8.742500e-10,1.062500e-02
8.782500e-10,1.018750e-02
8.822500e-10,1.004688e-02
8.862500e-10,9.937500e-03
8.902500e-10,9.859375e-03
8.942500e-10,9.781250e-03
8.982500e-10,1.001563e-02
9.022500e-10,9.671875e-03
9.062500e-10,9.546875e-03
9.102500e-10,9.656250e-03
9.142500e-10,9.968750e-03
9.182500e-10,9.703125e-03
9.222500e-10,9.750000e-03
9.262500e-10,9.812500e-03
9.302500e-10,9.875000e-03
9.342500e-10,9.921875e-03
9.382500e-10,1.028125e-02
9.422500e-10,1.003125e-02
9.462500e-10,9.984375e-03
9.502500e-10,1.012500e-02
9.542500e-10,1.045313e-02
9.582500e-10,1.015625e-02
9.622500e-10,1.015625e-02
9.662500e-10,1.012500e-02
9.702500e-10,1.009375e-02
9.742500e-10,1.000000e-02
9.782500e-10,1.020313e-02
9.822500e-10,9.765625e-03
9.862500e-10,9.515625e-03
9.902500e-10,9.437500e-03
9.942500e-10,9.546875e-03
9.982500e-10,9.015625e-03
1.002250e-09,8.781250e-03
1.006250e-09,8.531250e-03
1.010250e-09,8.250000e-03
1.014250e-09,7.968750e-03
1.018250e-09,7.968750e-03
1.022250e-09,7.375000e-03
1.026250e-09,6.984375e-03
1.030250e-09,6.796875e-03
1.034250e-09,6.828125e-03
1.038250e-09,6.265625e-03
1.042250e-09,6.031250e-03
1.046250e-09,5.796875e-03
1.050250e-09,5.609375e-03
1.054250e-09,5.437500e-03
1.058250e-09,5.593750e-03
1.062250e-09,5.187500e-03
1.066250e-09,5.000000e-03
1.070250e-09,5.062500e-03
1.074250e-09,5.359375e-03
1.078250e-09,5.078125e-03
1.082250e-09,5.140625e-03
1.086250e-09,5.218750e-03
1.090250e-09,5.343750e-03
1.094250e-09,5.468750e-03
1.098250e-09,5.921875e-03
1.102250e-09,5.796875e-03
1.106250e-09,5.875000e-03
1.110250e-09,6.156250e-03
1.114250e-09,6.656250e-03
1.118250e-09,6.531250e-03
1.122250e-09,6.703125e-03
1.126250e-09,6.875000e-03
1.130250e-09,7.015625e-03
1.134250e-09,7.125000e-03
1.138250e-09,7.515625e-03
1.142250e-09,7.281250e-03
1.146250e-09,7.203125e-03
1.150250e-09,7.312500e-03
1.154250e-09,7.562500e-03
1.158250e-09,7.187500e-03
1.162250e-09,7.078125e-03
1.166250e-09,6.937500e-03
1.170250e-09,6.781250e-03
1.174250e-09,6.578125e-03
1.178250e-09,6.656250e-03
1.182250e-09,6.125000e-03
1.186250e-09,5.781250e-03
1.190250e-09,5.625000e-03
1.194250e-09,5.687500e-03
1.198250e-09,5.140625e-03
1.202250e-09,4.921875e-03
1.206250e-09,4.718750e-03
1.210250e-09,4.546875e-03
1.214250e-09,4.406250e-03
1.218250e-09,4.625000e-03
1.222250e-09,4.265625e-03
1.226250e-09,4.187500e-03
1.230250e-09,4.343750e-03
1.234250e-09,4.765625e-03
1.238250e-09,4.656250e-03
1.242250e-09,4.906250e-03
1.246250e-09,5.203125e-03
1.250250e-09,5.578125e-03
1.254250e-09,6.000000e-03
1.258250e-09,6.781250e-03
1.262250e-09,7.000000e-03
1.266250e-09,7.453125e-03
1.270250e-09,8.140625e-03
1.274250e-09,9.062500e-03
1.278250e-09,9.390625e-03
1.282250e-09,1.001563e-02
1.286250e-09,1.064063e-02
1.290250e-09,1.123438e-02
1.294250e-09,1.181250e-02
1.298250e-09,1.265625e-02
1.302250e-09,1.284375e-02
1.306250e-09,1.318750e-02
1.310250e-09,1.365625e-02
1.314250e-09,1.425000e-02
1.318250e-09,1.417188e-02
1.322250e-09,1.429688e-02
1.326250e-09,1.435938e-02
1.330250e-09,1.431250e-02
1.334250e-09,1.417188e-02
1.338250e-09,1.426563e-02
1.342250e-09,1.365625e-02
1.346250e-09,1.317188e-02
1.350250e-09,1.281250e-02
1.354250e-09,1.259375e-02
1.358250e-09,1.171875e-02
1.362250e-09,1.109375e-02
1.366250e-09,1.043750e-02
1.370250e-09,9.750000e-03
1.374250e-09,9.062500e-03
1.378250e-09,8.687500e-03
1.382250e-09,7.718750e-03
1.386250e-09,7.000000e-03
1.390250e-09,6.515625e-03
1.394250e-09,6.296875e-03
1.398250e-09,5.546875e-03
1.402250e-09,5.187500e-03
1.406250e-09,4.921875e-03
1.410250e-09,4.750000e-03
1.414250e-09,4.687500e-03
1.418250e-09,5.031250e-03
1.422250e-09,4.890625e-03
1.426250e-09,5.062500e-03
1.430250e-09,5.546875e-03
1.434250e-09,6.343750e-03
1.438250e-09,6.640625e-03
1.442250e-09,7.328125e-03
1.446250e-09,8.093750e-03
1.450250e-09,8.953125e-03
1.454250e-09,9.859375e-03
1.458250e-09,1.110938e-02
1.462250e-09,1.179688e-02
1.466250e-09,1.268750e-02
1.470250e-09,1.379688e-02
1.474250e-09,1.506250e-02
1.478250e-09,1.570313e-02
1.482250e-09,1.659375e-02
1.486250e-09,1.742188e-02
1.490250e-09,1.815625e-02
1.494250e-09,1.879688e-02
1.498250e-09,1.962500e-02
1.502250e-09,1.975000e-02
1.506250e-09,1.993750e-02
1.510250e-09,2.020313e-02
1.514250e-09,2.051563e-02
1.518250e-09,2.009375e-02
1.522250e-09,1.984375e-02
1.526250e-09,1.946875e-02
1.530250e-09,1.895313e-02
1.534250e-09,1.831250e-02
1.538250e-09,1.787500e-02
1.542250e-09,1.673438e-02
1.546250e-09,1.570313e-02
1.550250e-09,1.481250e-02
1.554250e-09,1.406250e-02
1.558250e-09,1.267188e-02
1.562250e-09,1.157813e-02
1.566250e-09,1.046875e-02
1.570250e-09,9.375000e-03
1.574250e-09,8.312500e-03
1.578250e-09,7.593750e-03
1.582250e-09,6.343750e-03
1.586250e-09,5.375000e-03
1.590250e-09,4.687500e-03
1.594250e-09,4.312500e-03
1.598250e-09,3.437500e-03
1.602250e-09,2.984375e-03
1.606250e-09,2.640625e-03
1.610250e-09,2.437500e-03
1.614250e-09,2.343750e-03
1.618250e-09,2.671875e-03
1.622250e-09,2.500000e-03
1.626250e-09,2.656250e-03
1.630250e-09,3.093750e-03
1.634250e-09,3.828125e-03
1.638250e-09,4.031250e-03
1.642250e-09,4.593750e-03
1.646250e-09,5.218750e-03
1.650250e-09,5.859375e-03
1.654250e-09,6.531250e-03
1.658250e-09,7.500000e-03
1.662250e-09,7.843750e-03
1.666250e-09,8.375000e-03
1.670250e-09,9.062500e-03
1.674250e-09,9.890625e-03
1.678250e-09,1.004688e-02
1.682250e-09,1.043750e-02
1.686250e-09,1.075000e-02
1.690250e-09,1.095313e-02
1.694250e-09,1.107813e-02
1.698250e-09,1.139063e-02
1.702250e-09,1.101563e-02
1.706250e-09,1.073438e-02
1.710250e-09,1.056250e-02
1.714250e-09,1.051563e-02
1.718250e-09,9.765625e-03
1.722250e-09,9.265625e-03
1.726250e-09,8.687500e-03
1.730250e-09,8.078125e-03
1.734250e-09,7.421875e-03
1.738250e-09,7.031250e-03
1.742250e-09,6.031250e-03
1.746250e-09,5.234375e-03
1.750250e-09,4.656250e-03
1.754250e-09,4.296875e-03
1.758250e-09,3.375000e-03
