Measurements-streak-laser/Photodiode-on-Tek-6GHz/Tek000_ch1_20190613132704668.csv

Model,MSO64
Waveform Type,ANALOG
Horizontal Units,s
Sample Interval,4.000000e-12
Record Length,1000
Zero Index,310.273438
Vertical Units,V

TIME,CH1
-1.241094e-09,2.671875e-03
-1.237094e-09,2.609375e-03
-1.233094e-09,2.796875e-03
-1.229094e-09,2.421875e-03
-1.225094e-09,2.375000e-03
-1.221094e-09,2.375000e-03
-1.217094e-09,2.437500e-03
-1.213094e-09,2.515625e-03
-1.209094e-09,2.968750e-03
-1.205094e-09,2.843750e-03
-1.201094e-09,2.968750e-03
-1.197094e-09,3.328125e-03
-1.193094e-09,3.937500e-03
-1.189094e-09,3.968750e-03
-1.185094e-09,4.328125e-03
-1.181094e-09,4.718750e-03
-1.177094e-09,5.109375e-03
-1.173094e-09,5.531250e-03
-1.169094e-09,6.250000e-03
-1.165094e-09,6.359375e-03
-1.161094e-09,6.671875e-03
-1.157094e-09,7.171875e-03
-1.153094e-09,7.843750e-03
-1.149094e-09,7.890625e-03
-1.145094e-09,8.203125e-03
-1.141094e-09,8.468750e-03
-1.137094e-09,8.703125e-03
-1.133094e-09,8.890625e-03
-1.129094e-09,9.343750e-03
-1.125094e-09,9.125000e-03
-1.121094e-09,9.062500e-03
-1.117094e-09,9.140625e-03
-1.113094e-09,9.375000e-03
-1.109094e-09,8.968750e-03
-1.105094e-09,8.812500e-03
-1.101094e-09,8.609375e-03
-1.097094e-09,8.359375e-03
-1.093094e-09,8.093750e-03
-1.089094e-09,8.109375e-03
-1.085094e-09,7.484375e-03
-1.081094e-09,7.062500e-03
-1.077094e-09,6.843750e-03
-1.073094e-09,6.812500e-03
-1.069094e-09,6.203125e-03
-1.065094e-09,5.921875e-03
-1.061094e-09,5.656250e-03
-1.057094e-09,5.421875e-03
-1.053094e-09,5.218750e-03
-1.049094e-09,5.375000e-03
-1.045094e-09,4.968750e-03
-1.041094e-09,4.812500e-03
-1.037094e-09,4.906250e-03
-1.033094e-09,5.265625e-03
-1.029094e-09,5.062500e-03
-1.025094e-09,5.218750e-03
-1.021094e-09,5.406250e-03
-1.017094e-09,5.656250e-03
-1.013094e-09,5.937500e-03
-1.009094e-09,6.546875e-03
-1.005094e-09,6.578125e-03
-1.001094e-09,6.828125e-03
-9.970938e-10,7.296875e-03
-9.930937e-10,7.953125e-03
-9.890937e-10,8.000000e-03
-9.850937e-10,8.312500e-03
-9.810937e-10,8.625000e-03
-9.770937e-10,8.875000e-03
-9.730937e-10,9.093750e-03
-9.690937e-10,9.562500e-03
-9.650937e-10,9.359375e-03
-9.610937e-10,9.296875e-03
-9.570938e-10,9.359375e-03
-9.530938e-10,9.562500e-03
-9.490938e-10,9.062500e-03
-9.450938e-10,8.812500e-03
-9.410938e-10,8.484375e-03
-9.370938e-10,8.093750e-03
-9.330937e-10,7.640625e-03
-9.290938e-10,7.421875e-03
-9.250938e-10,6.546875e-03
-9.210938e-10,5.828125e-03
-9.170937e-10,5.296875e-03
-9.130937e-10,4.937500e-03
-9.090937e-10,3.953125e-03
-9.050937e-10,3.281250e-03
-9.010937e-10,2.625000e-03
-8.970938e-10,1.984375e-03
-8.930938e-10,1.390625e-03
-8.890937e-10,1.156250e-03
-8.850937e-10,3.750000e-04
-8.810937e-10,-1.406250e-04
-8.770937e-10,-3.750000e-04
-8.730937e-10,-3.125000e-04
-8.690938e-10,-7.656250e-04
-8.650938e-10,-8.125000e-04
-8.610938e-10,-7.656250e-04
-8.570937e-10,-6.093750e-04
-8.530937e-10,-3.437500e-04
-8.490937e-10,3.125000e-04
-8.450937e-10,4.531250e-04
-8.410937e-10,8.906250e-04
-8.370938e-10,1.609375e-03
-8.330938e-10,2.609375e-03
-8.290937e-10,3.062500e-03
-8.250937e-10,3.859375e-03
-8.210937e-10,4.687500e-03
-8.170937e-10,5.562500e-03
-8.130937e-10,6.421875e-03
-8.090938e-10,7.593750e-03
-8.050938e-10,8.140625e-03
-8.010938e-10,8.859375e-03
-7.970937e-10,9.718750e-03
-7.930937e-10,1.073438e-02
-7.890937e-10,1.107813e-02
-7.850937e-10,1.164063e-02
-7.810937e-10,1.212500e-02
-7.770938e-10,1.250000e-02
-7.730938e-10,1.278125e-02
-7.690938e-10,1.328125e-02
-7.650937e-10,1.304688e-02
-7.610937e-10,1.292188e-02
-7.570937e-10,1.290625e-02
-7.530937e-10,1.296875e-02
-7.490938e-10,1.235938e-02
-7.450938e-10,1.196875e-02
-7.410938e-10,1.150000e-02
-7.370937e-10,1.095313e-02
-7.330937e-10,1.037500e-02
-7.290937e-10,1.004688e-02
-7.250937e-10,9.078125e-03
-7.210937e-10,8.312500e-03
-7.170938e-10,7.734375e-03
-7.130938e-10,7.359375e-03
-7.090938e-10,6.421875e-03
-7.050937e-10,5.812500e-03
-7.010937e-10,5.250000e-03
-6.970937e-10,4.734375e-03
-6.930937e-10,4.281250e-03
-6.890938e-10,4.218750e-03
-6.850938e-10,3.609375e-03
-6.810938e-10,3.281250e-03
-6.770937e-10,3.250000e-03
-6.730937e-10,3.484375e-03
-6.690937e-10,3.203125e-03
-6.650937e-10,3.296875e-03
-6.610937e-10,3.453125e-03
-6.570938e-10,3.687500e-03
-6.530938e-10,3.984375e-03
-6.490938e-10,4.625000e-03
-6.450937e-10,4.703125e-03
-6.410937e-10,5.000000e-03
-6.370937e-10,5.531250e-03
-6.330937e-10,6.265625e-03
-6.290938e-10,6.390625e-03
-6.250938e-10,6.812500e-03
-6.210938e-10,7.203125e-03
-6.170937e-10,7.546875e-03
-6.130937e-10,7.859375e-03
-6.090937e-10,8.406250e-03
-6.050937e-10,8.296875e-03
-6.010937e-10,8.312500e-03
-5.970938e-10,8.468750e-03
-5.930938e-10,8.734375e-03
-5.890938e-10,8.328125e-03
-5.850937e-10,8.140625e-03
-5.810937e-10,7.875000e-03
-5.770937e-10,7.546875e-03
-5.730937e-10,7.140625e-03
-5.690938e-10,6.984375e-03
-5.650938e-10,6.156250e-03
-5.610938e-10,5.484375e-03
-5.570937e-10,4.968750e-03
-5.530937e-10,4.625000e-03
-5.490937e-10,3.671875e-03
-5.450937e-10,3.000000e-03
-5.410937e-10,2.328125e-03
-5.370938e-10,1.687500e-03
-5.330938e-10,1.046875e-03
-5.290938e-10,7.656250e-04
-5.250937e-10,-9.375000e-05
-5.210937e-10,-7.031250e-04
-5.170937e-10,-1.031250e-03
-5.130937e-10,-1.093750e-03
-5.090938e-10,-1.703125e-03
-5.050938e-10,-1.906250e-03
-5.010938e-10,-2.062500e-03
-4.970937e-10,-2.109375e-03
-4.930937e-10,-2.093750e-03
-4.890937e-10,-1.671875e-03
-4.850937e-10,-1.796875e-03
-4.810937e-10,-1.625000e-03
-4.770938e-10,-1.187500e-03
-4.730938e-10,-4.843750e-04
-4.690938e-10,-3.281250e-04
-4.650937e-10,1.875000e-04
-4.610938e-10,7.343750e-04
-4.570937e-10,1.328125e-03
-4.530937e-10,1.921875e-03
-4.490938e-10,2.859375e-03
-4.450937e-10,3.187500e-03
-4.410937e-10,3.718750e-03
-4.370937e-10,4.437500e-03
-4.330938e-10,5.343750e-03
-4.290937e-10,5.609375e-03
-4.250937e-10,6.156250e-03
-4.210937e-10,6.625000e-03
-4.170938e-10,7.062500e-03
-4.130937e-10,7.453125e-03
-4.090937e-10,8.078125e-03
-4.050938e-10,8.046875e-03
-4.010938e-10,8.140625e-03
-3.970937e-10,8.390625e-03
-3.930937e-10,8.781250e-03
-3.890938e-10,8.500000e-03
-3.850938e-10,8.468750e-03
-3.810937e-10,8.343750e-03
-3.770937e-10,8.171875e-03
-3.730938e-10,7.968750e-03
-3.690937e-10,8.000000e-03
-3.650937e-10,7.390625e-03
-3.610937e-10,6.953125e-03
-3.570938e-10,6.703125e-03
-3.530937e-10,6.609375e-03
-3.490937e-10,5.921875e-03
-3.450938e-10,5.515625e-03
-3.410938e-10,5.078125e-03
-3.370937e-10,4.625000e-03
-3.330937e-10,4.218750e-03
-3.290938e-10,4.093750e-03
-3.250938e-10,3.406250e-03
-3.210937e-10,2.921875e-03
-3.170937e-10,2.687500e-03
-3.130938e-10,2.671875e-03
-3.090937e-10,2.109375e-03
-3.050937e-10,1.875000e-03
-3.010937e-10,1.640625e-03
-2.970938e-10,1.437500e-03
-2.930937e-10,1.296875e-03
-2.890937e-10,1.484375e-03
-2.850938e-10,1.125000e-03
-2.810938e-10,9.843750e-04
-2.770937e-10,1.109375e-03
-2.730937e-10,1.453125e-03
-2.690938e-10,1.250000e-03
-2.650938e-10,1.390625e-03
-2.610937e-10,1.500000e-03
-2.570937e-10,1.640625e-03
-2.530938e-10,1.843750e-03
-2.490937e-10,2.328125e-03
-2.450937e-10,2.281250e-03
-2.410937e-10,2.406250e-03
-2.370938e-10,2.781250e-03
-2.330937e-10,3.359375e-03
-2.290937e-10,3.343750e-03
-2.250938e-10,3.656250e-03
-2.210937e-10,3.921875e-03
-2.170938e-10,4.156250e-03
-2.130937e-10,4.468750e-03
-2.090938e-10,5.015625e-03
-2.050937e-10,5.015625e-03
-2.010938e-10,5.156250e-03
-1.970937e-10,5.515625e-03
-1.930938e-10,6.062500e-03
-1.890937e-10,6.000000e-03
-1.850937e-10,6.234375e-03
-1.810937e-10,6.421875e-03
-1.770937e-10,6.562500e-03
-1.730938e-10,6.750000e-03
-1.690937e-10,7.171875e-03
-1.650938e-10,7.062500e-03
-1.610937e-10,7.093750e-03
-1.570938e-10,7.312500e-03
-1.530937e-10,7.734375e-03
-1.490938e-10,7.531250e-03
-1.450937e-10,7.640625e-03
-1.410938e-10,7.718750e-03
-1.370937e-10,7.781250e-03
-1.330938e-10,7.921875e-03
-1.290937e-10,8.281250e-03
-1.250937e-10,8.171875e-03
-1.210937e-10,8.203125e-03
-1.170937e-10,8.468750e-03
-1.130938e-10,8.968750e-03
-1.090938e-10,8.906250e-03
-1.050938e-10,9.171875e-03
-1.010938e-10,9.468750e-03
-9.709375e-11,9.796875e-03
-9.309375e-11,1.023438e-02
-8.909375e-11,1.100000e-02
-8.509375e-11,1.131250e-02
-8.109375e-11,1.184375e-02
-7.709375e-11,1.264063e-02
-7.309375e-11,1.375000e-02
-6.909375e-11,1.435938e-02
-6.509375e-11,1.534375e-02
-6.109375e-11,1.642188e-02
-5.709375e-11,1.759375e-02
-5.309375e-11,1.892188e-02
-4.909375e-11,2.062500e-02
-4.509375e-11,2.193750e-02
-4.109375e-11,2.351563e-02
-3.709375e-11,2.537500e-02
-3.309375e-11,2.759375e-02
-2.909375e-11,2.935938e-02
-2.509375e-11,3.150000e-02
-2.109375e-11,3.376563e-02
-1.709375e-11,3.615625e-02
-1.309375e-11,3.867188e-02
-9.093750e-12,4.159375e-02
-5.093750e-12,4.412500e-02
-1.093750e-12,4.690625e-02
2.906250e-12,4.995313e-02
6.906250e-12,5.331250e-02
1.090625e-11,5.623438e-02
1.490625e-11,5.948438e-02
1.890625e-11,6.281250e-02
2.290625e-11,6.623438e-02
2.690625e-11,6.971875e-02
3.090625e-11,7.357813e-02
3.490625e-11,7.696875e-02
3.890625e-11,8.057813e-02
4.290625e-11,8.437500e-02
4.690625e-11,8.840625e-02
5.090625e-11,9.196875e-02
5.490625e-11,9.576563e-02
5.890625e-11,9.956250e-02
6.290625e-11,1.034063e-01
6.690625e-11,1.072031e-01
7.090625e-11,1.113125e-01
7.490625e-11,1.148906e-01
7.890625e-11,1.186094e-01
8.290625e-11,1.224219e-01
8.690625e-11,1.263750e-01
9.090625e-11,1.298125e-01
9.490625e-11,1.333906e-01
9.890625e-11,1.369063e-01
1.029063e-10,1.403594e-01
1.069063e-10,1.437031e-01
1.109063e-10,1.472656e-01
1.149063e-10,1.502344e-01
1.189062e-10,1.532500e-01
1.229062e-10,1.562656e-01
1.269062e-10,1.593594e-01
1.309063e-10,1.618438e-01
1.349062e-10,1.644063e-01
1.389063e-10,1.668281e-01
1.429062e-10,1.691094e-01
1.469063e-10,1.712188e-01
1.509062e-10,1.734531e-01
1.549063e-10,1.750313e-01
1.589062e-10,1.765938e-01
1.629063e-10,1.781094e-01
1.669062e-10,1.796094e-01
1.709063e-10,1.804688e-01
1.749062e-10,1.813594e-01
1.789062e-10,1.820625e-01
1.829062e-10,1.826094e-01
1.869062e-10,1.829375e-01
1.909062e-10,1.833438e-01
1.949062e-10,1.831094e-01
1.989063e-10,1.828438e-01
2.029062e-10,1.825313e-01
2.069063e-10,1.822031e-01
2.109062e-10,1.812500e-01
2.149063e-10,1.803750e-01
2.189062e-10,1.793438e-01
2.229063e-10,1.781563e-01
2.269062e-10,1.768438e-01
2.309063e-10,1.756250e-01
2.349063e-10,1.738125e-01
2.389062e-10,1.720625e-01
2.429062e-10,1.703125e-01
2.469062e-10,1.686250e-01
2.509063e-10,1.663594e-01
2.549062e-10,1.642813e-01
2.589062e-10,1.621094e-01
2.629063e-10,1.598750e-01
2.669063e-10,1.575781e-01
2.709062e-10,1.554375e-01
2.749062e-10,1.527813e-01
2.789063e-10,1.502500e-01
2.829063e-10,1.477969e-01
2.869062e-10,1.454688e-01
2.909062e-10,1.426094e-01
2.949063e-10,1.400156e-01
2.989062e-10,1.373594e-01
3.029062e-10,1.346875e-01
3.069062e-10,1.320000e-01
3.109063e-10,1.295000e-01
3.149062e-10,1.265000e-01
3.189062e-10,1.236719e-01
3.229063e-10,1.209375e-01
3.269063e-10,1.183594e-01
3.309062e-10,1.152500e-01
3.349062e-10,1.124375e-01
3.389063e-10,1.095781e-01
3.429063e-10,1.067344e-01
3.469062e-10,1.038906e-01
3.509062e-10,1.012500e-01
3.549063e-10,9.810938e-02
3.589062e-10,9.518750e-02
3.629062e-10,9.240625e-02
3.669062e-10,8.978125e-02
3.709063e-10,8.667188e-02
3.749062e-10,8.390625e-02
3.789062e-10,8.114063e-02
3.829062e-10,7.843750e-02
3.869063e-10,7.578125e-02
3.909062e-10,7.342188e-02
3.949062e-10,7.059375e-02
3.989063e-10,6.804688e-02
4.029063e-10,6.570313e-02
4.069062e-10,6.360938e-02
4.109062e-10,6.109375e-02
4.149063e-10,5.896875e-02
4.189062e-10,5.693750e-02
4.229062e-10,5.501563e-02
4.269062e-10,5.320313e-02
4.309063e-10,5.175000e-02
4.349062e-10,4.985938e-02
4.389062e-10,4.829688e-02
4.429062e-10,4.698438e-02
4.469063e-10,4.592188e-02
4.509062e-10,4.448438e-02
4.549062e-10,4.340625e-02
4.589063e-10,4.243750e-02
4.629063e-10,4.156250e-02
4.669063e-10,4.075000e-02
4.709063e-10,4.029688e-02
4.749063e-10,3.932813e-02
4.789062e-10,3.862500e-02
4.829062e-10,3.814063e-02
4.869062e-10,3.781250e-02
4.909062e-10,3.704688e-02
4.949062e-10,3.653125e-02
4.989063e-10,3.606250e-02
5.029063e-10,3.559375e-02
5.069063e-10,3.509375e-02
5.109062e-10,3.485938e-02
5.149062e-10,3.403125e-02
5.189062e-10,3.337500e-02
5.229062e-10,3.287500e-02
5.269063e-10,3.248438e-02
5.309063e-10,3.156250e-02
5.349063e-10,3.084375e-02
5.389062e-10,3.014063e-02
5.429062e-10,2.939063e-02
5.469062e-10,2.857813e-02
5.509062e-10,2.803125e-02
5.549062e-10,2.690625e-02
5.589063e-10,2.593750e-02
5.629063e-10,2.518750e-02
5.669063e-10,2.456250e-02
5.709062e-10,2.343750e-02
5.749062e-10,2.256250e-02
5.789062e-10,2.178125e-02
5.829062e-10,2.100000e-02
5.869063e-10,2.021875e-02
5.909063e-10,1.978125e-02
5.949063e-10,1.881250e-02
5.989062e-10,1.807813e-02
6.029062e-10,1.762500e-02
6.069062e-10,1.737500e-02
6.109062e-10,1.665625e-02
6.149062e-10,1.625000e-02
6.189063e-10,1.596875e-02
6.229063e-10,1.571875e-02
6.269063e-10,1.548438e-02
6.309062e-10,1.557813e-02
6.349062e-10,1.515625e-02
6.389062e-10,1.495313e-02
6.429062e-10,1.501563e-02
6.469063e-10,1.525000e-02
6.509063e-10,1.495313e-02
6.549063e-10,1.492188e-02
6.589062e-10,1.492188e-02
6.629062e-10,1.492188e-02
6.669062e-10,1.484375e-02
6.709062e-10,1.501563e-02
6.749062e-10,1.459375e-02
6.789063e-10,1.432813e-02
6.829063e-10,1.421875e-02
6.869063e-10,1.423438e-02
6.909062e-10,1.362500e-02
6.949062e-10,1.323438e-02
6.989062e-10,1.282813e-02
7.029062e-10,1.235938e-02
7.069063e-10,1.179688e-02
7.109063e-10,1.146875e-02
7.149063e-10,1.053125e-02
7.189062e-10,9.734375e-03
7.229062e-10,9.125000e-03
7.269062e-10,8.687500e-03
7.309062e-10,7.656250e-03
7.349062e-10,6.906250e-03
7.389063e-10,6.203125e-03
7.429063e-10,5.500000e-03
7.469063e-10,4.796875e-03
7.509062e-10,4.437500e-03
7.549062e-10,3.531250e-03
7.589062e-10,2.890625e-03
7.629062e-10,2.531250e-03
7.669062e-10,2.437500e-03
7.709063e-10,1.828125e-03
7.749063e-10,1.593750e-03
7.789062e-10,1.468750e-03
7.829062e-10,1.453125e-03
7.869062e-10,1.484375e-03
7.909062e-10,1.906250e-03
7.949062e-10,1.812500e-03
7.989063e-10,2.015625e-03
8.029063e-10,2.500000e-03
8.069063e-10,3.250000e-03
8.109062e-10,3.468750e-03
8.149062e-10,4.031250e-03
8.189062e-10,4.640625e-03
8.229062e-10,5.296875e-03
8.269062e-10,5.937500e-03
8.309063e-10,6.890625e-03
8.349063e-10,7.234375e-03
8.389062e-10,7.765625e-03
8.429062e-10,8.484375e-03
8.469062e-10,9.359375e-03
8.509062e-10,9.593750e-03
8.549062e-10,1.006250e-02
8.589063e-10,1.046875e-02
8.629063e-10,1.082813e-02
8.669063e-10,1.109375e-02
8.709062e-10,1.157813e-02
8.749062e-10,1.140625e-02
8.789062e-10,1.134375e-02
8.829062e-10,1.140625e-02
8.869062e-10,1.160938e-02
8.909063e-10,1.112500e-02
8.949063e-10,1.089063e-02
8.989062e-10,1.060938e-02
9.029062e-10,1.028125e-02
9.069062e-10,9.906250e-03
9.109062e-10,9.812500e-03
9.149062e-10,9.078125e-03
9.189063e-10,8.546875e-03
9.229063e-10,8.218750e-03
9.269063e-10,8.093750e-03
9.309062e-10,7.390625e-03
9.349063e-10,7.000000e-03
9.389063e-10,6.671875e-03
9.429063e-10,6.359375e-03
9.469063e-10,6.093750e-03
9.509063e-10,6.187500e-03
9.549063e-10,5.718750e-03
9.589062e-10,5.515625e-03
9.629062e-10,5.562500e-03
9.669062e-10,5.859375e-03
9.709062e-10,5.609375e-03
9.749062e-10,5.703125e-03
9.789062e-10,5.843750e-03
9.829062e-10,6.031250e-03
9.869062e-10,6.234375e-03
9.909062e-10,6.765625e-03
9.949063e-10,6.718750e-03
9.989063e-10,6.875000e-03
1.002906e-09,7.234375e-03
1.006906e-09,7.796875e-03
1.010906e-09,7.734375e-03
1.014906e-09,7.968750e-03
1.018906e-09,8.171875e-03
1.022906e-09,8.343750e-03
1.026906e-09,8.468750e-03
1.030906e-09,8.859375e-03
1.034906e-09,8.625000e-03
1.038906e-09,8.531250e-03
1.042906e-09,8.593750e-03
1.046906e-09,8.828125e-03
1.050906e-09,8.421875e-03
1.054906e-09,8.281250e-03
1.058906e-09,8.093750e-03
1.062906e-09,7.906250e-03
1.066906e-09,7.671875e-03
1.070906e-09,7.734375e-03
1.074906e-09,7.187500e-03
1.078906e-09,6.828125e-03
1.082906e-09,6.687500e-03
1.086906e-09,6.750000e-03
1.090906e-09,6.250000e-03
1.094906e-09,6.062500e-03
1.098906e-09,5.906250e-03
1.102906e-09,5.796875e-03
1.106906e-09,5.734375e-03
1.110906e-09,6.015625e-03
1.114906e-09,5.734375e-03
1.118906e-09,5.718750e-03
1.122906e-09,5.937500e-03
1.126906e-09,6.421875e-03
1.130906e-09,6.343750e-03
1.134906e-09,6.625000e-03
1.138906e-09,6.937500e-03
1.142906e-09,7.281250e-03
1.146906e-09,7.656250e-03
1.150906e-09,8.359375e-03
1.154906e-09,8.468750e-03
1.158906e-09,8.796875e-03
1.162906e-09,9.328125e-03
1.166906e-09,1.004688e-02
1.170906e-09,1.015625e-02
1.174906e-09,1.053125e-02
1.178906e-09,1.087500e-02
1.182906e-09,1.120313e-02
1.186906e-09,1.146875e-02
1.190906e-09,1.200000e-02
1.194906e-09,1.185938e-02
1.198906e-09,1.187500e-02
1.202906e-09,1.203125e-02
1.206906e-09,1.234375e-02
1.210906e-09,1.198438e-02
1.214906e-09,1.185938e-02
1.218906e-09,1.170313e-02
1.222906e-09,1.148438e-02
1.226906e-09,1.121875e-02
1.230906e-09,1.120313e-02
1.234906e-09,1.056250e-02
1.238906e-09,1.009375e-02
1.242906e-09,9.796875e-03
1.246906e-09,9.687500e-03
1.250906e-09,8.984375e-03
1.254906e-09,8.562500e-03
1.258906e-09,8.171875e-03
1.262906e-09,7.781250e-03
1.266906e-09,7.406250e-03
1.270906e-09,7.375000e-03
1.274906e-09,6.765625e-03
1.278906e-09,6.406250e-03
1.282906e-09,6.281250e-03
1.286906e-09,6.390625e-03
1.290906e-09,5.953125e-03
1.294906e-09,5.859375e-03
1.298906e-09,5.828125e-03
1.302906e-09,5.828125e-03
1.306906e-09,5.859375e-03
1.310906e-09,6.234375e-03
1.314906e-09,6.046875e-03
1.318906e-09,6.093750e-03
1.322906e-09,6.359375e-03
1.326906e-09,6.843750e-03
1.330906e-09,6.734375e-03
1.334906e-09,6.937500e-03
1.338906e-09,7.125000e-03
1.342906e-09,7.328125e-03
1.346906e-09,7.500000e-03
1.350906e-09,7.968750e-03
1.354906e-09,7.796875e-03
1.358906e-09,7.812500e-03
1.362906e-09,7.984375e-03
1.366906e-09,8.328125e-03
1.370906e-09,8.031250e-03
1.374906e-09,8.015625e-03
1.378906e-09,7.937500e-03
1.382906e-09,7.843750e-03
1.386906e-09,7.703125e-03
1.390906e-09,7.843750e-03
1.394906e-09,7.343750e-03
1.398906e-09,7.031250e-03
1.402906e-09,6.890625e-03
1.406906e-09,6.937500e-03
1.410906e-09,6.375000e-03
1.414906e-09,6.109375e-03
1.418906e-09,5.859375e-03
1.422906e-09,5.593750e-03
1.426906e-09,5.359375e-03
1.430906e-09,5.453125e-03
1.434906e-09,4.953125e-03
1.438906e-09,4.687500e-03
1.442906e-09,4.640625e-03
1.446906e-09,4.843750e-03
1.450906e-09,4.484375e-03
1.454906e-09,4.468750e-03
1.458906e-09,4.500000e-03
1.462906e-09,4.546875e-03
1.466906e-09,4.656250e-03
1.470906e-09,5.093750e-03
1.474906e-09,4.968750e-03
1.478906e-09,5.078125e-03
1.482906e-09,5.406250e-03
1.486906e-09,5.968750e-03
1.490906e-09,5.953125e-03
1.494906e-09,6.250000e-03
1.498906e-09,6.562500e-03
1.502906e-09,6.875000e-03
1.506906e-09,7.171875e-03
1.510906e-09,7.781250e-03
1.514906e-09,7.781250e-03
1.518906e-09,7.953125e-03
1.522906e-09,8.312500e-03
1.526906e-09,8.843750e-03
1.530906e-09,8.750000e-03
1.534906e-09,8.921875e-03
1.538906e-09,9.062500e-03
1.542906e-09,9.187500e-03
1.546906e-09,9.250000e-03
1.550906e-09,9.609375e-03
1.554906e-09,9.312500e-03
1.558906e-09,9.187500e-03
1.562906e-09,9.234375e-03
1.566906e-09,9.453125e-03
1.570906e-09,9.046875e-03
1.574906e-09,8.921875e-03
1.578906e-09,8.781250e-03
1.582906e-09,8.609375e-03
1.586906e-09,8.453125e-03
1.590906e-09,8.578125e-03
1.594906e-09,8.093750e-03
1.598906e-09,7.812500e-03
1.602906e-09,7.750000e-03
1.606906e-09,7.875000e-03
1.610906e-09,7.421875e-03
1.614906e-09,7.281250e-03
1.618906e-09,7.156250e-03
1.622906e-09,7.031250e-03
1.626906e-09,6.937500e-03
1.630906e-09,7.156250e-03
1.634906e-09,6.796875e-03
1.638906e-09,6.640625e-03
1.642906e-09,6.703125e-03
1.646906e-09,6.984375e-03
1.650906e-09,6.671875e-03
1.654906e-09,6.656250e-03
1.658906e-09,6.671875e-03
1.662906e-09,6.671875e-03
1.666906e-09,6.671875e-03
1.670906e-09,6.984375e-03
1.674906e-09,6.671875e-03
1.678906e-09,6.562500e-03
1.682906e-09,6.656250e-03
1.686906e-09,6.921875e-03
1.690906e-09,6.578125e-03
1.694906e-09,6.531250e-03
1.698906e-09,6.468750e-03
1.702906e-09,6.375000e-03
1.706906e-09,6.281250e-03
1.710906e-09,6.484375e-03
1.714906e-09,6.062500e-03
1.718906e-09,5.828125e-03
1.722906e-09,5.796875e-03
1.726906e-09,5.968750e-03
1.730906e-09,5.515625e-03
1.734906e-09,5.375000e-03
1.738906e-09,5.234375e-03
1.742906e-09,5.109375e-03
1.746906e-09,5.000000e-03
1.750906e-09,5.187500e-03
1.754906e-09,4.796875e-03
