Measurements-streak-laser/Photodiode-on-Tek-6GHz/Tek000_ch1_20190613132759124.csv

Model,MSO64
Waveform Type,ANALOG
Horizontal Units,s
Sample Interval,4.000000e-12
Record Length,1000
Zero Index,310.273438
Vertical Units,V

TIME,CH1
-1.241094e-09,6.671875e-03
-1.237094e-09,7.187500e-03
-1.233094e-09,7.875000e-03
-1.229094e-09,7.906250e-03
-1.225094e-09,8.187500e-03
-1.221094e-09,8.421875e-03
-1.217094e-09,8.593750e-03
-1.213094e-09,8.703125e-03
-1.209094e-09,9.062500e-03
-1.205094e-09,8.750000e-03
-1.201094e-09,8.578125e-03
-1.197094e-09,8.562500e-03
-1.193094e-09,8.671875e-03
-1.189094e-09,8.140625e-03
-1.185094e-09,7.875000e-03
-1.181094e-09,7.562500e-03
-1.177094e-09,7.203125e-03
-1.173094e-09,6.843750e-03
-1.169094e-09,6.765625e-03
-1.165094e-09,6.062500e-03
-1.161094e-09,5.578125e-03
-1.157094e-09,5.296875e-03
-1.153094e-09,5.234375e-03
-1.149094e-09,4.593750e-03
-1.145094e-09,4.281250e-03
-1.141094e-09,4.015625e-03
-1.137094e-09,3.781250e-03
-1.133094e-09,3.609375e-03
-1.129094e-09,3.781250e-03
-1.125094e-09,3.390625e-03
-1.121094e-09,3.265625e-03
-1.117094e-09,3.390625e-03
-1.113094e-09,3.781250e-03
-1.109094e-09,3.593750e-03
-1.105094e-09,3.781250e-03
-1.101094e-09,3.984375e-03
-1.097094e-09,4.234375e-03
-1.093094e-09,4.515625e-03
-1.089094e-09,5.125000e-03
-1.085094e-09,5.140625e-03
-1.081094e-09,5.359375e-03
-1.077094e-09,5.781250e-03
-1.073094e-09,6.406250e-03
-1.069094e-09,6.390625e-03
-1.065094e-09,6.671875e-03
-1.061094e-09,6.921875e-03
-1.057094e-09,7.125000e-03
-1.053094e-09,7.281250e-03
-1.049094e-09,7.703125e-03
-1.045094e-09,7.453125e-03
-1.041094e-09,7.359375e-03
-1.037094e-09,7.406250e-03
-1.033094e-09,7.593750e-03
-1.029094e-09,7.125000e-03
-1.025094e-09,6.890625e-03
-1.021094e-09,6.593750e-03
-1.017094e-09,6.250000e-03
-1.013094e-09,5.859375e-03
-1.009094e-09,5.734375e-03
-1.005094e-09,4.953125e-03
-1.001094e-09,4.343750e-03
-9.970938e-10,3.906250e-03
-9.930937e-10,3.656250e-03
-9.890937e-10,2.781250e-03
-9.850937e-10,2.203125e-03
-9.810937e-10,1.640625e-03
-9.770937e-10,1.078125e-03
-9.730937e-10,5.312500e-04
-9.690937e-10,3.125000e-04
-9.650937e-10,-4.687500e-04
-9.610937e-10,-1.031250e-03
-9.570938e-10,-1.343750e-03
-9.530938e-10,-1.390625e-03
-9.490938e-10,-2.031250e-03
-9.450938e-10,-2.296875e-03
-9.410938e-10,-2.515625e-03
-9.370938e-10,-2.671875e-03
-9.330937e-10,-2.781250e-03
-9.290938e-10,-2.546875e-03
-9.250938e-10,-2.859375e-03
-9.210938e-10,-2.921875e-03
-9.170937e-10,-2.750000e-03
-9.130937e-10,-2.312500e-03
-9.090937e-10,-2.468750e-03
-9.050937e-10,-2.281250e-03
-9.010937e-10,-2.062500e-03
-8.970938e-10,-1.812500e-03
-8.930938e-10,-1.546875e-03
-8.890937e-10,-9.687500e-04
-8.850937e-10,-9.843750e-04
-8.810937e-10,-7.812500e-04
-8.770937e-10,-3.906250e-04
-8.730937e-10,2.031250e-04
-8.690938e-10,1.875000e-04
-8.650938e-10,4.687500e-04
-8.610938e-10,7.343750e-04
-8.570937e-10,1.000000e-03
-8.530937e-10,1.250000e-03
-8.490937e-10,1.781250e-03
-8.450937e-10,1.687500e-03
-8.410937e-10,1.781250e-03
-8.370938e-10,2.062500e-03
-8.330938e-10,2.546875e-03
-8.290937e-10,2.390625e-03
-8.250937e-10,2.546875e-03
-8.210937e-10,2.687500e-03
-8.170937e-10,2.812500e-03
-8.130937e-10,2.921875e-03
-8.090938e-10,3.343750e-03
-8.050938e-10,3.156250e-03
-8.010938e-10,3.171875e-03
-7.970937e-10,3.390625e-03
-7.930937e-10,3.796875e-03
-7.890937e-10,3.609375e-03
-7.850937e-10,3.734375e-03
-7.810937e-10,3.859375e-03
-7.770938e-10,3.984375e-03
-7.730938e-10,4.109375e-03
-7.690938e-10,4.546875e-03
-7.650937e-10,4.375000e-03
-7.610937e-10,4.406250e-03
-7.570937e-10,4.640625e-03
-7.530937e-10,5.093750e-03
-7.490938e-10,4.921875e-03
-7.450938e-10,5.046875e-03
-7.410938e-10,5.156250e-03
-7.370937e-10,5.281250e-03
-7.330937e-10,5.390625e-03
-7.290937e-10,5.781250e-03
-7.250937e-10,5.562500e-03
-7.210937e-10,5.531250e-03
-7.170938e-10,5.687500e-03
-7.130938e-10,6.046875e-03
-7.090938e-10,5.765625e-03
-7.050937e-10,5.781250e-03
-7.010937e-10,5.781250e-03
-6.970937e-10,5.750000e-03
-6.930937e-10,5.718750e-03
-6.890938e-10,5.984375e-03
-6.850938e-10,5.625000e-03
-6.810938e-10,5.437500e-03
-6.770937e-10,5.468750e-03
-6.730937e-10,5.687500e-03
-6.690937e-10,5.281250e-03
-6.650937e-10,5.187500e-03
-6.610937e-10,5.093750e-03
-6.570938e-10,4.984375e-03
-6.530938e-10,4.875000e-03
-6.490938e-10,5.093750e-03
-6.450937e-10,4.687500e-03
-6.410937e-10,4.500000e-03
-6.370937e-10,4.515625e-03
-6.330937e-10,4.750000e-03
-6.290938e-10,4.390625e-03
-6.250938e-10,4.328125e-03
-6.210938e-10,4.281250e-03
-6.170937e-10,4.250000e-03
-6.130937e-10,4.234375e-03
-6.090937e-10,4.531250e-03
-6.050937e-10,4.218750e-03
-6.010937e-10,4.125000e-03
-5.970938e-10,4.250000e-03
-5.930938e-10,4.593750e-03
-5.890938e-10,4.312500e-03
-5.850937e-10,4.359375e-03
-5.810937e-10,4.421875e-03
-5.770937e-10,4.468750e-03
-5.730937e-10,4.531250e-03
-5.690938e-10,4.906250e-03
-5.650938e-10,4.656250e-03
-5.610938e-10,4.625000e-03
-5.570937e-10,4.796875e-03
-5.530937e-10,5.171875e-03
-5.490937e-10,4.937500e-03
-5.450937e-10,5.015625e-03
-5.410937e-10,5.078125e-03
-5.370938e-10,5.156250e-03
-5.330938e-10,5.218750e-03
-5.290938e-10,5.593750e-03
-5.250937e-10,5.343750e-03
-5.210937e-10,5.312500e-03
-5.170937e-10,5.468750e-03
-5.130937e-10,5.828125e-03
-5.090938e-10,5.578125e-03
-5.050938e-10,5.640625e-03
-5.010938e-10,5.671875e-03
-4.970937e-10,5.718750e-03
-4.930937e-10,5.750000e-03
-4.890937e-10,6.093750e-03
-4.850937e-10,5.812500e-03
-4.810937e-10,5.734375e-03
-4.770938e-10,5.859375e-03
-4.730938e-10,6.171875e-03
-4.690938e-10,5.859375e-03
-4.650937e-10,5.859375e-03
-4.610938e-10,5.828125e-03
-4.570937e-10,5.796875e-03
-4.530937e-10,5.750000e-03
-4.490938e-10,6.000000e-03
-4.450937e-10,5.625000e-03
-4.410937e-10,5.437500e-03
-4.370937e-10,5.453125e-03
-4.330938e-10,5.656250e-03
-4.290937e-10,5.250000e-03
-4.250937e-10,5.125000e-03
-4.210937e-10,4.968750e-03
-4.170938e-10,4.812500e-03
-4.130937e-10,4.640625e-03
-4.090937e-10,4.781250e-03
-4.050938e-10,4.296875e-03
-4.010938e-10,4.015625e-03
-3.970937e-10,3.953125e-03
-3.930937e-10,4.078125e-03
-3.890938e-10,3.609375e-03
-3.850938e-10,3.453125e-03
-3.810937e-10,3.250000e-03
-3.770937e-10,3.078125e-03
-3.730938e-10,2.906250e-03
-3.690937e-10,3.062500e-03
-3.650937e-10,2.593750e-03
-3.610937e-10,2.375000e-03
-3.570938e-10,2.375000e-03
-3.530937e-10,2.578125e-03
-3.490937e-10,2.218750e-03
-3.450938e-10,2.171875e-03
-3.410938e-10,2.078125e-03
-3.370937e-10,2.015625e-03
-3.330937e-10,1.984375e-03
-3.290938e-10,2.265625e-03
-3.250938e-10,1.937500e-03
-3.210937e-10,1.828125e-03
-3.170937e-10,1.968750e-03
-3.130938e-10,2.281250e-03
-3.090937e-10,2.046875e-03
-3.050937e-10,2.125000e-03
-3.010937e-10,2.109375e-03
-2.970938e-10,2.109375e-03
-2.930937e-10,2.156250e-03
-2.890937e-10,2.468750e-03
-2.850938e-10,2.203125e-03
-2.810938e-10,2.125000e-03
-2.770937e-10,2.281250e-03
-2.730937e-10,2.609375e-03
-2.690938e-10,2.375000e-03
-2.650938e-10,2.437500e-03
-2.610937e-10,2.421875e-03
-2.570937e-10,2.375000e-03
-2.530938e-10,2.421875e-03
-2.490937e-10,2.718750e-03
-2.450937e-10,2.453125e-03
-2.410937e-10,2.359375e-03
-2.370938e-10,2.515625e-03
-2.330937e-10,2.859375e-03
-2.290937e-10,2.640625e-03
-2.250938e-10,2.734375e-03
-2.210937e-10,2.781250e-03
-2.170938e-10,2.781250e-03
-2.130937e-10,2.921875e-03
-2.090938e-10,3.281250e-03
-2.050937e-10,3.140625e-03
-2.010938e-10,3.156250e-03
-1.970937e-10,3.437500e-03
-1.930938e-10,3.890625e-03
-1.890937e-10,3.781250e-03
-1.850937e-10,4.000000e-03
-1.810937e-10,4.156250e-03
-1.770937e-10,4.281250e-03
-1.730938e-10,4.531250e-03
-1.690937e-10,4.968750e-03
-1.650938e-10,4.937500e-03
-1.610937e-10,5.015625e-03
-1.570938e-10,5.312500e-03
-1.530937e-10,5.796875e-03
-1.490938e-10,5.671875e-03
-1.450937e-10,5.843750e-03
-1.410938e-10,5.953125e-03
-1.370937e-10,6.000000e-03
-1.330938e-10,6.156250e-03
-1.290937e-10,6.484375e-03
-1.250937e-10,6.343750e-03
-1.210937e-10,6.296875e-03
-1.170937e-10,6.453125e-03
-1.130938e-10,6.812500e-03
-1.090938e-10,6.578125e-03
-1.050938e-10,6.640625e-03
-1.010938e-10,6.687500e-03
-9.709375e-11,6.718750e-03
-9.309375e-11,6.875000e-03
-8.909375e-11,7.281250e-03
-8.509375e-11,7.312500e-03
-8.109375e-11,7.500000e-03
-7.709375e-11,7.937500e-03
-7.309375e-11,8.703125e-03
-6.909375e-11,8.984375e-03
-6.509375e-11,9.640625e-03
-6.109375e-11,1.042188e-02
-5.709375e-11,1.132813e-02
-5.309375e-11,1.245313e-02
-4.909375e-11,1.396875e-02
-4.509375e-11,1.526563e-02
-4.109375e-11,1.682813e-02
-3.709375e-11,1.876563e-02
-3.309375e-11,2.117188e-02
-2.909375e-11,2.325000e-02
-2.509375e-11,2.578125e-02
-2.109375e-11,2.856250e-02
-1.709375e-11,3.159375e-02
-1.309375e-11,3.490625e-02
-9.093750e-12,3.876563e-02
-5.093750e-12,4.243750e-02
-1.093750e-12,4.646875e-02
2.906250e-12,5.090625e-02
6.906250e-12,5.582813e-02
1.090625e-11,6.050000e-02
1.490625e-11,6.559375e-02
1.890625e-11,7.093750e-02
2.290625e-11,7.653125e-02
2.690625e-11,8.232813e-02
3.090625e-11,8.864063e-02
3.490625e-11,9.470313e-02
3.890625e-11,1.010625e-01
4.290625e-11,1.076875e-01
4.690625e-11,1.146875e-01
5.090625e-11,1.213594e-01
5.490625e-11,1.282969e-01
5.890625e-11,1.353438e-01
6.290625e-11,1.424844e-01
6.690625e-11,1.496563e-01
7.090625e-11,1.571875e-01
7.490625e-11,1.642969e-01
7.890625e-11,1.715156e-01
8.290625e-11,1.788125e-01
8.690625e-11,1.862500e-01
9.090625e-11,1.932344e-01
9.490625e-11,2.002813e-01
9.890625e-11,2.072188e-01
1.029063e-10,2.140781e-01
1.069063e-10,2.207813e-01
1.109063e-10,2.276250e-01
1.149063e-10,2.338750e-01
1.189062e-10,2.400781e-01
1.229062e-10,2.461406e-01
1.269062e-10,2.521719e-01
1.309063e-10,2.576094e-01
1.349062e-10,2.629531e-01
1.389063e-10,2.680313e-01
1.429062e-10,2.728906e-01
1.469063e-10,2.774375e-01
1.509062e-10,2.819688e-01
1.549063e-10,2.858281e-01
1.589062e-10,2.895156e-01
1.629063e-10,2.929688e-01
1.669062e-10,2.962656e-01
1.709063e-10,2.989063e-01
1.749062e-10,3.013750e-01
1.789062e-10,3.035313e-01
1.829062e-10,3.053906e-01
1.869062e-10,3.069063e-01
1.909062e-10,3.083438e-01
1.949062e-10,3.091250e-01
1.989063e-10,3.097031e-01
2.029062e-10,3.100469e-01
2.069063e-10,3.102344e-01
2.109062e-10,3.097656e-01
2.149063e-10,3.092031e-01
2.189062e-10,3.083594e-01
2.229063e-10,3.072656e-01
2.269062e-10,3.059063e-01
2.309063e-10,3.044688e-01
2.349063e-10,3.024844e-01
2.389062e-10,3.003750e-01
2.429062e-10,2.981250e-01
2.469062e-10,2.958438e-01
2.509063e-10,2.929531e-01
2.549062e-10,2.901406e-01
2.589062e-10,2.871250e-01
2.629063e-10,2.839844e-01
2.669063e-10,2.807031e-01
2.709062e-10,2.774531e-01
2.749062e-10,2.737500e-01
2.789063e-10,2.700781e-01
2.829063e-10,2.663906e-01
2.869062e-10,2.627500e-01
2.909062e-10,2.586250e-01
2.949063e-10,2.547344e-01
2.989062e-10,2.507344e-01
3.029062e-10,2.467188e-01
3.069062e-10,2.426719e-01
3.109063e-10,2.387344e-01
3.149062e-10,2.344219e-01
3.189062e-10,2.302656e-01
3.229063e-10,2.261406e-01
3.269063e-10,2.221563e-01
3.309062e-10,2.177344e-01
3.349062e-10,2.136250e-01
3.389063e-10,2.094531e-01
3.429063e-10,2.053281e-01
3.469062e-10,2.012188e-01
3.509062e-10,1.972656e-01
3.549063e-10,1.929219e-01
3.589062e-10,1.887969e-01
3.629062e-10,1.847188e-01
3.669062e-10,1.807969e-01
3.709063e-10,1.764688e-01
3.749062e-10,1.724531e-01
3.789062e-10,1.683906e-01
3.829062e-10,1.643906e-01
3.869063e-10,1.604219e-01
3.909062e-10,1.566250e-01
3.949062e-10,1.523906e-01
3.989063e-10,1.484063e-01
4.029063e-10,1.445156e-01
4.069062e-10,1.407500e-01
4.109062e-10,1.365938e-01
4.149063e-10,1.327500e-01
4.189062e-10,1.289063e-01
4.229062e-10,1.251250e-01
4.269062e-10,1.213750e-01
4.309063e-10,1.178750e-01
4.349062e-10,1.139063e-01
4.389062e-10,1.102344e-01
4.429062e-10,1.066875e-01
4.469063e-10,1.032969e-01
4.509062e-10,9.957813e-02
4.549062e-10,9.615625e-02
4.589063e-10,9.284375e-02
4.629063e-10,8.959375e-02
4.669063e-10,8.643750e-02
4.709063e-10,8.359375e-02
4.749063e-10,8.031250e-02
4.789062e-10,7.734375e-02
4.829062e-10,7.462500e-02
4.869062e-10,7.209375e-02
4.909062e-10,6.928125e-02
4.949062e-10,6.679688e-02
4.989063e-10,6.450000e-02
5.029063e-10,6.231250e-02
5.069063e-10,6.021875e-02
5.109062e-10,5.851563e-02
5.149062e-10,5.640625e-02
5.189062e-10,5.462500e-02
5.229062e-10,5.315625e-02
5.269063e-10,5.187500e-02
5.309063e-10,5.032813e-02
5.349063e-10,4.910938e-02
5.389062e-10,4.809375e-02
5.429062e-10,4.715625e-02
5.469062e-10,4.631250e-02
5.509062e-10,4.582813e-02
5.549062e-10,4.489063e-02
5.589063e-10,4.425000e-02
5.629063e-10,4.387500e-02
5.669063e-10,4.365625e-02
5.709062e-10,4.307813e-02
5.749062e-10,4.275000e-02
5.789062e-10,4.257813e-02
5.829062e-10,4.237500e-02
5.869063e-10,4.215625e-02
5.909063e-10,4.221875e-02
5.949063e-10,4.175000e-02
5.989062e-10,4.143750e-02
6.029062e-10,4.134375e-02
6.069062e-10,4.129688e-02
6.109062e-10,4.078125e-02
6.149062e-10,4.040625e-02
6.189063e-10,4.009375e-02
6.229063e-10,3.968750e-02
6.269063e-10,3.915625e-02
6.309062e-10,3.884375e-02
6.349062e-10,3.793750e-02
6.389062e-10,3.712500e-02
6.429062e-10,3.646875e-02
6.469063e-10,3.587500e-02
6.509063e-10,3.473438e-02
6.549063e-10,3.375000e-02
6.589062e-10,3.281250e-02
6.629062e-10,3.179688e-02
6.669062e-10,3.067188e-02
6.709062e-10,2.979688e-02
6.749062e-10,2.835938e-02
6.789063e-10,2.707813e-02
6.829063e-10,2.601563e-02
6.869063e-10,2.510938e-02
6.909062e-10,2.368750e-02
6.949062e-10,2.253125e-02
6.989062e-10,2.148438e-02
7.029062e-10,2.046875e-02
7.069063e-10,1.940625e-02
7.109063e-10,1.870313e-02
7.149063e-10,1.750000e-02
7.189062e-10,1.654688e-02
7.229062e-10,1.589063e-02
7.269062e-10,1.548438e-02
7.309062e-10,1.459375e-02
7.349062e-10,1.404688e-02
7.389063e-10,1.362500e-02
7.429063e-10,1.328125e-02
7.469063e-10,1.292188e-02
7.509062e-10,1.293750e-02
7.549062e-10,1.245313e-02
7.589062e-10,1.220313e-02
7.629062e-10,1.223438e-02
7.669062e-10,1.248438e-02
7.709063e-10,1.220313e-02
7.749063e-10,1.221875e-02
7.789062e-10,1.229688e-02
7.829062e-10,1.239063e-02
7.869062e-10,1.242188e-02
7.909062e-10,1.273438e-02
7.949062e-10,1.246875e-02
7.989063e-10,1.237500e-02
8.029063e-10,1.248438e-02
8.069063e-10,1.275000e-02
8.109062e-10,1.239063e-02
8.149062e-10,1.228125e-02
8.189062e-10,1.217188e-02
8.229062e-10,1.201563e-02
8.269062e-10,1.178125e-02
8.309063e-10,1.179688e-02
8.349063e-10,1.120313e-02
8.389062e-10,1.076563e-02
8.429062e-10,1.053125e-02
8.469062e-10,1.046875e-02
8.509062e-10,9.796875e-03
8.549062e-10,9.406250e-03
8.589063e-10,9.031250e-03
8.629063e-10,8.687500e-03
8.669063e-10,8.296875e-03
8.709062e-10,8.234375e-03
8.749062e-10,7.625000e-03
8.789062e-10,7.234375e-03
8.829062e-10,7.093750e-03
8.869062e-10,7.203125e-03
8.909063e-10,6.765625e-03
8.949063e-10,6.687500e-03
8.989062e-10,6.656250e-03
9.029062e-10,6.703125e-03
9.069062e-10,6.781250e-03
9.109062e-10,7.203125e-03
9.149062e-10,7.093750e-03
9.189063e-10,7.234375e-03
9.229063e-10,7.625000e-03
9.269063e-10,8.250000e-03
9.309062e-10,8.312500e-03
9.349063e-10,8.703125e-03
9.389063e-10,9.109375e-03
9.429063e-10,9.546875e-03
9.469063e-10,9.953125e-03
9.509063e-10,1.067188e-02
9.549063e-10,1.076563e-02
9.589062e-10,1.104688e-02
9.629062e-10,1.150000e-02
9.669062e-10,1.209375e-02
9.709062e-10,1.206250e-02
9.749062e-10,1.228125e-02
9.789062e-10,1.245313e-02
9.829062e-10,1.254688e-02
9.869062e-10,1.259375e-02
9.909062e-10,1.285938e-02
9.949063e-10,1.246875e-02
9.989063e-10,1.220313e-02
1.002906e-09,1.209375e-02
1.006906e-09,1.212500e-02
1.010906e-09,1.150000e-02
1.014906e-09,1.112500e-02
1.018906e-09,1.071875e-02
1.022906e-09,1.026563e-02
1.026906e-09,9.781250e-03
1.030906e-09,9.578125e-03
1.034906e-09,8.765625e-03
1.038906e-09,8.140625e-03
1.042906e-09,7.718750e-03
1.046906e-09,7.515625e-03
1.050906e-09,6.734375e-03
1.054906e-09,6.281250e-03
1.058906e-09,5.875000e-03
1.062906e-09,5.500000e-03
1.066906e-09,5.156250e-03
1.070906e-09,5.156250e-03
1.074906e-09,4.625000e-03
1.078906e-09,4.343750e-03
1.082906e-09,4.328125e-03
1.086906e-09,4.562500e-03
1.090906e-09,4.265625e-03
1.094906e-09,4.312500e-03
1.098906e-09,4.421875e-03
1.102906e-09,4.562500e-03
1.106906e-09,4.765625e-03
1.110906e-09,5.296875e-03
1.114906e-09,5.265625e-03
1.118906e-09,5.468750e-03
1.122906e-09,5.890625e-03
1.126906e-09,6.531250e-03
1.130906e-09,6.578125e-03
1.134906e-09,6.937500e-03
1.138906e-09,7.296875e-03
1.142906e-09,7.656250e-03
1.146906e-09,8.000000e-03
1.150906e-09,8.625000e-03
1.154906e-09,8.625000e-03
1.158906e-09,8.812500e-03
1.162906e-09,9.171875e-03
1.166906e-09,9.703125e-03
1.170906e-09,9.609375e-03
1.174906e-09,9.781250e-03
1.178906e-09,9.937500e-03
1.182906e-09,1.004688e-02
1.186906e-09,1.014063e-02
1.190906e-09,1.050000e-02
1.194906e-09,1.023438e-02
1.198906e-09,1.014063e-02
1.202906e-09,1.023438e-02
1.206906e-09,1.051563e-02
1.210906e-09,1.017188e-02
1.214906e-09,1.012500e-02
1.218906e-09,1.006250e-02
1.222906e-09,1.000000e-02
1.226906e-09,9.937500e-03
1.230906e-09,1.018750e-02
1.234906e-09,9.812500e-03
1.238906e-09,9.656250e-03
1.242906e-09,9.703125e-03
1.246906e-09,9.968750e-03
1.250906e-09,9.625000e-03
1.254906e-09,9.593750e-03
1.258906e-09,9.578125e-03
1.262906e-09,9.562500e-03
1.266906e-09,9.562500e-03
1.270906e-09,9.859375e-03
1.274906e-09,9.562500e-03
1.278906e-09,9.484375e-03
1.282906e-09,9.593750e-03
1.286906e-09,9.921875e-03
1.290906e-09,9.640625e-03
1.294906e-09,9.671875e-03
1.298906e-09,9.687500e-03
1.302906e-09,9.718750e-03
1.306906e-09,9.750000e-03
1.310906e-09,1.006250e-02
1.314906e-09,9.781250e-03
1.318906e-09,9.703125e-03
1.322906e-09,9.812500e-03
1.326906e-09,1.012500e-02
1.330906e-09,9.843750e-03
1.334906e-09,9.859375e-03
1.338906e-09,9.875000e-03
1.342906e-09,9.890625e-03
1.346906e-09,9.906250e-03
1.350906e-09,1.023438e-02
1.354906e-09,9.953125e-03
1.358906e-09,9.890625e-03
1.362906e-09,1.003125e-02
1.366906e-09,1.037500e-02
1.370906e-09,1.014063e-02
1.374906e-09,1.020313e-02
1.378906e-09,1.028125e-02
1.382906e-09,1.037500e-02
1.386906e-09,1.046875e-02
1.390906e-09,1.087500e-02
1.394906e-09,1.070313e-02
1.398906e-09,1.071875e-02
1.402906e-09,1.095313e-02
1.406906e-09,1.137500e-02
1.410906e-09,1.121875e-02
1.414906e-09,1.134375e-02
1.418906e-09,1.148438e-02
1.422906e-09,1.160938e-02
1.426906e-09,1.173438e-02
1.430906e-09,1.214063e-02
1.434906e-09,1.193750e-02
1.438906e-09,1.192188e-02
1.442906e-09,1.209375e-02
1.446906e-09,1.245313e-02
1.450906e-09,1.218750e-02
1.454906e-09,1.220313e-02
1.458906e-09,1.218750e-02
1.462906e-09,1.217188e-02
1.466906e-09,1.212500e-02
1.470906e-09,1.234375e-02
1.474906e-09,1.195313e-02
1.478906e-09,1.175000e-02
1.482906e-09,1.170313e-02
1.486906e-09,1.185938e-02
1.490906e-09,1.140625e-02
1.494906e-09,1.121875e-02
1.498906e-09,1.103125e-02
1.502906e-09,1.084375e-02
1.506906e-09,1.065625e-02
1.510906e-09,1.075000e-02
1.514906e-09,1.025000e-02
1.518906e-09,9.968750e-03
1.522906e-09,9.875000e-03
1.526906e-09,1.000000e-02
1.530906e-09,9.546875e-03
1.534906e-09,9.406250e-03
1.538906e-09,9.281250e-03
1.542906e-09,9.171875e-03
1.546906e-09,9.078125e-03
1.550906e-09,9.312500e-03
1.554906e-09,8.968750e-03
1.558906e-09,8.843750e-03
1.562906e-09,8.937500e-03
1.566906e-09,9.265625e-03
1.570906e-09,9.000000e-03
1.574906e-09,9.062500e-03
1.578906e-09,9.156250e-03
1.582906e-09,9.250000e-03
1.586906e-09,9.359375e-03
1.590906e-09,9.781250e-03
1.594906e-09,9.593750e-03
1.598906e-09,9.640625e-03
1.602906e-09,9.875000e-03
1.606906e-09,1.031250e-02
1.610906e-09,1.015625e-02
1.614906e-09,1.029688e-02
1.618906e-09,1.042188e-02
1.622906e-09,1.053125e-02
1.626906e-09,1.064063e-02
1.630906e-09,1.103125e-02
1.634906e-09,1.081250e-02
1.638906e-09,1.078125e-02
1.642906e-09,1.092188e-02
1.646906e-09,1.123438e-02
1.650906e-09,1.093750e-02
1.654906e-09,1.093750e-02
1.658906e-09,1.089063e-02
1.662906e-09,1.084375e-02
1.666906e-09,1.078125e-02
1.670906e-09,1.098438e-02
1.674906e-09,1.057813e-02
1.678906e-09,1.035938e-02
1.682906e-09,1.031250e-02
1.686906e-09,1.046875e-02
1.690906e-09,1.001563e-02
1.694906e-09,9.843750e-03
1.698906e-09,9.671875e-03
1.702906e-09,9.484375e-03
1.706906e-09,9.296875e-03
1.710906e-09,9.406250e-03
1.714906e-09,8.906250e-03
1.718906e-09,8.609375e-03
1.722906e-09,8.515625e-03
1.726906e-09,8.609375e-03
1.730906e-09,8.109375e-03
1.734906e-09,7.906250e-03
1.738906e-09,7.718750e-03
1.742906e-09,7.515625e-03
1.746906e-09,7.312500e-03
1.750906e-09,7.406250e-03
1.754906e-09,6.906250e-03
