Measurements-streak-laser/Photodiode-on-Tek-6GHz/Tek000_ch1_20190613132815270.csv

Model,MSO64
Waveform Type,ANALOG
Horizontal Units,s
Sample Interval,4.000000e-12
Record Length,1000
Zero Index,310.046875
Vertical Units,V

TIME,CH1
-1.240188e-09,1.500000e-03
-1.236187e-09,9.531250e-04
-1.232187e-09,6.406250e-04
-1.228187e-09,5.625000e-04
-1.224187e-09,7.031250e-04
-1.220187e-09,2.656250e-04
-1.216187e-09,1.718750e-04
-1.212187e-09,1.093750e-04
-1.208187e-09,6.250000e-05
-1.204187e-09,6.250000e-05
-1.200187e-09,3.906250e-04
-1.196188e-09,1.250000e-04
-1.192188e-09,1.093750e-04
-1.188188e-09,2.968750e-04
-1.184188e-09,7.187500e-04
-1.180188e-09,5.625000e-04
-1.176187e-09,7.031250e-04
-1.172187e-09,8.593750e-04
-1.168187e-09,1.031250e-03
-1.164187e-09,1.187500e-03
-1.160187e-09,1.671875e-03
-1.156187e-09,1.531250e-03
-1.152187e-09,1.593750e-03
-1.148187e-09,1.843750e-03
-1.144187e-09,2.281250e-03
-1.140187e-09,2.109375e-03
-1.136188e-09,2.234375e-03
-1.132188e-09,2.343750e-03
-1.128188e-09,2.437500e-03
-1.124188e-09,2.515625e-03
-1.120188e-09,2.906250e-03
-1.116187e-09,2.671875e-03
-1.112187e-09,2.625000e-03
-1.108187e-09,2.796875e-03
-1.104187e-09,3.156250e-03
-1.100187e-09,2.921875e-03
-1.096187e-09,2.984375e-03
-1.092187e-09,3.062500e-03
-1.088187e-09,3.156250e-03
-1.084187e-09,3.265625e-03
-1.080187e-09,3.703125e-03
-1.076188e-09,3.546875e-03
-1.072188e-09,3.609375e-03
-1.068188e-09,3.890625e-03
-1.064188e-09,4.406250e-03
-1.060188e-09,4.343750e-03
-1.056188e-09,4.593750e-03
-1.052187e-09,4.875000e-03
-1.048187e-09,5.156250e-03
-1.044187e-09,5.468750e-03
-1.040187e-09,6.093750e-03
-1.036187e-09,6.109375e-03
-1.032187e-09,6.328125e-03
-1.028187e-09,6.750000e-03
-1.024187e-09,7.375000e-03
-1.020187e-09,7.359375e-03
-1.016188e-09,7.640625e-03
-1.012188e-09,7.890625e-03
-1.008188e-09,8.125000e-03
-1.004188e-09,8.296875e-03
-1.000188e-09,8.750000e-03
-9.961875e-10,8.546875e-03
-9.921875e-10,8.500000e-03
-9.881875e-10,8.593750e-03
-9.841875e-10,8.843750e-03
-9.801875e-10,8.421875e-03
-9.761875e-10,8.250000e-03
-9.721875e-10,8.031250e-03
-9.681875e-10,7.750000e-03
-9.641875e-10,7.421875e-03
-9.601875e-10,7.343750e-03
-9.561875e-10,6.625000e-03
-9.521875e-10,6.078125e-03
-9.481875e-10,5.687500e-03
-9.441875e-10,5.500000e-03
-9.401875e-10,4.671875e-03
-9.361875e-10,4.140625e-03
-9.321875e-10,3.609375e-03
-9.281875e-10,3.093750e-03
-9.241875e-10,2.593750e-03
-9.201875e-10,2.437500e-03
-9.161875e-10,1.687500e-03
-9.121875e-10,1.203125e-03
-9.081875e-10,9.531250e-04
-9.041875e-10,9.687500e-04
-9.001875e-10,4.375000e-04
-8.961875e-10,2.812500e-04
-8.921875e-10,1.875000e-04
-8.881875e-10,1.562500e-04
-8.841875e-10,2.031250e-04
-8.801875e-10,6.250000e-04
-8.761875e-10,5.000000e-04
-8.721875e-10,6.562500e-04
-8.681875e-10,1.062500e-03
-8.641875e-10,1.750000e-03
-8.601875e-10,1.875000e-03
-8.561875e-10,2.343750e-03
-8.521875e-10,2.843750e-03
-8.481875e-10,3.390625e-03
-8.441875e-10,3.953125e-03
-8.401875e-10,4.828125e-03
-8.361875e-10,5.109375e-03
-8.321875e-10,5.578125e-03
-8.281875e-10,6.250000e-03
-8.241875e-10,7.093750e-03
-8.201875e-10,7.312500e-03
-8.161875e-10,7.796875e-03
-8.121875e-10,8.234375e-03
-8.081875e-10,8.625000e-03
-8.041875e-10,8.953125e-03
-8.001875e-10,9.546875e-03
-7.961875e-10,9.468750e-03
-7.921875e-10,9.531250e-03
-7.881875e-10,9.734375e-03
-7.841875e-10,1.009375e-02
-7.801875e-10,9.765625e-03
-7.761875e-10,9.703125e-03
-7.721875e-10,9.578125e-03
-7.681875e-10,9.421875e-03
-7.641875e-10,9.203125e-03
-7.601875e-10,9.265625e-03
-7.561875e-10,8.687500e-03
-7.521875e-10,8.281250e-03
-7.481875e-10,8.062500e-03
-7.441875e-10,8.031250e-03
-7.401875e-10,7.406250e-03
-7.361875e-10,7.062500e-03
-7.321875e-10,6.734375e-03
-7.281875e-10,6.406250e-03
-7.241875e-10,6.109375e-03
-7.201875e-10,6.125000e-03
-7.161875e-10,5.562500e-03
-7.121875e-10,5.218750e-03
-7.081875e-10,5.109375e-03
-7.041875e-10,5.234375e-03
-7.001875e-10,4.765625e-03
-6.961875e-10,4.640625e-03
-6.921875e-10,4.531250e-03
-6.881875e-10,4.453125e-03
-6.841875e-10,4.390625e-03
-6.801875e-10,4.656250e-03
-6.761875e-10,4.328125e-03
-6.721875e-10,4.203125e-03
-6.681875e-10,4.296875e-03
-6.641875e-10,4.593750e-03
-6.601875e-10,4.281250e-03
-6.561875e-10,4.265625e-03
-6.521875e-10,4.250000e-03
-6.481875e-10,4.218750e-03
-6.441875e-10,4.171875e-03
-6.401875e-10,4.437500e-03
-6.361875e-10,4.062500e-03
-6.321875e-10,3.890625e-03
-6.281875e-10,3.906250e-03
-6.241875e-10,4.093750e-03
-6.201875e-10,3.687500e-03
-6.161875e-10,3.562500e-03
-6.121875e-10,3.437500e-03
-6.081875e-10,3.328125e-03
-6.041875e-10,3.203125e-03
-6.001875e-10,3.390625e-03
-5.961875e-10,2.968750e-03
-5.921875e-10,2.781250e-03
-5.881875e-10,2.812500e-03
-5.841875e-10,3.062500e-03
-5.801875e-10,2.750000e-03
-5.761875e-10,2.750000e-03
-5.721875e-10,2.781250e-03
-5.681875e-10,2.859375e-03
-5.641875e-10,2.968750e-03
-5.601875e-10,3.421875e-03
-5.561875e-10,3.296875e-03
-5.521875e-10,3.406250e-03
-5.481875e-10,3.765625e-03
-5.441875e-10,4.343750e-03
-5.401875e-10,4.343750e-03
-5.361875e-10,4.671875e-03
-5.321875e-10,5.031250e-03
-5.281875e-10,5.375000e-03
-5.241875e-10,5.750000e-03
-5.201875e-10,6.421875e-03
-5.161875e-10,6.468750e-03
-5.121875e-10,6.718750e-03
-5.081875e-10,7.140625e-03
-5.041875e-10,7.750000e-03
-5.001875e-10,7.718750e-03
-4.961875e-10,7.953125e-03
-4.921875e-10,8.125000e-03
-4.881875e-10,8.265625e-03
-4.841875e-10,8.359375e-03
-4.801875e-10,8.703125e-03
-4.761875e-10,8.375000e-03
-4.721875e-10,8.203125e-03
-4.681875e-10,8.187500e-03
-4.641875e-10,8.328125e-03
-4.601875e-10,7.812500e-03
-4.561875e-10,7.546875e-03
-4.521875e-10,7.234375e-03
-4.481875e-10,6.906250e-03
-4.441875e-10,6.531250e-03
-4.401875e-10,6.468750e-03
-4.361875e-10,5.765625e-03
-4.321875e-10,5.265625e-03
-4.281875e-10,4.984375e-03
-4.241875e-10,4.921875e-03
-4.201875e-10,4.281250e-03
-4.161875e-10,3.968750e-03
-4.121875e-10,3.656250e-03
-4.081875e-10,3.406250e-03
-4.041875e-10,3.203125e-03
-4.001875e-10,3.359375e-03
-3.961875e-10,2.968750e-03
-3.921875e-10,2.828125e-03
-3.881875e-10,2.968750e-03
-3.841875e-10,3.359375e-03
-3.801875e-10,3.234375e-03
-3.761875e-10,3.437500e-03
-3.721875e-10,3.671875e-03
-3.681875e-10,3.968750e-03
-3.641875e-10,4.296875e-03
-3.601875e-10,4.968750e-03
-3.561875e-10,5.046875e-03
-3.521875e-10,5.359375e-03
-3.481875e-10,5.890625e-03
-3.441875e-10,6.609375e-03
-3.401875e-10,6.750000e-03
-3.361875e-10,7.156250e-03
-3.321875e-10,7.484375e-03
-3.281875e-10,7.781250e-03
-3.241875e-10,8.062500e-03
-3.201875e-10,8.578125e-03
-3.161875e-10,8.437500e-03
-3.121875e-10,8.421875e-03
-3.081875e-10,8.578125e-03
-3.041875e-10,8.843750e-03
-3.001875e-10,8.468750e-03
-2.961875e-10,8.328125e-03
-2.921875e-10,8.062500e-03
-2.881875e-10,7.734375e-03
-2.841875e-10,7.390625e-03
-2.801875e-10,7.281250e-03
-2.761875e-10,6.531250e-03
-2.721875e-10,5.937500e-03
-2.681875e-10,5.562500e-03
-2.641875e-10,5.343750e-03
-2.601875e-10,4.546875e-03
-2.561875e-10,4.062500e-03
-2.521875e-10,3.546875e-03
-2.481875e-10,3.031250e-03
-2.441875e-10,2.625000e-03
-2.401875e-10,2.531250e-03
-2.361875e-10,1.937500e-03
-2.321875e-10,1.562500e-03
-2.281875e-10,1.500000e-03
-2.241875e-10,1.703125e-03
-2.201875e-10,1.406250e-03
-2.161875e-10,1.500000e-03
-2.121875e-10,1.625000e-03
-2.081875e-10,1.812500e-03
-2.041875e-10,2.156250e-03
-2.001875e-10,2.796875e-03
-1.961875e-10,3.000000e-03
-1.921875e-10,3.406250e-03
-1.881875e-10,4.109375e-03
-1.841875e-10,5.031250e-03
-1.801875e-10,5.421875e-03
-1.761875e-10,6.125000e-03
-1.721875e-10,6.812500e-03
-1.681875e-10,7.468750e-03
-1.641875e-10,8.187500e-03
-1.601875e-10,9.125000e-03
-1.561875e-10,9.531250e-03
-1.521875e-10,1.003125e-02
-1.481875e-10,1.070313e-02
-1.441875e-10,1.150000e-02
-1.401875e-10,1.165625e-02
-1.361875e-10,1.204688e-02
-1.321875e-10,1.234375e-02
-1.281875e-10,1.253125e-02
-1.241875e-10,1.275000e-02
-1.201875e-10,1.310938e-02
-1.161875e-10,1.293750e-02
-1.121875e-10,1.282813e-02
-1.081875e-10,1.287500e-02
-1.041875e-10,1.312500e-02
-1.001875e-10,1.273438e-02
-9.618750e-11,1.264063e-02
-9.218750e-11,1.253125e-02
-8.818750e-11,1.243750e-02
-8.418750e-11,1.243750e-02
-8.018750e-11,1.273438e-02
-7.618750e-11,1.264063e-02
-7.218750e-11,1.275000e-02
-6.818750e-11,1.315625e-02
-6.418750e-11,1.393750e-02
-6.018750e-11,1.426563e-02
-5.618750e-11,1.503125e-02
-5.218750e-11,1.595313e-02
-4.818750e-11,1.706250e-02
-4.418750e-11,1.840625e-02
-4.018750e-11,2.021875e-02
-3.618750e-11,2.176563e-02
-3.218750e-11,2.367188e-02
-2.818750e-11,2.595313e-02
-2.418750e-11,2.868750e-02
-2.018750e-11,3.109375e-02
-1.618750e-11,3.395313e-02
-1.218750e-11,3.703125e-02
-8.187500e-12,4.031250e-02
-4.187500e-12,4.381250e-02
-1.875000e-13,4.778125e-02
3.812500e-12,5.143750e-02
7.812500e-12,5.540625e-02
1.181250e-11,5.965625e-02
1.581250e-11,6.425000e-02
1.981250e-11,6.845313e-02
2.381250e-11,7.296875e-02
2.781250e-11,7.756250e-02
3.181250e-11,8.225000e-02
3.581250e-11,8.696875e-02
3.981250e-11,9.203125e-02
4.381250e-11,9.660938e-02
4.781250e-11,1.013438e-01
5.181250e-11,1.061875e-01
5.581250e-11,1.112344e-01
5.981250e-11,1.157500e-01
6.381250e-11,1.204063e-01
6.781250e-11,1.250156e-01
7.181250e-11,1.295625e-01
7.581250e-11,1.340313e-01
7.981250e-11,1.387188e-01
8.381250e-11,1.428281e-01
8.781250e-11,1.469844e-01
9.181250e-11,1.511563e-01
9.581250e-11,1.554375e-01
9.981250e-11,1.591406e-01
1.038125e-10,1.629219e-01
1.078125e-10,1.665938e-01
1.118125e-10,1.701719e-01
1.158125e-10,1.736094e-01
1.198125e-10,1.772188e-01
1.238125e-10,1.802500e-01
1.278125e-10,1.832813e-01
1.318125e-10,1.863125e-01
1.358125e-10,1.893906e-01
1.398125e-10,1.918906e-01
1.438125e-10,1.944531e-01
1.478125e-10,1.968906e-01
1.518125e-10,1.991875e-01
1.558125e-10,2.013125e-01
1.598125e-10,2.035625e-01
1.638125e-10,2.052188e-01
1.678125e-10,2.068438e-01
1.718125e-10,2.084219e-01
1.758125e-10,2.100000e-01
1.798125e-10,2.109688e-01
1.838125e-10,2.119688e-01
1.878125e-10,2.127813e-01
1.918125e-10,2.134219e-01
1.958125e-10,2.138750e-01
1.998125e-10,2.143750e-01
2.038125e-10,2.142500e-01
2.078125e-10,2.140938e-01
2.118125e-10,2.138594e-01
2.158125e-10,2.135938e-01
2.198125e-10,2.126875e-01
2.238125e-10,2.118438e-01
2.278125e-10,2.108125e-01
2.318125e-10,2.096250e-01
2.358125e-10,2.082500e-01
2.398125e-10,2.069375e-01
2.438125e-10,2.050469e-01
2.478125e-10,2.031719e-01
2.518125e-10,2.012500e-01
2.558125e-10,1.993594e-01
2.598125e-10,1.968906e-01
2.638125e-10,1.945781e-01
2.678125e-10,1.921250e-01
2.718125e-10,1.896094e-01
2.758125e-10,1.870000e-01
2.798125e-10,1.845156e-01
2.838125e-10,1.815313e-01
2.878125e-10,1.786719e-01
2.918125e-10,1.758438e-01
2.958125e-10,1.731250e-01
2.998125e-10,1.699063e-01
3.038125e-10,1.669531e-01
3.078125e-10,1.639219e-01
3.118125e-10,1.609063e-01
3.158125e-10,1.578750e-01
3.198125e-10,1.550156e-01
3.238125e-10,1.516875e-01
3.278125e-10,1.485625e-01
3.318125e-10,1.455156e-01
3.358125e-10,1.426250e-01
3.398125e-10,1.392500e-01
3.438125e-10,1.361719e-01
3.478125e-10,1.330625e-01
3.518125e-10,1.299844e-01
3.558125e-10,1.269063e-01
3.598125e-10,1.240313e-01
3.638125e-10,1.206719e-01
3.678125e-10,1.175469e-01
3.718125e-10,1.145156e-01
3.758125e-10,1.116563e-01
3.798125e-10,1.083125e-01
3.838125e-10,1.052813e-01
3.878125e-10,1.022500e-01
3.918125e-10,9.926563e-02
3.958125e-10,9.629688e-02
3.998125e-10,9.359375e-02
4.038125e-10,9.039063e-02
4.078125e-10,8.745313e-02
4.118125e-10,8.468750e-02
4.158125e-10,8.209375e-02
4.198125e-10,7.910938e-02
4.238125e-10,7.645313e-02
4.278125e-10,7.385938e-02
4.318125e-10,7.134375e-02
4.358125e-10,6.892188e-02
4.398125e-10,6.682813e-02
4.438125e-10,6.426563e-02
4.478125e-10,6.203125e-02
4.518125e-10,6.003125e-02
4.558125e-10,5.826563e-02
4.598125e-10,5.614063e-02
4.638125e-10,5.435938e-02
4.678125e-10,5.271875e-02
4.718125e-10,5.118750e-02
4.758125e-10,4.976563e-02
4.798125e-10,4.868750e-02
4.838125e-10,4.715625e-02
4.878125e-10,4.593750e-02
4.918125e-10,4.498438e-02
4.958125e-10,4.423438e-02
4.998125e-10,4.312500e-02
5.038125e-10,4.231250e-02
5.078125e-10,4.162500e-02
5.118125e-10,4.098438e-02
5.158125e-10,4.037500e-02
5.198125e-10,4.009375e-02
5.238125e-10,3.928125e-02
5.278125e-10,3.870313e-02
5.318125e-10,3.834375e-02
5.358125e-10,3.810938e-02
5.398125e-10,3.740625e-02
5.438125e-10,3.693750e-02
5.478125e-10,3.651563e-02
5.518125e-10,3.606250e-02
5.558125e-10,3.554688e-02
5.598125e-10,3.528125e-02
5.638125e-10,3.443750e-02
5.678125e-10,3.371875e-02
5.718125e-10,3.318750e-02
5.758125e-10,3.273438e-02
5.798125e-10,3.175000e-02
5.838125e-10,3.093750e-02
5.878125e-10,3.017188e-02
5.918125e-10,2.932813e-02
5.958125e-10,2.840625e-02
5.998125e-10,2.773438e-02
6.038125e-10,2.646875e-02
6.078125e-10,2.537500e-02
6.118125e-10,2.445313e-02
6.158125e-10,2.367188e-02
6.198125e-10,2.235938e-02
6.238125e-10,2.128125e-02
6.278125e-10,2.028125e-02
6.318125e-10,1.926563e-02
6.358125e-10,1.821875e-02
6.398125e-10,1.750000e-02
6.438125e-10,1.623438e-02
6.478125e-10,1.518750e-02
6.518125e-10,1.440625e-02
6.558125e-10,1.384375e-02
6.598125e-10,1.278125e-02
6.638125e-10,1.204688e-02
6.678125e-10,1.140625e-02
6.718125e-10,1.084375e-02
6.758125e-10,1.026563e-02
6.798125e-10,1.004688e-02
6.838125e-10,9.343750e-03
6.878125e-10,8.875000e-03
6.918125e-10,8.687500e-03
6.958125e-10,8.718750e-03
6.998125e-10,8.265625e-03
7.038125e-10,8.125000e-03
7.078125e-10,8.062500e-03
7.118125e-10,8.046875e-03
7.158125e-10,8.000000e-03
7.198125e-10,8.281250e-03
7.238125e-10,8.031250e-03
7.278125e-10,7.968750e-03
7.318125e-10,8.140625e-03
7.358125e-10,8.500000e-03
7.398125e-10,8.281250e-03
7.438125e-10,8.328125e-03
7.478125e-10,8.406250e-03
7.518125e-10,8.453125e-03
7.558125e-10,8.453125e-03
7.598125e-10,8.718750e-03
7.638125e-10,8.390625e-03
7.678125e-10,8.203125e-03
7.718125e-10,8.234375e-03
7.758125e-10,8.406250e-03
7.798125e-10,7.968750e-03
7.838125e-10,7.812500e-03
7.878125e-10,7.640625e-03
7.918125e-10,7.437500e-03
7.958125e-10,7.203125e-03
7.998125e-10,7.250000e-03
8.038125e-10,6.703125e-03
8.078125e-10,6.343750e-03
8.118125e-10,6.203125e-03
8.158125e-10,6.250000e-03
8.198125e-10,5.734375e-03
8.238125e-10,5.531250e-03
8.278125e-10,5.343750e-03
8.318125e-10,5.203125e-03
8.358125e-10,5.062500e-03
8.398125e-10,5.250000e-03
8.438125e-10,4.890625e-03
8.478125e-10,4.750000e-03
8.518125e-10,4.875000e-03
8.558125e-10,5.234375e-03
8.598125e-10,5.046875e-03
8.638125e-10,5.187500e-03
8.678125e-10,5.375000e-03
8.718125e-10,5.593750e-03
8.758125e-10,5.828125e-03
8.798125e-10,6.390625e-03
8.838125e-10,6.390625e-03
8.878125e-10,6.593750e-03
8.918125e-10,7.031250e-03
8.958125e-10,7.656250e-03
8.998125e-10,7.687500e-03
9.038125e-10,8.015625e-03
9.078125e-10,8.328125e-03
9.118125e-10,8.625000e-03
9.158125e-10,8.890625e-03
9.198125e-10,9.421875e-03
9.238125e-10,9.312500e-03
9.278125e-10,9.375000e-03
9.318125e-10,9.593750e-03
9.358125e-10,9.968750e-03
9.398125e-10,9.687500e-03
9.438125e-10,9.640625e-03
9.478125e-10,9.578125e-03
9.518125e-10,9.453125e-03
9.558125e-10,9.265625e-03
9.598125e-10,9.343750e-03
9.638125e-10,8.781250e-03
9.678125e-10,8.375000e-03
9.718125e-10,8.140625e-03
9.758125e-10,8.093750e-03
9.798125e-10,7.421875e-03
9.838125e-10,7.031250e-03
9.878125e-10,6.640625e-03
9.918125e-10,6.265625e-03
9.958125e-10,5.875000e-03
9.998125e-10,5.828125e-03
1.003813e-09,5.187500e-03
1.007813e-09,4.781250e-03
1.011813e-09,4.625000e-03
1.015813e-09,4.718750e-03
1.019812e-09,4.250000e-03
1.023812e-09,4.156250e-03
1.027812e-09,4.093750e-03
1.031812e-09,4.125000e-03
1.035812e-09,4.203125e-03
1.039812e-09,4.640625e-03
1.043812e-09,4.546875e-03
1.047812e-09,4.718750e-03
1.051812e-09,5.156250e-03
1.055813e-09,5.843750e-03
1.059813e-09,5.984375e-03
1.063813e-09,6.468750e-03
1.067813e-09,7.000000e-03
1.071813e-09,7.578125e-03
1.075813e-09,8.171875e-03
1.079812e-09,9.078125e-03
1.083812e-09,9.406250e-03
1.087812e-09,9.937500e-03
1.091812e-09,1.065625e-02
1.095812e-09,1.156250e-02
1.099812e-09,1.185938e-02
1.103812e-09,1.242188e-02
1.107812e-09,1.293750e-02
1.111812e-09,1.342188e-02
1.115813e-09,1.385938e-02
1.119813e-09,1.454688e-02
1.123813e-09,1.456250e-02
1.127813e-09,1.473438e-02
1.131813e-09,1.503125e-02
1.135813e-09,1.548438e-02
1.139812e-09,1.525000e-02
1.143812e-09,1.526563e-02
1.147812e-09,1.521875e-02
1.151812e-09,1.510938e-02
1.155812e-09,1.493750e-02
1.159812e-09,1.503125e-02
1.163812e-09,1.446875e-02
1.167812e-09,1.406250e-02
1.171812e-09,1.381250e-02
1.175813e-09,1.375000e-02
1.179813e-09,1.304688e-02
1.183813e-09,1.264063e-02
1.187813e-09,1.223438e-02
1.191813e-09,1.181250e-02
1.195813e-09,1.139063e-02
1.199812e-09,1.128125e-02
1.203812e-09,1.059375e-02
1.207812e-09,1.010938e-02
1.211812e-09,9.875000e-03
1.215812e-09,9.843750e-03
1.219812e-09,9.265625e-03
1.223812e-09,9.000000e-03
1.227812e-09,8.796875e-03
1.231812e-09,8.609375e-03
1.235813e-09,8.468750e-03
1.239813e-09,8.671875e-03
1.243813e-09,8.296875e-03
1.247813e-09,8.156250e-03
1.251813e-09,8.265625e-03
1.255812e-09,8.593750e-03
1.259812e-09,8.328125e-03
1.263812e-09,8.406250e-03
1.267812e-09,8.500000e-03
1.271812e-09,8.593750e-03
1.275812e-09,8.703125e-03
1.279812e-09,9.109375e-03
1.283812e-09,8.921875e-03
1.287812e-09,8.921875e-03
1.291812e-09,9.109375e-03
1.295813e-09,9.500000e-03
1.299813e-09,9.250000e-03
1.303813e-09,9.281250e-03
1.307813e-09,9.312500e-03
1.311813e-09,9.296875e-03
1.315812e-09,9.265625e-03
1.319812e-09,9.500000e-03
1.323812e-09,9.093750e-03
1.327812e-09,8.875000e-03
1.331812e-09,8.828125e-03
1.335812e-09,8.953125e-03
1.339812e-09,8.437500e-03
1.343812e-09,8.218750e-03
1.347812e-09,7.984375e-03
1.351812e-09,7.718750e-03
1.355813e-09,7.437500e-03
1.359813e-09,7.453125e-03
1.363813e-09,6.859375e-03
1.367813e-09,6.468750e-03
1.371813e-09,6.265625e-03
1.375812e-09,6.281250e-03
1.379812e-09,5.687500e-03
1.383812e-09,5.406250e-03
1.387812e-09,5.156250e-03
1.391812e-09,4.906250e-03
1.395812e-09,4.687500e-03
1.399812e-09,4.781250e-03
1.403812e-09,4.296875e-03
1.407812e-09,4.046875e-03
1.411812e-09,4.015625e-03
1.415813e-09,4.218750e-03
1.419813e-09,3.859375e-03
1.423813e-09,3.812500e-03
1.427813e-09,3.796875e-03
1.431813e-09,3.828125e-03
1.435812e-09,3.859375e-03
1.439812e-09,4.234375e-03
1.443812e-09,4.031250e-03
1.447812e-09,4.046875e-03
1.451812e-09,4.296875e-03
1.455812e-09,4.750000e-03
1.459812e-09,4.640625e-03
1.463812e-09,4.828125e-03
1.467812e-09,5.046875e-03
1.471812e-09,5.265625e-03
1.475813e-09,5.484375e-03
1.479813e-09,6.031250e-03
1.483813e-09,5.968750e-03
1.487813e-09,6.109375e-03
1.491813e-09,6.453125e-03
1.495812e-09,6.984375e-03
1.499812e-09,6.921875e-03
1.503812e-09,7.156250e-03
1.507812e-09,7.375000e-03
1.511812e-09,7.593750e-03
1.515812e-09,7.796875e-03
1.519812e-09,8.296875e-03
1.523812e-09,8.171875e-03
1.527812e-09,8.234375e-03
1.531812e-09,8.484375e-03
1.535813e-09,8.921875e-03
1.539813e-09,8.734375e-03
1.543813e-09,8.828125e-03
1.547813e-09,8.921875e-03
1.551813e-09,8.984375e-03
1.555812e-09,9.015625e-03
1.559812e-09,9.343750e-03
1.563812e-09,9.046875e-03
1.567812e-09,8.921875e-03
1.571812e-09,8.984375e-03
1.575812e-09,9.218750e-03
1.579812e-09,8.828125e-03
1.583812e-09,8.718750e-03
1.587812e-09,8.609375e-03
1.591812e-09,8.453125e-03
1.595813e-09,8.296875e-03
1.599813e-09,8.406250e-03
1.603813e-09,7.906250e-03
1.607813e-09,7.578125e-03
1.611813e-09,7.437500e-03
1.615812e-09,7.500000e-03
1.619812e-09,6.937500e-03
1.623812e-09,6.656250e-03
1.627812e-09,6.375000e-03
1.631812e-09,6.093750e-03
1.635812e-09,5.812500e-03
1.639812e-09,5.828125e-03
1.643812e-09,5.234375e-03
1.647812e-09,4.843750e-03
1.651812e-09,4.656250e-03
1.655813e-09,4.687500e-03
1.659813e-09,4.125000e-03
1.663813e-09,3.875000e-03
1.667813e-09,3.656250e-03
1.671813e-09,3.437500e-03
1.675812e-09,3.234375e-03
1.679812e-09,3.359375e-03
1.683812e-09,2.890625e-03
1.687812e-09,2.640625e-03
1.691812e-09,2.625000e-03
1.695812e-09,2.843750e-03
1.699812e-09,2.453125e-03
1.703812e-09,2.406250e-03
1.707812e-09,2.359375e-03
1.711812e-09,2.343750e-03
1.715813e-09,2.343750e-03
1.719813e-09,2.671875e-03
1.723813e-09,2.390625e-03
1.727813e-09,2.328125e-03
1.731813e-09,2.484375e-03
1.735812e-09,2.843750e-03
1.739812e-09,2.593750e-03
1.743812e-09,2.656250e-03
1.747812e-09,2.734375e-03
1.751812e-09,2.796875e-03
1.755812e-09,2.843750e-03
1.759812e-09,3.203125e-03
