Measurements-streak-laser/Photodiode-on-Tek-6GHz/Tek000_ch1_20190613132757820.csv

Model,MSO64
Waveform Type,ANALOG
Horizontal Units,s
Sample Interval,4.000000e-12
Record Length,1000
Zero Index,310.562500
Vertical Units,V

TIME,CH1
-1.242250e-09,7.421875e-03
-1.238250e-09,7.656250e-03
-1.234250e-09,7.234375e-03
-1.230250e-09,7.062500e-03
-1.226250e-09,6.828125e-03
-1.222250e-09,6.562500e-03
-1.218250e-09,6.234375e-03
-1.214250e-09,6.171875e-03
-1.210250e-09,5.468750e-03
-1.206250e-09,4.921875e-03
-1.202250e-09,4.578125e-03
-1.198250e-09,4.406250e-03
-1.194250e-09,3.625000e-03
-1.190250e-09,3.140625e-03
-1.186250e-09,2.687500e-03
-1.182250e-09,2.234375e-03
-1.178250e-09,1.812500e-03
-1.174250e-09,1.734375e-03
-1.170250e-09,1.078125e-03
-1.166250e-09,6.875000e-04
-1.162250e-09,5.468750e-04
-1.158250e-09,6.718750e-04
-1.154250e-09,2.500000e-04
-1.150250e-09,2.031250e-04
-1.146250e-09,2.187500e-04
-1.142250e-09,3.125000e-04
-1.138250e-09,4.687500e-04
-1.134250e-09,1.000000e-03
-1.130250e-09,9.843750e-04
-1.126250e-09,1.234375e-03
-1.122250e-09,1.734375e-03
-1.118250e-09,2.484375e-03
-1.114250e-09,2.671875e-03
-1.110250e-09,3.187500e-03
-1.106250e-09,3.734375e-03
-1.102250e-09,4.281250e-03
-1.098250e-09,4.828125e-03
-1.094250e-09,5.687500e-03
-1.090250e-09,5.906250e-03
-1.086250e-09,6.312500e-03
-1.082250e-09,6.890625e-03
-1.078250e-09,7.625000e-03
-1.074250e-09,7.703125e-03
-1.070250e-09,8.031250e-03
-1.066250e-09,8.296875e-03
-1.062250e-09,8.484375e-03
-1.058250e-09,8.625000e-03
-1.054250e-09,8.984375e-03
-1.050250e-09,8.671875e-03
-1.046250e-09,8.500000e-03
-1.042250e-09,8.468750e-03
-1.038250e-09,8.562500e-03
-1.034250e-09,8.000000e-03
-1.030250e-09,7.703125e-03
-1.026250e-09,7.343750e-03
-1.022250e-09,6.968750e-03
-1.018250e-09,6.562500e-03
-1.014250e-09,6.453125e-03
-1.010250e-09,5.718750e-03
-1.006250e-09,5.187500e-03
-1.002250e-09,4.890625e-03
-9.982500e-10,4.812500e-03
-9.942500e-10,4.156250e-03
-9.902500e-10,3.859375e-03
-9.862500e-10,3.593750e-03
-9.822500e-10,3.406250e-03
-9.782500e-10,3.265625e-03
-9.742500e-10,3.500000e-03
-9.702500e-10,3.203125e-03
-9.662500e-10,3.171875e-03
-9.622500e-10,3.406250e-03
-9.582500e-10,3.937500e-03
-9.542500e-10,3.906250e-03
-9.502500e-10,4.250000e-03
-9.462500e-10,4.640625e-03
-9.422500e-10,5.093750e-03
-9.382500e-10,5.578125e-03
-9.342500e-10,6.406250e-03
-9.302500e-10,6.656250e-03
-9.262500e-10,7.109375e-03
-9.222500e-10,7.781250e-03
-9.182500e-10,8.640625e-03
-9.142500e-10,8.875000e-03
-9.102500e-10,9.375000e-03
-9.062500e-10,9.843750e-03
-9.022500e-10,1.025000e-02
-8.982500e-10,1.060938e-02
-8.942500e-10,1.120313e-02
-8.902500e-10,1.112500e-02
-8.862500e-10,1.115625e-02
-8.822500e-10,1.132813e-02
-8.782500e-10,1.159375e-02
-8.742500e-10,1.118750e-02
-8.702500e-10,1.098438e-02
-8.662500e-10,1.071875e-02
-8.622500e-10,1.035938e-02
-8.582500e-10,9.921875e-03
-8.542500e-10,9.734375e-03
-8.502500e-10,8.875000e-03
-8.462500e-10,8.156250e-03
-8.422500e-10,7.609375e-03
-8.382500e-10,7.234375e-03
-8.342500e-10,6.234375e-03
-8.302500e-10,5.531250e-03
-8.262500e-10,4.828125e-03
-8.222500e-10,4.125000e-03
-8.182500e-10,3.468750e-03
-8.142500e-10,3.125000e-03
-8.102500e-10,2.250000e-03
-8.062500e-10,1.609375e-03
-8.022500e-10,1.250000e-03
-7.982500e-10,1.140625e-03
-7.942500e-10,5.156250e-04
-7.902500e-10,2.812500e-04
-7.862500e-10,1.250000e-04
-7.822500e-10,4.687500e-05
-7.782500e-10,4.687500e-05
-7.742500e-10,4.375000e-04
-7.702500e-10,2.968750e-04
-7.662500e-10,4.531250e-04
-7.622500e-10,8.593750e-04
-7.582500e-10,1.531250e-03
-7.542500e-10,1.656250e-03
-7.502500e-10,2.140625e-03
-7.462500e-10,2.640625e-03
-7.422500e-10,3.187500e-03
-7.382500e-10,3.734375e-03
-7.342500e-10,4.593750e-03
-7.302500e-10,4.843750e-03
-7.262500e-10,5.281250e-03
-7.222500e-10,5.906250e-03
-7.182500e-10,6.687500e-03
-7.142500e-10,6.812500e-03
-7.102500e-10,7.203125e-03
-7.062500e-10,7.531250e-03
-7.022500e-10,7.812500e-03
-6.982500e-10,8.015625e-03
-6.942500e-10,8.453125e-03
-6.902500e-10,8.203125e-03
-6.862500e-10,8.078125e-03
-6.822500e-10,8.093750e-03
-6.782500e-10,8.250000e-03
-6.742500e-10,7.718750e-03
-6.702500e-10,7.437500e-03
-6.662500e-10,7.093750e-03
-6.622500e-10,6.687500e-03
-6.582500e-10,6.250000e-03
-6.542500e-10,6.062500e-03
-6.502500e-10,5.250000e-03
-6.462500e-10,4.609375e-03
-6.422500e-10,4.156250e-03
-6.382500e-10,3.890625e-03
-6.342500e-10,3.031250e-03
-6.302500e-10,2.484375e-03
-6.262500e-10,1.953125e-03
-6.222500e-10,1.453125e-03
-6.182500e-10,9.843750e-04
-6.142500e-10,8.593750e-04
-6.102500e-10,1.718750e-04
-6.062500e-10,-2.812500e-04
-6.022500e-10,-4.531250e-04
-5.982500e-10,-3.906250e-04
-5.942500e-10,-8.593750e-04
-5.902500e-10,-9.843750e-04
-5.862500e-10,-1.031250e-03
-5.822500e-10,-1.031250e-03
-5.782500e-10,-9.843750e-04
-5.742500e-10,-5.625000e-04
-5.702500e-10,-7.187500e-04
-5.662500e-10,-6.093750e-04
-5.622500e-10,-2.500000e-04
-5.582500e-10,3.281250e-04
-5.542500e-10,3.593750e-04
-5.502500e-10,7.031250e-04
-5.462500e-10,1.062500e-03
-5.422500e-10,1.453125e-03
-5.382500e-10,1.843750e-03
-5.342500e-10,2.546875e-03
-5.302500e-10,2.656250e-03
-5.262500e-10,2.937500e-03
-5.222500e-10,3.437500e-03
-5.182500e-10,4.109375e-03
-5.142500e-10,4.156250e-03
-5.102500e-10,4.484375e-03
-5.062500e-10,4.781250e-03
-5.022500e-10,5.062500e-03
-4.982500e-10,5.312500e-03
-4.942500e-10,5.828125e-03
-4.902500e-10,5.703125e-03
-4.862500e-10,5.750000e-03
-4.822500e-10,5.984375e-03
-4.782500e-10,6.375000e-03
-4.742500e-10,6.125000e-03
-4.702500e-10,6.156250e-03
-4.662500e-10,6.140625e-03
-4.622500e-10,6.109375e-03
-4.582500e-10,6.046875e-03
-4.542500e-10,6.281250e-03
-4.502500e-10,5.875000e-03
-4.462500e-10,5.656250e-03
-4.422500e-10,5.640625e-03
-4.382500e-10,5.796875e-03
-4.342500e-10,5.359375e-03
-4.302500e-10,5.218750e-03
-4.262500e-10,5.046875e-03
-4.222500e-10,4.890625e-03
-4.182500e-10,4.734375e-03
-4.142500e-10,4.875000e-03
-4.102500e-10,4.421875e-03
-4.062500e-10,4.187500e-03
-4.022500e-10,4.171875e-03
-3.982500e-10,4.359375e-03
-3.942500e-10,3.984375e-03
-3.902500e-10,3.906250e-03
-3.862500e-10,3.812500e-03
-3.822500e-10,3.750000e-03
-3.782500e-10,3.687500e-03
-3.742500e-10,3.968750e-03
-3.702500e-10,3.640625e-03
-3.662500e-10,3.546875e-03
-3.622500e-10,3.671875e-03
-3.582500e-10,4.000000e-03
-3.542500e-10,3.781250e-03
-3.502500e-10,3.843750e-03
-3.462500e-10,3.890625e-03
-3.422500e-10,3.937500e-03
-3.382500e-10,4.015625e-03
-3.342500e-10,4.390625e-03
-3.302500e-10,4.171875e-03
-3.262500e-10,4.156250e-03
-3.222500e-10,4.375000e-03
-3.182500e-10,4.781250e-03
-3.142500e-10,4.609375e-03
-3.102500e-10,4.734375e-03
-3.062500e-10,4.796875e-03
-3.022500e-10,4.859375e-03
-2.982500e-10,4.953125e-03
-2.942500e-10,5.343750e-03
-2.902500e-10,5.125000e-03
-2.862500e-10,5.093750e-03
-2.822500e-10,5.312500e-03
-2.782500e-10,5.687500e-03
-2.742500e-10,5.500000e-03
-2.702500e-10,5.625000e-03
-2.662500e-10,5.687500e-03
-2.622500e-10,5.718750e-03
-2.582500e-10,5.843750e-03
-2.542500e-10,6.203125e-03
-2.502500e-10,6.031250e-03
-2.462500e-10,6.015625e-03
-2.422500e-10,6.265625e-03
-2.382500e-10,6.687500e-03
-2.342500e-10,6.546875e-03
-2.302500e-10,6.718750e-03
-2.262500e-10,6.843750e-03
-2.222500e-10,6.953125e-03
-2.182500e-10,7.156250e-03
-2.142500e-10,7.593750e-03
-2.102500e-10,7.515625e-03
-2.062500e-10,7.593750e-03
-2.022500e-10,7.906250e-03
-1.982500e-10,8.406250e-03
-1.942500e-10,8.328125e-03
-1.902500e-10,8.562500e-03
-1.862500e-10,8.734375e-03
-1.822500e-10,8.859375e-03
-1.782500e-10,9.093750e-03
-1.742500e-10,9.515625e-03
-1.702500e-10,9.437500e-03
-1.662500e-10,9.468750e-03
-1.622500e-10,9.703125e-03
-1.582500e-10,1.012500e-02
-1.542500e-10,9.921875e-03
-1.502500e-10,1.001563e-02
-1.462500e-10,1.004688e-02
-1.422500e-10,1.003125e-02
-1.382500e-10,1.007813e-02
-1.342500e-10,1.031250e-02
-1.302500e-10,1.007813e-02
-1.262500e-10,9.921875e-03
-1.222500e-10,9.984375e-03
-1.182500e-10,1.025000e-02
-1.142500e-10,9.921875e-03
-1.102500e-10,9.875000e-03
-1.062500e-10,9.843750e-03
-1.022500e-10,9.812500e-03
-9.825000e-11,9.875000e-03
-9.425000e-11,1.020313e-02
-9.025000e-11,1.012500e-02
-8.625000e-11,1.021875e-02
-8.225000e-11,1.056250e-02
-7.825000e-11,1.121875e-02
-7.425000e-11,1.139063e-02
-7.025000e-11,1.192188e-02
-6.625000e-11,1.256250e-02
-6.225000e-11,1.332813e-02
-5.825000e-11,1.426563e-02
-5.425000e-11,1.560938e-02
-5.025000e-11,1.662500e-02
-4.625000e-11,1.793750e-02
-4.225000e-11,1.957813e-02
-3.825000e-11,2.162500e-02
-3.425000e-11,2.329688e-02
-3.025000e-11,2.540625e-02
-2.625000e-11,2.770313e-02
-2.225000e-11,3.018750e-02
-1.825000e-11,3.289063e-02
-1.425000e-11,3.607813e-02
-1.025000e-11,3.896875e-02
-6.250000e-12,4.218750e-02
-2.250000e-12,4.575000e-02
1.750000e-12,4.970313e-02
5.750000e-12,5.332813e-02
9.750000e-12,5.732813e-02
1.375000e-11,6.150000e-02
1.775000e-11,6.584375e-02
2.175000e-11,7.032813e-02
2.575000e-11,7.525000e-02
2.975000e-11,7.981250e-02
3.375000e-11,8.464063e-02
3.775000e-11,8.968750e-02
4.175000e-11,9.504688e-02
4.575000e-11,1.000000e-01
4.975000e-11,1.052031e-01
5.375000e-11,1.104688e-01
5.775000e-11,1.157969e-01
6.175000e-11,1.211406e-01
6.575000e-11,1.268125e-01
6.975000e-11,1.320000e-01
7.375000e-11,1.373281e-01
7.775000e-11,1.427344e-01
8.175000e-11,1.483125e-01
8.575000e-11,1.534063e-01
8.975000e-11,1.585938e-01
9.375000e-11,1.637344e-01
9.775000e-11,1.688125e-01
1.017500e-10,1.737656e-01
1.057500e-10,1.789219e-01
1.097500e-10,1.835000e-01
1.137500e-10,1.880781e-01
1.177500e-10,1.926406e-01
1.217500e-10,1.972188e-01
1.257500e-10,2.012344e-01
1.297500e-10,2.052344e-01
1.337500e-10,2.090781e-01
1.377500e-10,2.127344e-01
1.417500e-10,2.161875e-01
1.457500e-10,2.196875e-01
1.497500e-10,2.225469e-01
1.537500e-10,2.253281e-01
1.577500e-10,2.279688e-01
1.617500e-10,2.305469e-01
1.657500e-10,2.324531e-01
1.697500e-10,2.343125e-01
1.737500e-10,2.359063e-01
1.777500e-10,2.372656e-01
1.817500e-10,2.383438e-01
1.857500e-10,2.394219e-01
1.897500e-10,2.398125e-01
1.937500e-10,2.400781e-01
1.977500e-10,2.401719e-01
2.017500e-10,2.401875e-01
2.057500e-10,2.395313e-01
2.097500e-10,2.388281e-01
2.137500e-10,2.378906e-01
2.177500e-10,2.367344e-01
2.217500e-10,2.353438e-01
2.257500e-10,2.339531e-01
2.297500e-10,2.319688e-01
2.337500e-10,2.299219e-01
2.377500e-10,2.277969e-01
2.417500e-10,2.256719e-01
2.457500e-10,2.229375e-01
2.497500e-10,2.203281e-01
2.537500e-10,2.175781e-01
2.577500e-10,2.147188e-01
2.617500e-10,2.117656e-01
2.657500e-10,2.089219e-01
2.697500e-10,2.055938e-01
2.737500e-10,2.023750e-01
2.777500e-10,1.992031e-01
2.817500e-10,1.961563e-01
2.857500e-10,1.926250e-01
2.897500e-10,1.893750e-01
2.937500e-10,1.860625e-01
2.977500e-10,1.827969e-01
3.017500e-10,1.795313e-01
3.057500e-10,1.764688e-01
3.097500e-10,1.730000e-01
3.137500e-10,1.697500e-01
3.177500e-10,1.666094e-01
3.217500e-10,1.636563e-01
3.257500e-10,1.602500e-01
3.297500e-10,1.571875e-01
3.337500e-10,1.540938e-01
3.377500e-10,1.510781e-01
3.417500e-10,1.480781e-01
3.457500e-10,1.452969e-01
3.497500e-10,1.420625e-01
3.537500e-10,1.390625e-01
3.577500e-10,1.361563e-01
3.617500e-10,1.334063e-01
3.657500e-10,1.302031e-01
3.697500e-10,1.272813e-01
3.737500e-10,1.243438e-01
3.777500e-10,1.214219e-01
3.817500e-10,1.185156e-01
3.857500e-10,1.157969e-01
3.897500e-10,1.125781e-01
3.937500e-10,1.095938e-01
3.977500e-10,1.066875e-01
4.017500e-10,1.039219e-01
4.057500e-10,1.007031e-01
4.097500e-10,9.776563e-02
4.137500e-10,9.482813e-02
4.177500e-10,9.192188e-02
4.217500e-10,8.904688e-02
4.257500e-10,8.640625e-02
4.297500e-10,8.328125e-02
4.337500e-10,8.042188e-02
4.377500e-10,7.773438e-02
4.417500e-10,7.520313e-02
4.457500e-10,7.231250e-02
4.497500e-10,6.971875e-02
4.537500e-10,6.721875e-02
4.577500e-10,6.481250e-02
4.617500e-10,6.248438e-02
4.657500e-10,6.048438e-02
4.697500e-10,5.803125e-02
4.737500e-10,5.590625e-02
4.777500e-10,5.403125e-02
4.817500e-10,5.237500e-02
4.857500e-10,5.037500e-02
4.897500e-10,4.871875e-02
4.937500e-10,4.721875e-02
4.977500e-10,4.579688e-02
5.017500e-10,4.448438e-02
5.057500e-10,4.353125e-02
5.097500e-10,4.210938e-02
5.137500e-10,4.098438e-02
5.177500e-10,4.014063e-02
5.217500e-10,3.946875e-02
5.257500e-10,3.843750e-02
5.297500e-10,3.768750e-02
5.337500e-10,3.707813e-02
5.377500e-10,3.650000e-02
5.417500e-10,3.593750e-02
5.457500e-10,3.568750e-02
5.497500e-10,3.492188e-02
5.537500e-10,3.437500e-02
5.577500e-10,3.404688e-02
5.617500e-10,3.382813e-02
5.657500e-10,3.317188e-02
5.697500e-10,3.271875e-02
5.737500e-10,3.234375e-02
5.777500e-10,3.193750e-02
5.817500e-10,3.146875e-02
5.857500e-10,3.126563e-02
5.897500e-10,3.050000e-02
5.937500e-10,2.987500e-02
5.977500e-10,2.945313e-02
6.017500e-10,2.914063e-02
6.057500e-10,2.829688e-02
6.097500e-10,2.767188e-02
6.137500e-10,2.709375e-02
6.177500e-10,2.646875e-02
6.217500e-10,2.578125e-02
6.257500e-10,2.535938e-02
6.297500e-10,2.435938e-02
6.337500e-10,2.354688e-02
6.377500e-10,2.293750e-02
6.417500e-10,2.246875e-02
6.457500e-10,2.146875e-02
6.497500e-10,2.073438e-02
6.537500e-10,2.006250e-02
6.577500e-10,1.937500e-02
6.617500e-10,1.865625e-02
6.657500e-10,1.823438e-02
6.697500e-10,1.726563e-02
6.737500e-10,1.650000e-02
6.777500e-10,1.598438e-02
6.817500e-10,1.565625e-02
6.857500e-10,1.479688e-02
6.897500e-10,1.423438e-02
6.937500e-10,1.373438e-02
6.977500e-10,1.326563e-02
7.017500e-10,1.276563e-02
7.057500e-10,1.256250e-02
7.097500e-10,1.184375e-02
7.137500e-10,1.132813e-02
7.177500e-10,1.104688e-02
7.217500e-10,1.098438e-02
7.257500e-10,1.035938e-02
7.297500e-10,1.003125e-02
7.337500e-10,9.765625e-03
7.377500e-10,9.515625e-03
7.417500e-10,9.218750e-03
7.457500e-10,9.234375e-03
7.497500e-10,8.703125e-03
7.537500e-10,8.375000e-03
7.577500e-10,8.265625e-03
7.617500e-10,8.359375e-03
7.657500e-10,7.875000e-03
7.697500e-10,7.703125e-03
7.737500e-10,7.562500e-03
7.777500e-10,7.421875e-03
7.817500e-10,7.265625e-03
7.857500e-10,7.406250e-03
7.897500e-10,7.000000e-03
7.937500e-10,6.781250e-03
7.977500e-10,6.796875e-03
8.017500e-10,7.031250e-03
8.057500e-10,6.687500e-03
8.097500e-10,6.640625e-03
8.137500e-10,6.656250e-03
8.177500e-10,6.671875e-03
8.217500e-10,6.687500e-03
8.257500e-10,7.031250e-03
8.297500e-10,6.796875e-03
8.337500e-10,6.796875e-03
8.377500e-10,7.015625e-03
8.417500e-10,7.468750e-03
8.457500e-10,7.343750e-03
8.497500e-10,7.546875e-03
8.537500e-10,7.765625e-03
8.577500e-10,8.031250e-03
8.617500e-10,8.281250e-03
8.657500e-10,8.843750e-03
8.697500e-10,8.843750e-03
8.737500e-10,9.046875e-03
8.777500e-10,9.468750e-03
8.817500e-10,1.009375e-02
8.857500e-10,1.012500e-02
8.897500e-10,1.046875e-02
8.937500e-10,1.079688e-02
8.977500e-10,1.114063e-02
9.017500e-10,1.145313e-02
9.057500e-10,1.206250e-02
9.097500e-10,1.204688e-02
9.137500e-10,1.221875e-02
9.177500e-10,1.256250e-02
9.217500e-10,1.309375e-02
9.257500e-10,1.300000e-02
9.297500e-10,1.315625e-02
9.337500e-10,1.331250e-02
9.377500e-10,1.342188e-02
9.417500e-10,1.346875e-02
9.457500e-10,1.379688e-02
9.497500e-10,1.348438e-02
9.537500e-10,1.332813e-02
9.577500e-10,1.334375e-02
9.617500e-10,1.351563e-02
9.657500e-10,1.304688e-02
9.697500e-10,1.284375e-02
9.737500e-10,1.262500e-02
9.777500e-10,1.235938e-02
9.817500e-10,1.206250e-02
9.857500e-10,1.203125e-02
9.897500e-10,1.139063e-02
9.937500e-10,1.093750e-02
9.977500e-10,1.065625e-02
1.001750e-09,1.057813e-02
1.005750e-09,9.890625e-03
1.009750e-09,9.500000e-03
1.013750e-09,9.125000e-03
1.017750e-09,8.750000e-03
1.021750e-09,8.375000e-03
1.025750e-09,8.328125e-03
1.029750e-09,7.703125e-03
1.033750e-09,7.296875e-03
1.037750e-09,7.125000e-03
1.041750e-09,7.187500e-03
1.045750e-09,6.687500e-03
1.049750e-09,6.515625e-03
1.053750e-09,6.375000e-03
1.057750e-09,6.296875e-03
1.061750e-09,6.234375e-03
1.065750e-09,6.515625e-03
1.069750e-09,6.250000e-03
1.073750e-09,6.203125e-03
1.077750e-09,6.406250e-03
1.081750e-09,6.843750e-03
1.085750e-09,6.718750e-03
1.089750e-09,6.906250e-03
1.093750e-09,7.140625e-03
1.097750e-09,7.375000e-03
1.101750e-09,7.640625e-03
1.105750e-09,8.203125e-03
1.109750e-09,8.187500e-03
1.113750e-09,8.375000e-03
1.117750e-09,8.750000e-03
1.121750e-09,9.328125e-03
1.125750e-09,9.296875e-03
1.129750e-09,9.546875e-03
1.133750e-09,9.781250e-03
1.137750e-09,9.984375e-03
1.141750e-09,1.015625e-02
1.145750e-09,1.060938e-02
1.149750e-09,1.042188e-02
1.153750e-09,1.039063e-02
1.157750e-09,1.054688e-02
1.161750e-09,1.084375e-02
1.165750e-09,1.050000e-02
1.169750e-09,1.043750e-02
1.173750e-09,1.032813e-02
1.177750e-09,1.017188e-02
1.181750e-09,9.984375e-03
1.185750e-09,1.007813e-02
1.189750e-09,9.531250e-03
1.193750e-09,9.156250e-03
1.197750e-09,8.953125e-03
1.201750e-09,8.937500e-03
1.205750e-09,8.312500e-03
1.209750e-09,7.968750e-03
1.213750e-09,7.625000e-03
1.217750e-09,7.281250e-03
1.221750e-09,6.953125e-03
1.225750e-09,6.921875e-03
1.229750e-09,6.296875e-03
1.233750e-09,5.875000e-03
1.237750e-09,5.687500e-03
1.241750e-09,5.734375e-03
1.245750e-09,5.187500e-03
1.249750e-09,4.968750e-03
1.253750e-09,4.781250e-03
1.257750e-09,4.609375e-03
1.261750e-09,4.484375e-03
1.265750e-09,4.671875e-03
1.269750e-09,4.296875e-03
1.273750e-09,4.140625e-03
1.277750e-09,4.218750e-03
1.281750e-09,4.515625e-03
1.285750e-09,4.234375e-03
1.289750e-09,4.250000e-03
1.293750e-09,4.296875e-03
1.297750e-09,4.359375e-03
1.301750e-09,4.421875e-03
1.305750e-09,4.781250e-03
1.309750e-09,4.546875e-03
1.313750e-09,4.500000e-03
1.317750e-09,4.656250e-03
1.321750e-09,5.000000e-03
1.325750e-09,4.718750e-03
1.329750e-09,4.734375e-03
1.333750e-09,4.750000e-03
1.337750e-09,4.734375e-03
1.341750e-09,4.703125e-03
1.345750e-09,4.953125e-03
1.349750e-09,4.578125e-03
1.353750e-09,4.406250e-03
1.357750e-09,4.406250e-03
1.361750e-09,4.609375e-03
1.365750e-09,4.187500e-03
1.369750e-09,4.062500e-03
1.373750e-09,3.937500e-03
1.377750e-09,3.828125e-03
1.381750e-09,3.703125e-03
1.385750e-09,3.890625e-03
1.389750e-09,3.484375e-03
1.393750e-09,3.312500e-03
1.397750e-09,3.343750e-03
1.401750e-09,3.609375e-03
1.405750e-09,3.281250e-03
1.409750e-09,3.296875e-03
1.413750e-09,3.328125e-03
1.417750e-09,3.406250e-03
1.421750e-09,3.515625e-03
1.425750e-09,3.953125e-03
1.429750e-09,3.812500e-03
1.433750e-09,3.921875e-03
1.437750e-09,4.250000e-03
1.441750e-09,4.812500e-03
1.445750e-09,4.796875e-03
1.449750e-09,5.109375e-03
1.453750e-09,5.437500e-03
1.457750e-09,5.765625e-03
1.461750e-09,6.109375e-03
1.465750e-09,6.765625e-03
1.469750e-09,6.812500e-03
1.473750e-09,7.046875e-03
1.477750e-09,7.484375e-03
1.481750e-09,8.093750e-03
1.485750e-09,8.078125e-03
1.489750e-09,8.343750e-03
1.493750e-09,8.578125e-03
1.497750e-09,8.781250e-03
1.501750e-09,8.953125e-03
1.505750e-09,9.375000e-03
1.509750e-09,9.156250e-03
1.513750e-09,9.109375e-03
1.517750e-09,9.218750e-03
1.521750e-09,9.484375e-03
1.525750e-09,9.093750e-03
1.529750e-09,8.984375e-03
1.533750e-09,8.843750e-03
1.537750e-09,8.656250e-03
1.541750e-09,8.453125e-03
1.545750e-09,8.531250e-03
1.549750e-09,7.984375e-03
1.553750e-09,7.625000e-03
1.557750e-09,7.468750e-03
1.561750e-09,7.500000e-03
1.565750e-09,6.937500e-03
1.569750e-09,6.671875e-03
1.573750e-09,6.421875e-03
1.577750e-09,6.203125e-03
1.581750e-09,5.984375e-03
1.585750e-09,6.109375e-03
1.589750e-09,5.640625e-03
1.593750e-09,5.421875e-03
1.597750e-09,5.421875e-03
1.601750e-09,5.656250e-03
1.605750e-09,5.312500e-03
1.609750e-09,5.312500e-03
1.613750e-09,5.343750e-03
1.617750e-09,5.390625e-03
1.621750e-09,5.468750e-03
1.625750e-09,5.875000e-03
1.629750e-09,5.687500e-03
1.633750e-09,5.718750e-03
1.637750e-09,5.953125e-03
1.641750e-09,6.390625e-03
1.645750e-09,6.234375e-03
1.649750e-09,6.359375e-03
1.653750e-09,6.484375e-03
1.657750e-09,6.593750e-03
1.661750e-09,6.687500e-03
1.665750e-09,7.046875e-03
1.669750e-09,6.781250e-03
1.673750e-09,6.687500e-03
1.677750e-09,6.765625e-03
1.681750e-09,7.015625e-03
1.685750e-09,6.609375e-03
1.689750e-09,6.484375e-03
1.693750e-09,6.328125e-03
1.697750e-09,6.125000e-03
1.701750e-09,5.906250e-03
1.705750e-09,5.968750e-03
1.709750e-09,5.390625e-03
1.713750e-09,4.984375e-03
1.717750e-09,4.781250e-03
1.721750e-09,4.765625e-03
1.725750e-09,4.140625e-03
1.729750e-09,3.812500e-03
1.733750e-09,3.500000e-03
1.737750e-09,3.203125e-03
1.741750e-09,2.906250e-03
1.745750e-09,2.953125e-03
1.749750e-09,2.406250e-03
1.753750e-09,2.093750e-03
1.757750e-09,2.015625e-03
