Measurements-streak-laser/Photodiode-on-Tek-6GHz/Tek000_ch1_20190613132701659.csv

Model,MSO64
Waveform Type,ANALOG
Horizontal Units,s
Sample Interval,4.000000e-12
Record Length,1000
Zero Index,310.226562
Vertical Units,V

TIME,CH1
-1.240906e-09,5.875000e-03
-1.236906e-09,5.718750e-03
-1.232906e-09,5.828125e-03
-1.228906e-09,5.906250e-03
-1.224906e-09,5.968750e-03
-1.220906e-09,6.000000e-03
-1.216906e-09,6.296875e-03
-1.212906e-09,5.968750e-03
-1.208906e-09,5.812500e-03
-1.204906e-09,5.843750e-03
-1.200906e-09,6.062500e-03
-1.196906e-09,5.656250e-03
-1.192906e-09,5.546875e-03
-1.188906e-09,5.437500e-03
-1.184906e-09,5.312500e-03
-1.180906e-09,5.187500e-03
-1.176906e-09,5.359375e-03
-1.172906e-09,4.937500e-03
-1.168906e-09,4.718750e-03
-1.164906e-09,4.718750e-03
-1.160906e-09,4.937500e-03
-1.156906e-09,4.562500e-03
-1.152906e-09,4.500000e-03
-1.148906e-09,4.468750e-03
-1.144906e-09,4.437500e-03
-1.140906e-09,4.437500e-03
-1.136906e-09,4.750000e-03
-1.132906e-09,4.484375e-03
-1.128906e-09,4.421875e-03
-1.124906e-09,4.593750e-03
-1.120906e-09,4.984375e-03
-1.116906e-09,4.765625e-03
-1.112906e-09,4.875000e-03
-1.108906e-09,5.000000e-03
-1.104906e-09,5.125000e-03
-1.100906e-09,5.250000e-03
-1.096906e-09,5.687500e-03
-1.092906e-09,5.515625e-03
-1.088906e-09,5.546875e-03
-1.084906e-09,5.781250e-03
-1.080906e-09,6.218750e-03
-1.076906e-09,6.046875e-03
-1.072906e-09,6.156250e-03
-1.068906e-09,6.265625e-03
-1.064906e-09,6.375000e-03
-1.060906e-09,6.468750e-03
-1.056906e-09,6.875000e-03
-1.052906e-09,6.640625e-03
-1.048906e-09,6.625000e-03
-1.044906e-09,6.781250e-03
-1.040906e-09,7.156250e-03
-1.036906e-09,6.906250e-03
-1.032906e-09,6.953125e-03
-1.028906e-09,7.000000e-03
-1.024906e-09,7.062500e-03
-1.020906e-09,7.109375e-03
-1.016906e-09,7.453125e-03
-1.012906e-09,7.203125e-03
-1.008906e-09,7.156250e-03
-1.004906e-09,7.328125e-03
-1.000906e-09,7.687500e-03
-9.969063e-10,7.468750e-03
-9.929062e-10,7.531250e-03
-9.889062e-10,7.625000e-03
-9.849062e-10,7.703125e-03
-9.809062e-10,7.796875e-03
-9.769062e-10,8.203125e-03
-9.729062e-10,8.000000e-03
-9.689062e-10,8.000000e-03
-9.649062e-10,8.187500e-03
-9.609062e-10,8.593750e-03
-9.569063e-10,8.390625e-03
-9.529063e-10,8.484375e-03
-9.489063e-10,8.562500e-03
-9.449063e-10,8.640625e-03
-9.409063e-10,8.718750e-03
-9.369063e-10,9.062500e-03
-9.329063e-10,8.812500e-03
-9.289062e-10,8.734375e-03
-9.249063e-10,8.843750e-03
-9.209063e-10,9.140625e-03
-9.169062e-10,8.812500e-03
-9.129062e-10,8.765625e-03
-9.089062e-10,8.703125e-03
-9.049062e-10,8.609375e-03
-9.009062e-10,8.515625e-03
-8.969063e-10,8.703125e-03
-8.929063e-10,8.265625e-03
-8.889063e-10,8.000000e-03
-8.849062e-10,7.937500e-03
-8.809062e-10,8.062500e-03
-8.769062e-10,7.578125e-03
-8.729062e-10,7.390625e-03
-8.689062e-10,7.187500e-03
-8.649063e-10,7.000000e-03
-8.609063e-10,6.796875e-03
-8.569062e-10,6.906250e-03
-8.529062e-10,6.421875e-03
-8.489062e-10,6.140625e-03
-8.449062e-10,6.062500e-03
-8.409062e-10,6.218750e-03
-8.369063e-10,5.781250e-03
-8.329063e-10,5.656250e-03
-8.289063e-10,5.562500e-03
-8.249062e-10,5.468750e-03
-8.209062e-10,5.421875e-03
-8.169062e-10,5.671875e-03
-8.129062e-10,5.359375e-03
-8.089062e-10,5.250000e-03
-8.049063e-10,5.375000e-03
-8.009063e-10,5.703125e-03
-7.969062e-10,5.453125e-03
-7.929062e-10,5.515625e-03
-7.889062e-10,5.578125e-03
-7.849062e-10,5.656250e-03
-7.809062e-10,5.750000e-03
-7.769063e-10,6.125000e-03
-7.729063e-10,5.906250e-03
-7.689063e-10,5.875000e-03
-7.649062e-10,6.031250e-03
-7.609062e-10,6.390625e-03
-7.569062e-10,6.109375e-03
-7.529062e-10,6.125000e-03
-7.489062e-10,6.125000e-03
-7.449063e-10,6.078125e-03
-7.409063e-10,6.031250e-03
-7.369062e-10,6.250000e-03
-7.329062e-10,5.828125e-03
-7.289062e-10,5.578125e-03
-7.249062e-10,5.500000e-03
-7.209062e-10,5.609375e-03
-7.169063e-10,5.078125e-03
-7.129063e-10,4.828125e-03
-7.089063e-10,4.546875e-03
-7.049062e-10,4.265625e-03
-7.009062e-10,3.953125e-03
-6.969062e-10,3.937500e-03
-6.929062e-10,3.312500e-03
-6.889062e-10,2.875000e-03
-6.849063e-10,2.656250e-03
-6.809063e-10,2.640625e-03
-6.769063e-10,2.031250e-03
-6.729062e-10,1.734375e-03
-6.689062e-10,1.468750e-03
-6.649062e-10,1.218750e-03
-6.609062e-10,1.000000e-03
-6.569063e-10,1.125000e-03
-6.529063e-10,6.718750e-04
-6.489063e-10,4.687500e-04
-6.449062e-10,5.000000e-04
-6.409062e-10,7.812500e-04
-6.369062e-10,5.000000e-04
-6.329062e-10,5.781250e-04
-6.289062e-10,6.875000e-04
-6.249063e-10,8.593750e-04
-6.209063e-10,1.062500e-03
-6.169063e-10,1.609375e-03
-6.129062e-10,1.593750e-03
-6.089062e-10,1.812500e-03
-6.049062e-10,2.265625e-03
-6.009062e-10,2.937500e-03
-5.969063e-10,3.031250e-03
-5.929063e-10,3.437500e-03
-5.889063e-10,3.859375e-03
-5.849062e-10,4.296875e-03
-5.809062e-10,4.718750e-03
-5.769062e-10,5.453125e-03
-5.729062e-10,5.562500e-03
-5.689062e-10,5.859375e-03
-5.649063e-10,6.328125e-03
-5.609063e-10,6.984375e-03
-5.569063e-10,7.000000e-03
-5.529062e-10,7.281250e-03
-5.489062e-10,7.515625e-03
-5.449062e-10,7.734375e-03
-5.409062e-10,7.890625e-03
-5.369063e-10,8.312500e-03
-5.329063e-10,8.078125e-03
-5.289063e-10,8.015625e-03
-5.249062e-10,8.093750e-03
-5.209062e-10,8.343750e-03
-5.169062e-10,7.937500e-03
-5.129062e-10,7.812500e-03
-5.089062e-10,7.625000e-03
-5.049063e-10,7.421875e-03
-5.009063e-10,7.187500e-03
-4.969063e-10,7.234375e-03
-4.929062e-10,6.640625e-03
-4.889062e-10,6.250000e-03
-4.849062e-10,6.046875e-03
-4.809062e-10,6.031250e-03
-4.769063e-10,5.421875e-03
-4.729063e-10,5.109375e-03
-4.689063e-10,4.796875e-03
-4.649062e-10,4.500000e-03
-4.609063e-10,4.218750e-03
-4.569062e-10,4.265625e-03
-4.529062e-10,3.718750e-03
-4.489062e-10,3.406250e-03
-4.449063e-10,3.328125e-03
-4.409062e-10,3.468750e-03
-4.369062e-10,3.062500e-03
-4.329063e-10,2.968750e-03
-4.289063e-10,2.890625e-03
-4.249062e-10,2.859375e-03
-4.209062e-10,2.859375e-03
-4.169063e-10,3.187500e-03
-4.129062e-10,2.937500e-03
-4.089062e-10,2.921875e-03
-4.049062e-10,3.140625e-03
-4.009063e-10,3.578125e-03
-3.969062e-10,3.437500e-03
-3.929062e-10,3.625000e-03
-3.889062e-10,3.796875e-03
-3.849063e-10,4.000000e-03
-3.809062e-10,4.203125e-03
-3.769062e-10,4.718750e-03
-3.729063e-10,4.640625e-03
-3.689063e-10,4.765625e-03
-3.649062e-10,5.093750e-03
-3.609062e-10,5.625000e-03
-3.569063e-10,5.546875e-03
-3.529062e-10,5.765625e-03
-3.489062e-10,5.953125e-03
-3.449062e-10,6.109375e-03
-3.409063e-10,6.296875e-03
-3.369062e-10,6.750000e-03
-3.329062e-10,6.578125e-03
-3.289062e-10,6.593750e-03
-3.249063e-10,6.812500e-03
-3.209062e-10,7.203125e-03
-3.169062e-10,6.984375e-03
-3.129063e-10,7.046875e-03
-3.089063e-10,7.062500e-03
-3.049062e-10,7.046875e-03
-3.009062e-10,7.046875e-03
-2.969063e-10,7.312500e-03
-2.929063e-10,6.968750e-03
-2.889062e-10,6.796875e-03
-2.849062e-10,6.843750e-03
-2.809063e-10,7.046875e-03
-2.769062e-10,6.656250e-03
-2.729062e-10,6.546875e-03
-2.689062e-10,6.390625e-03
-2.649063e-10,6.218750e-03
-2.609062e-10,6.078125e-03
-2.569062e-10,6.203125e-03
-2.529063e-10,5.734375e-03
-2.489063e-10,5.453125e-03
-2.449062e-10,5.390625e-03
-2.409062e-10,5.500000e-03
-2.369063e-10,5.031250e-03
-2.329063e-10,4.859375e-03
-2.289063e-10,4.656250e-03
-2.249062e-10,4.453125e-03
-2.209062e-10,4.296875e-03
-2.169062e-10,4.406250e-03
-2.129062e-10,3.984375e-03
-2.089062e-10,3.734375e-03
-2.049062e-10,3.703125e-03
-2.009063e-10,3.890625e-03
-1.969062e-10,3.500000e-03
-1.929063e-10,3.437500e-03
-1.889062e-10,3.359375e-03
-1.849063e-10,3.296875e-03
-1.809062e-10,3.296875e-03
-1.769063e-10,3.578125e-03
-1.729062e-10,3.359375e-03
-1.689063e-10,3.312500e-03
-1.649062e-10,3.515625e-03
-1.609062e-10,3.937500e-03
-1.569062e-10,3.796875e-03
-1.529062e-10,4.000000e-03
-1.489062e-10,4.203125e-03
-1.449062e-10,4.437500e-03
-1.409063e-10,4.750000e-03
-1.369062e-10,5.359375e-03
-1.329063e-10,5.468750e-03
-1.289062e-10,5.765625e-03
-1.249063e-10,6.312500e-03
-1.209062e-10,7.093750e-03
-1.169063e-10,7.328125e-03
-1.129062e-10,7.890625e-03
-1.089062e-10,8.500000e-03
-1.049062e-10,9.125000e-03
-1.009062e-10,9.843750e-03
-9.690625e-11,1.085938e-02
-9.290625e-11,1.140625e-02
-8.890625e-11,1.215625e-02
-8.490625e-11,1.312500e-02
-8.090625e-11,1.437500e-02
-7.690625e-11,1.509375e-02
-7.290625e-11,1.612500e-02
-6.890625e-11,1.723438e-02
-6.490625e-11,1.839063e-02
-6.090625e-11,1.962500e-02
-5.690625e-11,2.121875e-02
-5.290625e-11,2.232813e-02
-4.890625e-11,2.368750e-02
-4.490625e-11,2.526563e-02
-4.090625e-11,2.715625e-02
-3.690625e-11,2.854688e-02
-3.290625e-11,3.026563e-02
-2.890625e-11,3.206250e-02
-2.490625e-11,3.396875e-02
-2.090625e-11,3.593750e-02
-1.690625e-11,3.829688e-02
-1.290625e-11,4.021875e-02
-8.906250e-12,4.237500e-02
-4.906250e-12,4.478125e-02
-9.062500e-13,4.748438e-02
3.093750e-12,4.971875e-02
7.093750e-12,5.229688e-02
1.109375e-11,5.493750e-02
1.509375e-11,5.767188e-02
1.909375e-11,6.046875e-02
2.309375e-11,6.365625e-02
2.709375e-11,6.635938e-02
3.109375e-11,6.929688e-02
3.509375e-11,7.242188e-02
3.909375e-11,7.581250e-02
4.309375e-11,7.871875e-02
4.709375e-11,8.187500e-02
5.109375e-11,8.506250e-02
5.509375e-11,8.828125e-02
5.909375e-11,9.146875e-02
6.309375e-11,9.496875e-02
6.709375e-11,9.792188e-02
7.109375e-11,1.010156e-01
7.509375e-11,1.042031e-01
7.909375e-11,1.075469e-01
8.309375e-11,1.103281e-01
8.709375e-11,1.132500e-01
9.109375e-11,1.161094e-01
9.509375e-11,1.188750e-01
9.909375e-11,1.215313e-01
1.030937e-10,1.243594e-01
1.070937e-10,1.265625e-01
1.110937e-10,1.287813e-01
1.150937e-10,1.310313e-01
1.190938e-10,1.333125e-01
1.230937e-10,1.349375e-01
1.270938e-10,1.366406e-01
1.310937e-10,1.381875e-01
1.350938e-10,1.395781e-01
1.390937e-10,1.407813e-01
1.430938e-10,1.420938e-01
1.470937e-10,1.427500e-01
1.510937e-10,1.433906e-01
1.550937e-10,1.440000e-01
1.590937e-10,1.446250e-01
1.630938e-10,1.445781e-01
1.670937e-10,1.446250e-01
1.710938e-10,1.445156e-01
1.750937e-10,1.442656e-01
1.790938e-10,1.438594e-01
1.830937e-10,1.435781e-01
1.870938e-10,1.426563e-01
1.910937e-10,1.417969e-01
1.950938e-10,1.409375e-01
1.990937e-10,1.401563e-01
2.030937e-10,1.387656e-01
2.070937e-10,1.375469e-01
2.110937e-10,1.362344e-01
2.150937e-10,1.348438e-01
2.190937e-10,1.333750e-01
2.230938e-10,1.320781e-01
2.270937e-10,1.302500e-01
2.310938e-10,1.285313e-01
2.350938e-10,1.268906e-01
2.390938e-10,1.253906e-01
2.430937e-10,1.233281e-01
2.470937e-10,1.215313e-01
2.510938e-10,1.196719e-01
2.550938e-10,1.177969e-01
2.590937e-10,1.158906e-01
2.630937e-10,1.142031e-01
2.670938e-10,1.119844e-01
2.710937e-10,1.099375e-01
2.750937e-10,1.080000e-01
2.790937e-10,1.062188e-01
2.830938e-10,1.038750e-01
2.870937e-10,1.018281e-01
2.910937e-10,9.973438e-02
2.950938e-10,9.764063e-02
2.990938e-10,9.551563e-02
3.030937e-10,9.360938e-02
3.070937e-10,9.117188e-02
3.110938e-10,8.892188e-02
3.150938e-10,8.678125e-02
3.190937e-10,8.479688e-02
3.230937e-10,8.226563e-02
3.270938e-10,8.003125e-02
3.310937e-10,7.776563e-02
3.350937e-10,7.550000e-02
3.390937e-10,7.325000e-02
3.430938e-10,7.123438e-02
3.470937e-10,6.868750e-02
3.510937e-10,6.635938e-02
3.550938e-10,6.418750e-02
3.590938e-10,6.218750e-02
3.630937e-10,5.970313e-02
3.670937e-10,5.754688e-02
3.710938e-10,5.542188e-02
3.750938e-10,5.334375e-02
3.790937e-10,5.131250e-02
3.830937e-10,4.959375e-02
3.870938e-10,4.737500e-02
3.910937e-10,4.545313e-02
3.950937e-10,4.375000e-02
3.990937e-10,4.228125e-02
4.030938e-10,4.039063e-02
4.070937e-10,3.884375e-02
4.110937e-10,3.740625e-02
4.150938e-10,3.606250e-02
4.190938e-10,3.481250e-02
4.230937e-10,3.392188e-02
4.270937e-10,3.254688e-02
4.310938e-10,3.150000e-02
4.350938e-10,3.070313e-02
4.390937e-10,3.015625e-02
4.430937e-10,2.918750e-02
4.470938e-10,2.856250e-02
4.510937e-10,2.804688e-02
4.550937e-10,2.760938e-02
4.590937e-10,2.723438e-02
4.630938e-10,2.720313e-02
4.670937e-10,2.665625e-02
4.710938e-10,2.637500e-02
4.750938e-10,2.632813e-02
4.790938e-10,2.645313e-02
4.830937e-10,2.610938e-02
4.870937e-10,2.604688e-02
4.910937e-10,2.603125e-02
4.950937e-10,2.603125e-02
4.990938e-10,2.600000e-02
5.030938e-10,2.626563e-02
5.070938e-10,2.593750e-02
5.110937e-10,2.579688e-02
5.150937e-10,2.582813e-02
5.190937e-10,2.598438e-02
5.230937e-10,2.559375e-02
5.270937e-10,2.540625e-02
5.310938e-10,2.525000e-02
5.350938e-10,2.501563e-02
5.390938e-10,2.473438e-02
5.430937e-10,2.468750e-02
5.470937e-10,2.403125e-02
5.510937e-10,2.350000e-02
5.550937e-10,2.315625e-02
5.590938e-10,2.292188e-02
5.630938e-10,2.210938e-02
5.670938e-10,2.151563e-02
5.710937e-10,2.093750e-02
5.750937e-10,2.029688e-02
5.790937e-10,1.960938e-02
5.830937e-10,1.918750e-02
5.870937e-10,1.817188e-02
5.910938e-10,1.731250e-02
5.950938e-10,1.667188e-02
5.990938e-10,1.618750e-02
6.030937e-10,1.514063e-02
6.070937e-10,1.434375e-02
6.110937e-10,1.360938e-02
6.150937e-10,1.287500e-02
6.190938e-10,1.210938e-02
6.230938e-10,1.165625e-02
6.270938e-10,1.065625e-02
6.310937e-10,9.859375e-03
6.350937e-10,9.296875e-03
6.390937e-10,8.953125e-03
6.430937e-10,8.062500e-03
6.470937e-10,7.484375e-03
6.510938e-10,6.968750e-03
6.550938e-10,6.484375e-03
6.590938e-10,6.015625e-03
6.630937e-10,5.859375e-03
6.670937e-10,5.187500e-03
6.710937e-10,4.734375e-03
6.750937e-10,4.531250e-03
6.790938e-10,4.562500e-03
6.830938e-10,4.046875e-03
6.870938e-10,3.859375e-03
6.910937e-10,3.734375e-03
6.950937e-10,3.640625e-03
6.990937e-10,3.562500e-03
7.030937e-10,3.796875e-03
7.070937e-10,3.500000e-03
7.110938e-10,3.421875e-03
7.150938e-10,3.593750e-03
7.190938e-10,3.984375e-03
7.230937e-10,3.812500e-03
7.270937e-10,3.953125e-03
7.310937e-10,4.140625e-03
7.350937e-10,4.343750e-03
7.390938e-10,4.531250e-03
7.430938e-10,5.031250e-03
7.470938e-10,4.968750e-03
7.510937e-10,5.109375e-03
7.550937e-10,5.468750e-03
7.590937e-10,6.031250e-03
7.630937e-10,5.984375e-03
7.670937e-10,6.250000e-03
7.710938e-10,6.515625e-03
7.750938e-10,6.796875e-03
7.790938e-10,7.031250e-03
7.830937e-10,7.562500e-03
7.870937e-10,7.500000e-03
7.910937e-10,7.609375e-03
7.950937e-10,7.921875e-03
7.990938e-10,8.406250e-03
8.030938e-10,8.296875e-03
8.070938e-10,8.453125e-03
8.110937e-10,8.593750e-03
8.150937e-10,8.734375e-03
8.190937e-10,8.843750e-03
8.230937e-10,9.234375e-03
8.270937e-10,9.015625e-03
8.310938e-10,8.968750e-03
8.350938e-10,9.125000e-03
8.390938e-10,9.468750e-03
8.430937e-10,9.218750e-03
8.470937e-10,9.234375e-03
8.510937e-10,9.250000e-03
8.550937e-10,9.281250e-03
8.590937e-10,9.281250e-03
8.630938e-10,9.593750e-03
8.670938e-10,9.312500e-03
8.710937e-10,9.234375e-03
8.750937e-10,9.359375e-03
8.790937e-10,9.687500e-03
8.830937e-10,9.437500e-03
8.870937e-10,9.500000e-03
8.910938e-10,9.578125e-03
8.950938e-10,9.656250e-03
8.990938e-10,9.750000e-03
9.030937e-10,1.015625e-02
9.070937e-10,9.984375e-03
9.110937e-10,1.001563e-02
9.150937e-10,1.028125e-02
9.190937e-10,1.073438e-02
9.230938e-10,1.060938e-02
9.270938e-10,1.078125e-02
9.310937e-10,1.098438e-02
9.350938e-10,1.117188e-02
9.390938e-10,1.135938e-02
9.430938e-10,1.184375e-02
9.470938e-10,1.173438e-02
9.510938e-10,1.179688e-02
9.550938e-10,1.207813e-02
9.590937e-10,1.253125e-02
9.630937e-10,1.237500e-02
9.670937e-10,1.250000e-02
9.710937e-10,1.260938e-02
9.750937e-10,1.268750e-02
9.790937e-10,1.275000e-02
9.830937e-10,1.309375e-02
9.870937e-10,1.281250e-02
9.910937e-10,1.268750e-02
9.950938e-10,1.276563e-02
9.990938e-10,1.300000e-02
1.003094e-09,1.260938e-02
1.007094e-09,1.251563e-02
1.011094e-09,1.237500e-02
1.015094e-09,1.223438e-02
1.019094e-09,1.207813e-02
1.023094e-09,1.218750e-02
1.027094e-09,1.168750e-02
1.031094e-09,1.139063e-02
1.035094e-09,1.126563e-02
1.039094e-09,1.135938e-02
1.043094e-09,1.082813e-02
1.047094e-09,1.060938e-02
1.051094e-09,1.037500e-02
1.055094e-09,1.017188e-02
1.059094e-09,9.953125e-03
1.063094e-09,1.004688e-02
1.067094e-09,9.546875e-03
1.071094e-09,9.265625e-03
1.075094e-09,9.187500e-03
1.079094e-09,9.328125e-03
1.083094e-09,8.859375e-03
1.087094e-09,8.718750e-03
1.091094e-09,8.578125e-03
1.095094e-09,8.453125e-03
1.099094e-09,8.343750e-03
1.103094e-09,8.531250e-03
1.107094e-09,8.125000e-03
1.111094e-09,7.921875e-03
1.115094e-09,7.921875e-03
1.119094e-09,8.125000e-03
1.123094e-09,7.734375e-03
1.127094e-09,7.640625e-03
1.131094e-09,7.531250e-03
1.135094e-09,7.437500e-03
1.139094e-09,7.328125e-03
1.143094e-09,7.531250e-03
1.147094e-09,7.109375e-03
1.151094e-09,6.906250e-03
1.155094e-09,6.890625e-03
1.159094e-09,7.062500e-03
1.163094e-09,6.656250e-03
1.167094e-09,6.546875e-03
1.171094e-09,6.437500e-03
1.175094e-09,6.328125e-03
1.179094e-09,6.234375e-03
1.183094e-09,6.453125e-03
1.187094e-09,6.078125e-03
1.191094e-09,5.937500e-03
1.195094e-09,6.000000e-03
1.199094e-09,6.281250e-03
1.203094e-09,6.000000e-03
1.207094e-09,6.031250e-03
1.211094e-09,6.093750e-03
1.215094e-09,6.171875e-03
1.219094e-09,6.281250e-03
1.223094e-09,6.734375e-03
1.227094e-09,6.609375e-03
1.231094e-09,6.703125e-03
1.235094e-09,7.031250e-03
1.239094e-09,7.578125e-03
1.243094e-09,7.546875e-03
1.247094e-09,7.843750e-03
1.251094e-09,8.156250e-03
1.255094e-09,8.468750e-03
1.259094e-09,8.812500e-03
1.263094e-09,9.453125e-03
1.267094e-09,9.484375e-03
1.271094e-09,9.718750e-03
1.275094e-09,1.015625e-02
1.279094e-09,1.076563e-02
1.283094e-09,1.076563e-02
1.287094e-09,1.104688e-02
1.291094e-09,1.131250e-02
1.295094e-09,1.153125e-02
1.299094e-09,1.173438e-02
1.303094e-09,1.220313e-02
1.307094e-09,1.203125e-02
1.311094e-09,1.203125e-02
1.315094e-09,1.218750e-02
1.319094e-09,1.251563e-02
1.323094e-09,1.220313e-02
1.327094e-09,1.214063e-02
1.331094e-09,1.206250e-02
1.335094e-09,1.193750e-02
1.339094e-09,1.179688e-02
1.343094e-09,1.190625e-02
1.347094e-09,1.140625e-02
1.351094e-09,1.109375e-02
1.355094e-09,1.095313e-02
1.359094e-09,1.100000e-02
1.363094e-09,1.043750e-02
1.367094e-09,1.017188e-02
1.371094e-09,9.906250e-03
1.375094e-09,9.656250e-03
1.379094e-09,9.406250e-03
1.383094e-09,9.468750e-03
1.387094e-09,8.937500e-03
1.391094e-09,8.625000e-03
1.395094e-09,8.531250e-03
1.399094e-09,8.671875e-03
1.403094e-09,8.218750e-03
1.407094e-09,8.093750e-03
1.411094e-09,8.000000e-03
1.415094e-09,7.921875e-03
1.419094e-09,7.859375e-03
1.423094e-09,8.125000e-03
1.427094e-09,7.812500e-03
1.431094e-09,7.718750e-03
1.435094e-09,7.843750e-03
1.439094e-09,8.171875e-03
1.443094e-09,7.906250e-03
1.447094e-09,7.968750e-03
1.451094e-09,8.015625e-03
1.455094e-09,8.078125e-03
1.459094e-09,8.140625e-03
1.463094e-09,8.500000e-03
1.467094e-09,8.250000e-03
1.471094e-09,8.203125e-03
1.475094e-09,8.328125e-03
1.479094e-09,8.656250e-03
1.483094e-09,8.375000e-03
1.487094e-09,8.390625e-03
1.491094e-09,8.390625e-03
1.495094e-09,8.375000e-03
1.499094e-09,8.343750e-03
1.503094e-09,8.609375e-03
1.507094e-09,8.265625e-03
1.511094e-09,8.125000e-03
1.515094e-09,8.171875e-03
1.519094e-09,8.437500e-03
1.523094e-09,8.078125e-03
1.527094e-09,8.046875e-03
1.531094e-09,8.000000e-03
1.535094e-09,7.984375e-03
1.539094e-09,7.968750e-03
1.543094e-09,8.265625e-03
1.547094e-09,7.984375e-03
1.551094e-09,7.906250e-03
1.555094e-09,8.062500e-03
1.559094e-09,8.437500e-03
1.563094e-09,8.234375e-03
1.567094e-09,8.343750e-03
1.571094e-09,8.484375e-03
1.575094e-09,8.640625e-03
1.579094e-09,8.812500e-03
1.583094e-09,9.296875e-03
1.587094e-09,9.187500e-03
1.591094e-09,9.312500e-03
1.595094e-09,9.625000e-03
1.599094e-09,1.015625e-02
1.603094e-09,1.009375e-02
1.607094e-09,1.031250e-02
1.611094e-09,1.053125e-02
1.615094e-09,1.075000e-02
1.619094e-09,1.095313e-02
1.623094e-09,1.143750e-02
1.627094e-09,1.128125e-02
1.631094e-09,1.131250e-02
1.635094e-09,1.151563e-02
1.639094e-09,1.189063e-02
1.643094e-09,1.162500e-02
1.647094e-09,1.160938e-02
1.651094e-09,1.157813e-02
1.655094e-09,1.148438e-02
1.659094e-09,1.135938e-02
1.663094e-09,1.150000e-02
1.667094e-09,1.098438e-02
1.671094e-09,1.062500e-02
1.675094e-09,1.042188e-02
1.679094e-09,1.039063e-02
1.683094e-09,9.718750e-03
1.687094e-09,9.296875e-03
1.691094e-09,8.875000e-03
1.695094e-09,8.406250e-03
1.699094e-09,7.906250e-03
1.703094e-09,7.703125e-03
1.707094e-09,6.875000e-03
1.711094e-09,6.234375e-03
1.715094e-09,5.796875e-03
1.719094e-09,5.546875e-03
1.723094e-09,4.703125e-03
1.727094e-09,4.171875e-03
1.731094e-09,3.671875e-03
1.735094e-09,3.171875e-03
1.739094e-09,2.703125e-03
1.743094e-09,2.546875e-03
1.747094e-09,1.828125e-03
1.751094e-09,1.343750e-03
1.755094e-09,1.093750e-03
1.759094e-09,1.078125e-03
