Measurements-streak-laser/Photodiode-on-Tek-6GHz/Tek000_ch1_20190613132733751.csv

Model,MSO64
Waveform Type,ANALOG
Horizontal Units,s
Sample Interval,4.000000e-12
Record Length,1000
Zero Index,310.890625
Vertical Units,V

TIME,CH1
-1.243562e-09,4.546875e-03
-1.239562e-09,4.234375e-03
-1.235562e-09,4.218750e-03
-1.231563e-09,4.187500e-03
-1.227563e-09,4.171875e-03
-1.223563e-09,4.140625e-03
-1.219563e-09,4.421875e-03
-1.215563e-09,4.078125e-03
-1.211563e-09,3.953125e-03
-1.207562e-09,4.031250e-03
-1.203562e-09,4.312500e-03
-1.199562e-09,3.984375e-03
-1.195562e-09,3.968750e-03
-1.191562e-09,3.953125e-03
-1.187562e-09,3.953125e-03
-1.183562e-09,3.953125e-03
-1.179562e-09,4.250000e-03
-1.175562e-09,3.953125e-03
-1.171563e-09,3.859375e-03
-1.167563e-09,3.968750e-03
-1.163563e-09,4.281250e-03
-1.159563e-09,3.984375e-03
-1.155563e-09,3.984375e-03
-1.151563e-09,3.984375e-03
-1.147562e-09,3.968750e-03
-1.143562e-09,3.968750e-03
-1.139562e-09,4.250000e-03
-1.135562e-09,3.921875e-03
-1.131562e-09,3.796875e-03
-1.127562e-09,3.875000e-03
-1.123562e-09,4.140625e-03
-1.119562e-09,3.796875e-03
-1.115562e-09,3.750000e-03
-1.111563e-09,3.687500e-03
-1.107563e-09,3.640625e-03
-1.103563e-09,3.593750e-03
-1.099563e-09,3.843750e-03
-1.095563e-09,3.500000e-03
-1.091563e-09,3.343750e-03
-1.087562e-09,3.406250e-03
-1.083562e-09,3.687500e-03
-1.079562e-09,3.359375e-03
-1.075562e-09,3.359375e-03
-1.071562e-09,3.375000e-03
-1.067562e-09,3.390625e-03
-1.063562e-09,3.421875e-03
-1.059562e-09,3.781250e-03
-1.055562e-09,3.531250e-03
-1.051563e-09,3.515625e-03
-1.047563e-09,3.718750e-03
-1.043563e-09,4.125000e-03
-1.039563e-09,3.937500e-03
-1.035563e-09,4.062500e-03
-1.031563e-09,4.187500e-03
-1.027562e-09,4.328125e-03
-1.023562e-09,4.468750e-03
-1.019562e-09,4.906250e-03
-1.015562e-09,4.718750e-03
-1.011562e-09,4.734375e-03
-1.007562e-09,4.937500e-03
-1.003562e-09,5.328125e-03
-9.995625e-10,5.078125e-03
-9.955625e-10,5.109375e-03
-9.915625e-10,5.125000e-03
-9.875625e-10,5.093750e-03
-9.835625e-10,5.031250e-03
-9.795625e-10,5.234375e-03
-9.755625e-10,4.796875e-03
-9.715625e-10,4.531250e-03
-9.675625e-10,4.421875e-03
-9.635625e-10,4.484375e-03
-9.595625e-10,3.890625e-03
-9.555625e-10,3.578125e-03
-9.515625e-10,3.218750e-03
-9.475625e-10,2.843750e-03
-9.435625e-10,2.437500e-03
-9.395625e-10,2.328125e-03
-9.355625e-10,1.578125e-03
-9.315625e-10,1.031250e-03
-9.275625e-10,6.718750e-04
-9.235625e-10,5.312500e-04
-9.195625e-10,-2.187500e-04
-9.155625e-10,-6.562500e-04
-9.115625e-10,-1.078125e-03
-9.075625e-10,-1.468750e-03
-9.035625e-10,-1.828125e-03
-8.995625e-10,-1.843750e-03
-8.955625e-10,-2.437500e-03
-8.915625e-10,-2.781250e-03
-8.875625e-10,-2.875000e-03
-8.835625e-10,-2.703125e-03
-8.795625e-10,-3.109375e-03
-8.755625e-10,-3.140625e-03
-8.715625e-10,-3.125000e-03
-8.675625e-10,-3.046875e-03
-8.635625e-10,-2.906250e-03
-8.595625e-10,-2.421875e-03
-8.555625e-10,-2.500000e-03
-8.515625e-10,-2.312500e-03
-8.475625e-10,-1.875000e-03
-8.435625e-10,-1.203125e-03
-8.395625e-10,-1.093750e-03
-8.355625e-10,-6.562500e-04
-8.315625e-10,-1.875000e-04
-8.275625e-10,2.812500e-04
-8.235625e-10,7.812500e-04
-8.195625e-10,1.609375e-03
-8.155625e-10,1.812500e-03
-8.115625e-10,2.218750e-03
-8.075625e-10,2.812500e-03
-8.035625e-10,3.609375e-03
-7.995625e-10,3.781250e-03
-7.955625e-10,4.218750e-03
-7.915625e-10,4.640625e-03
-7.875625e-10,5.015625e-03
-7.835625e-10,5.375000e-03
-7.795625e-10,5.984375e-03
-7.755625e-10,5.968750e-03
-7.715625e-10,6.093750e-03
-7.675625e-10,6.390625e-03
-7.635625e-10,6.859375e-03
-7.595625e-10,6.656250e-03
-7.555625e-10,6.734375e-03
-7.515625e-10,6.781250e-03
-7.475625e-10,6.765625e-03
-7.435625e-10,6.734375e-03
-7.395625e-10,6.984375e-03
-7.355625e-10,6.593750e-03
-7.315625e-10,6.359375e-03
-7.275625e-10,6.328125e-03
-7.235625e-10,6.484375e-03
-7.195625e-10,6.000000e-03
-7.155625e-10,5.812500e-03
-7.115625e-10,5.640625e-03
-7.075625e-10,5.437500e-03
-7.035625e-10,5.250000e-03
-6.995625e-10,5.375000e-03
-6.955625e-10,4.890625e-03
-6.915625e-10,4.625000e-03
-6.875625e-10,4.562500e-03
-6.835625e-10,4.734375e-03
-6.795625e-10,4.312500e-03
-6.755625e-10,4.203125e-03
-6.715625e-10,4.109375e-03
-6.675625e-10,4.046875e-03
-6.635625e-10,4.015625e-03
-6.595625e-10,4.296875e-03
-6.555625e-10,4.000000e-03
-6.515625e-10,3.921875e-03
-6.475625e-10,4.062500e-03
-6.435625e-10,4.437500e-03
-6.395625e-10,4.218750e-03
-6.355625e-10,4.328125e-03
-6.315625e-10,4.437500e-03
-6.275625e-10,4.578125e-03
-6.235625e-10,4.734375e-03
-6.195625e-10,5.187500e-03
-6.155625e-10,5.062500e-03
-6.115625e-10,5.140625e-03
-6.075625e-10,5.406250e-03
-6.035625e-10,5.906250e-03
-5.995625e-10,5.781250e-03
-5.955625e-10,5.953125e-03
-5.915625e-10,6.109375e-03
-5.875625e-10,6.281250e-03
-5.835625e-10,6.421875e-03
-5.795625e-10,6.875000e-03
-5.755625e-10,6.687500e-03
-5.715625e-10,6.687500e-03
-5.675625e-10,6.890625e-03
-5.635625e-10,7.265625e-03
-5.595625e-10,7.031250e-03
-5.555625e-10,7.062500e-03
-5.515625e-10,7.093750e-03
-5.475625e-10,7.093750e-03
-5.435625e-10,7.078125e-03
-5.395625e-10,7.343750e-03
-5.355625e-10,7.000000e-03
-5.315625e-10,6.828125e-03
-5.275625e-10,6.859375e-03
-5.235625e-10,7.078125e-03
-5.195625e-10,6.687500e-03
-5.155625e-10,6.593750e-03
-5.115625e-10,6.484375e-03
-5.075625e-10,6.390625e-03
-5.035625e-10,6.281250e-03
-4.995625e-10,6.500000e-03
-4.955625e-10,6.093750e-03
-4.915625e-10,5.921875e-03
-4.875625e-10,5.953125e-03
-4.835625e-10,6.203125e-03
-4.795625e-10,5.859375e-03
-4.755625e-10,5.843750e-03
-4.715625e-10,5.828125e-03
-4.675625e-10,5.843750e-03
-4.635625e-10,5.875000e-03
-4.595625e-10,6.234375e-03
-4.555625e-10,6.015625e-03
-4.515625e-10,6.015625e-03
-4.475625e-10,6.234375e-03
-4.435625e-10,6.671875e-03
-4.395625e-10,6.531250e-03
-4.355625e-10,6.718750e-03
-4.315625e-10,6.875000e-03
-4.275625e-10,7.062500e-03
-4.235625e-10,7.250000e-03
-4.195625e-10,7.765625e-03
-4.155625e-10,7.640625e-03
-4.115625e-10,7.734375e-03
-4.075625e-10,8.031250e-03
-4.035625e-10,8.500000e-03
-3.995625e-10,8.375000e-03
-3.955625e-10,8.515625e-03
-3.915625e-10,8.609375e-03
-3.875625e-10,8.687500e-03
-3.835625e-10,8.734375e-03
-3.795625e-10,9.062500e-03
-3.755625e-10,8.734375e-03
-3.715625e-10,8.578125e-03
-3.675625e-10,8.609375e-03
-3.635625e-10,8.781250e-03
-3.595625e-10,8.343750e-03
-3.555625e-10,8.156250e-03
-3.515625e-10,7.890625e-03
-3.475625e-10,7.593750e-03
-3.435625e-10,7.265625e-03
-3.395625e-10,7.218750e-03
-3.355625e-10,6.531250e-03
-3.315625e-10,6.015625e-03
-3.275625e-10,5.703125e-03
-3.235625e-10,5.546875e-03
-3.195625e-10,4.796875e-03
-3.155625e-10,4.343750e-03
-3.115625e-10,3.828125e-03
-3.075625e-10,3.312500e-03
-3.035625e-10,2.828125e-03
-2.995625e-10,2.625000e-03
-2.955625e-10,1.843750e-03
-2.915625e-10,1.281250e-03
-2.875625e-10,9.531250e-04
-2.835625e-10,8.437500e-04
-2.795625e-10,1.718750e-04
-2.755625e-10,-1.562500e-04
-2.715625e-10,-5.156250e-04
-2.675625e-10,-8.437500e-04
-2.635625e-10,-1.062500e-03
-2.595625e-10,-1.000000e-03
-2.555625e-10,-1.437500e-03
-2.515625e-10,-1.687500e-03
-2.475625e-10,-1.625000e-03
-2.435625e-10,-1.359375e-03
-2.395625e-10,-1.625000e-03
-2.355625e-10,-1.531250e-03
-2.315625e-10,-1.437500e-03
-2.275625e-10,-1.328125e-03
-2.235625e-10,-1.109375e-03
-2.195625e-10,-5.937500e-04
-2.155625e-10,-5.937500e-04
-2.115625e-10,-3.906250e-04
-2.075625e-10,7.812500e-05
-2.035625e-10,7.656250e-04
-1.995625e-10,9.062500e-04
-1.955625e-10,1.375000e-03
-1.915625e-10,1.812500e-03
-1.875625e-10,2.265625e-03
-1.835625e-10,2.812500e-03
-1.795625e-10,3.625000e-03
-1.755625e-10,3.906250e-03
-1.715625e-10,4.359375e-03
-1.675625e-10,5.046875e-03
-1.635625e-10,5.937500e-03
-1.595625e-10,6.234375e-03
-1.555625e-10,6.843750e-03
-1.515625e-10,7.437500e-03
-1.475625e-10,7.984375e-03
-1.435625e-10,8.625000e-03
-1.395625e-10,9.484375e-03
-1.355625e-10,9.843750e-03
-1.315625e-10,1.032813e-02
-1.275625e-10,1.101563e-02
-1.235625e-10,1.190625e-02
-1.195625e-10,1.220313e-02
-1.155625e-10,1.278125e-02
-1.115625e-10,1.334375e-02
-1.075625e-10,1.389063e-02
-1.035625e-10,1.450000e-02
-9.956250e-11,1.534375e-02
-9.556250e-11,1.570313e-02
-9.156250e-11,1.621875e-02
-8.756250e-11,1.692188e-02
-8.356250e-11,1.787500e-02
-7.956250e-11,1.825000e-02
-7.556250e-11,1.893750e-02
-7.156250e-11,1.965625e-02
-6.756250e-11,2.040625e-02
-6.356250e-11,2.125000e-02
-5.956250e-11,2.240625e-02
-5.556250e-11,2.312500e-02
-5.156250e-11,2.406250e-02
-4.756250e-11,2.525000e-02
-4.356250e-11,2.676563e-02
-3.956250e-11,2.779688e-02
-3.556250e-11,2.918750e-02
-3.156250e-11,3.070313e-02
-2.756250e-11,3.234375e-02
-2.356250e-11,3.412500e-02
-1.956250e-11,3.632813e-02
-1.556250e-11,3.817188e-02
-1.156250e-11,4.031250e-02
-7.562500e-12,4.276563e-02
-3.562500e-12,4.559375e-02
4.375000e-13,4.804688e-02
4.437500e-12,5.090625e-02
8.437500e-12,5.392188e-02
1.243750e-11,5.710938e-02
1.643750e-11,6.045313e-02
2.043750e-11,6.426563e-02
2.443750e-11,6.771875e-02
2.843750e-11,7.148438e-02
3.243750e-11,7.550000e-02
3.643750e-11,7.987500e-02
4.043750e-11,8.385938e-02
4.443750e-11,8.817188e-02
4.843750e-11,9.256250e-02
5.243750e-11,9.706250e-02
5.643750e-11,1.016094e-01
6.043750e-11,1.065000e-01
6.443750e-11,1.109219e-01
6.843750e-11,1.155313e-01
7.243750e-11,1.202344e-01
7.643750e-11,1.251250e-01
8.043750e-11,1.295000e-01
8.443750e-11,1.340156e-01
8.843750e-11,1.384531e-01
9.243750e-11,1.427969e-01
9.643750e-11,1.470313e-01
1.004375e-10,1.514219e-01
1.044375e-10,1.551719e-01
1.084375e-10,1.589375e-01
1.124375e-10,1.626406e-01
1.164375e-10,1.663438e-01
1.204375e-10,1.693906e-01
1.244375e-10,1.724375e-01
1.284375e-10,1.752813e-01
1.324375e-10,1.779219e-01
1.364375e-10,1.803281e-01
1.404375e-10,1.827969e-01
1.444375e-10,1.845625e-01
1.484375e-10,1.862500e-01
1.524375e-10,1.878438e-01
1.564375e-10,1.893906e-01
1.604375e-10,1.902656e-01
1.644375e-10,1.911406e-01
1.684375e-10,1.918281e-01
1.724375e-10,1.923125e-01
1.764375e-10,1.926094e-01
1.804375e-10,1.929688e-01
1.844375e-10,1.927031e-01
1.884375e-10,1.924375e-01
1.924375e-10,1.921250e-01
1.964375e-10,1.918438e-01
2.004375e-10,1.909688e-01
2.044375e-10,1.902031e-01
2.084375e-10,1.893125e-01
2.124375e-10,1.883125e-01
2.164375e-10,1.872188e-01
2.204375e-10,1.862500e-01
2.244375e-10,1.847500e-01
2.284375e-10,1.833281e-01
2.324375e-10,1.819375e-01
2.364375e-10,1.806406e-01
2.404375e-10,1.787969e-01
2.444375e-10,1.771563e-01
2.484375e-10,1.754219e-01
2.524375e-10,1.736406e-01
2.564375e-10,1.717969e-01
2.604375e-10,1.700938e-01
2.644375e-10,1.678906e-01
2.684375e-10,1.657813e-01
2.724375e-10,1.637344e-01
2.764375e-10,1.617656e-01
2.804375e-10,1.592500e-01
2.844375e-10,1.569688e-01
2.884375e-10,1.545781e-01
2.924375e-10,1.521406e-01
2.964375e-10,1.496406e-01
3.004375e-10,1.472813e-01
3.044375e-10,1.443906e-01
3.084375e-10,1.416250e-01
3.124375e-10,1.389063e-01
3.164375e-10,1.362969e-01
3.204375e-10,1.331250e-01
3.244375e-10,1.302188e-01
3.284375e-10,1.272188e-01
3.324375e-10,1.242188e-01
3.364375e-10,1.211875e-01
3.404375e-10,1.183281e-01
3.444375e-10,1.149531e-01
3.484375e-10,1.117813e-01
3.524375e-10,1.087188e-01
3.564375e-10,1.058281e-01
3.604375e-10,1.024375e-01
3.644375e-10,9.937500e-02
3.684375e-10,9.631250e-02
3.724375e-10,9.331250e-02
3.764375e-10,9.035938e-02
3.804375e-10,8.768750e-02
3.844375e-10,8.453125e-02
3.884375e-10,8.168750e-02
3.924375e-10,7.903125e-02
3.964375e-10,7.659375e-02
4.004375e-10,7.375000e-02
4.044375e-10,7.128125e-02
4.084375e-10,6.890625e-02
4.124375e-10,6.662500e-02
4.164375e-10,6.443750e-02
4.204375e-10,6.260938e-02
4.244375e-10,6.031250e-02
4.284375e-10,5.834375e-02
4.324375e-10,5.660938e-02
4.364375e-10,5.509375e-02
4.404375e-10,5.320313e-02
4.444375e-10,5.167188e-02
4.484375e-10,5.023438e-02
4.524375e-10,4.889063e-02
4.564375e-10,4.762500e-02
4.604375e-10,4.668750e-02
4.644375e-10,4.525000e-02
4.684375e-10,4.410938e-02
4.724375e-10,4.320313e-02
4.764375e-10,4.246875e-02
4.804375e-10,4.131250e-02
4.844375e-10,4.046875e-02
4.884375e-10,3.968750e-02
4.924375e-10,3.895313e-02
4.964375e-10,3.825000e-02
5.004375e-10,3.784375e-02
5.044375e-10,3.689063e-02
5.084375e-10,3.618750e-02
5.124375e-10,3.568750e-02
5.164375e-10,3.534375e-02
5.204375e-10,3.453125e-02
5.244375e-10,3.396875e-02
5.284375e-10,3.348438e-02
5.324375e-10,3.298438e-02
5.364375e-10,3.248438e-02
5.404375e-10,3.228125e-02
5.444375e-10,3.150000e-02
5.484375e-10,3.093750e-02
5.524375e-10,3.057813e-02
5.564375e-10,3.034375e-02
5.604375e-10,2.962500e-02
5.644375e-10,2.914063e-02
5.684375e-10,2.871875e-02
5.724375e-10,2.826563e-02
5.764375e-10,2.778125e-02
5.804375e-10,2.757813e-02
5.844375e-10,2.679688e-02
5.884375e-10,2.620313e-02
5.924375e-10,2.579688e-02
5.964375e-10,2.553125e-02
6.004375e-10,2.473438e-02
6.044375e-10,2.415625e-02
6.084375e-10,2.364063e-02
6.124375e-10,2.307813e-02
6.164375e-10,2.245313e-02
6.204375e-10,2.210938e-02
6.244375e-10,2.117188e-02
6.284375e-10,2.040625e-02
6.324375e-10,1.984375e-02
6.364375e-10,1.942188e-02
6.404375e-10,1.845313e-02
6.444375e-10,1.771875e-02
6.484375e-10,1.704688e-02
6.524375e-10,1.634375e-02
6.564375e-10,1.557813e-02
6.604375e-10,1.512500e-02
6.644375e-10,1.409375e-02
6.684375e-10,1.326563e-02
6.724375e-10,1.265625e-02
6.764375e-10,1.223438e-02
6.804375e-10,1.128125e-02
6.844375e-10,1.060938e-02
6.884375e-10,1.001563e-02
6.924375e-10,9.437500e-03
6.964375e-10,8.859375e-03
7.004375e-10,8.593750e-03
7.044375e-10,7.812500e-03
7.084375e-10,7.250000e-03
7.124375e-10,6.953125e-03
7.164375e-10,6.875000e-03
7.204375e-10,6.281250e-03
7.244375e-10,6.015625e-03
7.284375e-10,5.828125e-03
7.324375e-10,5.687500e-03
7.364375e-10,5.546875e-03
7.404375e-10,5.750000e-03
7.444375e-10,5.406250e-03
7.484375e-10,5.296875e-03
7.524375e-10,5.453125e-03
7.564375e-10,5.828125e-03
7.604375e-10,5.625000e-03
7.644375e-10,5.765625e-03
7.684375e-10,5.937500e-03
7.724375e-10,6.109375e-03
7.764375e-10,6.281250e-03
7.804375e-10,6.750000e-03
7.844375e-10,6.625000e-03
7.884375e-10,6.703125e-03
7.924375e-10,6.984375e-03
7.964375e-10,7.453125e-03
8.004375e-10,7.312500e-03
8.044375e-10,7.437500e-03
8.084375e-10,7.578125e-03
8.124375e-10,7.687500e-03
8.164375e-10,7.750000e-03
8.204375e-10,8.078125e-03
8.244375e-10,7.796875e-03
8.284375e-10,7.687500e-03
8.324375e-10,7.750000e-03
8.364375e-10,8.000000e-03
8.404375e-10,7.625000e-03
8.444375e-10,7.531250e-03
8.484375e-10,7.421875e-03
8.524375e-10,7.312500e-03
8.564375e-10,7.156250e-03
8.604375e-10,7.296875e-03
8.644375e-10,6.828125e-03
8.684375e-10,6.546875e-03
8.724375e-10,6.484375e-03
8.764375e-10,6.625000e-03
8.804375e-10,6.171875e-03
8.844375e-10,6.015625e-03
8.884375e-10,5.890625e-03
8.924375e-10,5.765625e-03
8.964375e-10,5.640625e-03
9.004375e-10,5.843750e-03
9.044375e-10,5.453125e-03
9.084375e-10,5.281250e-03
9.124375e-10,5.343750e-03
9.164375e-10,5.609375e-03
9.204375e-10,5.296875e-03
9.244375e-10,5.281250e-03
9.284375e-10,5.296875e-03
9.324375e-10,5.328125e-03
9.364375e-10,5.343750e-03
9.404375e-10,5.671875e-03
9.444375e-10,5.406250e-03
9.484375e-10,5.343750e-03
9.524375e-10,5.484375e-03
9.564375e-10,5.812500e-03
9.604375e-10,5.531250e-03
9.644375e-10,5.546875e-03
9.684375e-10,5.562500e-03
9.724375e-10,5.562500e-03
9.764375e-10,5.531250e-03
9.804375e-10,5.781250e-03
9.844375e-10,5.437500e-03
9.884375e-10,5.250000e-03
9.924375e-10,5.265625e-03
9.964375e-10,5.468750e-03
1.000437e-09,5.046875e-03
1.004437e-09,4.921875e-03
1.008437e-09,4.781250e-03
1.012437e-09,4.640625e-03
1.016437e-09,4.484375e-03
1.020438e-09,4.625000e-03
1.024438e-09,4.171875e-03
1.028438e-09,3.906250e-03
1.032438e-09,3.875000e-03
1.036438e-09,4.046875e-03
1.040438e-09,3.625000e-03
1.044437e-09,3.531250e-03
1.048437e-09,3.453125e-03
1.052437e-09,3.406250e-03
1.056437e-09,3.375000e-03
1.060437e-09,3.671875e-03
1.064437e-09,3.406250e-03
1.068437e-09,3.375000e-03
1.072437e-09,3.578125e-03
1.076437e-09,4.031250e-03
1.080438e-09,3.906250e-03
1.084438e-09,4.109375e-03
1.088438e-09,4.343750e-03
1.092438e-09,4.625000e-03
1.096438e-09,4.921875e-03
1.100438e-09,5.546875e-03
1.104437e-09,5.593750e-03
1.108437e-09,5.859375e-03
1.112437e-09,6.343750e-03
1.116437e-09,7.031250e-03
1.120437e-09,7.125000e-03
1.124437e-09,7.531250e-03
1.128437e-09,7.906250e-03
1.132437e-09,8.296875e-03
1.136437e-09,8.656250e-03
1.140438e-09,9.296875e-03
1.144438e-09,9.328125e-03
1.148438e-09,9.515625e-03
1.152438e-09,9.875000e-03
1.156438e-09,1.039063e-02
1.160438e-09,1.026563e-02
1.164437e-09,1.040625e-02
1.168437e-09,1.050000e-02
1.172437e-09,1.056250e-02
1.176437e-09,1.056250e-02
1.180437e-09,1.084375e-02
1.184437e-09,1.045313e-02
1.188437e-09,1.023438e-02
1.192437e-09,1.017188e-02
1.196437e-09,1.028125e-02
1.200438e-09,9.750000e-03
1.204438e-09,9.500000e-03
1.208438e-09,9.203125e-03
1.212438e-09,8.906250e-03
1.216438e-09,8.593750e-03
1.220438e-09,8.562500e-03
1.224437e-09,7.937500e-03
1.228437e-09,7.500000e-03
1.232437e-09,7.281250e-03
1.236437e-09,7.265625e-03
1.240437e-09,6.671875e-03
1.244437e-09,6.406250e-03
1.248437e-09,6.156250e-03
1.252437e-09,5.937500e-03
1.256437e-09,5.750000e-03
1.260438e-09,5.906250e-03
1.264438e-09,5.500000e-03
1.268438e-09,5.328125e-03
1.272438e-09,5.406250e-03
1.276438e-09,5.718750e-03
1.280438e-09,5.468750e-03
1.284437e-09,5.578125e-03
1.288437e-09,5.703125e-03
1.292437e-09,5.890625e-03
1.296437e-09,6.093750e-03
1.300437e-09,6.640625e-03
1.304437e-09,6.609375e-03
1.308437e-09,6.796875e-03
1.312437e-09,7.218750e-03
1.316437e-09,7.843750e-03
1.320438e-09,7.875000e-03
1.324438e-09,8.234375e-03
1.328438e-09,8.578125e-03
1.332438e-09,8.921875e-03
1.336438e-09,9.250000e-03
1.340438e-09,9.875000e-03
1.344437e-09,9.875000e-03
1.348437e-09,1.004688e-02
1.352437e-09,1.040625e-02
1.356437e-09,1.093750e-02
1.360437e-09,1.084375e-02
1.364437e-09,1.101563e-02
1.368437e-09,1.114063e-02
1.372437e-09,1.125000e-02
1.376437e-09,1.131250e-02
1.380438e-09,1.165625e-02
1.384438e-09,1.134375e-02
1.388438e-09,1.121875e-02
1.392438e-09,1.125000e-02
1.396438e-09,1.146875e-02
1.400438e-09,1.104688e-02
1.404437e-09,1.090625e-02
1.408437e-09,1.075000e-02
1.412437e-09,1.056250e-02
1.416437e-09,1.037500e-02
1.420437e-09,1.048438e-02
1.424437e-09,9.968750e-03
1.428437e-09,9.656250e-03
1.432437e-09,9.531250e-03
1.436437e-09,9.625000e-03
1.440438e-09,9.093750e-03
1.444438e-09,8.890625e-03
1.448438e-09,8.687500e-03
1.452438e-09,8.500000e-03
1.456438e-09,8.312500e-03
1.460438e-09,8.453125e-03
1.464437e-09,7.984375e-03
1.468437e-09,7.718750e-03
1.472437e-09,7.687500e-03
1.476437e-09,7.843750e-03
1.480437e-09,7.421875e-03
1.484437e-09,7.296875e-03
1.488437e-09,7.187500e-03
1.492437e-09,7.062500e-03
1.496437e-09,6.953125e-03
1.500438e-09,7.140625e-03
1.504438e-09,6.718750e-03
1.508438e-09,6.500000e-03
1.512438e-09,6.484375e-03
1.516438e-09,6.640625e-03
1.520438e-09,6.203125e-03
1.524437e-09,6.046875e-03
1.528437e-09,5.875000e-03
1.532437e-09,5.703125e-03
1.536437e-09,5.515625e-03
1.540437e-09,5.625000e-03
1.544437e-09,5.109375e-03
1.548437e-09,4.796875e-03
1.552437e-09,4.671875e-03
1.556437e-09,4.750000e-03
1.560437e-09,4.218750e-03
1.564438e-09,3.984375e-03
1.568438e-09,3.765625e-03
1.572438e-09,3.531250e-03
1.576438e-09,3.328125e-03
1.580438e-09,3.437500e-03
1.584437e-09,2.937500e-03
1.588437e-09,2.671875e-03
1.592437e-09,2.625000e-03
1.596437e-09,2.812500e-03
1.600437e-09,2.421875e-03
1.604437e-09,2.359375e-03
1.608437e-09,2.343750e-03
1.612437e-09,2.343750e-03
1.616437e-09,2.375000e-03
1.620437e-09,2.750000e-03
1.624438e-09,2.562500e-03
1.628438e-09,2.593750e-03
1.632438e-09,2.875000e-03
1.636438e-09,3.375000e-03
1.640438e-09,3.312500e-03
1.644437e-09,3.578125e-03
1.648437e-09,3.843750e-03
1.652437e-09,4.156250e-03
1.656437e-09,4.468750e-03
1.660437e-09,5.093750e-03
1.664437e-09,5.109375e-03
1.668437e-09,5.328125e-03
1.672437e-09,5.750000e-03
1.676437e-09,6.359375e-03
1.680437e-09,6.343750e-03
1.684438e-09,6.609375e-03
1.688438e-09,6.859375e-03
1.692438e-09,7.062500e-03
1.696438e-09,7.234375e-03
1.700438e-09,7.671875e-03
1.704437e-09,7.468750e-03
1.708437e-09,7.406250e-03
1.712437e-09,7.515625e-03
1.716437e-09,7.781250e-03
1.720437e-09,7.390625e-03
1.724437e-09,7.250000e-03
1.728437e-09,7.062500e-03
1.732437e-09,6.843750e-03
1.736437e-09,6.593750e-03
1.740437e-09,6.593750e-03
1.744438e-09,5.968750e-03
1.748438e-09,5.500000e-03
1.752438e-09,5.234375e-03
