Measurements-streak-laser/Photodiode-on-Tek-6GHz/Tek000_ch1_20190613132707275.csv

Model,MSO64
Waveform Type,ANALOG
Horizontal Units,s
Sample Interval,4.000000e-12
Record Length,1000
Zero Index,310.898438
Vertical Units,V

TIME,CH1
-1.243594e-09,3.562500e-03
-1.239594e-09,3.140625e-03
-1.235594e-09,2.718750e-03
-1.231594e-09,2.625000e-03
-1.227594e-09,1.937500e-03
-1.223594e-09,1.468750e-03
-1.219594e-09,1.234375e-03
-1.215594e-09,1.234375e-03
-1.211594e-09,6.562500e-04
-1.207594e-09,4.218750e-04
-1.203594e-09,2.187500e-04
-1.199594e-09,7.812500e-05
-1.195594e-09,-1.562500e-05
-1.191594e-09,2.343750e-04
-1.187594e-09,-7.812500e-05
-1.183594e-09,-1.250000e-04
-1.179594e-09,7.812500e-05
-1.175594e-09,5.312500e-04
-1.171594e-09,4.218750e-04
-1.167594e-09,6.718750e-04
-1.163594e-09,9.687500e-04
-1.159594e-09,1.296875e-03
-1.155594e-09,1.656250e-03
-1.151594e-09,2.359375e-03
-1.147594e-09,2.484375e-03
-1.143594e-09,2.828125e-03
-1.139594e-09,3.406250e-03
-1.135594e-09,4.171875e-03
-1.131594e-09,4.343750e-03
-1.127594e-09,4.812500e-03
-1.123594e-09,5.281250e-03
-1.119594e-09,5.718750e-03
-1.115594e-09,6.125000e-03
-1.111594e-09,6.828125e-03
-1.107594e-09,6.875000e-03
-1.103594e-09,7.078125e-03
-1.099594e-09,7.453125e-03
-1.095594e-09,7.968750e-03
-1.091594e-09,7.843750e-03
-1.087594e-09,7.953125e-03
-1.083594e-09,8.031250e-03
-1.079594e-09,8.031250e-03
-1.075594e-09,8.000000e-03
-1.071594e-09,8.203125e-03
-1.067594e-09,7.765625e-03
-1.063594e-09,7.468750e-03
-1.059594e-09,7.343750e-03
-1.055594e-09,7.390625e-03
-1.051594e-09,6.796875e-03
-1.047594e-09,6.484375e-03
-1.043594e-09,6.156250e-03
-1.039594e-09,5.812500e-03
-1.035594e-09,5.453125e-03
-1.031594e-09,5.406250e-03
-1.027594e-09,4.765625e-03
-1.023594e-09,4.343750e-03
-1.019594e-09,4.140625e-03
-1.015594e-09,4.171875e-03
-1.011594e-09,3.609375e-03
-1.007594e-09,3.406250e-03
-1.003594e-09,3.218750e-03
-9.995938e-10,3.093750e-03
-9.955938e-10,3.000000e-03
-9.915938e-10,3.250000e-03
-9.875938e-10,2.937500e-03
-9.835938e-10,2.859375e-03
-9.795937e-10,3.031250e-03
-9.755937e-10,3.437500e-03
-9.715937e-10,3.265625e-03
-9.675937e-10,3.437500e-03
-9.635937e-10,3.625000e-03
-9.595937e-10,3.828125e-03
-9.555937e-10,4.031250e-03
-9.515937e-10,4.562500e-03
-9.475937e-10,4.484375e-03
-9.435938e-10,4.593750e-03
-9.395938e-10,4.906250e-03
-9.355938e-10,5.406250e-03
-9.315938e-10,5.281250e-03
-9.275937e-10,5.421875e-03
-9.235937e-10,5.546875e-03
-9.195937e-10,5.640625e-03
-9.155937e-10,5.703125e-03
-9.115938e-10,6.046875e-03
-9.075938e-10,5.750000e-03
-9.035937e-10,5.609375e-03
-8.995937e-10,5.656250e-03
-8.955937e-10,5.875000e-03
-8.915937e-10,5.453125e-03
-8.875937e-10,5.312500e-03
-8.835938e-10,5.171875e-03
-8.795938e-10,5.000000e-03
-8.755938e-10,4.828125e-03
-8.715937e-10,4.968750e-03
-8.675937e-10,4.484375e-03
-8.635937e-10,4.218750e-03
-8.595937e-10,4.156250e-03
-8.555937e-10,4.312500e-03
-8.515938e-10,3.875000e-03
-8.475938e-10,3.781250e-03
-8.435937e-10,3.687500e-03
-8.395937e-10,3.625000e-03
-8.355937e-10,3.593750e-03
-8.315937e-10,3.906250e-03
-8.275937e-10,3.609375e-03
-8.235938e-10,3.562500e-03
-8.195938e-10,3.734375e-03
-8.155938e-10,4.125000e-03
-8.115937e-10,3.921875e-03
-8.075937e-10,4.046875e-03
-8.035937e-10,4.187500e-03
-7.995937e-10,4.328125e-03
-7.955937e-10,4.468750e-03
-7.915938e-10,4.906250e-03
-7.875938e-10,4.734375e-03
-7.835937e-10,4.765625e-03
-7.795937e-10,4.968750e-03
-7.755937e-10,5.359375e-03
-7.715937e-10,5.125000e-03
-7.675937e-10,5.171875e-03
-7.635938e-10,5.187500e-03
-7.595938e-10,5.187500e-03
-7.555938e-10,5.140625e-03
-7.515937e-10,5.390625e-03
-7.475937e-10,4.984375e-03
-7.435937e-10,4.765625e-03
-7.395937e-10,4.734375e-03
-7.355937e-10,4.875000e-03
-7.315938e-10,4.390625e-03
-7.275938e-10,4.203125e-03
-7.235937e-10,4.000000e-03
-7.195937e-10,3.781250e-03
-7.155937e-10,3.578125e-03
-7.115937e-10,3.687500e-03
-7.075937e-10,3.171875e-03
-7.035938e-10,2.890625e-03
-6.995938e-10,2.828125e-03
-6.955938e-10,2.984375e-03
-6.915937e-10,2.546875e-03
-6.875937e-10,2.437500e-03
-6.835937e-10,2.375000e-03
-6.795937e-10,2.312500e-03
-6.755937e-10,2.281250e-03
-6.715938e-10,2.593750e-03
-6.675938e-10,2.296875e-03
-6.635938e-10,2.234375e-03
-6.595937e-10,2.406250e-03
-6.555937e-10,2.781250e-03
-6.515937e-10,2.546875e-03
-6.475937e-10,2.640625e-03
-6.435938e-10,2.734375e-03
-6.395938e-10,2.812500e-03
-6.355938e-10,2.890625e-03
-6.315937e-10,3.250000e-03
-6.275937e-10,2.984375e-03
-6.235937e-10,2.906250e-03
-6.195937e-10,3.000000e-03
-6.155937e-10,3.281250e-03
-6.115938e-10,2.906250e-03
-6.075938e-10,2.812500e-03
-6.035938e-10,2.687500e-03
-5.995937e-10,2.531250e-03
-5.955937e-10,2.343750e-03
-5.915937e-10,2.437500e-03
-5.875937e-10,1.906250e-03
-5.835938e-10,1.531250e-03
-5.795938e-10,1.375000e-03
-5.755938e-10,1.390625e-03
-5.715937e-10,8.125000e-04
-5.675937e-10,5.312500e-04
-5.635937e-10,2.500000e-04
-5.595937e-10,5.551115e-17
-5.555937e-10,-2.187500e-04
-5.515938e-10,-1.093750e-04
-5.475938e-10,-5.781250e-04
-5.435938e-10,-7.968750e-04
-5.395937e-10,-7.656250e-04
-5.355937e-10,-4.687500e-04
-5.315937e-10,-7.187500e-04
-5.275937e-10,-6.250000e-04
-5.235938e-10,-4.687500e-04
-5.195938e-10,-2.500000e-04
-5.155938e-10,3.125000e-05
-5.115937e-10,6.718750e-04
-5.075937e-10,7.500000e-04
-5.035937e-10,1.093750e-03
-4.995937e-10,1.671875e-03
-4.955937e-10,2.484375e-03
-4.915938e-10,2.718750e-03
-4.875938e-10,3.281250e-03
-4.835938e-10,3.828125e-03
-4.795937e-10,4.390625e-03
-4.755937e-10,4.937500e-03
-4.715937e-10,5.765625e-03
-4.675937e-10,5.937500e-03
-4.635938e-10,6.296875e-03
-4.595937e-10,6.796875e-03
-4.555937e-10,7.437500e-03
-4.515937e-10,7.406250e-03
-4.475938e-10,7.609375e-03
-4.435937e-10,7.718750e-03
-4.395937e-10,7.765625e-03
-4.355937e-10,7.718750e-03
-4.315938e-10,7.890625e-03
-4.275937e-10,7.359375e-03
-4.235937e-10,6.968750e-03
-4.195938e-10,6.703125e-03
-4.155938e-10,6.562500e-03
-4.115937e-10,5.765625e-03
-4.075937e-10,5.218750e-03
-4.035938e-10,4.593750e-03
-3.995937e-10,3.953125e-03
-3.955937e-10,3.281250e-03
-3.915937e-10,2.906250e-03
-3.875938e-10,1.921875e-03
-3.835937e-10,1.140625e-03
-3.795937e-10,6.093750e-04
-3.755937e-10,3.125000e-04
-3.715938e-10,-5.312500e-04
-3.675937e-10,-1.015625e-03
-3.635937e-10,-1.453125e-03
-3.595938e-10,-1.812500e-03
-3.555938e-10,-2.078125e-03
-3.515937e-10,-1.953125e-03
-3.475937e-10,-2.343750e-03
-3.435938e-10,-2.421875e-03
-3.395937e-10,-2.187500e-03
-3.355937e-10,-1.671875e-03
-3.315937e-10,-1.625000e-03
-3.275938e-10,-1.203125e-03
-3.235937e-10,-7.187500e-04
-3.195937e-10,-1.718750e-04
-3.155937e-10,4.843750e-04
-3.115938e-10,1.500000e-03
-3.075937e-10,1.953125e-03
-3.035937e-10,2.656250e-03
-2.995938e-10,3.593750e-03
-2.955938e-10,4.750000e-03
-2.915937e-10,5.312500e-03
-2.875937e-10,6.171875e-03
-2.835938e-10,6.968750e-03
-2.795938e-10,7.734375e-03
-2.755937e-10,8.484375e-03
-2.715937e-10,9.468750e-03
-2.675938e-10,9.796875e-03
-2.635937e-10,1.025000e-02
-2.595937e-10,1.084375e-02
-2.555937e-10,1.153125e-02
-2.515938e-10,1.156250e-02
-2.475937e-10,1.179688e-02
-2.435937e-10,1.190625e-02
-2.395938e-10,1.192188e-02
-2.355938e-10,1.190625e-02
-2.315938e-10,1.206250e-02
-2.275937e-10,1.159375e-02
-2.235938e-10,1.121875e-02
-2.195937e-10,1.100000e-02
-2.155938e-10,1.092188e-02
-2.115937e-10,1.021875e-02
-2.075937e-10,9.765625e-03
-2.035937e-10,9.281250e-03
-1.995937e-10,8.765625e-03
-1.955937e-10,8.312500e-03
-1.915937e-10,8.125000e-03
-1.875938e-10,7.406250e-03
-1.835937e-10,6.890625e-03
-1.795938e-10,6.625000e-03
-1.755937e-10,6.609375e-03
-1.715938e-10,6.062500e-03
-1.675937e-10,5.890625e-03
-1.635938e-10,5.765625e-03
-1.595937e-10,5.703125e-03
-1.555938e-10,5.781250e-03
-1.515937e-10,6.187500e-03
-1.475937e-10,6.156250e-03
-1.435937e-10,6.375000e-03
-1.395937e-10,6.859375e-03
-1.355938e-10,7.656250e-03
-1.315937e-10,7.937500e-03
-1.275938e-10,8.593750e-03
-1.235937e-10,9.296875e-03
-1.195938e-10,1.006250e-02
-1.155937e-10,1.093750e-02
-1.115937e-10,1.214063e-02
-1.075937e-10,1.285938e-02
-1.035937e-10,1.378125e-02
-9.959375e-11,1.492188e-02
-9.559375e-11,1.632813e-02
-9.159375e-11,1.715625e-02
-8.759375e-11,1.831250e-02
-8.359375e-11,1.946875e-02
-7.959375e-11,2.064063e-02
-7.559375e-11,2.184375e-02
-7.159375e-11,2.332813e-02
-6.759375e-11,2.431250e-02
-6.359375e-11,2.543750e-02
-5.959375e-11,2.675000e-02
-5.559375e-11,2.829688e-02
-5.159375e-11,2.928125e-02
-4.759375e-11,3.053125e-02
-4.359375e-11,3.179688e-02
-3.959375e-11,3.307813e-02
-3.559375e-11,3.439063e-02
-3.159375e-11,3.603125e-02
-2.759375e-11,3.715625e-02
-2.359375e-11,3.846875e-02
-1.959375e-11,4.000000e-02
-1.559375e-11,4.179688e-02
-1.159375e-11,4.307813e-02
-7.593750e-12,4.467188e-02
-3.593750e-12,4.632813e-02
4.062500e-13,4.804688e-02
4.406250e-12,4.984375e-02
8.406250e-12,5.201563e-02
1.240625e-11,5.371875e-02
1.640625e-11,5.567188e-02
2.040625e-11,5.785938e-02
2.440625e-11,6.032813e-02
2.840625e-11,6.235938e-02
3.240625e-11,6.468750e-02
3.640625e-11,6.710938e-02
4.040625e-11,6.960938e-02
4.440625e-11,7.217188e-02
4.840625e-11,7.510938e-02
5.240625e-11,7.757813e-02
5.640625e-11,8.026563e-02
6.040625e-11,8.314063e-02
6.440625e-11,8.625000e-02
6.840625e-11,8.889063e-02
7.240625e-11,9.176563e-02
7.640625e-11,9.465625e-02
8.040625e-11,9.756250e-02
8.440625e-11,1.004531e-01
8.840625e-11,1.036094e-01
9.240625e-11,1.062031e-01
9.640625e-11,1.089219e-01
1.004062e-10,1.117188e-01
1.044062e-10,1.146406e-01
1.084062e-10,1.169844e-01
1.124062e-10,1.194688e-01
1.164062e-10,1.218438e-01
1.204062e-10,1.241094e-01
1.244063e-10,1.262500e-01
1.284062e-10,1.285313e-01
1.324063e-10,1.301563e-01
1.364062e-10,1.317969e-01
1.404063e-10,1.334219e-01
1.444062e-10,1.350625e-01
1.484063e-10,1.360156e-01
1.524062e-10,1.370469e-01
1.564062e-10,1.379063e-01
1.604062e-10,1.385781e-01
1.644062e-10,1.390781e-01
1.684062e-10,1.396406e-01
1.724062e-10,1.395313e-01
1.764063e-10,1.393906e-01
1.804062e-10,1.392344e-01
1.844063e-10,1.390625e-01
1.884062e-10,1.382188e-01
1.924063e-10,1.374844e-01
1.964062e-10,1.365781e-01
2.004063e-10,1.355313e-01
2.044062e-10,1.343438e-01
2.084063e-10,1.332656e-01
2.124062e-10,1.315781e-01
2.164062e-10,1.299531e-01
2.204062e-10,1.283750e-01
2.244062e-10,1.268906e-01
2.284062e-10,1.247969e-01
2.324062e-10,1.229375e-01
2.364063e-10,1.210000e-01
2.404062e-10,1.190313e-01
2.444062e-10,1.170313e-01
2.484063e-10,1.152656e-01
2.524063e-10,1.129844e-01
2.564062e-10,1.108750e-01
2.604062e-10,1.089219e-01
2.644063e-10,1.071719e-01
2.684063e-10,1.049219e-01
2.724062e-10,1.030000e-01
2.764062e-10,1.010781e-01
2.804063e-10,9.923438e-02
2.844062e-10,9.742188e-02
2.884062e-10,9.589063e-02
2.924062e-10,9.390625e-02
2.964063e-10,9.217188e-02
3.004062e-10,9.062500e-02
3.044062e-10,8.929688e-02
3.084063e-10,8.748438e-02
3.124063e-10,8.600000e-02
3.164062e-10,8.454688e-02
3.204062e-10,8.314063e-02
3.244063e-10,8.176563e-02
3.284063e-10,8.064063e-02
3.324062e-10,7.901563e-02
3.364062e-10,7.759375e-02
3.404063e-10,7.632813e-02
3.444062e-10,7.523438e-02
3.484062e-10,7.359375e-02
3.524062e-10,7.223438e-02
3.564063e-10,7.085938e-02
3.604062e-10,6.945313e-02
3.644062e-10,6.804688e-02
3.684063e-10,6.684375e-02
3.724063e-10,6.507813e-02
3.764062e-10,6.348438e-02
3.804062e-10,6.201563e-02
3.844063e-10,6.067188e-02
3.884062e-10,5.878125e-02
3.924062e-10,5.715625e-02
3.964062e-10,5.550000e-02
4.004063e-10,5.384375e-02
4.044062e-10,5.217188e-02
4.084062e-10,5.075000e-02
4.124062e-10,4.878125e-02
4.164063e-10,4.703125e-02
4.204062e-10,4.545313e-02
4.244062e-10,4.406250e-02
4.284063e-10,4.220313e-02
4.324063e-10,4.064063e-02
4.364062e-10,3.914063e-02
4.404062e-10,3.770313e-02
4.444063e-10,3.632813e-02
4.484062e-10,3.528125e-02
4.524062e-10,3.375000e-02
4.564062e-10,3.250000e-02
4.604063e-10,3.151563e-02
4.644062e-10,3.075000e-02
4.684062e-10,2.957813e-02
4.724062e-10,2.875000e-02
4.764062e-10,2.803125e-02
4.804062e-10,2.739063e-02
4.844063e-10,2.682813e-02
4.884063e-10,2.662500e-02
4.924063e-10,2.590625e-02
4.964062e-10,2.546875e-02
5.004062e-10,2.526563e-02
5.044062e-10,2.528125e-02
5.084062e-10,2.479688e-02
5.124063e-10,2.462500e-02
5.164063e-10,2.450000e-02
5.204063e-10,2.439063e-02
5.244062e-10,2.426563e-02
5.284062e-10,2.442188e-02
5.324062e-10,2.400000e-02
5.364062e-10,2.375000e-02
5.404062e-10,2.367188e-02
5.444063e-10,2.370313e-02
5.484063e-10,2.317188e-02
5.524063e-10,2.285938e-02
5.564062e-10,2.254688e-02
5.604062e-10,2.215625e-02
5.644062e-10,2.168750e-02
5.684062e-10,2.145313e-02
5.724063e-10,2.059375e-02
5.764063e-10,1.987500e-02
5.804063e-10,1.931250e-02
5.844062e-10,1.887500e-02
5.884062e-10,1.784375e-02
5.924062e-10,1.704688e-02
5.964062e-10,1.626563e-02
6.004062e-10,1.545313e-02
6.044063e-10,1.459375e-02
6.084063e-10,1.401563e-02
6.124063e-10,1.285938e-02
6.164062e-10,1.190625e-02
6.204062e-10,1.118750e-02
6.244062e-10,1.067188e-02
6.284062e-10,9.609375e-03
6.324063e-10,8.859375e-03
6.364063e-10,8.187500e-03
6.404063e-10,7.562500e-03
6.444062e-10,6.953125e-03
6.484062e-10,6.687500e-03
6.524062e-10,5.906250e-03
6.564062e-10,5.359375e-03
6.604062e-10,5.093750e-03
6.644063e-10,5.062500e-03
6.684063e-10,4.515625e-03
6.724063e-10,4.296875e-03
6.764062e-10,4.156250e-03
6.804062e-10,4.078125e-03
6.844062e-10,3.984375e-03
6.884062e-10,4.250000e-03
6.924063e-10,3.937500e-03
6.964063e-10,3.875000e-03
7.004063e-10,4.031250e-03
7.044062e-10,4.406250e-03
7.084062e-10,4.187500e-03
7.124062e-10,4.281250e-03
7.164062e-10,4.406250e-03
7.204062e-10,4.531250e-03
7.244063e-10,4.609375e-03
7.284063e-10,5.000000e-03
7.324063e-10,4.781250e-03
7.364062e-10,4.765625e-03
7.404062e-10,4.937500e-03
7.444062e-10,5.312500e-03
7.484062e-10,5.078125e-03
7.524063e-10,5.125000e-03
7.564063e-10,5.187500e-03
7.604063e-10,5.250000e-03
7.644062e-10,5.281250e-03
7.684062e-10,5.625000e-03
7.724062e-10,5.375000e-03
7.764062e-10,5.328125e-03
7.804062e-10,5.500000e-03
7.844063e-10,5.890625e-03
7.884063e-10,5.687500e-03
7.924063e-10,5.812500e-03
7.964062e-10,5.953125e-03
8.004062e-10,6.109375e-03
8.044062e-10,6.281250e-03
8.084062e-10,6.765625e-03
8.124063e-10,6.687500e-03
8.164063e-10,6.812500e-03
8.204063e-10,7.171875e-03
8.244062e-10,7.750000e-03
8.284062e-10,7.734375e-03
8.324062e-10,8.015625e-03
8.364062e-10,8.312500e-03
8.404062e-10,8.625000e-03
8.444063e-10,8.921875e-03
8.484063e-10,9.500000e-03
8.524063e-10,9.468750e-03
8.564062e-10,9.625000e-03
8.604062e-10,9.984375e-03
8.644062e-10,1.050000e-02
8.684062e-10,1.039063e-02
8.724062e-10,1.054688e-02
8.764063e-10,1.068750e-02
8.804063e-10,1.078125e-02
8.844062e-10,1.082813e-02
8.884062e-10,1.114063e-02
8.924062e-10,1.082813e-02
8.964062e-10,1.067188e-02
9.004062e-10,1.068750e-02
9.044063e-10,1.085938e-02
9.084063e-10,1.040625e-02
9.124062e-10,1.023438e-02
9.164062e-10,1.003125e-02
9.204062e-10,9.828125e-03
9.244062e-10,9.593750e-03
9.284062e-10,9.656250e-03
9.324062e-10,9.109375e-03
9.364062e-10,8.750000e-03
9.404062e-10,8.625000e-03
9.444062e-10,8.703125e-03
9.484063e-10,8.187500e-03
9.524063e-10,7.984375e-03
9.564063e-10,7.812500e-03
9.604063e-10,7.671875e-03
9.644063e-10,7.562500e-03
9.684063e-10,7.765625e-03
9.724062e-10,7.390625e-03
9.764062e-10,7.265625e-03
9.804062e-10,7.359375e-03
9.844062e-10,7.671875e-03
9.884062e-10,7.406250e-03
9.924062e-10,7.468750e-03
9.964062e-10,7.562500e-03
1.000406e-09,7.656250e-03
1.004406e-09,7.750000e-03
1.008406e-09,8.140625e-03
1.012406e-09,7.937500e-03
1.016406e-09,7.921875e-03
1.020406e-09,8.109375e-03
1.024406e-09,8.468750e-03
1.028406e-09,8.187500e-03
1.032406e-09,8.203125e-03
1.036406e-09,8.171875e-03
1.040406e-09,8.125000e-03
1.044406e-09,8.031250e-03
1.048406e-09,8.187500e-03
1.052406e-09,7.718750e-03
1.056406e-09,7.406250e-03
1.060406e-09,7.265625e-03
1.064406e-09,7.296875e-03
1.068406e-09,6.687500e-03
1.072406e-09,6.343750e-03
1.076406e-09,5.984375e-03
1.080406e-09,5.625000e-03
1.084406e-09,5.250000e-03
1.088406e-09,5.171875e-03
1.092406e-09,4.484375e-03
1.096406e-09,4.015625e-03
1.100406e-09,3.781250e-03
1.104406e-09,3.765625e-03
1.108406e-09,3.187500e-03
1.112406e-09,2.953125e-03
1.116406e-09,2.750000e-03
1.120406e-09,2.625000e-03
1.124406e-09,2.546875e-03
1.128406e-09,2.828125e-03
1.132406e-09,2.562500e-03
1.136406e-09,2.578125e-03
1.140406e-09,2.859375e-03
1.144406e-09,3.406250e-03
1.148406e-09,3.406250e-03
1.152406e-09,3.781250e-03
1.156406e-09,4.187500e-03
1.160406e-09,4.656250e-03
1.164406e-09,5.171875e-03
1.168406e-09,6.015625e-03
1.172406e-09,6.281250e-03
1.176406e-09,6.781250e-03
1.180406e-09,7.468750e-03
1.184406e-09,8.359375e-03
1.188406e-09,8.625000e-03
1.192406e-09,9.171875e-03
1.196406e-09,9.703125e-03
1.200406e-09,1.017188e-02
1.204406e-09,1.059375e-02
1.208406e-09,1.126563e-02
1.212406e-09,1.125000e-02
1.216406e-09,1.137500e-02
1.220406e-09,1.162500e-02
1.224406e-09,1.200000e-02
1.228406e-09,1.167188e-02
1.232406e-09,1.157813e-02
1.236406e-09,1.140625e-02
1.240406e-09,1.114063e-02
1.244406e-09,1.081250e-02
1.248406e-09,1.070313e-02
1.252406e-09,9.937500e-03
1.256406e-09,9.312500e-03
1.260406e-09,8.859375e-03
1.264406e-09,8.546875e-03
1.268406e-09,7.625000e-03
1.272406e-09,6.968750e-03
1.276406e-09,6.328125e-03
1.280406e-09,5.687500e-03
1.284406e-09,5.046875e-03
1.288406e-09,4.750000e-03
1.292406e-09,3.890625e-03
1.296406e-09,3.281250e-03
1.300406e-09,2.921875e-03
1.304406e-09,2.843750e-03
1.308406e-09,2.218750e-03
1.312406e-09,1.984375e-03
1.316406e-09,1.812500e-03
1.320406e-09,1.734375e-03
1.324406e-09,1.750000e-03
1.328406e-09,2.125000e-03
1.332406e-09,2.000000e-03
1.336406e-09,2.140625e-03
1.340406e-09,2.546875e-03
1.344406e-09,3.234375e-03
1.348406e-09,3.375000e-03
1.352406e-09,3.859375e-03
1.356406e-09,4.390625e-03
1.360406e-09,4.937500e-03
1.364406e-09,5.515625e-03
1.368406e-09,6.406250e-03
1.372406e-09,6.671875e-03
1.376406e-09,7.140625e-03
1.380406e-09,7.781250e-03
1.384406e-09,8.593750e-03
1.388406e-09,8.734375e-03
1.392406e-09,9.140625e-03
1.396406e-09,9.484375e-03
1.400406e-09,9.765625e-03
1.404406e-09,9.968750e-03
1.408406e-09,1.040625e-02
1.412406e-09,1.014063e-02
1.416406e-09,1.000000e-02
1.420406e-09,1.000000e-02
1.424406e-09,1.010938e-02
1.428406e-09,9.531250e-03
1.432406e-09,9.203125e-03
1.436406e-09,8.812500e-03
1.440406e-09,8.343750e-03
1.444406e-09,7.843750e-03
1.448406e-09,7.593750e-03
1.452406e-09,6.718750e-03
1.456406e-09,6.015625e-03
1.460406e-09,5.515625e-03
1.464406e-09,5.203125e-03
1.468406e-09,4.296875e-03
1.472406e-09,3.703125e-03
1.476406e-09,3.156250e-03
1.480406e-09,2.625000e-03
1.484406e-09,2.140625e-03
1.488406e-09,2.015625e-03
1.492406e-09,1.343750e-03
1.496406e-09,9.218750e-04
1.500406e-09,7.812500e-04
1.504406e-09,9.062500e-04
1.508406e-09,4.843750e-04
1.512406e-09,4.375000e-04
1.516406e-09,4.531250e-04
1.520406e-09,5.468750e-04
1.524406e-09,6.875000e-04
1.528406e-09,1.203125e-03
1.532406e-09,1.156250e-03
1.536406e-09,1.359375e-03
1.540406e-09,1.812500e-03
1.544406e-09,2.484375e-03
1.548406e-09,2.593750e-03
1.552406e-09,3.015625e-03
1.556406e-09,3.453125e-03
1.560406e-09,3.890625e-03
1.564406e-09,4.328125e-03
1.568406e-09,5.046875e-03
1.572406e-09,5.156250e-03
1.576406e-09,5.437500e-03
1.580406e-09,5.890625e-03
1.584406e-09,6.531250e-03
1.588406e-09,6.515625e-03
1.592406e-09,6.765625e-03
1.596406e-09,6.968750e-03
1.600406e-09,7.140625e-03
1.604406e-09,7.265625e-03
1.608406e-09,7.656250e-03
1.612406e-09,7.406250e-03
1.616406e-09,7.312500e-03
1.620406e-09,7.390625e-03
1.624406e-09,7.640625e-03
1.628406e-09,7.250000e-03
1.632406e-09,7.156250e-03
1.636406e-09,7.031250e-03
1.640406e-09,6.890625e-03
1.644406e-09,6.734375e-03
1.648406e-09,6.890625e-03
1.652406e-09,6.421875e-03
1.656406e-09,6.171875e-03
1.660406e-09,6.125000e-03
1.664406e-09,6.281250e-03
1.668406e-09,5.843750e-03
1.672406e-09,5.734375e-03
1.676406e-09,5.625000e-03
1.680406e-09,5.546875e-03
1.684406e-09,5.484375e-03
1.688406e-09,5.750000e-03
1.692406e-09,5.406250e-03
1.696406e-09,5.296875e-03
1.700406e-09,5.406250e-03
1.704406e-09,5.718750e-03
1.708406e-09,5.453125e-03
1.712406e-09,5.484375e-03
1.716406e-09,5.531250e-03
1.720406e-09,5.593750e-03
1.724406e-09,5.656250e-03
1.728406e-09,6.015625e-03
1.732406e-09,5.765625e-03
1.736406e-09,5.718750e-03
1.740406e-09,5.875000e-03
1.744406e-09,6.218750e-03
1.748406e-09,5.937500e-03
1.752406e-09,5.968750e-03
