Measurements-streak-laser/Photodiode-on-Tek-6GHz/Tek000_ch1_20190613132715499.csv

Model,MSO64
Waveform Type,ANALOG
Horizontal Units,s
Sample Interval,4.000000e-12
Record Length,1000
Zero Index,310.328125
Vertical Units,V

TIME,CH1
-1.241312e-09,1.671875e-03
-1.237312e-09,1.843750e-03
-1.233312e-09,1.468750e-03
-1.229312e-09,1.421875e-03
-1.225312e-09,1.421875e-03
-1.221312e-09,1.468750e-03
-1.217312e-09,1.546875e-03
-1.213312e-09,1.984375e-03
-1.209313e-09,1.828125e-03
-1.205313e-09,1.906250e-03
-1.201313e-09,2.218750e-03
-1.197313e-09,2.765625e-03
-1.193313e-09,2.703125e-03
-1.189313e-09,2.984375e-03
-1.185312e-09,3.250000e-03
-1.181312e-09,3.546875e-03
-1.177312e-09,3.828125e-03
-1.173312e-09,4.437500e-03
-1.169312e-09,4.406250e-03
-1.165312e-09,4.578125e-03
-1.161312e-09,4.937500e-03
-1.157312e-09,5.500000e-03
-1.153312e-09,5.421875e-03
-1.149313e-09,5.625000e-03
-1.145313e-09,5.812500e-03
-1.141313e-09,5.984375e-03
-1.137313e-09,6.125000e-03
-1.133313e-09,6.546875e-03
-1.129313e-09,6.328125e-03
-1.125312e-09,6.296875e-03
-1.121312e-09,6.437500e-03
-1.117312e-09,6.750000e-03
-1.113312e-09,6.421875e-03
-1.109312e-09,6.390625e-03
-1.105312e-09,6.328125e-03
-1.101312e-09,6.234375e-03
-1.097312e-09,6.125000e-03
-1.093312e-09,6.296875e-03
-1.089313e-09,5.843750e-03
-1.085313e-09,5.578125e-03
-1.081313e-09,5.500000e-03
-1.077313e-09,5.609375e-03
-1.073313e-09,5.078125e-03
-1.069313e-09,4.859375e-03
-1.065312e-09,4.625000e-03
-1.061312e-09,4.375000e-03
-1.057312e-09,4.109375e-03
-1.053312e-09,4.140625e-03
-1.049312e-09,3.578125e-03
-1.045312e-09,3.187500e-03
-1.041312e-09,3.015625e-03
-1.037312e-09,3.046875e-03
-1.033312e-09,2.453125e-03
-1.029313e-09,2.187500e-03
-1.025313e-09,1.921875e-03
-1.021313e-09,1.656250e-03
-1.017313e-09,1.406250e-03
-1.013313e-09,1.453125e-03
-1.009313e-09,9.218750e-04
-1.005312e-09,6.093750e-04
-1.001312e-09,5.156250e-04
-9.973125e-10,6.406250e-04
-9.933125e-10,1.875000e-04
-9.893125e-10,4.687500e-05
-9.853125e-10,-6.250000e-05
-9.813125e-10,-1.406250e-04
-9.773125e-10,-1.875000e-04
-9.733125e-10,9.375000e-05
-9.693125e-10,-2.187500e-04
-9.653125e-10,-2.812500e-04
-9.613125e-10,-1.093750e-04
-9.573125e-10,2.812500e-04
-9.533125e-10,9.375000e-05
-9.493125e-10,2.500000e-04
-9.453125e-10,4.218750e-04
-9.413125e-10,6.093750e-04
-9.373125e-10,8.281250e-04
-9.333125e-10,1.359375e-03
-9.293125e-10,1.296875e-03
-9.253125e-10,1.453125e-03
-9.213125e-10,1.828125e-03
-9.173125e-10,2.390625e-03
-9.133125e-10,2.359375e-03
-9.093125e-10,2.625000e-03
-9.053125e-10,2.875000e-03
-9.013125e-10,3.125000e-03
-8.973125e-10,3.359375e-03
-8.933125e-10,3.875000e-03
-8.893125e-10,3.765625e-03
-8.853125e-10,3.828125e-03
-8.813125e-10,4.078125e-03
-8.773125e-10,4.500000e-03
-8.733125e-10,4.281250e-03
-8.693125e-10,4.343750e-03
-8.653125e-10,4.359375e-03
-8.613125e-10,4.375000e-03
-8.573125e-10,4.343750e-03
-8.533125e-10,4.609375e-03
-8.493125e-10,4.218750e-03
-8.453125e-10,4.031250e-03
-8.413125e-10,4.031250e-03
-8.373125e-10,4.218750e-03
-8.333125e-10,3.781250e-03
-8.293125e-10,3.640625e-03
-8.253125e-10,3.500000e-03
-8.213125e-10,3.375000e-03
-8.173125e-10,3.250000e-03
-8.133125e-10,3.437500e-03
-8.093125e-10,3.046875e-03
-8.053125e-10,2.859375e-03
-8.013125e-10,2.906250e-03
-7.973125e-10,3.187500e-03
-7.933125e-10,2.875000e-03
-7.893125e-10,2.906250e-03
-7.853125e-10,2.953125e-03
-7.813125e-10,3.046875e-03
-7.773125e-10,3.171875e-03
-7.733125e-10,3.625000e-03
-7.693125e-10,3.500000e-03
-7.653125e-10,3.609375e-03
-7.613125e-10,3.937500e-03
-7.573125e-10,4.484375e-03
-7.533125e-10,4.453125e-03
-7.493125e-10,4.750000e-03
-7.453125e-10,5.031250e-03
-7.413125e-10,5.343750e-03
-7.373125e-10,5.640625e-03
-7.333125e-10,6.250000e-03
-7.293125e-10,6.234375e-03
-7.253125e-10,6.406250e-03
-7.213125e-10,6.781250e-03
-7.173125e-10,7.328125e-03
-7.133125e-10,7.234375e-03
-7.093125e-10,7.421875e-03
-7.053125e-10,7.593750e-03
-7.013125e-10,7.718750e-03
-6.973125e-10,7.812500e-03
-6.933125e-10,8.171875e-03
-6.893125e-10,7.890625e-03
-6.853125e-10,7.781250e-03
-6.813125e-10,7.843750e-03
-6.773125e-10,8.078125e-03
-6.733125e-10,7.656250e-03
-6.693125e-10,7.531250e-03
-6.653125e-10,7.375000e-03
-6.613125e-10,7.187500e-03
-6.573125e-10,6.984375e-03
-6.533125e-10,7.078125e-03
-6.493125e-10,6.546875e-03
-6.453125e-10,6.203125e-03
-6.413125e-10,6.078125e-03
-6.373125e-10,6.140625e-03
-6.333125e-10,5.609375e-03
-6.293125e-10,5.375000e-03
-6.253125e-10,5.171875e-03
-6.213125e-10,4.968750e-03
-6.173125e-10,4.781250e-03
-6.133125e-10,4.906250e-03
-6.093125e-10,4.453125e-03
-6.053125e-10,4.218750e-03
-6.013125e-10,4.203125e-03
-5.973125e-10,4.406250e-03
-5.933125e-10,4.015625e-03
-5.893125e-10,3.953125e-03
-5.853125e-10,3.890625e-03
-5.813125e-10,3.859375e-03
-5.773125e-10,3.828125e-03
-5.733125e-10,4.109375e-03
-5.693125e-10,3.781250e-03
-5.653125e-10,3.671875e-03
-5.613125e-10,3.765625e-03
-5.573125e-10,4.046875e-03
-5.533125e-10,3.718750e-03
-5.493125e-10,3.703125e-03
-5.453125e-10,3.656250e-03
-5.413125e-10,3.625000e-03
-5.373125e-10,3.562500e-03
-5.333125e-10,3.796875e-03
-5.293125e-10,3.421875e-03
-5.253125e-10,3.234375e-03
-5.213125e-10,3.234375e-03
-5.173125e-10,3.437500e-03
-5.133125e-10,3.015625e-03
-5.093125e-10,2.890625e-03
-5.053125e-10,2.750000e-03
-5.013125e-10,2.625000e-03
-4.973125e-10,2.484375e-03
-4.933125e-10,2.656250e-03
-4.893125e-10,2.234375e-03
-4.853125e-10,2.015625e-03
-4.813125e-10,2.000000e-03
-4.773125e-10,2.218750e-03
-4.733125e-10,1.843750e-03
-4.693125e-10,1.781250e-03
-4.653125e-10,1.718750e-03
-4.613125e-10,1.687500e-03
-4.573125e-10,1.671875e-03
-4.533125e-10,2.000000e-03
-4.493125e-10,1.718750e-03
-4.453125e-10,1.656250e-03
-4.413125e-10,1.828125e-03
-4.373125e-10,2.218750e-03
-4.333125e-10,2.031250e-03
-4.293125e-10,2.140625e-03
-4.253125e-10,2.250000e-03
-4.213125e-10,2.375000e-03
-4.173125e-10,2.500000e-03
-4.133125e-10,2.953125e-03
-4.093125e-10,2.781250e-03
-4.053125e-10,2.812500e-03
-4.013125e-10,3.046875e-03
-3.973125e-10,3.468750e-03
-3.933125e-10,3.296875e-03
-3.893125e-10,3.421875e-03
-3.853125e-10,3.484375e-03
-3.813125e-10,3.546875e-03
-3.773125e-10,3.609375e-03
-3.733125e-10,3.953125e-03
-3.693125e-10,3.671875e-03
-3.653125e-10,3.593750e-03
-3.613125e-10,3.718750e-03
-3.573125e-10,4.015625e-03
-3.533125e-10,3.718750e-03
-3.493125e-10,3.718750e-03
-3.453125e-10,3.687500e-03
-3.413125e-10,3.640625e-03
-3.373125e-10,3.625000e-03
-3.333125e-10,3.921875e-03
-3.293125e-10,3.609375e-03
-3.253125e-10,3.500000e-03
-3.213125e-10,3.640625e-03
-3.173125e-10,3.984375e-03
-3.133125e-10,3.781250e-03
-3.093125e-10,3.890625e-03
-3.053125e-10,3.968750e-03
-3.013125e-10,4.062500e-03
-2.973125e-10,4.218750e-03
-2.933125e-10,4.687500e-03
-2.893125e-10,4.593750e-03
-2.853125e-10,4.703125e-03
-2.813125e-10,5.062500e-03
-2.773125e-10,5.625000e-03
-2.733125e-10,5.640625e-03
-2.693125e-10,5.937500e-03
-2.653125e-10,6.218750e-03
-2.613125e-10,6.468750e-03
-2.573125e-10,6.781250e-03
-2.533125e-10,7.343750e-03
-2.493125e-10,7.343750e-03
-2.453125e-10,7.484375e-03
-2.413125e-10,7.859375e-03
-2.373125e-10,8.375000e-03
-2.333125e-10,8.281250e-03
-2.293125e-10,8.468750e-03
-2.253125e-10,8.578125e-03
-2.213125e-10,8.609375e-03
-2.173125e-10,8.687500e-03
-2.133125e-10,8.953125e-03
-2.093125e-10,8.656250e-03
-2.053125e-10,8.468750e-03
-2.013125e-10,8.468750e-03
-1.973125e-10,8.609375e-03
-1.933125e-10,8.140625e-03
-1.893125e-10,7.953125e-03
-1.853125e-10,7.687500e-03
-1.813125e-10,7.375000e-03
-1.773125e-10,7.125000e-03
-1.733125e-10,7.093750e-03
-1.693125e-10,6.546875e-03
-1.653125e-10,6.140625e-03
-1.613125e-10,5.968750e-03
-1.573125e-10,6.015625e-03
-1.533125e-10,5.484375e-03
-1.493125e-10,5.296875e-03
-1.453125e-10,5.109375e-03
-1.413125e-10,4.953125e-03
-1.373125e-10,4.921875e-03
-1.333125e-10,5.171875e-03
-1.293125e-10,4.984375e-03
-1.253125e-10,5.000000e-03
-1.213125e-10,5.296875e-03
-1.173125e-10,5.875000e-03
-1.133125e-10,5.937500e-03
-1.093125e-10,6.375000e-03
-1.053125e-10,6.859375e-03
-1.013125e-10,7.421875e-03
-9.731250e-11,8.125000e-03
-9.331250e-11,9.140625e-03
-8.931250e-11,9.750000e-03
-8.531250e-11,1.057813e-02
-8.131250e-11,1.165625e-02
-7.731250e-11,1.304688e-02
-7.331250e-11,1.390625e-02
-6.931250e-11,1.512500e-02
-6.531250e-11,1.640625e-02
-6.131250e-11,1.775000e-02
-5.731250e-11,1.918750e-02
-5.331250e-11,2.096875e-02
-4.931250e-11,2.231250e-02
-4.531250e-11,2.385938e-02
-4.131250e-11,2.564063e-02
-3.731250e-11,2.771875e-02
-3.331250e-11,2.929688e-02
-2.931250e-11,3.118750e-02
-2.531250e-11,3.317188e-02
-2.131250e-11,3.521875e-02
-1.731250e-11,3.735938e-02
-1.331250e-11,3.989063e-02
-9.312500e-12,4.200000e-02
-5.312500e-12,4.434375e-02
-1.312500e-12,4.693750e-02
2.687500e-12,4.987500e-02
6.687500e-12,5.237500e-02
1.068750e-11,5.520313e-02
1.468750e-11,5.817188e-02
1.868750e-11,6.128125e-02
2.268750e-11,6.450000e-02
2.668750e-11,6.815625e-02
3.068750e-11,7.143750e-02
3.468750e-11,7.500000e-02
3.868750e-11,7.881250e-02
4.268750e-11,8.298438e-02
4.668750e-11,8.678125e-02
5.068750e-11,9.089063e-02
5.468750e-11,9.512500e-02
5.868750e-11,9.948438e-02
6.268750e-11,1.039219e-01
6.668750e-11,1.087656e-01
7.068750e-11,1.131719e-01
7.468750e-11,1.177969e-01
7.868750e-11,1.225938e-01
8.268750e-11,1.276250e-01
8.668750e-11,1.322031e-01
9.068750e-11,1.369844e-01
9.468750e-11,1.417344e-01
9.868750e-11,1.464688e-01
1.026875e-10,1.511406e-01
1.066875e-10,1.560156e-01
1.106875e-10,1.603281e-01
1.146875e-10,1.646875e-01
1.186875e-10,1.690313e-01
1.226875e-10,1.734063e-01
1.266875e-10,1.771719e-01
1.306875e-10,1.809531e-01
1.346875e-10,1.845313e-01
1.386875e-10,1.879375e-01
1.426875e-10,1.910938e-01
1.466875e-10,1.942969e-01
1.506875e-10,1.968125e-01
1.546875e-10,1.992188e-01
1.586875e-10,2.014844e-01
1.626875e-10,2.036719e-01
1.666875e-10,2.051406e-01
1.706875e-10,2.065781e-01
1.746875e-10,2.077500e-01
1.786875e-10,2.086719e-01
1.826875e-10,2.093438e-01
1.866875e-10,2.100000e-01
1.906875e-10,2.099844e-01
1.946875e-10,2.098906e-01
1.986875e-10,2.096719e-01
2.026875e-10,2.094219e-01
2.066875e-10,2.085000e-01
2.106875e-10,2.076406e-01
2.146875e-10,2.065781e-01
2.186875e-10,2.053594e-01
2.226875e-10,2.039844e-01
2.266875e-10,2.026719e-01
2.306875e-10,2.008125e-01
2.346875e-10,1.989844e-01
2.386875e-10,1.971563e-01
2.426875e-10,1.953906e-01
2.466875e-10,1.930625e-01
2.506875e-10,1.909219e-01
2.546875e-10,1.887031e-01
2.586875e-10,1.864219e-01
2.626875e-10,1.840938e-01
2.666875e-10,1.819063e-01
2.706875e-10,1.792500e-01
2.746875e-10,1.767188e-01
2.786875e-10,1.742656e-01
2.826875e-10,1.719375e-01
2.866875e-10,1.690938e-01
2.906875e-10,1.665313e-01
2.946875e-10,1.639063e-01
2.986875e-10,1.612813e-01
3.026875e-10,1.586406e-01
3.066875e-10,1.561563e-01
3.106875e-10,1.532188e-01
3.146875e-10,1.504531e-01
3.186875e-10,1.477656e-01
3.226875e-10,1.452344e-01
3.266875e-10,1.421875e-01
3.306875e-10,1.394219e-01
3.346875e-10,1.366250e-01
3.386875e-10,1.338125e-01
3.426875e-10,1.310156e-01
3.466875e-10,1.284063e-01
3.506875e-10,1.252969e-01
3.546875e-10,1.224063e-01
3.586875e-10,1.196094e-01
3.626875e-10,1.169688e-01
3.666875e-10,1.138438e-01
3.706875e-10,1.110156e-01
3.746875e-10,1.081719e-01
3.786875e-10,1.053594e-01
3.826875e-10,1.025938e-01
3.866875e-10,1.000313e-01
3.906875e-10,9.700000e-02
3.946875e-10,9.421875e-02
3.986875e-10,9.156250e-02
4.026875e-10,8.910938e-02
4.066875e-10,8.620313e-02
4.106875e-10,8.362500e-02
4.146875e-10,8.107813e-02
4.186875e-10,7.859375e-02
4.226875e-10,7.617188e-02
4.266875e-10,7.403125e-02
4.306875e-10,7.139063e-02
4.346875e-10,6.904688e-02
4.386875e-10,6.689063e-02
4.426875e-10,6.493750e-02
4.466875e-10,6.256250e-02
4.506875e-10,6.051563e-02
4.546875e-10,5.854688e-02
4.586875e-10,5.665625e-02
4.626875e-10,5.481250e-02
4.666875e-10,5.329688e-02
4.706875e-10,5.129688e-02
4.746875e-10,4.956250e-02
4.786875e-10,4.806250e-02
4.826875e-10,4.675000e-02
4.866875e-10,4.506250e-02
4.906875e-10,4.365625e-02
4.946875e-10,4.235938e-02
4.986875e-10,4.112500e-02
5.026875e-10,3.995313e-02
5.066875e-10,3.910938e-02
5.106875e-10,3.776563e-02
5.146875e-10,3.668750e-02
5.186875e-10,3.585938e-02
5.226875e-10,3.521875e-02
5.266875e-10,3.415625e-02
5.306875e-10,3.339063e-02
5.346875e-10,3.275000e-02
5.386875e-10,3.214063e-02
5.426875e-10,3.156250e-02
5.466875e-10,3.129688e-02
5.506875e-10,3.051563e-02
5.546875e-10,2.998438e-02
5.586875e-10,2.968750e-02
5.626875e-10,2.953125e-02
5.666875e-10,2.893750e-02
5.706875e-10,2.859375e-02
5.746875e-10,2.834375e-02
5.786875e-10,2.807813e-02
5.826875e-10,2.778125e-02
5.866875e-10,2.778125e-02
5.906875e-10,2.720313e-02
5.946875e-10,2.681250e-02
5.986875e-10,2.660938e-02
6.026875e-10,2.654688e-02
6.066875e-10,2.593750e-02
6.106875e-10,2.554688e-02
6.146875e-10,2.518750e-02
6.186875e-10,2.478125e-02
6.226875e-10,2.429688e-02
6.266875e-10,2.404688e-02
6.306875e-10,2.320313e-02
6.346875e-10,2.251563e-02
6.386875e-10,2.200000e-02
6.426875e-10,2.159375e-02
6.466875e-10,2.062500e-02
6.506875e-10,1.987500e-02
6.546875e-10,1.915625e-02
6.586875e-10,1.840625e-02
6.626875e-10,1.757813e-02
6.666875e-10,1.701563e-02
6.706875e-10,1.589063e-02
6.746875e-10,1.493750e-02
6.786875e-10,1.420313e-02
6.826875e-10,1.365625e-02
6.866875e-10,1.256250e-02
6.906875e-10,1.175000e-02
6.946875e-10,1.101563e-02
6.986875e-10,1.031250e-02
7.026875e-10,9.593750e-03
7.066875e-10,9.218750e-03
7.106875e-10,8.328125e-03
7.146875e-10,7.656250e-03
7.186875e-10,7.281250e-03
7.226875e-10,7.140625e-03
7.266875e-10,6.484375e-03
7.306875e-10,6.171875e-03
7.346875e-10,5.953125e-03
7.386875e-10,5.781250e-03
7.426875e-10,5.640625e-03
7.466875e-10,5.828125e-03
7.506875e-10,5.515625e-03
7.546875e-10,5.421875e-03
7.586875e-10,5.593750e-03
7.626875e-10,6.000000e-03
7.666875e-10,5.843750e-03
7.706875e-10,6.000000e-03
7.746875e-10,6.203125e-03
7.786875e-10,6.406250e-03
7.826875e-10,6.593750e-03
7.866875e-10,7.062500e-03
7.906875e-10,6.937500e-03
7.946875e-10,7.000000e-03
7.986875e-10,7.250000e-03
8.026875e-10,7.687500e-03
8.066875e-10,7.484375e-03
8.106875e-10,7.546875e-03
8.146875e-10,7.593750e-03
8.186875e-10,7.609375e-03
8.226875e-10,7.562500e-03
8.266875e-10,7.781250e-03
8.306875e-10,7.375000e-03
8.346875e-10,7.125000e-03
8.386875e-10,7.062500e-03
8.426875e-10,7.171875e-03
8.466875e-10,6.671875e-03
8.506875e-10,6.453125e-03
8.546875e-10,6.234375e-03
8.586875e-10,6.000000e-03
8.626875e-10,5.765625e-03
8.666875e-10,5.828125e-03
8.706875e-10,5.312500e-03
8.746875e-10,5.015625e-03
8.786875e-10,4.953125e-03
8.826875e-10,5.109375e-03
8.866875e-10,4.718750e-03
8.906875e-10,4.656250e-03
8.946875e-10,4.625000e-03
8.986875e-10,4.656250e-03
9.026875e-10,4.703125e-03
9.066875e-10,5.093750e-03
9.106875e-10,4.937500e-03
9.146875e-10,5.015625e-03
9.186875e-10,5.343750e-03
9.226875e-10,5.890625e-03
9.266875e-10,5.875000e-03
9.306875e-10,6.187500e-03
9.346875e-10,6.515625e-03
9.386875e-10,6.843750e-03
9.426875e-10,7.187500e-03
9.466875e-10,7.812500e-03
9.506875e-10,7.843750e-03
9.546875e-10,8.062500e-03
9.586875e-10,8.453125e-03
9.626875e-10,9.015625e-03
9.666875e-10,8.937500e-03
9.706875e-10,9.125000e-03
9.746875e-10,9.281250e-03
9.786875e-10,9.375000e-03
9.826875e-10,9.421875e-03
9.866875e-10,9.703125e-03
9.906875e-10,9.343750e-03
9.946875e-10,9.125000e-03
9.986875e-10,9.078125e-03
1.002688e-09,9.171875e-03
1.006687e-09,8.609375e-03
1.010687e-09,8.312500e-03
1.014687e-09,8.000000e-03
1.018687e-09,7.640625e-03
1.022687e-09,7.265625e-03
1.026687e-09,7.171875e-03
1.030687e-09,6.468750e-03
1.034687e-09,5.968750e-03
1.038687e-09,5.687500e-03
1.042688e-09,5.625000e-03
1.046688e-09,4.968750e-03
1.050688e-09,4.656250e-03
1.054688e-09,4.375000e-03
1.058688e-09,4.156250e-03
1.062688e-09,3.968750e-03
1.066687e-09,4.125000e-03
1.070687e-09,3.750000e-03
1.074687e-09,3.625000e-03
1.078687e-09,3.750000e-03
1.082687e-09,4.156250e-03
1.086687e-09,3.984375e-03
1.090687e-09,4.187500e-03
1.094687e-09,4.421875e-03
1.098687e-09,4.718750e-03
1.102688e-09,5.046875e-03
1.106688e-09,5.703125e-03
1.110688e-09,5.781250e-03
1.114688e-09,6.078125e-03
1.118688e-09,6.593750e-03
1.122688e-09,7.312500e-03
1.126687e-09,7.421875e-03
1.130687e-09,7.812500e-03
1.134687e-09,8.187500e-03
1.138687e-09,8.546875e-03
1.142687e-09,8.875000e-03
1.146687e-09,9.453125e-03
1.150687e-09,9.406250e-03
1.154687e-09,9.500000e-03
1.158687e-09,9.750000e-03
1.162688e-09,1.017188e-02
1.166688e-09,9.937500e-03
1.170688e-09,9.937500e-03
1.174688e-09,9.921875e-03
1.178688e-09,9.843750e-03
1.182688e-09,9.734375e-03
1.186687e-09,9.906250e-03
1.190687e-09,9.437500e-03
1.194687e-09,9.140625e-03
1.198687e-09,9.046875e-03
1.202687e-09,9.140625e-03
1.206687e-09,8.640625e-03
1.210687e-09,8.437500e-03
1.214687e-09,8.250000e-03
1.218687e-09,8.093750e-03
1.222688e-09,7.968750e-03
1.226688e-09,8.171875e-03
1.230688e-09,7.812500e-03
1.234688e-09,7.687500e-03
1.238688e-09,7.828125e-03
1.242688e-09,8.203125e-03
1.246687e-09,8.031250e-03
1.250687e-09,8.203125e-03
1.254687e-09,8.437500e-03
1.258687e-09,8.703125e-03
1.262687e-09,9.015625e-03
1.266687e-09,9.656250e-03
1.270687e-09,9.734375e-03
1.274687e-09,1.004688e-02
1.278687e-09,1.056250e-02
1.282688e-09,1.128125e-02
1.286688e-09,1.142188e-02
1.290688e-09,1.184375e-02
1.294688e-09,1.225000e-02
1.298688e-09,1.262500e-02
1.302688e-09,1.296875e-02
1.306687e-09,1.357813e-02
1.310687e-09,1.353125e-02
1.314687e-09,1.362500e-02
1.318687e-09,1.387500e-02
1.322687e-09,1.425000e-02
1.326687e-09,1.395313e-02
1.330687e-09,1.389063e-02
1.334687e-09,1.376563e-02
1.338687e-09,1.354688e-02
1.342688e-09,1.328125e-02
1.346688e-09,1.323438e-02
1.350688e-09,1.253125e-02
1.354688e-09,1.196875e-02
1.358688e-09,1.154688e-02
1.362688e-09,1.128125e-02
1.366687e-09,1.039063e-02
1.370687e-09,9.765625e-03
1.374687e-09,9.125000e-03
1.378687e-09,8.468750e-03
1.382687e-09,7.812500e-03
1.386687e-09,7.468750e-03
1.390687e-09,6.546875e-03
1.394687e-09,5.843750e-03
1.398687e-09,5.390625e-03
1.402688e-09,5.171875e-03
1.406688e-09,4.406250e-03
1.410688e-09,4.000000e-03
1.414688e-09,3.640625e-03
1.418688e-09,3.359375e-03
1.422688e-09,3.140625e-03
1.426687e-09,3.296875e-03
1.430687e-09,2.906250e-03
1.434687e-09,2.796875e-03
1.438687e-09,2.937500e-03
1.442687e-09,3.359375e-03
1.446687e-09,3.203125e-03
1.450687e-09,3.421875e-03
1.454687e-09,3.671875e-03
1.458687e-09,3.953125e-03
1.462688e-09,4.265625e-03
1.466688e-09,4.890625e-03
1.470688e-09,4.921875e-03
1.474688e-09,5.171875e-03
1.478688e-09,5.593750e-03
1.482688e-09,6.218750e-03
1.486687e-09,6.203125e-03
1.490687e-09,6.468750e-03
1.494687e-09,6.703125e-03
1.498687e-09,6.906250e-03
1.502687e-09,7.046875e-03
1.506687e-09,7.453125e-03
1.510687e-09,7.218750e-03
1.514687e-09,7.125000e-03
1.518687e-09,7.187500e-03
1.522687e-09,7.406250e-03
1.526688e-09,6.968750e-03
1.530688e-09,6.812500e-03
1.534688e-09,6.625000e-03
1.538688e-09,6.406250e-03
1.542688e-09,6.156250e-03
1.546687e-09,6.218750e-03
1.550687e-09,5.656250e-03
1.554687e-09,5.312500e-03
1.558687e-09,5.171875e-03
1.562687e-09,5.265625e-03
1.566687e-09,4.765625e-03
1.570687e-09,4.625000e-03
1.574687e-09,4.500000e-03
1.578687e-09,4.437500e-03
1.582687e-09,4.437500e-03
1.586688e-09,4.781250e-03
1.590688e-09,4.578125e-03
1.594688e-09,4.640625e-03
1.598688e-09,4.968750e-03
1.602688e-09,5.546875e-03
1.606687e-09,5.593750e-03
1.610687e-09,5.984375e-03
1.614687e-09,6.421875e-03
1.618687e-09,6.906250e-03
1.622687e-09,7.421875e-03
1.626687e-09,8.265625e-03
1.630687e-09,8.531250e-03
1.634687e-09,9.000000e-03
1.638687e-09,9.671875e-03
1.642687e-09,1.053125e-02
1.646688e-09,1.076563e-02
1.650688e-09,1.126563e-02
1.654688e-09,1.173438e-02
1.658688e-09,1.214063e-02
1.662688e-09,1.250000e-02
1.666687e-09,1.309375e-02
1.670687e-09,1.300000e-02
1.674687e-09,1.304688e-02
1.678687e-09,1.320313e-02
1.682687e-09,1.346875e-02
1.686687e-09,1.306250e-02
1.690687e-09,1.285938e-02
1.694687e-09,1.259375e-02
1.698687e-09,1.223438e-02
1.702687e-09,1.179688e-02
1.706688e-09,1.159375e-02
1.710688e-09,1.073438e-02
1.714688e-09,1.001563e-02
1.718688e-09,9.453125e-03
1.722688e-09,9.062500e-03
1.726687e-09,8.046875e-03
1.730687e-09,7.312500e-03
1.734687e-09,6.593750e-03
1.738687e-09,5.875000e-03
1.742687e-09,5.171875e-03
1.746687e-09,4.812500e-03
1.750687e-09,3.890625e-03
1.754687e-09,3.218750e-03
1.758687e-09,2.796875e-03
