Measurements-streak-laser/Photodiode-on-Tek-6GHz/Tek000_ch1_20190613132810155.csv

Model,MSO64
Waveform Type,ANALOG
Horizontal Units,s
Sample Interval,4.000000e-12
Record Length,1000
Zero Index,310.984375
Vertical Units,V

TIME,CH1
-1.243937e-09,3.250000e-03
-1.239937e-09,2.187500e-03
-1.235938e-09,1.359375e-03
-1.231938e-09,7.500000e-04
-1.227938e-09,4.062500e-04
-1.223938e-09,-5.000000e-04
-1.219938e-09,-1.046875e-03
-1.215938e-09,-1.515625e-03
-1.211937e-09,-1.890625e-03
-1.207937e-09,-2.203125e-03
-1.203937e-09,-2.109375e-03
-1.199937e-09,-2.531250e-03
-1.195937e-09,-2.656250e-03
-1.191937e-09,-2.484375e-03
-1.187937e-09,-2.000000e-03
-1.183937e-09,-2.046875e-03
-1.179937e-09,-1.703125e-03
-1.175938e-09,-1.281250e-03
-1.171938e-09,-7.656250e-04
-1.167938e-09,-1.875000e-04
-1.163938e-09,7.500000e-04
-1.159938e-09,1.140625e-03
-1.155938e-09,1.781250e-03
-1.151937e-09,2.656250e-03
-1.147937e-09,3.750000e-03
-1.143937e-09,4.265625e-03
-1.139937e-09,5.078125e-03
-1.135937e-09,5.890625e-03
-1.131937e-09,6.671875e-03
-1.127937e-09,7.437500e-03
-1.123937e-09,8.484375e-03
-1.119937e-09,8.875000e-03
-1.115938e-09,9.421875e-03
-1.111938e-09,1.012500e-02
-1.107938e-09,1.095313e-02
-1.103938e-09,1.110938e-02
-1.099938e-09,1.151563e-02
-1.095938e-09,1.184375e-02
-1.091937e-09,1.209375e-02
-1.087937e-09,1.226563e-02
-1.083937e-09,1.268750e-02
-1.079937e-09,1.242188e-02
-1.075937e-09,1.228125e-02
-1.071937e-09,1.228125e-02
-1.067937e-09,1.240625e-02
-1.063937e-09,1.189063e-02
-1.059937e-09,1.159375e-02
-1.055938e-09,1.128125e-02
-1.051938e-09,1.090625e-02
-1.047938e-09,1.050000e-02
-1.043938e-09,1.035938e-02
-1.039938e-09,9.593750e-03
-1.035938e-09,9.015625e-03
-1.031937e-09,8.625000e-03
-1.027937e-09,8.437500e-03
-1.023937e-09,7.640625e-03
-1.019937e-09,7.156250e-03
-1.015937e-09,6.687500e-03
-1.011937e-09,6.234375e-03
-1.007937e-09,5.812500e-03
-1.003937e-09,5.718750e-03
-9.999375e-10,5.046875e-03
-9.959375e-10,4.625000e-03
-9.919375e-10,4.437500e-03
-9.879375e-10,4.515625e-03
-9.839375e-10,4.015625e-03
-9.799375e-10,3.859375e-03
-9.759375e-10,3.750000e-03
-9.719375e-10,3.703125e-03
-9.679375e-10,3.687500e-03
-9.639375e-10,4.015625e-03
-9.599375e-10,3.796875e-03
-9.559375e-10,3.812500e-03
-9.519375e-10,4.062500e-03
-9.479375e-10,4.546875e-03
-9.439375e-10,4.453125e-03
-9.399375e-10,4.703125e-03
-9.359375e-10,4.953125e-03
-9.319375e-10,5.234375e-03
-9.279375e-10,5.531250e-03
-9.239375e-10,6.125000e-03
-9.199375e-10,6.125000e-03
-9.159375e-10,6.312500e-03
-9.119375e-10,6.703125e-03
-9.079375e-10,7.265625e-03
-9.039375e-10,7.218750e-03
-8.999375e-10,7.453125e-03
-8.959375e-10,7.671875e-03
-8.919375e-10,7.843750e-03
-8.879375e-10,7.984375e-03
-8.839375e-10,8.406250e-03
-8.799375e-10,8.171875e-03
-8.759375e-10,8.109375e-03
-8.719375e-10,8.218750e-03
-8.679375e-10,8.484375e-03
-8.639375e-10,8.109375e-03
-8.599375e-10,7.984375e-03
-8.559375e-10,7.843750e-03
-8.519375e-10,7.656250e-03
-8.479375e-10,7.437500e-03
-8.439375e-10,7.500000e-03
-8.399375e-10,6.921875e-03
-8.359375e-10,6.515625e-03
-8.319375e-10,6.312500e-03
-8.279375e-10,6.296875e-03
-8.239375e-10,5.656250e-03
-8.199375e-10,5.328125e-03
-8.159375e-10,5.000000e-03
-8.119375e-10,4.671875e-03
-8.079375e-10,4.343750e-03
-8.039375e-10,4.359375e-03
-7.999375e-10,3.765625e-03
-7.959375e-10,3.406250e-03
-7.919375e-10,3.281250e-03
-7.879375e-10,3.390625e-03
-7.839375e-10,2.937500e-03
-7.799375e-10,2.812500e-03
-7.759375e-10,2.718750e-03
-7.719375e-10,2.687500e-03
-7.679375e-10,2.687500e-03
-7.639375e-10,3.031250e-03
-7.599375e-10,2.812500e-03
-7.559375e-10,2.828125e-03
-7.519375e-10,3.093750e-03
-7.479375e-10,3.593750e-03
-7.439375e-10,3.531250e-03
-7.399375e-10,3.812500e-03
-7.359375e-10,4.109375e-03
-7.319375e-10,4.421875e-03
-7.279375e-10,4.765625e-03
-7.239375e-10,5.421875e-03
-7.199375e-10,5.484375e-03
-7.159375e-10,5.750000e-03
-7.119375e-10,6.218750e-03
-7.079375e-10,6.890625e-03
-7.039375e-10,6.937500e-03
-6.999375e-10,7.265625e-03
-6.959375e-10,7.578125e-03
-6.919375e-10,7.843750e-03
-6.879375e-10,8.093750e-03
-6.839375e-10,8.609375e-03
-6.799375e-10,8.484375e-03
-6.759375e-10,8.515625e-03
-6.719375e-10,8.687500e-03
-6.679375e-10,9.031250e-03
-6.639375e-10,8.703125e-03
-6.599375e-10,8.625000e-03
-6.559375e-10,8.515625e-03
-6.519375e-10,8.328125e-03
-6.479375e-10,8.109375e-03
-6.439375e-10,8.140625e-03
-6.399375e-10,7.500000e-03
-6.359375e-10,7.031250e-03
-6.319375e-10,6.718750e-03
-6.279375e-10,6.578125e-03
-6.239375e-10,5.796875e-03
-6.199375e-10,5.281250e-03
-6.159375e-10,4.750000e-03
-6.119375e-10,4.203125e-03
-6.079375e-10,3.640625e-03
-6.039375e-10,3.375000e-03
-5.999375e-10,2.515625e-03
-5.959375e-10,1.859375e-03
-5.919375e-10,1.406250e-03
-5.879375e-10,1.187500e-03
-5.839375e-10,3.750000e-04
-5.799375e-10,-9.375000e-05
-5.759375e-10,-5.312500e-04
-5.719375e-10,-9.062500e-04
-5.679375e-10,-1.265625e-03
-5.639375e-10,-1.250000e-03
-5.599375e-10,-1.796875e-03
-5.559375e-10,-2.093750e-03
-5.519375e-10,-2.125000e-03
-5.479375e-10,-1.875000e-03
-5.439375e-10,-2.187500e-03
-5.399375e-10,-2.125000e-03
-5.359375e-10,-2.015625e-03
-5.319375e-10,-1.828125e-03
-5.279375e-10,-1.593750e-03
-5.239375e-10,-1.000000e-03
-5.199375e-10,-9.531250e-04
-5.159375e-10,-6.562500e-04
-5.119375e-10,-1.250000e-04
-5.079375e-10,6.562500e-04
-5.039375e-10,8.750000e-04
-4.999375e-10,1.421875e-03
-4.959375e-10,1.984375e-03
-4.919375e-10,2.578125e-03
-4.879375e-10,3.171875e-03
-4.839375e-10,4.078125e-03
-4.799375e-10,4.375000e-03
-4.759375e-10,4.875000e-03
-4.719375e-10,5.546875e-03
-4.679375e-10,6.421875e-03
-4.639375e-10,6.656250e-03
-4.599375e-10,7.171875e-03
-4.559375e-10,7.640625e-03
-4.519375e-10,8.078125e-03
-4.479375e-10,8.468750e-03
-4.439375e-10,9.125000e-03
-4.399375e-10,9.125000e-03
-4.359375e-10,9.296875e-03
-4.319375e-10,9.609375e-03
-4.279375e-10,1.009375e-02
-4.239375e-10,9.921875e-03
-4.199375e-10,1.001563e-02
-4.159375e-10,1.003125e-02
-4.119375e-10,1.003125e-02
-4.079375e-10,9.984375e-03
-4.039375e-10,1.021875e-02
-3.999375e-10,9.796875e-03
-3.959375e-10,9.562500e-03
-3.919375e-10,9.531250e-03
-3.879375e-10,9.656250e-03
-3.839375e-10,9.203125e-03
-3.799375e-10,9.031250e-03
-3.759375e-10,8.812500e-03
-3.719375e-10,8.609375e-03
-3.679375e-10,8.406250e-03
-3.639375e-10,8.531250e-03
-3.599375e-10,8.031250e-03
-3.559375e-10,7.765625e-03
-3.519375e-10,7.734375e-03
-3.479375e-10,7.906250e-03
-3.439375e-10,7.531250e-03
-3.399375e-10,7.453125e-03
-3.359375e-10,7.359375e-03
-3.319375e-10,7.281250e-03
-3.279375e-10,7.250000e-03
-3.239375e-10,7.531250e-03
-3.199375e-10,7.218750e-03
-3.159375e-10,7.125000e-03
-3.119375e-10,7.281250e-03
-3.079375e-10,7.625000e-03
-3.039375e-10,7.421875e-03
-2.999375e-10,7.515625e-03
-2.959375e-10,7.562500e-03
-2.919375e-10,7.609375e-03
-2.879375e-10,7.687500e-03
-2.839375e-10,8.062500e-03
-2.799375e-10,7.843750e-03
-2.759375e-10,7.796875e-03
-2.719375e-10,8.000000e-03
-2.679375e-10,8.375000e-03
-2.639375e-10,8.187500e-03
-2.599375e-10,8.281250e-03
-2.559375e-10,8.312500e-03
-2.519375e-10,8.312500e-03
-2.479375e-10,8.390625e-03
-2.439375e-10,8.703125e-03
-2.399375e-10,8.468750e-03
-2.359375e-10,8.390625e-03
-2.319375e-10,8.562500e-03
-2.279375e-10,8.906250e-03
-2.239375e-10,8.671875e-03
-2.199375e-10,8.750000e-03
-2.159375e-10,8.765625e-03
-2.119375e-10,8.750000e-03
-2.079375e-10,8.828125e-03
-2.039375e-10,9.140625e-03
-1.999375e-10,8.921875e-03
-1.959375e-10,8.843750e-03
-1.919375e-10,9.015625e-03
-1.879375e-10,9.359375e-03
-1.839375e-10,9.125000e-03
-1.799375e-10,9.187500e-03
-1.759375e-10,9.187500e-03
-1.719375e-10,9.156250e-03
-1.679375e-10,9.203125e-03
-1.639375e-10,9.453125e-03
-1.599375e-10,9.203125e-03
-1.559375e-10,9.062500e-03
-1.519375e-10,9.140625e-03
-1.479375e-10,9.390625e-03
-1.439375e-10,9.046875e-03
-1.399375e-10,8.984375e-03
-1.359375e-10,8.875000e-03
-1.319375e-10,8.718750e-03
-1.279375e-10,8.656250e-03
-1.239375e-10,8.796875e-03
-1.199375e-10,8.484375e-03
-1.159375e-10,8.281250e-03
-1.119375e-10,8.312500e-03
-1.079375e-10,8.562500e-03
-1.039375e-10,8.265625e-03
-9.993750e-11,8.281250e-03
-9.593750e-11,8.312500e-03
-9.193750e-11,8.390625e-03
-8.793750e-11,8.609375e-03
-8.393750e-11,9.125000e-03
-7.993750e-11,9.281250e-03
-7.593750e-11,9.640625e-03
-7.193750e-11,1.028125e-02
-6.793750e-11,1.128125e-02
-6.393750e-11,1.181250e-02
-5.993750e-11,1.275000e-02
-5.593750e-11,1.382813e-02
-5.193750e-11,1.504688e-02
-4.793750e-11,1.648438e-02
-4.393750e-11,1.832813e-02
-3.993750e-11,1.990625e-02
-3.593750e-11,2.178125e-02
-3.193750e-11,2.398438e-02
-2.793750e-11,2.660938e-02
-2.393750e-11,2.887500e-02
-1.993750e-11,3.154688e-02
-1.593750e-11,3.442188e-02
-1.193750e-11,3.748438e-02
-7.937500e-12,4.075000e-02
-3.937500e-12,4.446875e-02
6.250000e-14,4.789063e-02
4.062500e-12,5.160938e-02
8.062500e-12,5.562500e-02
1.206250e-11,6.003125e-02
1.606250e-11,6.406250e-02
2.006250e-11,6.843750e-02
2.406250e-11,7.295313e-02
2.806250e-11,7.759375e-02
3.206250e-11,8.235938e-02
3.606250e-11,8.751563e-02
4.006250e-11,9.231250e-02
4.406250e-11,9.732813e-02
4.806250e-11,1.025156e-01
5.206250e-11,1.080156e-01
5.606250e-11,1.130938e-01
6.006250e-11,1.184063e-01
6.406250e-11,1.237813e-01
6.806250e-11,1.292031e-01
7.206250e-11,1.346406e-01
7.606250e-11,1.404063e-01
8.006250e-11,1.457344e-01
8.406250e-11,1.512031e-01
8.806250e-11,1.567656e-01
9.206250e-11,1.625313e-01
9.606250e-11,1.678438e-01
1.000625e-10,1.733125e-01
1.040625e-10,1.787344e-01
1.080625e-10,1.841563e-01
1.120625e-10,1.894844e-01
1.160625e-10,1.950625e-01
1.200625e-10,2.001406e-01
1.240625e-10,2.052500e-01
1.280625e-10,2.103750e-01
1.320625e-10,2.155625e-01
1.360625e-10,2.202500e-01
1.400625e-10,2.249531e-01
1.440625e-10,2.295156e-01
1.480625e-10,2.339375e-01
1.520625e-10,2.381719e-01
1.560625e-10,2.425000e-01
1.600625e-10,2.462031e-01
1.640625e-10,2.498281e-01
1.680625e-10,2.533125e-01
1.720625e-10,2.567187e-01
1.760625e-10,2.594844e-01
1.800625e-10,2.621563e-01
1.840625e-10,2.645625e-01
1.880625e-10,2.666875e-01
1.920625e-10,2.685156e-01
1.960625e-10,2.702813e-01
2.000625e-10,2.713594e-01
2.040625e-10,2.722500e-01
2.080625e-10,2.729375e-01
2.120625e-10,2.734531e-01
2.160625e-10,2.732656e-01
2.200625e-10,2.729844e-01
2.240625e-10,2.724063e-01
2.280625e-10,2.715313e-01
2.320625e-10,2.703906e-01
2.360625e-10,2.691563e-01
2.400625e-10,2.673125e-01
2.440625e-10,2.653438e-01
2.480625e-10,2.632344e-01
2.520625e-10,2.610469e-01
2.560625e-10,2.582500e-01
2.600625e-10,2.555156e-01
2.640625e-10,2.525781e-01
2.680625e-10,2.495156e-01
2.720625e-10,2.463281e-01
2.760625e-10,2.431875e-01
2.800625e-10,2.395938e-01
2.840625e-10,2.360469e-01
2.880625e-10,2.325156e-01
2.920625e-10,2.290938e-01
2.960625e-10,2.251719e-01
3.000625e-10,2.215156e-01
3.040625e-10,2.177969e-01
3.080625e-10,2.141094e-01
3.120625e-10,2.104219e-01
3.160625e-10,2.069063e-01
3.200625e-10,2.030000e-01
3.240625e-10,1.992969e-01
3.280625e-10,1.956875e-01
3.320625e-10,1.922500e-01
3.360625e-10,1.883750e-01
3.400625e-10,1.848281e-01
3.440625e-10,1.812656e-01
3.480625e-10,1.777344e-01
3.520625e-10,1.742500e-01
3.560625e-10,1.709375e-01
3.600625e-10,1.671875e-01
3.640625e-10,1.636719e-01
3.680625e-10,1.602188e-01
3.720625e-10,1.569063e-01
3.760625e-10,1.531563e-01
3.800625e-10,1.496875e-01
3.840625e-10,1.461719e-01
3.880625e-10,1.426875e-01
3.920625e-10,1.392031e-01
3.960625e-10,1.359063e-01
4.000625e-10,1.321094e-01
4.040625e-10,1.285469e-01
4.080625e-10,1.250625e-01
4.120625e-10,1.217188e-01
4.160625e-10,1.179531e-01
4.200625e-10,1.144531e-01
4.240625e-10,1.109844e-01
4.280625e-10,1.075625e-01
4.320625e-10,1.041875e-01
4.360625e-10,1.010625e-01
4.400625e-10,9.746875e-02
4.440625e-10,9.417188e-02
4.480625e-10,9.106250e-02
4.520625e-10,8.812500e-02
4.560625e-10,8.487500e-02
4.600625e-10,8.195313e-02
4.640625e-10,7.915625e-02
4.680625e-10,7.645313e-02
4.720625e-10,7.387500e-02
4.760625e-10,7.165625e-02
4.800625e-10,6.903125e-02
4.840625e-10,6.673438e-02
4.880625e-10,6.471875e-02
4.920625e-10,6.292188e-02
4.960625e-10,6.084375e-02
5.000625e-10,5.912500e-02
5.040625e-10,5.757813e-02
5.080625e-10,5.614063e-02
5.120625e-10,5.481250e-02
5.160625e-10,5.384375e-02
5.200625e-10,5.245313e-02
5.240625e-10,5.137500e-02
5.280625e-10,5.056250e-02
5.320625e-10,4.992188e-02
5.360625e-10,4.895313e-02
5.400625e-10,4.826563e-02
5.440625e-10,4.770313e-02
5.480625e-10,4.718750e-02
5.520625e-10,4.668750e-02
5.560625e-10,4.650000e-02
5.600625e-10,4.578125e-02
5.640625e-10,4.529688e-02
5.680625e-10,4.501563e-02
5.720625e-10,4.482813e-02
5.760625e-10,4.421875e-02
5.800625e-10,4.378125e-02
5.840625e-10,4.343750e-02
5.880625e-10,4.304688e-02
5.920625e-10,4.257813e-02
5.960625e-10,4.235938e-02
6.000625e-10,4.156250e-02
6.040625e-10,4.089063e-02
6.080625e-10,4.040625e-02
6.120625e-10,4.000000e-02
6.160625e-10,3.906250e-02
6.200625e-10,3.829688e-02
6.240625e-10,3.759375e-02
6.280625e-10,3.679688e-02
6.320625e-10,3.590625e-02
6.360625e-10,3.523438e-02
6.400625e-10,3.400000e-02
6.440625e-10,3.287500e-02
6.480625e-10,3.195313e-02
6.520625e-10,3.114063e-02
6.560625e-10,2.978125e-02
6.600625e-10,2.862500e-02
6.640625e-10,2.753125e-02
6.680625e-10,2.639063e-02
6.720625e-10,2.518750e-02
6.760625e-10,2.426563e-02
6.800625e-10,2.279688e-02
6.840625e-10,2.150000e-02
6.880625e-10,2.045313e-02
6.920625e-10,1.957813e-02
6.960625e-10,1.818750e-02
7.000625e-10,1.709375e-02
7.040625e-10,1.610938e-02
7.080625e-10,1.515625e-02
7.120625e-10,1.417188e-02
7.160625e-10,1.354688e-02
7.200625e-10,1.243750e-02
7.240625e-10,1.157813e-02
7.280625e-10,1.100000e-02
7.320625e-10,1.068750e-02
7.360625e-10,9.890625e-03
7.400625e-10,9.453125e-03
7.440625e-10,9.140625e-03
7.480625e-10,8.906250e-03
7.520625e-10,8.703125e-03
7.560625e-10,8.875000e-03
7.600625e-10,8.578125e-03
7.640625e-10,8.531250e-03
7.680625e-10,8.796875e-03
7.720625e-10,9.296875e-03
7.760625e-10,9.312500e-03
7.800625e-10,9.656250e-03
7.840625e-10,1.009375e-02
7.880625e-10,1.057813e-02
7.920625e-10,1.104688e-02
7.960625e-10,1.184375e-02
8.000625e-10,1.207813e-02
8.040625e-10,1.253125e-02
8.080625e-10,1.318750e-02
8.120625e-10,1.403125e-02
8.160625e-10,1.428125e-02
8.200625e-10,1.479688e-02
8.240625e-10,1.528125e-02
8.280625e-10,1.575000e-02
8.320625e-10,1.612500e-02
8.360625e-10,1.671875e-02
8.400625e-10,1.670313e-02
8.440625e-10,1.679688e-02
8.480625e-10,1.703125e-02
8.520625e-10,1.740625e-02
8.560625e-10,1.710938e-02
8.600625e-10,1.703125e-02
8.640625e-10,1.690625e-02
8.680625e-10,1.670313e-02
8.720625e-10,1.642188e-02
8.760625e-10,1.637500e-02
8.800625e-10,1.568750e-02
8.840625e-10,1.514063e-02
8.880625e-10,1.476563e-02
8.920625e-10,1.454688e-02
8.960625e-10,1.371875e-02
9.000625e-10,1.317188e-02
9.040625e-10,1.262500e-02
9.080625e-10,1.209375e-02
9.120625e-10,1.153125e-02
9.160625e-10,1.129688e-02
9.200625e-10,1.050000e-02
9.240625e-10,9.921875e-03
9.280625e-10,9.593750e-03
9.320625e-10,9.515625e-03
9.360625e-10,8.875000e-03
9.400625e-10,8.593750e-03
9.440625e-10,8.390625e-03
9.480625e-10,8.234375e-03
9.520625e-10,8.109375e-03
9.560625e-10,8.359375e-03
9.600625e-10,8.062500e-03
9.640625e-10,8.015625e-03
9.680625e-10,8.234375e-03
9.720625e-10,8.687500e-03
9.760625e-10,8.593750e-03
9.800625e-10,8.812500e-03
9.840625e-10,9.093750e-03
9.880625e-10,9.375000e-03
9.920625e-10,9.671875e-03
9.960625e-10,1.026563e-02
1.000062e-09,1.028125e-02
1.004062e-09,1.048438e-02
1.008062e-09,1.089063e-02
1.012062e-09,1.146875e-02
1.016063e-09,1.143750e-02
1.020063e-09,1.168750e-02
1.024063e-09,1.190625e-02
1.028063e-09,1.209375e-02
1.032063e-09,1.223438e-02
1.036063e-09,1.265625e-02
1.040062e-09,1.243750e-02
1.044062e-09,1.239063e-02
1.048062e-09,1.251563e-02
1.052062e-09,1.281250e-02
1.056062e-09,1.248438e-02
1.060062e-09,1.243750e-02
1.064062e-09,1.237500e-02
1.068062e-09,1.228125e-02
1.072062e-09,1.218750e-02
1.076063e-09,1.239063e-02
1.080063e-09,1.198438e-02
1.084063e-09,1.179688e-02
1.088063e-09,1.179688e-02
1.092063e-09,1.203125e-02
1.096063e-09,1.165625e-02
1.100062e-09,1.160938e-02
1.104062e-09,1.159375e-02
1.108062e-09,1.157813e-02
1.112062e-09,1.159375e-02
1.116062e-09,1.192188e-02
1.120062e-09,1.167188e-02
1.124062e-09,1.164063e-02
1.128062e-09,1.182813e-02
1.132062e-09,1.223438e-02
1.136063e-09,1.203125e-02
1.140063e-09,1.215625e-02
1.144063e-09,1.226563e-02
1.148063e-09,1.239063e-02
1.152063e-09,1.250000e-02
1.156063e-09,1.289063e-02
1.160062e-09,1.267188e-02
1.164062e-09,1.262500e-02
1.168062e-09,1.275000e-02
1.172062e-09,1.306250e-02
1.176062e-09,1.271875e-02
1.180062e-09,1.265625e-02
1.184062e-09,1.254688e-02
1.188062e-09,1.240625e-02
1.192062e-09,1.223438e-02
1.196063e-09,1.231250e-02
1.200063e-09,1.175000e-02
1.204063e-09,1.134375e-02
1.208063e-09,1.110938e-02
1.212063e-09,1.104688e-02
1.216063e-09,1.035938e-02
1.220062e-09,9.937500e-03
1.224062e-09,9.515625e-03
1.228062e-09,9.062500e-03
1.232062e-09,8.609375e-03
1.236062e-09,8.453125e-03
1.240062e-09,7.703125e-03
1.244062e-09,7.156250e-03
1.248062e-09,6.828125e-03
1.252062e-09,6.718750e-03
1.256063e-09,6.046875e-03
1.260063e-09,5.687500e-03
1.264063e-09,5.375000e-03
1.268063e-09,5.078125e-03
1.272063e-09,4.828125e-03
1.276063e-09,4.921875e-03
1.280062e-09,4.453125e-03
1.284062e-09,4.218750e-03
1.288062e-09,4.234375e-03
1.292062e-09,4.500000e-03
1.296062e-09,4.171875e-03
1.300062e-09,4.203125e-03
1.304062e-09,4.265625e-03
1.308062e-09,4.343750e-03
1.312062e-09,4.453125e-03
1.316063e-09,4.875000e-03
1.320063e-09,4.718750e-03
1.324063e-09,4.781250e-03
1.328063e-09,5.062500e-03
1.332063e-09,5.531250e-03
1.336063e-09,5.406250e-03
1.340062e-09,5.593750e-03
1.344062e-09,5.750000e-03
1.348062e-09,5.921875e-03
1.352062e-09,6.078125e-03
1.356062e-09,6.531250e-03
1.360062e-09,6.359375e-03
1.364062e-09,6.390625e-03
1.368062e-09,6.593750e-03
1.372062e-09,7.000000e-03
1.376063e-09,6.796875e-03
1.380063e-09,6.875000e-03
1.384063e-09,6.953125e-03
1.388063e-09,7.015625e-03
1.392063e-09,7.078125e-03
1.396063e-09,7.437500e-03
1.400062e-09,7.203125e-03
1.404062e-09,7.171875e-03
1.408062e-09,7.343750e-03
1.412062e-09,7.718750e-03
1.416062e-09,7.500000e-03
1.420062e-09,7.578125e-03
1.424062e-09,7.687500e-03
1.428062e-09,7.781250e-03
1.432062e-09,7.906250e-03
1.436062e-09,8.328125e-03
1.440063e-09,8.156250e-03
1.444063e-09,8.187500e-03
1.448063e-09,8.421875e-03
1.452063e-09,8.843750e-03
1.456063e-09,8.671875e-03
1.460062e-09,8.796875e-03
1.464062e-09,8.906250e-03
1.468062e-09,9.000000e-03
1.472062e-09,9.078125e-03
1.476062e-09,9.421875e-03
1.480062e-09,9.156250e-03
1.484062e-09,9.046875e-03
1.488062e-09,9.125000e-03
1.492062e-09,9.359375e-03
1.496062e-09,8.953125e-03
1.500063e-09,8.812500e-03
1.504063e-09,8.625000e-03
1.508063e-09,8.421875e-03
1.512063e-09,8.156250e-03
1.516063e-09,8.171875e-03
1.520062e-09,7.562500e-03
1.524062e-09,7.109375e-03
1.528062e-09,6.828125e-03
1.532062e-09,6.734375e-03
1.536062e-09,6.015625e-03
1.540062e-09,5.593750e-03
1.544062e-09,5.171875e-03
1.548062e-09,4.750000e-03
1.552062e-09,4.328125e-03
1.556062e-09,4.218750e-03
1.560063e-09,3.546875e-03
1.564063e-09,3.093750e-03
1.568063e-09,2.875000e-03
1.572063e-09,2.906250e-03
1.576063e-09,2.375000e-03
1.580062e-09,2.203125e-03
1.584062e-09,2.078125e-03
1.588062e-09,2.015625e-03
1.592062e-09,2.015625e-03
1.596062e-09,2.375000e-03
1.600062e-09,2.187500e-03
1.604062e-09,2.281250e-03
1.608062e-09,2.625000e-03
1.612062e-09,3.218750e-03
1.616062e-09,3.281250e-03
1.620063e-09,3.687500e-03
1.624063e-09,4.140625e-03
1.628063e-09,4.625000e-03
1.632063e-09,5.140625e-03
1.636063e-09,6.000000e-03
1.640062e-09,6.250000e-03
1.644062e-09,6.734375e-03
1.648062e-09,7.421875e-03
1.652062e-09,8.296875e-03
1.656062e-09,8.562500e-03
1.660062e-09,9.093750e-03
1.664062e-09,9.609375e-03
1.668062e-09,1.009375e-02
1.672062e-09,1.054688e-02
1.676062e-09,1.125000e-02
1.680063e-09,1.129688e-02
1.684063e-09,1.150000e-02
1.688063e-09,1.185938e-02
1.692063e-09,1.235938e-02
1.696063e-09,1.220313e-02
1.700062e-09,1.229688e-02
1.704062e-09,1.234375e-02
1.708062e-09,1.232813e-02
1.712062e-09,1.228125e-02
1.716062e-09,1.248438e-02
1.720062e-09,1.204688e-02
1.724062e-09,1.178125e-02
1.728062e-09,1.170313e-02
1.732062e-09,1.179688e-02
1.736062e-09,1.126563e-02
1.740063e-09,1.104688e-02
1.744063e-09,1.081250e-02
1.748063e-09,1.059375e-02
1.752063e-09,1.039063e-02
