Measurements-streak-laser/Photodiode-on-Tek-6GHz/Tek000_ch1_20190613132831015.csv

Model,MSO64
Waveform Type,ANALOG
Horizontal Units,s
Sample Interval,4.000000e-12
Record Length,1000
Zero Index,310.117188
Vertical Units,V

TIME,CH1
-1.240469e-09,4.828125e-03
-1.236469e-09,5.109375e-03
-1.232469e-09,5.640625e-03
-1.228469e-09,5.593750e-03
-1.224469e-09,5.890625e-03
-1.220469e-09,6.203125e-03
-1.216469e-09,6.562500e-03
-1.212469e-09,6.937500e-03
-1.208469e-09,7.640625e-03
-1.204469e-09,7.750000e-03
-1.200469e-09,8.078125e-03
-1.196469e-09,8.609375e-03
-1.192469e-09,9.343750e-03
-1.188469e-09,9.468750e-03
-1.184469e-09,9.890625e-03
-1.180469e-09,1.029688e-02
-1.176469e-09,1.067188e-02
-1.172469e-09,1.103125e-02
-1.168469e-09,1.165625e-02
-1.164469e-09,1.164063e-02
-1.160469e-09,1.178125e-02
-1.156469e-09,1.209375e-02
-1.152469e-09,1.256250e-02
-1.148469e-09,1.237500e-02
-1.144469e-09,1.243750e-02
-1.140469e-09,1.246875e-02
-1.136469e-09,1.243750e-02
-1.132469e-09,1.235938e-02
-1.128469e-09,1.253125e-02
-1.124469e-09,1.206250e-02
-1.120469e-09,1.175000e-02
-1.116469e-09,1.160938e-02
-1.112469e-09,1.164063e-02
-1.108469e-09,1.101563e-02
-1.104469e-09,1.068750e-02
-1.100469e-09,1.032813e-02
-1.096469e-09,9.937500e-03
-1.092469e-09,9.562500e-03
-1.088469e-09,9.468750e-03
-1.084469e-09,8.765625e-03
-1.080469e-09,8.265625e-03
-1.076469e-09,7.984375e-03
-1.072469e-09,7.906250e-03
-1.068469e-09,7.234375e-03
-1.064469e-09,6.890625e-03
-1.060469e-09,6.562500e-03
-1.056469e-09,6.281250e-03
-1.052469e-09,6.000000e-03
-1.048469e-09,6.062500e-03
-1.044469e-09,5.546875e-03
-1.040469e-09,5.265625e-03
-1.036469e-09,5.203125e-03
-1.032469e-09,5.390625e-03
-1.028469e-09,4.984375e-03
-1.024469e-09,4.921875e-03
-1.020469e-09,4.875000e-03
-1.016469e-09,4.875000e-03
-1.012469e-09,4.875000e-03
-1.008469e-09,5.203125e-03
-1.004469e-09,4.953125e-03
-1.000469e-09,4.906250e-03
-9.964687e-10,5.078125e-03
-9.924688e-10,5.453125e-03
-9.884688e-10,5.234375e-03
-9.844688e-10,5.312500e-03
-9.804688e-10,5.406250e-03
-9.764688e-10,5.468750e-03
-9.724688e-10,5.546875e-03
-9.684687e-10,5.906250e-03
-9.644687e-10,5.640625e-03
-9.604687e-10,5.578125e-03
-9.564687e-10,5.687500e-03
-9.524687e-10,6.000000e-03
-9.484687e-10,5.671875e-03
-9.444687e-10,5.625000e-03
-9.404687e-10,5.578125e-03
-9.364687e-10,5.484375e-03
-9.324688e-10,5.390625e-03
-9.284688e-10,5.578125e-03
-9.244688e-10,5.140625e-03
-9.204687e-10,4.890625e-03
-9.164687e-10,4.828125e-03
-9.124687e-10,4.968750e-03
-9.084687e-10,4.484375e-03
-9.044687e-10,4.296875e-03
-9.004688e-10,4.093750e-03
-8.964688e-10,3.906250e-03
-8.924687e-10,3.718750e-03
-8.884687e-10,3.843750e-03
-8.844687e-10,3.375000e-03
-8.804687e-10,3.125000e-03
-8.764687e-10,3.078125e-03
-8.724688e-10,3.265625e-03
-8.684688e-10,2.859375e-03
-8.644688e-10,2.796875e-03
-8.604687e-10,2.750000e-03
-8.564687e-10,2.734375e-03
-8.524687e-10,2.750000e-03
-8.484687e-10,3.093750e-03
-8.444687e-10,2.875000e-03
-8.404688e-10,2.906250e-03
-8.364688e-10,3.156250e-03
-8.324687e-10,3.640625e-03
-8.284687e-10,3.578125e-03
-8.244687e-10,3.828125e-03
-8.204687e-10,4.109375e-03
-8.164687e-10,4.437500e-03
-8.124688e-10,4.781250e-03
-8.084688e-10,5.453125e-03
-8.044688e-10,5.531250e-03
-8.004687e-10,5.843750e-03
-7.964687e-10,6.359375e-03
-7.924687e-10,7.078125e-03
-7.884687e-10,7.203125e-03
-7.844687e-10,7.625000e-03
-7.804688e-10,8.046875e-03
-7.764688e-10,8.437500e-03
-7.724687e-10,8.812500e-03
-7.684687e-10,9.484375e-03
-7.644687e-10,9.500000e-03
-7.604687e-10,9.687500e-03
-7.564687e-10,1.004688e-02
-7.524688e-10,1.054688e-02
-7.484688e-10,1.040625e-02
-7.444688e-10,1.050000e-02
-7.404687e-10,1.056250e-02
-7.364687e-10,1.054688e-02
-7.324687e-10,1.048438e-02
-7.284687e-10,1.065625e-02
-7.244687e-10,1.018750e-02
-7.204688e-10,9.843750e-03
-7.164688e-10,9.640625e-03
-7.124687e-10,9.593750e-03
-7.084687e-10,8.890625e-03
-7.044687e-10,8.453125e-03
-7.004687e-10,7.984375e-03
-6.964687e-10,7.468750e-03
-6.924688e-10,6.921875e-03
-6.884688e-10,6.671875e-03
-6.844688e-10,5.796875e-03
-6.804687e-10,5.125000e-03
-6.764687e-10,4.656250e-03
-6.724687e-10,4.421875e-03
-6.684687e-10,3.593750e-03
-6.644687e-10,3.093750e-03
-6.604688e-10,2.625000e-03
-6.564688e-10,2.234375e-03
-6.524688e-10,1.875000e-03
-6.484687e-10,1.875000e-03
-6.444687e-10,1.343750e-03
-6.404687e-10,1.078125e-03
-6.364687e-10,1.093750e-03
-6.324688e-10,1.390625e-03
-6.284688e-10,1.156250e-03
-6.244688e-10,1.312500e-03
-6.204687e-10,1.531250e-03
-6.164687e-10,1.843750e-03
-6.124687e-10,2.203125e-03
-6.084687e-10,2.953125e-03
-6.044687e-10,3.140625e-03
-6.004688e-10,3.593750e-03
-5.964688e-10,4.296875e-03
-5.924688e-10,5.218750e-03
-5.884687e-10,5.578125e-03
-5.844687e-10,6.265625e-03
-5.804687e-10,6.953125e-03
-5.764687e-10,7.625000e-03
-5.724688e-10,8.296875e-03
-5.684688e-10,9.250000e-03
-5.644688e-10,9.546875e-03
-5.604687e-10,1.001563e-02
-5.564687e-10,1.062500e-02
-5.524687e-10,1.137500e-02
-5.484687e-10,1.145313e-02
-5.444687e-10,1.176563e-02
-5.404688e-10,1.200000e-02
-5.364688e-10,1.215625e-02
-5.324688e-10,1.223438e-02
-5.284687e-10,1.253125e-02
-5.244687e-10,1.212500e-02
-5.204687e-10,1.185938e-02
-5.164687e-10,1.170313e-02
-5.124688e-10,1.168750e-02
-5.084688e-10,1.101563e-02
-5.044688e-10,1.057813e-02
-5.004687e-10,1.007813e-02
-4.964687e-10,9.562500e-03
-4.924687e-10,9.000000e-03
-4.884687e-10,8.734375e-03
-4.844687e-10,7.843750e-03
-4.804688e-10,7.156250e-03
-4.764688e-10,6.687500e-03
-4.724688e-10,6.437500e-03
-4.684687e-10,5.625000e-03
-4.644688e-10,5.140625e-03
-4.604687e-10,4.703125e-03
-4.564687e-10,4.312500e-03
-4.524688e-10,3.984375e-03
-4.484687e-10,4.031250e-03
-4.444687e-10,3.531250e-03
-4.404687e-10,3.296875e-03
-4.364688e-10,3.343750e-03
-4.324687e-10,3.656250e-03
-4.284687e-10,3.453125e-03
-4.244687e-10,3.593750e-03
-4.204688e-10,3.750000e-03
-4.164687e-10,4.000000e-03
-4.124687e-10,4.265625e-03
-4.084688e-10,4.890625e-03
-4.044688e-10,4.921875e-03
-4.004687e-10,5.187500e-03
-3.964687e-10,5.671875e-03
-3.924688e-10,6.343750e-03
-3.884687e-10,6.437500e-03
-3.844687e-10,6.812500e-03
-3.804687e-10,7.078125e-03
-3.764688e-10,7.359375e-03
-3.724687e-10,7.593750e-03
-3.684687e-10,8.093750e-03
-3.644687e-10,7.906250e-03
-3.604688e-10,7.890625e-03
-3.564687e-10,8.046875e-03
-3.524687e-10,8.312500e-03
-3.484688e-10,7.968750e-03
-3.444688e-10,7.859375e-03
-3.404687e-10,7.593750e-03
-3.364687e-10,7.296875e-03
-3.324688e-10,6.968750e-03
-3.284687e-10,6.906250e-03
-3.244687e-10,6.171875e-03
-3.204687e-10,5.609375e-03
-3.164688e-10,5.281250e-03
-3.124687e-10,5.093750e-03
-3.084687e-10,4.359375e-03
-3.044687e-10,3.906250e-03
-3.004688e-10,3.375000e-03
-2.964687e-10,2.828125e-03
-2.924687e-10,2.375000e-03
-2.884688e-10,2.218750e-03
-2.844688e-10,1.500000e-03
-2.804687e-10,1.015625e-03
-2.764687e-10,8.437500e-04
-2.724688e-10,8.593750e-04
-2.684688e-10,4.062500e-04
-2.644687e-10,2.968750e-04
-2.604687e-10,1.250000e-04
-2.564688e-10,-3.125000e-05
-2.524687e-10,-1.562500e-05
-2.484687e-10,2.812500e-04
-2.444687e-10,7.812500e-05
-2.404688e-10,7.812500e-05
-2.364687e-10,4.062500e-04
-2.324687e-10,9.062500e-04
-2.284688e-10,9.062500e-04
-2.244687e-10,1.250000e-03
-2.204688e-10,1.484375e-03
-2.164687e-10,1.703125e-03
-2.124688e-10,2.078125e-03
-2.084687e-10,2.656250e-03
-2.044688e-10,2.750000e-03
-2.004687e-10,2.937500e-03
-1.964687e-10,3.421875e-03
-1.924687e-10,4.031250e-03
-1.884687e-10,4.093750e-03
-1.844687e-10,4.453125e-03
-1.804687e-10,4.687500e-03
-1.764688e-10,4.828125e-03
-1.724687e-10,5.140625e-03
-1.684688e-10,5.562500e-03
-1.644687e-10,5.562500e-03
-1.604688e-10,5.593750e-03
-1.564687e-10,5.875000e-03
-1.524688e-10,6.312500e-03
-1.484687e-10,6.156250e-03
-1.444688e-10,6.296875e-03
-1.404687e-10,6.328125e-03
-1.364687e-10,6.281250e-03
-1.324687e-10,6.421875e-03
-1.284687e-10,6.671875e-03
-1.244687e-10,6.546875e-03
-1.204687e-10,6.468750e-03
-1.164688e-10,6.625000e-03
-1.124688e-10,6.984375e-03
-1.084688e-10,6.781250e-03
-1.044687e-10,6.875000e-03
-1.004687e-10,6.921875e-03
-9.646875e-11,6.968750e-03
-9.246875e-11,7.187500e-03
-8.846875e-11,7.593750e-03
-8.446875e-11,7.703125e-03
-8.046875e-11,7.890625e-03
-7.646875e-11,8.343750e-03
-7.246875e-11,9.125000e-03
-6.846875e-11,9.390625e-03
-6.446875e-11,1.001563e-02
-6.046875e-11,1.071875e-02
-5.646875e-11,1.153125e-02
-5.246875e-11,1.259375e-02
-4.846875e-11,1.398438e-02
-4.446875e-11,1.523438e-02
-4.046875e-11,1.670313e-02
-3.646875e-11,1.851563e-02
-3.246875e-11,2.084375e-02
-2.846875e-11,2.285938e-02
-2.446875e-11,2.534375e-02
-2.046875e-11,2.810938e-02
-1.646875e-11,3.118750e-02
-1.246875e-11,3.462500e-02
-8.468750e-12,3.867188e-02
-4.468750e-12,4.270313e-02
-4.687500e-13,4.717188e-02
3.531250e-12,5.212500e-02
7.531250e-12,5.775000e-02
1.153125e-11,6.328125e-02
1.553125e-11,6.939063e-02
1.953125e-11,7.590625e-02
2.353125e-11,8.287500e-02
2.753125e-11,9.026563e-02
3.153125e-11,9.837500e-02
3.553125e-11,1.065156e-01
3.953125e-11,1.151406e-01
4.353125e-11,1.242031e-01
4.753125e-11,1.338750e-01
5.153125e-11,1.435156e-01
5.553125e-11,1.535625e-01
5.953125e-11,1.639375e-01
6.353125e-11,1.746094e-01
6.753125e-11,1.855000e-01
7.153125e-11,1.969375e-01
7.553125e-11,2.081719e-01
7.953125e-11,2.196250e-01
8.353125e-11,2.312188e-01
8.753125e-11,2.430938e-01
9.153125e-11,2.546563e-01
9.553125e-11,2.662656e-01
9.953125e-11,2.778281e-01
1.035313e-10,2.893281e-01
1.075313e-10,3.006563e-01
1.115312e-10,3.121094e-01
1.155312e-10,3.230000e-01
1.195313e-10,3.337188e-01
1.235312e-10,3.441875e-01
1.275313e-10,3.545000e-01
1.315312e-10,3.641875e-01
1.355313e-10,3.735625e-01
1.395312e-10,3.825313e-01
1.435313e-10,3.911250e-01
1.475312e-10,3.992188e-01
1.515313e-10,4.071250e-01
1.555312e-10,4.142813e-01
1.595313e-10,4.210000e-01
1.635312e-10,4.272344e-01
1.675312e-10,4.331250e-01
1.715312e-10,4.382813e-01
1.755312e-10,4.429844e-01
1.795312e-10,4.472031e-01
1.835312e-10,4.509375e-01
1.875313e-10,4.541563e-01
1.915312e-10,4.571250e-01
1.955313e-10,4.593594e-01
1.995312e-10,4.612031e-01
2.035313e-10,4.625938e-01
2.075312e-10,4.637031e-01
2.115313e-10,4.641250e-01
2.155312e-10,4.642813e-01
2.195313e-10,4.640156e-01
2.235312e-10,4.634063e-01
2.275312e-10,4.624219e-01
2.315312e-10,4.612344e-01
2.355312e-10,4.595156e-01
2.395312e-10,4.575781e-01
2.435312e-10,4.553125e-01
2.475313e-10,4.529063e-01
2.515312e-10,4.499531e-01
2.555312e-10,4.469219e-01
2.595313e-10,4.436094e-01
2.635313e-10,4.400938e-01
2.675312e-10,4.363594e-01
2.715312e-10,4.324844e-01
2.755313e-10,4.282344e-01
2.795313e-10,4.239063e-01
2.835312e-10,4.193594e-01
2.875312e-10,4.147813e-01
2.915313e-10,4.097188e-01
2.955312e-10,4.047500e-01
2.995312e-10,3.995625e-01
3.035312e-10,3.942656e-01
3.075313e-10,3.888594e-01
3.115312e-10,3.833750e-01
3.155312e-10,3.775469e-01
3.195313e-10,3.717656e-01
3.235313e-10,3.658438e-01
3.275312e-10,3.599219e-01
3.315312e-10,3.535938e-01
3.355313e-10,3.474688e-01
3.395313e-10,3.411719e-01
3.435312e-10,3.348594e-01
3.475312e-10,3.285313e-01
3.515313e-10,3.221719e-01
3.555312e-10,3.154844e-01
3.595312e-10,3.089688e-01
3.635312e-10,3.023750e-01
3.675313e-10,2.958750e-01
3.715312e-10,2.890156e-01
3.755312e-10,2.824531e-01
3.795313e-10,2.758125e-01
3.835313e-10,2.692344e-01
3.875312e-10,2.627031e-01
3.915312e-10,2.562813e-01
3.955313e-10,2.495156e-01
3.995313e-10,2.430469e-01
4.035312e-10,2.366094e-01
4.075312e-10,2.302969e-01
4.115313e-10,2.237344e-01
4.155312e-10,2.175156e-01
4.195312e-10,2.113281e-01
4.235312e-10,2.052813e-01
4.275313e-10,1.993281e-01
4.315312e-10,1.935938e-01
4.355312e-10,1.875469e-01
4.395313e-10,1.818594e-01
4.435313e-10,1.762969e-01
4.475312e-10,1.709063e-01
4.515312e-10,1.653438e-01
4.555313e-10,1.601250e-01
4.595312e-10,1.550625e-01
4.635312e-10,1.501406e-01
4.675313e-10,1.453594e-01
4.715313e-10,1.408906e-01
4.755312e-10,1.360938e-01
4.795312e-10,1.316875e-01
4.835312e-10,1.274844e-01
4.875312e-10,1.234531e-01
4.915312e-10,1.193125e-01
4.955313e-10,1.154688e-01
4.995313e-10,1.118594e-01
5.035313e-10,1.083906e-01
5.075312e-10,1.050469e-01
5.115312e-10,1.020469e-01
5.155312e-10,9.870313e-02
5.195312e-10,9.571875e-02
5.235313e-10,9.301563e-02
5.275313e-10,9.045313e-02
5.315313e-10,8.775000e-02
5.355312e-10,8.531250e-02
5.395312e-10,8.314063e-02
5.435312e-10,8.104688e-02
5.475312e-10,7.903125e-02
5.515312e-10,7.737500e-02
5.555313e-10,7.531250e-02
5.595313e-10,7.356250e-02
5.635313e-10,7.209375e-02
5.675312e-10,7.073438e-02
5.715312e-10,6.917188e-02
5.755312e-10,6.782813e-02
5.795312e-10,6.671875e-02
5.835313e-10,6.562500e-02
5.875313e-10,6.454688e-02
5.915313e-10,6.378125e-02
5.955312e-10,6.256250e-02
5.995312e-10,6.159375e-02
6.035312e-10,6.087500e-02
6.075312e-10,6.023438e-02
6.115312e-10,5.929688e-02
6.155313e-10,5.853125e-02
6.195313e-10,5.795313e-02
6.235313e-10,5.734375e-02
6.275312e-10,5.667188e-02
6.315312e-10,5.626563e-02
6.355312e-10,5.537500e-02
6.395312e-10,5.464063e-02
6.435313e-10,5.415625e-02
6.475313e-10,5.373438e-02
6.515313e-10,5.290625e-02
6.555312e-10,5.221875e-02
6.595312e-10,5.167188e-02
6.635312e-10,5.106250e-02
6.675312e-10,5.034375e-02
6.715312e-10,4.984375e-02
6.755313e-10,4.882813e-02
6.795313e-10,4.793750e-02
6.835313e-10,4.725000e-02
6.875312e-10,4.664063e-02
6.915312e-10,4.554688e-02
6.955312e-10,4.460938e-02
6.995312e-10,4.376563e-02
7.035313e-10,4.284375e-02
7.075313e-10,4.178125e-02
7.115313e-10,4.095313e-02
7.155312e-10,3.959375e-02
7.195312e-10,3.835938e-02
7.235312e-10,3.732813e-02
7.275312e-10,3.640625e-02
7.315312e-10,3.495313e-02
7.355313e-10,3.370313e-02
7.395313e-10,3.254688e-02
7.435313e-10,3.134375e-02
7.475312e-10,3.004688e-02
7.515312e-10,2.900000e-02
7.555312e-10,2.745313e-02
7.595312e-10,2.607813e-02
7.635313e-10,2.493750e-02
7.675313e-10,2.400000e-02
7.715313e-10,2.253125e-02
7.755312e-10,2.137500e-02
7.795312e-10,2.031250e-02
7.835312e-10,1.928125e-02
7.875312e-10,1.821875e-02
7.915312e-10,1.750000e-02
7.955313e-10,1.631250e-02
7.995313e-10,1.537500e-02
8.035313e-10,1.471875e-02
8.075312e-10,1.434375e-02
8.115312e-10,1.348438e-02
8.155312e-10,1.298438e-02
8.195312e-10,1.262500e-02
8.235313e-10,1.235938e-02
8.275313e-10,1.209375e-02
8.315313e-10,1.221875e-02
8.355312e-10,1.189063e-02
8.395312e-10,1.184375e-02
8.435312e-10,1.209375e-02
8.475312e-10,1.260938e-02
8.515312e-10,1.265625e-02
8.555313e-10,1.304688e-02
8.595313e-10,1.353125e-02
8.635313e-10,1.410938e-02
8.675312e-10,1.467188e-02
8.715312e-10,1.557813e-02
8.755312e-10,1.595313e-02
8.795312e-10,1.656250e-02
8.835312e-10,1.739063e-02
8.875313e-10,1.843750e-02
8.915313e-10,1.890625e-02
8.955312e-10,1.965625e-02
8.995312e-10,2.040625e-02
9.035312e-10,2.114063e-02
9.075312e-10,2.181250e-02
9.115312e-10,2.270313e-02
9.155313e-10,2.298438e-02
9.195313e-10,2.340625e-02
9.235312e-10,2.395313e-02
9.275312e-10,2.462500e-02
9.315312e-10,2.464063e-02
9.355312e-10,2.485938e-02
9.395312e-10,2.500000e-02
9.435312e-10,2.507813e-02
9.475312e-10,2.501563e-02
9.515312e-10,2.515625e-02
9.555312e-10,2.464063e-02
9.595313e-10,2.423438e-02
9.635313e-10,2.393750e-02
9.675313e-10,2.376563e-02
9.715313e-10,2.293750e-02
9.755313e-10,2.232813e-02
9.795313e-10,2.167188e-02
9.835312e-10,2.096875e-02
9.875312e-10,2.018750e-02
9.915312e-10,1.967188e-02
9.955312e-10,1.856250e-02
9.995312e-10,1.762500e-02
1.003531e-09,1.689063e-02
1.007531e-09,1.635938e-02
1.011531e-09,1.526563e-02
1.015531e-09,1.448438e-02
1.019531e-09,1.375000e-02
1.023531e-09,1.306250e-02
1.027531e-09,1.240625e-02
1.031531e-09,1.210938e-02
1.035531e-09,1.129688e-02
1.039531e-09,1.076563e-02
1.043531e-09,1.050000e-02
1.047531e-09,1.053125e-02
1.051531e-09,1.004688e-02
1.055531e-09,9.937500e-03
1.059531e-09,9.937500e-03
1.063531e-09,1.001563e-02
1.067531e-09,1.015625e-02
1.071531e-09,1.068750e-02
1.075531e-09,1.070313e-02
1.079531e-09,1.096875e-02
1.083531e-09,1.151563e-02
1.087531e-09,1.231250e-02
1.091531e-09,1.254688e-02
1.095531e-09,1.314063e-02
1.099531e-09,1.375000e-02
1.103531e-09,1.437500e-02
1.107531e-09,1.500000e-02
1.111531e-09,1.592188e-02
1.115531e-09,1.623438e-02
1.119531e-09,1.673438e-02
1.123531e-09,1.739063e-02
1.127531e-09,1.820313e-02
1.131531e-09,1.837500e-02
1.135531e-09,1.879688e-02
1.139531e-09,1.915625e-02
1.143531e-09,1.943750e-02
1.147531e-09,1.964063e-02
1.151531e-09,2.006250e-02
1.155531e-09,1.982813e-02
1.159531e-09,1.970313e-02
1.163531e-09,1.970313e-02
1.167531e-09,1.981250e-02
1.171531e-09,1.926563e-02
1.175531e-09,1.893750e-02
1.179531e-09,1.856250e-02
1.183531e-09,1.810938e-02
1.187531e-09,1.762500e-02
1.191531e-09,1.737500e-02
1.195531e-09,1.650000e-02
1.199531e-09,1.579688e-02
1.203531e-09,1.526563e-02
1.207531e-09,1.493750e-02
1.211531e-09,1.401563e-02
1.215531e-09,1.340625e-02
1.219531e-09,1.279688e-02
1.223531e-09,1.223438e-02
1.227531e-09,1.170313e-02
1.231531e-09,1.151563e-02
1.235531e-09,1.079688e-02
1.239531e-09,1.032813e-02
1.243531e-09,1.010938e-02
1.247531e-09,1.015625e-02
1.251531e-09,9.687500e-03
1.255531e-09,9.593750e-03
1.259531e-09,9.562500e-03
1.263531e-09,9.609375e-03
1.267531e-09,9.703125e-03
1.271531e-09,1.018750e-02
1.275531e-09,1.012500e-02
1.279531e-09,1.032813e-02
1.283531e-09,1.078125e-02
1.287531e-09,1.148438e-02
1.291531e-09,1.162500e-02
1.295531e-09,1.209375e-02
1.299531e-09,1.259375e-02
1.303531e-09,1.309375e-02
1.307531e-09,1.360938e-02
1.311531e-09,1.443750e-02
1.315531e-09,1.464063e-02
1.319531e-09,1.503125e-02
1.323531e-09,1.560938e-02
1.327531e-09,1.632813e-02
1.331531e-09,1.643750e-02
1.335531e-09,1.679688e-02
1.339531e-09,1.710938e-02
1.343531e-09,1.737500e-02
1.347531e-09,1.757813e-02
1.351531e-09,1.803125e-02
1.355531e-09,1.782813e-02
1.359531e-09,1.776563e-02
1.363531e-09,1.784375e-02
1.367531e-09,1.806250e-02
1.371531e-09,1.765625e-02
1.375531e-09,1.748438e-02
1.379531e-09,1.728125e-02
1.383531e-09,1.703125e-02
1.387531e-09,1.675000e-02
1.391531e-09,1.673438e-02
1.395531e-09,1.609375e-02
1.399531e-09,1.565625e-02
1.403531e-09,1.539063e-02
1.407531e-09,1.532813e-02
1.411531e-09,1.467188e-02
1.415531e-09,1.431250e-02
1.419531e-09,1.398438e-02
1.423531e-09,1.367188e-02
1.427531e-09,1.337500e-02
1.431531e-09,1.339063e-02
1.435531e-09,1.285938e-02
1.439531e-09,1.254688e-02
1.443531e-09,1.248438e-02
1.447531e-09,1.264063e-02
1.451531e-09,1.225000e-02
1.455531e-09,1.218750e-02
1.459531e-09,1.215625e-02
1.463531e-09,1.217188e-02
1.467531e-09,1.221875e-02
1.471531e-09,1.259375e-02
1.475531e-09,1.240625e-02
1.479531e-09,1.243750e-02
1.483531e-09,1.270313e-02
1.487531e-09,1.317188e-02
1.491531e-09,1.306250e-02
1.495531e-09,1.326563e-02
1.499531e-09,1.348438e-02
1.503531e-09,1.370313e-02
1.507531e-09,1.392188e-02
1.511531e-09,1.442188e-02
1.515531e-09,1.432813e-02
1.519531e-09,1.443750e-02
1.523531e-09,1.471875e-02
1.527531e-09,1.517188e-02
1.531531e-09,1.503125e-02
1.535531e-09,1.515625e-02
1.539531e-09,1.525000e-02
1.543531e-09,1.534375e-02
1.547531e-09,1.539063e-02
1.551531e-09,1.571875e-02
1.555531e-09,1.542188e-02
1.559531e-09,1.531250e-02
1.563531e-09,1.535938e-02
1.567531e-09,1.557813e-02
1.571531e-09,1.518750e-02
1.575531e-09,1.506250e-02
1.579531e-09,1.492188e-02
1.583531e-09,1.475000e-02
1.587531e-09,1.456250e-02
1.591531e-09,1.465625e-02
1.595531e-09,1.412500e-02
1.599531e-09,1.378125e-02
1.603531e-09,1.362500e-02
1.607531e-09,1.365625e-02
1.611531e-09,1.306250e-02
1.615531e-09,1.276563e-02
1.619531e-09,1.246875e-02
1.623531e-09,1.214063e-02
1.627531e-09,1.181250e-02
1.631531e-09,1.178125e-02
1.635531e-09,1.114063e-02
1.639531e-09,1.070313e-02
1.643531e-09,1.045313e-02
1.647531e-09,1.040625e-02
1.651531e-09,9.765625e-03
1.655531e-09,9.421875e-03
1.659531e-09,9.078125e-03
1.663531e-09,8.750000e-03
1.667531e-09,8.437500e-03
1.671531e-09,8.421875e-03
1.675531e-09,7.812500e-03
1.679531e-09,7.437500e-03
1.683531e-09,7.265625e-03
1.687531e-09,7.312500e-03
1.691531e-09,6.781250e-03
1.695531e-09,6.578125e-03
1.699531e-09,6.406250e-03
1.703531e-09,6.250000e-03
1.707531e-09,6.125000e-03
1.711531e-09,6.312500e-03
1.715531e-09,5.937500e-03
1.719531e-09,5.796875e-03
1.723531e-09,5.875000e-03
1.727531e-09,6.187500e-03
1.731531e-09,5.921875e-03
1.735531e-09,6.000000e-03
1.739531e-09,6.078125e-03
1.743531e-09,6.187500e-03
1.747531e-09,6.328125e-03
1.751531e-09,6.781250e-03
1.755531e-09,6.625000e-03
1.759531e-09,6.703125e-03
