Measurements-streak-laser/Photodiode-on-Tek-6GHz/Tek000_ch1_20190613132826203.csv

Model,MSO64
Waveform Type,ANALOG
Horizontal Units,s
Sample Interval,4.000000e-12
Record Length,1000
Zero Index,310.929688
Vertical Units,V

TIME,CH1
-1.243719e-09,4.500000e-03
-1.239719e-09,4.515625e-03
-1.235719e-09,3.968750e-03
-1.231719e-09,3.625000e-03
-1.227719e-09,3.531250e-03
-1.223719e-09,3.656250e-03
-1.219719e-09,3.218750e-03
-1.215719e-09,3.140625e-03
-1.211719e-09,3.093750e-03
-1.207719e-09,3.078125e-03
-1.203719e-09,3.125000e-03
-1.199719e-09,3.500000e-03
-1.195719e-09,3.328125e-03
-1.191719e-09,3.390625e-03
-1.187719e-09,3.687500e-03
-1.183719e-09,4.234375e-03
-1.179719e-09,4.187500e-03
-1.175719e-09,4.484375e-03
-1.171719e-09,4.781250e-03
-1.167719e-09,5.109375e-03
-1.163719e-09,5.437500e-03
-1.159719e-09,6.062500e-03
-1.155719e-09,6.078125e-03
-1.151719e-09,6.281250e-03
-1.147719e-09,6.671875e-03
-1.143719e-09,7.234375e-03
-1.139719e-09,7.156250e-03
-1.135719e-09,7.343750e-03
-1.131719e-09,7.500000e-03
-1.127719e-09,7.625000e-03
-1.123719e-09,7.687500e-03
-1.119719e-09,8.015625e-03
-1.115719e-09,7.703125e-03
-1.111719e-09,7.531250e-03
-1.107719e-09,7.515625e-03
-1.103719e-09,7.671875e-03
-1.099719e-09,7.171875e-03
-1.095719e-09,6.937500e-03
-1.091719e-09,6.656250e-03
-1.087719e-09,6.375000e-03
-1.083719e-09,6.046875e-03
-1.079719e-09,6.015625e-03
-1.075719e-09,5.359375e-03
-1.071719e-09,4.906250e-03
-1.067719e-09,4.656250e-03
-1.063719e-09,4.593750e-03
-1.059719e-09,3.953125e-03
-1.055719e-09,3.625000e-03
-1.051719e-09,3.312500e-03
-1.047719e-09,3.031250e-03
-1.043719e-09,2.781250e-03
-1.039719e-09,2.875000e-03
-1.035719e-09,2.390625e-03
-1.031719e-09,2.140625e-03
-1.027719e-09,2.140625e-03
-1.023719e-09,2.375000e-03
-1.019719e-09,2.046875e-03
-1.015719e-09,2.078125e-03
-1.011719e-09,2.125000e-03
-1.007719e-09,2.234375e-03
-1.003719e-09,2.375000e-03
-9.997187e-10,2.859375e-03
-9.957187e-10,2.765625e-03
-9.917187e-10,2.890625e-03
-9.877187e-10,3.265625e-03
-9.837188e-10,3.859375e-03
-9.797188e-10,3.859375e-03
-9.757188e-10,4.187500e-03
-9.717188e-10,4.531250e-03
-9.677188e-10,4.875000e-03
-9.637188e-10,5.218750e-03
-9.597187e-10,5.875000e-03
-9.557187e-10,5.921875e-03
-9.517187e-10,6.156250e-03
-9.477187e-10,6.593750e-03
-9.437187e-10,7.218750e-03
-9.397187e-10,7.218750e-03
-9.357187e-10,7.500000e-03
-9.317187e-10,7.781250e-03
-9.277187e-10,8.015625e-03
-9.237188e-10,8.250000e-03
-9.197188e-10,8.750000e-03
-9.157187e-10,8.625000e-03
-9.117187e-10,8.671875e-03
-9.077187e-10,8.906250e-03
-9.037187e-10,9.296875e-03
-8.997187e-10,9.062500e-03
-8.957187e-10,9.109375e-03
-8.917188e-10,9.125000e-03
-8.877188e-10,9.109375e-03
-8.837187e-10,9.062500e-03
-8.797187e-10,9.296875e-03
-8.757187e-10,8.906250e-03
-8.717187e-10,8.687500e-03
-8.677187e-10,8.640625e-03
-8.637188e-10,8.781250e-03
-8.597188e-10,8.281250e-03
-8.557188e-10,8.062500e-03
-8.517187e-10,7.828125e-03
-8.477187e-10,7.578125e-03
-8.437187e-10,7.312500e-03
-8.397187e-10,7.328125e-03
-8.357187e-10,6.718750e-03
-8.317188e-10,6.312500e-03
-8.277188e-10,6.093750e-03
-8.237187e-10,6.062500e-03
-8.197187e-10,5.421875e-03
-8.157187e-10,5.093750e-03
-8.117187e-10,4.765625e-03
-8.077187e-10,4.437500e-03
-8.037188e-10,4.109375e-03
-7.997188e-10,4.109375e-03
-7.957188e-10,3.500000e-03
-7.917187e-10,3.109375e-03
-7.877187e-10,2.953125e-03
-7.837187e-10,3.000000e-03
-7.797187e-10,2.484375e-03
-7.757187e-10,2.281250e-03
-7.717188e-10,2.093750e-03
-7.677188e-10,1.953125e-03
-7.637187e-10,1.828125e-03
-7.597187e-10,2.031250e-03
-7.557187e-10,1.656250e-03
-7.517187e-10,1.515625e-03
-7.477187e-10,1.609375e-03
-7.437188e-10,1.921875e-03
-7.397188e-10,1.640625e-03
-7.357188e-10,1.703125e-03
-7.317187e-10,1.781250e-03
-7.277187e-10,1.859375e-03
-7.237187e-10,1.968750e-03
-7.197187e-10,2.390625e-03
-7.157188e-10,2.218750e-03
-7.117188e-10,2.234375e-03
-7.077188e-10,2.468750e-03
-7.037187e-10,2.906250e-03
-6.997187e-10,2.734375e-03
-6.957187e-10,2.859375e-03
-6.917187e-10,2.984375e-03
-6.877187e-10,3.078125e-03
-6.837188e-10,3.171875e-03
-6.797188e-10,3.562500e-03
-6.757188e-10,3.328125e-03
-6.717187e-10,3.281250e-03
-6.677187e-10,3.406250e-03
-6.637187e-10,3.750000e-03
-6.597187e-10,3.453125e-03
-6.557188e-10,3.453125e-03
-6.517188e-10,3.437500e-03
-6.477188e-10,3.421875e-03
-6.437187e-10,3.406250e-03
-6.397187e-10,3.687500e-03
-6.357187e-10,3.375000e-03
-6.317187e-10,3.250000e-03
-6.277187e-10,3.343750e-03
-6.237188e-10,3.640625e-03
-6.197188e-10,3.359375e-03
-6.157188e-10,3.390625e-03
-6.117187e-10,3.437500e-03
-6.077187e-10,3.500000e-03
-6.037187e-10,3.578125e-03
-5.997187e-10,4.000000e-03
-5.957188e-10,3.812500e-03
-5.917188e-10,3.859375e-03
-5.877188e-10,4.125000e-03
-5.837187e-10,4.609375e-03
-5.797187e-10,4.515625e-03
-5.757187e-10,4.718750e-03
-5.717187e-10,4.937500e-03
-5.677187e-10,5.171875e-03
-5.637188e-10,5.390625e-03
-5.597188e-10,5.921875e-03
-5.557188e-10,5.828125e-03
-5.517187e-10,5.921875e-03
-5.477187e-10,6.203125e-03
-5.437187e-10,6.671875e-03
-5.397187e-10,6.484375e-03
-5.357188e-10,6.578125e-03
-5.317188e-10,6.640625e-03
-5.277188e-10,6.656250e-03
-5.237187e-10,6.625000e-03
-5.197187e-10,6.843750e-03
-5.157187e-10,6.421875e-03
-5.117187e-10,6.156250e-03
-5.077187e-10,6.031250e-03
-5.037188e-10,6.078125e-03
-4.997188e-10,5.484375e-03
-4.957188e-10,5.140625e-03
-4.917187e-10,4.750000e-03
-4.877187e-10,4.343750e-03
-4.837187e-10,3.906250e-03
-4.797187e-10,3.765625e-03
-4.757188e-10,3.000000e-03
-4.717188e-10,2.421875e-03
-4.677188e-10,2.062500e-03
-4.637187e-10,1.937500e-03
-4.597188e-10,1.218750e-03
-4.557187e-10,8.281250e-04
-4.517187e-10,4.531250e-04
-4.477187e-10,1.562500e-04
-4.437188e-10,-1.250000e-04
-4.397187e-10,-1.562500e-05
-4.357187e-10,-4.687500e-04
-4.317187e-10,-6.406250e-04
-4.277188e-10,-5.312500e-04
-4.237187e-10,-1.562500e-04
-4.197187e-10,-3.125000e-04
-4.157188e-10,-7.812500e-05
-4.117188e-10,1.875000e-04
-4.077187e-10,5.312500e-04
-4.037187e-10,9.375000e-04
-3.997188e-10,1.718750e-03
-3.957187e-10,1.921875e-03
-3.917187e-10,2.375000e-03
-3.877187e-10,3.093750e-03
-3.837188e-10,4.015625e-03
-3.797187e-10,4.359375e-03
-3.757187e-10,5.000000e-03
-3.717187e-10,5.625000e-03
-3.677188e-10,6.218750e-03
-3.637187e-10,6.796875e-03
-3.597187e-10,7.656250e-03
-3.557188e-10,7.843750e-03
-3.517188e-10,8.187500e-03
-3.477187e-10,8.687500e-03
-3.437187e-10,9.296875e-03
-3.397188e-10,9.265625e-03
-3.357187e-10,9.453125e-03
-3.317187e-10,9.515625e-03
-3.277187e-10,9.500000e-03
-3.237188e-10,9.421875e-03
-3.197187e-10,9.562500e-03
-3.157187e-10,9.031250e-03
-3.117187e-10,8.609375e-03
-3.077188e-10,8.359375e-03
-3.037187e-10,8.218750e-03
-2.997187e-10,7.468750e-03
-2.957188e-10,6.968750e-03
-2.917188e-10,6.390625e-03
-2.877187e-10,5.796875e-03
-2.837187e-10,5.218750e-03
-2.797188e-10,4.921875e-03
-2.757187e-10,4.062500e-03
-2.717187e-10,3.390625e-03
-2.677187e-10,2.984375e-03
-2.637188e-10,2.812500e-03
-2.597187e-10,2.093750e-03
-2.557187e-10,1.750000e-03
-2.517187e-10,1.421875e-03
-2.477188e-10,1.140625e-03
-2.437187e-10,9.843750e-04
-2.397187e-10,1.156250e-03
-2.357188e-10,8.437500e-04
-2.317187e-10,7.812500e-04
-2.277188e-10,1.015625e-03
-2.237187e-10,1.484375e-03
-2.197188e-10,1.453125e-03
-2.157187e-10,1.765625e-03
-2.117187e-10,2.093750e-03
-2.077187e-10,2.453125e-03
-2.037187e-10,2.906250e-03
-1.997187e-10,3.625000e-03
-1.957187e-10,3.812500e-03
-1.917188e-10,4.171875e-03
-1.877187e-10,4.750000e-03
-1.837188e-10,5.515625e-03
-1.797187e-10,5.656250e-03
-1.757188e-10,6.078125e-03
-1.717187e-10,6.437500e-03
-1.677188e-10,6.734375e-03
-1.637187e-10,7.046875e-03
-1.597188e-10,7.562500e-03
-1.557187e-10,7.515625e-03
-1.517188e-10,7.562500e-03
-1.477187e-10,7.765625e-03
-1.437187e-10,8.140625e-03
-1.397187e-10,7.875000e-03
-1.357187e-10,7.875000e-03
-1.317188e-10,7.843750e-03
-1.277187e-10,7.765625e-03
-1.237188e-10,7.750000e-03
-1.197187e-10,7.968750e-03
-1.157187e-10,7.687500e-03
-1.117187e-10,7.593750e-03
-1.077187e-10,7.718750e-03
-1.037187e-10,8.109375e-03
-9.971875e-11,7.968750e-03
-9.571875e-11,8.187500e-03
-9.171875e-11,8.468750e-03
-8.771875e-11,8.843750e-03
-8.371875e-11,9.359375e-03
-7.971875e-11,1.025000e-02
-7.571875e-11,1.073438e-02
-7.171875e-11,1.150000e-02
-6.771875e-11,1.257813e-02
-6.371875e-11,1.400000e-02
-5.971875e-11,1.498438e-02
-5.571875e-11,1.637500e-02
-5.171875e-11,1.787500e-02
-4.771875e-11,1.953125e-02
-4.371875e-11,2.132813e-02
-3.971875e-11,2.353125e-02
-3.571875e-11,2.532813e-02
-3.171875e-11,2.739063e-02
-2.771875e-11,2.973438e-02
-2.371875e-11,3.239063e-02
-1.971875e-11,3.457813e-02
-1.571875e-11,3.710938e-02
-1.171875e-11,3.970313e-02
-7.718750e-12,4.237500e-02
-3.718750e-12,4.510938e-02
2.812500e-13,4.818750e-02
4.281250e-12,5.079688e-02
8.281250e-12,5.359375e-02
1.228125e-11,5.657813e-02
1.628125e-11,5.979688e-02
2.028125e-11,6.250000e-02
2.428125e-11,6.546875e-02
2.828125e-11,6.843750e-02
3.228125e-11,7.143750e-02
3.628125e-11,7.442188e-02
4.028125e-11,7.771875e-02
4.428125e-11,8.050000e-02
4.828125e-11,8.345313e-02
5.228125e-11,8.653125e-02
5.628125e-11,8.982813e-02
6.028125e-11,9.260938e-02
6.428125e-11,9.560938e-02
6.828125e-11,9.860938e-02
7.228125e-11,1.016250e-01
7.628125e-11,1.046094e-01
8.028125e-11,1.078750e-01
8.428125e-11,1.106250e-01
8.828125e-11,1.135000e-01
9.228125e-11,1.165000e-01
9.628125e-11,1.196563e-01
1.002812e-10,1.222813e-01
1.042812e-10,1.250781e-01
1.082812e-10,1.278281e-01
1.122812e-10,1.305313e-01
1.162812e-10,1.331406e-01
1.202813e-10,1.359531e-01
1.242812e-10,1.381719e-01
1.282813e-10,1.404531e-01
1.322812e-10,1.427656e-01
1.362813e-10,1.451406e-01
1.402812e-10,1.468750e-01
1.442813e-10,1.487188e-01
1.482812e-10,1.504063e-01
1.522813e-10,1.519375e-01
1.562812e-10,1.532969e-01
1.602812e-10,1.547656e-01
1.642812e-10,1.555625e-01
1.682812e-10,1.563281e-01
1.722813e-10,1.570625e-01
1.762812e-10,1.577813e-01
1.802813e-10,1.578125e-01
1.842812e-10,1.579219e-01
1.882813e-10,1.578438e-01
1.922812e-10,1.575781e-01
1.962813e-10,1.571563e-01
2.002812e-10,1.567969e-01
2.042813e-10,1.558125e-01
2.082812e-10,1.548281e-01
2.122813e-10,1.538438e-01
2.162812e-10,1.528906e-01
2.202812e-10,1.513281e-01
2.242812e-10,1.499063e-01
2.282812e-10,1.483750e-01
2.322812e-10,1.467500e-01
2.362813e-10,1.450469e-01
2.402813e-10,1.435000e-01
2.442812e-10,1.414219e-01
2.482812e-10,1.394688e-01
2.522813e-10,1.375781e-01
2.562813e-10,1.358438e-01
2.602812e-10,1.335625e-01
2.642812e-10,1.315625e-01
2.682813e-10,1.295000e-01
2.722813e-10,1.274531e-01
2.762812e-10,1.254063e-01
2.802812e-10,1.235625e-01
2.842813e-10,1.212344e-01
2.882812e-10,1.190938e-01
2.922812e-10,1.170781e-01
2.962812e-10,1.152500e-01
3.002813e-10,1.128906e-01
3.042812e-10,1.108281e-01
3.082812e-10,1.087344e-01
3.122813e-10,1.066563e-01
3.162813e-10,1.045781e-01
3.202812e-10,1.027188e-01
3.242812e-10,1.003438e-01
3.282813e-10,9.815625e-02
3.322812e-10,9.607813e-02
3.362812e-10,9.417188e-02
3.402812e-10,9.171875e-02
3.442813e-10,8.956250e-02
3.482812e-10,8.735938e-02
3.522812e-10,8.517188e-02
3.562812e-10,8.296875e-02
3.602813e-10,8.100000e-02
3.642812e-10,7.850000e-02
3.682812e-10,7.620313e-02
3.722813e-10,7.403125e-02
3.762813e-10,7.204688e-02
3.802812e-10,6.954688e-02
3.842812e-10,6.734375e-02
3.882813e-10,6.517188e-02
3.922812e-10,6.301563e-02
3.962812e-10,6.090625e-02
4.002812e-10,5.906250e-02
4.042813e-10,5.671875e-02
4.082812e-10,5.464063e-02
4.122812e-10,5.275000e-02
4.162812e-10,5.107813e-02
4.202813e-10,4.895313e-02
4.242812e-10,4.717188e-02
4.282812e-10,4.545313e-02
4.322813e-10,4.381250e-02
4.362813e-10,4.225000e-02
4.402812e-10,4.101563e-02
4.442812e-10,3.928125e-02
4.482813e-10,3.784375e-02
4.522812e-10,3.665625e-02
4.562812e-10,3.568750e-02
4.602812e-10,3.428125e-02
4.642813e-10,3.321875e-02
4.682812e-10,3.225000e-02
4.722813e-10,3.134375e-02
4.762813e-10,3.050000e-02
4.802813e-10,3.000000e-02
4.842812e-10,2.898438e-02
4.882812e-10,2.825000e-02
4.922812e-10,2.773438e-02
4.962812e-10,2.742188e-02
5.002813e-10,2.665625e-02
5.042813e-10,2.617188e-02
5.082813e-10,2.578125e-02
5.122812e-10,2.540625e-02
5.162812e-10,2.504688e-02
5.202812e-10,2.500000e-02
5.242812e-10,2.440625e-02
5.282812e-10,2.401563e-02
5.322813e-10,2.385938e-02
5.362813e-10,2.384375e-02
5.402813e-10,2.332813e-02
5.442812e-10,2.306250e-02
5.482812e-10,2.287500e-02
5.522812e-10,2.264063e-02
5.562812e-10,2.239063e-02
5.602813e-10,2.243750e-02
5.642813e-10,2.189063e-02
5.682813e-10,2.153125e-02
5.722812e-10,2.135938e-02
5.762812e-10,2.134375e-02
5.802812e-10,2.078125e-02
5.842812e-10,2.046875e-02
5.882812e-10,2.018750e-02
5.922813e-10,1.987500e-02
5.962813e-10,1.953125e-02
6.002813e-10,1.945313e-02
6.042812e-10,1.879688e-02
6.082812e-10,1.832813e-02
6.122812e-10,1.806250e-02
6.162812e-10,1.795313e-02
6.202813e-10,1.729688e-02
6.242813e-10,1.689063e-02
6.282813e-10,1.653125e-02
6.322812e-10,1.617188e-02
6.362812e-10,1.576563e-02
6.402812e-10,1.567188e-02
6.442812e-10,1.500000e-02
6.482812e-10,1.453125e-02
6.522813e-10,1.429688e-02
6.562813e-10,1.423438e-02
6.602813e-10,1.362500e-02
6.642812e-10,1.331250e-02
6.682812e-10,1.303125e-02
6.722812e-10,1.278125e-02
6.762812e-10,1.250000e-02
6.802812e-10,1.251563e-02
6.842813e-10,1.198438e-02
6.882813e-10,1.165625e-02
6.922812e-10,1.154688e-02
6.962812e-10,1.164063e-02
7.002812e-10,1.115625e-02
7.042812e-10,1.096875e-02
7.082812e-10,1.081250e-02
7.122813e-10,1.065625e-02
7.162813e-10,1.046875e-02
7.202813e-10,1.057813e-02
7.242812e-10,1.009375e-02
7.282812e-10,9.812500e-03
7.322812e-10,9.750000e-03
7.362812e-10,9.859375e-03
7.402812e-10,9.375000e-03
7.442813e-10,9.187500e-03
7.482813e-10,9.015625e-03
7.522812e-10,8.828125e-03
7.562812e-10,8.625000e-03
7.602812e-10,8.703125e-03
7.642812e-10,8.203125e-03
7.682812e-10,7.906250e-03
7.722813e-10,7.828125e-03
7.762813e-10,7.937500e-03
7.802813e-10,7.484375e-03
7.842812e-10,7.343750e-03
7.882812e-10,7.218750e-03
7.922812e-10,7.140625e-03
7.962812e-10,7.046875e-03
8.002812e-10,7.296875e-03
8.042813e-10,6.984375e-03
8.082813e-10,6.906250e-03
8.122812e-10,7.078125e-03
8.162812e-10,7.484375e-03
8.202812e-10,7.343750e-03
8.242812e-10,7.546875e-03
8.282812e-10,7.796875e-03
8.322813e-10,8.078125e-03
8.362813e-10,8.406250e-03
8.402813e-10,9.046875e-03
8.442812e-10,9.140625e-03
8.482812e-10,9.468750e-03
8.522812e-10,1.003125e-02
8.562812e-10,1.079688e-02
8.602812e-10,1.098438e-02
8.642813e-10,1.148438e-02
8.682813e-10,1.196875e-02
8.722812e-10,1.246875e-02
8.762812e-10,1.293750e-02
8.802812e-10,1.367188e-02
8.842812e-10,1.378125e-02
8.882812e-10,1.404688e-02
8.922813e-10,1.448438e-02
8.962813e-10,1.504688e-02
9.002813e-10,1.496875e-02
9.042812e-10,1.510938e-02
9.082812e-10,1.518750e-02
9.122812e-10,1.520313e-02
9.162812e-10,1.514063e-02
9.202812e-10,1.529688e-02
9.242813e-10,1.476563e-02
9.282813e-10,1.437500e-02
9.322812e-10,1.410938e-02
9.362812e-10,1.396875e-02
9.402812e-10,1.317188e-02
9.442812e-10,1.260938e-02
9.482812e-10,1.201563e-02
9.522812e-10,1.135938e-02
9.562812e-10,1.067188e-02
9.602812e-10,1.025000e-02
9.642812e-10,9.203125e-03
9.682813e-10,8.359375e-03
9.722813e-10,7.718750e-03
9.762813e-10,7.281250e-03
9.802813e-10,6.265625e-03
9.842813e-10,5.562500e-03
9.882813e-10,4.921875e-03
9.922812e-10,4.296875e-03
9.962812e-10,3.734375e-03
1.000281e-09,3.515625e-03
1.004281e-09,2.765625e-03
1.008281e-09,2.265625e-03
1.012281e-09,2.031250e-03
1.016281e-09,2.062500e-03
1.020281e-09,1.562500e-03
1.024281e-09,1.421875e-03
1.028281e-09,1.343750e-03
1.032281e-09,1.312500e-03
1.036281e-09,1.343750e-03
1.040281e-09,1.703125e-03
1.044281e-09,1.515625e-03
1.048281e-09,1.562500e-03
1.052281e-09,1.859375e-03
1.056281e-09,2.359375e-03
1.060281e-09,2.265625e-03
1.064281e-09,2.500000e-03
1.068281e-09,2.734375e-03
1.072281e-09,2.953125e-03
1.076281e-09,3.171875e-03
1.080281e-09,3.671875e-03
1.084281e-09,3.562500e-03
1.088281e-09,3.609375e-03
1.092281e-09,3.859375e-03
1.096281e-09,4.281250e-03
1.100281e-09,4.062500e-03
1.104281e-09,4.140625e-03
1.108281e-09,4.171875e-03
1.112281e-09,4.203125e-03
1.116281e-09,4.203125e-03
1.120281e-09,4.500000e-03
1.124281e-09,4.171875e-03
1.128281e-09,4.046875e-03
1.132281e-09,4.125000e-03
1.136281e-09,4.406250e-03
1.140281e-09,4.093750e-03
1.144281e-09,4.093750e-03
1.148281e-09,4.093750e-03
1.152281e-09,4.140625e-03
1.156281e-09,4.203125e-03
1.160281e-09,4.593750e-03
1.164281e-09,4.406250e-03
1.168281e-09,4.468750e-03
1.172281e-09,4.750000e-03
1.176281e-09,5.265625e-03
1.180281e-09,5.203125e-03
1.184281e-09,5.468750e-03
1.188281e-09,5.750000e-03
1.192281e-09,6.062500e-03
1.196281e-09,6.390625e-03
1.200281e-09,7.031250e-03
1.204281e-09,7.078125e-03
1.208281e-09,7.312500e-03
1.212281e-09,7.750000e-03
1.216281e-09,8.375000e-03
1.220281e-09,8.375000e-03
1.224281e-09,8.640625e-03
1.228281e-09,8.875000e-03
1.232281e-09,9.093750e-03
1.236281e-09,9.265625e-03
1.240281e-09,9.687500e-03
1.244281e-09,9.468750e-03
1.248281e-09,9.406250e-03
1.252281e-09,9.484375e-03
1.256281e-09,9.734375e-03
1.260281e-09,9.328125e-03
1.264281e-09,9.171875e-03
1.268281e-09,8.984375e-03
1.272281e-09,8.750000e-03
1.276281e-09,8.484375e-03
1.280281e-09,8.515625e-03
1.284281e-09,7.906250e-03
1.288281e-09,7.500000e-03
1.292281e-09,7.281250e-03
1.296281e-09,7.265625e-03
1.300281e-09,6.656250e-03
1.304281e-09,6.359375e-03
1.308281e-09,6.109375e-03
1.312281e-09,5.875000e-03
1.316281e-09,5.671875e-03
1.320281e-09,5.812500e-03
1.324281e-09,5.406250e-03
1.328281e-09,5.234375e-03
1.332281e-09,5.328125e-03
1.336281e-09,5.671875e-03
1.340281e-09,5.453125e-03
1.344281e-09,5.609375e-03
1.348281e-09,5.812500e-03
1.352281e-09,6.046875e-03
1.356281e-09,6.343750e-03
1.360281e-09,6.968750e-03
1.364281e-09,7.031250e-03
1.368281e-09,7.343750e-03
1.372281e-09,7.859375e-03
1.376281e-09,8.593750e-03
1.380281e-09,8.734375e-03
1.384281e-09,9.187500e-03
1.388281e-09,9.625000e-03
1.392281e-09,1.006250e-02
1.396281e-09,1.048438e-02
1.400281e-09,1.117188e-02
1.404281e-09,1.123438e-02
1.408281e-09,1.145313e-02
1.412281e-09,1.184375e-02
1.416281e-09,1.239063e-02
1.420281e-09,1.228125e-02
1.424281e-09,1.243750e-02
1.428281e-09,1.254688e-02
1.432281e-09,1.259375e-02
1.436281e-09,1.260938e-02
1.440281e-09,1.287500e-02
1.444281e-09,1.248438e-02
1.448281e-09,1.226563e-02
1.452281e-09,1.220313e-02
1.456281e-09,1.231250e-02
1.460281e-09,1.179688e-02
1.464281e-09,1.154688e-02
1.468281e-09,1.128125e-02
1.472281e-09,1.100000e-02
1.476281e-09,1.071875e-02
1.480281e-09,1.071875e-02
1.484281e-09,1.012500e-02
1.488281e-09,9.718750e-03
1.492281e-09,9.515625e-03
1.496281e-09,9.531250e-03
1.500281e-09,8.953125e-03
1.504281e-09,8.671875e-03
1.508281e-09,8.421875e-03
1.512281e-09,8.171875e-03
1.516281e-09,7.937500e-03
1.520281e-09,8.015625e-03
1.524281e-09,7.500000e-03
1.528281e-09,7.187500e-03
1.532281e-09,7.093750e-03
1.536281e-09,7.203125e-03
1.540281e-09,6.703125e-03
1.544281e-09,6.515625e-03
1.548281e-09,6.328125e-03
1.552281e-09,6.140625e-03
1.556281e-09,5.937500e-03
1.560281e-09,6.046875e-03
1.564281e-09,5.531250e-03
1.568281e-09,5.203125e-03
1.572281e-09,5.078125e-03
1.576281e-09,5.140625e-03
1.580281e-09,4.578125e-03
1.584281e-09,4.328125e-03
1.588281e-09,4.062500e-03
1.592281e-09,3.781250e-03
1.596281e-09,3.515625e-03
1.600281e-09,3.546875e-03
1.604281e-09,2.953125e-03
1.608281e-09,2.593750e-03
1.612281e-09,2.421875e-03
1.616281e-09,2.468750e-03
1.620281e-09,1.937500e-03
1.624281e-09,1.703125e-03
1.628281e-09,1.500000e-03
1.632281e-09,1.328125e-03
1.636281e-09,1.171875e-03
1.640281e-09,1.343750e-03
1.644281e-09,9.218750e-04
1.648281e-09,7.500000e-04
1.652281e-09,8.125000e-04
1.656281e-09,1.093750e-03
1.660281e-09,8.125000e-04
1.664281e-09,8.593750e-04
1.668281e-09,9.375000e-04
1.672281e-09,1.031250e-03
1.676281e-09,1.156250e-03
1.680281e-09,1.609375e-03
1.684281e-09,1.453125e-03
1.688281e-09,1.531250e-03
1.692281e-09,1.828125e-03
1.696281e-09,2.328125e-03
1.700281e-09,2.234375e-03
1.704281e-09,2.437500e-03
1.708281e-09,2.640625e-03
1.712281e-09,2.828125e-03
1.716281e-09,3.015625e-03
1.720281e-09,3.500000e-03
1.724281e-09,3.359375e-03
1.728281e-09,3.406250e-03
1.732281e-09,3.625000e-03
1.736281e-09,4.046875e-03
1.740281e-09,3.843750e-03
1.744281e-09,3.921875e-03
1.748281e-09,3.968750e-03
1.752281e-09,4.015625e-03
1.756281e-09,4.046875e-03
