Measurements-streak-laser/Photodiode-on-Tek-6GHz/Tek000_ch1_20190613132741273.csv

Model,MSO64
Waveform Type,ANALOG
Horizontal Units,s
Sample Interval,4.000000e-12
Record Length,1000
Zero Index,310.726562
Vertical Units,V

TIME,CH1
-1.242906e-09,3.453125e-03
-1.238906e-09,2.953125e-03
-1.234906e-09,2.656250e-03
-1.230906e-09,2.562500e-03
-1.226906e-09,1.859375e-03
-1.222906e-09,1.484375e-03
-1.218906e-09,1.125000e-03
-1.214906e-09,7.656250e-04
-1.210906e-09,4.531250e-04
-1.206906e-09,4.687500e-04
-1.202906e-09,-7.812500e-05
-1.198906e-09,-3.906250e-04
-1.194906e-09,-4.531250e-04
-1.190906e-09,-2.656250e-04
-1.186906e-09,-6.250000e-04
-1.182906e-09,-6.406250e-04
-1.178906e-09,-6.093750e-04
-1.174906e-09,-5.156250e-04
-1.170906e-09,-3.593750e-04
-1.166906e-09,1.406250e-04
-1.162906e-09,7.812500e-05
-1.158906e-09,2.656250e-04
-1.154906e-09,7.031250e-04
-1.150906e-09,1.375000e-03
-1.146906e-09,1.468750e-03
-1.142906e-09,1.906250e-03
-1.138906e-09,2.359375e-03
-1.134906e-09,2.812500e-03
-1.130906e-09,3.281250e-03
-1.126906e-09,4.062500e-03
-1.122906e-09,4.218750e-03
-1.118906e-09,4.562500e-03
-1.114906e-09,5.093750e-03
-1.110906e-09,5.796875e-03
-1.106906e-09,5.843750e-03
-1.102906e-09,6.171875e-03
-1.098906e-09,6.453125e-03
-1.094906e-09,6.687500e-03
-1.090906e-09,6.875000e-03
-1.086906e-09,7.312500e-03
-1.082906e-09,7.093750e-03
-1.078906e-09,7.015625e-03
-1.074906e-09,7.078125e-03
-1.070906e-09,7.296875e-03
-1.066906e-09,6.859375e-03
-1.062906e-09,6.671875e-03
-1.058906e-09,6.453125e-03
-1.054906e-09,6.187500e-03
-1.050906e-09,5.875000e-03
-1.046906e-09,5.843750e-03
-1.042906e-09,5.203125e-03
-1.038906e-09,4.718750e-03
-1.034906e-09,4.437500e-03
-1.030906e-09,4.359375e-03
-1.026906e-09,3.687500e-03
-1.022906e-09,3.312500e-03
-1.018906e-09,2.953125e-03
-1.014906e-09,2.625000e-03
-1.010906e-09,2.328125e-03
-1.006906e-09,2.359375e-03
-1.002906e-09,1.828125e-03
-9.989063e-10,1.531250e-03
-9.949063e-10,1.500000e-03
-9.909062e-10,1.703125e-03
-9.869062e-10,1.343750e-03
-9.829062e-10,1.343750e-03
-9.789062e-10,1.390625e-03
-9.749062e-10,1.484375e-03
-9.709062e-10,1.609375e-03
-9.669062e-10,2.093750e-03
-9.629062e-10,2.015625e-03
-9.589062e-10,2.171875e-03
-9.549063e-10,2.562500e-03
-9.509063e-10,3.171875e-03
-9.469063e-10,3.218750e-03
-9.429063e-10,3.578125e-03
-9.389063e-10,3.953125e-03
-9.349063e-10,4.328125e-03
-9.309062e-10,4.703125e-03
-9.269063e-10,5.406250e-03
-9.229063e-10,5.468750e-03
-9.189063e-10,5.734375e-03
-9.149062e-10,6.203125e-03
-9.109062e-10,6.843750e-03
-9.069062e-10,6.859375e-03
-9.029062e-10,7.156250e-03
-8.989062e-10,7.421875e-03
-8.949063e-10,7.687500e-03
-8.909063e-10,7.906250e-03
-8.869062e-10,8.406250e-03
-8.829062e-10,8.281250e-03
-8.789062e-10,8.343750e-03
-8.749062e-10,8.562500e-03
-8.709062e-10,8.984375e-03
-8.669063e-10,8.781250e-03
-8.629063e-10,8.859375e-03
-8.589063e-10,8.921875e-03
-8.549062e-10,8.968750e-03
-8.509062e-10,9.015625e-03
-8.469062e-10,9.359375e-03
-8.429062e-10,9.093750e-03
-8.389062e-10,9.015625e-03
-8.349063e-10,9.156250e-03
-8.309063e-10,9.484375e-03
-8.269062e-10,9.234375e-03
-8.229062e-10,9.265625e-03
-8.189062e-10,9.312500e-03
-8.149062e-10,9.375000e-03
-8.109062e-10,9.437500e-03
-8.069063e-10,9.796875e-03
-8.029063e-10,9.562500e-03
-7.989063e-10,9.531250e-03
-7.949062e-10,9.687500e-03
-7.909062e-10,1.006250e-02
-7.869062e-10,9.812500e-03
-7.829062e-10,9.875000e-03
-7.789062e-10,9.921875e-03
-7.749063e-10,9.953125e-03
-7.709063e-10,9.968750e-03
-7.669062e-10,1.026563e-02
-7.629062e-10,9.953125e-03
-7.589062e-10,9.796875e-03
-7.549062e-10,9.843750e-03
-7.509062e-10,1.004688e-02
-7.469063e-10,9.625000e-03
-7.429063e-10,9.468750e-03
-7.389063e-10,9.296875e-03
-7.349062e-10,9.078125e-03
-7.309062e-10,8.843750e-03
-7.269062e-10,8.875000e-03
-7.229062e-10,8.281250e-03
-7.189062e-10,7.843750e-03
-7.149063e-10,7.609375e-03
-7.109063e-10,7.531250e-03
-7.069063e-10,6.843750e-03
-7.029062e-10,6.453125e-03
-6.989062e-10,6.031250e-03
-6.949062e-10,5.625000e-03
-6.909062e-10,5.203125e-03
-6.869063e-10,5.093750e-03
-6.829063e-10,4.375000e-03
-6.789063e-10,3.875000e-03
-6.749062e-10,3.593750e-03
-6.709062e-10,3.531250e-03
-6.669062e-10,2.890625e-03
-6.629062e-10,2.578125e-03
-6.589062e-10,2.296875e-03
-6.549063e-10,2.046875e-03
-6.509063e-10,1.828125e-03
-6.469063e-10,1.953125e-03
-6.429062e-10,1.500000e-03
-6.389062e-10,1.296875e-03
-6.349062e-10,1.343750e-03
-6.309062e-10,1.609375e-03
-6.269063e-10,1.328125e-03
-6.229063e-10,1.375000e-03
-6.189063e-10,1.437500e-03
-6.149062e-10,1.546875e-03
-6.109062e-10,1.687500e-03
-6.069062e-10,2.140625e-03
-6.029062e-10,2.000000e-03
-5.989062e-10,2.078125e-03
-5.949063e-10,2.375000e-03
-5.909063e-10,2.875000e-03
-5.869063e-10,2.765625e-03
-5.829062e-10,2.953125e-03
-5.789062e-10,3.140625e-03
-5.749062e-10,3.296875e-03
-5.709062e-10,3.437500e-03
-5.669063e-10,3.859375e-03
-5.629063e-10,3.656250e-03
-5.589063e-10,3.625000e-03
-5.549062e-10,3.750000e-03
-5.509062e-10,4.062500e-03
-5.469062e-10,3.734375e-03
-5.429062e-10,3.656250e-03
-5.389062e-10,3.562500e-03
-5.349063e-10,3.437500e-03
-5.309063e-10,3.281250e-03
-5.269063e-10,3.406250e-03
-5.229062e-10,2.890625e-03
-5.189062e-10,2.562500e-03
-5.149062e-10,2.421875e-03
-5.109062e-10,2.468750e-03
-5.069063e-10,1.921875e-03
-5.029063e-10,1.656250e-03
-4.989063e-10,1.406250e-03
-4.949062e-10,1.171875e-03
-4.909062e-10,9.531250e-04
-4.869062e-10,1.062500e-03
-4.829062e-10,5.781250e-04
-4.789062e-10,3.437500e-04
-4.749063e-10,3.437500e-04
-4.709063e-10,5.937500e-04
-4.669063e-10,2.812500e-04
-4.629063e-10,3.281250e-04
-4.589063e-10,3.906250e-04
-4.549062e-10,5.312500e-04
-4.509062e-10,6.875000e-04
-4.469063e-10,1.218750e-03
-4.429062e-10,1.187500e-03
-4.389062e-10,1.406250e-03
-4.349062e-10,1.859375e-03
-4.309063e-10,2.546875e-03
-4.269062e-10,2.687500e-03
-4.229062e-10,3.125000e-03
-4.189062e-10,3.578125e-03
-4.149063e-10,4.046875e-03
-4.109062e-10,4.515625e-03
-4.069062e-10,5.296875e-03
-4.029063e-10,5.453125e-03
-3.989063e-10,5.796875e-03
-3.949062e-10,6.328125e-03
-3.909062e-10,7.031250e-03
-3.869063e-10,7.109375e-03
-3.829062e-10,7.437500e-03
-3.789062e-10,7.687500e-03
-3.749062e-10,7.906250e-03
-3.709063e-10,8.062500e-03
-3.669062e-10,8.468750e-03
-3.629062e-10,8.218750e-03
-3.589062e-10,8.109375e-03
-3.549063e-10,8.156250e-03
-3.509062e-10,8.343750e-03
-3.469062e-10,7.890625e-03
-3.429063e-10,7.687500e-03
-3.389063e-10,7.406250e-03
-3.349062e-10,7.062500e-03
-3.309062e-10,6.718750e-03
-3.269063e-10,6.656250e-03
-3.229063e-10,5.953125e-03
-3.189062e-10,5.437500e-03
-3.149062e-10,5.156250e-03
-3.109063e-10,5.046875e-03
-3.069062e-10,4.390625e-03
-3.029062e-10,4.046875e-03
-2.989062e-10,3.671875e-03
-2.949063e-10,3.328125e-03
-2.909062e-10,3.062500e-03
-2.869062e-10,3.125000e-03
-2.829063e-10,2.640625e-03
-2.789063e-10,2.406250e-03
-2.749062e-10,2.468750e-03
-2.709062e-10,2.765625e-03
-2.669063e-10,2.562500e-03
-2.629063e-10,2.718750e-03
-2.589062e-10,2.875000e-03
-2.549062e-10,3.062500e-03
-2.509063e-10,3.375000e-03
-2.469062e-10,3.984375e-03
-2.429062e-10,4.093750e-03
-2.389062e-10,4.390625e-03
-2.349063e-10,4.984375e-03
-2.309063e-10,5.765625e-03
-2.269062e-10,6.000000e-03
-2.229063e-10,6.546875e-03
-2.189062e-10,7.031250e-03
-2.149063e-10,7.484375e-03
-2.109062e-10,8.000000e-03
-2.069063e-10,8.734375e-03
-2.029062e-10,8.906250e-03
-1.989063e-10,9.187500e-03
-1.949062e-10,9.687500e-03
-1.909062e-10,1.029688e-02
-1.869062e-10,1.028125e-02
-1.829062e-10,1.050000e-02
-1.789062e-10,1.062500e-02
-1.749062e-10,1.065625e-02
-1.709063e-10,1.071875e-02
-1.669062e-10,1.093750e-02
-1.629063e-10,1.059375e-02
-1.589062e-10,1.034375e-02
-1.549063e-10,1.025000e-02
-1.509062e-10,1.032813e-02
-1.469063e-10,9.765625e-03
-1.429062e-10,9.468750e-03
-1.389063e-10,9.125000e-03
-1.349062e-10,8.718750e-03
-1.309063e-10,8.421875e-03
-1.269062e-10,8.328125e-03
-1.229062e-10,7.781250e-03
-1.189062e-10,7.375000e-03
-1.149063e-10,7.203125e-03
-1.109063e-10,7.312500e-03
-1.069063e-10,6.859375e-03
-1.029063e-10,6.781250e-03
-9.890625e-11,6.750000e-03
-9.490625e-11,6.796875e-03
-9.090625e-11,7.000000e-03
-8.690625e-11,7.531250e-03
-8.290625e-11,7.718750e-03
-7.890625e-11,8.140625e-03
-7.490625e-11,8.875000e-03
-7.090625e-11,9.968750e-03
-6.690625e-11,1.059375e-02
-6.290625e-11,1.165625e-02
-5.890625e-11,1.282813e-02
-5.490625e-11,1.414063e-02
-5.090625e-11,1.565625e-02
-4.690625e-11,1.756250e-02
-4.290625e-11,1.917188e-02
-3.890625e-11,2.104688e-02
-3.490625e-11,2.321875e-02
-3.090625e-11,2.578125e-02
-2.690625e-11,2.792188e-02
-2.290625e-11,3.045313e-02
-1.890625e-11,3.312500e-02
-1.490625e-11,3.593750e-02
-1.090625e-11,3.892188e-02
-6.906250e-12,4.231250e-02
-2.906250e-12,4.535938e-02
1.093750e-12,4.867188e-02
5.093750e-12,5.223438e-02
9.093750e-12,5.617188e-02
1.309375e-11,5.968750e-02
1.709375e-11,6.353125e-02
2.109375e-11,6.750000e-02
2.509375e-11,7.157813e-02
2.909375e-11,7.578125e-02
3.309375e-11,8.035938e-02
3.709375e-11,8.457813e-02
4.109375e-11,8.901563e-02
4.509375e-11,9.365625e-02
4.909375e-11,9.859375e-02
5.309375e-11,1.031406e-01
5.709375e-11,1.079219e-01
6.109375e-11,1.127813e-01
6.509375e-11,1.177188e-01
6.909375e-11,1.226875e-01
7.309375e-11,1.280156e-01
7.709375e-11,1.329063e-01
8.109375e-11,1.379375e-01
8.509375e-11,1.431094e-01
8.909375e-11,1.484844e-01
9.309375e-11,1.534219e-01
9.709375e-11,1.585000e-01
1.010938e-10,1.635625e-01
1.050938e-10,1.686094e-01
1.090938e-10,1.735938e-01
1.130938e-10,1.788125e-01
1.170937e-10,1.835000e-01
1.210937e-10,1.882500e-01
1.250937e-10,1.930156e-01
1.290937e-10,1.978438e-01
1.330938e-10,2.021563e-01
1.370937e-10,2.065000e-01
1.410938e-10,2.107188e-01
1.450937e-10,2.147969e-01
1.490938e-10,2.187031e-01
1.530937e-10,2.227344e-01
1.570938e-10,2.261406e-01
1.610937e-10,2.295000e-01
1.650938e-10,2.327656e-01
1.690937e-10,2.360000e-01
1.730938e-10,2.386250e-01
1.770937e-10,2.412344e-01
1.810937e-10,2.436250e-01
1.850937e-10,2.457969e-01
1.890937e-10,2.477344e-01
1.930938e-10,2.496875e-01
1.970937e-10,2.510156e-01
2.010938e-10,2.522344e-01
2.050937e-10,2.533125e-01
2.090938e-10,2.543281e-01
2.130937e-10,2.546875e-01
2.170938e-10,2.550313e-01
2.210937e-10,2.551250e-01
2.250938e-10,2.550156e-01
2.290937e-10,2.546719e-01
2.330937e-10,2.542969e-01
2.370938e-10,2.533281e-01
2.410937e-10,2.522656e-01
2.450937e-10,2.510938e-01
2.490937e-10,2.498438e-01
2.530938e-10,2.479688e-01
2.570937e-10,2.461406e-01
2.610937e-10,2.440938e-01
2.650938e-10,2.418750e-01
2.690938e-10,2.394688e-01
2.730937e-10,2.370625e-01
2.770937e-10,2.341094e-01
2.810938e-10,2.311406e-01
2.850938e-10,2.280781e-01
2.890937e-10,2.250469e-01
2.930937e-10,2.214063e-01
2.970938e-10,2.179063e-01
3.010937e-10,2.142500e-01
3.050937e-10,2.105000e-01
3.090937e-10,2.066563e-01
3.130938e-10,2.028750e-01
3.170937e-10,1.985938e-01
3.210937e-10,1.944219e-01
3.250938e-10,1.902500e-01
3.290938e-10,1.861719e-01
3.330937e-10,1.815938e-01
3.370937e-10,1.772656e-01
3.410938e-10,1.728750e-01
3.450938e-10,1.684844e-01
3.490937e-10,1.641094e-01
3.530937e-10,1.599063e-01
3.570938e-10,1.552813e-01
3.610937e-10,1.508750e-01
3.650937e-10,1.465781e-01
3.690937e-10,1.424844e-01
3.730938e-10,1.379844e-01
3.770937e-10,1.338281e-01
3.810937e-10,1.297188e-01
3.850938e-10,1.257188e-01
3.890938e-10,1.217969e-01
3.930937e-10,1.181719e-01
3.970937e-10,1.141406e-01
4.010938e-10,1.104531e-01
4.050938e-10,1.069531e-01
4.090937e-10,1.037031e-01
4.130937e-10,1.001094e-01
4.170938e-10,9.692188e-02
4.210937e-10,9.382813e-02
4.250937e-10,9.087500e-02
4.290937e-10,8.804688e-02
4.330938e-10,8.554688e-02
4.370937e-10,8.265625e-02
4.410937e-10,8.010938e-02
4.450937e-10,7.778125e-02
4.490938e-10,7.568750e-02
4.530937e-10,7.326563e-02
4.570937e-10,7.121875e-02
4.610938e-10,6.926563e-02
4.650937e-10,6.743750e-02
4.690938e-10,6.568750e-02
4.730938e-10,6.428125e-02
4.770938e-10,6.240625e-02
4.810937e-10,6.084375e-02
4.850937e-10,5.950000e-02
4.890937e-10,5.832813e-02
4.930937e-10,5.679688e-02
4.970937e-10,5.556250e-02
5.010938e-10,5.443750e-02
5.050938e-10,5.334375e-02
5.090938e-10,5.229688e-02
5.130937e-10,5.156250e-02
5.170937e-10,5.031250e-02
5.210937e-10,4.931250e-02
5.250937e-10,4.851563e-02
5.290938e-10,4.785938e-02
5.330938e-10,4.679688e-02
5.370938e-10,4.596875e-02
5.410937e-10,4.525000e-02
5.450937e-10,4.453125e-02
5.490937e-10,4.379688e-02
5.530937e-10,4.337500e-02
5.570937e-10,4.239063e-02
5.610938e-10,4.162500e-02
5.650938e-10,4.106250e-02
5.690938e-10,4.062500e-02
5.730937e-10,3.975000e-02
5.770937e-10,3.909375e-02
5.810937e-10,3.851563e-02
5.850937e-10,3.792188e-02
5.890938e-10,3.729688e-02
5.930938e-10,3.695313e-02
5.970938e-10,3.604688e-02
6.010937e-10,3.532813e-02
6.050937e-10,3.481250e-02
6.090937e-10,3.442188e-02
6.130937e-10,3.354688e-02
6.170937e-10,3.285938e-02
6.210938e-10,3.228125e-02
6.250938e-10,3.164063e-02
6.290938e-10,3.093750e-02
6.330937e-10,3.050000e-02
6.370937e-10,2.950000e-02
6.410937e-10,2.865625e-02
6.450937e-10,2.801563e-02
6.490938e-10,2.750000e-02
6.530938e-10,2.643750e-02
6.570938e-10,2.560938e-02
6.610937e-10,2.482813e-02
6.650937e-10,2.400000e-02
6.690937e-10,2.309375e-02
6.730937e-10,2.246875e-02
6.770937e-10,2.126563e-02
6.810938e-10,2.021875e-02
6.850938e-10,1.939063e-02
6.890938e-10,1.871875e-02
6.930937e-10,1.750000e-02
6.970937e-10,1.653125e-02
7.010937e-10,1.562500e-02
7.050937e-10,1.470313e-02
7.090938e-10,1.375000e-02
7.130938e-10,1.309375e-02
7.170938e-10,1.190625e-02
7.210937e-10,1.092188e-02
7.250937e-10,1.018750e-02
7.290937e-10,9.687500e-03
7.330937e-10,8.656250e-03
7.370937e-10,7.968750e-03
7.410938e-10,7.359375e-03
7.450938e-10,6.812500e-03
7.490938e-10,6.281250e-03
7.530937e-10,6.109375e-03
7.570937e-10,5.453125e-03
7.610937e-10,5.062500e-03
7.650937e-10,4.968750e-03
7.690938e-10,5.140625e-03
7.730938e-10,4.828125e-03
7.770938e-10,4.875000e-03
7.810937e-10,5.046875e-03
7.850937e-10,5.296875e-03
7.890937e-10,5.578125e-03
7.930937e-10,6.218750e-03
7.970937e-10,6.375000e-03
8.010938e-10,6.781250e-03
8.050938e-10,7.453125e-03
8.090938e-10,8.390625e-03
8.130937e-10,8.765625e-03
8.170937e-10,9.484375e-03
8.210937e-10,1.023438e-02
8.250937e-10,1.101563e-02
8.290937e-10,1.176563e-02
8.330938e-10,1.281250e-02
8.370938e-10,1.326563e-02
8.410937e-10,1.389063e-02
8.450937e-10,1.468750e-02
8.490937e-10,1.564063e-02
8.530937e-10,1.593750e-02
8.570937e-10,1.648438e-02
8.610938e-10,1.698438e-02
8.650938e-10,1.739063e-02
8.690938e-10,1.770313e-02
8.730937e-10,1.823438e-02
8.770937e-10,1.809375e-02
8.810937e-10,1.804688e-02
8.850937e-10,1.812500e-02
8.890937e-10,1.829688e-02
8.930938e-10,1.779688e-02
8.970938e-10,1.750000e-02
9.010937e-10,1.712500e-02
9.050937e-10,1.668750e-02
9.090937e-10,1.617188e-02
9.130937e-10,1.587500e-02
9.170937e-10,1.495313e-02
9.210938e-10,1.417188e-02
9.250938e-10,1.356250e-02
9.290938e-10,1.312500e-02
9.330937e-10,1.209375e-02
9.370938e-10,1.134375e-02
9.410938e-10,1.062500e-02
9.450938e-10,9.921875e-03
9.490938e-10,9.234375e-03
9.530938e-10,8.890625e-03
9.570938e-10,8.000000e-03
9.610937e-10,7.359375e-03
9.650937e-10,7.000000e-03
9.690937e-10,6.906250e-03
9.730937e-10,6.296875e-03
9.770937e-10,6.046875e-03
9.810937e-10,5.906250e-03
9.850937e-10,5.828125e-03
9.890937e-10,5.828125e-03
9.930937e-10,6.203125e-03
9.970938e-10,6.062500e-03
1.001094e-09,6.171875e-03
1.005094e-09,6.562500e-03
1.009094e-09,7.218750e-03
1.013094e-09,7.312500e-03
1.017094e-09,7.750000e-03
1.021094e-09,8.218750e-03
1.025094e-09,8.703125e-03
1.029094e-09,9.203125e-03
1.033094e-09,9.984375e-03
1.037094e-09,1.017188e-02
1.041094e-09,1.054688e-02
1.045094e-09,1.109375e-02
1.049094e-09,1.179688e-02
1.053094e-09,1.185938e-02
1.057094e-09,1.217188e-02
1.061094e-09,1.242188e-02
1.065094e-09,1.262500e-02
1.069094e-09,1.276563e-02
1.073094e-09,1.312500e-02
1.077094e-09,1.282813e-02
1.081094e-09,1.267188e-02
1.085094e-09,1.265625e-02
1.089094e-09,1.278125e-02
1.093094e-09,1.225000e-02
1.097094e-09,1.196875e-02
1.101094e-09,1.165625e-02
1.105094e-09,1.129688e-02
1.109094e-09,1.092188e-02
1.113094e-09,1.081250e-02
1.117094e-09,1.009375e-02
1.121094e-09,9.578125e-03
1.125094e-09,9.265625e-03
1.129094e-09,9.171875e-03
1.133094e-09,8.500000e-03
1.137094e-09,8.156250e-03
1.141094e-09,7.843750e-03
1.145094e-09,7.578125e-03
1.149094e-09,7.359375e-03
1.153094e-09,7.484375e-03
1.157094e-09,7.046875e-03
1.161094e-09,6.875000e-03
1.165094e-09,6.953125e-03
1.169094e-09,7.281250e-03
1.173094e-09,7.062500e-03
1.177094e-09,7.187500e-03
1.181094e-09,7.343750e-03
1.185094e-09,7.531250e-03
1.189094e-09,7.750000e-03
1.193094e-09,8.296875e-03
1.197094e-09,8.250000e-03
1.201094e-09,8.406250e-03
1.205094e-09,8.765625e-03
1.209094e-09,9.312500e-03
1.213094e-09,9.250000e-03
1.217094e-09,9.453125e-03
1.221094e-09,9.625000e-03
1.225094e-09,9.765625e-03
1.229094e-09,9.859375e-03
1.233094e-09,1.021875e-02
1.237094e-09,9.906250e-03
1.241094e-09,9.750000e-03
1.245094e-09,9.750000e-03
1.249094e-09,9.890625e-03
1.253094e-09,9.375000e-03
1.257094e-09,9.109375e-03
1.261094e-09,8.796875e-03
1.265094e-09,8.437500e-03
1.269094e-09,8.046875e-03
1.273094e-09,7.921875e-03
1.277094e-09,7.171875e-03
1.281094e-09,6.609375e-03
1.285094e-09,6.234375e-03
1.289094e-09,6.062500e-03
1.293094e-09,5.296875e-03
1.297094e-09,4.843750e-03
1.301094e-09,4.406250e-03
1.305094e-09,4.015625e-03
1.309094e-09,3.656250e-03
1.313094e-09,3.625000e-03
1.317094e-09,3.062500e-03
1.321094e-09,2.734375e-03
1.325094e-09,2.671875e-03
1.329094e-09,2.875000e-03
1.333094e-09,2.515625e-03
1.337094e-09,2.531250e-03
1.341094e-09,2.609375e-03
1.345094e-09,2.734375e-03
1.349094e-09,2.906250e-03
1.353094e-09,3.437500e-03
1.357094e-09,3.421875e-03
1.361094e-09,3.625000e-03
1.365094e-09,4.078125e-03
1.369094e-09,4.750000e-03
1.373094e-09,4.828125e-03
1.377094e-09,5.234375e-03
1.381094e-09,5.625000e-03
1.385094e-09,6.031250e-03
1.389094e-09,6.421875e-03
1.393094e-09,7.093750e-03
1.397094e-09,7.125000e-03
1.401094e-09,7.343750e-03
1.405094e-09,7.718750e-03
1.409094e-09,8.265625e-03
1.413094e-09,8.156250e-03
1.417094e-09,8.312500e-03
1.421094e-09,8.437500e-03
1.425094e-09,8.500000e-03
1.429094e-09,8.515625e-03
1.433094e-09,8.812500e-03
1.437094e-09,8.437500e-03
1.441094e-09,8.250000e-03
1.445094e-09,8.218750e-03
1.449094e-09,8.375000e-03
1.453094e-09,7.890625e-03
1.457094e-09,7.703125e-03
1.461094e-09,7.500000e-03
1.465094e-09,7.312500e-03
1.469094e-09,7.109375e-03
1.473094e-09,7.218750e-03
1.477094e-09,6.734375e-03
1.481094e-09,6.484375e-03
1.485094e-09,6.453125e-03
1.489094e-09,6.656250e-03
1.493094e-09,6.281250e-03
1.497094e-09,6.250000e-03
1.501094e-09,6.250000e-03
1.505094e-09,6.281250e-03
1.509094e-09,6.359375e-03
1.513094e-09,6.765625e-03
1.517094e-09,6.609375e-03
1.521094e-09,6.687500e-03
1.525094e-09,7.000000e-03
1.529094e-09,7.531250e-03
1.533094e-09,7.484375e-03
1.537094e-09,7.750000e-03
1.541094e-09,8.031250e-03
1.545094e-09,8.312500e-03
1.549094e-09,8.593750e-03
1.553094e-09,9.171875e-03
1.557094e-09,9.125000e-03
1.561094e-09,9.281250e-03
1.565094e-09,9.609375e-03
1.569094e-09,1.010938e-02
1.573094e-09,9.984375e-03
1.577094e-09,1.012500e-02
1.581094e-09,1.023438e-02
1.585094e-09,1.029688e-02
1.589094e-09,1.032813e-02
1.593094e-09,1.062500e-02
1.597094e-09,1.029688e-02
1.601094e-09,1.010938e-02
1.605094e-09,1.010938e-02
1.609094e-09,1.028125e-02
1.613094e-09,9.812500e-03
1.617094e-09,9.640625e-03
1.621094e-09,9.453125e-03
1.625094e-09,9.234375e-03
1.629094e-09,9.031250e-03
1.633094e-09,9.109375e-03
1.637094e-09,8.609375e-03
1.641094e-09,8.312500e-03
1.645094e-09,8.218750e-03
1.649094e-09,8.359375e-03
1.653094e-09,7.921875e-03
1.657094e-09,7.812500e-03
1.661094e-09,7.718750e-03
1.665094e-09,7.687500e-03
1.669094e-09,7.671875e-03
1.673094e-09,8.000000e-03
1.677094e-09,7.750000e-03
1.681094e-09,7.750000e-03
1.685094e-09,7.984375e-03
1.689094e-09,8.437500e-03
1.693094e-09,8.328125e-03
1.697094e-09,8.546875e-03
1.701094e-09,8.796875e-03
1.705094e-09,9.046875e-03
1.709094e-09,9.312500e-03
1.713094e-09,9.890625e-03
1.717094e-09,9.859375e-03
1.721094e-09,1.001563e-02
1.725094e-09,1.037500e-02
1.729094e-09,1.090625e-02
1.733094e-09,1.081250e-02
1.737094e-09,1.098438e-02
1.741094e-09,1.112500e-02
1.745094e-09,1.123438e-02
1.749094e-09,1.129688e-02
1.753094e-09,1.160938e-02
1.757094e-09,1.126563e-02
