Measurements-streak-laser/Photodiode-on-Tek-6GHz/Tek000_ch1_20190613132731244.csv

Model,MSO64
Waveform Type,ANALOG
Horizontal Units,s
Sample Interval,4.000000e-12
Record Length,1000
Zero Index,310.539062
Vertical Units,V

TIME,CH1
-1.242156e-09,6.562500e-03
-1.238156e-09,7.203125e-03
-1.234156e-09,7.218750e-03
-1.230156e-09,7.406250e-03
-1.226156e-09,7.765625e-03
-1.222156e-09,8.281250e-03
-1.218156e-09,8.125000e-03
-1.214156e-09,8.234375e-03
-1.210156e-09,8.281250e-03
-1.206156e-09,8.281250e-03
-1.202156e-09,8.218750e-03
-1.198156e-09,8.421875e-03
-1.194156e-09,7.937500e-03
-1.190156e-09,7.625000e-03
-1.186156e-09,7.453125e-03
-1.182156e-09,7.437500e-03
-1.178156e-09,6.781250e-03
-1.174156e-09,6.390625e-03
-1.170156e-09,5.984375e-03
-1.166156e-09,5.546875e-03
-1.162156e-09,5.093750e-03
-1.158156e-09,4.937500e-03
-1.154156e-09,4.187500e-03
-1.150156e-09,3.640625e-03
-1.146156e-09,3.328125e-03
-1.142156e-09,3.234375e-03
-1.138156e-09,2.562500e-03
-1.134156e-09,2.234375e-03
-1.130156e-09,1.953125e-03
-1.126156e-09,1.734375e-03
-1.122156e-09,1.562500e-03
-1.118156e-09,1.750000e-03
-1.114156e-09,1.390625e-03
-1.110156e-09,1.296875e-03
-1.106156e-09,1.468750e-03
-1.102156e-09,1.906250e-03
-1.098156e-09,1.796875e-03
-1.094156e-09,2.046875e-03
-1.090156e-09,2.359375e-03
-1.086156e-09,2.703125e-03
-1.082156e-09,3.093750e-03
-1.078156e-09,3.828125e-03
-1.074156e-09,4.000000e-03
-1.070156e-09,4.375000e-03
-1.066156e-09,4.984375e-03
-1.062156e-09,5.781250e-03
-1.058156e-09,6.000000e-03
-1.054156e-09,6.500000e-03
-1.050156e-09,6.984375e-03
-1.046156e-09,7.437500e-03
-1.042156e-09,7.875000e-03
-1.038156e-09,8.578125e-03
-1.034156e-09,8.625000e-03
-1.030156e-09,8.843750e-03
-1.026156e-09,9.218750e-03
-1.022156e-09,9.734375e-03
-1.018156e-09,9.593750e-03
-1.014156e-09,9.718750e-03
-1.010156e-09,9.781250e-03
-1.006156e-09,9.781250e-03
-1.002156e-09,9.750000e-03
-9.981563e-10,9.968750e-03
-9.941563e-10,9.546875e-03
-9.901563e-10,9.281250e-03
-9.861563e-10,9.187500e-03
-9.821562e-10,9.281250e-03
-9.781562e-10,8.750000e-03
-9.741562e-10,8.500000e-03
-9.701562e-10,8.250000e-03
-9.661562e-10,7.984375e-03
-9.621562e-10,7.750000e-03
-9.581562e-10,7.812500e-03
-9.541562e-10,7.296875e-03
-9.501562e-10,7.000000e-03
-9.461563e-10,6.937500e-03
-9.421563e-10,7.109375e-03
-9.381563e-10,6.703125e-03
-9.341563e-10,6.640625e-03
-9.301562e-10,6.625000e-03
-9.261562e-10,6.640625e-03
-9.221562e-10,6.687500e-03
-9.181563e-10,7.078125e-03
-9.141563e-10,6.890625e-03
-9.101563e-10,6.953125e-03
-9.061562e-10,7.234375e-03
-9.021562e-10,7.750000e-03
-8.981562e-10,7.671875e-03
-8.941562e-10,7.906250e-03
-8.901562e-10,8.156250e-03
-8.861563e-10,8.390625e-03
-8.821563e-10,8.640625e-03
-8.781562e-10,9.171875e-03
-8.741562e-10,9.093750e-03
-8.701562e-10,9.187500e-03
-8.661562e-10,9.453125e-03
-8.621562e-10,9.906250e-03
-8.581563e-10,9.703125e-03
-8.541563e-10,9.765625e-03
-8.501563e-10,9.796875e-03
-8.461562e-10,9.765625e-03
-8.421562e-10,9.703125e-03
-8.381562e-10,9.906250e-03
-8.341562e-10,9.453125e-03
-8.301562e-10,9.140625e-03
-8.261563e-10,9.000000e-03
-8.221563e-10,9.031250e-03
-8.181562e-10,8.406250e-03
-8.141562e-10,8.062500e-03
-8.101562e-10,7.703125e-03
-8.061562e-10,7.296875e-03
-8.021562e-10,6.890625e-03
-7.981563e-10,6.781250e-03
-7.941563e-10,6.046875e-03
-7.901563e-10,5.531250e-03
-7.861562e-10,5.218750e-03
-7.821562e-10,5.125000e-03
-7.781562e-10,4.437500e-03
-7.741562e-10,4.078125e-03
-7.701562e-10,3.750000e-03
-7.661563e-10,3.468750e-03
-7.621563e-10,3.218750e-03
-7.581562e-10,3.312500e-03
-7.541562e-10,2.843750e-03
-7.501562e-10,2.625000e-03
-7.461562e-10,2.656250e-03
-7.421562e-10,2.937500e-03
-7.381563e-10,2.656250e-03
-7.341563e-10,2.718750e-03
-7.301563e-10,2.812500e-03
-7.261562e-10,2.968750e-03
-7.221562e-10,3.156250e-03
-7.181562e-10,3.671875e-03
-7.141562e-10,3.609375e-03
-7.101563e-10,3.765625e-03
-7.061563e-10,4.156250e-03
-7.021563e-10,4.750000e-03
-6.981562e-10,4.750000e-03
-6.941562e-10,5.046875e-03
-6.901562e-10,5.343750e-03
-6.861562e-10,5.640625e-03
-6.821562e-10,5.921875e-03
-6.781563e-10,6.500000e-03
-6.741563e-10,6.437500e-03
-6.701563e-10,6.546875e-03
-6.661562e-10,6.843750e-03
-6.621562e-10,7.312500e-03
-6.581562e-10,7.156250e-03
-6.541562e-10,7.265625e-03
-6.501563e-10,7.343750e-03
-6.461563e-10,7.375000e-03
-6.421563e-10,7.406250e-03
-6.381562e-10,7.703125e-03
-6.341562e-10,7.359375e-03
-6.301562e-10,7.203125e-03
-6.261562e-10,7.218750e-03
-6.221562e-10,7.421875e-03
-6.181563e-10,7.015625e-03
-6.141563e-10,6.906250e-03
-6.101563e-10,6.781250e-03
-6.061562e-10,6.656250e-03
-6.021562e-10,6.515625e-03
-5.981562e-10,6.703125e-03
-5.941562e-10,6.281250e-03
-5.901563e-10,6.078125e-03
-5.861563e-10,6.093750e-03
-5.821563e-10,6.312500e-03
-5.781562e-10,5.953125e-03
-5.741562e-10,5.906250e-03
-5.701562e-10,5.875000e-03
-5.661562e-10,5.875000e-03
-5.621562e-10,5.890625e-03
-5.581563e-10,6.234375e-03
-5.541563e-10,5.984375e-03
-5.501563e-10,5.953125e-03
-5.461562e-10,6.156250e-03
-5.421562e-10,6.562500e-03
-5.381562e-10,6.375000e-03
-5.341562e-10,6.500000e-03
-5.301563e-10,6.625000e-03
-5.261563e-10,6.781250e-03
-5.221563e-10,6.921875e-03
-5.181562e-10,7.375000e-03
-5.141562e-10,7.203125e-03
-5.101562e-10,7.234375e-03
-5.061562e-10,7.468750e-03
-5.021562e-10,7.890625e-03
-4.981563e-10,7.703125e-03
-4.941563e-10,7.796875e-03
-4.901563e-10,7.875000e-03
-4.861562e-10,7.937500e-03
-4.821562e-10,7.984375e-03
-4.781562e-10,8.312500e-03
-4.741562e-10,8.000000e-03
-4.701563e-10,7.890625e-03
-4.661563e-10,7.968750e-03
-4.621562e-10,8.218750e-03
-4.581562e-10,7.843750e-03
-4.541563e-10,7.750000e-03
-4.501562e-10,7.625000e-03
-4.461562e-10,7.500000e-03
-4.421562e-10,7.343750e-03
-4.381563e-10,7.484375e-03
-4.341562e-10,7.000000e-03
-4.301562e-10,6.703125e-03
-4.261562e-10,6.609375e-03
-4.221563e-10,6.703125e-03
-4.181562e-10,6.187500e-03
-4.141562e-10,5.953125e-03
-4.101563e-10,5.703125e-03
-4.061563e-10,5.453125e-03
-4.021562e-10,5.187500e-03
-3.981562e-10,5.234375e-03
-3.941563e-10,4.656250e-03
-3.901562e-10,4.296875e-03
-3.861562e-10,4.140625e-03
-3.821562e-10,4.187500e-03
-3.781563e-10,3.640625e-03
-3.741562e-10,3.390625e-03
-3.701562e-10,3.125000e-03
-3.661562e-10,2.859375e-03
-3.621563e-10,2.609375e-03
-3.581562e-10,2.687500e-03
-3.541562e-10,2.156250e-03
-3.501563e-10,1.843750e-03
-3.461563e-10,1.750000e-03
-3.421562e-10,1.875000e-03
-3.381562e-10,1.437500e-03
-3.341563e-10,1.312500e-03
-3.301562e-10,1.187500e-03
-3.261562e-10,1.062500e-03
-3.221562e-10,1.000000e-03
-3.181563e-10,1.250000e-03
-3.141562e-10,9.375000e-04
-3.101562e-10,8.281250e-04
-3.061562e-10,1.000000e-03
-3.021563e-10,1.359375e-03
-2.981562e-10,1.187500e-03
-2.941562e-10,1.343750e-03
-2.901563e-10,1.484375e-03
-2.861563e-10,1.656250e-03
-2.821562e-10,1.890625e-03
-2.781562e-10,2.421875e-03
-2.741563e-10,2.390625e-03
-2.701563e-10,2.578125e-03
-2.661562e-10,3.000000e-03
-2.621562e-10,3.625000e-03
-2.581563e-10,3.687500e-03
-2.541562e-10,4.046875e-03
-2.501562e-10,4.375000e-03
-2.461562e-10,4.687500e-03
-2.421563e-10,5.062500e-03
-2.381562e-10,5.671875e-03
-2.341562e-10,5.703125e-03
-2.301563e-10,5.890625e-03
-2.261562e-10,6.296875e-03
-2.221563e-10,6.843750e-03
-2.181562e-10,6.781250e-03
-2.141563e-10,7.000000e-03
-2.101562e-10,7.140625e-03
-2.061563e-10,7.218750e-03
-2.021562e-10,7.312500e-03
-1.981562e-10,7.609375e-03
-1.941562e-10,7.328125e-03
-1.901562e-10,7.156250e-03
-1.861563e-10,7.171875e-03
-1.821562e-10,7.328125e-03
-1.781563e-10,6.859375e-03
-1.741562e-10,6.640625e-03
-1.701563e-10,6.375000e-03
-1.661562e-10,6.031250e-03
-1.621563e-10,5.750000e-03
-1.581562e-10,5.671875e-03
-1.541563e-10,5.062500e-03
-1.501562e-10,4.578125e-03
-1.461563e-10,4.312500e-03
-1.421562e-10,4.265625e-03
-1.381562e-10,3.625000e-03
-1.341562e-10,3.296875e-03
-1.301562e-10,2.984375e-03
-1.261563e-10,2.703125e-03
-1.221562e-10,2.500000e-03
-1.181563e-10,2.625000e-03
-1.141563e-10,2.281250e-03
-1.101563e-10,2.171875e-03
-1.061562e-10,2.328125e-03
-1.021562e-10,2.796875e-03
-9.815625e-11,2.765625e-03
-9.415625e-11,3.125000e-03
-9.015625e-11,3.578125e-03
-8.615625e-11,4.140625e-03
-8.215625e-11,4.875000e-03
-7.815625e-11,5.984375e-03
-7.415625e-11,6.718750e-03
-7.015625e-11,7.734375e-03
-6.615625e-11,9.062500e-03
-6.215625e-11,1.075000e-02
-5.815625e-11,1.200000e-02
-5.415625e-11,1.365625e-02
-5.015625e-11,1.543750e-02
-4.615625e-11,1.734375e-02
-4.215625e-11,1.940625e-02
-3.815625e-11,2.187500e-02
-3.415625e-11,2.395313e-02
-3.015625e-11,2.629688e-02
-2.615625e-11,2.892188e-02
-2.215625e-11,3.187500e-02
-1.815625e-11,3.434375e-02
-1.415625e-11,3.717188e-02
-1.015625e-11,4.007813e-02
-6.156250e-12,4.306250e-02
-2.156250e-12,4.610938e-02
1.843750e-12,4.951563e-02
5.843750e-12,5.245313e-02
9.843750e-12,5.559375e-02
1.384375e-11,5.890625e-02
1.784375e-11,6.246875e-02
2.184375e-11,6.550000e-02
2.584375e-11,6.878125e-02
2.984375e-11,7.206250e-02
3.384375e-11,7.535938e-02
3.784375e-11,7.862500e-02
4.184375e-11,8.218750e-02
4.584375e-11,8.520313e-02
4.984375e-11,8.834375e-02
5.384375e-11,9.160938e-02
5.784375e-11,9.503125e-02
6.184375e-11,9.792188e-02
6.584375e-11,1.009844e-01
6.984375e-11,1.040000e-01
7.384375e-11,1.070000e-01
7.784375e-11,1.099219e-01
8.184375e-11,1.131094e-01
8.584375e-11,1.157188e-01
8.984375e-11,1.184531e-01
9.384375e-11,1.212656e-01
9.784375e-11,1.242188e-01
1.018438e-10,1.266406e-01
1.058437e-10,1.292188e-01
1.098437e-10,1.317344e-01
1.138437e-10,1.342188e-01
1.178438e-10,1.366094e-01
1.218437e-10,1.392500e-01
1.258438e-10,1.413281e-01
1.298437e-10,1.434844e-01
1.338438e-10,1.457188e-01
1.378437e-10,1.480625e-01
1.418438e-10,1.498594e-01
1.458437e-10,1.517969e-01
1.498438e-10,1.536406e-01
1.538437e-10,1.554219e-01
1.578438e-10,1.570938e-01
1.618437e-10,1.589219e-01
1.658437e-10,1.601875e-01
1.698437e-10,1.615000e-01
1.738437e-10,1.628281e-01
1.778437e-10,1.642031e-01
1.818437e-10,1.649688e-01
1.858438e-10,1.658594e-01
1.898437e-10,1.665938e-01
1.938438e-10,1.672031e-01
1.978437e-10,1.676719e-01
2.018438e-10,1.682188e-01
2.058437e-10,1.681563e-01
2.098438e-10,1.680781e-01
2.138437e-10,1.679844e-01
2.178438e-10,1.678906e-01
2.218437e-10,1.671406e-01
2.258437e-10,1.665000e-01
2.298437e-10,1.656563e-01
2.338437e-10,1.646719e-01
2.378437e-10,1.635156e-01
2.418437e-10,1.624375e-01
2.458438e-10,1.607188e-01
2.498437e-10,1.590156e-01
2.538437e-10,1.572813e-01
2.578438e-10,1.555781e-01
2.618438e-10,1.532188e-01
2.658437e-10,1.510156e-01
2.698437e-10,1.486719e-01
2.738438e-10,1.462031e-01
2.778438e-10,1.436406e-01
2.818437e-10,1.411875e-01
2.858437e-10,1.381719e-01
2.898438e-10,1.352656e-01
2.938437e-10,1.323906e-01
2.978437e-10,1.296250e-01
3.018437e-10,1.263125e-01
3.058438e-10,1.232500e-01
3.098437e-10,1.201250e-01
3.138437e-10,1.170156e-01
3.178438e-10,1.139063e-01
3.218438e-10,1.110156e-01
3.258437e-10,1.076406e-01
3.298437e-10,1.045000e-01
3.338438e-10,1.015156e-01
3.378437e-10,9.875000e-02
3.418437e-10,9.553125e-02
3.458437e-10,9.268750e-02
3.498438e-10,8.989063e-02
3.538437e-10,8.718750e-02
3.578437e-10,8.459375e-02
3.618437e-10,8.231250e-02
3.658438e-10,7.960938e-02
3.698437e-10,7.723438e-02
3.738437e-10,7.507813e-02
3.778438e-10,7.320313e-02
3.818438e-10,7.093750e-02
3.858437e-10,6.907813e-02
3.898437e-10,6.731250e-02
3.938438e-10,6.567188e-02
3.978437e-10,6.414063e-02
4.018437e-10,6.295313e-02
4.058437e-10,6.131250e-02
4.098438e-10,6.000000e-02
4.138437e-10,5.890625e-02
4.178437e-10,5.803125e-02
4.218437e-10,5.671875e-02
4.258438e-10,5.576563e-02
4.298437e-10,5.485938e-02
4.338437e-10,5.400000e-02
4.378438e-10,5.317188e-02
4.418438e-10,5.262500e-02
4.458437e-10,5.154688e-02
4.498437e-10,5.067188e-02
4.538438e-10,4.996875e-02
4.578437e-10,4.939063e-02
4.618437e-10,4.831250e-02
4.658437e-10,4.745313e-02
4.698437e-10,4.660938e-02
4.738437e-10,4.570313e-02
4.778438e-10,4.478125e-02
4.818438e-10,4.407813e-02
4.858438e-10,4.276563e-02
4.898437e-10,4.162500e-02
4.938437e-10,4.062500e-02
4.978437e-10,3.971875e-02
5.018437e-10,3.829688e-02
5.058438e-10,3.707813e-02
5.098438e-10,3.589063e-02
5.138438e-10,3.467188e-02
5.178437e-10,3.343750e-02
5.218437e-10,3.248438e-02
5.258437e-10,3.095313e-02
5.298437e-10,2.964063e-02
5.338437e-10,2.854688e-02
5.378438e-10,2.764063e-02
5.418438e-10,2.625000e-02
5.458438e-10,2.517188e-02
5.498437e-10,2.420313e-02
5.538437e-10,2.328125e-02
5.578437e-10,2.239063e-02
5.618437e-10,2.187500e-02
5.658438e-10,2.087500e-02
5.698438e-10,2.014063e-02
5.738438e-10,1.970313e-02
5.778437e-10,1.950000e-02
5.818437e-10,1.885938e-02
5.858437e-10,1.854688e-02
5.898437e-10,1.837500e-02
5.938437e-10,1.825000e-02
5.978438e-10,1.815625e-02
6.018438e-10,1.842188e-02
6.058438e-10,1.815625e-02
6.098437e-10,1.812500e-02
6.138437e-10,1.834375e-02
6.178437e-10,1.873438e-02
6.218437e-10,1.860938e-02
6.258437e-10,1.873438e-02
6.298438e-10,1.890625e-02
6.338438e-10,1.903125e-02
6.378437e-10,1.909375e-02
6.418437e-10,1.940625e-02
6.458437e-10,1.909375e-02
6.498437e-10,1.892188e-02
6.538437e-10,1.890625e-02
6.578438e-10,1.898438e-02
6.618438e-10,1.843750e-02
6.658438e-10,1.809375e-02
6.698437e-10,1.770313e-02
6.738437e-10,1.723438e-02
6.778437e-10,1.667188e-02
6.818437e-10,1.631250e-02
6.858437e-10,1.532813e-02
6.898438e-10,1.448438e-02
6.938438e-10,1.379688e-02
6.978437e-10,1.325000e-02
7.018437e-10,1.210938e-02
7.058437e-10,1.121875e-02
7.098437e-10,1.035938e-02
7.138437e-10,9.500000e-03
7.178438e-10,8.609375e-03
7.218438e-10,8.031250e-03
7.258438e-10,6.921875e-03
7.298437e-10,6.031250e-03
7.338437e-10,5.421875e-03
7.378437e-10,5.062500e-03
7.418437e-10,4.187500e-03
7.458437e-10,3.671875e-03
7.498438e-10,3.250000e-03
7.538438e-10,2.937500e-03
7.578437e-10,2.656250e-03
7.618437e-10,2.765625e-03
7.658437e-10,2.375000e-03
7.698437e-10,2.265625e-03
7.738437e-10,2.453125e-03
7.778438e-10,2.906250e-03
7.818438e-10,2.828125e-03
7.858438e-10,3.109375e-03
7.898437e-10,3.453125e-03
7.938437e-10,3.859375e-03
7.978437e-10,4.265625e-03
8.018437e-10,5.000000e-03
8.058437e-10,5.156250e-03
8.098438e-10,5.515625e-03
8.138438e-10,6.093750e-03
8.178437e-10,6.843750e-03
8.218437e-10,6.968750e-03
8.258437e-10,7.359375e-03
8.298437e-10,7.718750e-03
8.338437e-10,8.046875e-03
8.378438e-10,8.296875e-03
8.418438e-10,8.796875e-03
8.458438e-10,8.640625e-03
8.498437e-10,8.625000e-03
8.538437e-10,8.765625e-03
8.578437e-10,9.031250e-03
8.618437e-10,8.656250e-03
8.658437e-10,8.500000e-03
8.698438e-10,8.328125e-03
8.738438e-10,8.093750e-03
8.778437e-10,7.812500e-03
8.818437e-10,7.796875e-03
8.858437e-10,7.156250e-03
8.898437e-10,6.687500e-03
8.938437e-10,6.421875e-03
8.978438e-10,6.343750e-03
9.018438e-10,5.671875e-03
9.058438e-10,5.296875e-03
9.098437e-10,4.968750e-03
9.138437e-10,4.640625e-03
9.178437e-10,4.343750e-03
9.218437e-10,4.375000e-03
9.258437e-10,3.843750e-03
9.298438e-10,3.562500e-03
9.338437e-10,3.531250e-03
9.378437e-10,3.734375e-03
9.418437e-10,3.406250e-03
9.458438e-10,3.406250e-03
9.498438e-10,3.468750e-03
9.538438e-10,3.562500e-03
9.578438e-10,3.703125e-03
9.618438e-10,4.187500e-03
9.658438e-10,4.109375e-03
9.698437e-10,4.265625e-03
9.738437e-10,4.656250e-03
9.778437e-10,5.265625e-03
9.818437e-10,5.296875e-03
9.858437e-10,5.656250e-03
9.898437e-10,6.000000e-03
9.938437e-10,6.375000e-03
9.978437e-10,6.734375e-03
1.001844e-09,7.406250e-03
1.005844e-09,7.453125e-03
1.009844e-09,7.687500e-03
1.013844e-09,8.109375e-03
1.017844e-09,8.718750e-03
1.021844e-09,8.703125e-03
1.025844e-09,8.968750e-03
1.029844e-09,9.187500e-03
1.033844e-09,9.406250e-03
1.037844e-09,9.562500e-03
1.041844e-09,1.001563e-02
1.045844e-09,9.812500e-03
1.049844e-09,9.796875e-03
1.053844e-09,9.937500e-03
1.057844e-09,1.026563e-02
1.061844e-09,9.937500e-03
1.065844e-09,9.890625e-03
1.069844e-09,9.828125e-03
1.073844e-09,9.718750e-03
1.077844e-09,9.593750e-03
1.081844e-09,9.750000e-03
1.085844e-09,9.265625e-03
1.089844e-09,8.968750e-03
1.093844e-09,8.859375e-03
1.097844e-09,8.921875e-03
1.101844e-09,8.375000e-03
1.105844e-09,8.109375e-03
1.109844e-09,7.828125e-03
1.113844e-09,7.546875e-03
1.117844e-09,7.250000e-03
1.121844e-09,7.250000e-03
1.125844e-09,6.640625e-03
1.129844e-09,6.234375e-03
1.133844e-09,6.031250e-03
1.137844e-09,6.031250e-03
1.141844e-09,5.421875e-03
1.145844e-09,5.125000e-03
1.149844e-09,4.843750e-03
1.153844e-09,4.593750e-03
1.157844e-09,4.343750e-03
1.161844e-09,4.406250e-03
1.165844e-09,3.906250e-03
1.169844e-09,3.625000e-03
1.173844e-09,3.562500e-03
1.177844e-09,3.750000e-03
1.181844e-09,3.359375e-03
1.185844e-09,3.312500e-03
1.189844e-09,3.281250e-03
1.193844e-09,3.312500e-03
1.197844e-09,3.359375e-03
1.201844e-09,3.765625e-03
1.205844e-09,3.593750e-03
1.209844e-09,3.671875e-03
1.213844e-09,3.968750e-03
1.217844e-09,4.531250e-03
1.221844e-09,4.500000e-03
1.225844e-09,4.812500e-03
1.229844e-09,5.156250e-03
1.233844e-09,5.515625e-03
1.237844e-09,5.890625e-03
1.241844e-09,6.593750e-03
1.245844e-09,6.703125e-03
1.249844e-09,7.015625e-03
1.253844e-09,7.531250e-03
1.257844e-09,8.250000e-03
1.261844e-09,8.343750e-03
1.265844e-09,8.734375e-03
1.269844e-09,9.109375e-03
1.273844e-09,9.437500e-03
1.277844e-09,9.765625e-03
1.281844e-09,1.034375e-02
1.285844e-09,1.028125e-02
1.289844e-09,1.039063e-02
1.293844e-09,1.065625e-02
1.297844e-09,1.107813e-02
1.301844e-09,1.085938e-02
1.305844e-09,1.087500e-02
1.309844e-09,1.087500e-02
1.313844e-09,1.081250e-02
1.317844e-09,1.071875e-02
1.321844e-09,1.087500e-02
1.325844e-09,1.040625e-02
1.329844e-09,1.009375e-02
1.333844e-09,9.968750e-03
1.337844e-09,1.000000e-02
1.341844e-09,9.421875e-03
1.345844e-09,9.140625e-03
1.349844e-09,8.843750e-03
1.353844e-09,8.531250e-03
1.357844e-09,8.234375e-03
1.361844e-09,8.234375e-03
1.365844e-09,7.656250e-03
1.369844e-09,7.281250e-03
1.373844e-09,7.140625e-03
1.377844e-09,7.218750e-03
1.381844e-09,6.718750e-03
1.385844e-09,6.546875e-03
1.389844e-09,6.406250e-03
1.393844e-09,6.312500e-03
1.397844e-09,6.234375e-03
1.401844e-09,6.500000e-03
1.405844e-09,6.203125e-03
1.409844e-09,6.125000e-03
1.413844e-09,6.281250e-03
1.417844e-09,6.656250e-03
1.421844e-09,6.468750e-03
1.425844e-09,6.593750e-03
1.429844e-09,6.734375e-03
1.433844e-09,6.875000e-03
1.437844e-09,7.046875e-03
1.441844e-09,7.500000e-03
1.445844e-09,7.359375e-03
1.449844e-09,7.421875e-03
1.453844e-09,7.656250e-03
1.457844e-09,8.093750e-03
1.461844e-09,7.890625e-03
1.465844e-09,7.984375e-03
1.469844e-09,8.031250e-03
1.473844e-09,8.062500e-03
1.477844e-09,8.062500e-03
1.481844e-09,8.328125e-03
1.485844e-09,7.953125e-03
1.489844e-09,7.734375e-03
1.493844e-09,7.687500e-03
1.497844e-09,7.812500e-03
1.501844e-09,7.281250e-03
1.505844e-09,7.031250e-03
1.509844e-09,6.750000e-03
1.513844e-09,6.421875e-03
1.517844e-09,6.093750e-03
1.521844e-09,6.031250e-03
1.525844e-09,5.343750e-03
1.529844e-09,4.843750e-03
1.533844e-09,4.531250e-03
1.537844e-09,4.421875e-03
1.541844e-09,3.687500e-03
1.545844e-09,3.281250e-03
1.549844e-09,2.859375e-03
1.553844e-09,2.468750e-03
1.557844e-09,2.093750e-03
1.561844e-09,2.031250e-03
1.565844e-09,1.390625e-03
1.569844e-09,9.843750e-04
1.573844e-09,8.125000e-04
1.577844e-09,8.750000e-04
1.581844e-09,3.750000e-04
1.585844e-09,2.187500e-04
1.589844e-09,9.375000e-05
1.593844e-09,3.125000e-05
1.597844e-09,1.562500e-05
1.601844e-09,3.437500e-04
1.605844e-09,1.093750e-04
1.609844e-09,1.406250e-04
1.613844e-09,4.062500e-04
1.617844e-09,9.218750e-04
1.621844e-09,8.906250e-04
1.625844e-09,1.187500e-03
1.629844e-09,1.531250e-03
1.633844e-09,1.921875e-03
1.637844e-09,2.343750e-03
1.641844e-09,3.093750e-03
1.645844e-09,3.265625e-03
1.649844e-09,3.656250e-03
1.653844e-09,4.281250e-03
1.657844e-09,5.109375e-03
1.661844e-09,5.343750e-03
1.665844e-09,5.875000e-03
1.669844e-09,6.421875e-03
1.673844e-09,6.937500e-03
1.677844e-09,7.453125e-03
1.681844e-09,8.250000e-03
1.685844e-09,8.406250e-03
1.689844e-09,8.750000e-03
1.693844e-09,9.250000e-03
1.697844e-09,9.906250e-03
1.701844e-09,9.937500e-03
1.705844e-09,1.020313e-02
1.709844e-09,1.043750e-02
1.713844e-09,1.060938e-02
1.717844e-09,1.073438e-02
1.721844e-09,1.109375e-02
1.725844e-09,1.081250e-02
1.729844e-09,1.067188e-02
1.733844e-09,1.067188e-02
1.737844e-09,1.082813e-02
1.741844e-09,1.034375e-02
1.745844e-09,1.009375e-02
1.749844e-09,9.828125e-03
1.753844e-09,9.500000e-03
1.757844e-09,9.156250e-03
