Measurements-streak-laser/Photodiode-on-Tek-6GHz/Tek000_ch1_20190613132829410.csv

Model,MSO64
Waveform Type,ANALOG
Horizontal Units,s
Sample Interval,4.000000e-12
Record Length,1000
Zero Index,310.867188
Vertical Units,V

TIME,CH1
-1.243469e-09,3.718750e-03
-1.239469e-09,3.390625e-03
-1.235469e-09,3.281250e-03
-1.231469e-09,3.390625e-03
-1.227469e-09,3.718750e-03
-1.223469e-09,3.468750e-03
-1.219469e-09,3.515625e-03
-1.215469e-09,3.609375e-03
-1.211469e-09,3.687500e-03
-1.207469e-09,3.796875e-03
-1.203469e-09,4.203125e-03
-1.199469e-09,4.015625e-03
-1.195469e-09,4.015625e-03
-1.191469e-09,4.234375e-03
-1.187469e-09,4.625000e-03
-1.183469e-09,4.406250e-03
-1.179469e-09,4.484375e-03
-1.175469e-09,4.531250e-03
-1.171469e-09,4.546875e-03
-1.167469e-09,4.546875e-03
-1.163469e-09,4.812500e-03
-1.159469e-09,4.437500e-03
-1.155469e-09,4.234375e-03
-1.151469e-09,4.187500e-03
-1.147469e-09,4.328125e-03
-1.143469e-09,3.812500e-03
-1.139469e-09,3.578125e-03
-1.135469e-09,3.312500e-03
-1.131469e-09,3.031250e-03
-1.127469e-09,2.718750e-03
-1.123469e-09,2.703125e-03
-1.119469e-09,2.062500e-03
-1.115469e-09,1.640625e-03
-1.111469e-09,1.406250e-03
-1.107469e-09,1.406250e-03
-1.103469e-09,8.125000e-04
-1.099469e-09,5.625000e-04
-1.095469e-09,3.437500e-04
-1.091469e-09,1.562500e-04
-1.087469e-09,3.125000e-05
-1.083469e-09,2.812500e-04
-1.079469e-09,-3.125000e-05
-1.075469e-09,-6.250000e-05
-1.071469e-09,1.718750e-04
-1.067469e-09,6.875000e-04
-1.063469e-09,6.718750e-04
-1.059469e-09,1.031250e-03
-1.055469e-09,1.468750e-03
-1.051469e-09,1.984375e-03
-1.047469e-09,2.562500e-03
-1.043469e-09,3.500000e-03
-1.039469e-09,3.890625e-03
-1.035469e-09,4.531250e-03
-1.031469e-09,5.406250e-03
-1.027469e-09,6.515625e-03
-1.023469e-09,7.046875e-03
-1.019469e-09,7.875000e-03
-1.015469e-09,8.703125e-03
-1.011469e-09,9.500000e-03
-1.007469e-09,1.028125e-02
-1.003469e-09,1.134375e-02
-9.994688e-10,1.171875e-02
-9.954687e-10,1.225000e-02
-9.914687e-10,1.290625e-02
-9.874687e-10,1.368750e-02
-9.834687e-10,1.378125e-02
-9.794687e-10,1.407813e-02
-9.754687e-10,1.428125e-02
-9.714687e-10,1.437500e-02
-9.674687e-10,1.435938e-02
-9.634687e-10,1.456250e-02
-9.594688e-10,1.404688e-02
-9.554688e-10,1.362500e-02
-9.514688e-10,1.332813e-02
-9.474688e-10,1.314063e-02
-9.434688e-10,1.226563e-02
-9.394688e-10,1.162500e-02
-9.354687e-10,1.093750e-02
-9.314687e-10,1.018750e-02
-9.274688e-10,9.406250e-03
-9.234688e-10,8.906250e-03
-9.194687e-10,7.781250e-03
-9.154687e-10,6.875000e-03
-9.114687e-10,6.171875e-03
-9.074687e-10,5.703125e-03
-9.034687e-10,4.671875e-03
-8.994688e-10,3.984375e-03
-8.954688e-10,3.375000e-03
-8.914687e-10,2.812500e-03
-8.874687e-10,2.343750e-03
-8.834687e-10,2.250000e-03
-8.794687e-10,1.640625e-03
-8.754687e-10,1.328125e-03
-8.714688e-10,1.312500e-03
-8.674688e-10,1.578125e-03
-8.634688e-10,1.328125e-03
-8.594687e-10,1.468750e-03
-8.554687e-10,1.687500e-03
-8.514687e-10,1.984375e-03
-8.474687e-10,2.343750e-03
-8.434687e-10,3.062500e-03
-8.394688e-10,3.218750e-03
-8.354688e-10,3.609375e-03
-8.314687e-10,4.234375e-03
-8.274687e-10,5.078125e-03
-8.234687e-10,5.296875e-03
-8.194687e-10,5.812500e-03
-8.154687e-10,6.312500e-03
-8.114688e-10,6.765625e-03
-8.074688e-10,7.187500e-03
-8.034688e-10,7.843750e-03
-7.994687e-10,7.843750e-03
-7.954687e-10,7.968750e-03
-7.914687e-10,8.218750e-03
-7.874687e-10,8.593750e-03
-7.834687e-10,8.281250e-03
-7.794688e-10,8.187500e-03
-7.754688e-10,8.015625e-03
-7.714687e-10,7.765625e-03
-7.674687e-10,7.437500e-03
-7.634687e-10,7.343750e-03
-7.594687e-10,6.578125e-03
-7.554687e-10,5.953125e-03
-7.514688e-10,5.484375e-03
-7.474688e-10,5.171875e-03
-7.434688e-10,4.234375e-03
-7.394687e-10,3.578125e-03
-7.354687e-10,2.921875e-03
-7.314687e-10,2.250000e-03
-7.274687e-10,1.625000e-03
-7.234687e-10,1.312500e-03
-7.194688e-10,4.218750e-04
-7.154688e-10,-2.187500e-04
-7.114687e-10,-5.937500e-04
-7.074687e-10,-7.031250e-04
-7.034687e-10,-1.343750e-03
-6.994687e-10,-1.609375e-03
-6.954687e-10,-1.812500e-03
-6.914688e-10,-1.906250e-03
-6.874688e-10,-1.937500e-03
-6.834688e-10,-1.578125e-03
-6.794687e-10,-1.734375e-03
-6.754687e-10,-1.609375e-03
-6.714687e-10,-1.218750e-03
-6.674687e-10,-5.468750e-04
-6.634687e-10,-4.062500e-04
-6.594688e-10,7.812500e-05
-6.554688e-10,6.093750e-04
-6.514687e-10,1.203125e-03
-6.474687e-10,1.812500e-03
-6.434687e-10,2.750000e-03
-6.394687e-10,3.093750e-03
-6.354687e-10,3.640625e-03
-6.314688e-10,4.390625e-03
-6.274688e-10,5.312500e-03
-6.234688e-10,5.625000e-03
-6.194687e-10,6.187500e-03
-6.154687e-10,6.718750e-03
-6.114687e-10,7.187500e-03
-6.074687e-10,7.609375e-03
-6.034688e-10,8.281250e-03
-5.994688e-10,8.281250e-03
-5.954688e-10,8.421875e-03
-5.914687e-10,8.703125e-03
-5.874687e-10,9.109375e-03
-5.834687e-10,8.843750e-03
-5.794687e-10,8.828125e-03
-5.754687e-10,8.750000e-03
-5.714688e-10,8.593750e-03
-5.674688e-10,8.406250e-03
-5.634688e-10,8.468750e-03
-5.594687e-10,7.890625e-03
-5.554687e-10,7.468750e-03
-5.514687e-10,7.234375e-03
-5.474687e-10,7.187500e-03
-5.434688e-10,6.515625e-03
-5.394688e-10,6.125000e-03
-5.354688e-10,5.765625e-03
-5.314687e-10,5.390625e-03
-5.274687e-10,5.046875e-03
-5.234687e-10,5.015625e-03
-5.194687e-10,4.421875e-03
-5.154687e-10,4.062500e-03
-5.114688e-10,3.937500e-03
-5.074688e-10,4.046875e-03
-5.034688e-10,3.593750e-03
-4.994687e-10,3.500000e-03
-4.954687e-10,3.437500e-03
-4.914687e-10,3.437500e-03
-4.874687e-10,3.453125e-03
-4.834688e-10,3.843750e-03
-4.794688e-10,3.640625e-03
-4.754688e-10,3.687500e-03
-4.714687e-10,3.984375e-03
-4.674687e-10,4.500000e-03
-4.634687e-10,4.437500e-03
-4.594687e-10,4.703125e-03
-4.554687e-10,4.968750e-03
-4.514688e-10,5.250000e-03
-4.474687e-10,5.531250e-03
-4.434687e-10,6.125000e-03
-4.394687e-10,6.093750e-03
-4.354688e-10,6.265625e-03
-4.314687e-10,6.640625e-03
-4.274687e-10,7.187500e-03
-4.234688e-10,7.125000e-03
-4.194688e-10,7.328125e-03
-4.154687e-10,7.484375e-03
-4.114687e-10,7.625000e-03
-4.074688e-10,7.734375e-03
-4.034687e-10,8.140625e-03
-3.994687e-10,7.875000e-03
-3.954687e-10,7.812500e-03
-3.914688e-10,7.937500e-03
-3.874687e-10,8.218750e-03
-3.834687e-10,7.906250e-03
-3.794687e-10,7.859375e-03
-3.754688e-10,7.750000e-03
-3.714687e-10,7.640625e-03
-3.674687e-10,7.531250e-03
-3.634688e-10,7.703125e-03
-3.594688e-10,7.265625e-03
-3.554687e-10,7.031250e-03
-3.514687e-10,7.015625e-03
-3.474688e-10,7.187500e-03
-3.434687e-10,6.796875e-03
-3.394687e-10,6.687500e-03
-3.354687e-10,6.546875e-03
-3.314688e-10,6.406250e-03
-3.274687e-10,6.312500e-03
-3.234687e-10,6.531250e-03
-3.194687e-10,6.140625e-03
-3.154688e-10,5.953125e-03
-3.114687e-10,6.031250e-03
-3.074687e-10,6.281250e-03
-3.034688e-10,6.000000e-03
-2.994688e-10,6.000000e-03
-2.954687e-10,5.953125e-03
-2.914687e-10,5.906250e-03
-2.874688e-10,5.921875e-03
-2.834688e-10,6.203125e-03
-2.794687e-10,5.921875e-03
-2.754687e-10,5.812500e-03
-2.714688e-10,5.968750e-03
-2.674687e-10,6.281250e-03
-2.634687e-10,6.031250e-03
-2.594687e-10,6.093750e-03
-2.554688e-10,6.078125e-03
-2.514687e-10,6.046875e-03
-2.474687e-10,6.093750e-03
-2.434688e-10,6.390625e-03
-2.394688e-10,6.140625e-03
-2.354687e-10,6.062500e-03
-2.314687e-10,6.218750e-03
-2.274688e-10,6.546875e-03
-2.234687e-10,6.328125e-03
-2.194688e-10,6.406250e-03
-2.154687e-10,6.437500e-03
-2.114687e-10,6.437500e-03
-2.074687e-10,6.546875e-03
-2.034687e-10,6.875000e-03
-1.994687e-10,6.703125e-03
-1.954687e-10,6.656250e-03
-1.914688e-10,6.875000e-03
-1.874687e-10,7.265625e-03
-1.834688e-10,7.062500e-03
-1.794687e-10,7.187500e-03
-1.754688e-10,7.234375e-03
-1.714687e-10,7.250000e-03
-1.674688e-10,7.359375e-03
-1.634687e-10,7.656250e-03
-1.594688e-10,7.468750e-03
-1.554687e-10,7.359375e-03
-1.514687e-10,7.468750e-03
-1.474687e-10,7.765625e-03
-1.434687e-10,7.437500e-03
-1.394687e-10,7.375000e-03
-1.354687e-10,7.265625e-03
-1.314688e-10,7.093750e-03
-1.274687e-10,6.984375e-03
-1.234688e-10,7.078125e-03
-1.194687e-10,6.687500e-03
-1.154687e-10,6.390625e-03
-1.114687e-10,6.281250e-03
-1.074687e-10,6.421875e-03
-1.034687e-10,5.953125e-03
-9.946875e-11,5.781250e-03
-9.546875e-11,5.625000e-03
-9.146875e-11,5.500000e-03
-8.746875e-11,5.484375e-03
-8.346875e-11,5.781250e-03
-7.946875e-11,5.687500e-03
-7.546875e-11,5.812500e-03
-7.146875e-11,6.234375e-03
-6.746875e-11,7.015625e-03
-6.346875e-11,7.359375e-03
-5.946875e-11,8.140625e-03
-5.546875e-11,9.078125e-03
-5.146875e-11,1.020313e-02
-4.746875e-11,1.159375e-02
-4.346875e-11,1.346875e-02
-3.946875e-11,1.510938e-02
-3.546875e-11,1.712500e-02
-3.146875e-11,1.954688e-02
-2.746875e-11,2.248438e-02
-2.346875e-11,2.514063e-02
-1.946875e-11,2.831250e-02
-1.546875e-11,3.175000e-02
-1.146875e-11,3.548438e-02
-7.468750e-12,3.950000e-02
-3.468750e-12,4.409375e-02
5.312500e-13,4.846875e-02
4.531250e-12,5.323438e-02
8.531250e-12,5.837500e-02
1.253125e-11,6.396875e-02
1.653125e-11,6.926563e-02
2.053125e-11,7.496875e-02
2.453125e-11,8.084375e-02
2.853125e-11,8.689063e-02
3.253125e-11,9.307813e-02
3.653125e-11,9.967188e-02
4.053125e-11,1.058750e-01
4.453125e-11,1.122813e-01
4.853125e-11,1.188438e-01
5.253125e-11,1.256250e-01
5.653125e-11,1.319375e-01
6.053125e-11,1.383750e-01
6.453125e-11,1.447813e-01
6.853125e-11,1.511094e-01
7.253125e-11,1.573438e-01
7.653125e-11,1.637500e-01
8.053125e-11,1.695625e-01
8.453125e-11,1.753594e-01
8.853125e-11,1.810781e-01
9.253125e-11,1.868281e-01
9.653125e-11,1.919531e-01
1.005312e-10,1.970313e-01
1.045312e-10,2.019219e-01
1.085312e-10,2.066250e-01
1.125312e-10,2.110781e-01
1.165312e-10,2.156094e-01
1.205313e-10,2.194688e-01
1.245312e-10,2.232500e-01
1.285313e-10,2.269063e-01
1.325312e-10,2.305313e-01
1.365313e-10,2.335313e-01
1.405312e-10,2.364844e-01
1.445313e-10,2.392344e-01
1.485312e-10,2.418125e-01
1.525312e-10,2.441719e-01
1.565312e-10,2.465938e-01
1.605312e-10,2.484375e-01
1.645312e-10,2.502031e-01
1.685312e-10,2.518906e-01
1.725313e-10,2.535781e-01
1.765312e-10,2.546875e-01
1.805313e-10,2.558281e-01
1.845312e-10,2.567813e-01
1.885313e-10,2.576094e-01
1.925312e-10,2.582344e-01
1.965313e-10,2.589375e-01
2.005312e-10,2.590781e-01
2.045313e-10,2.592031e-01
2.085312e-10,2.592344e-01
2.125312e-10,2.592813e-01
2.165312e-10,2.587187e-01
2.205312e-10,2.582344e-01
2.245312e-10,2.575625e-01
2.285312e-10,2.567187e-01
2.325313e-10,2.557188e-01
2.365312e-10,2.547344e-01
2.405312e-10,2.532031e-01
2.445313e-10,2.516406e-01
2.485313e-10,2.499844e-01
2.525312e-10,2.483281e-01
2.565312e-10,2.460625e-01
2.605313e-10,2.439063e-01
2.645313e-10,2.415625e-01
2.685312e-10,2.390781e-01
2.725312e-10,2.364531e-01
2.765313e-10,2.338438e-01
2.805312e-10,2.307344e-01
2.845312e-10,2.276406e-01
2.885312e-10,2.245156e-01
2.925313e-10,2.214219e-01
2.965312e-10,2.177656e-01
3.005312e-10,2.143281e-01
3.045313e-10,2.107344e-01
3.085313e-10,2.071094e-01
3.125312e-10,2.034219e-01
3.165312e-10,1.998281e-01
3.205313e-10,1.957813e-01
3.245313e-10,1.918750e-01
3.285312e-10,1.880156e-01
3.325312e-10,1.842656e-01
3.365313e-10,1.800469e-01
3.405312e-10,1.761250e-01
3.445312e-10,1.721563e-01
3.485312e-10,1.682031e-01
3.525313e-10,1.642813e-01
3.565312e-10,1.605313e-01
3.605312e-10,1.563594e-01
3.645313e-10,1.524219e-01
3.685313e-10,1.485781e-01
3.725312e-10,1.448906e-01
3.765312e-10,1.407969e-01
3.805313e-10,1.370313e-01
3.845313e-10,1.332656e-01
3.885312e-10,1.295781e-01
3.925312e-10,1.259375e-01
3.965313e-10,1.225313e-01
4.005312e-10,1.186719e-01
4.045312e-10,1.151094e-01
4.085312e-10,1.116875e-01
4.125313e-10,1.084375e-01
4.165312e-10,1.048281e-01
4.205312e-10,1.015313e-01
4.245313e-10,9.829688e-02
4.285313e-10,9.515625e-02
4.325312e-10,9.209375e-02
4.365312e-10,8.931250e-02
4.405313e-10,8.609375e-02
4.445312e-10,8.318750e-02
4.485312e-10,8.048438e-02
4.525312e-10,7.798438e-02
4.565313e-10,7.515625e-02
4.605312e-10,7.264063e-02
4.645312e-10,7.028125e-02
4.685313e-10,6.800000e-02
4.725313e-10,6.581250e-02
4.765312e-10,6.396875e-02
4.805312e-10,6.168750e-02
4.845312e-10,5.973438e-02
4.885312e-10,5.803125e-02
4.925313e-10,5.651563e-02
4.965313e-10,5.468750e-02
5.005313e-10,5.315625e-02
5.045312e-10,5.178125e-02
5.085312e-10,5.048438e-02
5.125312e-10,4.925000e-02
5.165312e-10,4.834375e-02
5.205312e-10,4.696875e-02
5.245313e-10,4.585938e-02
5.285313e-10,4.498438e-02
5.325313e-10,4.428125e-02
5.365312e-10,4.317188e-02
5.405312e-10,4.232813e-02
5.445312e-10,4.159375e-02
5.485312e-10,4.087500e-02
5.525313e-10,4.012500e-02
5.565313e-10,3.968750e-02
5.605313e-10,3.870313e-02
5.645312e-10,3.792188e-02
5.685312e-10,3.734375e-02
5.725312e-10,3.687500e-02
5.765312e-10,3.596875e-02
5.805312e-10,3.525000e-02
5.845313e-10,3.462500e-02
5.885313e-10,3.396875e-02
5.925313e-10,3.326563e-02
5.965312e-10,3.284375e-02
6.005312e-10,3.185938e-02
6.045312e-10,3.106250e-02
6.085312e-10,3.046875e-02
6.125312e-10,3.001563e-02
6.165313e-10,2.909375e-02
6.205313e-10,2.839063e-02
6.245312e-10,2.778125e-02
6.285312e-10,2.717188e-02
6.325312e-10,2.651563e-02
6.365312e-10,2.615625e-02
6.405312e-10,2.526563e-02
6.445313e-10,2.457813e-02
6.485313e-10,2.414063e-02
6.525313e-10,2.385938e-02
6.565312e-10,2.309375e-02
6.605312e-10,2.257813e-02
6.645312e-10,2.217188e-02
6.685312e-10,2.175000e-02
6.725312e-10,2.129688e-02
6.765313e-10,2.112500e-02
6.805313e-10,2.042188e-02
6.845312e-10,1.989063e-02
6.885312e-10,1.957813e-02
6.925312e-10,1.943750e-02
6.965312e-10,1.873438e-02
7.005312e-10,1.828125e-02
7.045313e-10,1.785938e-02
7.085313e-10,1.742188e-02
7.125313e-10,1.689063e-02
7.165312e-10,1.660938e-02
7.205312e-10,1.575000e-02
7.245312e-10,1.503125e-02
7.285312e-10,1.451563e-02
7.325312e-10,1.412500e-02
7.365313e-10,1.314063e-02
7.405313e-10,1.240625e-02
7.445312e-10,1.168750e-02
7.485312e-10,1.093750e-02
7.525312e-10,1.012500e-02
7.565312e-10,9.578125e-03
7.605312e-10,8.453125e-03
7.645313e-10,7.531250e-03
7.685313e-10,6.828125e-03
7.725313e-10,6.328125e-03
7.765312e-10,5.281250e-03
7.805312e-10,4.546875e-03
7.845312e-10,3.890625e-03
7.885312e-10,3.296875e-03
7.925312e-10,2.718750e-03
7.965313e-10,2.500000e-03
8.005313e-10,1.781250e-03
8.045312e-10,1.343750e-03
8.085312e-10,1.218750e-03
8.125312e-10,1.375000e-03
8.165312e-10,1.046875e-03
8.205312e-10,1.125000e-03
8.245313e-10,1.296875e-03
8.285313e-10,1.593750e-03
8.325313e-10,1.953125e-03
8.365312e-10,2.703125e-03
8.405312e-10,2.953125e-03
8.445312e-10,3.500000e-03
8.485312e-10,4.312500e-03
8.525312e-10,5.406250e-03
8.565313e-10,5.953125e-03
8.605313e-10,6.843750e-03
8.645312e-10,7.781250e-03
8.685312e-10,8.750000e-03
8.725312e-10,9.687500e-03
8.765312e-10,1.093750e-02
8.805312e-10,1.156250e-02
8.845313e-10,1.235938e-02
8.885313e-10,1.331250e-02
8.925313e-10,1.442188e-02
8.965312e-10,1.487500e-02
9.005312e-10,1.554688e-02
9.045312e-10,1.614063e-02
9.085312e-10,1.664063e-02
9.125312e-10,1.703125e-02
9.165313e-10,1.764063e-02
9.205313e-10,1.754688e-02
9.245312e-10,1.754688e-02
9.285312e-10,1.765625e-02
9.325313e-10,1.785938e-02
9.365313e-10,1.737500e-02
9.405313e-10,1.710938e-02
9.445313e-10,1.678125e-02
9.485313e-10,1.635938e-02
9.525313e-10,1.587500e-02
9.565312e-10,1.564063e-02
9.605312e-10,1.478125e-02
9.645312e-10,1.406250e-02
9.685312e-10,1.354688e-02
9.725312e-10,1.323438e-02
9.765312e-10,1.231250e-02
9.805312e-10,1.170313e-02
9.845312e-10,1.112500e-02
9.885312e-10,1.057813e-02
9.925313e-10,1.006250e-02
9.965313e-10,9.890625e-03
1.000531e-09,9.171875e-03
1.004531e-09,8.703125e-03
1.008531e-09,8.515625e-03
1.012531e-09,8.578125e-03
1.016531e-09,8.093750e-03
1.020531e-09,7.968750e-03
1.024531e-09,7.906250e-03
1.028531e-09,7.890625e-03
1.032531e-09,7.906250e-03
1.036531e-09,8.250000e-03
1.040531e-09,8.046875e-03
1.044531e-09,8.062500e-03
1.048531e-09,8.296875e-03
1.052531e-09,8.734375e-03
1.056531e-09,8.562500e-03
1.060531e-09,8.703125e-03
1.064531e-09,8.812500e-03
1.068531e-09,8.890625e-03
1.072531e-09,8.937500e-03
1.076531e-09,9.234375e-03
1.080531e-09,8.906250e-03
1.084531e-09,8.718750e-03
1.088531e-09,8.687500e-03
1.092531e-09,8.812500e-03
1.096531e-09,8.265625e-03
1.100531e-09,7.984375e-03
1.104531e-09,7.640625e-03
1.108531e-09,7.265625e-03
1.112531e-09,6.843750e-03
1.116531e-09,6.687500e-03
1.120531e-09,5.890625e-03
1.124531e-09,5.281250e-03
1.128531e-09,4.843750e-03
1.132531e-09,4.625000e-03
1.136531e-09,3.781250e-03
1.140531e-09,3.265625e-03
1.144531e-09,2.765625e-03
1.148531e-09,2.296875e-03
1.152531e-09,1.859375e-03
1.156531e-09,1.765625e-03
1.160531e-09,1.125000e-03
1.164531e-09,7.187500e-04
1.168531e-09,5.937500e-04
1.172531e-09,7.343750e-04
1.176531e-09,3.281250e-04
1.180531e-09,2.968750e-04
1.184531e-09,3.125000e-04
1.188531e-09,4.218750e-04
1.192531e-09,5.781250e-04
1.196531e-09,1.109375e-03
1.200531e-09,1.078125e-03
1.204531e-09,1.312500e-03
1.208531e-09,1.796875e-03
1.212531e-09,2.531250e-03
1.216531e-09,2.687500e-03
1.220531e-09,3.156250e-03
1.224531e-09,3.656250e-03
1.228531e-09,4.171875e-03
1.232531e-09,4.687500e-03
1.236531e-09,5.515625e-03
1.240531e-09,5.718750e-03
1.244531e-09,6.109375e-03
1.248531e-09,6.671875e-03
1.252531e-09,7.406250e-03
1.256531e-09,7.515625e-03
1.260531e-09,7.875000e-03
1.264531e-09,8.218750e-03
1.268531e-09,8.500000e-03
1.272531e-09,8.750000e-03
1.276531e-09,9.265625e-03
1.280531e-09,9.125000e-03
1.284531e-09,9.156250e-03
1.288531e-09,9.343750e-03
1.292531e-09,9.703125e-03
1.296531e-09,9.421875e-03
1.300531e-09,9.406250e-03
1.304531e-09,9.390625e-03
1.308531e-09,9.328125e-03
1.312531e-09,9.265625e-03
1.316531e-09,9.500000e-03
1.320531e-09,9.109375e-03
1.324531e-09,8.921875e-03
1.328531e-09,8.937500e-03
1.332531e-09,9.156250e-03
1.336531e-09,8.765625e-03
1.340531e-09,8.703125e-03
1.344531e-09,8.640625e-03
1.348531e-09,8.578125e-03
1.352531e-09,8.531250e-03
1.356531e-09,8.796875e-03
1.360531e-09,8.468750e-03
1.364531e-09,8.359375e-03
1.368531e-09,8.437500e-03
1.372531e-09,8.750000e-03
1.376531e-09,8.437500e-03
1.380531e-09,8.421875e-03
1.384531e-09,8.421875e-03
1.388531e-09,8.406250e-03
1.392531e-09,8.375000e-03
1.396531e-09,8.640625e-03
1.400531e-09,8.296875e-03
1.404531e-09,8.125000e-03
1.408531e-09,8.140625e-03
1.412531e-09,8.359375e-03
1.416531e-09,7.937500e-03
1.420531e-09,7.796875e-03
1.424531e-09,7.656250e-03
1.428531e-09,7.484375e-03
1.432531e-09,7.296875e-03
1.436531e-09,7.406250e-03
1.440531e-09,6.906250e-03
1.444531e-09,6.593750e-03
1.448531e-09,6.484375e-03
1.452531e-09,6.578125e-03
1.456531e-09,6.078125e-03
1.460531e-09,5.890625e-03
1.464531e-09,5.703125e-03
1.468531e-09,5.562500e-03
1.472531e-09,5.421875e-03
1.476531e-09,5.625000e-03
1.480531e-09,5.250000e-03
1.484531e-09,5.109375e-03
1.488531e-09,5.218750e-03
1.492531e-09,5.562500e-03
1.496531e-09,5.343750e-03
1.500531e-09,5.484375e-03
1.504531e-09,5.656250e-03
1.508531e-09,5.890625e-03
1.512531e-09,6.156250e-03
1.516531e-09,6.781250e-03
1.520531e-09,6.828125e-03
1.524531e-09,7.125000e-03
1.528531e-09,7.640625e-03
1.532531e-09,8.406250e-03
1.536531e-09,8.578125e-03
1.540531e-09,9.078125e-03
1.544531e-09,9.578125e-03
1.548531e-09,1.009375e-02
1.552531e-09,1.060938e-02
1.556531e-09,1.142188e-02
1.560531e-09,1.160938e-02
1.564531e-09,1.198438e-02
1.568531e-09,1.253125e-02
1.572531e-09,1.323438e-02
1.576531e-09,1.329688e-02
1.580531e-09,1.362500e-02
1.584531e-09,1.389063e-02
1.588531e-09,1.409375e-02
1.592531e-09,1.425000e-02
1.596531e-09,1.464063e-02
1.600531e-09,1.435938e-02
1.604531e-09,1.420313e-02
1.608531e-09,1.418750e-02
1.612531e-09,1.431250e-02
1.616531e-09,1.375000e-02
1.620531e-09,1.343750e-02
1.624531e-09,1.306250e-02
1.628531e-09,1.260938e-02
1.632531e-09,1.212500e-02
1.636531e-09,1.187500e-02
1.640531e-09,1.100000e-02
1.644531e-09,1.026563e-02
1.648531e-09,9.703125e-03
1.652531e-09,9.328125e-03
1.656531e-09,8.312500e-03
1.660531e-09,7.609375e-03
1.664531e-09,6.906250e-03
1.668531e-09,6.187500e-03
1.672531e-09,5.500000e-03
1.676531e-09,5.125000e-03
1.680531e-09,4.187500e-03
1.684531e-09,3.484375e-03
1.688531e-09,3.015625e-03
1.692531e-09,2.796875e-03
1.696531e-09,2.031250e-03
1.700531e-09,1.625000e-03
1.704531e-09,1.265625e-03
1.708531e-09,1.000000e-03
1.712531e-09,7.656250e-04
1.716531e-09,9.218750e-04
1.720531e-09,5.312500e-04
1.724531e-09,4.062500e-04
1.728531e-09,5.468750e-04
1.732531e-09,9.531250e-04
1.736531e-09,8.125000e-04
1.740531e-09,1.046875e-03
1.744531e-09,1.312500e-03
1.748531e-09,1.609375e-03
1.752531e-09,1.968750e-03
