Measurements-streak-laser/Photodiode-on-Tek-6GHz/Tek000_ch1_20190613132742075.csv

Model,MSO64
Waveform Type,ANALOG
Horizontal Units,s
Sample Interval,4.000000e-12
Record Length,1000
Zero Index,310.656250
Vertical Units,V

TIME,CH1
-1.242625e-09,7.312500e-03
-1.238625e-09,7.734375e-03
-1.234625e-09,7.531250e-03
-1.230625e-09,7.500000e-03
-1.226625e-09,7.656250e-03
-1.222625e-09,7.968750e-03
-1.218625e-09,7.656250e-03
-1.214625e-09,7.609375e-03
-1.210625e-09,7.562500e-03
-1.206625e-09,7.468750e-03
-1.202625e-09,7.359375e-03
-1.198625e-09,7.546875e-03
-1.194625e-09,7.109375e-03
-1.190625e-09,6.859375e-03
-1.186625e-09,6.812500e-03
-1.182625e-09,6.953125e-03
-1.178625e-09,6.484375e-03
-1.174625e-09,6.328125e-03
-1.170625e-09,6.187500e-03
-1.166625e-09,6.046875e-03
-1.162625e-09,5.921875e-03
-1.158625e-09,6.109375e-03
-1.154625e-09,5.718750e-03
-1.150625e-09,5.546875e-03
-1.146625e-09,5.609375e-03
-1.142625e-09,5.906250e-03
-1.138625e-09,5.609375e-03
-1.134625e-09,5.640625e-03
-1.130625e-09,5.703125e-03
-1.126625e-09,5.812500e-03
-1.122625e-09,5.921875e-03
-1.118625e-09,6.375000e-03
-1.114625e-09,6.250000e-03
-1.110625e-09,6.343750e-03
-1.106625e-09,6.656250e-03
-1.102625e-09,7.187500e-03
-1.098625e-09,7.125000e-03
-1.094625e-09,7.390625e-03
-1.090625e-09,7.656250e-03
-1.086625e-09,7.906250e-03
-1.082625e-09,8.171875e-03
-1.078625e-09,8.734375e-03
-1.074625e-09,8.687500e-03
-1.070625e-09,8.828125e-03
-1.066625e-09,9.140625e-03
-1.062625e-09,9.640625e-03
-1.058625e-09,9.515625e-03
-1.054625e-09,9.656250e-03
-1.050625e-09,9.765625e-03
-1.046625e-09,9.859375e-03
-1.042625e-09,9.906250e-03
-1.038625e-09,1.021875e-02
-1.034625e-09,9.906250e-03
-1.030625e-09,9.750000e-03
-1.026625e-09,9.750000e-03
-1.022625e-09,9.937500e-03
-1.018625e-09,9.468750e-03
-1.014625e-09,9.281250e-03
-1.010625e-09,9.062500e-03
-1.006625e-09,8.812500e-03
-1.002625e-09,8.546875e-03
-9.986250e-10,8.562500e-03
-9.946250e-10,7.953125e-03
-9.906250e-10,7.531250e-03
-9.866250e-10,7.312500e-03
-9.826250e-10,7.281250e-03
-9.786250e-10,6.656250e-03
-9.746250e-10,6.343750e-03
-9.706250e-10,6.046875e-03
-9.666250e-10,5.750000e-03
-9.626250e-10,5.468750e-03
-9.586250e-10,5.531250e-03
-9.546250e-10,5.000000e-03
-9.506250e-10,4.703125e-03
-9.466250e-10,4.625000e-03
-9.426250e-10,4.796875e-03
-9.386250e-10,4.390625e-03
-9.346250e-10,4.328125e-03
-9.306250e-10,4.296875e-03
-9.266250e-10,4.281250e-03
-9.226250e-10,4.328125e-03
-9.186250e-10,4.687500e-03
-9.146250e-10,4.468750e-03
-9.106250e-10,4.500000e-03
-9.066250e-10,4.734375e-03
-9.026250e-10,5.203125e-03
-8.986250e-10,5.078125e-03
-8.946250e-10,5.281250e-03
-8.906250e-10,5.484375e-03
-8.866250e-10,5.687500e-03
-8.826250e-10,5.890625e-03
-8.786250e-10,6.406250e-03
-8.746250e-10,6.312500e-03
-8.706250e-10,6.390625e-03
-8.666250e-10,6.671875e-03
-8.626250e-10,7.140625e-03
-8.586250e-10,6.984375e-03
-8.546250e-10,7.109375e-03
-8.506250e-10,7.203125e-03
-8.466250e-10,7.281250e-03
-8.426250e-10,7.343750e-03
-8.386250e-10,7.671875e-03
-8.346250e-10,7.375000e-03
-8.306250e-10,7.250000e-03
-8.266250e-10,7.312500e-03
-8.226250e-10,7.562500e-03
-8.186250e-10,7.171875e-03
-8.146250e-10,7.062500e-03
-8.106250e-10,6.953125e-03
-8.066250e-10,6.812500e-03
-8.026250e-10,6.671875e-03
-7.986250e-10,6.828125e-03
-7.946250e-10,6.375000e-03
-7.906250e-10,6.109375e-03
-7.866250e-10,6.046875e-03
-7.826250e-10,6.187500e-03
-7.786250e-10,5.734375e-03
-7.746250e-10,5.578125e-03
-7.706250e-10,5.421875e-03
-7.666250e-10,5.281250e-03
-7.626250e-10,5.156250e-03
-7.586250e-10,5.328125e-03
-7.546250e-10,4.906250e-03
-7.506250e-10,4.687500e-03
-7.466250e-10,4.671875e-03
-7.426250e-10,4.875000e-03
-7.386250e-10,4.484375e-03
-7.346250e-10,4.375000e-03
-7.306250e-10,4.296875e-03
-7.266250e-10,4.203125e-03
-7.226250e-10,4.109375e-03
-7.186250e-10,4.328125e-03
-7.146250e-10,3.921875e-03
-7.106250e-10,3.734375e-03
-7.066250e-10,3.734375e-03
-7.026250e-10,3.937500e-03
-6.986250e-10,3.531250e-03
-6.946250e-10,3.421875e-03
-6.906250e-10,3.312500e-03
-6.866250e-10,3.218750e-03
-6.826250e-10,3.109375e-03
-6.786250e-10,3.312500e-03
-6.746250e-10,2.906250e-03
-6.706250e-10,2.718750e-03
-6.666250e-10,2.734375e-03
-6.626250e-10,2.984375e-03
-6.586250e-10,2.625000e-03
-6.546250e-10,2.609375e-03
-6.506250e-10,2.593750e-03
-6.466250e-10,2.625000e-03
-6.426250e-10,2.671875e-03
-6.386250e-10,3.062500e-03
-6.346250e-10,2.859375e-03
-6.306250e-10,2.906250e-03
-6.266250e-10,3.187500e-03
-6.226250e-10,3.718750e-03
-6.186250e-10,3.671875e-03
-6.146250e-10,3.953125e-03
-6.106250e-10,4.281250e-03
-6.066250e-10,4.625000e-03
-6.026250e-10,5.000000e-03
-5.986250e-10,5.718750e-03
-5.946250e-10,5.828125e-03
-5.906250e-10,6.171875e-03
-5.866250e-10,6.734375e-03
-5.826250e-10,7.484375e-03
-5.786250e-10,7.640625e-03
-5.746250e-10,8.093750e-03
-5.706250e-10,8.531250e-03
-5.666250e-10,8.953125e-03
-5.626250e-10,9.359375e-03
-5.586250e-10,1.003125e-02
-5.546250e-10,1.006250e-02
-5.506250e-10,1.025000e-02
-5.466250e-10,1.059375e-02
-5.426250e-10,1.109375e-02
-5.386250e-10,1.093750e-02
-5.346250e-10,1.103125e-02
-5.306250e-10,1.106250e-02
-5.266250e-10,1.103125e-02
-5.226250e-10,1.093750e-02
-5.186250e-10,1.110938e-02
-5.146250e-10,1.060938e-02
-5.106250e-10,1.025000e-02
-5.066250e-10,1.006250e-02
-5.026250e-10,1.003125e-02
-4.986250e-10,9.343750e-03
-4.946250e-10,8.937500e-03
-4.906250e-10,8.484375e-03
-4.866250e-10,8.015625e-03
-4.826250e-10,7.546875e-03
-4.786250e-10,7.359375e-03
-4.746250e-10,6.578125e-03
-4.706250e-10,6.000000e-03
-4.666250e-10,5.625000e-03
-4.626250e-10,5.500000e-03
-4.586250e-10,4.781250e-03
-4.546250e-10,4.390625e-03
-4.506250e-10,4.031250e-03
-4.466250e-10,3.718750e-03
-4.426250e-10,3.437500e-03
-4.386250e-10,3.515625e-03
-4.346250e-10,3.031250e-03
-4.306250e-10,2.796875e-03
-4.266250e-10,2.812500e-03
-4.226250e-10,3.078125e-03
-4.186250e-10,2.781250e-03
-4.146250e-10,2.828125e-03
-4.106250e-10,2.859375e-03
-4.066250e-10,2.968750e-03
-4.026250e-10,3.062500e-03
-3.986250e-10,3.515625e-03
-3.946250e-10,3.343750e-03
-3.906250e-10,3.390625e-03
-3.866250e-10,3.656250e-03
-3.826250e-10,4.109375e-03
-3.786250e-10,3.968750e-03
-3.746250e-10,4.109375e-03
-3.706250e-10,4.171875e-03
-3.666250e-10,4.218750e-03
-3.626250e-10,4.250000e-03
-3.586250e-10,4.546875e-03
-3.546250e-10,4.187500e-03
-3.506250e-10,3.984375e-03
-3.466250e-10,3.984375e-03
-3.426250e-10,4.125000e-03
-3.386250e-10,3.656250e-03
-3.346250e-10,3.437500e-03
-3.306250e-10,3.125000e-03
-3.266250e-10,2.765625e-03
-3.226250e-10,2.421875e-03
-3.186250e-10,2.359375e-03
-3.146250e-10,1.656250e-03
-3.106250e-10,1.140625e-03
-3.066250e-10,8.593750e-04
-3.026250e-10,7.500000e-04
-2.986250e-10,1.093750e-04
-2.946250e-10,-2.343750e-04
-2.906250e-10,-6.406250e-04
-2.866250e-10,-1.015625e-03
-2.826250e-10,-1.296875e-03
-2.786250e-10,-1.281250e-03
-2.746250e-10,-1.781250e-03
-2.706250e-10,-2.062500e-03
-2.666250e-10,-2.031250e-03
-2.626250e-10,-1.796875e-03
-2.586250e-10,-2.031250e-03
-2.546250e-10,-1.890625e-03
-2.506250e-10,-1.796875e-03
-2.466250e-10,-1.656250e-03
-2.426250e-10,-1.343750e-03
-2.386250e-10,-7.500000e-04
-2.346250e-10,-6.250000e-04
-2.306250e-10,-3.125000e-04
-2.266250e-10,3.281250e-04
-2.226250e-10,1.156250e-03
-2.186250e-10,1.500000e-03
-2.146250e-10,2.156250e-03
-2.106250e-10,2.765625e-03
-2.066250e-10,3.359375e-03
-2.026250e-10,4.093750e-03
-1.986250e-10,5.031250e-03
-1.946250e-10,5.484375e-03
-1.906250e-10,6.031250e-03
-1.866250e-10,6.828125e-03
-1.826250e-10,7.765625e-03
-1.786250e-10,8.109375e-03
-1.746250e-10,8.718750e-03
-1.706250e-10,9.234375e-03
-1.666250e-10,9.640625e-03
-1.626250e-10,1.014063e-02
-1.586250e-10,1.075000e-02
-1.546250e-10,1.087500e-02
-1.506250e-10,1.101563e-02
-1.466250e-10,1.134375e-02
-1.426250e-10,1.179688e-02
-1.386250e-10,1.159375e-02
-1.346250e-10,1.165625e-02
-1.306250e-10,1.159375e-02
-1.266250e-10,1.145313e-02
-1.226250e-10,1.137500e-02
-1.186250e-10,1.143750e-02
-1.146250e-10,1.106250e-02
-1.106250e-10,1.071875e-02
-1.066250e-10,1.057813e-02
-1.026250e-10,1.065625e-02
-9.862500e-11,1.015625e-02
-9.462500e-11,9.937500e-03
-9.062500e-11,9.734375e-03
-8.662500e-11,9.531250e-03
-8.262500e-11,9.500000e-03
-7.862500e-11,9.718750e-03
-7.462500e-11,9.640625e-03
-7.062500e-11,9.734375e-03
-6.662500e-11,1.014063e-02
-6.262500e-11,1.092188e-02
-5.862500e-11,1.128125e-02
-5.462500e-11,1.204688e-02
-5.062500e-11,1.300000e-02
-4.662500e-11,1.415625e-02
-4.262500e-11,1.557813e-02
-3.862500e-11,1.746875e-02
-3.462500e-11,1.920313e-02
-3.062500e-11,2.128125e-02
-2.662500e-11,2.378125e-02
-2.262500e-11,2.681250e-02
-1.862500e-11,2.959375e-02
-1.462500e-11,3.289063e-02
-1.062500e-11,3.650000e-02
-6.625000e-12,4.042188e-02
-2.625000e-12,4.467188e-02
1.375000e-12,4.951563e-02
5.375000e-12,5.425000e-02
9.375000e-12,5.940625e-02
1.337500e-11,6.496875e-02
1.737500e-11,7.106250e-02
2.137500e-11,7.695313e-02
2.537500e-11,8.329688e-02
2.937500e-11,8.989063e-02
3.337500e-11,9.675000e-02
3.737500e-11,1.038438e-01
4.137500e-11,1.114375e-01
4.537500e-11,1.187656e-01
4.937500e-11,1.263750e-01
5.337500e-11,1.342188e-01
5.737500e-11,1.423750e-01
6.137500e-11,1.501875e-01
6.537500e-11,1.582031e-01
6.937500e-11,1.662656e-01
7.337500e-11,1.743438e-01
7.737500e-11,1.823750e-01
8.137500e-11,1.906719e-01
8.537500e-11,1.984688e-01
8.937500e-11,2.062656e-01
9.337500e-11,2.140156e-01
9.737500e-11,2.218125e-01
1.013750e-10,2.290469e-01
1.053750e-10,2.362188e-01
1.093750e-10,2.431875e-01
1.133750e-10,2.499375e-01
1.173750e-10,2.564375e-01
1.213750e-10,2.629688e-01
1.253750e-10,2.688125e-01
1.293750e-10,2.745000e-01
1.333750e-10,2.799688e-01
1.373750e-10,2.853125e-01
1.413750e-10,2.900000e-01
1.453750e-10,2.945156e-01
1.493750e-10,2.987500e-01
1.533750e-10,3.026875e-01
1.573750e-10,3.063125e-01
1.613750e-10,3.098906e-01
1.653750e-10,3.128281e-01
1.693750e-10,3.155625e-01
1.733750e-10,3.180938e-01
1.773750e-10,3.205000e-01
1.813750e-10,3.223125e-01
1.853750e-10,3.240000e-01
1.893750e-10,3.254219e-01
1.933750e-10,3.266406e-01
1.973750e-10,3.275781e-01
2.013750e-10,3.285000e-01
2.053750e-10,3.288906e-01
2.093750e-10,3.291406e-01
2.133750e-10,3.292500e-01
2.173750e-10,3.292813e-01
2.213750e-10,3.287500e-01
2.253750e-10,3.282188e-01
2.293750e-10,3.274688e-01
2.333750e-10,3.265469e-01
2.373750e-10,3.254219e-01
2.413750e-10,3.242656e-01
2.453750e-10,3.226250e-01
2.493750e-10,3.209063e-01
2.533750e-10,3.190469e-01
2.573750e-10,3.171406e-01
2.613750e-10,3.146719e-01
2.653750e-10,3.122813e-01
2.693750e-10,3.096563e-01
2.733750e-10,3.068750e-01
2.773750e-10,3.039375e-01
2.813750e-10,3.009531e-01
2.853750e-10,2.975000e-01
2.893750e-10,2.940156e-01
2.933750e-10,2.904219e-01
2.973750e-10,2.868125e-01
3.013750e-10,2.826563e-01
3.053750e-10,2.786563e-01
3.093750e-10,2.744531e-01
3.133750e-10,2.701719e-01
3.173750e-10,2.657969e-01
3.213750e-10,2.614375e-01
3.253750e-10,2.566250e-01
3.293750e-10,2.519375e-01
3.333750e-10,2.471875e-01
3.373750e-10,2.425156e-01
3.413750e-10,2.373906e-01
3.453750e-10,2.325156e-01
3.493750e-10,2.275625e-01
3.533750e-10,2.226250e-01
3.573750e-10,2.176875e-01
3.613750e-10,2.128750e-01
3.653750e-10,2.076719e-01
3.693750e-10,2.026875e-01
3.733750e-10,1.977656e-01
3.773750e-10,1.930000e-01
3.813750e-10,1.878594e-01
3.853750e-10,1.830469e-01
3.893750e-10,1.782188e-01
3.933750e-10,1.734844e-01
3.973750e-10,1.688281e-01
4.013750e-10,1.643594e-01
4.053750e-10,1.595000e-01
4.093750e-10,1.549375e-01
4.133750e-10,1.504844e-01
4.173750e-10,1.462031e-01
4.213750e-10,1.415938e-01
4.253750e-10,1.373125e-01
4.293750e-10,1.330781e-01
4.333750e-10,1.289375e-01
4.373750e-10,1.248906e-01
4.413750e-10,1.210938e-01
4.453750e-10,1.168750e-01
4.493750e-10,1.129688e-01
4.533750e-10,1.092500e-01
4.573750e-10,1.056875e-01
4.613750e-10,1.018438e-01
4.653750e-10,9.832813e-02
4.693750e-10,9.493750e-02
4.733750e-10,9.165625e-02
4.773750e-10,8.846875e-02
4.813750e-10,8.560938e-02
4.853750e-10,8.235938e-02
4.893750e-10,7.943750e-02
4.933750e-10,7.678125e-02
4.973750e-10,7.431250e-02
5.013750e-10,7.160938e-02
5.053750e-10,6.923438e-02
5.093750e-10,6.706250e-02
5.133750e-10,6.500000e-02
5.173750e-10,6.306250e-02
5.213750e-10,6.150000e-02
5.253750e-10,5.951563e-02
5.293750e-10,5.787500e-02
5.333750e-10,5.653125e-02
5.373750e-10,5.535938e-02
5.413750e-10,5.392188e-02
5.453750e-10,5.276563e-02
5.493750e-10,5.181250e-02
5.533750e-10,5.090625e-02
5.573750e-10,5.004688e-02
5.613750e-10,4.950000e-02
5.653750e-10,4.848438e-02
5.693750e-10,4.770313e-02
5.733750e-10,4.715625e-02
5.773750e-10,4.671875e-02
5.813750e-10,4.589063e-02
5.853750e-10,4.525000e-02
5.893750e-10,4.471875e-02
5.933750e-10,4.414063e-02
5.973750e-10,4.350000e-02
6.013750e-10,4.309375e-02
6.053750e-10,4.212500e-02
6.093750e-10,4.131250e-02
6.133750e-10,4.068750e-02
6.173750e-10,4.010938e-02
6.213750e-10,3.906250e-02
6.253750e-10,3.817188e-02
6.293750e-10,3.734375e-02
6.333750e-10,3.646875e-02
6.373750e-10,3.550000e-02
6.413750e-10,3.476563e-02
6.453750e-10,3.348438e-02
6.493750e-10,3.235938e-02
6.533750e-10,3.146875e-02
6.573750e-10,3.068750e-02
6.613750e-10,2.943750e-02
6.653750e-10,2.840625e-02
6.693750e-10,2.750000e-02
6.733750e-10,2.660938e-02
6.773750e-10,2.565625e-02
6.813750e-10,2.501563e-02
6.853750e-10,2.389063e-02
6.893750e-10,2.296875e-02
6.933750e-10,2.232813e-02
6.973750e-10,2.189063e-02
7.013750e-10,2.098438e-02
7.053750e-10,2.035938e-02
7.093750e-10,1.987500e-02
7.133750e-10,1.940625e-02
7.173750e-10,1.890625e-02
7.213750e-10,1.871875e-02
7.253750e-10,1.804688e-02
7.293750e-10,1.756250e-02
7.333750e-10,1.734375e-02
7.373750e-10,1.731250e-02
7.413750e-10,1.673438e-02
7.453750e-10,1.643750e-02
7.493750e-10,1.620313e-02
7.533750e-10,1.595313e-02
7.573750e-10,1.562500e-02
7.613750e-10,1.557813e-02
7.653750e-10,1.496875e-02
7.693750e-10,1.451563e-02
7.733750e-10,1.428125e-02
7.773750e-10,1.420313e-02
7.813750e-10,1.353125e-02
7.853750e-10,1.314063e-02
7.893750e-10,1.276563e-02
7.933750e-10,1.237500e-02
7.973750e-10,1.192188e-02
8.013750e-10,1.175000e-02
8.053750e-10,1.103125e-02
8.093750e-10,1.050000e-02
8.133750e-10,1.021875e-02
8.173750e-10,1.014063e-02
8.213750e-10,9.515625e-03
8.253750e-10,9.203125e-03
8.293750e-10,8.968750e-03
8.333750e-10,8.781250e-03
8.373750e-10,8.593750e-03
8.413750e-10,8.750000e-03
8.453750e-10,8.406250e-03
8.493750e-10,8.312500e-03
8.533750e-10,8.500000e-03
8.573750e-10,8.937500e-03
8.613750e-10,8.859375e-03
8.653750e-10,9.125000e-03
8.693750e-10,9.468750e-03
8.733750e-10,9.875000e-03
8.773750e-10,1.028125e-02
8.813750e-10,1.103125e-02
8.853750e-10,1.123438e-02
8.893750e-10,1.164063e-02
8.933750e-10,1.228125e-02
8.973750e-10,1.312500e-02
9.013750e-10,1.337500e-02
9.053750e-10,1.389063e-02
9.093750e-10,1.439063e-02
9.133750e-10,1.487500e-02
9.173750e-10,1.528125e-02
9.213750e-10,1.592188e-02
9.253750e-10,1.592188e-02
9.293750e-10,1.604688e-02
9.333750e-10,1.631250e-02
9.373750e-10,1.668750e-02
9.413750e-10,1.637500e-02
9.453750e-10,1.628125e-02
9.493750e-10,1.612500e-02
9.533750e-10,1.585938e-02
9.573750e-10,1.551563e-02
9.613750e-10,1.537500e-02
9.653750e-10,1.457813e-02
9.693750e-10,1.389063e-02
9.733750e-10,1.335938e-02
9.773750e-10,1.296875e-02
9.813750e-10,1.193750e-02
9.853750e-10,1.117188e-02
9.893750e-10,1.037500e-02
9.933750e-10,9.578125e-03
9.973750e-10,8.765625e-03
1.001375e-09,8.250000e-03
1.005375e-09,7.171875e-03
1.009375e-09,6.312500e-03
1.013375e-09,5.703125e-03
1.017375e-09,5.328125e-03
1.021375e-09,4.421875e-03
1.025375e-09,3.875000e-03
1.029375e-09,3.406250e-03
1.033375e-09,3.000000e-03
1.037375e-09,2.671875e-03
1.041375e-09,2.734375e-03
1.045375e-09,2.265625e-03
1.049375e-09,2.093750e-03
1.053375e-09,2.187500e-03
1.057375e-09,2.578125e-03
1.061375e-09,2.437500e-03
1.065375e-09,2.671875e-03
1.069375e-09,2.953125e-03
1.073375e-09,3.312500e-03
1.077375e-09,3.703125e-03
1.081375e-09,4.453125e-03
1.085375e-09,4.625000e-03
1.089375e-09,5.015625e-03
1.093375e-09,5.640625e-03
1.097375e-09,6.468750e-03
1.101375e-09,6.703125e-03
1.105375e-09,7.234375e-03
1.109375e-09,7.734375e-03
1.113375e-09,8.234375e-03
1.117375e-09,8.687500e-03
1.121375e-09,9.421875e-03
1.125375e-09,9.515625e-03
1.129375e-09,9.765625e-03
1.133375e-09,1.017188e-02
1.137375e-09,1.073438e-02
1.141375e-09,1.065625e-02
1.145375e-09,1.082813e-02
1.149375e-09,1.095313e-02
1.153375e-09,1.103125e-02
1.157375e-09,1.106250e-02
1.161375e-09,1.135938e-02
1.165375e-09,1.101563e-02
1.169375e-09,1.082813e-02
1.173375e-09,1.082813e-02
1.177375e-09,1.100000e-02
1.181375e-09,1.054688e-02
1.185375e-09,1.037500e-02
1.189375e-09,1.020313e-02
1.193375e-09,1.003125e-02
1.197375e-09,9.843750e-03
1.201375e-09,9.968750e-03
1.205375e-09,9.500000e-03
1.209375e-09,9.250000e-03
1.213375e-09,9.203125e-03
1.217375e-09,9.375000e-03
1.221375e-09,8.984375e-03
1.225375e-09,8.906250e-03
1.229375e-09,8.859375e-03
1.233375e-09,8.828125e-03
1.237375e-09,8.828125e-03
1.241375e-09,9.171875e-03
1.245375e-09,8.921875e-03
1.249375e-09,8.906250e-03
1.253375e-09,9.125000e-03
1.257375e-09,9.562500e-03
1.261375e-09,9.421875e-03
1.265375e-09,9.593750e-03
1.269375e-09,9.781250e-03
1.273375e-09,1.000000e-02
1.277375e-09,1.021875e-02
1.281375e-09,1.075000e-02
1.285375e-09,1.070313e-02
1.289375e-09,1.084375e-02
1.293375e-09,1.118750e-02
1.297375e-09,1.173438e-02
1.301375e-09,1.165625e-02
1.305375e-09,1.189063e-02
1.309375e-09,1.210938e-02
1.313375e-09,1.231250e-02
1.317375e-09,1.248438e-02
1.321375e-09,1.295313e-02
1.325375e-09,1.279688e-02
1.329375e-09,1.282813e-02
1.333375e-09,1.301563e-02
1.337375e-09,1.339063e-02
1.341375e-09,1.312500e-02
1.345375e-09,1.314063e-02
1.349375e-09,1.314063e-02
1.353375e-09,1.309375e-02
1.357375e-09,1.301563e-02
1.361375e-09,1.321875e-02
1.365375e-09,1.279688e-02
1.369375e-09,1.253125e-02
1.373375e-09,1.245313e-02
1.377375e-09,1.254688e-02
1.381375e-09,1.201563e-02
1.385375e-09,1.176563e-02
1.389375e-09,1.151563e-02
1.393375e-09,1.123438e-02
1.397375e-09,1.093750e-02
1.401375e-09,1.093750e-02
1.405375e-09,1.032813e-02
1.409375e-09,9.906250e-03
1.413375e-09,9.703125e-03
1.417375e-09,9.687500e-03
1.421375e-09,9.093750e-03
1.425375e-09,8.796875e-03
1.429375e-09,8.515625e-03
1.433375e-09,8.265625e-03
1.437375e-09,8.031250e-03
1.441375e-09,8.109375e-03
1.445375e-09,7.609375e-03
1.449375e-09,7.343750e-03
1.453375e-09,7.312500e-03
1.457375e-09,7.500000e-03
1.461375e-09,7.125000e-03
1.465375e-09,7.078125e-03
1.469375e-09,7.046875e-03
1.473375e-09,7.078125e-03
1.477375e-09,7.109375e-03
1.481375e-09,7.500000e-03
1.485375e-09,7.296875e-03
1.489375e-09,7.328125e-03
1.493375e-09,7.578125e-03
1.497375e-09,8.046875e-03
1.501375e-09,7.953125e-03
1.505375e-09,8.156250e-03
1.509375e-09,8.390625e-03
1.513375e-09,8.609375e-03
1.517375e-09,8.859375e-03
1.521375e-09,9.406250e-03
1.525375e-09,9.343750e-03
1.529375e-09,9.468750e-03
1.533375e-09,9.812500e-03
1.537375e-09,1.032813e-02
1.541375e-09,1.021875e-02
1.545375e-09,1.040625e-02
1.549375e-09,1.057813e-02
1.553375e-09,1.071875e-02
1.557375e-09,1.082813e-02
1.561375e-09,1.121875e-02
1.565375e-09,1.098438e-02
1.569375e-09,1.090625e-02
1.573375e-09,1.101563e-02
1.577375e-09,1.128125e-02
1.581375e-09,1.092188e-02
1.585375e-09,1.081250e-02
1.589375e-09,1.070313e-02
1.593375e-09,1.054688e-02
1.597375e-09,1.035938e-02
1.601375e-09,1.045313e-02
1.605375e-09,9.906250e-03
1.609375e-09,9.546875e-03
1.613375e-09,9.375000e-03
1.617375e-09,9.375000e-03
1.621375e-09,8.750000e-03
1.625375e-09,8.421875e-03
1.629375e-09,8.093750e-03
1.633375e-09,7.750000e-03
1.637375e-09,7.390625e-03
1.641375e-09,7.328125e-03
1.645375e-09,6.671875e-03
1.649375e-09,6.218750e-03
1.653375e-09,5.984375e-03
1.657375e-09,5.937500e-03
1.661375e-09,5.312500e-03
1.665375e-09,5.000000e-03
1.669375e-09,4.687500e-03
1.673375e-09,4.406250e-03
1.677375e-09,4.140625e-03
1.681375e-09,4.187500e-03
1.685375e-09,3.656250e-03
1.689375e-09,3.359375e-03
1.693375e-09,3.265625e-03
1.697375e-09,3.406250e-03
1.701375e-09,2.968750e-03
1.705375e-09,2.843750e-03
1.709375e-09,2.765625e-03
1.713375e-09,2.687500e-03
1.717375e-09,2.640625e-03
1.721375e-09,2.921875e-03
1.725375e-09,2.609375e-03
1.729375e-09,2.515625e-03
1.733375e-09,2.656250e-03
1.737375e-09,3.000000e-03
1.741375e-09,2.765625e-03
1.745375e-09,2.843750e-03
1.749375e-09,2.937500e-03
1.753375e-09,3.031250e-03
