Measurements-streak-laser/Photodiode-on-Tek-6GHz/Tek000_ch1_20190613132759625.csv

Model,MSO64
Waveform Type,ANALOG
Horizontal Units,s
Sample Interval,4.000000e-12
Record Length,1000
Zero Index,310.710938
Vertical Units,V

TIME,CH1
-1.242844e-09,6.593750e-03
-1.238844e-09,6.421875e-03
-1.234844e-09,6.437500e-03
-1.230844e-09,6.671875e-03
-1.226844e-09,7.109375e-03
-1.222844e-09,6.921875e-03
-1.218844e-09,7.046875e-03
-1.214844e-09,7.140625e-03
-1.210844e-09,7.218750e-03
-1.206844e-09,7.281250e-03
-1.202844e-09,7.609375e-03
-1.198844e-09,7.312500e-03
-1.194844e-09,7.203125e-03
-1.190844e-09,7.265625e-03
-1.186844e-09,7.500000e-03
-1.182844e-09,7.093750e-03
-1.178844e-09,6.968750e-03
-1.174844e-09,6.828125e-03
-1.170844e-09,6.671875e-03
-1.166844e-09,6.500000e-03
-1.162844e-09,6.609375e-03
-1.158844e-09,6.125000e-03
-1.154844e-09,5.812500e-03
-1.150844e-09,5.718750e-03
-1.146844e-09,5.828125e-03
-1.142844e-09,5.343750e-03
-1.138844e-09,5.171875e-03
-1.134844e-09,5.015625e-03
-1.130844e-09,4.875000e-03
-1.126844e-09,4.765625e-03
-1.122844e-09,4.968750e-03
-1.118844e-09,4.593750e-03
-1.114844e-09,4.453125e-03
-1.110844e-09,4.546875e-03
-1.106844e-09,4.859375e-03
-1.102844e-09,4.593750e-03
-1.098844e-09,4.640625e-03
-1.094844e-09,4.718750e-03
-1.090844e-09,4.812500e-03
-1.086844e-09,4.921875e-03
-1.082844e-09,5.343750e-03
-1.078844e-09,5.156250e-03
-1.074844e-09,5.187500e-03
-1.070844e-09,5.406250e-03
-1.066844e-09,5.828125e-03
-1.062844e-09,5.625000e-03
-1.058844e-09,5.718750e-03
-1.054844e-09,5.796875e-03
-1.050844e-09,5.843750e-03
-1.046844e-09,5.875000e-03
-1.042844e-09,6.187500e-03
-1.038844e-09,5.875000e-03
-1.034844e-09,5.718750e-03
-1.030844e-09,5.750000e-03
-1.026844e-09,5.968750e-03
-1.022844e-09,5.546875e-03
-1.018844e-09,5.406250e-03
-1.014844e-09,5.250000e-03
-1.010844e-09,5.093750e-03
-1.006844e-09,4.906250e-03
-1.002844e-09,5.031250e-03
-9.988437e-10,4.531250e-03
-9.948438e-10,4.234375e-03
-9.908438e-10,4.156250e-03
-9.868438e-10,4.296875e-03
-9.828438e-10,3.828125e-03
-9.788438e-10,3.703125e-03
-9.748438e-10,3.593750e-03
-9.708437e-10,3.500000e-03
-9.668437e-10,3.437500e-03
-9.628437e-10,3.718750e-03
-9.588437e-10,3.437500e-03
-9.548437e-10,3.375000e-03
-9.508437e-10,3.562500e-03
-9.468437e-10,3.968750e-03
-9.428437e-10,3.812500e-03
-9.388437e-10,3.984375e-03
-9.348438e-10,4.203125e-03
-9.308438e-10,4.421875e-03
-9.268437e-10,4.671875e-03
-9.228437e-10,5.250000e-03
-9.188437e-10,5.234375e-03
-9.148437e-10,5.421875e-03
-9.108437e-10,5.812500e-03
-9.068437e-10,6.406250e-03
-9.028438e-10,6.375000e-03
-8.988438e-10,6.640625e-03
-8.948437e-10,6.906250e-03
-8.908437e-10,7.125000e-03
-8.868437e-10,7.328125e-03
-8.828437e-10,7.812500e-03
-8.788437e-10,7.656250e-03
-8.748438e-10,7.671875e-03
-8.708438e-10,7.859375e-03
-8.668438e-10,8.203125e-03
-8.628437e-10,7.906250e-03
-8.588437e-10,7.890625e-03
-8.548437e-10,7.843750e-03
-8.508437e-10,7.750000e-03
-8.468437e-10,7.640625e-03
-8.428438e-10,7.812500e-03
-8.388438e-10,7.359375e-03
-8.348437e-10,7.093750e-03
-8.308437e-10,7.015625e-03
-8.268437e-10,7.140625e-03
-8.228437e-10,6.640625e-03
-8.188437e-10,6.468750e-03
-8.148438e-10,6.281250e-03
-8.108438e-10,6.125000e-03
-8.068438e-10,5.984375e-03
-8.028437e-10,6.156250e-03
-7.988437e-10,5.750000e-03
-7.948437e-10,5.562500e-03
-7.908437e-10,5.609375e-03
-7.868438e-10,5.890625e-03
-7.828438e-10,5.593750e-03
-7.788438e-10,5.625000e-03
-7.748437e-10,5.687500e-03
-7.708437e-10,5.765625e-03
-7.668437e-10,5.875000e-03
-7.628437e-10,6.312500e-03
-7.588437e-10,6.156250e-03
-7.548438e-10,6.218750e-03
-7.508438e-10,6.484375e-03
-7.468438e-10,6.968750e-03
-7.428437e-10,6.843750e-03
-7.388437e-10,7.015625e-03
-7.348437e-10,7.171875e-03
-7.308437e-10,7.328125e-03
-7.268438e-10,7.468750e-03
-7.228438e-10,7.890625e-03
-7.188438e-10,7.671875e-03
-7.148437e-10,7.640625e-03
-7.108437e-10,7.765625e-03
-7.068437e-10,8.078125e-03
-7.028437e-10,7.750000e-03
-6.988437e-10,7.687500e-03
-6.948438e-10,7.593750e-03
-6.908438e-10,7.453125e-03
-6.868438e-10,7.296875e-03
-6.828437e-10,7.421875e-03
-6.788437e-10,6.906250e-03
-6.748437e-10,6.562500e-03
-6.708437e-10,6.421875e-03
-6.668438e-10,6.453125e-03
-6.628438e-10,5.875000e-03
-6.588438e-10,5.593750e-03
-6.548437e-10,5.328125e-03
-6.508437e-10,5.046875e-03
-6.468437e-10,4.781250e-03
-6.428437e-10,4.843750e-03
-6.388437e-10,4.312500e-03
-6.348438e-10,4.015625e-03
-6.308438e-10,3.937500e-03
-6.268438e-10,4.109375e-03
-6.228437e-10,3.687500e-03
-6.188437e-10,3.625000e-03
-6.148437e-10,3.593750e-03
-6.108437e-10,3.593750e-03
-6.068438e-10,3.625000e-03
-6.028438e-10,4.000000e-03
-5.988438e-10,3.812500e-03
-5.948437e-10,3.859375e-03
-5.908437e-10,4.140625e-03
-5.868437e-10,4.640625e-03
-5.828437e-10,4.562500e-03
-5.788437e-10,4.812500e-03
-5.748438e-10,5.078125e-03
-5.708438e-10,5.343750e-03
-5.668438e-10,5.625000e-03
-5.628437e-10,6.203125e-03
-5.588437e-10,6.171875e-03
-5.548437e-10,6.328125e-03
-5.508437e-10,6.687500e-03
-5.468438e-10,7.218750e-03
-5.428438e-10,7.125000e-03
-5.388438e-10,7.312500e-03
-5.348437e-10,7.468750e-03
-5.308437e-10,7.593750e-03
-5.268437e-10,7.703125e-03
-5.228437e-10,8.062500e-03
-5.188437e-10,7.781250e-03
-5.148438e-10,7.687500e-03
-5.108438e-10,7.750000e-03
-5.068438e-10,7.984375e-03
-5.028437e-10,7.578125e-03
-4.988437e-10,7.453125e-03
-4.948437e-10,7.281250e-03
-4.908437e-10,7.109375e-03
-4.868438e-10,6.906250e-03
-4.828438e-10,7.000000e-03
-4.788438e-10,6.468750e-03
-4.748437e-10,6.125000e-03
-4.708437e-10,5.984375e-03
-4.668437e-10,6.046875e-03
-4.628437e-10,5.500000e-03
-4.588437e-10,5.265625e-03
-4.548438e-10,5.015625e-03
-4.508437e-10,4.796875e-03
-4.468437e-10,4.562500e-03
-4.428437e-10,4.671875e-03
-4.388438e-10,4.171875e-03
-4.348437e-10,3.906250e-03
-4.308437e-10,3.843750e-03
-4.268438e-10,4.015625e-03
-4.228438e-10,3.609375e-03
-4.188437e-10,3.500000e-03
-4.148437e-10,3.390625e-03
-4.108438e-10,3.312500e-03
-4.068437e-10,3.250000e-03
-4.028437e-10,3.500000e-03
-3.988437e-10,3.140625e-03
-3.948438e-10,3.000000e-03
-3.908437e-10,3.093750e-03
-3.868437e-10,3.375000e-03
-3.828437e-10,3.078125e-03
-3.788438e-10,3.078125e-03
-3.748437e-10,3.046875e-03
-3.708437e-10,3.031250e-03
-3.668438e-10,3.031250e-03
-3.628438e-10,3.328125e-03
-3.588437e-10,3.031250e-03
-3.548437e-10,2.921875e-03
-3.508438e-10,3.046875e-03
-3.468437e-10,3.359375e-03
-3.428437e-10,3.109375e-03
-3.388437e-10,3.156250e-03
-3.348438e-10,3.171875e-03
-3.308437e-10,3.203125e-03
-3.268437e-10,3.265625e-03
-3.228437e-10,3.625000e-03
-3.188438e-10,3.406250e-03
-3.148437e-10,3.406250e-03
-3.108437e-10,3.656250e-03
-3.068438e-10,4.093750e-03
-3.028438e-10,3.984375e-03
-2.988437e-10,4.187500e-03
-2.948437e-10,4.375000e-03
-2.908438e-10,4.578125e-03
-2.868437e-10,4.828125e-03
-2.828437e-10,5.375000e-03
-2.788437e-10,5.375000e-03
-2.748438e-10,5.546875e-03
-2.708437e-10,5.984375e-03
-2.668437e-10,6.593750e-03
-2.628438e-10,6.656250e-03
-2.588438e-10,7.015625e-03
-2.548437e-10,7.328125e-03
-2.508437e-10,7.609375e-03
-2.468438e-10,7.953125e-03
-2.428438e-10,8.546875e-03
-2.388437e-10,8.562500e-03
-2.348437e-10,8.734375e-03
-2.308438e-10,9.109375e-03
-2.268437e-10,9.640625e-03
-2.228437e-10,9.562500e-03
-2.188437e-10,9.750000e-03
-2.148437e-10,9.859375e-03
-2.108437e-10,9.921875e-03
-2.068437e-10,1.001563e-02
-2.028438e-10,1.031250e-02
-1.988437e-10,1.003125e-02
-1.948438e-10,9.859375e-03
-1.908437e-10,9.875000e-03
-1.868438e-10,1.006250e-02
-1.828437e-10,9.609375e-03
-1.788438e-10,9.437500e-03
-1.748437e-10,9.203125e-03
-1.708438e-10,8.921875e-03
-1.668437e-10,8.687500e-03
-1.628438e-10,8.687500e-03
-1.588437e-10,8.156250e-03
-1.548437e-10,7.765625e-03
-1.508437e-10,7.593750e-03
-1.468437e-10,7.625000e-03
-1.428438e-10,7.093750e-03
-1.388437e-10,6.875000e-03
-1.348438e-10,6.671875e-03
-1.308437e-10,6.500000e-03
-1.268438e-10,6.406250e-03
-1.228437e-10,6.625000e-03
-1.188438e-10,6.390625e-03
-1.148437e-10,6.359375e-03
-1.108437e-10,6.593750e-03
-1.068437e-10,7.125000e-03
-1.028437e-10,7.125000e-03
-9.884375e-11,7.515625e-03
-9.484375e-11,7.968750e-03
-9.084375e-11,8.515625e-03
-8.684375e-11,9.187500e-03
-8.284375e-11,1.021875e-02
-7.884375e-11,1.084375e-02
-7.484375e-11,1.171875e-02
-7.084375e-11,1.285938e-02
-6.684375e-11,1.434375e-02
-6.284375e-11,1.534375e-02
-5.884375e-11,1.670313e-02
-5.484375e-11,1.817188e-02
-5.084375e-11,1.973438e-02
-4.684375e-11,2.140625e-02
-4.284375e-11,2.346875e-02
-3.884375e-11,2.510938e-02
-3.484375e-11,2.698438e-02
-3.084375e-11,2.910938e-02
-2.684375e-11,3.156250e-02
-2.284375e-11,3.353125e-02
-1.884375e-11,3.582813e-02
-1.484375e-11,3.820313e-02
-1.084375e-11,4.065625e-02
-6.843750e-12,4.318750e-02
-2.843750e-12,4.609375e-02
1.156250e-12,4.854688e-02
5.156250e-12,5.121875e-02
9.156250e-12,5.410938e-02
1.315625e-11,5.726563e-02
1.715625e-11,5.995313e-02
2.115625e-11,6.292188e-02
2.515625e-11,6.593750e-02
2.915625e-11,6.901563e-02
3.315625e-11,7.212500e-02
3.715625e-11,7.559375e-02
4.115625e-11,7.856250e-02
4.515625e-11,8.173438e-02
4.915625e-11,8.507813e-02
5.315625e-11,8.864063e-02
5.715625e-11,9.173438e-02
6.115625e-11,9.504688e-02
6.515625e-11,9.837500e-02
6.915625e-11,1.017344e-01
7.315625e-11,1.050625e-01
7.715625e-11,1.087031e-01
8.115625e-11,1.118281e-01
8.515625e-11,1.150781e-01
8.915625e-11,1.184531e-01
9.315625e-11,1.219844e-01
9.715625e-11,1.250000e-01
1.011562e-10,1.281719e-01
1.051562e-10,1.312969e-01
1.091562e-10,1.343750e-01
1.131562e-10,1.373594e-01
1.171563e-10,1.405781e-01
1.211562e-10,1.432031e-01
1.251563e-10,1.458906e-01
1.291562e-10,1.486094e-01
1.331563e-10,1.513906e-01
1.371562e-10,1.535938e-01
1.411563e-10,1.558750e-01
1.451562e-10,1.580313e-01
1.491562e-10,1.600625e-01
1.531562e-10,1.619219e-01
1.571562e-10,1.639063e-01
1.611563e-10,1.652344e-01
1.651562e-10,1.665625e-01
1.691563e-10,1.678438e-01
1.731562e-10,1.691406e-01
1.771563e-10,1.697656e-01
1.811562e-10,1.704531e-01
1.851563e-10,1.709688e-01
1.891562e-10,1.712813e-01
1.931563e-10,1.714219e-01
1.971562e-10,1.716250e-01
2.011563e-10,1.711875e-01
2.051562e-10,1.707344e-01
2.091562e-10,1.702344e-01
2.131562e-10,1.697188e-01
2.171562e-10,1.685781e-01
2.211562e-10,1.675156e-01
2.251562e-10,1.663125e-01
2.291563e-10,1.649531e-01
2.331562e-10,1.634688e-01
2.371562e-10,1.620625e-01
2.411563e-10,1.600938e-01
2.451563e-10,1.581719e-01
2.491562e-10,1.562813e-01
2.531562e-10,1.544531e-01
2.571563e-10,1.520469e-01
2.611562e-10,1.498438e-01
2.651562e-10,1.475625e-01
2.691562e-10,1.452344e-01
2.731563e-10,1.428594e-01
2.771562e-10,1.406563e-01
2.811562e-10,1.379375e-01
2.851562e-10,1.353906e-01
2.891563e-10,1.329531e-01
2.931562e-10,1.306563e-01
2.971562e-10,1.278594e-01
3.011563e-10,1.253438e-01
3.051563e-10,1.228125e-01
3.091562e-10,1.203125e-01
3.131562e-10,1.178438e-01
3.171563e-10,1.155781e-01
3.211562e-10,1.128594e-01
3.251562e-10,1.103438e-01
3.291562e-10,1.079844e-01
3.331563e-10,1.057969e-01
3.371562e-10,1.031250e-01
3.411562e-10,1.007813e-01
3.451562e-10,9.843750e-02
3.491563e-10,9.612500e-02
3.531562e-10,9.385938e-02
3.571562e-10,9.181250e-02
3.611563e-10,8.928125e-02
3.651563e-10,8.700000e-02
3.691562e-10,8.484375e-02
3.731562e-10,8.285938e-02
3.771563e-10,8.040625e-02
3.811562e-10,7.825000e-02
3.851562e-10,7.610938e-02
3.891562e-10,7.400000e-02
3.931563e-10,7.190625e-02
3.971562e-10,7.009375e-02
4.011562e-10,6.775000e-02
4.051562e-10,6.565625e-02
4.091563e-10,6.371875e-02
4.131562e-10,6.196875e-02
4.171562e-10,5.976563e-02
4.211563e-10,5.785938e-02
4.251563e-10,5.600000e-02
4.291562e-10,5.418750e-02
4.331562e-10,5.242188e-02
4.371563e-10,5.096875e-02
4.411562e-10,4.900000e-02
4.451562e-10,4.731250e-02
4.491562e-10,4.582813e-02
4.531563e-10,4.454688e-02
4.571562e-10,4.284375e-02
4.611562e-10,4.146875e-02
4.651562e-10,4.017188e-02
4.691563e-10,3.895313e-02
4.731562e-10,3.778125e-02
4.771562e-10,3.695313e-02
4.811562e-10,3.562500e-02
4.851562e-10,3.457813e-02
4.891563e-10,3.378125e-02
4.931563e-10,3.317188e-02
4.971563e-10,3.215625e-02
5.011562e-10,3.143750e-02
5.051562e-10,3.081250e-02
5.091562e-10,3.025000e-02
5.131562e-10,2.971875e-02
5.171562e-10,2.953125e-02
5.211563e-10,2.879688e-02
5.251563e-10,2.832813e-02
5.291563e-10,2.809375e-02
5.331562e-10,2.801563e-02
5.371562e-10,2.748438e-02
5.411562e-10,2.721875e-02
5.451562e-10,2.703125e-02
5.491563e-10,2.684375e-02
5.531563e-10,2.665625e-02
5.571563e-10,2.675000e-02
5.611562e-10,2.629688e-02
5.651562e-10,2.604688e-02
5.691562e-10,2.600000e-02
5.731562e-10,2.609375e-02
5.771562e-10,2.565625e-02
5.811563e-10,2.548438e-02
5.851563e-10,2.534375e-02
5.891563e-10,2.517188e-02
5.931562e-10,2.496875e-02
5.971562e-10,2.501563e-02
6.011562e-10,2.450000e-02
6.051562e-10,2.412500e-02
6.091563e-10,2.396875e-02
6.131563e-10,2.393750e-02
6.171563e-10,2.334375e-02
6.211562e-10,2.298438e-02
6.251562e-10,2.265625e-02
6.291562e-10,2.226563e-02
6.331562e-10,2.182813e-02
6.371562e-10,2.165625e-02
6.411563e-10,2.087500e-02
6.451563e-10,2.026563e-02
6.491563e-10,1.982813e-02
6.531562e-10,1.954688e-02
6.571562e-10,1.867188e-02
6.611562e-10,1.804688e-02
6.651562e-10,1.742188e-02
6.691562e-10,1.678125e-02
6.731563e-10,1.606250e-02
6.771563e-10,1.562500e-02
6.811562e-10,1.457813e-02
6.851562e-10,1.371875e-02
6.891562e-10,1.304688e-02
6.931562e-10,1.256250e-02
6.971562e-10,1.148438e-02
7.011563e-10,1.067188e-02
7.051563e-10,9.906250e-03
7.091563e-10,9.125000e-03
7.131562e-10,8.328125e-03
7.171562e-10,7.828125e-03
7.211562e-10,6.765625e-03
7.251562e-10,5.921875e-03
7.291562e-10,5.328125e-03
7.331563e-10,4.937500e-03
7.371563e-10,4.015625e-03
7.411562e-10,3.421875e-03
7.451562e-10,2.890625e-03
7.491562e-10,2.406250e-03
7.531562e-10,1.953125e-03
7.571562e-10,1.843750e-03
7.611563e-10,1.218750e-03
7.651563e-10,8.437500e-04
7.691563e-10,7.656250e-04
7.731562e-10,9.375000e-04
7.771562e-10,5.781250e-04
7.811562e-10,5.781250e-04
7.851562e-10,6.562500e-04
7.891562e-10,8.125000e-04
7.931563e-10,1.000000e-03
7.971563e-10,1.531250e-03
8.011562e-10,1.531250e-03
8.051562e-10,1.781250e-03
8.091562e-10,2.281250e-03
8.131562e-10,3.031250e-03
8.171562e-10,3.187500e-03
8.211563e-10,3.687500e-03
8.251563e-10,4.218750e-03
8.291563e-10,4.750000e-03
8.331562e-10,5.265625e-03
8.371562e-10,6.093750e-03
8.411562e-10,6.296875e-03
8.451562e-10,6.687500e-03
8.491562e-10,7.281250e-03
8.531563e-10,8.015625e-03
8.571563e-10,8.140625e-03
8.611562e-10,8.515625e-03
8.651562e-10,8.843750e-03
8.691562e-10,9.140625e-03
8.731562e-10,9.375000e-03
8.771562e-10,9.843750e-03
8.811563e-10,9.671875e-03
8.851563e-10,9.640625e-03
8.891563e-10,9.781250e-03
8.931562e-10,1.004688e-02
8.971562e-10,9.687500e-03
9.011562e-10,9.562500e-03
9.051562e-10,9.421875e-03
9.091562e-10,9.234375e-03
9.131563e-10,9.000000e-03
9.171563e-10,9.046875e-03
9.211562e-10,8.484375e-03
9.251562e-10,8.093750e-03
9.291562e-10,7.906250e-03
9.331562e-10,7.921875e-03
9.371562e-10,7.343750e-03
9.411562e-10,7.062500e-03
9.451562e-10,6.796875e-03
9.491562e-10,6.562500e-03
9.531562e-10,6.343750e-03
9.571563e-10,6.468750e-03
9.611563e-10,6.015625e-03
9.651563e-10,5.796875e-03
9.691563e-10,5.812500e-03
9.731563e-10,6.078125e-03
9.771563e-10,5.781250e-03
9.811562e-10,5.812500e-03
9.851562e-10,5.890625e-03
9.891562e-10,6.000000e-03
9.931562e-10,6.140625e-03
9.971562e-10,6.609375e-03
1.001156e-09,6.500000e-03
1.005156e-09,6.625000e-03
1.009156e-09,6.953125e-03
1.013156e-09,7.515625e-03
1.017156e-09,7.468750e-03
1.021156e-09,7.718750e-03
1.025156e-09,7.984375e-03
1.029156e-09,8.234375e-03
1.033156e-09,8.453125e-03
1.037156e-09,8.968750e-03
1.041156e-09,8.875000e-03
1.045156e-09,8.937500e-03
1.049156e-09,9.187500e-03
1.053156e-09,9.609375e-03
1.057156e-09,9.390625e-03
1.061156e-09,9.437500e-03
1.065156e-09,9.453125e-03
1.069156e-09,9.453125e-03
1.073156e-09,9.406250e-03
1.077156e-09,9.640625e-03
1.081156e-09,9.250000e-03
1.085156e-09,9.031250e-03
1.089156e-09,8.984375e-03
1.093156e-09,9.140625e-03
1.097156e-09,8.687500e-03
1.101156e-09,8.515625e-03
1.105156e-09,8.359375e-03
1.109156e-09,8.203125e-03
1.113156e-09,8.046875e-03
1.117156e-09,8.203125e-03
1.121156e-09,7.781250e-03
1.125156e-09,7.593750e-03
1.129156e-09,7.625000e-03
1.133156e-09,7.890625e-03
1.137156e-09,7.578125e-03
1.141156e-09,7.609375e-03
1.145156e-09,7.656250e-03
1.149156e-09,7.750000e-03
1.153156e-09,7.890625e-03
1.157156e-09,8.343750e-03
1.161156e-09,8.250000e-03
1.165156e-09,8.375000e-03
1.169156e-09,8.718750e-03
1.173156e-09,9.312500e-03
1.177156e-09,9.296875e-03
1.181156e-09,9.609375e-03
1.185156e-09,9.937500e-03
1.189156e-09,1.026563e-02
1.193156e-09,1.059375e-02
1.197156e-09,1.121875e-02
1.201156e-09,1.121875e-02
1.205156e-09,1.142188e-02
1.209156e-09,1.179688e-02
1.213156e-09,1.234375e-02
1.217156e-09,1.226563e-02
1.221156e-09,1.245313e-02
1.225156e-09,1.259375e-02
1.229156e-09,1.271875e-02
1.233156e-09,1.279688e-02
1.237156e-09,1.312500e-02
1.241156e-09,1.281250e-02
1.245156e-09,1.267188e-02
1.249156e-09,1.268750e-02
1.253156e-09,1.285938e-02
1.257156e-09,1.240625e-02
1.261156e-09,1.221875e-02
1.265156e-09,1.200000e-02
1.269156e-09,1.175000e-02
1.273156e-09,1.148438e-02
1.277156e-09,1.151563e-02
1.281156e-09,1.092188e-02
1.285156e-09,1.053125e-02
1.289156e-09,1.032813e-02
1.293156e-09,1.034375e-02
1.297156e-09,9.750000e-03
1.301156e-09,9.484375e-03
1.305156e-09,9.234375e-03
1.309156e-09,9.000000e-03
1.313156e-09,8.781250e-03
1.317156e-09,8.890625e-03
1.321156e-09,8.421875e-03
1.325156e-09,8.187500e-03
1.329156e-09,8.171875e-03
1.333156e-09,8.390625e-03
1.337156e-09,8.031250e-03
1.341156e-09,7.984375e-03
1.345156e-09,7.968750e-03
1.349156e-09,7.984375e-03
1.353156e-09,8.015625e-03
1.357156e-09,8.359375e-03
1.361156e-09,8.093750e-03
1.365156e-09,8.062500e-03
1.369156e-09,8.218750e-03
1.373156e-09,8.593750e-03
1.377156e-09,8.343750e-03
1.381156e-09,8.406250e-03
1.385156e-09,8.453125e-03
1.389156e-09,8.484375e-03
1.393156e-09,8.500000e-03
1.397156e-09,8.796875e-03
1.401156e-09,8.468750e-03
1.405156e-09,8.343750e-03
1.409156e-09,8.375000e-03
1.413156e-09,8.609375e-03
1.417156e-09,8.203125e-03
1.421156e-09,8.093750e-03
1.425156e-09,7.953125e-03
1.429156e-09,7.812500e-03
1.433156e-09,7.656250e-03
1.437156e-09,7.796875e-03
1.441156e-09,7.328125e-03
1.445156e-09,7.046875e-03
1.449156e-09,6.984375e-03
1.453156e-09,7.125000e-03
1.457156e-09,6.656250e-03
1.461156e-09,6.531250e-03
1.465156e-09,6.406250e-03
1.469156e-09,6.296875e-03
1.473156e-09,6.218750e-03
1.477156e-09,6.468750e-03
1.481156e-09,6.125000e-03
1.485156e-09,6.031250e-03
1.489156e-09,6.171875e-03
1.493156e-09,6.531250e-03
1.497156e-09,6.312500e-03
1.501156e-09,6.437500e-03
1.505156e-09,6.562500e-03
1.509156e-09,6.734375e-03
1.513156e-09,6.921875e-03
1.517156e-09,7.421875e-03
1.521156e-09,7.328125e-03
1.525156e-09,7.453125e-03
1.529156e-09,7.781250e-03
1.533156e-09,8.296875e-03
1.537156e-09,8.203125e-03
1.541156e-09,8.406250e-03
1.545156e-09,8.593750e-03
1.549156e-09,8.750000e-03
1.553156e-09,8.875000e-03
1.557156e-09,9.281250e-03
1.561156e-09,9.031250e-03
1.565156e-09,8.953125e-03
1.569156e-09,9.031250e-03
1.573156e-09,9.265625e-03
1.577156e-09,8.859375e-03
1.581156e-09,8.703125e-03
1.585156e-09,8.500000e-03
1.589156e-09,8.234375e-03
1.593156e-09,7.937500e-03
1.597156e-09,7.906250e-03
1.601156e-09,7.234375e-03
1.605156e-09,6.718750e-03
1.609156e-09,6.390625e-03
1.613156e-09,6.234375e-03
1.617156e-09,5.453125e-03
1.621156e-09,4.968750e-03
1.625156e-09,4.484375e-03
1.629156e-09,4.000000e-03
1.633156e-09,3.515625e-03
1.637156e-09,3.359375e-03
1.641156e-09,2.625000e-03
1.645156e-09,2.109375e-03
1.649156e-09,1.843750e-03
1.653156e-09,1.812500e-03
1.657156e-09,1.218750e-03
1.661156e-09,9.843750e-04
1.665156e-09,7.968750e-04
1.669156e-09,6.718750e-04
1.673156e-09,6.093750e-04
1.677156e-09,8.906250e-04
1.681156e-09,6.250000e-04
1.685156e-09,6.250000e-04
1.689156e-09,8.906250e-04
1.693156e-09,1.390625e-03
1.697156e-09,1.343750e-03
1.701156e-09,1.625000e-03
1.705156e-09,1.953125e-03
1.709156e-09,2.296875e-03
1.713156e-09,2.687500e-03
1.717156e-09,3.375000e-03
1.721156e-09,3.468750e-03
1.725156e-09,3.781250e-03
1.729156e-09,4.265625e-03
1.733156e-09,4.953125e-03
1.737156e-09,5.015625e-03
1.741156e-09,5.359375e-03
1.745156e-09,5.656250e-03
1.749156e-09,5.921875e-03
1.753156e-09,6.156250e-03
1.757156e-09,6.640625e-03
