Measurements-streak-laser/Photodiode-on-Tek-6GHz/Tek000_ch1_20190613132818178.csv

Model,MSO64
Waveform Type,ANALOG
Horizontal Units,s
Sample Interval,4.000000e-12
Record Length,1000
Zero Index,310.484375
Vertical Units,V

TIME,CH1
-1.241937e-09,3.625000e-03
-1.237937e-09,3.703125e-03
-1.233938e-09,3.187500e-03
-1.229938e-09,2.984375e-03
-1.225938e-09,2.796875e-03
-1.221938e-09,2.640625e-03
-1.217938e-09,2.515625e-03
-1.213937e-09,2.703125e-03
-1.209937e-09,2.328125e-03
-1.205937e-09,2.171875e-03
-1.201937e-09,2.250000e-03
-1.197937e-09,2.562500e-03
-1.193937e-09,2.281250e-03
-1.189937e-09,2.328125e-03
-1.185937e-09,2.375000e-03
-1.181937e-09,2.468750e-03
-1.177937e-09,2.546875e-03
-1.173938e-09,2.953125e-03
-1.169938e-09,2.734375e-03
-1.165938e-09,2.734375e-03
-1.161938e-09,2.921875e-03
-1.157938e-09,3.296875e-03
-1.153938e-09,3.046875e-03
-1.149937e-09,3.093750e-03
-1.145937e-09,3.109375e-03
-1.141937e-09,3.109375e-03
-1.137937e-09,3.078125e-03
-1.133937e-09,3.343750e-03
-1.129937e-09,2.953125e-03
-1.125937e-09,2.750000e-03
-1.121937e-09,2.734375e-03
-1.117937e-09,2.890625e-03
-1.113938e-09,2.421875e-03
-1.109938e-09,2.250000e-03
-1.105938e-09,2.078125e-03
-1.101938e-09,1.890625e-03
-1.097938e-09,1.703125e-03
-1.093938e-09,1.843750e-03
-1.089937e-09,1.375000e-03
-1.085937e-09,1.140625e-03
-1.081937e-09,1.125000e-03
-1.077937e-09,1.343750e-03
-1.073937e-09,1.000000e-03
-1.069937e-09,1.000000e-03
-1.065937e-09,1.031250e-03
-1.061937e-09,1.125000e-03
-1.057937e-09,1.265625e-03
-1.053938e-09,1.765625e-03
-1.049938e-09,1.703125e-03
-1.045938e-09,1.906250e-03
-1.041938e-09,2.343750e-03
-1.037938e-09,3.046875e-03
-1.033938e-09,3.171875e-03
-1.029937e-09,3.640625e-03
-1.025937e-09,4.156250e-03
-1.021937e-09,4.671875e-03
-1.017937e-09,5.218750e-03
-1.013937e-09,6.078125e-03
-1.009937e-09,6.328125e-03
-1.005937e-09,6.765625e-03
-1.001937e-09,7.390625e-03
-9.979375e-10,8.187500e-03
-9.939375e-10,8.343750e-03
-9.899375e-10,8.765625e-03
-9.859375e-10,9.125000e-03
-9.819375e-10,9.437500e-03
-9.779375e-10,9.687500e-03
-9.739375e-10,1.015625e-02
-9.699375e-10,9.937500e-03
-9.659375e-10,9.859375e-03
-9.619375e-10,9.906250e-03
-9.579375e-10,1.006250e-02
-9.539375e-10,9.531250e-03
-9.499375e-10,9.234375e-03
-9.459375e-10,8.875000e-03
-9.419375e-10,8.437500e-03
-9.379375e-10,7.937500e-03
-9.339375e-10,7.687500e-03
-9.299375e-10,6.781250e-03
-9.259375e-10,6.046875e-03
-9.219375e-10,5.484375e-03
-9.179375e-10,5.109375e-03
-9.139375e-10,4.125000e-03
-9.099375e-10,3.453125e-03
-9.059375e-10,2.781250e-03
-9.019375e-10,2.156250e-03
-8.979375e-10,1.546875e-03
-8.939375e-10,1.296875e-03
-8.899375e-10,4.843750e-04
-8.859375e-10,-6.250000e-05
-8.819375e-10,-3.281250e-04
-8.779375e-10,-3.281250e-04
-8.739375e-10,-8.593750e-04
-8.699375e-10,-1.015625e-03
-8.659375e-10,-1.078125e-03
-8.619375e-10,-1.078125e-03
-8.579375e-10,-1.000000e-03
-8.539375e-10,-5.312500e-04
-8.499375e-10,-6.093750e-04
-8.459375e-10,-4.062500e-04
-8.419375e-10,4.687500e-05
-8.379375e-10,7.500000e-04
-8.339375e-10,9.062500e-04
-8.299375e-10,1.390625e-03
-8.259375e-10,1.890625e-03
-8.219375e-10,2.421875e-03
-8.179375e-10,2.968750e-03
-8.139375e-10,3.796875e-03
-8.099375e-10,4.031250e-03
-8.059375e-10,4.437500e-03
-8.019375e-10,5.031250e-03
-7.979375e-10,5.781250e-03
-7.939375e-10,5.906250e-03
-7.899375e-10,6.281250e-03
-7.859375e-10,6.609375e-03
-7.819375e-10,6.875000e-03
-7.779375e-10,7.109375e-03
-7.739375e-10,7.593750e-03
-7.699375e-10,7.406250e-03
-7.659375e-10,7.390625e-03
-7.619375e-10,7.515625e-03
-7.579375e-10,7.796875e-03
-7.539375e-10,7.437500e-03
-7.499375e-10,7.343750e-03
-7.459375e-10,7.203125e-03
-7.419375e-10,7.046875e-03
-7.379375e-10,6.875000e-03
-7.339375e-10,7.000000e-03
-7.299375e-10,6.484375e-03
-7.259375e-10,6.187500e-03
-7.219375e-10,6.078125e-03
-7.179375e-10,6.187500e-03
-7.139375e-10,5.703125e-03
-7.099375e-10,5.531250e-03
-7.059375e-10,5.390625e-03
-7.019375e-10,5.250000e-03
-6.979375e-10,5.156250e-03
-6.939375e-10,5.359375e-03
-6.899375e-10,5.000000e-03
-6.859375e-10,4.859375e-03
-6.819375e-10,4.953125e-03
-6.779375e-10,5.250000e-03
-6.739375e-10,4.968750e-03
-6.699375e-10,5.000000e-03
-6.659375e-10,5.031250e-03
-6.619375e-10,5.093750e-03
-6.579375e-10,5.140625e-03
-6.539375e-10,5.500000e-03
-6.499375e-10,5.234375e-03
-6.459375e-10,5.171875e-03
-6.419375e-10,5.296875e-03
-6.379375e-10,5.625000e-03
-6.339375e-10,5.312500e-03
-6.299375e-10,5.281250e-03
-6.259375e-10,5.250000e-03
-6.219375e-10,5.171875e-03
-6.179375e-10,5.093750e-03
-6.139375e-10,5.281250e-03
-6.099375e-10,4.859375e-03
-6.059375e-10,4.609375e-03
-6.019375e-10,4.546875e-03
-5.979375e-10,4.687500e-03
-5.939375e-10,4.187500e-03
-5.899375e-10,4.000000e-03
-5.859375e-10,3.812500e-03
-5.819375e-10,3.609375e-03
-5.779375e-10,3.421875e-03
-5.739375e-10,3.531250e-03
-5.699375e-10,3.062500e-03
-5.659375e-10,2.796875e-03
-5.619375e-10,2.750000e-03
-5.579375e-10,2.937500e-03
-5.539375e-10,2.531250e-03
-5.499375e-10,2.453125e-03
-5.459375e-10,2.390625e-03
-5.419375e-10,2.375000e-03
-5.379375e-10,2.359375e-03
-5.339375e-10,2.687500e-03
-5.299375e-10,2.421875e-03
-5.259375e-10,2.390625e-03
-5.219375e-10,2.578125e-03
-5.179375e-10,3.000000e-03
-5.139375e-10,2.812500e-03
-5.099375e-10,2.953125e-03
-5.059375e-10,3.093750e-03
-5.019375e-10,3.250000e-03
-4.979375e-10,3.406250e-03
-4.939375e-10,3.875000e-03
-4.899375e-10,3.734375e-03
-4.859375e-10,3.796875e-03
-4.819375e-10,4.062500e-03
-4.779375e-10,4.515625e-03
-4.739375e-10,4.375000e-03
-4.699375e-10,4.515625e-03
-4.659375e-10,4.640625e-03
-4.619375e-10,4.781250e-03
-4.579375e-10,4.890625e-03
-4.539375e-10,5.328125e-03
-4.499375e-10,5.140625e-03
-4.459375e-10,5.156250e-03
-4.419375e-10,5.390625e-03
-4.379375e-10,5.812500e-03
-4.339375e-10,5.656250e-03
-4.299375e-10,5.812500e-03
-4.259375e-10,5.953125e-03
-4.219375e-10,6.125000e-03
-4.179375e-10,6.312500e-03
-4.139375e-10,6.812500e-03
-4.099375e-10,6.734375e-03
-4.059375e-10,6.875000e-03
-4.019375e-10,7.234375e-03
-3.979375e-10,7.812500e-03
-3.939375e-10,7.828125e-03
-3.899375e-10,8.140625e-03
-3.859375e-10,8.437500e-03
-3.819375e-10,8.765625e-03
-3.779375e-10,9.093750e-03
-3.739375e-10,9.734375e-03
-3.699375e-10,9.750000e-03
-3.659375e-10,9.968750e-03
-3.619375e-10,1.039063e-02
-3.579375e-10,1.098438e-02
-3.539375e-10,1.096875e-02
-3.499375e-10,1.121875e-02
-3.459375e-10,1.140625e-02
-3.419375e-10,1.154688e-02
-3.379375e-10,1.167188e-02
-3.339375e-10,1.203125e-02
-3.299375e-10,1.175000e-02
-3.259375e-10,1.160938e-02
-3.219375e-10,1.164063e-02
-3.179375e-10,1.179688e-02
-3.139375e-10,1.131250e-02
-3.099375e-10,1.107813e-02
-3.059375e-10,1.075000e-02
-3.019375e-10,1.037500e-02
-2.979375e-10,9.984375e-03
-2.939375e-10,9.828125e-03
-2.899375e-10,9.062500e-03
-2.859375e-10,8.453125e-03
-2.819375e-10,8.046875e-03
-2.779375e-10,7.812500e-03
-2.739375e-10,6.984375e-03
-2.699375e-10,6.453125e-03
-2.659375e-10,5.906250e-03
-2.619375e-10,5.359375e-03
-2.579375e-10,4.890625e-03
-2.539375e-10,4.718750e-03
-2.499375e-10,4.015625e-03
-2.459375e-10,3.531250e-03
-2.419375e-10,3.312500e-03
-2.379375e-10,3.343750e-03
-2.339375e-10,2.859375e-03
-2.299375e-10,2.734375e-03
-2.259375e-10,2.625000e-03
-2.219375e-10,2.578125e-03
-2.179375e-10,2.640625e-03
-2.139375e-10,3.031250e-03
-2.099375e-10,2.906250e-03
-2.059375e-10,3.015625e-03
-2.019375e-10,3.406250e-03
-1.979375e-10,4.015625e-03
-1.939375e-10,4.078125e-03
-1.899375e-10,4.484375e-03
-1.859375e-10,4.875000e-03
-1.819375e-10,5.281250e-03
-1.779375e-10,5.750000e-03
-1.739375e-10,6.468750e-03
-1.699375e-10,6.656250e-03
-1.659375e-10,6.984375e-03
-1.619375e-10,7.515625e-03
-1.579375e-10,8.218750e-03
-1.539375e-10,8.312500e-03
-1.499375e-10,8.671875e-03
-1.459375e-10,8.984375e-03
-1.419375e-10,9.250000e-03
-1.379375e-10,9.546875e-03
-1.339375e-10,1.006250e-02
-1.299375e-10,1.003125e-02
-1.259375e-10,1.010938e-02
-1.219375e-10,1.037500e-02
-1.179375e-10,1.084375e-02
-1.139375e-10,1.071875e-02
-1.099375e-10,1.087500e-02
-1.059375e-10,1.103125e-02
-1.019375e-10,1.120313e-02
-9.793750e-11,1.143750e-02
-9.393750e-11,1.196875e-02
-8.993750e-11,1.203125e-02
-8.593750e-11,1.231250e-02
-8.193750e-11,1.284375e-02
-7.793750e-11,1.367188e-02
-7.393750e-11,1.400000e-02
-6.993750e-11,1.471875e-02
-6.593750e-11,1.553125e-02
-6.193750e-11,1.645313e-02
-5.793750e-11,1.753125e-02
-5.393750e-11,1.900000e-02
-4.993750e-11,2.009375e-02
-4.593750e-11,2.146875e-02
-4.193750e-11,2.315625e-02
-3.793750e-11,2.518750e-02
-3.393750e-11,2.681250e-02
-2.993750e-11,2.881250e-02
-2.593750e-11,3.095313e-02
-2.193750e-11,3.321875e-02
-1.793750e-11,3.562500e-02
-1.393750e-11,3.842188e-02
-9.937500e-12,4.081250e-02
-5.937500e-12,4.346875e-02
-1.937500e-12,4.635938e-02
2.062500e-12,4.954688e-02
6.062500e-12,5.226563e-02
1.006250e-11,5.528125e-02
1.406250e-11,5.834375e-02
1.806250e-11,6.145313e-02
2.206250e-11,6.457813e-02
2.606250e-11,6.803125e-02
3.006250e-11,7.095313e-02
3.406250e-11,7.403125e-02
3.806250e-11,7.723438e-02
4.206250e-11,8.062500e-02
4.606250e-11,8.346875e-02
5.006250e-11,8.648438e-02
5.406250e-11,8.946875e-02
5.806250e-11,9.240625e-02
6.206250e-11,9.528125e-02
6.606250e-11,9.837500e-02
7.006250e-11,1.008906e-01
7.406250e-11,1.035000e-01
7.806250e-11,1.061719e-01
8.206250e-11,1.089688e-01
8.606250e-11,1.111719e-01
9.006250e-11,1.135313e-01
9.406250e-11,1.158281e-01
9.806250e-11,1.180469e-01
1.020625e-10,1.201719e-01
1.060625e-10,1.225000e-01
1.100625e-10,1.242500e-01
1.140625e-10,1.260938e-01
1.180625e-10,1.280000e-01
1.220625e-10,1.300000e-01
1.260625e-10,1.314531e-01
1.300625e-10,1.330469e-01
1.340625e-10,1.345625e-01
1.380625e-10,1.360156e-01
1.420625e-10,1.373750e-01
1.460625e-10,1.389219e-01
1.500625e-10,1.399063e-01
1.540625e-10,1.409688e-01
1.580625e-10,1.420781e-01
1.620625e-10,1.432813e-01
1.660625e-10,1.438906e-01
1.700625e-10,1.446719e-01
1.740625e-10,1.453281e-01
1.780625e-10,1.459063e-01
1.820625e-10,1.463750e-01
1.860625e-10,1.469844e-01
1.900625e-10,1.470000e-01
1.940625e-10,1.470625e-01
1.980625e-10,1.471406e-01
2.020625e-10,1.472813e-01
2.060625e-10,1.467969e-01
2.100625e-10,1.464375e-01
2.140625e-10,1.459531e-01
2.180625e-10,1.453438e-01
2.220625e-10,1.446094e-01
2.260625e-10,1.439688e-01
2.300625e-10,1.427188e-01
2.340625e-10,1.415156e-01
2.380625e-10,1.403125e-01
2.420625e-10,1.391563e-01
2.460625e-10,1.373750e-01
2.500625e-10,1.357500e-01
2.540625e-10,1.339844e-01
2.580625e-10,1.321250e-01
2.620625e-10,1.301563e-01
2.660625e-10,1.283281e-01
2.700625e-10,1.259063e-01
2.740625e-10,1.235781e-01
2.780625e-10,1.213125e-01
2.820625e-10,1.191563e-01
2.860625e-10,1.164063e-01
2.900625e-10,1.139063e-01
2.940625e-10,1.113281e-01
2.980625e-10,1.087500e-01
3.020625e-10,1.061406e-01
3.060625e-10,1.037344e-01
3.100625e-10,1.008125e-01
3.140625e-10,9.810938e-02
3.180625e-10,9.553125e-02
3.220625e-10,9.314063e-02
3.260625e-10,9.026563e-02
3.300625e-10,8.771875e-02
3.340625e-10,8.518750e-02
3.380625e-10,8.271875e-02
3.420625e-10,8.031250e-02
3.460625e-10,7.820313e-02
3.500625e-10,7.562500e-02
3.540625e-10,7.332813e-02
3.580625e-10,7.123438e-02
3.620625e-10,6.937500e-02
3.660625e-10,6.707813e-02
3.700625e-10,6.515625e-02
3.740625e-10,6.329688e-02
3.780625e-10,6.151563e-02
3.820625e-10,5.982813e-02
3.860625e-10,5.845313e-02
3.900625e-10,5.660938e-02
3.940625e-10,5.504688e-02
3.980625e-10,5.370313e-02
4.020625e-10,5.257813e-02
4.060625e-10,5.101563e-02
4.100625e-10,4.978125e-02
4.140625e-10,4.860938e-02
4.180625e-10,4.748438e-02
4.220625e-10,4.642188e-02
4.260625e-10,4.565625e-02
4.300625e-10,4.437500e-02
4.340625e-10,4.332813e-02
4.380625e-10,4.248438e-02
4.420625e-10,4.181250e-02
4.460625e-10,4.067188e-02
4.500625e-10,3.981250e-02
4.540625e-10,3.898438e-02
4.580625e-10,3.817188e-02
4.620625e-10,3.737500e-02
4.660625e-10,3.687500e-02
4.700625e-10,3.579688e-02
4.740625e-10,3.495313e-02
4.780625e-10,3.428125e-02
4.820625e-10,3.378125e-02
4.860625e-10,3.278125e-02
4.900625e-10,3.203125e-02
4.940625e-10,3.134375e-02
4.980625e-10,3.065625e-02
5.020625e-10,2.996875e-02
5.060625e-10,2.957813e-02
5.100625e-10,2.862500e-02
5.140625e-10,2.789063e-02
5.180625e-10,2.737500e-02
5.220625e-10,2.701563e-02
5.260625e-10,2.615625e-02
5.300625e-10,2.557813e-02
5.340625e-10,2.506250e-02
5.380625e-10,2.454688e-02
5.420625e-10,2.403125e-02
5.460625e-10,2.384375e-02
5.500625e-10,2.307813e-02
5.540625e-10,2.254688e-02
5.580625e-10,2.223438e-02
5.620625e-10,2.209375e-02
5.660625e-10,2.145313e-02
5.700625e-10,2.106250e-02
5.740625e-10,2.075000e-02
5.780625e-10,2.043750e-02
5.820625e-10,2.012500e-02
5.860625e-10,2.009375e-02
5.900625e-10,1.950000e-02
5.940625e-10,1.910938e-02
5.980625e-10,1.892188e-02
6.020625e-10,1.890625e-02
6.060625e-10,1.835938e-02
6.100625e-10,1.806250e-02
6.140625e-10,1.779688e-02
6.180625e-10,1.753125e-02
6.220625e-10,1.721875e-02
6.260625e-10,1.718750e-02
6.300625e-10,1.657813e-02
6.340625e-10,1.614063e-02
6.380625e-10,1.590625e-02
6.420625e-10,1.584375e-02
6.460625e-10,1.518750e-02
6.500625e-10,1.479688e-02
6.540625e-10,1.442188e-02
6.580625e-10,1.403125e-02
6.620625e-10,1.357813e-02
6.660625e-10,1.342188e-02
6.700625e-10,1.265625e-02
6.740625e-10,1.206250e-02
6.780625e-10,1.168750e-02
6.820625e-10,1.146875e-02
6.860625e-10,1.067188e-02
6.900625e-10,1.014063e-02
6.940625e-10,9.625000e-03
6.980625e-10,9.093750e-03
7.020625e-10,8.546875e-03
7.060625e-10,8.265625e-03
7.100625e-10,7.421875e-03
7.140625e-10,6.765625e-03
7.180625e-10,6.328125e-03
7.220625e-10,6.109375e-03
7.260625e-10,5.296875e-03
7.300625e-10,4.781250e-03
7.340625e-10,4.328125e-03
7.380625e-10,3.875000e-03
7.420625e-10,3.437500e-03
7.460625e-10,3.312500e-03
7.500625e-10,2.640625e-03
7.540625e-10,2.203125e-03
7.580625e-10,2.015625e-03
7.620625e-10,2.062500e-03
7.660625e-10,1.562500e-03
7.700625e-10,1.406250e-03
7.740625e-10,1.312500e-03
7.780625e-10,1.281250e-03
7.820625e-10,1.281250e-03
7.860625e-10,1.625000e-03
7.900625e-10,1.437500e-03
7.940625e-10,1.515625e-03
7.980625e-10,1.843750e-03
8.020625e-10,2.421875e-03
8.060625e-10,2.468750e-03
8.100625e-10,2.843750e-03
8.140625e-10,3.281250e-03
8.180625e-10,3.781250e-03
8.220625e-10,4.281250e-03
8.260625e-10,5.125000e-03
8.300625e-10,5.390625e-03
8.340625e-10,5.875000e-03
8.380625e-10,6.593750e-03
8.420625e-10,7.515625e-03
8.460625e-10,7.843750e-03
8.500625e-10,8.453125e-03
8.540625e-10,9.062500e-03
8.580625e-10,9.640625e-03
8.620625e-10,1.018750e-02
8.660625e-10,1.098438e-02
8.700625e-10,1.114063e-02
8.740625e-10,1.145313e-02
8.780625e-10,1.192188e-02
8.820625e-10,1.251563e-02
8.860625e-10,1.243750e-02
8.900625e-10,1.257813e-02
8.940625e-10,1.267188e-02
8.980625e-10,1.267188e-02
9.020625e-10,1.259375e-02
9.060625e-10,1.273438e-02
9.100625e-10,1.218750e-02
9.140625e-10,1.178125e-02
9.180625e-10,1.150000e-02
9.220625e-10,1.134375e-02
9.260625e-10,1.053125e-02
9.300625e-10,9.953125e-03
9.340625e-10,9.328125e-03
9.380625e-10,8.671875e-03
9.420625e-10,7.984375e-03
9.460625e-10,7.562500e-03
9.500625e-10,6.531250e-03
9.540625e-10,5.687500e-03
9.580625e-10,5.046875e-03
9.620625e-10,4.640625e-03
9.660625e-10,3.656250e-03
9.700625e-10,3.000000e-03
9.740625e-10,2.390625e-03
9.780625e-10,1.828125e-03
9.820625e-10,1.328125e-03
9.860625e-10,1.187500e-03
9.900625e-10,5.156250e-04
9.940625e-10,1.250000e-04
9.980625e-10,1.562500e-05
1.002062e-09,1.875000e-04
1.006062e-09,-1.562500e-04
1.010062e-09,-1.250000e-04
1.014062e-09,-1.562500e-05
1.018063e-09,1.875000e-04
1.022063e-09,4.375000e-04
1.026063e-09,1.062500e-03
1.030063e-09,1.140625e-03
1.034063e-09,1.468750e-03
1.038063e-09,2.062500e-03
1.042062e-09,2.890625e-03
1.046062e-09,3.125000e-03
1.050062e-09,3.703125e-03
1.054062e-09,4.281250e-03
1.058062e-09,4.859375e-03
1.062062e-09,5.421875e-03
1.066062e-09,6.281250e-03
1.070062e-09,6.500000e-03
1.074062e-09,6.875000e-03
1.078063e-09,7.437500e-03
1.082063e-09,8.140625e-03
1.086063e-09,8.203125e-03
1.090063e-09,8.500000e-03
1.094063e-09,8.734375e-03
1.098063e-09,8.921875e-03
1.102062e-09,9.046875e-03
1.106062e-09,9.406250e-03
1.110062e-09,9.109375e-03
1.114062e-09,8.953125e-03
1.118062e-09,8.953125e-03
1.122062e-09,9.093750e-03
1.126062e-09,8.593750e-03
1.130062e-09,8.359375e-03
1.134062e-09,8.093750e-03
1.138063e-09,7.812500e-03
1.142063e-09,7.515625e-03
1.146063e-09,7.500000e-03
1.150063e-09,6.875000e-03
1.154063e-09,6.453125e-03
1.158063e-09,6.250000e-03
1.162062e-09,6.265625e-03
1.166062e-09,5.703125e-03
1.170062e-09,5.453125e-03
1.174062e-09,5.250000e-03
1.178062e-09,5.062500e-03
1.182062e-09,4.921875e-03
1.186062e-09,5.109375e-03
1.190062e-09,4.750000e-03
1.194062e-09,4.609375e-03
1.198063e-09,4.703125e-03
1.202063e-09,5.046875e-03
1.206063e-09,4.812500e-03
1.210063e-09,4.890625e-03
1.214063e-09,5.000000e-03
1.218063e-09,5.140625e-03
1.222062e-09,5.281250e-03
1.226062e-09,5.734375e-03
1.230062e-09,5.578125e-03
1.234062e-09,5.625000e-03
1.238062e-09,5.859375e-03
1.242062e-09,6.296875e-03
1.246062e-09,6.093750e-03
1.250062e-09,6.171875e-03
1.254062e-09,6.234375e-03
1.258063e-09,6.250000e-03
1.262063e-09,6.250000e-03
1.266063e-09,6.500000e-03
1.270063e-09,6.125000e-03
1.274063e-09,5.906250e-03
1.278063e-09,5.875000e-03
1.282062e-09,6.000000e-03
1.286062e-09,5.468750e-03
1.290062e-09,5.234375e-03
1.294062e-09,4.968750e-03
1.298062e-09,4.687500e-03
1.302062e-09,4.390625e-03
1.306062e-09,4.375000e-03
1.310062e-09,3.765625e-03
1.314062e-09,3.343750e-03
1.318063e-09,3.125000e-03
1.322063e-09,3.125000e-03
1.326063e-09,2.531250e-03
1.330063e-09,2.250000e-03
1.334063e-09,2.015625e-03
1.338062e-09,1.796875e-03
1.342062e-09,1.609375e-03
1.346062e-09,1.750000e-03
1.350062e-09,1.328125e-03
1.354062e-09,1.156250e-03
1.358062e-09,1.218750e-03
1.362062e-09,1.531250e-03
1.366062e-09,1.265625e-03
1.370062e-09,1.359375e-03
1.374062e-09,1.468750e-03
1.378063e-09,1.625000e-03
1.382063e-09,1.812500e-03
1.386063e-09,2.343750e-03
1.390063e-09,2.281250e-03
1.394063e-09,2.437500e-03
1.398062e-09,2.828125e-03
1.402062e-09,3.421875e-03
1.406062e-09,3.421875e-03
1.410062e-09,3.734375e-03
1.414062e-09,4.031250e-03
1.418062e-09,4.343750e-03
1.422062e-09,4.640625e-03
1.426062e-09,5.234375e-03
1.430062e-09,5.203125e-03
1.434062e-09,5.375000e-03
1.438063e-09,5.718750e-03
1.442063e-09,6.234375e-03
1.446063e-09,6.140625e-03
1.450063e-09,6.312500e-03
1.454063e-09,6.468750e-03
1.458062e-09,6.609375e-03
1.462062e-09,6.734375e-03
1.466062e-09,7.140625e-03
1.470062e-09,6.921875e-03
1.474062e-09,6.890625e-03
1.478062e-09,7.046875e-03
1.482062e-09,7.390625e-03
1.486062e-09,7.125000e-03
1.490062e-09,7.156250e-03
1.494062e-09,7.187500e-03
1.498063e-09,7.203125e-03
1.502063e-09,7.234375e-03
1.506063e-09,7.578125e-03
1.510063e-09,7.312500e-03
1.514063e-09,7.250000e-03
1.518062e-09,7.406250e-03
1.522062e-09,7.765625e-03
1.526062e-09,7.531250e-03
1.530062e-09,7.593750e-03
1.534062e-09,7.687500e-03
1.538062e-09,7.765625e-03
1.542062e-09,7.859375e-03
1.546062e-09,8.265625e-03
1.550062e-09,8.062500e-03
1.554062e-09,8.062500e-03
1.558063e-09,8.250000e-03
1.562063e-09,8.640625e-03
1.566063e-09,8.421875e-03
1.570063e-09,8.484375e-03
1.574063e-09,8.531250e-03
1.578062e-09,8.578125e-03
1.582062e-09,8.578125e-03
1.586062e-09,8.875000e-03
1.590062e-09,8.531250e-03
1.594062e-09,8.375000e-03
1.598062e-09,8.375000e-03
1.602062e-09,8.562500e-03
1.606062e-09,8.109375e-03
1.610062e-09,7.921875e-03
1.614062e-09,7.718750e-03
1.618063e-09,7.468750e-03
1.622063e-09,7.203125e-03
1.626063e-09,7.218750e-03
1.630063e-09,6.593750e-03
1.634063e-09,6.156250e-03
1.638062e-09,5.906250e-03
1.642062e-09,5.843750e-03
1.646062e-09,5.156250e-03
1.650062e-09,4.781250e-03
1.654062e-09,4.390625e-03
1.658062e-09,4.015625e-03
1.662062e-09,3.656250e-03
1.666062e-09,3.609375e-03
1.670062e-09,2.968750e-03
1.674062e-09,2.546875e-03
1.678063e-09,2.359375e-03
1.682063e-09,2.406250e-03
1.686063e-09,1.890625e-03
1.690063e-09,1.703125e-03
1.694063e-09,1.562500e-03
1.698062e-09,1.453125e-03
1.702062e-09,1.390625e-03
1.706062e-09,1.671875e-03
1.710062e-09,1.390625e-03
1.714062e-09,1.343750e-03
1.718062e-09,1.562500e-03
1.722062e-09,2.000000e-03
1.726062e-09,1.875000e-03
1.730062e-09,2.093750e-03
1.734062e-09,2.328125e-03
1.738063e-09,2.609375e-03
1.742063e-09,2.890625e-03
1.746063e-09,3.500000e-03
1.750063e-09,3.515625e-03
1.754063e-09,3.750000e-03
1.758062e-09,4.187500e-03
