Measurements-streak-laser/Photodiode-on-Tek-6GHz/Tek000_ch1_20190613132719009.csv

Model,MSO64
Waveform Type,ANALOG
Horizontal Units,s
Sample Interval,4.000000e-12
Record Length,1000
Zero Index,310.812500
Vertical Units,V

TIME,CH1
-1.243250e-09,5.203125e-03
-1.239250e-09,5.515625e-03
-1.235250e-09,5.234375e-03
-1.231250e-09,5.171875e-03
-1.227250e-09,5.328125e-03
-1.223250e-09,5.703125e-03
-1.219250e-09,5.468750e-03
-1.215250e-09,5.546875e-03
-1.211250e-09,5.609375e-03
-1.207250e-09,5.671875e-03
-1.203250e-09,5.718750e-03
-1.199250e-09,6.062500e-03
-1.195250e-09,5.765625e-03
-1.191250e-09,5.640625e-03
-1.187250e-09,5.703125e-03
-1.183250e-09,5.921875e-03
-1.179250e-09,5.515625e-03
-1.175250e-09,5.375000e-03
-1.171250e-09,5.203125e-03
-1.167250e-09,5.000000e-03
-1.163250e-09,4.765625e-03
-1.159250e-09,4.828125e-03
-1.155250e-09,4.250000e-03
-1.151250e-09,3.859375e-03
-1.147250e-09,3.671875e-03
-1.143250e-09,3.687500e-03
-1.139250e-09,3.093750e-03
-1.135250e-09,2.828125e-03
-1.131250e-09,2.578125e-03
-1.127250e-09,2.359375e-03
-1.123250e-09,2.171875e-03
-1.119250e-09,2.343750e-03
-1.115250e-09,1.937500e-03
-1.111250e-09,1.796875e-03
-1.107250e-09,1.906250e-03
-1.103250e-09,2.281250e-03
-1.099250e-09,2.109375e-03
-1.095250e-09,2.312500e-03
-1.091250e-09,2.562500e-03
-1.087250e-09,2.875000e-03
-1.083250e-09,3.234375e-03
-1.079250e-09,3.953125e-03
-1.075250e-09,4.109375e-03
-1.071250e-09,4.515625e-03
-1.067250e-09,5.140625e-03
-1.063250e-09,5.984375e-03
-1.059250e-09,6.250000e-03
-1.055250e-09,6.796875e-03
-1.051250e-09,7.343750e-03
-1.047250e-09,7.875000e-03
-1.043250e-09,8.375000e-03
-1.039250e-09,9.140625e-03
-1.035250e-09,9.234375e-03
-1.031250e-09,9.484375e-03
-1.027250e-09,9.875000e-03
-1.023250e-09,1.040625e-02
-1.019250e-09,1.023438e-02
-1.015250e-09,1.031250e-02
-1.011250e-09,1.029688e-02
-1.007250e-09,1.020313e-02
-1.003250e-09,1.003125e-02
-9.992500e-10,1.009375e-02
-9.952500e-10,9.468750e-03
-9.912500e-10,8.984375e-03
-9.872500e-10,8.656250e-03
-9.832500e-10,8.468750e-03
-9.792500e-10,7.640625e-03
-9.752500e-10,7.093750e-03
-9.712500e-10,6.515625e-03
-9.672500e-10,5.937500e-03
-9.632500e-10,5.375000e-03
-9.592500e-10,5.125000e-03
-9.552500e-10,4.296875e-03
-9.512500e-10,3.703125e-03
-9.472500e-10,3.375000e-03
-9.432500e-10,3.281250e-03
-9.392500e-10,2.671875e-03
-9.352500e-10,2.421875e-03
-9.312500e-10,2.250000e-03
-9.272500e-10,2.140625e-03
-9.232500e-10,2.125000e-03
-9.192500e-10,2.500000e-03
-9.152500e-10,2.328125e-03
-9.112500e-10,2.437500e-03
-9.072500e-10,2.812500e-03
-9.032500e-10,3.468750e-03
-8.992500e-10,3.546875e-03
-8.952500e-10,3.984375e-03
-8.912500e-10,4.468750e-03
-8.872500e-10,4.953125e-03
-8.832500e-10,5.468750e-03
-8.792500e-10,6.265625e-03
-8.752500e-10,6.468750e-03
-8.712500e-10,6.828125e-03
-8.672500e-10,7.375000e-03
-8.632500e-10,8.078125e-03
-8.592500e-10,8.109375e-03
-8.552500e-10,8.390625e-03
-8.512500e-10,8.593750e-03
-8.472500e-10,8.734375e-03
-8.432500e-10,8.796875e-03
-8.392500e-10,9.078125e-03
-8.352500e-10,8.687500e-03
-8.312500e-10,8.406250e-03
-8.272500e-10,8.250000e-03
-8.232500e-10,8.218750e-03
-8.192500e-10,7.515625e-03
-8.152500e-10,7.062500e-03
-8.112500e-10,6.562500e-03
-8.072500e-10,6.000000e-03
-8.032500e-10,5.421875e-03
-7.992500e-10,5.125000e-03
-7.952500e-10,4.218750e-03
-7.912500e-10,3.500000e-03
-7.872500e-10,3.000000e-03
-7.832500e-10,2.734375e-03
-7.792500e-10,1.875000e-03
-7.752500e-10,1.390625e-03
-7.712500e-10,9.375000e-04
-7.672500e-10,5.625000e-04
-7.632500e-10,2.343750e-04
-7.592500e-10,2.968750e-04
-7.552500e-10,-1.718750e-04
-7.512500e-10,-3.593750e-04
-7.472500e-10,-2.656250e-04
-7.432500e-10,1.093750e-04
-7.392500e-10,-4.687500e-05
-7.352500e-10,1.718750e-04
-7.312500e-10,4.687500e-04
-7.272500e-10,8.125000e-04
-7.232500e-10,1.234375e-03
-7.192500e-10,2.000000e-03
-7.152500e-10,2.187500e-03
-7.112500e-10,2.625000e-03
-7.072500e-10,3.281250e-03
-7.032500e-10,4.140625e-03
-6.992500e-10,4.406250e-03
-6.952500e-10,4.968750e-03
-6.912500e-10,5.500000e-03
-6.872500e-10,6.015625e-03
-6.832500e-10,6.500000e-03
-6.792500e-10,7.250000e-03
-6.752500e-10,7.343750e-03
-6.712500e-10,7.578125e-03
-6.672500e-10,7.968750e-03
-6.632500e-10,8.500000e-03
-6.592500e-10,8.375000e-03
-6.552500e-10,8.484375e-03
-6.512500e-10,8.531250e-03
-6.472500e-10,8.515625e-03
-6.432500e-10,8.453125e-03
-6.392500e-10,8.625000e-03
-6.352500e-10,8.156250e-03
-6.312500e-10,7.828125e-03
-6.272500e-10,7.687500e-03
-6.232500e-10,7.687500e-03
-6.192500e-10,7.062500e-03
-6.152500e-10,6.718750e-03
-6.112500e-10,6.375000e-03
-6.072500e-10,6.000000e-03
-6.032500e-10,5.625000e-03
-5.992500e-10,5.546875e-03
-5.952500e-10,4.875000e-03
-5.912500e-10,4.406250e-03
-5.872500e-10,4.171875e-03
-5.832500e-10,4.140625e-03
-5.792500e-10,3.531250e-03
-5.752500e-10,3.250000e-03
-5.712500e-10,3.000000e-03
-5.672500e-10,2.765625e-03
-5.632500e-10,2.562500e-03
-5.592500e-10,2.687500e-03
-5.552500e-10,2.234375e-03
-5.512500e-10,2.015625e-03
-5.472500e-10,2.031250e-03
-5.432500e-10,2.281250e-03
-5.392500e-10,1.937500e-03
-5.352500e-10,1.937500e-03
-5.312500e-10,1.937500e-03
-5.272500e-10,1.984375e-03
-5.232500e-10,2.046875e-03
-5.192500e-10,2.437500e-03
-5.152500e-10,2.234375e-03
-5.112500e-10,2.265625e-03
-5.072500e-10,2.515625e-03
-5.032500e-10,2.984375e-03
-4.992500e-10,2.875000e-03
-4.952500e-10,3.078125e-03
-4.912500e-10,3.296875e-03
-4.872500e-10,3.546875e-03
-4.832500e-10,3.812500e-03
-4.792500e-10,4.390625e-03
-4.752500e-10,4.390625e-03
-4.712500e-10,4.609375e-03
-4.672500e-10,5.031250e-03
-4.632500e-10,5.687500e-03
-4.592500e-10,5.734375e-03
-4.552500e-10,6.109375e-03
-4.512500e-10,6.468750e-03
-4.472500e-10,6.843750e-03
-4.432500e-10,7.203125e-03
-4.392500e-10,7.875000e-03
-4.352500e-10,7.921875e-03
-4.312500e-10,8.171875e-03
-4.272500e-10,8.593750e-03
-4.232500e-10,9.203125e-03
-4.192500e-10,9.203125e-03
-4.152500e-10,9.453125e-03
-4.112500e-10,9.640625e-03
-4.072500e-10,9.812500e-03
-4.032500e-10,9.921875e-03
-3.992500e-10,1.029688e-02
-3.952500e-10,1.001563e-02
-3.912500e-10,9.875000e-03
-3.872500e-10,9.906250e-03
-3.832500e-10,1.007813e-02
-3.792500e-10,9.609375e-03
-3.752500e-10,9.375000e-03
-3.712500e-10,9.046875e-03
-3.672500e-10,8.687500e-03
-3.632500e-10,8.296875e-03
-3.592500e-10,8.171875e-03
-3.552500e-10,7.390625e-03
-3.512500e-10,6.796875e-03
-3.472500e-10,6.406250e-03
-3.432500e-10,6.171875e-03
-3.392500e-10,5.375000e-03
-3.352500e-10,4.875000e-03
-3.312500e-10,4.328125e-03
-3.272500e-10,3.812500e-03
-3.232500e-10,3.328125e-03
-3.192500e-10,3.203125e-03
-3.152500e-10,2.500000e-03
-3.112500e-10,2.046875e-03
-3.072500e-10,1.875000e-03
-3.032500e-10,1.953125e-03
-2.992500e-10,1.515625e-03
-2.952500e-10,1.453125e-03
-2.912500e-10,1.390625e-03
-2.872500e-10,1.390625e-03
-2.832500e-10,1.515625e-03
-2.792500e-10,1.968750e-03
-2.752500e-10,1.906250e-03
-2.712500e-10,2.093750e-03
-2.672500e-10,2.562500e-03
-2.632500e-10,3.250000e-03
-2.592500e-10,3.406250e-03
-2.552500e-10,3.906250e-03
-2.512500e-10,4.359375e-03
-2.472500e-10,4.796875e-03
-2.432500e-10,5.312500e-03
-2.392500e-10,6.062500e-03
-2.352500e-10,6.250000e-03
-2.312500e-10,6.578125e-03
-2.272500e-10,7.109375e-03
-2.232500e-10,7.750000e-03
-2.192500e-10,7.781250e-03
-2.152500e-10,8.062500e-03
-2.112500e-10,8.218750e-03
-2.072500e-10,8.281250e-03
-2.032500e-10,8.359375e-03
-1.992500e-10,8.593750e-03
-1.952500e-10,8.218750e-03
-1.912500e-10,7.921875e-03
-1.872500e-10,7.796875e-03
-1.832500e-10,7.796875e-03
-1.792500e-10,7.140625e-03
-1.752500e-10,6.734375e-03
-1.712500e-10,6.250000e-03
-1.672500e-10,5.687500e-03
-1.632500e-10,5.187500e-03
-1.592500e-10,4.890625e-03
-1.552500e-10,4.093750e-03
-1.512500e-10,3.421875e-03
-1.472500e-10,3.000000e-03
-1.432500e-10,2.796875e-03
-1.392500e-10,2.031250e-03
-1.352500e-10,1.625000e-03
-1.312500e-10,1.250000e-03
-1.272500e-10,9.062500e-04
-1.232500e-10,7.187500e-04
-1.192500e-10,8.437500e-04
-1.152500e-10,5.781250e-04
-1.112500e-10,5.468750e-04
-1.072500e-10,8.125000e-04
-1.032500e-10,1.406250e-03
-9.925000e-11,1.500000e-03
-9.525000e-11,2.015625e-03
-9.125000e-11,2.625000e-03
-8.725000e-11,3.343750e-03
-8.325000e-11,4.218750e-03
-7.925000e-11,5.468750e-03
-7.525000e-11,6.359375e-03
-7.125000e-11,7.484375e-03
-6.725000e-11,8.906250e-03
-6.325000e-11,1.065625e-02
-5.925000e-11,1.193750e-02
-5.525000e-11,1.359375e-02
-5.125000e-11,1.535938e-02
-4.725000e-11,1.721875e-02
-4.325000e-11,1.921875e-02
-3.925000e-11,2.159375e-02
-3.525000e-11,2.357813e-02
-3.125000e-11,2.581250e-02
-2.725000e-11,2.829688e-02
-2.325000e-11,3.112500e-02
-1.925000e-11,3.351563e-02
-1.525000e-11,3.625000e-02
-1.125000e-11,3.909375e-02
-7.250000e-12,4.206250e-02
-3.250000e-12,4.515625e-02
7.500000e-13,4.867188e-02
4.750000e-12,5.181250e-02
8.750000e-12,5.521875e-02
1.275000e-11,5.889063e-02
1.675000e-11,6.290625e-02
2.075000e-11,6.654688e-02
2.475000e-11,7.051563e-02
2.875000e-11,7.460938e-02
3.275000e-11,7.884375e-02
3.675000e-11,8.318750e-02
4.075000e-11,8.795313e-02
4.475000e-11,9.234375e-02
4.875000e-11,9.695313e-02
5.275000e-11,1.017969e-01
5.675000e-11,1.069219e-01
6.075000e-11,1.116406e-01
6.475000e-11,1.165938e-01
6.875000e-11,1.216094e-01
7.275000e-11,1.266563e-01
7.675000e-11,1.317031e-01
8.075000e-11,1.370625e-01
8.475000e-11,1.419219e-01
8.875000e-11,1.468906e-01
9.275000e-11,1.519375e-01
9.675000e-11,1.570938e-01
1.007500e-10,1.617344e-01
1.047500e-10,1.664531e-01
1.087500e-10,1.710625e-01
1.127500e-10,1.755781e-01
1.167500e-10,1.799219e-01
1.207500e-10,1.844219e-01
1.247500e-10,1.883125e-01
1.287500e-10,1.921563e-01
1.327500e-10,1.959531e-01
1.367500e-10,1.997344e-01
1.407500e-10,2.029063e-01
1.447500e-10,2.060625e-01
1.487500e-10,2.090313e-01
1.527500e-10,2.118125e-01
1.567500e-10,2.143906e-01
1.607500e-10,2.170313e-01
1.647500e-10,2.190469e-01
1.687500e-10,2.210000e-01
1.727500e-10,2.228594e-01
1.767500e-10,2.247031e-01
1.807500e-10,2.259375e-01
1.847500e-10,2.271875e-01
1.887500e-10,2.282500e-01
1.927500e-10,2.291563e-01
1.967500e-10,2.298594e-01
2.007500e-10,2.306406e-01
2.047500e-10,2.308281e-01
2.087500e-10,2.310000e-01
2.127500e-10,2.310938e-01
2.167500e-10,2.311875e-01
2.207500e-10,2.306875e-01
2.247500e-10,2.302500e-01
2.287500e-10,2.296406e-01
2.327500e-10,2.288750e-01
2.367500e-10,2.279531e-01
2.407500e-10,2.270625e-01
2.447500e-10,2.255938e-01
2.487500e-10,2.241250e-01
2.527500e-10,2.225781e-01
2.567500e-10,2.210313e-01
2.607500e-10,2.188594e-01
2.647500e-10,2.167969e-01
2.687500e-10,2.145469e-01
2.727500e-10,2.121406e-01
2.767500e-10,2.095938e-01
2.807500e-10,2.070938e-01
2.847500e-10,2.040156e-01
2.887500e-10,2.009844e-01
2.927500e-10,1.979063e-01
2.967500e-10,1.948750e-01
3.007500e-10,1.912500e-01
3.047500e-10,1.878281e-01
3.087500e-10,1.842656e-01
3.127500e-10,1.806563e-01
3.167500e-10,1.770000e-01
3.207500e-10,1.734531e-01
3.247500e-10,1.694375e-01
3.287500e-10,1.655938e-01
3.327500e-10,1.618125e-01
3.367500e-10,1.581875e-01
3.407500e-10,1.541094e-01
3.447500e-10,1.503438e-01
3.487500e-10,1.465781e-01
3.527500e-10,1.428906e-01
3.567500e-10,1.392656e-01
3.607500e-10,1.358750e-01
3.647500e-10,1.320938e-01
3.687500e-10,1.286094e-01
3.727500e-10,1.252813e-01
3.767500e-10,1.221719e-01
3.807500e-10,1.186875e-01
3.847500e-10,1.155781e-01
3.887500e-10,1.125156e-01
3.927500e-10,1.095625e-01
3.967500e-10,1.066875e-01
4.007500e-10,1.040938e-01
4.047500e-10,1.010625e-01
4.087500e-10,9.831250e-02
4.127500e-10,9.571875e-02
4.167500e-10,9.331250e-02
4.207500e-10,9.048438e-02
4.247500e-10,8.795313e-02
4.287500e-10,8.546875e-02
4.327500e-10,8.301563e-02
4.367500e-10,8.057813e-02
4.407500e-10,7.839063e-02
4.447500e-10,7.567188e-02
4.487500e-10,7.320313e-02
4.527500e-10,7.085938e-02
4.567500e-10,6.865625e-02
4.607500e-10,6.600000e-02
4.647500e-10,6.360938e-02
4.687500e-10,6.126563e-02
4.727500e-10,5.893750e-02
4.767500e-10,5.664063e-02
4.807500e-10,5.460938e-02
4.847500e-10,5.207813e-02
4.887500e-10,4.979688e-02
4.927500e-10,4.773438e-02
4.967500e-10,4.584375e-02
5.007500e-10,4.359375e-02
5.047500e-10,4.162500e-02
5.087500e-10,3.982813e-02
5.127500e-10,3.809375e-02
5.167500e-10,3.645313e-02
5.207500e-10,3.518750e-02
5.247500e-10,3.346875e-02
5.287500e-10,3.209375e-02
5.327500e-10,3.101563e-02
5.367500e-10,3.015625e-02
5.407500e-10,2.898438e-02
5.447500e-10,2.815625e-02
5.487500e-10,2.751563e-02
5.527500e-10,2.696875e-02
5.567500e-10,2.650000e-02
5.607500e-10,2.642188e-02
5.647500e-10,2.587500e-02
5.687500e-10,2.560938e-02
5.727500e-10,2.562500e-02
5.767500e-10,2.584375e-02
5.807500e-10,2.562500e-02
5.847500e-10,2.568750e-02
5.887500e-10,2.584375e-02
5.927500e-10,2.600000e-02
5.967500e-10,2.614063e-02
6.007500e-10,2.654688e-02
6.047500e-10,2.637500e-02
6.087500e-10,2.637500e-02
6.127500e-10,2.656250e-02
6.167500e-10,2.682813e-02
6.207500e-10,2.654688e-02
6.247500e-10,2.642188e-02
6.287500e-10,2.632813e-02
6.327500e-10,2.614063e-02
6.367500e-10,2.582813e-02
6.407500e-10,2.573438e-02
6.447500e-10,2.500000e-02
6.487500e-10,2.437500e-02
6.527500e-10,2.392188e-02
6.567500e-10,2.353125e-02
6.607500e-10,2.256250e-02
6.647500e-10,2.178125e-02
6.687500e-10,2.103125e-02
6.727500e-10,2.020313e-02
6.767500e-10,1.929688e-02
6.807500e-10,1.865625e-02
6.847500e-10,1.743750e-02
6.887500e-10,1.637500e-02
6.927500e-10,1.556250e-02
6.967500e-10,1.490625e-02
7.007500e-10,1.371875e-02
7.047500e-10,1.281250e-02
7.087500e-10,1.198438e-02
7.127500e-10,1.118750e-02
7.167500e-10,1.039063e-02
7.207500e-10,9.921875e-03
7.247500e-10,8.937500e-03
7.287500e-10,8.203125e-03
7.327500e-10,7.750000e-03
7.367500e-10,7.531250e-03
7.407500e-10,6.796875e-03
7.447500e-10,6.406250e-03
7.487500e-10,6.125000e-03
7.527500e-10,5.890625e-03
7.567500e-10,5.671875e-03
7.607500e-10,5.796875e-03
7.647500e-10,5.406250e-03
7.687500e-10,5.265625e-03
7.727500e-10,5.375000e-03
7.767500e-10,5.734375e-03
7.807500e-10,5.546875e-03
7.847500e-10,5.687500e-03
7.887500e-10,5.875000e-03
7.927500e-10,6.093750e-03
7.967500e-10,6.296875e-03
8.007500e-10,6.812500e-03
8.047500e-10,6.781250e-03
8.087500e-10,6.953125e-03
8.127500e-10,7.343750e-03
8.167500e-10,7.937500e-03
8.207500e-10,7.953125e-03
8.247500e-10,8.265625e-03
8.287500e-10,8.593750e-03
8.327500e-10,8.906250e-03
8.367500e-10,9.203125e-03
8.407500e-10,9.781250e-03
8.447500e-10,9.781250e-03
8.487500e-10,9.953125e-03
8.527500e-10,1.034375e-02
8.567500e-10,1.090625e-02
8.607500e-10,1.085938e-02
8.647500e-10,1.110938e-02
8.687500e-10,1.134375e-02
8.727500e-10,1.157813e-02
8.767500e-10,1.178125e-02
8.807500e-10,1.225000e-02
8.847500e-10,1.212500e-02
8.887500e-10,1.217188e-02
8.927500e-10,1.240625e-02
8.967500e-10,1.282813e-02
9.007500e-10,1.262500e-02
9.047500e-10,1.271875e-02
9.087500e-10,1.278125e-02
9.127500e-10,1.284375e-02
9.167500e-10,1.287500e-02
9.207500e-10,1.317188e-02
9.247500e-10,1.285938e-02
9.287500e-10,1.273438e-02
9.327500e-10,1.279688e-02
9.367500e-10,1.304688e-02
9.407500e-10,1.268750e-02
9.447500e-10,1.259375e-02
9.487500e-10,1.250000e-02
9.527500e-10,1.240625e-02
9.567500e-10,1.229688e-02
9.607500e-10,1.246875e-02
9.647500e-10,1.203125e-02
9.687500e-10,1.179688e-02
9.727500e-10,1.176563e-02
9.767500e-10,1.193750e-02
9.807500e-10,1.150000e-02
9.847500e-10,1.135938e-02
9.887500e-10,1.121875e-02
9.927500e-10,1.109375e-02
9.967500e-10,1.096875e-02
1.000750e-09,1.114063e-02
1.004750e-09,1.071875e-02
1.008750e-09,1.051563e-02
1.012750e-09,1.050000e-02
1.016750e-09,1.070313e-02
1.020750e-09,1.029688e-02
1.024750e-09,1.020313e-02
1.028750e-09,1.012500e-02
1.032750e-09,1.003125e-02
1.036750e-09,9.937500e-03
1.040750e-09,1.015625e-02
1.044750e-09,9.750000e-03
1.048750e-09,9.562500e-03
1.052750e-09,9.562500e-03
1.056750e-09,9.750000e-03
1.060750e-09,9.343750e-03
1.064750e-09,9.218750e-03
1.068750e-09,9.093750e-03
1.072750e-09,8.937500e-03
1.076750e-09,8.781250e-03
1.080750e-09,8.921875e-03
1.084750e-09,8.437500e-03
1.088750e-09,8.140625e-03
1.092750e-09,8.046875e-03
1.096750e-09,8.140625e-03
1.100750e-09,7.609375e-03
1.104750e-09,7.390625e-03
1.108750e-09,7.156250e-03
1.112750e-09,6.921875e-03
1.116750e-09,6.671875e-03
1.120750e-09,6.734375e-03
1.124750e-09,6.187500e-03
1.128750e-09,5.859375e-03
1.132750e-09,5.734375e-03
1.136750e-09,5.828125e-03
1.140750e-09,5.328125e-03
1.144750e-09,5.140625e-03
1.148750e-09,4.968750e-03
1.152750e-09,4.828125e-03
1.156750e-09,4.703125e-03
1.160750e-09,4.921875e-03
1.164750e-09,4.546875e-03
1.168750e-09,4.406250e-03
1.172750e-09,4.484375e-03
1.176750e-09,4.812500e-03
1.180750e-09,4.562500e-03
1.184750e-09,4.640625e-03
1.188750e-09,4.734375e-03
1.192750e-09,4.875000e-03
1.196750e-09,5.046875e-03
1.200750e-09,5.531250e-03
1.204750e-09,5.453125e-03
1.208750e-09,5.578125e-03
1.212750e-09,5.937500e-03
1.216750e-09,6.515625e-03
1.220750e-09,6.500000e-03
1.224750e-09,6.781250e-03
1.228750e-09,7.093750e-03
1.232750e-09,7.390625e-03
1.236750e-09,7.687500e-03
1.240750e-09,8.281250e-03
1.244750e-09,8.281250e-03
1.248750e-09,8.453125e-03
1.252750e-09,8.812500e-03
1.256750e-09,9.359375e-03
1.260750e-09,9.281250e-03
1.264750e-09,9.468750e-03
1.268750e-09,9.656250e-03
1.272750e-09,9.796875e-03
1.276750e-09,9.906250e-03
1.280750e-09,1.029688e-02
1.284750e-09,1.006250e-02
1.288750e-09,9.984375e-03
1.292750e-09,1.007813e-02
1.296750e-09,1.034375e-02
1.300750e-09,9.968750e-03
1.304750e-09,9.875000e-03
1.308750e-09,9.765625e-03
1.312750e-09,9.625000e-03
1.316750e-09,9.453125e-03
1.320750e-09,9.578125e-03
1.324750e-09,9.062500e-03
1.328750e-09,8.750000e-03
1.332750e-09,8.625000e-03
1.336750e-09,8.703125e-03
1.340750e-09,8.156250e-03
1.344750e-09,7.921875e-03
1.348750e-09,7.687500e-03
1.352750e-09,7.468750e-03
1.356750e-09,7.250000e-03
1.360750e-09,7.343750e-03
1.364750e-09,6.859375e-03
1.368750e-09,6.578125e-03
1.372750e-09,6.531250e-03
1.376750e-09,6.703125e-03
1.380750e-09,6.296875e-03
1.384750e-09,6.203125e-03
1.388750e-09,6.156250e-03
1.392750e-09,6.125000e-03
1.396750e-09,6.109375e-03
1.400750e-09,6.437500e-03
1.404750e-09,6.187500e-03
1.408750e-09,6.156250e-03
1.412750e-09,6.343750e-03
1.416750e-09,6.765625e-03
1.420750e-09,6.609375e-03
1.424750e-09,6.750000e-03
1.428750e-09,6.921875e-03
1.432750e-09,7.109375e-03
1.436750e-09,7.312500e-03
1.440750e-09,7.812500e-03
1.444750e-09,7.718750e-03
1.448750e-09,7.828125e-03
1.452750e-09,8.140625e-03
1.456750e-09,8.656250e-03
1.460750e-09,8.562500e-03
1.464750e-09,8.750000e-03
1.468750e-09,8.953125e-03
1.472750e-09,9.125000e-03
1.476750e-09,9.296875e-03
1.480750e-09,9.750000e-03
1.484750e-09,9.593750e-03
1.488750e-09,9.625000e-03
1.492750e-09,9.828125e-03
1.496750e-09,1.023438e-02
1.500750e-09,1.001563e-02
1.504750e-09,1.007813e-02
1.508750e-09,1.012500e-02
1.512750e-09,1.017188e-02
1.516750e-09,1.020313e-02
1.520750e-09,1.051563e-02
1.524750e-09,1.021875e-02
1.528750e-09,1.010938e-02
1.532750e-09,1.018750e-02
1.536750e-09,1.046875e-02
1.540750e-09,1.012500e-02
1.544750e-09,1.009375e-02
1.548750e-09,1.006250e-02
1.552750e-09,1.001563e-02
1.556750e-09,9.968750e-03
1.560750e-09,1.021875e-02
1.564750e-09,9.875000e-03
1.568750e-09,9.718750e-03
1.572750e-09,9.765625e-03
1.576750e-09,1.001563e-02
1.580750e-09,9.671875e-03
1.584750e-09,9.625000e-03
1.588750e-09,9.562500e-03
1.592750e-09,9.515625e-03
1.596750e-09,9.468750e-03
1.600750e-09,9.718750e-03
1.604750e-09,9.359375e-03
1.608750e-09,9.203125e-03
1.612750e-09,9.234375e-03
1.616750e-09,9.484375e-03
1.620750e-09,9.109375e-03
1.624750e-09,9.031250e-03
1.628750e-09,8.968750e-03
1.632750e-09,8.890625e-03
1.636750e-09,8.796875e-03
1.640750e-09,9.015625e-03
1.644750e-09,8.625000e-03
1.648750e-09,8.437500e-03
1.652750e-09,8.437500e-03
1.656750e-09,8.640625e-03
1.660750e-09,8.250000e-03
1.664750e-09,8.156250e-03
1.668750e-09,8.062500e-03
1.672750e-09,7.968750e-03
1.676750e-09,7.875000e-03
1.680750e-09,8.093750e-03
1.684750e-09,7.703125e-03
1.688750e-09,7.531250e-03
1.692750e-09,7.562500e-03
1.696750e-09,7.796875e-03
1.700750e-09,7.437500e-03
1.704750e-09,7.390625e-03
1.708750e-09,7.359375e-03
1.712750e-09,7.328125e-03
1.716750e-09,7.296875e-03
1.720750e-09,7.578125e-03
1.724750e-09,7.250000e-03
1.728750e-09,7.140625e-03
1.732750e-09,7.218750e-03
1.736750e-09,7.515625e-03
1.740750e-09,7.187500e-03
1.744750e-09,7.171875e-03
1.748750e-09,7.140625e-03
1.752750e-09,7.109375e-03
1.756750e-09,7.062500e-03
