Measurements-streak-laser/Photodiode-on-Tek-6GHz/Tek000_ch1_20190613132830615.csv

Model,MSO64
Waveform Type,ANALOG
Horizontal Units,s
Sample Interval,4.000000e-12
Record Length,1000
Zero Index,310.835938
Vertical Units,V

TIME,CH1
-1.243344e-09,2.156250e-03
-1.239344e-09,1.859375e-03
-1.235344e-09,1.859375e-03
-1.231344e-09,1.265625e-03
-1.227344e-09,8.750000e-04
-1.223344e-09,7.187500e-04
-1.219344e-09,7.656250e-04
-1.215344e-09,2.187500e-04
-1.211344e-09,1.562500e-05
-1.207344e-09,-1.718750e-04
-1.203344e-09,-3.281250e-04
-1.199344e-09,-4.531250e-04
-1.195344e-09,-2.187500e-04
-1.191344e-09,-5.781250e-04
-1.187344e-09,-6.718750e-04
-1.183344e-09,-5.312500e-04
-1.179344e-09,-1.562500e-04
-1.175344e-09,-3.281250e-04
-1.171344e-09,-1.718750e-04
-1.167344e-09,3.125000e-05
-1.163344e-09,2.812500e-04
-1.159344e-09,5.468750e-04
-1.155344e-09,1.156250e-03
-1.151344e-09,1.187500e-03
-1.147344e-09,1.437500e-03
-1.143344e-09,1.921875e-03
-1.139344e-09,2.609375e-03
-1.135344e-09,2.703125e-03
-1.131344e-09,3.109375e-03
-1.127344e-09,3.515625e-03
-1.123344e-09,3.906250e-03
-1.119344e-09,4.296875e-03
-1.115344e-09,4.968750e-03
-1.111344e-09,5.015625e-03
-1.107344e-09,5.234375e-03
-1.103344e-09,5.640625e-03
-1.099344e-09,6.218750e-03
-1.095344e-09,6.140625e-03
-1.091344e-09,6.328125e-03
-1.087344e-09,6.484375e-03
-1.083344e-09,6.609375e-03
-1.079344e-09,6.687500e-03
-1.075344e-09,7.015625e-03
-1.071344e-09,6.718750e-03
-1.067344e-09,6.562500e-03
-1.063344e-09,6.593750e-03
-1.059344e-09,6.781250e-03
-1.055344e-09,6.328125e-03
-1.051344e-09,6.156250e-03
-1.047344e-09,5.953125e-03
-1.043344e-09,5.718750e-03
-1.039344e-09,5.484375e-03
-1.035344e-09,5.531250e-03
-1.031344e-09,4.953125e-03
-1.027344e-09,4.578125e-03
-1.023344e-09,4.406250e-03
-1.019344e-09,4.437500e-03
-1.015344e-09,3.875000e-03
-1.011344e-09,3.625000e-03
-1.007344e-09,3.375000e-03
-1.003344e-09,3.156250e-03
-9.993437e-10,2.953125e-03
-9.953437e-10,3.078125e-03
-9.913437e-10,2.625000e-03
-9.873437e-10,2.406250e-03
-9.833437e-10,2.421875e-03
-9.793438e-10,2.656250e-03
-9.753438e-10,2.328125e-03
-9.713438e-10,2.328125e-03
-9.673438e-10,2.375000e-03
-9.633438e-10,2.437500e-03
-9.593438e-10,2.531250e-03
-9.553437e-10,2.968750e-03
-9.513437e-10,2.828125e-03
-9.473437e-10,2.921875e-03
-9.433437e-10,3.250000e-03
-9.393437e-10,3.796875e-03
-9.353437e-10,3.750000e-03
-9.313437e-10,4.031250e-03
-9.273437e-10,4.343750e-03
-9.233437e-10,4.656250e-03
-9.193438e-10,4.968750e-03
-9.153438e-10,5.609375e-03
-9.113437e-10,5.640625e-03
-9.073437e-10,5.875000e-03
-9.033437e-10,6.312500e-03
-8.993437e-10,6.953125e-03
-8.953437e-10,6.968750e-03
-8.913438e-10,7.281250e-03
-8.873438e-10,7.578125e-03
-8.833438e-10,7.843750e-03
-8.793437e-10,8.109375e-03
-8.753437e-10,8.656250e-03
-8.713437e-10,8.562500e-03
-8.673437e-10,8.640625e-03
-8.633437e-10,8.906250e-03
-8.593438e-10,9.343750e-03
-8.553438e-10,9.140625e-03
-8.513437e-10,9.218750e-03
-8.473437e-10,9.265625e-03
-8.433437e-10,9.265625e-03
-8.393437e-10,9.265625e-03
-8.353437e-10,9.515625e-03
-8.313438e-10,9.140625e-03
-8.273438e-10,8.953125e-03
-8.233438e-10,8.937500e-03
-8.193437e-10,9.093750e-03
-8.153437e-10,8.625000e-03
-8.113437e-10,8.453125e-03
-8.073437e-10,8.250000e-03
-8.033437e-10,8.062500e-03
-7.993438e-10,7.843750e-03
-7.953438e-10,7.921875e-03
-7.913437e-10,7.406250e-03
-7.873437e-10,7.078125e-03
-7.833437e-10,6.968750e-03
-7.793437e-10,7.062500e-03
-7.753437e-10,6.546875e-03
-7.713438e-10,6.359375e-03
-7.673438e-10,6.171875e-03
-7.633438e-10,6.015625e-03
-7.593437e-10,5.859375e-03
-7.553437e-10,6.031250e-03
-7.513437e-10,5.609375e-03
-7.473437e-10,5.421875e-03
-7.433437e-10,5.437500e-03
-7.393438e-10,5.687500e-03
-7.353438e-10,5.328125e-03
-7.313438e-10,5.296875e-03
-7.273437e-10,5.296875e-03
-7.233437e-10,5.281250e-03
-7.193437e-10,5.296875e-03
-7.153437e-10,5.625000e-03
-7.113438e-10,5.343750e-03
-7.073438e-10,5.265625e-03
-7.033438e-10,5.406250e-03
-6.993437e-10,5.734375e-03
-6.953437e-10,5.468750e-03
-6.913437e-10,5.484375e-03
-6.873437e-10,5.500000e-03
-6.833437e-10,5.515625e-03
-6.793438e-10,5.515625e-03
-6.753438e-10,5.812500e-03
-6.713438e-10,5.484375e-03
-6.673437e-10,5.359375e-03
-6.633437e-10,5.406250e-03
-6.593437e-10,5.656250e-03
-6.553437e-10,5.281250e-03
-6.513438e-10,5.218750e-03
-6.473438e-10,5.140625e-03
-6.433438e-10,5.046875e-03
-6.393437e-10,4.953125e-03
-6.353437e-10,5.171875e-03
-6.313437e-10,4.765625e-03
-6.273437e-10,4.593750e-03
-6.233437e-10,4.609375e-03
-6.193438e-10,4.843750e-03
-6.153438e-10,4.484375e-03
-6.113438e-10,4.437500e-03
-6.073437e-10,4.406250e-03
-6.033437e-10,4.406250e-03
-5.993437e-10,4.421875e-03
-5.953437e-10,4.765625e-03
-5.913438e-10,4.515625e-03
-5.873438e-10,4.500000e-03
-5.833438e-10,4.703125e-03
-5.793437e-10,5.140625e-03
-5.753437e-10,4.984375e-03
-5.713437e-10,5.156250e-03
-5.673437e-10,5.328125e-03
-5.633437e-10,5.531250e-03
-5.593438e-10,5.750000e-03
-5.553438e-10,6.281250e-03
-5.513438e-10,6.187500e-03
-5.473437e-10,6.312500e-03
-5.433437e-10,6.640625e-03
-5.393437e-10,7.156250e-03
-5.353437e-10,7.062500e-03
-5.313438e-10,7.250000e-03
-5.273438e-10,7.406250e-03
-5.233438e-10,7.562500e-03
-5.193437e-10,7.671875e-03
-5.153437e-10,8.062500e-03
-5.113437e-10,7.796875e-03
-5.073437e-10,7.718750e-03
-5.033437e-10,7.796875e-03
-4.993438e-10,8.031250e-03
-4.953438e-10,7.640625e-03
-4.913438e-10,7.500000e-03
-4.873437e-10,7.312500e-03
-4.833437e-10,7.109375e-03
-4.793437e-10,6.859375e-03
-4.753437e-10,6.875000e-03
-4.713438e-10,6.265625e-03
-4.673438e-10,5.828125e-03
-4.633437e-10,5.578125e-03
-4.593437e-10,5.515625e-03
-4.553438e-10,4.843750e-03
-4.513437e-10,4.468750e-03
-4.473437e-10,4.062500e-03
-4.433437e-10,3.687500e-03
-4.393438e-10,3.296875e-03
-4.353437e-10,3.234375e-03
-4.313437e-10,2.593750e-03
-4.273438e-10,2.156250e-03
-4.233438e-10,1.968750e-03
-4.193437e-10,2.015625e-03
-4.153437e-10,1.484375e-03
-4.113438e-10,1.296875e-03
-4.073437e-10,1.109375e-03
-4.033437e-10,9.843750e-04
-3.993437e-10,8.750000e-04
-3.953438e-10,1.125000e-03
-3.913437e-10,7.968750e-04
-3.873437e-10,7.031250e-04
-3.833437e-10,8.593750e-04
-3.793438e-10,1.250000e-03
-3.753437e-10,1.078125e-03
-3.713437e-10,1.234375e-03
-3.673438e-10,1.359375e-03
-3.633438e-10,1.531250e-03
-3.593437e-10,1.703125e-03
-3.553437e-10,2.203125e-03
-3.513438e-10,2.093750e-03
-3.473438e-10,2.203125e-03
-3.433437e-10,2.531250e-03
-3.393437e-10,3.046875e-03
-3.353438e-10,2.968750e-03
-3.313437e-10,3.187500e-03
-3.273437e-10,3.343750e-03
-3.233437e-10,3.484375e-03
-3.193438e-10,3.625000e-03
-3.153437e-10,4.062500e-03
-3.113437e-10,3.875000e-03
-3.073438e-10,3.859375e-03
-3.033438e-10,4.062500e-03
-2.993437e-10,4.421875e-03
-2.953437e-10,4.187500e-03
-2.913438e-10,4.250000e-03
-2.873438e-10,4.234375e-03
-2.833437e-10,4.203125e-03
-2.793437e-10,4.203125e-03
-2.753438e-10,4.484375e-03
-2.713437e-10,4.156250e-03
-2.673437e-10,4.031250e-03
-2.633437e-10,4.125000e-03
-2.593438e-10,4.406250e-03
-2.553437e-10,4.109375e-03
-2.513437e-10,4.140625e-03
-2.473438e-10,4.109375e-03
-2.433438e-10,4.062500e-03
-2.393437e-10,4.109375e-03
-2.353437e-10,4.421875e-03
-2.313438e-10,4.187500e-03
-2.273437e-10,4.140625e-03
-2.233438e-10,4.343750e-03
-2.193437e-10,4.734375e-03
-2.153437e-10,4.562500e-03
-2.113437e-10,4.718750e-03
-2.073437e-10,4.843750e-03
-2.033437e-10,4.937500e-03
-1.993437e-10,5.140625e-03
-1.953438e-10,5.578125e-03
-1.913437e-10,5.515625e-03
-1.873438e-10,5.593750e-03
-1.833437e-10,5.906250e-03
-1.793438e-10,6.406250e-03
-1.753437e-10,6.328125e-03
-1.713438e-10,6.562500e-03
-1.673437e-10,6.750000e-03
-1.633438e-10,6.906250e-03
-1.593437e-10,7.140625e-03
-1.553438e-10,7.593750e-03
-1.513437e-10,7.546875e-03
-1.473437e-10,7.625000e-03
-1.433437e-10,7.906250e-03
-1.393437e-10,8.406250e-03
-1.353438e-10,8.281250e-03
-1.313437e-10,8.468750e-03
-1.273438e-10,8.625000e-03
-1.233437e-10,8.765625e-03
-1.193438e-10,8.984375e-03
-1.153437e-10,9.437500e-03
-1.113437e-10,9.437500e-03
-1.073437e-10,9.562500e-03
-1.033437e-10,9.906250e-03
-9.934375e-11,1.051563e-02
-9.534375e-11,1.056250e-02
-9.134375e-11,1.092188e-02
-8.734375e-11,1.131250e-02
-8.334375e-11,1.175000e-02
-7.934375e-11,1.231250e-02
-7.534375e-11,1.317188e-02
-7.134375e-11,1.365625e-02
-6.734375e-11,1.434375e-02
-6.334375e-11,1.529688e-02
-5.934375e-11,1.657813e-02
-5.534375e-11,1.740625e-02
-5.134375e-11,1.859375e-02
-4.734375e-11,1.992188e-02
-4.334375e-11,2.137500e-02
-3.934375e-11,2.300000e-02
-3.534375e-11,2.503125e-02
-3.134375e-11,2.675000e-02
-2.734375e-11,2.876563e-02
-2.334375e-11,3.109375e-02
-1.934375e-11,3.381250e-02
-1.534375e-11,3.617188e-02
-1.134375e-11,3.893750e-02
-7.343750e-12,4.187500e-02
-3.343750e-12,4.500000e-02
6.562500e-13,4.831250e-02
4.656250e-12,5.209375e-02
8.656250e-12,5.556250e-02
1.265625e-11,5.935938e-02
1.665625e-11,6.343750e-02
2.065625e-11,6.790625e-02
2.465625e-11,7.201563e-02
2.865625e-11,7.648438e-02
3.265625e-11,8.109375e-02
3.665625e-11,8.584375e-02
4.065625e-11,9.070313e-02
4.465625e-11,9.598438e-02
4.865625e-11,1.008594e-01
5.265625e-11,1.059688e-01
5.665625e-11,1.112500e-01
6.065625e-11,1.168125e-01
6.465625e-11,1.219219e-01
6.865625e-11,1.272500e-01
7.265625e-11,1.325781e-01
7.665625e-11,1.379063e-01
8.065625e-11,1.432031e-01
8.465625e-11,1.487656e-01
8.865625e-11,1.537813e-01
9.265625e-11,1.588594e-01
9.665625e-11,1.639688e-01
1.006562e-10,1.691563e-01
1.046562e-10,1.737969e-01
1.086562e-10,1.784688e-01
1.126562e-10,1.830000e-01
1.166563e-10,1.873906e-01
1.206562e-10,1.915938e-01
1.246563e-10,1.959063e-01
1.286562e-10,1.995781e-01
1.326563e-10,2.031719e-01
1.366562e-10,2.066719e-01
1.406563e-10,2.101406e-01
1.446562e-10,2.129688e-01
1.486563e-10,2.157500e-01
1.526562e-10,2.183125e-01
1.566562e-10,2.206563e-01
1.606562e-10,2.227656e-01
1.646562e-10,2.249063e-01
1.686563e-10,2.263750e-01
1.726562e-10,2.277656e-01
1.766563e-10,2.290313e-01
1.806562e-10,2.302344e-01
1.846563e-10,2.307969e-01
1.886562e-10,2.313594e-01
1.926563e-10,2.317031e-01
1.966562e-10,2.318594e-01
2.006563e-10,2.318125e-01
2.046562e-10,2.317813e-01
2.086563e-10,2.311719e-01
2.126562e-10,2.305156e-01
2.166562e-10,2.297813e-01
2.206562e-10,2.290313e-01
2.246562e-10,2.276875e-01
2.286562e-10,2.264375e-01
2.326562e-10,2.250000e-01
2.366562e-10,2.234375e-01
2.406563e-10,2.217344e-01
2.446563e-10,2.200938e-01
2.486562e-10,2.179063e-01
2.526562e-10,2.157656e-01
2.566563e-10,2.135781e-01
2.606563e-10,2.114531e-01
2.646562e-10,2.087500e-01
2.686562e-10,2.062031e-01
2.726563e-10,2.035313e-01
2.766562e-10,2.007813e-01
2.806562e-10,1.979375e-01
2.846562e-10,1.952031e-01
2.886563e-10,1.919531e-01
2.926562e-10,1.887969e-01
2.966562e-10,1.856563e-01
3.006563e-10,1.826094e-01
3.046563e-10,1.790313e-01
3.086562e-10,1.756875e-01
3.126562e-10,1.722500e-01
3.166563e-10,1.687969e-01
3.206563e-10,1.653125e-01
3.246562e-10,1.619844e-01
3.286562e-10,1.581875e-01
3.326563e-10,1.545625e-01
3.366562e-10,1.510156e-01
3.406562e-10,1.476250e-01
3.446562e-10,1.437656e-01
3.486563e-10,1.402031e-01
3.526562e-10,1.366406e-01
3.566562e-10,1.331250e-01
3.606563e-10,1.296563e-01
3.646563e-10,1.264063e-01
3.686562e-10,1.227344e-01
3.726562e-10,1.193281e-01
3.766563e-10,1.160625e-01
3.806563e-10,1.130156e-01
3.846562e-10,1.095469e-01
3.886562e-10,1.064531e-01
3.926563e-10,1.034063e-01
3.966562e-10,1.004531e-01
4.006562e-10,9.759375e-02
4.046562e-10,9.501563e-02
4.086563e-10,9.200000e-02
4.126562e-10,8.928125e-02
4.166562e-10,8.676563e-02
4.206562e-10,8.445313e-02
4.246563e-10,8.176563e-02
4.286562e-10,7.940625e-02
4.326562e-10,7.712500e-02
4.366563e-10,7.492188e-02
4.406563e-10,7.278125e-02
4.446562e-10,7.095313e-02
4.486562e-10,6.862500e-02
4.526563e-10,6.659375e-02
4.566562e-10,6.475000e-02
4.606562e-10,6.306250e-02
4.646562e-10,6.098438e-02
4.686562e-10,5.918750e-02
4.726562e-10,5.746875e-02
4.766563e-10,5.579688e-02
4.806563e-10,5.414063e-02
4.846563e-10,5.279688e-02
4.886562e-10,5.090625e-02
4.926562e-10,4.928125e-02
4.966562e-10,4.785938e-02
5.006562e-10,4.657813e-02
5.046563e-10,4.487500e-02
5.086563e-10,4.343750e-02
5.126563e-10,4.209375e-02
5.166562e-10,4.076563e-02
5.206562e-10,3.945313e-02
5.246562e-10,3.845313e-02
5.286562e-10,3.692188e-02
5.326562e-10,3.564063e-02
5.366563e-10,3.457813e-02
5.406563e-10,3.367188e-02
5.446563e-10,3.235938e-02
5.486562e-10,3.128125e-02
5.526562e-10,3.034375e-02
5.566562e-10,2.942188e-02
5.606562e-10,2.850000e-02
5.646563e-10,2.789063e-02
5.686563e-10,2.678125e-02
5.726563e-10,2.589063e-02
5.766562e-10,2.525000e-02
5.806562e-10,2.476563e-02
5.846562e-10,2.384375e-02
5.886562e-10,2.317188e-02
5.926562e-10,2.262500e-02
5.966563e-10,2.207813e-02
6.006563e-10,2.151563e-02
6.046563e-10,2.128125e-02
6.086562e-10,2.050000e-02
6.126562e-10,1.992188e-02
6.166562e-10,1.960938e-02
6.206562e-10,1.943750e-02
6.246563e-10,1.878125e-02
6.286563e-10,1.839063e-02
6.326563e-10,1.807813e-02
6.366562e-10,1.776563e-02
6.406562e-10,1.742188e-02
6.446562e-10,1.737500e-02
6.486562e-10,1.678125e-02
6.526562e-10,1.637500e-02
6.566563e-10,1.621875e-02
6.606563e-10,1.623438e-02
6.646563e-10,1.571875e-02
6.686562e-10,1.546875e-02
6.726562e-10,1.528125e-02
6.766562e-10,1.510938e-02
6.806562e-10,1.489063e-02
6.846563e-10,1.495313e-02
6.886563e-10,1.448438e-02
6.926563e-10,1.420313e-02
6.966562e-10,1.414063e-02
7.006562e-10,1.426563e-02
7.046562e-10,1.384375e-02
7.086562e-10,1.368750e-02
7.126562e-10,1.357813e-02
7.166563e-10,1.346875e-02
7.206563e-10,1.331250e-02
7.246563e-10,1.343750e-02
7.286562e-10,1.300000e-02
7.326562e-10,1.271875e-02
7.366562e-10,1.267188e-02
7.406562e-10,1.279688e-02
7.446563e-10,1.234375e-02
7.486563e-10,1.215625e-02
7.526563e-10,1.198438e-02
7.566562e-10,1.179688e-02
7.606562e-10,1.156250e-02
7.646562e-10,1.159375e-02
7.686562e-10,1.104688e-02
7.726562e-10,1.067188e-02
7.766563e-10,1.051563e-02
7.806563e-10,1.053125e-02
7.846563e-10,9.968750e-03
7.886562e-10,9.687500e-03
7.926562e-10,9.421875e-03
7.966562e-10,9.156250e-03
8.006562e-10,8.875000e-03
8.046562e-10,8.875000e-03
8.086563e-10,8.328125e-03
8.126563e-10,7.984375e-03
8.166562e-10,7.859375e-03
8.206562e-10,7.968750e-03
8.246562e-10,7.500000e-03
8.286562e-10,7.375000e-03
8.326562e-10,7.265625e-03
8.366563e-10,7.218750e-03
8.406563e-10,7.156250e-03
8.446563e-10,7.437500e-03
8.486562e-10,7.171875e-03
8.526562e-10,7.125000e-03
8.566562e-10,7.328125e-03
8.606562e-10,7.765625e-03
8.646562e-10,7.625000e-03
8.686563e-10,7.812500e-03
8.726563e-10,8.031250e-03
8.766562e-10,8.281250e-03
8.806562e-10,8.531250e-03
8.846562e-10,9.078125e-03
8.886562e-10,9.031250e-03
8.926562e-10,9.203125e-03
8.966563e-10,9.562500e-03
9.006563e-10,1.012500e-02
9.046563e-10,1.006250e-02
9.086562e-10,1.028125e-02
9.126562e-10,1.046875e-02
9.166562e-10,1.065625e-02
9.206562e-10,1.078125e-02
9.246562e-10,1.117188e-02
9.286563e-10,1.092188e-02
9.326563e-10,1.084375e-02
9.366562e-10,1.093750e-02
9.406562e-10,1.118750e-02
9.446562e-10,1.079688e-02
9.486562e-10,1.067188e-02
9.526562e-10,1.053125e-02
9.566562e-10,1.034375e-02
9.606562e-10,1.014063e-02
9.646562e-10,1.020313e-02
9.686562e-10,9.656250e-03
9.726563e-10,9.312500e-03
9.766563e-10,9.171875e-03
9.806563e-10,9.218750e-03
9.846563e-10,8.687500e-03
9.886563e-10,8.484375e-03
9.926563e-10,8.281250e-03
9.966562e-10,8.125000e-03
1.000656e-09,8.000000e-03
1.004656e-09,8.203125e-03
1.008656e-09,7.859375e-03
1.012656e-09,7.750000e-03
1.016656e-09,7.890625e-03
1.020656e-09,8.281250e-03
1.024656e-09,8.125000e-03
1.028656e-09,8.312500e-03
1.032656e-09,8.546875e-03
1.036656e-09,8.812500e-03
1.040656e-09,9.125000e-03
1.044656e-09,9.750000e-03
1.048656e-09,9.812500e-03
1.052656e-09,1.009375e-02
1.056656e-09,1.059375e-02
1.060656e-09,1.129688e-02
1.064656e-09,1.140625e-02
1.068656e-09,1.178125e-02
1.072656e-09,1.215625e-02
1.076656e-09,1.251563e-02
1.080656e-09,1.282813e-02
1.084656e-09,1.340625e-02
1.088656e-09,1.332813e-02
1.092656e-09,1.340625e-02
1.096656e-09,1.364063e-02
1.100656e-09,1.401563e-02
1.104656e-09,1.371875e-02
1.108656e-09,1.365625e-02
1.112656e-09,1.354688e-02
1.116656e-09,1.335938e-02
1.120656e-09,1.312500e-02
1.124656e-09,1.312500e-02
1.128656e-09,1.248438e-02
1.132656e-09,1.198438e-02
1.136656e-09,1.164063e-02
1.140656e-09,1.145313e-02
1.144656e-09,1.064063e-02
1.148656e-09,1.010938e-02
1.152656e-09,9.562500e-03
1.156656e-09,9.015625e-03
1.160656e-09,8.468750e-03
1.164656e-09,8.218750e-03
1.168656e-09,7.390625e-03
1.172656e-09,6.781250e-03
1.176656e-09,6.406250e-03
1.180656e-09,6.265625e-03
1.184656e-09,5.562500e-03
1.188656e-09,5.203125e-03
1.192656e-09,4.906250e-03
1.196656e-09,4.656250e-03
1.200656e-09,4.453125e-03
1.204656e-09,4.609375e-03
1.208656e-09,4.218750e-03
1.212656e-09,4.078125e-03
1.216656e-09,4.187500e-03
1.220656e-09,4.546875e-03
1.224656e-09,4.359375e-03
1.228656e-09,4.515625e-03
1.232656e-09,4.687500e-03
1.236656e-09,4.906250e-03
1.240656e-09,5.156250e-03
1.244656e-09,5.718750e-03
1.248656e-09,5.703125e-03
1.252656e-09,5.890625e-03
1.256656e-09,6.281250e-03
1.260656e-09,6.875000e-03
1.264656e-09,6.875000e-03
1.268656e-09,7.156250e-03
1.272656e-09,7.421875e-03
1.276656e-09,7.671875e-03
1.280656e-09,7.906250e-03
1.284656e-09,8.406250e-03
1.288656e-09,8.296875e-03
1.292656e-09,8.359375e-03
1.296656e-09,8.609375e-03
1.300656e-09,9.031250e-03
1.304656e-09,8.828125e-03
1.308656e-09,8.906250e-03
1.312656e-09,8.968750e-03
1.316656e-09,9.015625e-03
1.320656e-09,9.062500e-03
1.324656e-09,9.375000e-03
1.328656e-09,9.078125e-03
1.332656e-09,8.984375e-03
1.336656e-09,9.093750e-03
1.340656e-09,9.375000e-03
1.344656e-09,9.078125e-03
1.348656e-09,9.062500e-03
1.352656e-09,9.062500e-03
1.356656e-09,9.046875e-03
1.360656e-09,9.046875e-03
1.364656e-09,9.343750e-03
1.368656e-09,9.031250e-03
1.372656e-09,8.921875e-03
1.376656e-09,9.015625e-03
1.380656e-09,9.296875e-03
1.384656e-09,8.968750e-03
1.388656e-09,8.937500e-03
1.392656e-09,8.906250e-03
1.396656e-09,8.843750e-03
1.400656e-09,8.765625e-03
1.404656e-09,8.984375e-03
1.408656e-09,8.578125e-03
1.412656e-09,8.359375e-03
1.416656e-09,8.312500e-03
1.420656e-09,8.453125e-03
1.424656e-09,7.953125e-03
1.428656e-09,7.750000e-03
1.432656e-09,7.531250e-03
1.436656e-09,7.281250e-03
1.440656e-09,7.031250e-03
1.444656e-09,7.062500e-03
1.448656e-09,6.484375e-03
1.452656e-09,6.093750e-03
1.456656e-09,5.921875e-03
1.460656e-09,5.937500e-03
1.464656e-09,5.375000e-03
1.468656e-09,5.125000e-03
1.472656e-09,4.875000e-03
1.476656e-09,4.671875e-03
1.480656e-09,4.484375e-03
1.484656e-09,4.625000e-03
1.488656e-09,4.218750e-03
1.492656e-09,4.031250e-03
1.496656e-09,4.109375e-03
1.500656e-09,4.421875e-03
1.504656e-09,4.187500e-03
1.508656e-09,4.296875e-03
1.512656e-09,4.453125e-03
1.516656e-09,4.656250e-03
1.520656e-09,4.906250e-03
1.524656e-09,5.500000e-03
1.528656e-09,5.531250e-03
1.532656e-09,5.796875e-03
1.536656e-09,6.281250e-03
1.540656e-09,7.015625e-03
1.544656e-09,7.140625e-03
1.548656e-09,7.593750e-03
1.552656e-09,8.046875e-03
1.556656e-09,8.500000e-03
1.560656e-09,8.953125e-03
1.564656e-09,9.671875e-03
1.568656e-09,9.765625e-03
1.572656e-09,1.003125e-02
1.576656e-09,1.045313e-02
1.580656e-09,1.103125e-02
1.584656e-09,1.096875e-02
1.588656e-09,1.112500e-02
1.592656e-09,1.125000e-02
1.596656e-09,1.129688e-02
1.600656e-09,1.128125e-02
1.604656e-09,1.150000e-02
1.608656e-09,1.104688e-02
1.612656e-09,1.073438e-02
1.616656e-09,1.056250e-02
1.620656e-09,1.053125e-02
1.624656e-09,9.828125e-03
1.628656e-09,9.375000e-03
1.632656e-09,8.890625e-03
1.636656e-09,8.375000e-03
1.640656e-09,7.812500e-03
1.644656e-09,7.546875e-03
1.648656e-09,6.640625e-03
1.652656e-09,5.937500e-03
1.656656e-09,5.437500e-03
1.660656e-09,5.156250e-03
1.664656e-09,4.281250e-03
1.668656e-09,3.734375e-03
1.672656e-09,3.218750e-03
1.676656e-09,2.765625e-03
1.680656e-09,2.343750e-03
1.684656e-09,2.281250e-03
1.688656e-09,1.656250e-03
1.692656e-09,1.312500e-03
1.696656e-09,1.234375e-03
1.700656e-09,1.421875e-03
1.704656e-09,1.078125e-03
1.708656e-09,1.109375e-03
1.712656e-09,1.187500e-03
1.716656e-09,1.359375e-03
1.720656e-09,1.578125e-03
1.724656e-09,2.156250e-03
1.728656e-09,2.203125e-03
1.732656e-09,2.484375e-03
1.736656e-09,3.015625e-03
1.740656e-09,3.796875e-03
1.744656e-09,4.000000e-03
1.748656e-09,4.531250e-03
1.752656e-09,5.078125e-03
1.756656e-09,5.625000e-03
