Measurements-streak-laser/Photodiode-on-Tek-6GHz/Tek000_ch1_20190613132734955.csv

Model,MSO64
Waveform Type,ANALOG
Horizontal Units,s
Sample Interval,4.000000e-12
Record Length,1000
Zero Index,310.953125
Vertical Units,V

TIME,CH1
-1.243813e-09,5.687500e-03
-1.239813e-09,5.359375e-03
-1.235813e-09,5.328125e-03
-1.231812e-09,4.703125e-03
-1.227812e-09,4.265625e-03
-1.223812e-09,4.062500e-03
-1.219812e-09,4.078125e-03
-1.215812e-09,3.515625e-03
-1.211812e-09,3.281250e-03
-1.207812e-09,3.093750e-03
-1.203812e-09,2.953125e-03
-1.199812e-09,2.859375e-03
-1.195813e-09,3.109375e-03
-1.191813e-09,2.812500e-03
-1.187813e-09,2.750000e-03
-1.183813e-09,2.953125e-03
-1.179813e-09,3.390625e-03
-1.175813e-09,3.281250e-03
-1.171812e-09,3.500000e-03
-1.167812e-09,3.765625e-03
-1.163812e-09,4.078125e-03
-1.159812e-09,4.406250e-03
-1.155812e-09,5.062500e-03
-1.151812e-09,5.140625e-03
-1.147812e-09,5.437500e-03
-1.143812e-09,5.937500e-03
-1.139812e-09,6.640625e-03
-1.135813e-09,6.734375e-03
-1.131813e-09,7.125000e-03
-1.127813e-09,7.500000e-03
-1.123813e-09,7.843750e-03
-1.119813e-09,8.171875e-03
-1.115813e-09,8.781250e-03
-1.111812e-09,8.734375e-03
-1.107812e-09,8.859375e-03
-1.103812e-09,9.156250e-03
-1.099812e-09,9.609375e-03
-1.095812e-09,9.406250e-03
-1.091812e-09,9.468750e-03
-1.087812e-09,9.500000e-03
-1.083812e-09,9.468750e-03
-1.079812e-09,9.406250e-03
-1.075813e-09,9.593750e-03
-1.071813e-09,9.156250e-03
-1.067813e-09,8.859375e-03
-1.063813e-09,8.750000e-03
-1.059813e-09,8.812500e-03
-1.055813e-09,8.250000e-03
-1.051812e-09,7.953125e-03
-1.047812e-09,7.656250e-03
-1.043812e-09,7.328125e-03
-1.039812e-09,7.015625e-03
-1.035812e-09,6.984375e-03
-1.031812e-09,6.359375e-03
-1.027812e-09,5.937500e-03
-1.023812e-09,5.734375e-03
-1.019812e-09,5.750000e-03
-1.015813e-09,5.171875e-03
-1.011813e-09,4.921875e-03
-1.007813e-09,4.687500e-03
-1.003813e-09,4.500000e-03
-9.998125e-10,4.328125e-03
-9.958125e-10,4.500000e-03
-9.918125e-10,4.093750e-03
-9.878125e-10,3.937500e-03
-9.838125e-10,4.000000e-03
-9.798125e-10,4.312500e-03
-9.758125e-10,4.046875e-03
-9.718125e-10,4.125000e-03
-9.678125e-10,4.218750e-03
-9.638125e-10,4.359375e-03
-9.598125e-10,4.515625e-03
-9.558125e-10,5.015625e-03
-9.518125e-10,4.921875e-03
-9.478125e-10,5.046875e-03
-9.438125e-10,5.406250e-03
-9.398125e-10,5.968750e-03
-9.358125e-10,5.937500e-03
-9.318125e-10,6.218750e-03
-9.278125e-10,6.484375e-03
-9.238125e-10,6.781250e-03
-9.198125e-10,7.046875e-03
-9.158125e-10,7.625000e-03
-9.118125e-10,7.593750e-03
-9.078125e-10,7.750000e-03
-9.038125e-10,8.093750e-03
-8.998125e-10,8.609375e-03
-8.958125e-10,8.515625e-03
-8.918125e-10,8.703125e-03
-8.878125e-10,8.875000e-03
-8.838125e-10,9.000000e-03
-8.798125e-10,9.125000e-03
-8.758125e-10,9.531250e-03
-8.718125e-10,9.281250e-03
-8.678125e-10,9.234375e-03
-8.638125e-10,9.343750e-03
-8.598125e-10,9.640625e-03
-8.558125e-10,9.312500e-03
-8.518125e-10,9.250000e-03
-8.478125e-10,9.171875e-03
-8.438125e-10,9.062500e-03
-8.398125e-10,8.937500e-03
-8.358125e-10,9.093750e-03
-8.318125e-10,8.625000e-03
-8.278125e-10,8.328125e-03
-8.238125e-10,8.234375e-03
-8.198125e-10,8.312500e-03
-8.158125e-10,7.781250e-03
-8.118125e-10,7.531250e-03
-8.078125e-10,7.281250e-03
-8.038125e-10,7.015625e-03
-7.998125e-10,6.734375e-03
-7.958125e-10,6.765625e-03
-7.918125e-10,6.187500e-03
-7.878125e-10,5.796875e-03
-7.838125e-10,5.625000e-03
-7.798125e-10,5.656250e-03
-7.758125e-10,5.078125e-03
-7.718125e-10,4.828125e-03
-7.678125e-10,4.562500e-03
-7.638125e-10,4.328125e-03
-7.598125e-10,4.109375e-03
-7.558125e-10,4.203125e-03
-7.518125e-10,3.703125e-03
-7.478125e-10,3.421875e-03
-7.438125e-10,3.375000e-03
-7.398125e-10,3.546875e-03
-7.358125e-10,3.125000e-03
-7.318125e-10,3.046875e-03
-7.278125e-10,2.968750e-03
-7.238125e-10,2.937500e-03
-7.198125e-10,2.921875e-03
-7.158125e-10,3.234375e-03
-7.118125e-10,2.968750e-03
-7.078125e-10,2.921875e-03
-7.038125e-10,3.093750e-03
-6.998125e-10,3.484375e-03
-6.958125e-10,3.296875e-03
-6.918125e-10,3.437500e-03
-6.878125e-10,3.578125e-03
-6.838125e-10,3.718750e-03
-6.798125e-10,3.875000e-03
-6.758125e-10,4.343750e-03
-6.718125e-10,4.203125e-03
-6.678125e-10,4.265625e-03
-6.638125e-10,4.515625e-03
-6.598125e-10,4.968750e-03
-6.558125e-10,4.796875e-03
-6.518125e-10,4.906250e-03
-6.478125e-10,5.015625e-03
-6.438125e-10,5.078125e-03
-6.398125e-10,5.140625e-03
-6.358125e-10,5.453125e-03
-6.318125e-10,5.156250e-03
-6.278125e-10,5.015625e-03
-6.238125e-10,5.046875e-03
-6.198125e-10,5.250000e-03
-6.158125e-10,4.812500e-03
-6.118125e-10,4.656250e-03
-6.078125e-10,4.468750e-03
-6.038125e-10,4.265625e-03
-5.998125e-10,4.031250e-03
-5.958125e-10,4.078125e-03
-5.918125e-10,3.500000e-03
-5.878125e-10,3.109375e-03
-5.838125e-10,2.921875e-03
-5.798125e-10,2.921875e-03
-5.758125e-10,2.312500e-03
-5.718125e-10,2.031250e-03
-5.678125e-10,1.734375e-03
-5.638125e-10,1.484375e-03
-5.598125e-10,1.234375e-03
-5.558125e-10,1.312500e-03
-5.518125e-10,8.281250e-04
-5.478125e-10,5.781250e-04
-5.438125e-10,5.468750e-04
-5.398125e-10,7.812500e-04
-5.358125e-10,4.531250e-04
-5.318125e-10,4.531250e-04
-5.278125e-10,5.156250e-04
-5.238125e-10,6.250000e-04
-5.198125e-10,7.656250e-04
-5.158125e-10,1.281250e-03
-5.118125e-10,1.203125e-03
-5.078125e-10,1.390625e-03
-5.038125e-10,1.812500e-03
-4.998125e-10,2.468750e-03
-4.958125e-10,2.562500e-03
-4.918125e-10,2.968750e-03
-4.878125e-10,3.375000e-03
-4.838125e-10,3.828125e-03
-4.798125e-10,4.265625e-03
-4.758125e-10,5.015625e-03
-4.718125e-10,5.140625e-03
-4.678125e-10,5.468750e-03
-4.638125e-10,6.000000e-03
-4.598125e-10,6.687500e-03
-4.558125e-10,6.750000e-03
-4.518125e-10,7.078125e-03
-4.478125e-10,7.359375e-03
-4.438125e-10,7.593750e-03
-4.398125e-10,7.796875e-03
-4.358125e-10,8.250000e-03
-4.318125e-10,8.046875e-03
-4.278125e-10,8.000000e-03
-4.238125e-10,8.125000e-03
-4.198125e-10,8.390625e-03
-4.158125e-10,8.015625e-03
-4.118125e-10,7.906250e-03
-4.078125e-10,7.718750e-03
-4.038125e-10,7.531250e-03
-3.998125e-10,7.296875e-03
-3.958125e-10,7.343750e-03
-3.918125e-10,6.765625e-03
-3.878125e-10,6.390625e-03
-3.838125e-10,6.218750e-03
-3.798125e-10,6.250000e-03
-3.758125e-10,5.703125e-03
-3.718125e-10,5.453125e-03
-3.678125e-10,5.203125e-03
-3.638125e-10,4.984375e-03
-3.598125e-10,4.812500e-03
-3.558125e-10,4.968750e-03
-3.518125e-10,4.562500e-03
-3.478125e-10,4.406250e-03
-3.438125e-10,4.515625e-03
-3.398125e-10,4.859375e-03
-3.358125e-10,4.687500e-03
-3.318125e-10,4.843750e-03
-3.278125e-10,5.000000e-03
-3.238125e-10,5.203125e-03
-3.198125e-10,5.468750e-03
-3.158125e-10,6.062500e-03
-3.118125e-10,6.093750e-03
-3.078125e-10,6.343750e-03
-3.038125e-10,6.843750e-03
-2.998125e-10,7.531250e-03
-2.958125e-10,7.656250e-03
-2.918125e-10,8.078125e-03
-2.878125e-10,8.421875e-03
-2.838125e-10,8.734375e-03
-2.798125e-10,9.093750e-03
-2.758125e-10,9.671875e-03
-2.718125e-10,9.625000e-03
-2.678125e-10,9.718750e-03
-2.638125e-10,1.001563e-02
-2.598125e-10,1.040625e-02
-2.558125e-10,1.017188e-02
-2.518125e-10,1.017188e-02
-2.478125e-10,1.004688e-02
-2.438125e-10,9.828125e-03
-2.398125e-10,9.625000e-03
-2.358125e-10,9.593750e-03
-2.318125e-10,8.937500e-03
-2.278125e-10,8.390625e-03
-2.238125e-10,8.015625e-03
-2.198125e-10,7.765625e-03
-2.158125e-10,6.890625e-03
-2.118125e-10,6.281250e-03
-2.078125e-10,5.578125e-03
-2.038125e-10,4.812500e-03
-1.998125e-10,4.125000e-03
-1.958125e-10,3.656250e-03
-1.918125e-10,2.656250e-03
-1.878125e-10,1.812500e-03
-1.838125e-10,1.234375e-03
-1.798125e-10,8.593750e-04
-1.758125e-10,-7.812500e-05
-1.718125e-10,-6.562500e-04
-1.678125e-10,-1.218750e-03
-1.638125e-10,-1.750000e-03
-1.598125e-10,-2.140625e-03
-1.558125e-10,-2.234375e-03
-1.518125e-10,-2.734375e-03
-1.478125e-10,-3.031250e-03
-1.438125e-10,-3.031250e-03
-1.398125e-10,-2.734375e-03
-1.358125e-10,-2.937500e-03
-1.318125e-10,-2.750000e-03
-1.278125e-10,-2.515625e-03
-1.238125e-10,-2.203125e-03
-1.198125e-10,-1.718750e-03
-1.158125e-10,-9.218750e-04
-1.118125e-10,-5.156250e-04
-1.078125e-10,9.375000e-05
-1.038125e-10,9.843750e-04
-9.981250e-11,2.171875e-03
-9.581250e-11,2.828125e-03
-9.181250e-11,3.859375e-03
-8.781250e-11,4.937500e-03
-8.381250e-11,6.062500e-03
-7.981250e-11,7.328125e-03
-7.581250e-11,8.890625e-03
-7.181250e-11,1.004688e-02
-6.781250e-11,1.137500e-02
-6.381250e-11,1.295313e-02
-5.981250e-11,1.481250e-02
-5.581250e-11,1.617188e-02
-5.181250e-11,1.784375e-02
-4.781250e-11,1.959375e-02
-4.381250e-11,2.140625e-02
-3.981250e-11,2.332813e-02
-3.581250e-11,2.559375e-02
-3.181250e-11,2.746875e-02
-2.781250e-11,2.956250e-02
-2.381250e-11,3.189063e-02
-1.981250e-11,3.457813e-02
-1.581250e-11,3.681250e-02
-1.181250e-11,3.937500e-02
-7.812500e-12,4.207813e-02
-3.812500e-12,4.490625e-02
1.875000e-13,4.785938e-02
4.187500e-12,5.125000e-02
8.187500e-12,5.428125e-02
1.218750e-11,5.759375e-02
1.618750e-11,6.117188e-02
2.018750e-11,6.512500e-02
2.418750e-11,6.870313e-02
2.818750e-11,7.262500e-02
3.218750e-11,7.668750e-02
3.618750e-11,8.090625e-02
4.018750e-11,8.523438e-02
4.418750e-11,9.000000e-02
4.818750e-11,9.439063e-02
5.218750e-11,9.903125e-02
5.618750e-11,1.038906e-01
6.018750e-11,1.090469e-01
6.418750e-11,1.138125e-01
6.818750e-11,1.188281e-01
7.218750e-11,1.238906e-01
7.618750e-11,1.290000e-01
8.018750e-11,1.341250e-01
8.418750e-11,1.395469e-01
8.818750e-11,1.445000e-01
9.218750e-11,1.495625e-01
9.618750e-11,1.546875e-01
1.001875e-10,1.599688e-01
1.041875e-10,1.647188e-01
1.081875e-10,1.695625e-01
1.121875e-10,1.742969e-01
1.161875e-10,1.789375e-01
1.201875e-10,1.834375e-01
1.241875e-10,1.880781e-01
1.281875e-10,1.920938e-01
1.321875e-10,1.960938e-01
1.361875e-10,2.000156e-01
1.401875e-10,2.039219e-01
1.441875e-10,2.072031e-01
1.481875e-10,2.104531e-01
1.521875e-10,2.135000e-01
1.561875e-10,2.163438e-01
1.601875e-10,2.189375e-01
1.641875e-10,2.215625e-01
1.681875e-10,2.235156e-01
1.721875e-10,2.253750e-01
1.761875e-10,2.270938e-01
1.801875e-10,2.287500e-01
1.841875e-10,2.297344e-01
1.881875e-10,2.306875e-01
1.921875e-10,2.314063e-01
1.961875e-10,2.318906e-01
2.001875e-10,2.321406e-01
2.041875e-10,2.323906e-01
2.081875e-10,2.320000e-01
2.121875e-10,2.315469e-01
2.161875e-10,2.309531e-01
2.201875e-10,2.303281e-01
2.241875e-10,2.290469e-01
2.281875e-10,2.278125e-01
2.321875e-10,2.263750e-01
2.361875e-10,2.247656e-01
2.401875e-10,2.229688e-01
2.441875e-10,2.212188e-01
2.481875e-10,2.188906e-01
2.521875e-10,2.165625e-01
2.561875e-10,2.141875e-01
2.601875e-10,2.118438e-01
2.641875e-10,2.089063e-01
2.681875e-10,2.061250e-01
2.721875e-10,2.032031e-01
2.761875e-10,2.002188e-01
2.801875e-10,1.971250e-01
2.841875e-10,1.941563e-01
2.881875e-10,1.907031e-01
2.921875e-10,1.873438e-01
2.961875e-10,1.840469e-01
3.001875e-10,1.808594e-01
3.041875e-10,1.771719e-01
3.081875e-10,1.737656e-01
3.121875e-10,1.703125e-01
3.161875e-10,1.668750e-01
3.201875e-10,1.634688e-01
3.241875e-10,1.602500e-01
3.281875e-10,1.566094e-01
3.321875e-10,1.532031e-01
3.361875e-10,1.499063e-01
3.401875e-10,1.468125e-01
3.441875e-10,1.432969e-01
3.481875e-10,1.401406e-01
3.521875e-10,1.369844e-01
3.561875e-10,1.339219e-01
3.601875e-10,1.309375e-01
3.641875e-10,1.281875e-01
3.681875e-10,1.250313e-01
3.721875e-10,1.221406e-01
3.761875e-10,1.194063e-01
3.801875e-10,1.168750e-01
3.841875e-10,1.139375e-01
3.881875e-10,1.113281e-01
3.921875e-10,1.087500e-01
3.961875e-10,1.062344e-01
4.001875e-10,1.037813e-01
4.041875e-10,1.015625e-01
4.081875e-10,9.885938e-02
4.121875e-10,9.640625e-02
4.161875e-10,9.409375e-02
4.201875e-10,9.193750e-02
4.241875e-10,8.934375e-02
4.281875e-10,8.701563e-02
4.321875e-10,8.470313e-02
4.361875e-10,8.240625e-02
4.401875e-10,8.012500e-02
4.441875e-10,7.809375e-02
4.481875e-10,7.551563e-02
4.521875e-10,7.318750e-02
4.561875e-10,7.098438e-02
4.601875e-10,6.892188e-02
4.641875e-10,6.642188e-02
4.681875e-10,6.418750e-02
4.721875e-10,6.201563e-02
4.761875e-10,5.985938e-02
4.801875e-10,5.771875e-02
4.841875e-10,5.589063e-02
4.881875e-10,5.354688e-02
4.921875e-10,5.148438e-02
4.961875e-10,4.962500e-02
5.001875e-10,4.795313e-02
5.041875e-10,4.590625e-02
5.081875e-10,4.415625e-02
5.121875e-10,4.254688e-02
5.161875e-10,4.100000e-02
5.201875e-10,3.954688e-02
5.241875e-10,3.843750e-02
5.281875e-10,3.687500e-02
5.321875e-10,3.562500e-02
5.361875e-10,3.465625e-02
5.401875e-10,3.390625e-02
5.441875e-10,3.279688e-02
5.481875e-10,3.200000e-02
5.521875e-10,3.137500e-02
5.561875e-10,3.082813e-02
5.601875e-10,3.032813e-02
5.641875e-10,3.018750e-02
5.681875e-10,2.957813e-02
5.721875e-10,2.921875e-02
5.761875e-10,2.912500e-02
5.801875e-10,2.920313e-02
5.841875e-10,2.884375e-02
5.881875e-10,2.875000e-02
5.921875e-10,2.876563e-02
5.961875e-10,2.876563e-02
6.001875e-10,2.873438e-02
6.041875e-10,2.898438e-02
6.081875e-10,2.865625e-02
6.121875e-10,2.851563e-02
6.161875e-10,2.854688e-02
6.201875e-10,2.868750e-02
6.241875e-10,2.829688e-02
6.281875e-10,2.807813e-02
6.321875e-10,2.789063e-02
6.361875e-10,2.762500e-02
6.401875e-10,2.726563e-02
6.441875e-10,2.712500e-02
6.481875e-10,2.635938e-02
6.521875e-10,2.571875e-02
6.561875e-10,2.523438e-02
6.601875e-10,2.485938e-02
6.641875e-10,2.389063e-02
6.681875e-10,2.310938e-02
6.721875e-10,2.234375e-02
6.761875e-10,2.153125e-02
6.801875e-10,2.060938e-02
6.841875e-10,1.993750e-02
6.881875e-10,1.868750e-02
6.921875e-10,1.759375e-02
6.961875e-10,1.670313e-02
7.001875e-10,1.598438e-02
7.041875e-10,1.468750e-02
7.081875e-10,1.367188e-02
7.121875e-10,1.270313e-02
7.161875e-10,1.175000e-02
7.201875e-10,1.078125e-02
7.241875e-10,1.010938e-02
7.281875e-10,8.921875e-03
7.321875e-10,7.953125e-03
7.361875e-10,7.265625e-03
7.401875e-10,6.796875e-03
7.441875e-10,5.812500e-03
7.481875e-10,5.171875e-03
7.521875e-10,4.625000e-03
7.561875e-10,4.156250e-03
7.601875e-10,3.703125e-03
7.641875e-10,3.625000e-03
7.681875e-10,3.031250e-03
7.721875e-10,2.718750e-03
7.761875e-10,2.687500e-03
7.801875e-10,2.921875e-03
7.841875e-10,2.656250e-03
7.881875e-10,2.750000e-03
7.921875e-10,2.937500e-03
7.961875e-10,3.203125e-03
8.001875e-10,3.484375e-03
8.041875e-10,4.140625e-03
8.081875e-10,4.265625e-03
8.121875e-10,4.656250e-03
8.161875e-10,5.296875e-03
8.201875e-10,6.187500e-03
8.241875e-10,6.531250e-03
8.281875e-10,7.203125e-03
8.321875e-10,7.906250e-03
8.361875e-10,8.656250e-03
8.401875e-10,9.375000e-03
8.441875e-10,1.040625e-02
8.481875e-10,1.085938e-02
8.521875e-10,1.148438e-02
8.561875e-10,1.232813e-02
8.601875e-10,1.332813e-02
8.641875e-10,1.371875e-02
8.681875e-10,1.437500e-02
8.721875e-10,1.500000e-02
8.761875e-10,1.556250e-02
8.801875e-10,1.607813e-02
8.841875e-10,1.681250e-02
8.881875e-10,1.690625e-02
8.921875e-10,1.712500e-02
8.961875e-10,1.748438e-02
9.001875e-10,1.796875e-02
9.041875e-10,1.778125e-02
9.081875e-10,1.781250e-02
9.121875e-10,1.776563e-02
9.161875e-10,1.767188e-02
9.201875e-10,1.746875e-02
9.241875e-10,1.750000e-02
9.281875e-10,1.687500e-02
9.321875e-10,1.639063e-02
9.361875e-10,1.604688e-02
9.401875e-10,1.584375e-02
9.441875e-10,1.500000e-02
9.481875e-10,1.442188e-02
9.521875e-10,1.379688e-02
9.561875e-10,1.317188e-02
9.601875e-10,1.251563e-02
9.641875e-10,1.214063e-02
9.681875e-10,1.117188e-02
9.721875e-10,1.040625e-02
9.761875e-10,9.859375e-03
9.801875e-10,9.531250e-03
9.841875e-10,8.640625e-03
9.881875e-10,8.078125e-03
9.921875e-10,7.546875e-03
9.961875e-10,7.078125e-03
1.000188e-09,6.640625e-03
1.004188e-09,6.562500e-03
1.008188e-09,5.937500e-03
1.012188e-09,5.578125e-03
1.016188e-09,5.468750e-03
1.020187e-09,5.609375e-03
1.024187e-09,5.218750e-03
1.028187e-09,5.171875e-03
1.032187e-09,5.187500e-03
1.036187e-09,5.234375e-03
1.040187e-09,5.328125e-03
1.044187e-09,5.765625e-03
1.048187e-09,5.625000e-03
1.052187e-09,5.718750e-03
1.056188e-09,6.046875e-03
1.060188e-09,6.578125e-03
1.064188e-09,6.531250e-03
1.068188e-09,6.781250e-03
1.072188e-09,7.031250e-03
1.076188e-09,7.265625e-03
1.080187e-09,7.500000e-03
1.084187e-09,8.000000e-03
1.088187e-09,7.906250e-03
1.092187e-09,7.968750e-03
1.096187e-09,8.218750e-03
1.100187e-09,8.640625e-03
1.104187e-09,8.437500e-03
1.108187e-09,8.500000e-03
1.112187e-09,8.546875e-03
1.116187e-09,8.546875e-03
1.120188e-09,8.546875e-03
1.124188e-09,8.812500e-03
1.128188e-09,8.453125e-03
1.132188e-09,8.281250e-03
1.136188e-09,8.312500e-03
1.140187e-09,8.531250e-03
1.144187e-09,8.140625e-03
1.148187e-09,8.062500e-03
1.152187e-09,7.968750e-03
1.156187e-09,7.906250e-03
1.160187e-09,7.859375e-03
1.164187e-09,8.125000e-03
1.168187e-09,7.812500e-03
1.172187e-09,7.734375e-03
1.176187e-09,7.859375e-03
1.180188e-09,8.234375e-03
1.184188e-09,8.031250e-03
1.188188e-09,8.156250e-03
1.192188e-09,8.296875e-03
1.196188e-09,8.484375e-03
1.200187e-09,8.687500e-03
1.204187e-09,9.203125e-03
1.208187e-09,9.156250e-03
1.212187e-09,9.312500e-03
1.216187e-09,9.671875e-03
1.220187e-09,1.023438e-02
1.224187e-09,1.020313e-02
1.228187e-09,1.045313e-02
1.232187e-09,1.070313e-02
1.236187e-09,1.092188e-02
1.240188e-09,1.112500e-02
1.244188e-09,1.159375e-02
1.248188e-09,1.143750e-02
1.252188e-09,1.143750e-02
1.256188e-09,1.160938e-02
1.260187e-09,1.192188e-02
1.264187e-09,1.159375e-02
1.268187e-09,1.151563e-02
1.272187e-09,1.140625e-02
1.276187e-09,1.123438e-02
1.280187e-09,1.101563e-02
1.284187e-09,1.106250e-02
1.288187e-09,1.046875e-02
1.292187e-09,1.003125e-02
1.296187e-09,9.765625e-03
1.300188e-09,9.687500e-03
1.304188e-09,8.984375e-03
1.308188e-09,8.562500e-03
1.312188e-09,8.140625e-03
1.316188e-09,7.718750e-03
1.320187e-09,7.296875e-03
1.324187e-09,7.203125e-03
1.328187e-09,6.531250e-03
1.332187e-09,6.093750e-03
1.336187e-09,5.875000e-03
1.340187e-09,5.906250e-03
1.344187e-09,5.390625e-03
1.348187e-09,5.218750e-03
1.352187e-09,5.109375e-03
1.356187e-09,5.062500e-03
1.360188e-09,5.062500e-03
1.364188e-09,5.437500e-03
1.368188e-09,5.265625e-03
1.372188e-09,5.375000e-03
1.376188e-09,5.718750e-03
1.380187e-09,6.328125e-03
1.384187e-09,6.406250e-03
1.388187e-09,6.812500e-03
1.392187e-09,7.281250e-03
1.396187e-09,7.781250e-03
1.400187e-09,8.312500e-03
1.404187e-09,9.171875e-03
1.408187e-09,9.453125e-03
1.412187e-09,9.953125e-03
1.416187e-09,1.065625e-02
1.420188e-09,1.156250e-02
1.424188e-09,1.187500e-02
1.428188e-09,1.245313e-02
1.432188e-09,1.301563e-02
1.436188e-09,1.356250e-02
1.440187e-09,1.407813e-02
1.444187e-09,1.485938e-02
1.448187e-09,1.498438e-02
1.452187e-09,1.528125e-02
1.456187e-09,1.571875e-02
1.460187e-09,1.632813e-02
1.464187e-09,1.626563e-02
1.468187e-09,1.646875e-02
1.472187e-09,1.660938e-02
1.476187e-09,1.668750e-02
1.480188e-09,1.673438e-02
1.484188e-09,1.703125e-02
1.488188e-09,1.665625e-02
1.492188e-09,1.645313e-02
1.496188e-09,1.640625e-02
1.500187e-09,1.651563e-02
1.504187e-09,1.598438e-02
1.508187e-09,1.571875e-02
1.512187e-09,1.542188e-02
1.516187e-09,1.509375e-02
1.520187e-09,1.473438e-02
1.524187e-09,1.465625e-02
1.528187e-09,1.396875e-02
1.532187e-09,1.345313e-02
1.536187e-09,1.312500e-02
1.540188e-09,1.298438e-02
1.544188e-09,1.223438e-02
1.548188e-09,1.178125e-02
1.552188e-09,1.132813e-02
1.556188e-09,1.087500e-02
1.560187e-09,1.040625e-02
1.564187e-09,1.025000e-02
1.568187e-09,9.515625e-03
1.572187e-09,8.968750e-03
1.576187e-09,8.640625e-03
1.580187e-09,8.515625e-03
1.584187e-09,7.812500e-03
1.588187e-09,7.421875e-03
1.592187e-09,7.062500e-03
1.596187e-09,6.703125e-03
1.600188e-09,6.375000e-03
1.604188e-09,6.375000e-03
1.608188e-09,5.781250e-03
1.612188e-09,5.437500e-03
1.616188e-09,5.312500e-03
1.620187e-09,5.421875e-03
1.624187e-09,4.953125e-03
1.628187e-09,4.828125e-03
1.632187e-09,4.718750e-03
1.636187e-09,4.671875e-03
1.640187e-09,4.640625e-03
1.644187e-09,4.953125e-03
1.648187e-09,4.687500e-03
1.652187e-09,4.656250e-03
1.656187e-09,4.859375e-03
1.660188e-09,5.296875e-03
1.664188e-09,5.156250e-03
1.668188e-09,5.328125e-03
1.672188e-09,5.531250e-03
1.676188e-09,5.750000e-03
1.680187e-09,6.000000e-03
1.684187e-09,6.531250e-03
1.688187e-09,6.468750e-03
1.692187e-09,6.609375e-03
1.696187e-09,6.953125e-03
1.700187e-09,7.468750e-03
1.704187e-09,7.375000e-03
1.708187e-09,7.562500e-03
1.712187e-09,7.734375e-03
1.716187e-09,7.859375e-03
1.720188e-09,7.953125e-03
1.724188e-09,8.312500e-03
1.728188e-09,8.031250e-03
1.732188e-09,7.890625e-03
1.736188e-09,7.921875e-03
1.740187e-09,8.109375e-03
1.744187e-09,7.640625e-03
1.748187e-09,7.437500e-03
1.752187e-09,7.171875e-03
