Measurements-streak-laser/Photodiode-on-Tek-6GHz/Tek000_ch1_20190613132808552.csv

Model,MSO64
Waveform Type,ANALOG
Horizontal Units,s
Sample Interval,4.000000e-12
Record Length,1000
Zero Index,310.664062
Vertical Units,V

TIME,CH1
-1.242656e-09,2.656250e-03
-1.238656e-09,3.078125e-03
-1.234656e-09,3.703125e-03
-1.230656e-09,3.703125e-03
-1.226656e-09,4.015625e-03
-1.222656e-09,4.296875e-03
-1.218656e-09,4.578125e-03
-1.214656e-09,4.828125e-03
-1.210656e-09,5.343750e-03
-1.206656e-09,5.218750e-03
-1.202656e-09,5.265625e-03
-1.198656e-09,5.468750e-03
-1.194656e-09,5.843750e-03
-1.190656e-09,5.546875e-03
-1.186656e-09,5.515625e-03
-1.182656e-09,5.453125e-03
-1.178656e-09,5.328125e-03
-1.174656e-09,5.171875e-03
-1.170656e-09,5.265625e-03
-1.166656e-09,4.718750e-03
-1.162656e-09,4.343750e-03
-1.158656e-09,4.140625e-03
-1.154656e-09,4.109375e-03
-1.150656e-09,3.453125e-03
-1.146656e-09,3.078125e-03
-1.142656e-09,2.687500e-03
-1.138656e-09,2.296875e-03
-1.134656e-09,1.906250e-03
-1.130656e-09,1.828125e-03
-1.126656e-09,1.156250e-03
-1.122656e-09,6.875000e-04
-1.118656e-09,4.531250e-04
-1.114656e-09,4.531250e-04
-1.110656e-09,-1.250000e-04
-1.106656e-09,-3.750000e-04
-1.102656e-09,-5.781250e-04
-1.098656e-09,-7.500000e-04
-1.094656e-09,-8.750000e-04
-1.090656e-09,-6.562500e-04
-1.086656e-09,-1.000000e-03
-1.082656e-09,-1.078125e-03
-1.078656e-09,-9.218750e-04
-1.074656e-09,-5.156250e-04
-1.070656e-09,-6.875000e-04
-1.066656e-09,-5.000000e-04
-1.062656e-09,-2.812500e-04
-1.058656e-09,-1.562500e-05
-1.054656e-09,2.812500e-04
-1.050656e-09,9.062500e-04
-1.046656e-09,9.375000e-04
-1.042656e-09,1.203125e-03
-1.038656e-09,1.703125e-03
-1.034656e-09,2.406250e-03
-1.030656e-09,2.500000e-03
-1.026656e-09,2.921875e-03
-1.022656e-09,3.343750e-03
-1.018656e-09,3.750000e-03
-1.014656e-09,4.156250e-03
-1.010656e-09,4.859375e-03
-1.006656e-09,4.937500e-03
-1.002656e-09,5.203125e-03
-9.986562e-10,5.640625e-03
-9.946562e-10,6.265625e-03
-9.906563e-10,6.265625e-03
-9.866563e-10,6.531250e-03
-9.826563e-10,6.765625e-03
-9.786563e-10,6.984375e-03
-9.746563e-10,7.156250e-03
-9.706563e-10,7.609375e-03
-9.666562e-10,7.421875e-03
-9.626562e-10,7.406250e-03
-9.586562e-10,7.562500e-03
-9.546562e-10,7.890625e-03
-9.506562e-10,7.578125e-03
-9.466562e-10,7.531250e-03
-9.426562e-10,7.468750e-03
-9.386562e-10,7.375000e-03
-9.346563e-10,7.250000e-03
-9.306563e-10,7.406250e-03
-9.266563e-10,6.937500e-03
-9.226562e-10,6.656250e-03
-9.186562e-10,6.562500e-03
-9.146562e-10,6.640625e-03
-9.106562e-10,6.109375e-03
-9.066562e-10,5.859375e-03
-9.026563e-10,5.609375e-03
-8.986563e-10,5.359375e-03
-8.946562e-10,5.093750e-03
-8.906562e-10,5.140625e-03
-8.866562e-10,4.578125e-03
-8.826562e-10,4.218750e-03
-8.786562e-10,4.062500e-03
-8.746563e-10,4.125000e-03
-8.706563e-10,3.593750e-03
-8.666563e-10,3.359375e-03
-8.626562e-10,3.156250e-03
-8.586562e-10,2.953125e-03
-8.546562e-10,2.781250e-03
-8.506562e-10,2.906250e-03
-8.466562e-10,2.468750e-03
-8.426563e-10,2.234375e-03
-8.386563e-10,2.234375e-03
-8.346562e-10,2.453125e-03
-8.306562e-10,2.078125e-03
-8.266562e-10,2.031250e-03
-8.226562e-10,2.000000e-03
-8.186562e-10,2.000000e-03
-8.146563e-10,2.015625e-03
-8.106563e-10,2.343750e-03
-8.066563e-10,2.078125e-03
-8.026562e-10,2.046875e-03
-7.986562e-10,2.218750e-03
-7.946562e-10,2.609375e-03
-7.906562e-10,2.406250e-03
-7.866562e-10,2.515625e-03
-7.826563e-10,2.640625e-03
-7.786563e-10,2.750000e-03
-7.746563e-10,2.875000e-03
-7.706562e-10,3.312500e-03
-7.666562e-10,3.125000e-03
-7.626562e-10,3.140625e-03
-7.586562e-10,3.359375e-03
-7.546563e-10,3.765625e-03
-7.506563e-10,3.562500e-03
-7.466563e-10,3.656250e-03
-7.426562e-10,3.718750e-03
-7.386562e-10,3.781250e-03
-7.346562e-10,3.843750e-03
-7.306562e-10,4.171875e-03
-7.266562e-10,3.875000e-03
-7.226563e-10,3.781250e-03
-7.186563e-10,3.859375e-03
-7.146563e-10,4.140625e-03
-7.106562e-10,3.781250e-03
-7.066562e-10,3.718750e-03
-7.026562e-10,3.625000e-03
-6.986562e-10,3.531250e-03
-6.946563e-10,3.421875e-03
-6.906563e-10,3.609375e-03
-6.866563e-10,3.171875e-03
-6.826562e-10,2.937500e-03
-6.786562e-10,2.890625e-03
-6.746562e-10,3.046875e-03
-6.706562e-10,2.593750e-03
-6.666562e-10,2.453125e-03
-6.626563e-10,2.312500e-03
-6.586563e-10,2.171875e-03
-6.546563e-10,2.031250e-03
-6.506562e-10,2.218750e-03
-6.466562e-10,1.812500e-03
-6.426562e-10,1.625000e-03
-6.386562e-10,1.656250e-03
-6.346563e-10,1.906250e-03
-6.306563e-10,1.562500e-03
-6.266563e-10,1.562500e-03
-6.226562e-10,1.562500e-03
-6.186562e-10,1.609375e-03
-6.146562e-10,1.671875e-03
-6.106562e-10,2.062500e-03
-6.066562e-10,1.859375e-03
-6.026563e-10,1.906250e-03
-5.986563e-10,2.156250e-03
-5.946563e-10,2.640625e-03
-5.906562e-10,2.546875e-03
-5.866562e-10,2.765625e-03
-5.826562e-10,3.000000e-03
-5.786562e-10,3.234375e-03
-5.746563e-10,3.500000e-03
-5.706563e-10,4.062500e-03
-5.666563e-10,4.015625e-03
-5.626562e-10,4.171875e-03
-5.586562e-10,4.531250e-03
-5.546562e-10,5.078125e-03
-5.506562e-10,5.000000e-03
-5.466562e-10,5.203125e-03
-5.426563e-10,5.375000e-03
-5.386563e-10,5.531250e-03
-5.346563e-10,5.656250e-03
-5.306562e-10,6.046875e-03
-5.266562e-10,5.796875e-03
-5.226562e-10,5.703125e-03
-5.186562e-10,5.781250e-03
-5.146563e-10,6.015625e-03
-5.106563e-10,5.593750e-03
-5.066563e-10,5.437500e-03
-5.026562e-10,5.218750e-03
-4.986562e-10,4.984375e-03
-4.946562e-10,4.703125e-03
-4.906562e-10,4.687500e-03
-4.866562e-10,4.031250e-03
-4.826563e-10,3.546875e-03
-4.786563e-10,3.250000e-03
-4.746563e-10,3.125000e-03
-4.706562e-10,2.406250e-03
-4.666562e-10,1.968750e-03
-4.626562e-10,1.515625e-03
-4.586562e-10,1.078125e-03
-4.546563e-10,6.562500e-04
-4.506562e-10,5.625000e-04
-4.466562e-10,-1.250000e-04
-4.426562e-10,-5.625000e-04
-4.386563e-10,-7.500000e-04
-4.346562e-10,-6.875000e-04
-4.306562e-10,-1.187500e-03
-4.266562e-10,-1.312500e-03
-4.226563e-10,-1.421875e-03
-4.186562e-10,-1.453125e-03
-4.146562e-10,-1.421875e-03
-4.106563e-10,-1.000000e-03
-4.066563e-10,-1.140625e-03
-4.026562e-10,-1.015625e-03
-3.986562e-10,-5.937500e-04
-3.946563e-10,6.250000e-05
-3.906563e-10,2.187500e-04
-3.866562e-10,7.031250e-04
-3.826562e-10,1.187500e-03
-3.786563e-10,1.734375e-03
-3.746562e-10,2.312500e-03
-3.706562e-10,3.234375e-03
-3.666562e-10,3.546875e-03
-3.626563e-10,4.093750e-03
-3.586562e-10,4.843750e-03
-3.546562e-10,5.781250e-03
-3.506563e-10,6.125000e-03
-3.466563e-10,6.750000e-03
-3.426562e-10,7.265625e-03
-3.386562e-10,7.765625e-03
-3.346563e-10,8.234375e-03
-3.306563e-10,8.953125e-03
-3.266562e-10,9.000000e-03
-3.226562e-10,9.187500e-03
-3.186563e-10,9.546875e-03
-3.146562e-10,1.001563e-02
-3.106562e-10,9.859375e-03
-3.066562e-10,9.937500e-03
-3.026563e-10,9.859375e-03
-2.986562e-10,9.734375e-03
-2.946562e-10,9.593750e-03
-2.906563e-10,9.671875e-03
-2.866563e-10,9.109375e-03
-2.826562e-10,8.687500e-03
-2.786562e-10,8.500000e-03
-2.746563e-10,8.421875e-03
-2.706563e-10,7.781250e-03
-2.666562e-10,7.437500e-03
-2.626562e-10,7.000000e-03
-2.586563e-10,6.546875e-03
-2.546562e-10,6.187500e-03
-2.506562e-10,6.093750e-03
-2.466562e-10,5.468750e-03
-2.426563e-10,5.031250e-03
-2.386562e-10,4.906250e-03
-2.346562e-10,4.968750e-03
-2.306563e-10,4.546875e-03
-2.266562e-10,4.453125e-03
-2.226563e-10,4.343750e-03
-2.186562e-10,4.265625e-03
-2.146563e-10,4.328125e-03
-2.106562e-10,4.671875e-03
-2.066563e-10,4.546875e-03
-2.026562e-10,4.609375e-03
-1.986563e-10,4.953125e-03
-1.946562e-10,5.515625e-03
-1.906562e-10,5.531250e-03
-1.866562e-10,5.875000e-03
-1.826562e-10,6.171875e-03
-1.786563e-10,6.453125e-03
-1.746562e-10,6.843750e-03
-1.706563e-10,7.421875e-03
-1.666562e-10,7.515625e-03
-1.626563e-10,7.703125e-03
-1.586562e-10,8.109375e-03
-1.546563e-10,8.671875e-03
-1.506562e-10,8.625000e-03
-1.466563e-10,8.843750e-03
-1.426562e-10,8.953125e-03
-1.386563e-10,9.000000e-03
-1.346562e-10,9.109375e-03
-1.306562e-10,9.375000e-03
-1.266562e-10,9.156250e-03
-1.226562e-10,9.000000e-03
-1.186563e-10,9.015625e-03
-1.146563e-10,9.234375e-03
-1.106563e-10,8.843750e-03
-1.066563e-10,8.734375e-03
-1.026563e-10,8.609375e-03
-9.865625e-11,8.453125e-03
-9.465625e-11,8.437500e-03
-9.065625e-11,8.656250e-03
-8.665625e-11,8.484375e-03
-8.265625e-11,8.500000e-03
-7.865625e-11,8.765625e-03
-7.465625e-11,9.375000e-03
-7.065625e-11,9.500000e-03
-6.665625e-11,1.001563e-02
-6.265625e-11,1.065625e-02
-5.865625e-11,1.143750e-02
-5.465625e-11,1.245313e-02
-5.065625e-11,1.389063e-02
-4.665625e-11,1.507813e-02
-4.265625e-11,1.656250e-02
-3.865625e-11,1.840625e-02
-3.465625e-11,2.073438e-02
-3.065625e-11,2.271875e-02
-2.665625e-11,2.515625e-02
-2.265625e-11,2.784375e-02
-1.865625e-11,3.076563e-02
-1.465625e-11,3.395313e-02
-1.065625e-11,3.765625e-02
-6.656250e-12,4.114063e-02
-2.656250e-12,4.500000e-02
1.343750e-12,4.920313e-02
5.343750e-12,5.387500e-02
9.343750e-12,5.825000e-02
1.334375e-11,6.304688e-02
1.734375e-11,6.804688e-02
2.134375e-11,7.326563e-02
2.534375e-11,7.867188e-02
2.934375e-11,8.456250e-02
3.334375e-11,9.015625e-02
3.734375e-11,9.603125e-02
4.134375e-11,1.021406e-01
4.534375e-11,1.086250e-01
4.934375e-11,1.147500e-01
5.334375e-11,1.211250e-01
5.734375e-11,1.276094e-01
6.134375e-11,1.341875e-01
6.534375e-11,1.408125e-01
6.934375e-11,1.477813e-01
7.334375e-11,1.543438e-01
7.734375e-11,1.610313e-01
8.134375e-11,1.678125e-01
8.534375e-11,1.747656e-01
8.934375e-11,1.812813e-01
9.334375e-11,1.878906e-01
9.734375e-11,1.944531e-01
1.013438e-10,2.009375e-01
1.053438e-10,2.073281e-01
1.093438e-10,2.138906e-01
1.133437e-10,2.199063e-01
1.173437e-10,2.259219e-01
1.213437e-10,2.318438e-01
1.253438e-10,2.377969e-01
1.293437e-10,2.431719e-01
1.333438e-10,2.485000e-01
1.373437e-10,2.536406e-01
1.413438e-10,2.585781e-01
1.453437e-10,2.632656e-01
1.493438e-10,2.679844e-01
1.533437e-10,2.720469e-01
1.573438e-10,2.759844e-01
1.613437e-10,2.797344e-01
1.653438e-10,2.833750e-01
1.693437e-10,2.863594e-01
1.733437e-10,2.892344e-01
1.773437e-10,2.918125e-01
1.813437e-10,2.941250e-01
1.853437e-10,2.961250e-01
1.893437e-10,2.980781e-01
1.933438e-10,2.993594e-01
1.973437e-10,3.004844e-01
2.013438e-10,3.013906e-01
2.053437e-10,3.021719e-01
2.093438e-10,3.022969e-01
2.133437e-10,3.023438e-01
2.173438e-10,3.021250e-01
2.213437e-10,3.016563e-01
2.253438e-10,3.009375e-01
2.293437e-10,3.001563e-01
2.333437e-10,2.988125e-01
2.373437e-10,2.973594e-01
2.413437e-10,2.957656e-01
2.453438e-10,2.941094e-01
2.493437e-10,2.918750e-01
2.533437e-10,2.896875e-01
2.573438e-10,2.873125e-01
2.613438e-10,2.847813e-01
2.653437e-10,2.820938e-01
2.693437e-10,2.794375e-01
2.733438e-10,2.762813e-01
2.773438e-10,2.731563e-01
2.813437e-10,2.699688e-01
2.853437e-10,2.668281e-01
2.893438e-10,2.631563e-01
2.933437e-10,2.596719e-01
2.973437e-10,2.560469e-01
3.013437e-10,2.523750e-01
3.053438e-10,2.486250e-01
3.093437e-10,2.449531e-01
3.133437e-10,2.408438e-01
3.173438e-10,2.368438e-01
3.213438e-10,2.328438e-01
3.253437e-10,2.289375e-01
3.293437e-10,2.245469e-01
3.333438e-10,2.204063e-01
3.373438e-10,2.161719e-01
3.413437e-10,2.119375e-01
3.453437e-10,2.076719e-01
3.493438e-10,2.035313e-01
3.533437e-10,1.989531e-01
3.573437e-10,1.945469e-01
3.613437e-10,1.901875e-01
3.653438e-10,1.859375e-01
3.693437e-10,1.812500e-01
3.733437e-10,1.768594e-01
3.773437e-10,1.724219e-01
3.813438e-10,1.680313e-01
3.853437e-10,1.636563e-01
3.893437e-10,1.594688e-01
3.933438e-10,1.548281e-01
3.973438e-10,1.504531e-01
4.013437e-10,1.461875e-01
4.053437e-10,1.420625e-01
4.093438e-10,1.375781e-01
4.133437e-10,1.334063e-01
4.173437e-10,1.292813e-01
4.213437e-10,1.252344e-01
4.253438e-10,1.212813e-01
4.293437e-10,1.175781e-01
4.333437e-10,1.134531e-01
4.373437e-10,1.096406e-01
4.413438e-10,1.060156e-01
4.453437e-10,1.025625e-01
4.493437e-10,9.881250e-02
4.533438e-10,9.539063e-02
4.573438e-10,9.209375e-02
4.613437e-10,8.890625e-02
4.653437e-10,8.581250e-02
4.693438e-10,8.304688e-02
4.733437e-10,7.985938e-02
4.773437e-10,7.700000e-02
4.813437e-10,7.437500e-02
4.853437e-10,7.193750e-02
4.893437e-10,6.921875e-02
4.933438e-10,6.681250e-02
4.973438e-10,6.456250e-02
5.013438e-10,6.240625e-02
5.053437e-10,6.032813e-02
5.093437e-10,5.859375e-02
5.133437e-10,5.642188e-02
5.173437e-10,5.454688e-02
5.213438e-10,5.293750e-02
5.253438e-10,5.148438e-02
5.293438e-10,4.971875e-02
5.333437e-10,4.823438e-02
5.373437e-10,4.690625e-02
5.413437e-10,4.564063e-02
5.453437e-10,4.440625e-02
5.493437e-10,4.351563e-02
5.533438e-10,4.214063e-02
5.573438e-10,4.103125e-02
5.613438e-10,4.018750e-02
5.653437e-10,3.946875e-02
5.693437e-10,3.839063e-02
5.733437e-10,3.756250e-02
5.773437e-10,3.689063e-02
5.813438e-10,3.621875e-02
5.853438e-10,3.554688e-02
5.893438e-10,3.518750e-02
5.933437e-10,3.431250e-02
5.973437e-10,3.367188e-02
6.013437e-10,3.326563e-02
6.053437e-10,3.298438e-02
6.093437e-10,3.228125e-02
6.133438e-10,3.179688e-02
6.173438e-10,3.143750e-02
6.213438e-10,3.104688e-02
6.253437e-10,3.062500e-02
6.293437e-10,3.046875e-02
6.333437e-10,2.979688e-02
6.373437e-10,2.928125e-02
6.413438e-10,2.901563e-02
6.453438e-10,2.885938e-02
6.493438e-10,2.821875e-02
6.533437e-10,2.778125e-02
6.573437e-10,2.742188e-02
6.613437e-10,2.703125e-02
6.653437e-10,2.656250e-02
6.693437e-10,2.637500e-02
6.733438e-10,2.560938e-02
6.773438e-10,2.501563e-02
6.813438e-10,2.462500e-02
6.853437e-10,2.437500e-02
6.893437e-10,2.359375e-02
6.933437e-10,2.301563e-02
6.973437e-10,2.251563e-02
7.013438e-10,2.198438e-02
7.053438e-10,2.135938e-02
7.093438e-10,2.101563e-02
7.133437e-10,2.012500e-02
7.173437e-10,1.939063e-02
7.213437e-10,1.887500e-02
7.253437e-10,1.853125e-02
7.293437e-10,1.764063e-02
7.333438e-10,1.701563e-02
7.373438e-10,1.645313e-02
7.413438e-10,1.589063e-02
7.453437e-10,1.528125e-02
7.493437e-10,1.496875e-02
7.533437e-10,1.412500e-02
7.573437e-10,1.346875e-02
7.613437e-10,1.307813e-02
7.653438e-10,1.290625e-02
7.693438e-10,1.217188e-02
7.733437e-10,1.176563e-02
7.773437e-10,1.142188e-02
7.813437e-10,1.112500e-02
7.853437e-10,1.079688e-02
7.893437e-10,1.081250e-02
7.933438e-10,1.029688e-02
7.973438e-10,1.000000e-02
8.013438e-10,9.984375e-03
8.053437e-10,1.018750e-02
8.093437e-10,9.843750e-03
8.133437e-10,9.828125e-03
8.173437e-10,9.875000e-03
8.213437e-10,9.968750e-03
8.253438e-10,1.004688e-02
8.293438e-10,1.043750e-02
8.333437e-10,1.028125e-02
8.373437e-10,1.034375e-02
8.413437e-10,1.064063e-02
8.453437e-10,1.115625e-02
8.493437e-10,1.109375e-02
8.533438e-10,1.131250e-02
8.573438e-10,1.156250e-02
8.613438e-10,1.182813e-02
8.653437e-10,1.204688e-02
8.693437e-10,1.254688e-02
8.733437e-10,1.245313e-02
8.773437e-10,1.254688e-02
8.813437e-10,1.282813e-02
8.853438e-10,1.329688e-02
8.893438e-10,1.312500e-02
8.933437e-10,1.325000e-02
8.973437e-10,1.332813e-02
9.013437e-10,1.340625e-02
9.053437e-10,1.340625e-02
9.093437e-10,1.368750e-02
9.133438e-10,1.334375e-02
9.173438e-10,1.315625e-02
9.213438e-10,1.315625e-02
9.253437e-10,1.331250e-02
9.293437e-10,1.285938e-02
9.333437e-10,1.267188e-02
9.373437e-10,1.245313e-02
9.413437e-10,1.223438e-02
9.453437e-10,1.196875e-02
9.493437e-10,1.200000e-02
9.533437e-10,1.140625e-02
9.573438e-10,1.101563e-02
9.613438e-10,1.082813e-02
9.653438e-10,1.082813e-02
9.693438e-10,1.025000e-02
9.733438e-10,9.968750e-03
9.773438e-10,9.703125e-03
9.813438e-10,9.437500e-03
9.853437e-10,9.187500e-03
9.893437e-10,9.265625e-03
9.933437e-10,8.765625e-03
9.973437e-10,8.484375e-03
1.001344e-09,8.437500e-03
1.005344e-09,8.609375e-03
1.009344e-09,8.218750e-03
1.013344e-09,8.156250e-03
1.017344e-09,8.140625e-03
1.021344e-09,8.140625e-03
1.025344e-09,8.156250e-03
1.029344e-09,8.515625e-03
1.033344e-09,8.296875e-03
1.037344e-09,8.296875e-03
1.041344e-09,8.531250e-03
1.045344e-09,8.984375e-03
1.049344e-09,8.843750e-03
1.053344e-09,9.031250e-03
1.057344e-09,9.234375e-03
1.061344e-09,9.437500e-03
1.065344e-09,9.640625e-03
1.069344e-09,1.014063e-02
1.073344e-09,1.004688e-02
1.077344e-09,1.014063e-02
1.081344e-09,1.042188e-02
1.085344e-09,1.090625e-02
1.089344e-09,1.075000e-02
1.093344e-09,1.089063e-02
1.097344e-09,1.101563e-02
1.101344e-09,1.110938e-02
1.105344e-09,1.117188e-02
1.109344e-09,1.150000e-02
1.113344e-09,1.120313e-02
1.117344e-09,1.107813e-02
1.121344e-09,1.110938e-02
1.125344e-09,1.132813e-02
1.129344e-09,1.090625e-02
1.133344e-09,1.075000e-02
1.137344e-09,1.056250e-02
1.141344e-09,1.035938e-02
1.145344e-09,1.012500e-02
1.149344e-09,1.015625e-02
1.153344e-09,9.578125e-03
1.157344e-09,9.187500e-03
1.161344e-09,8.968750e-03
1.165344e-09,8.937500e-03
1.169344e-09,8.312500e-03
1.173344e-09,7.968750e-03
1.177344e-09,7.640625e-03
1.181344e-09,7.296875e-03
1.185344e-09,6.968750e-03
1.189344e-09,6.953125e-03
1.193344e-09,6.359375e-03
1.197344e-09,5.968750e-03
1.201344e-09,5.812500e-03
1.205344e-09,5.875000e-03
1.209344e-09,5.375000e-03
1.213344e-09,5.187500e-03
1.217344e-09,5.031250e-03
1.221344e-09,4.921875e-03
1.225344e-09,4.843750e-03
1.229344e-09,5.093750e-03
1.233344e-09,4.781250e-03
1.237344e-09,4.703125e-03
1.241344e-09,4.859375e-03
1.245344e-09,5.250000e-03
1.249344e-09,5.062500e-03
1.253344e-09,5.218750e-03
1.257344e-09,5.406250e-03
1.261344e-09,5.609375e-03
1.265344e-09,5.843750e-03
1.269344e-09,6.406250e-03
1.273344e-09,6.375000e-03
1.277344e-09,6.578125e-03
1.281344e-09,6.984375e-03
1.285344e-09,7.609375e-03
1.289344e-09,7.640625e-03
1.293344e-09,7.984375e-03
1.297344e-09,8.312500e-03
1.301344e-09,8.656250e-03
1.305344e-09,9.000000e-03
1.309344e-09,9.640625e-03
1.313344e-09,9.671875e-03
1.317344e-09,9.906250e-03
1.321344e-09,1.032813e-02
1.325344e-09,1.093750e-02
1.329344e-09,1.093750e-02
1.333344e-09,1.121875e-02
1.337344e-09,1.150000e-02
1.341344e-09,1.175000e-02
1.345344e-09,1.200000e-02
1.349344e-09,1.253125e-02
1.353344e-09,1.245313e-02
1.357344e-09,1.256250e-02
1.361344e-09,1.284375e-02
1.365344e-09,1.332813e-02
1.369344e-09,1.318750e-02
1.373344e-09,1.332813e-02
1.377344e-09,1.346875e-02
1.381344e-09,1.357813e-02
1.385344e-09,1.367188e-02
1.389344e-09,1.406250e-02
1.393344e-09,1.382813e-02
1.397344e-09,1.378125e-02
1.401344e-09,1.390625e-02
1.405344e-09,1.421875e-02
1.409344e-09,1.392188e-02
1.413344e-09,1.389063e-02
1.417344e-09,1.385938e-02
1.421344e-09,1.379688e-02
1.425344e-09,1.370313e-02
1.429344e-09,1.390625e-02
1.433344e-09,1.348438e-02
1.437344e-09,1.325000e-02
1.441344e-09,1.318750e-02
1.445344e-09,1.329688e-02
1.449344e-09,1.279688e-02
1.453344e-09,1.257813e-02
1.457344e-09,1.234375e-02
1.461344e-09,1.209375e-02
1.465344e-09,1.182813e-02
1.469344e-09,1.184375e-02
1.473344e-09,1.126563e-02
1.477344e-09,1.087500e-02
1.481344e-09,1.067188e-02
1.485344e-09,1.068750e-02
1.489344e-09,1.009375e-02
1.493344e-09,9.796875e-03
1.497344e-09,9.531250e-03
1.501344e-09,9.265625e-03
1.505344e-09,9.015625e-03
1.509344e-09,9.078125e-03
1.513344e-09,8.562500e-03
1.517344e-09,8.281250e-03
1.521344e-09,8.203125e-03
1.525344e-09,8.375000e-03
1.529344e-09,7.968750e-03
1.533344e-09,7.890625e-03
1.537344e-09,7.828125e-03
1.541344e-09,7.812500e-03
1.545344e-09,7.828125e-03
1.549344e-09,8.156250e-03
1.553344e-09,7.921875e-03
1.557344e-09,7.906250e-03
1.561344e-09,8.093750e-03
1.565344e-09,8.515625e-03
1.569344e-09,8.343750e-03
1.573344e-09,8.484375e-03
1.577344e-09,8.625000e-03
1.581344e-09,8.750000e-03
1.585344e-09,8.890625e-03
1.589344e-09,9.312500e-03
1.593344e-09,9.093750e-03
1.597344e-09,9.078125e-03
1.601344e-09,9.234375e-03
1.605344e-09,9.562500e-03
1.609344e-09,9.250000e-03
1.613344e-09,9.203125e-03
1.617344e-09,9.109375e-03
1.621344e-09,8.984375e-03
1.625344e-09,8.828125e-03
1.629344e-09,8.921875e-03
1.633344e-09,8.359375e-03
1.637344e-09,7.968750e-03
1.641344e-09,7.734375e-03
1.645344e-09,7.671875e-03
1.649344e-09,6.984375e-03
1.653344e-09,6.562500e-03
1.657344e-09,6.125000e-03
1.661344e-09,5.656250e-03
1.665344e-09,5.203125e-03
1.669344e-09,5.031250e-03
1.673344e-09,4.265625e-03
1.677344e-09,3.718750e-03
1.681344e-09,3.390625e-03
1.685344e-09,3.281250e-03
1.689344e-09,2.609375e-03
1.693344e-09,2.281250e-03
1.697344e-09,1.984375e-03
1.701344e-09,1.750000e-03
1.705344e-09,1.578125e-03
1.709344e-09,1.750000e-03
1.713344e-09,1.375000e-03
1.717344e-09,1.281250e-03
1.721344e-09,1.453125e-03
1.725344e-09,1.875000e-03
1.729344e-09,1.765625e-03
1.733344e-09,2.015625e-03
1.737344e-09,2.328125e-03
1.741344e-09,2.687500e-03
1.745344e-09,3.093750e-03
1.749344e-09,3.828125e-03
1.753344e-09,4.000000e-03
