Measurements-streak-laser/Photodiode-on-Tek-6GHz/Tek000_ch1_20190613132741372.csv

Model,MSO64
Waveform Type,ANALOG
Horizontal Units,s
Sample Interval,4.000000e-12
Record Length,1000
Zero Index,310.406250
Vertical Units,V

TIME,CH1
-1.241625e-09,3.468750e-03
-1.237625e-09,3.281250e-03
-1.233625e-09,2.484375e-03
-1.229625e-09,2.031250e-03
-1.225625e-09,1.593750e-03
-1.221625e-09,1.203125e-03
-1.217625e-09,8.437500e-04
-1.213625e-09,8.437500e-04
-1.209625e-09,2.656250e-04
-1.205625e-09,-3.125000e-05
-1.201625e-09,-7.812500e-05
-1.197625e-09,1.406250e-04
-1.193625e-09,-1.875000e-04
-1.189625e-09,-1.562500e-04
-1.185625e-09,-6.250000e-05
-1.181625e-09,1.093750e-04
-1.177625e-09,3.281250e-04
-1.173625e-09,9.062500e-04
-1.169625e-09,9.218750e-04
-1.165625e-09,1.203125e-03
-1.161625e-09,1.718750e-03
-1.157625e-09,2.468750e-03
-1.153625e-09,2.640625e-03
-1.149625e-09,3.140625e-03
-1.145625e-09,3.640625e-03
-1.141625e-09,4.171875e-03
-1.137625e-09,4.687500e-03
-1.133625e-09,5.500000e-03
-1.129625e-09,5.687500e-03
-1.125625e-09,6.078125e-03
-1.121625e-09,6.625000e-03
-1.117625e-09,7.343750e-03
-1.113625e-09,7.421875e-03
-1.109625e-09,7.765625e-03
-1.105625e-09,8.062500e-03
-1.101625e-09,8.296875e-03
-1.097625e-09,8.500000e-03
-1.093625e-09,8.937500e-03
-1.089625e-09,8.718750e-03
-1.085625e-09,8.656250e-03
-1.081625e-09,8.750000e-03
-1.077625e-09,8.984375e-03
-1.073625e-09,8.562500e-03
-1.069625e-09,8.406250e-03
-1.065625e-09,8.203125e-03
-1.061625e-09,7.953125e-03
-1.057625e-09,7.671875e-03
-1.053625e-09,7.671875e-03
-1.049625e-09,7.031250e-03
-1.045625e-09,6.578125e-03
-1.041625e-09,6.312500e-03
-1.037625e-09,6.234375e-03
-1.033625e-09,5.546875e-03
-1.029625e-09,5.156250e-03
-1.025625e-09,4.781250e-03
-1.021625e-09,4.390625e-03
-1.017625e-09,4.031250e-03
-1.013625e-09,3.984375e-03
-1.009625e-09,3.343750e-03
-1.005625e-09,2.937500e-03
-1.001625e-09,2.750000e-03
-9.976250e-10,2.796875e-03
-9.936250e-10,2.265625e-03
-9.896250e-10,2.062500e-03
-9.856250e-10,1.890625e-03
-9.816250e-10,1.734375e-03
-9.776250e-10,1.625000e-03
-9.736250e-10,1.843750e-03
-9.696250e-10,1.468750e-03
-9.656250e-10,1.328125e-03
-9.616250e-10,1.421875e-03
-9.576250e-10,1.750000e-03
-9.536250e-10,1.468750e-03
-9.496250e-10,1.531250e-03
-9.456250e-10,1.593750e-03
-9.416250e-10,1.687500e-03
-9.376250e-10,1.781250e-03
-9.336250e-10,2.203125e-03
-9.296250e-10,2.015625e-03
-9.256250e-10,2.031250e-03
-9.216250e-10,2.265625e-03
-9.176250e-10,2.703125e-03
-9.136250e-10,2.515625e-03
-9.096250e-10,2.656250e-03
-9.056250e-10,2.781250e-03
-9.016250e-10,2.890625e-03
-8.976250e-10,3.000000e-03
-8.936250e-10,3.406250e-03
-8.896250e-10,3.187500e-03
-8.856250e-10,3.171875e-03
-8.816250e-10,3.328125e-03
-8.776250e-10,3.687500e-03
-8.736250e-10,3.421875e-03
-8.696250e-10,3.437500e-03
-8.656250e-10,3.453125e-03
-8.616250e-10,3.437500e-03
-8.576250e-10,3.406250e-03
-8.536250e-10,3.656250e-03
-8.496250e-10,3.281250e-03
-8.456250e-10,3.093750e-03
-8.416250e-10,3.093750e-03
-8.376250e-10,3.281250e-03
-8.336250e-10,2.843750e-03
-8.296250e-10,2.687500e-03
-8.256250e-10,2.515625e-03
-8.216250e-10,2.343750e-03
-8.176250e-10,2.156250e-03
-8.136250e-10,2.265625e-03
-8.096250e-10,1.765625e-03
-8.056250e-10,1.468750e-03
-8.016250e-10,1.359375e-03
-7.976250e-10,1.468750e-03
-7.936250e-10,9.843750e-04
-7.896250e-10,7.968750e-04
-7.856250e-10,6.406250e-04
-7.816250e-10,4.843750e-04
-7.776250e-10,3.593750e-04
-7.736250e-10,5.625000e-04
-7.696250e-10,1.875000e-04
-7.656250e-10,3.125000e-05
-7.616250e-10,1.250000e-04
-7.576250e-10,4.375000e-04
-7.536250e-10,2.031250e-04
-7.496250e-10,2.968750e-04
-7.456250e-10,4.218750e-04
-7.416250e-10,5.937500e-04
-7.376250e-10,8.125000e-04
-7.336250e-10,1.375000e-03
-7.296250e-10,1.343750e-03
-7.256250e-10,1.578125e-03
-7.216250e-10,2.031250e-03
-7.176250e-10,2.718750e-03
-7.136250e-10,2.828125e-03
-7.096250e-10,3.265625e-03
-7.056250e-10,3.718750e-03
-7.016250e-10,4.171875e-03
-6.976250e-10,4.640625e-03
-6.936250e-10,5.421875e-03
-6.896250e-10,5.578125e-03
-6.856250e-10,5.937500e-03
-6.816250e-10,6.468750e-03
-6.776250e-10,7.187500e-03
-6.736250e-10,7.265625e-03
-6.696250e-10,7.625000e-03
-6.656250e-10,7.937500e-03
-6.616250e-10,8.187500e-03
-6.576250e-10,8.406250e-03
-6.536250e-10,8.875000e-03
-6.496250e-10,8.687500e-03
-6.456250e-10,8.640625e-03
-6.416250e-10,8.750000e-03
-6.376250e-10,8.984375e-03
-6.336250e-10,8.578125e-03
-6.296250e-10,8.406250e-03
-6.256250e-10,8.187500e-03
-6.216250e-10,7.921875e-03
-6.176250e-10,7.609375e-03
-6.136250e-10,7.562500e-03
-6.096250e-10,6.875000e-03
-6.056250e-10,6.359375e-03
-6.016250e-10,6.031250e-03
-5.976250e-10,5.890625e-03
-5.936250e-10,5.140625e-03
-5.896250e-10,4.703125e-03
-5.856250e-10,4.265625e-03
-5.816250e-10,3.859375e-03
-5.776250e-10,3.468750e-03
-5.736250e-10,3.421875e-03
-5.696250e-10,2.812500e-03
-5.656250e-10,2.437500e-03
-5.616250e-10,2.328125e-03
-5.576250e-10,2.468750e-03
-5.536250e-10,2.062500e-03
-5.496250e-10,2.031250e-03
-5.456250e-10,2.046875e-03
-5.416250e-10,2.140625e-03
-5.376250e-10,2.296875e-03
-5.336250e-10,2.812500e-03
-5.296250e-10,2.781250e-03
-5.256250e-10,3.000000e-03
-5.216250e-10,3.484375e-03
-5.176250e-10,4.218750e-03
-5.136250e-10,4.375000e-03
-5.096250e-10,4.859375e-03
-5.056250e-10,5.375000e-03
-5.016250e-10,5.906250e-03
-4.976250e-10,6.453125e-03
-4.936250e-10,7.296875e-03
-4.896250e-10,7.531250e-03
-4.856250e-10,7.953125e-03
-4.816250e-10,8.546875e-03
-4.776250e-10,9.312500e-03
-4.736250e-10,9.437500e-03
-4.696250e-10,9.828125e-03
-4.656250e-10,1.015625e-02
-4.616250e-10,1.043750e-02
-4.576250e-10,1.067188e-02
-4.536250e-10,1.114063e-02
-4.496250e-10,1.093750e-02
-4.456250e-10,1.089063e-02
-4.416250e-10,1.098438e-02
-4.376250e-10,1.121875e-02
-4.336250e-10,1.081250e-02
-4.296250e-10,1.064063e-02
-4.256250e-10,1.040625e-02
-4.216250e-10,1.014063e-02
-4.176250e-10,9.828125e-03
-4.136250e-10,9.812500e-03
-4.096250e-10,9.156250e-03
-4.056250e-10,8.687500e-03
-4.016250e-10,8.421875e-03
-3.976250e-10,8.359375e-03
-3.936250e-10,7.703125e-03
-3.896250e-10,7.375000e-03
-3.856250e-10,7.015625e-03
-3.816250e-10,6.703125e-03
-3.776250e-10,6.437500e-03
-3.736250e-10,6.500000e-03
-3.696250e-10,6.000000e-03
-3.656250e-10,5.765625e-03
-3.616250e-10,5.781250e-03
-3.576250e-10,6.046875e-03
-3.536250e-10,5.781250e-03
-3.496250e-10,5.875000e-03
-3.456250e-10,5.953125e-03
-3.416250e-10,6.109375e-03
-3.376250e-10,6.312500e-03
-3.336250e-10,6.859375e-03
-3.296250e-10,6.843750e-03
-3.256250e-10,7.062500e-03
-3.216250e-10,7.531250e-03
-3.176250e-10,8.203125e-03
-3.136250e-10,8.343750e-03
-3.096250e-10,8.765625e-03
-3.056250e-10,9.140625e-03
-3.016250e-10,9.515625e-03
-2.976250e-10,9.906250e-03
-2.936250e-10,1.057813e-02
-2.896250e-10,1.062500e-02
-2.856250e-10,1.082813e-02
-2.816250e-10,1.126563e-02
-2.776250e-10,1.181250e-02
-2.736250e-10,1.178125e-02
-2.696250e-10,1.198438e-02
-2.656250e-10,1.209375e-02
-2.616250e-10,1.212500e-02
-2.576250e-10,1.218750e-02
-2.536250e-10,1.245313e-02
-2.496250e-10,1.209375e-02
-2.456250e-10,1.187500e-02
-2.416250e-10,1.185938e-02
-2.376250e-10,1.196875e-02
-2.336250e-10,1.148438e-02
-2.296250e-10,1.125000e-02
-2.256250e-10,1.092188e-02
-2.216250e-10,1.053125e-02
-2.176250e-10,1.021875e-02
-2.136250e-10,1.010938e-02
-2.096250e-10,9.453125e-03
-2.056250e-10,8.937500e-03
-2.016250e-10,8.656250e-03
-1.976250e-10,8.531250e-03
-1.936250e-10,7.859375e-03
-1.896250e-10,7.484375e-03
-1.856250e-10,7.046875e-03
-1.816250e-10,6.593750e-03
-1.776250e-10,6.250000e-03
-1.736250e-10,6.125000e-03
-1.696250e-10,5.546875e-03
-1.656250e-10,5.093750e-03
-1.616250e-10,4.906250e-03
-1.576250e-10,4.921875e-03
-1.536250e-10,4.390625e-03
-1.496250e-10,4.203125e-03
-1.456250e-10,3.968750e-03
-1.416250e-10,3.734375e-03
-1.376250e-10,3.656250e-03
-1.336250e-10,3.796875e-03
-1.296250e-10,3.531250e-03
-1.256250e-10,3.390625e-03
-1.216250e-10,3.531250e-03
-1.176250e-10,3.906250e-03
-1.136250e-10,3.750000e-03
-1.096250e-10,3.953125e-03
-1.056250e-10,4.171875e-03
-1.016250e-10,4.406250e-03
-9.762500e-11,4.828125e-03
-9.362500e-11,5.515625e-03
-8.962500e-11,5.828125e-03
-8.562500e-11,6.328125e-03
-8.162500e-11,7.125000e-03
-7.762500e-11,8.218750e-03
-7.362500e-11,8.828125e-03
-6.962500e-11,9.812500e-03
-6.562500e-11,1.089063e-02
-6.162500e-11,1.206250e-02
-5.762500e-11,1.343750e-02
-5.362500e-11,1.514063e-02
-4.962500e-11,1.654688e-02
-4.562500e-11,1.817188e-02
-4.162500e-11,2.010938e-02
-3.762500e-11,2.240625e-02
-3.362500e-11,2.428125e-02
-2.962500e-11,2.654688e-02
-2.562500e-11,2.893750e-02
-2.162500e-11,3.146875e-02
-1.762500e-11,3.418750e-02
-1.362500e-11,3.729688e-02
-9.625000e-12,4.009375e-02
-5.625000e-12,4.315625e-02
-1.625000e-12,4.648438e-02
2.375000e-12,5.018750e-02
6.375000e-12,5.350000e-02
1.037500e-11,5.714063e-02
1.437500e-11,6.092188e-02
1.837500e-11,6.482813e-02
2.237500e-11,6.887500e-02
2.637500e-11,7.332813e-02
3.037500e-11,7.743750e-02
3.437500e-11,8.178125e-02
3.837500e-11,8.634375e-02
4.237500e-11,9.125000e-02
4.637500e-11,9.576563e-02
5.037500e-11,1.005469e-01
5.437500e-11,1.054375e-01
5.837500e-11,1.104531e-01
6.237500e-11,1.155313e-01
6.637500e-11,1.209844e-01
7.037500e-11,1.260938e-01
7.437500e-11,1.313750e-01
7.837500e-11,1.368438e-01
8.237500e-11,1.425781e-01
8.637500e-11,1.479375e-01
9.037500e-11,1.535000e-01
9.437500e-11,1.591250e-01
9.837500e-11,1.647969e-01
1.023750e-10,1.704844e-01
1.063750e-10,1.764844e-01
1.103750e-10,1.820625e-01
1.143750e-10,1.877656e-01
1.183750e-10,1.935469e-01
1.223750e-10,1.995000e-01
1.263750e-10,2.050000e-01
1.303750e-10,2.105938e-01
1.343750e-10,2.161406e-01
1.383750e-10,2.216250e-01
1.423750e-10,2.269844e-01
1.463750e-10,2.325156e-01
1.503750e-10,2.375000e-01
1.543750e-10,2.424844e-01
1.583750e-10,2.473906e-01
1.623750e-10,2.522813e-01
1.663750e-10,2.566094e-01
1.703750e-10,2.609063e-01
1.743750e-10,2.649688e-01
1.783750e-10,2.688438e-01
1.823750e-10,2.724375e-01
1.863750e-10,2.760469e-01
1.903750e-10,2.790000e-01
1.943750e-10,2.818125e-01
1.983750e-10,2.844219e-01
2.023750e-10,2.869063e-01
2.063750e-10,2.887188e-01
2.103750e-10,2.904219e-01
2.143750e-10,2.918281e-01
2.183750e-10,2.929531e-01
2.223750e-10,2.937813e-01
2.263750e-10,2.945156e-01
2.303750e-10,2.946094e-01
2.343750e-10,2.945313e-01
2.383750e-10,2.942500e-01
2.423750e-10,2.938438e-01
2.463750e-10,2.927813e-01
2.503750e-10,2.916719e-01
2.543750e-10,2.902969e-01
2.583750e-10,2.886875e-01
2.623750e-10,2.868438e-01
2.663750e-10,2.849375e-01
2.703750e-10,2.824688e-01
2.743750e-10,2.799375e-01
2.783750e-10,2.772656e-01
2.823750e-10,2.745625e-01
2.863750e-10,2.712500e-01
2.903750e-10,2.680469e-01
2.943750e-10,2.646250e-01
2.983750e-10,2.610938e-01
3.023750e-10,2.574063e-01
3.063750e-10,2.537500e-01
3.103750e-10,2.495938e-01
3.143750e-10,2.455000e-01
3.183750e-10,2.413438e-01
3.223750e-10,2.372344e-01
3.263750e-10,2.326094e-01
3.303750e-10,2.281875e-01
3.343750e-10,2.236406e-01
3.383750e-10,2.190625e-01
3.423750e-10,2.144531e-01
3.463750e-10,2.099375e-01
3.503750e-10,2.049844e-01
3.543750e-10,2.002031e-01
3.583750e-10,1.954688e-01
3.623750e-10,1.908594e-01
3.663750e-10,1.858281e-01
3.703750e-10,1.810938e-01
3.743750e-10,1.763594e-01
3.783750e-10,1.716875e-01
3.823750e-10,1.670625e-01
3.863750e-10,1.626563e-01
3.903750e-10,1.578750e-01
3.943750e-10,1.533906e-01
3.983750e-10,1.490313e-01
4.023750e-10,1.449063e-01
4.063750e-10,1.404531e-01
4.103750e-10,1.363906e-01
4.143750e-10,1.323906e-01
4.183750e-10,1.285313e-01
4.223750e-10,1.248125e-01
4.263750e-10,1.213906e-01
4.303750e-10,1.175938e-01
4.343750e-10,1.141563e-01
4.383750e-10,1.109219e-01
4.423750e-10,1.079219e-01
4.463750e-10,1.046094e-01
4.503750e-10,1.016719e-01
4.543750e-10,9.884375e-02
4.583750e-10,9.614063e-02
4.623750e-10,9.353125e-02
4.663750e-10,9.123438e-02
4.703750e-10,8.848438e-02
4.743750e-10,8.606250e-02
4.783750e-10,8.381250e-02
4.823750e-10,8.173438e-02
4.863750e-10,7.931250e-02
4.903750e-10,7.718750e-02
4.943750e-10,7.512500e-02
4.983750e-10,7.312500e-02
5.023750e-10,7.115625e-02
5.063750e-10,6.945313e-02
5.103750e-10,6.725000e-02
5.143750e-10,6.531250e-02
5.183750e-10,6.356250e-02
5.223750e-10,6.192188e-02
5.263750e-10,5.992188e-02
5.303750e-10,5.815625e-02
5.343750e-10,5.651563e-02
5.383750e-10,5.489063e-02
5.423750e-10,5.329688e-02
5.463750e-10,5.201563e-02
5.503750e-10,5.023438e-02
5.543750e-10,4.871875e-02
5.583750e-10,4.745313e-02
5.623750e-10,4.632813e-02
5.663750e-10,4.487500e-02
5.703750e-10,4.367188e-02
5.743750e-10,4.265625e-02
5.783750e-10,4.167188e-02
5.823750e-10,4.073438e-02
5.863750e-10,4.014063e-02
5.903750e-10,3.906250e-02
5.943750e-10,3.826563e-02
5.983750e-10,3.773438e-02
6.023750e-10,3.737500e-02
6.063750e-10,3.662500e-02
6.103750e-10,3.612500e-02
6.143750e-10,3.578125e-02
6.183750e-10,3.542188e-02
6.223750e-10,3.504688e-02
6.263750e-10,3.498438e-02
6.303750e-10,3.437500e-02
6.343750e-10,3.393750e-02
6.383750e-10,3.371875e-02
6.423750e-10,3.360938e-02
6.463750e-10,3.298438e-02
6.503750e-10,3.253125e-02
6.543750e-10,3.215625e-02
6.583750e-10,3.168750e-02
6.623750e-10,3.109375e-02
6.663750e-10,3.073438e-02
6.703750e-10,2.976563e-02
6.743750e-10,2.889063e-02
6.783750e-10,2.820313e-02
6.823750e-10,2.757813e-02
6.863750e-10,2.639063e-02
6.903750e-10,2.537500e-02
6.943750e-10,2.439063e-02
6.983750e-10,2.334375e-02
7.023750e-10,2.218750e-02
7.063750e-10,2.128125e-02
7.103750e-10,1.981250e-02
7.143750e-10,1.851563e-02
7.183750e-10,1.745313e-02
7.223750e-10,1.656250e-02
7.263750e-10,1.514063e-02
7.303750e-10,1.403125e-02
7.343750e-10,1.303125e-02
7.383750e-10,1.206250e-02
7.423750e-10,1.110938e-02
7.463750e-10,1.050000e-02
7.503750e-10,9.437500e-03
7.543750e-10,8.640625e-03
7.583750e-10,8.171875e-03
7.623750e-10,7.968750e-03
7.663750e-10,7.312500e-03
7.703750e-10,7.015625e-03
7.743750e-10,6.875000e-03
7.783750e-10,6.828125e-03
7.823750e-10,6.812500e-03
7.863750e-10,7.156250e-03
7.903750e-10,7.046875e-03
7.943750e-10,7.187500e-03
7.983750e-10,7.625000e-03
8.023750e-10,8.296875e-03
8.063750e-10,8.437500e-03
8.103750e-10,8.890625e-03
8.143750e-10,9.406250e-03
8.183750e-10,9.937500e-03
8.223750e-10,1.040625e-02
8.263750e-10,1.117188e-02
8.303750e-10,1.134375e-02
8.343750e-10,1.168750e-02
8.383750e-10,1.220313e-02
8.423750e-10,1.287500e-02
8.463750e-10,1.290625e-02
8.503750e-10,1.315625e-02
8.543750e-10,1.337500e-02
8.583750e-10,1.354688e-02
8.623750e-10,1.360938e-02
8.663750e-10,1.389063e-02
8.703750e-10,1.354688e-02
8.743750e-10,1.332813e-02
8.783750e-10,1.325000e-02
8.823750e-10,1.332813e-02
8.863750e-10,1.276563e-02
8.903750e-10,1.245313e-02
8.943750e-10,1.212500e-02
8.983750e-10,1.178125e-02
9.023750e-10,1.137500e-02
9.063750e-10,1.128125e-02
9.103750e-10,1.057813e-02
9.143750e-10,1.009375e-02
9.183750e-10,9.812500e-03
9.223750e-10,9.765625e-03
9.263750e-10,9.156250e-03
9.303750e-10,8.875000e-03
9.343750e-10,8.640625e-03
9.383750e-10,8.453125e-03
9.423750e-10,8.296875e-03
9.463750e-10,8.484375e-03
9.503750e-10,8.140625e-03
9.543750e-10,8.046875e-03
9.583750e-10,8.203125e-03
9.623750e-10,8.609375e-03
9.663750e-10,8.484375e-03
9.703750e-10,8.687500e-03
9.743750e-10,8.921875e-03
9.783750e-10,9.218750e-03
9.823750e-10,9.515625e-03
9.863750e-10,1.012500e-02
9.903750e-10,1.017188e-02
9.943750e-10,1.042188e-02
9.983750e-10,1.089063e-02
1.002375e-09,1.154688e-02
1.006375e-09,1.159375e-02
1.010375e-09,1.192188e-02
1.014375e-09,1.223438e-02
1.018375e-09,1.251563e-02
1.022375e-09,1.276563e-02
1.026375e-09,1.328125e-02
1.030375e-09,1.315625e-02
1.034375e-09,1.318750e-02
1.038375e-09,1.339063e-02
1.042375e-09,1.375000e-02
1.046375e-09,1.346875e-02
1.050375e-09,1.343750e-02
1.054375e-09,1.337500e-02
1.058375e-09,1.326563e-02
1.062375e-09,1.310938e-02
1.066375e-09,1.323438e-02
1.070375e-09,1.273438e-02
1.074375e-09,1.240625e-02
1.078375e-09,1.225000e-02
1.082375e-09,1.229688e-02
1.086375e-09,1.171875e-02
1.090375e-09,1.143750e-02
1.094375e-09,1.117188e-02
1.098375e-09,1.090625e-02
1.102375e-09,1.064063e-02
1.106375e-09,1.068750e-02
1.110375e-09,1.015625e-02
1.114375e-09,9.843750e-03
1.118375e-09,9.765625e-03
1.122375e-09,9.906250e-03
1.126375e-09,9.468750e-03
1.130375e-09,9.375000e-03
1.134375e-09,9.312500e-03
1.138375e-09,9.296875e-03
1.142375e-09,9.281250e-03
1.146375e-09,9.609375e-03
1.150375e-09,9.375000e-03
1.154375e-09,9.375000e-03
1.158375e-09,9.593750e-03
1.162375e-09,1.003125e-02
1.166375e-09,9.890625e-03
1.170375e-09,1.007813e-02
1.174375e-09,1.026563e-02
1.178375e-09,1.048438e-02
1.182375e-09,1.070313e-02
1.186375e-09,1.123438e-02
1.190375e-09,1.115625e-02
1.194375e-09,1.128125e-02
1.198375e-09,1.160938e-02
1.202375e-09,1.212500e-02
1.206375e-09,1.203125e-02
1.210375e-09,1.221875e-02
1.214375e-09,1.239063e-02
1.218375e-09,1.256250e-02
1.222375e-09,1.268750e-02
1.226375e-09,1.310938e-02
1.230375e-09,1.290625e-02
1.234375e-09,1.287500e-02
1.238375e-09,1.303125e-02
1.242375e-09,1.334375e-02
1.246375e-09,1.304688e-02
1.250375e-09,1.301563e-02
1.254375e-09,1.296875e-02
1.258375e-09,1.289063e-02
1.262375e-09,1.279688e-02
1.266375e-09,1.296875e-02
1.270375e-09,1.253125e-02
1.274375e-09,1.228125e-02
1.278375e-09,1.220313e-02
1.282375e-09,1.232813e-02
1.286375e-09,1.182813e-02
1.290375e-09,1.160938e-02
1.294375e-09,1.140625e-02
1.298375e-09,1.117188e-02
1.302375e-09,1.095313e-02
1.306375e-09,1.103125e-02
1.310375e-09,1.051563e-02
1.314375e-09,1.020313e-02
1.318375e-09,1.009375e-02
1.322375e-09,1.018750e-02
1.326375e-09,9.703125e-03
1.330375e-09,9.531250e-03
1.334375e-09,9.390625e-03
1.338375e-09,9.250000e-03
1.342375e-09,9.140625e-03
1.346375e-09,9.343750e-03
1.350375e-09,8.984375e-03
1.354375e-09,8.843750e-03
1.358375e-09,8.921875e-03
1.362375e-09,9.218750e-03
1.366375e-09,8.953125e-03
1.370375e-09,9.015625e-03
1.374375e-09,9.078125e-03
1.378375e-09,9.187500e-03
1.382375e-09,9.312500e-03
1.386375e-09,9.750000e-03
1.390375e-09,9.593750e-03
1.394375e-09,9.671875e-03
1.398375e-09,9.937500e-03
1.402375e-09,1.043750e-02
1.406375e-09,1.031250e-02
1.410375e-09,1.050000e-02
1.414375e-09,1.070313e-02
1.418375e-09,1.087500e-02
1.422375e-09,1.104688e-02
1.426375e-09,1.150000e-02
1.430375e-09,1.134375e-02
1.434375e-09,1.135938e-02
1.438375e-09,1.154688e-02
1.442375e-09,1.192188e-02
1.446375e-09,1.165625e-02
1.450375e-09,1.165625e-02
1.454375e-09,1.162500e-02
1.458375e-09,1.154688e-02
1.462375e-09,1.143750e-02
1.466375e-09,1.159375e-02
1.470375e-09,1.110938e-02
1.474375e-09,1.079688e-02
1.478375e-09,1.062500e-02
1.482375e-09,1.064063e-02
1.486375e-09,1.001563e-02
1.490375e-09,9.671875e-03
1.494375e-09,9.296875e-03
1.498375e-09,8.890625e-03
1.502375e-09,8.468750e-03
1.506375e-09,8.343750e-03
1.510375e-09,7.609375e-03
1.514375e-09,7.062500e-03
1.518375e-09,6.734375e-03
1.522375e-09,6.609375e-03
1.526375e-09,5.890625e-03
1.530375e-09,5.484375e-03
1.534375e-09,5.109375e-03
1.538375e-09,4.781250e-03
1.542375e-09,4.453125e-03
1.546375e-09,4.484375e-03
1.550375e-09,3.953125e-03
1.554375e-09,3.671875e-03
1.558375e-09,3.625000e-03
1.562375e-09,3.843750e-03
1.566375e-09,3.500000e-03
1.570375e-09,3.515625e-03
1.574375e-09,3.593750e-03
1.578375e-09,3.703125e-03
1.582375e-09,3.875000e-03
1.586375e-09,4.406250e-03
1.590375e-09,4.359375e-03
1.594375e-09,4.578125e-03
1.598375e-09,5.015625e-03
1.602375e-09,5.703125e-03
1.606375e-09,5.812500e-03
1.610375e-09,6.265625e-03
1.614375e-09,6.718750e-03
1.618375e-09,7.203125e-03
1.622375e-09,7.687500e-03
1.626375e-09,8.484375e-03
1.630375e-09,8.671875e-03
1.634375e-09,9.062500e-03
1.638375e-09,9.640625e-03
1.642375e-09,1.039063e-02
1.646375e-09,1.053125e-02
1.650375e-09,1.093750e-02
1.654375e-09,1.131250e-02
1.658375e-09,1.165625e-02
1.662375e-09,1.195313e-02
1.666375e-09,1.251563e-02
1.670375e-09,1.243750e-02
1.674375e-09,1.250000e-02
1.678375e-09,1.273438e-02
1.682375e-09,1.310938e-02
1.686375e-09,1.284375e-02
1.690375e-09,1.281250e-02
1.694375e-09,1.275000e-02
1.698375e-09,1.265625e-02
1.702375e-09,1.250000e-02
1.706375e-09,1.260938e-02
1.710375e-09,1.207813e-02
1.714375e-09,1.170313e-02
1.718375e-09,1.150000e-02
1.722375e-09,1.146875e-02
1.726375e-09,1.081250e-02
1.730375e-09,1.042188e-02
1.734375e-09,1.003125e-02
1.738375e-09,9.609375e-03
1.742375e-09,9.187500e-03
1.746375e-09,9.046875e-03
1.750375e-09,8.296875e-03
1.754375e-09,7.765625e-03
1.758375e-09,7.421875e-03
