Measurements-streak-laser/Photodiode-on-Tek-6GHz/Tek000_ch1_20190613132703665.csv

Model,MSO64
Waveform Type,ANALOG
Horizontal Units,s
Sample Interval,4.000000e-12
Record Length,1000
Zero Index,310.585938
Vertical Units,V

TIME,CH1
-1.242344e-09,4.281250e-03
-1.238344e-09,4.187500e-03
-1.234344e-09,4.281250e-03
-1.230344e-09,3.765625e-03
-1.226344e-09,3.546875e-03
-1.222344e-09,3.343750e-03
-1.218344e-09,3.125000e-03
-1.214344e-09,2.921875e-03
-1.210344e-09,3.046875e-03
-1.206344e-09,2.546875e-03
-1.202344e-09,2.281250e-03
-1.198344e-09,2.234375e-03
-1.194344e-09,2.390625e-03
-1.190344e-09,1.968750e-03
-1.186344e-09,1.859375e-03
-1.182344e-09,1.765625e-03
-1.178344e-09,1.703125e-03
-1.174344e-09,1.656250e-03
-1.170344e-09,1.921875e-03
-1.166344e-09,1.593750e-03
-1.162344e-09,1.500000e-03
-1.158344e-09,1.609375e-03
-1.154344e-09,1.953125e-03
-1.150344e-09,1.687500e-03
-1.146344e-09,1.734375e-03
-1.142344e-09,1.812500e-03
-1.138344e-09,1.875000e-03
-1.134344e-09,1.968750e-03
-1.130344e-09,2.359375e-03
-1.126344e-09,2.140625e-03
-1.122344e-09,2.140625e-03
-1.118344e-09,2.343750e-03
-1.114344e-09,2.750000e-03
-1.110344e-09,2.546875e-03
-1.106344e-09,2.640625e-03
-1.102344e-09,2.734375e-03
-1.098344e-09,2.843750e-03
-1.094344e-09,2.921875e-03
-1.090344e-09,3.312500e-03
-1.086344e-09,3.093750e-03
-1.082344e-09,3.078125e-03
-1.078344e-09,3.250000e-03
-1.074344e-09,3.625000e-03
-1.070344e-09,3.390625e-03
-1.066344e-09,3.453125e-03
-1.062344e-09,3.500000e-03
-1.058344e-09,3.562500e-03
-1.054344e-09,3.609375e-03
-1.050344e-09,3.953125e-03
-1.046344e-09,3.703125e-03
-1.042344e-09,3.640625e-03
-1.038344e-09,3.765625e-03
-1.034344e-09,4.109375e-03
-1.030344e-09,3.828125e-03
-1.026344e-09,3.859375e-03
-1.022344e-09,3.875000e-03
-1.018344e-09,3.906250e-03
-1.014344e-09,3.921875e-03
-1.010344e-09,4.234375e-03
-1.006344e-09,3.937500e-03
-1.002344e-09,3.843750e-03
-9.983438e-10,3.953125e-03
-9.943438e-10,4.250000e-03
-9.903438e-10,3.953125e-03
-9.863437e-10,3.937500e-03
-9.823437e-10,3.937500e-03
-9.783437e-10,3.921875e-03
-9.743437e-10,3.890625e-03
-9.703437e-10,4.187500e-03
-9.663437e-10,3.859375e-03
-9.623437e-10,3.734375e-03
-9.583437e-10,3.812500e-03
-9.543437e-10,4.093750e-03
-9.503438e-10,3.765625e-03
-9.463438e-10,3.750000e-03
-9.423438e-10,3.734375e-03
-9.383438e-10,3.734375e-03
-9.343438e-10,3.734375e-03
-9.303437e-10,4.062500e-03
-9.263437e-10,3.781250e-03
-9.223437e-10,3.703125e-03
-9.183438e-10,3.859375e-03
-9.143438e-10,4.234375e-03
-9.103437e-10,4.015625e-03
-9.063437e-10,4.109375e-03
-9.023437e-10,4.234375e-03
-8.983437e-10,4.359375e-03
-8.943437e-10,4.531250e-03
-8.903438e-10,5.000000e-03
-8.863438e-10,4.906250e-03
-8.823438e-10,5.015625e-03
-8.783437e-10,5.359375e-03
-8.743437e-10,5.906250e-03
-8.703437e-10,5.875000e-03
-8.663437e-10,6.156250e-03
-8.623437e-10,6.453125e-03
-8.583438e-10,6.750000e-03
-8.543438e-10,7.046875e-03
-8.503437e-10,7.656250e-03
-8.463437e-10,7.656250e-03
-8.423437e-10,7.859375e-03
-8.383437e-10,8.250000e-03
-8.343437e-10,8.828125e-03
-8.303438e-10,8.781250e-03
-8.263438e-10,9.031250e-03
-8.223438e-10,9.250000e-03
-8.183437e-10,9.437500e-03
-8.143437e-10,9.593750e-03
-8.103437e-10,1.001563e-02
-8.063437e-10,9.812500e-03
-8.023437e-10,9.750000e-03
-7.983438e-10,9.875000e-03
-7.943438e-10,1.014063e-02
-7.903437e-10,9.765625e-03
-7.863437e-10,9.656250e-03
-7.823437e-10,9.500000e-03
-7.783437e-10,9.328125e-03
-7.743437e-10,9.093750e-03
-7.703438e-10,9.140625e-03
-7.663438e-10,8.562500e-03
-7.623438e-10,8.140625e-03
-7.583437e-10,7.906250e-03
-7.543437e-10,7.859375e-03
-7.503437e-10,7.187500e-03
-7.463437e-10,6.812500e-03
-7.423437e-10,6.437500e-03
-7.383438e-10,6.078125e-03
-7.343438e-10,5.718750e-03
-7.303437e-10,5.671875e-03
-7.263437e-10,5.046875e-03
-7.223437e-10,4.656250e-03
-7.183437e-10,4.484375e-03
-7.143437e-10,4.562500e-03
-7.103438e-10,4.062500e-03
-7.063438e-10,3.906250e-03
-7.023438e-10,3.796875e-03
-6.983437e-10,3.718750e-03
-6.943437e-10,3.703125e-03
-6.903437e-10,4.031250e-03
-6.863437e-10,3.796875e-03
-6.823437e-10,3.796875e-03
-6.783438e-10,4.046875e-03
-6.743438e-10,4.546875e-03
-6.703437e-10,4.468750e-03
-6.663437e-10,4.718750e-03
-6.623437e-10,4.984375e-03
-6.583437e-10,5.281250e-03
-6.543437e-10,5.593750e-03
-6.503438e-10,6.218750e-03
-6.463438e-10,6.234375e-03
-6.423438e-10,6.453125e-03
-6.383437e-10,6.875000e-03
-6.343437e-10,7.468750e-03
-6.303437e-10,7.453125e-03
-6.263437e-10,7.718750e-03
-6.223437e-10,7.953125e-03
-6.183438e-10,8.156250e-03
-6.143438e-10,8.328125e-03
-6.103437e-10,8.765625e-03
-6.063437e-10,8.562500e-03
-6.023437e-10,8.515625e-03
-5.983437e-10,8.640625e-03
-5.943437e-10,8.937500e-03
-5.903438e-10,8.593750e-03
-5.863438e-10,8.515625e-03
-5.823438e-10,8.406250e-03
-5.783437e-10,8.265625e-03
-5.743437e-10,8.109375e-03
-5.703437e-10,8.218750e-03
-5.663437e-10,7.718750e-03
-5.623438e-10,7.421875e-03
-5.583438e-10,7.296875e-03
-5.543438e-10,7.390625e-03
-5.503437e-10,6.859375e-03
-5.463437e-10,6.656250e-03
-5.423437e-10,6.437500e-03
-5.383437e-10,6.250000e-03
-5.343437e-10,6.078125e-03
-5.303438e-10,6.203125e-03
-5.263438e-10,5.750000e-03
-5.223438e-10,5.531250e-03
-5.183437e-10,5.515625e-03
-5.143437e-10,5.718750e-03
-5.103437e-10,5.343750e-03
-5.063437e-10,5.281250e-03
-5.023438e-10,5.218750e-03
-4.983438e-10,5.187500e-03
-4.943438e-10,5.140625e-03
-4.903437e-10,5.406250e-03
-4.863437e-10,5.062500e-03
-4.823437e-10,4.937500e-03
-4.783437e-10,4.984375e-03
-4.743437e-10,5.234375e-03
-4.703438e-10,4.859375e-03
-4.663438e-10,4.765625e-03
-4.623437e-10,4.640625e-03
-4.583437e-10,4.500000e-03
-4.543438e-10,4.328125e-03
-4.503437e-10,4.437500e-03
-4.463437e-10,3.906250e-03
-4.423438e-10,3.562500e-03
-4.383438e-10,3.406250e-03
-4.343437e-10,3.421875e-03
-4.303437e-10,2.812500e-03
-4.263438e-10,2.484375e-03
-4.223437e-10,2.125000e-03
-4.183437e-10,1.765625e-03
-4.143437e-10,1.390625e-03
-4.103438e-10,1.343750e-03
-4.063437e-10,6.562500e-04
-4.023437e-10,2.187500e-04
-3.983437e-10,5.551115e-17
-3.943438e-10,5.551115e-17
-3.903437e-10,-5.468750e-04
-3.863437e-10,-7.812500e-04
-3.823438e-10,-1.000000e-03
-3.783438e-10,-1.171875e-03
-3.743437e-10,-1.296875e-03
-3.703437e-10,-1.046875e-03
-3.663438e-10,-1.390625e-03
-3.623437e-10,-1.453125e-03
-3.583437e-10,-1.234375e-03
-3.543437e-10,-7.812500e-04
-3.503438e-10,-8.437500e-04
-3.463437e-10,-5.625000e-04
-3.423437e-10,-2.968750e-04
-3.383437e-10,3.125000e-05
-3.343438e-10,4.218750e-04
-3.303437e-10,1.140625e-03
-3.263437e-10,1.281250e-03
-3.223438e-10,1.640625e-03
-3.183438e-10,2.265625e-03
-3.143437e-10,3.078125e-03
-3.103437e-10,3.343750e-03
-3.063438e-10,3.906250e-03
-3.023438e-10,4.375000e-03
-2.983437e-10,4.843750e-03
-2.943437e-10,5.328125e-03
-2.903438e-10,6.078125e-03
-2.863437e-10,6.218750e-03
-2.823437e-10,6.500000e-03
-2.783437e-10,7.015625e-03
-2.743438e-10,7.656250e-03
-2.703437e-10,7.703125e-03
-2.663437e-10,8.031250e-03
-2.623438e-10,8.218750e-03
-2.583438e-10,8.359375e-03
-2.543437e-10,8.546875e-03
-2.503437e-10,8.937500e-03
-2.463438e-10,8.750000e-03
-2.423438e-10,8.687500e-03
-2.383437e-10,8.875000e-03
-2.343437e-10,9.187500e-03
-2.303437e-10,8.921875e-03
-2.263437e-10,8.937500e-03
-2.223437e-10,8.875000e-03
-2.183437e-10,8.734375e-03
-2.143437e-10,8.718750e-03
-2.103438e-10,8.906250e-03
-2.063437e-10,8.562500e-03
-2.023438e-10,8.359375e-03
-1.983437e-10,8.390625e-03
-1.943438e-10,8.593750e-03
-1.903437e-10,8.218750e-03
-1.863438e-10,8.156250e-03
-1.823437e-10,8.000000e-03
-1.783438e-10,7.781250e-03
-1.743437e-10,7.687500e-03
-1.703437e-10,7.765625e-03
-1.663437e-10,7.359375e-03
-1.623437e-10,7.046875e-03
-1.583437e-10,6.953125e-03
-1.543437e-10,7.031250e-03
-1.503438e-10,6.500000e-03
-1.463437e-10,6.250000e-03
-1.423438e-10,5.921875e-03
-1.383437e-10,5.546875e-03
-1.343438e-10,5.265625e-03
-1.303437e-10,5.140625e-03
-1.263438e-10,4.593750e-03
-1.223437e-10,4.109375e-03
-1.183438e-10,3.859375e-03
-1.143437e-10,3.812500e-03
-1.103437e-10,3.203125e-03
-1.063437e-10,2.921875e-03
-1.023437e-10,2.625000e-03
-9.834375e-11,2.343750e-03
-9.434375e-11,2.234375e-03
-9.034375e-11,2.390625e-03
-8.634375e-11,2.218750e-03
-8.234375e-11,2.234375e-03
-7.834375e-11,2.546875e-03
-7.434375e-11,3.234375e-03
-7.034375e-11,3.468750e-03
-6.634375e-11,4.140625e-03
-6.234375e-11,4.953125e-03
-5.834375e-11,5.937500e-03
-5.434375e-11,7.203125e-03
-5.034375e-11,8.890625e-03
-4.634375e-11,1.039063e-02
-4.234375e-11,1.220313e-02
-3.834375e-11,1.439063e-02
-3.434375e-11,1.709375e-02
-3.034375e-11,1.946875e-02
-2.634375e-11,2.234375e-02
-2.234375e-11,2.545313e-02
-1.834375e-11,2.881250e-02
-1.434375e-11,3.246875e-02
-1.034375e-11,3.664063e-02
-6.343750e-12,4.064063e-02
-2.343750e-12,4.496875e-02
1.656250e-12,4.967188e-02
5.656250e-12,5.484375e-02
9.656250e-12,5.973438e-02
1.365625e-11,6.501563e-02
1.765625e-11,7.050000e-02
2.165625e-11,7.620313e-02
2.565625e-11,8.207813e-02
2.965625e-11,8.843750e-02
3.365625e-11,9.450000e-02
3.765625e-11,1.008281e-01
4.165625e-11,1.073906e-01
4.565625e-11,1.142969e-01
4.965625e-11,1.208594e-01
5.365625e-11,1.276719e-01
5.765625e-11,1.345625e-01
6.165625e-11,1.415625e-01
6.565625e-11,1.486094e-01
6.965625e-11,1.560000e-01
7.365625e-11,1.630000e-01
7.765625e-11,1.701406e-01
8.165625e-11,1.773750e-01
8.565625e-11,1.847969e-01
8.965625e-11,1.918125e-01
9.365625e-11,1.989219e-01
9.765625e-11,2.060156e-01
1.016562e-10,2.130625e-01
1.056562e-10,2.200156e-01
1.096562e-10,2.272031e-01
1.136562e-10,2.338750e-01
1.176563e-10,2.405469e-01
1.216562e-10,2.471563e-01
1.256563e-10,2.538125e-01
1.296562e-10,2.599688e-01
1.336563e-10,2.660625e-01
1.376562e-10,2.719688e-01
1.416562e-10,2.777031e-01
1.456562e-10,2.832031e-01
1.496562e-10,2.887344e-01
1.536563e-10,2.936563e-01
1.576562e-10,2.984219e-01
1.616563e-10,3.029688e-01
1.656562e-10,3.074063e-01
1.696563e-10,3.111875e-01
1.736562e-10,3.148125e-01
1.776563e-10,3.181094e-01
1.816562e-10,3.211094e-01
1.856563e-10,3.237656e-01
1.896562e-10,3.263125e-01
1.936563e-10,3.281719e-01
1.976562e-10,3.298125e-01
2.016562e-10,3.311563e-01
2.056562e-10,3.323125e-01
2.096562e-10,3.327969e-01
2.136563e-10,3.331094e-01
2.176562e-10,3.330938e-01
2.216563e-10,3.327813e-01
2.256562e-10,3.321563e-01
2.296563e-10,3.314219e-01
2.336562e-10,3.300781e-01
2.376562e-10,3.285781e-01
2.416563e-10,3.268750e-01
2.456563e-10,3.250781e-01
2.496562e-10,3.226875e-01
2.536562e-10,3.203125e-01
2.576563e-10,3.176875e-01
2.616562e-10,3.149219e-01
2.656562e-10,3.119844e-01
2.696562e-10,3.090313e-01
2.736563e-10,3.056406e-01
2.776562e-10,3.022656e-01
2.816562e-10,2.988125e-01
2.856563e-10,2.954063e-01
2.896563e-10,2.915156e-01
2.936562e-10,2.878281e-01
2.976562e-10,2.840000e-01
3.016563e-10,2.801562e-01
3.056563e-10,2.762500e-01
3.096562e-10,2.724375e-01
3.136562e-10,2.682344e-01
3.176563e-10,2.641563e-01
3.216562e-10,2.600781e-01
3.256562e-10,2.560938e-01
3.296562e-10,2.516719e-01
3.336563e-10,2.475000e-01
3.376562e-10,2.432344e-01
3.416562e-10,2.389844e-01
3.456563e-10,2.347188e-01
3.496563e-10,2.305313e-01
3.536562e-10,2.259219e-01
3.576562e-10,2.215000e-01
3.616563e-10,2.170625e-01
3.656563e-10,2.127188e-01
3.696562e-10,2.079375e-01
3.736562e-10,2.034219e-01
3.776563e-10,1.988281e-01
3.816562e-10,1.942344e-01
3.856562e-10,1.896406e-01
3.896562e-10,1.851875e-01
3.936563e-10,1.802656e-01
3.976562e-10,1.755781e-01
4.016562e-10,1.709375e-01
4.056563e-10,1.664063e-01
4.096563e-10,1.614844e-01
4.136562e-10,1.568594e-01
4.176562e-10,1.522344e-01
4.216563e-10,1.476719e-01
4.256563e-10,1.431719e-01
4.296562e-10,1.388906e-01
4.336562e-10,1.341875e-01
4.376563e-10,1.297969e-01
4.416562e-10,1.255469e-01
4.456562e-10,1.214688e-01
4.496562e-10,1.170938e-01
4.536563e-10,1.130469e-01
4.576562e-10,1.091406e-01
4.616562e-10,1.053281e-01
4.656562e-10,1.016250e-01
4.696562e-10,9.826563e-02
4.736563e-10,9.450000e-02
4.776563e-10,9.107813e-02
4.816563e-10,8.790625e-02
4.856562e-10,8.492188e-02
4.896562e-10,8.170313e-02
4.936562e-10,7.881250e-02
4.976562e-10,7.610938e-02
5.016562e-10,7.351563e-02
5.056563e-10,7.104688e-02
5.096563e-10,6.893750e-02
5.136563e-10,6.640625e-02
5.176562e-10,6.423438e-02
5.216562e-10,6.232813e-02
5.256562e-10,6.060938e-02
5.296562e-10,5.862500e-02
5.336563e-10,5.693750e-02
5.376563e-10,5.546875e-02
5.416563e-10,5.406250e-02
5.456562e-10,5.273438e-02
5.496562e-10,5.176563e-02
5.536562e-10,5.034375e-02
5.576562e-10,4.923438e-02
5.616562e-10,4.839063e-02
5.656563e-10,4.770313e-02
5.696563e-10,4.670313e-02
5.736563e-10,4.596875e-02
5.776562e-10,4.540625e-02
5.816562e-10,4.487500e-02
5.856562e-10,4.435938e-02
5.896562e-10,4.415625e-02
5.936562e-10,4.346875e-02
5.976563e-10,4.303125e-02
6.016563e-10,4.281250e-02
6.056562e-10,4.273438e-02
6.096562e-10,4.225000e-02
6.136562e-10,4.195313e-02
6.176562e-10,4.179688e-02
6.216562e-10,4.159375e-02
6.256563e-10,4.132813e-02
6.296563e-10,4.132813e-02
6.336563e-10,4.076563e-02
6.376562e-10,4.035938e-02
6.416562e-10,4.014063e-02
6.456562e-10,4.000000e-02
6.496562e-10,3.934375e-02
6.536562e-10,3.885938e-02
6.576563e-10,3.842188e-02
6.616563e-10,3.789063e-02
6.656562e-10,3.723438e-02
6.696562e-10,3.678125e-02
6.736562e-10,3.575000e-02
6.776562e-10,3.481250e-02
6.816562e-10,3.404688e-02
6.856563e-10,3.335938e-02
6.896563e-10,3.212500e-02
6.936563e-10,3.104688e-02
6.976562e-10,3.001563e-02
7.016562e-10,2.892188e-02
7.056562e-10,2.771875e-02
7.096562e-10,2.675000e-02
7.136562e-10,2.523438e-02
7.176563e-10,2.387500e-02
7.216563e-10,2.273438e-02
7.256562e-10,2.176563e-02
7.296562e-10,2.026563e-02
7.336562e-10,1.903125e-02
7.376562e-10,1.789063e-02
7.416562e-10,1.679688e-02
7.456563e-10,1.565625e-02
7.496563e-10,1.484375e-02
7.536563e-10,1.357813e-02
7.576562e-10,1.253125e-02
7.616562e-10,1.178125e-02
7.656562e-10,1.129688e-02
7.696562e-10,1.031250e-02
7.736562e-10,9.703125e-03
7.776563e-10,9.203125e-03
7.816563e-10,8.796875e-03
7.856562e-10,8.406250e-03
7.896562e-10,8.375000e-03
7.936562e-10,7.875000e-03
7.976562e-10,7.625000e-03
8.016562e-10,7.656250e-03
8.056563e-10,7.953125e-03
8.096563e-10,7.718750e-03
8.136563e-10,7.812500e-03
8.176562e-10,7.984375e-03
8.216562e-10,8.203125e-03
8.256562e-10,8.390625e-03
8.296562e-10,8.875000e-03
8.336562e-10,8.796875e-03
8.376563e-10,8.921875e-03
8.416563e-10,9.250000e-03
8.456562e-10,9.765625e-03
8.496562e-10,9.671875e-03
8.536562e-10,9.843750e-03
8.576562e-10,1.000000e-02
8.616562e-10,1.012500e-02
8.656563e-10,1.017188e-02
8.696563e-10,1.048438e-02
8.736563e-10,1.017188e-02
8.776562e-10,1.000000e-02
8.816562e-10,1.001563e-02
8.856562e-10,1.018750e-02
8.896562e-10,9.734375e-03
8.936562e-10,9.531250e-03
8.976563e-10,9.328125e-03
9.016563e-10,9.109375e-03
9.056562e-10,8.843750e-03
9.096562e-10,8.859375e-03
9.136562e-10,8.281250e-03
9.176562e-10,7.921875e-03
9.216562e-10,7.765625e-03
9.256563e-10,7.828125e-03
9.296563e-10,7.328125e-03
9.336562e-10,7.156250e-03
9.376562e-10,7.031250e-03
9.416563e-10,6.937500e-03
9.456563e-10,6.890625e-03
9.496563e-10,7.171875e-03
9.536563e-10,6.937500e-03
9.576563e-10,6.937500e-03
9.616563e-10,7.203125e-03
9.656562e-10,7.734375e-03
9.696562e-10,7.718750e-03
9.736562e-10,8.046875e-03
9.776562e-10,8.437500e-03
9.816562e-10,8.890625e-03
9.856562e-10,9.343750e-03
9.896562e-10,1.015625e-02
9.936562e-10,1.039063e-02
9.976562e-10,1.085938e-02
1.001656e-09,1.154688e-02
1.005656e-09,1.243750e-02
1.009656e-09,1.273438e-02
1.013656e-09,1.331250e-02
1.017656e-09,1.389063e-02
1.021656e-09,1.443750e-02
1.025656e-09,1.495313e-02
1.029656e-09,1.571875e-02
1.033656e-09,1.585938e-02
1.037656e-09,1.614063e-02
1.041656e-09,1.656250e-02
1.045656e-09,1.714063e-02
1.049656e-09,1.703125e-02
1.053656e-09,1.715625e-02
1.057656e-09,1.723438e-02
1.061656e-09,1.721875e-02
1.065656e-09,1.714063e-02
1.069656e-09,1.726563e-02
1.073656e-09,1.675000e-02
1.077656e-09,1.635938e-02
1.081656e-09,1.609375e-02
1.085656e-09,1.598438e-02
1.089656e-09,1.521875e-02
1.093656e-09,1.470313e-02
1.097656e-09,1.415625e-02
1.101656e-09,1.356250e-02
1.105656e-09,1.293750e-02
1.109656e-09,1.259375e-02
1.113656e-09,1.165625e-02
1.117656e-09,1.090625e-02
1.121656e-09,1.035938e-02
1.125656e-09,1.003125e-02
1.129656e-09,9.125000e-03
1.133656e-09,8.531250e-03
1.137656e-09,7.984375e-03
1.141656e-09,7.500000e-03
1.145656e-09,7.031250e-03
1.149656e-09,6.921875e-03
1.153656e-09,6.265625e-03
1.157656e-09,5.875000e-03
1.161656e-09,5.750000e-03
1.165656e-09,5.890625e-03
1.169656e-09,5.500000e-03
1.173656e-09,5.468750e-03
1.177656e-09,5.500000e-03
1.181656e-09,5.609375e-03
1.185656e-09,5.765625e-03
1.189656e-09,6.281250e-03
1.193656e-09,6.265625e-03
1.197656e-09,6.484375e-03
1.201656e-09,6.953125e-03
1.205656e-09,7.671875e-03
1.209656e-09,7.812500e-03
1.213656e-09,8.296875e-03
1.217656e-09,8.796875e-03
1.221656e-09,9.296875e-03
1.225656e-09,9.828125e-03
1.229656e-09,1.064063e-02
1.233656e-09,1.085938e-02
1.237656e-09,1.126563e-02
1.241656e-09,1.184375e-02
1.245656e-09,1.260938e-02
1.249656e-09,1.273438e-02
1.253656e-09,1.314063e-02
1.257656e-09,1.350000e-02
1.261656e-09,1.381250e-02
1.265656e-09,1.407813e-02
1.269656e-09,1.459375e-02
1.273656e-09,1.446875e-02
1.277656e-09,1.448438e-02
1.281656e-09,1.465625e-02
1.285656e-09,1.496875e-02
1.289656e-09,1.462500e-02
1.293656e-09,1.453125e-02
1.297656e-09,1.440625e-02
1.301656e-09,1.421875e-02
1.305656e-09,1.400000e-02
1.309656e-09,1.404688e-02
1.313656e-09,1.346875e-02
1.317656e-09,1.304688e-02
1.321656e-09,1.281250e-02
1.325656e-09,1.275000e-02
1.329656e-09,1.209375e-02
1.333656e-09,1.171875e-02
1.337656e-09,1.134375e-02
1.341656e-09,1.098438e-02
1.345656e-09,1.064063e-02
1.349656e-09,1.059375e-02
1.353656e-09,9.984375e-03
1.357656e-09,9.593750e-03
1.361656e-09,9.421875e-03
1.365656e-09,9.500000e-03
1.369656e-09,8.984375e-03
1.373656e-09,8.828125e-03
1.377656e-09,8.687500e-03
1.381656e-09,8.609375e-03
1.385656e-09,8.546875e-03
1.389656e-09,8.828125e-03
1.393656e-09,8.531250e-03
1.397656e-09,8.468750e-03
1.401656e-09,8.640625e-03
1.405656e-09,9.031250e-03
1.409656e-09,8.843750e-03
1.413656e-09,8.984375e-03
1.417656e-09,9.125000e-03
1.421656e-09,9.265625e-03
1.425656e-09,9.406250e-03
1.429656e-09,9.859375e-03
1.433656e-09,9.687500e-03
1.437656e-09,9.718750e-03
1.441656e-09,9.921875e-03
1.445656e-09,1.029688e-02
1.449656e-09,1.004688e-02
1.453656e-09,1.006250e-02
1.457656e-09,1.006250e-02
1.461656e-09,1.000000e-02
1.465656e-09,9.921875e-03
1.469656e-09,1.009375e-02
1.473656e-09,9.640625e-03
1.477656e-09,9.328125e-03
1.481656e-09,9.203125e-03
1.485656e-09,9.234375e-03
1.489656e-09,8.640625e-03
1.493656e-09,8.312500e-03
1.497656e-09,7.968750e-03
1.501656e-09,7.593750e-03
1.505656e-09,7.218750e-03
1.509656e-09,7.140625e-03
1.513656e-09,6.468750e-03
1.517656e-09,5.984375e-03
1.521656e-09,5.718750e-03
1.525656e-09,5.687500e-03
1.529656e-09,5.078125e-03
1.533656e-09,4.796875e-03
1.537656e-09,4.546875e-03
1.541656e-09,4.359375e-03
1.545656e-09,4.218750e-03
1.549656e-09,4.421875e-03
1.553656e-09,4.078125e-03
1.557656e-09,4.000000e-03
1.561656e-09,4.171875e-03
1.565656e-09,4.625000e-03
1.569656e-09,4.531250e-03
1.573656e-09,4.796875e-03
1.577656e-09,5.125000e-03
1.581656e-09,5.500000e-03
1.585656e-09,5.921875e-03
1.589656e-09,6.703125e-03
1.593656e-09,6.921875e-03
1.597656e-09,7.375000e-03
1.601656e-09,8.046875e-03
1.605656e-09,8.937500e-03
1.609656e-09,9.250000e-03
1.613656e-09,9.843750e-03
1.617656e-09,1.045313e-02
1.621656e-09,1.103125e-02
1.625656e-09,1.159375e-02
1.629656e-09,1.240625e-02
1.633656e-09,1.259375e-02
1.637656e-09,1.292188e-02
1.641656e-09,1.340625e-02
1.645656e-09,1.401563e-02
1.649656e-09,1.395313e-02
1.653656e-09,1.412500e-02
1.657656e-09,1.423438e-02
1.661656e-09,1.425000e-02
1.665656e-09,1.418750e-02
1.669656e-09,1.434375e-02
1.673656e-09,1.381250e-02
1.677656e-09,1.342188e-02
1.681656e-09,1.314063e-02
1.685656e-09,1.300000e-02
1.689656e-09,1.220313e-02
1.693656e-09,1.164063e-02
1.697656e-09,1.103125e-02
1.701656e-09,1.037500e-02
1.705656e-09,9.687500e-03
1.709656e-09,9.281250e-03
1.713656e-09,8.250000e-03
1.717656e-09,7.421875e-03
1.721656e-09,6.796875e-03
1.725656e-09,6.406250e-03
1.729656e-09,5.421875e-03
1.733656e-09,4.765625e-03
1.737656e-09,4.171875e-03
1.741656e-09,3.609375e-03
1.745656e-09,3.125000e-03
1.749656e-09,2.984375e-03
1.753656e-09,2.328125e-03
1.757656e-09,1.937500e-03
