Measurements-streak-laser/Photodiode-on-Tek-6GHz/Tek000_ch1_20190613132724926.csv

Model,MSO64
Waveform Type,ANALOG
Horizontal Units,s
Sample Interval,4.000000e-12
Record Length,1000
Zero Index,310.687500
Vertical Units,V

TIME,CH1
-1.242750e-09,4.593750e-03
-1.238750e-09,4.828125e-03
-1.234750e-09,5.265625e-03
-1.230750e-09,5.906250e-03
-1.226750e-09,5.921875e-03
-1.222750e-09,6.234375e-03
-1.218750e-09,6.531250e-03
-1.214750e-09,6.781250e-03
-1.210750e-09,7.015625e-03
-1.206750e-09,7.515625e-03
-1.202750e-09,7.359375e-03
-1.198750e-09,7.359375e-03
-1.194750e-09,7.515625e-03
-1.190750e-09,7.812500e-03
-1.186750e-09,7.453125e-03
-1.182750e-09,7.343750e-03
-1.178750e-09,7.171875e-03
-1.174750e-09,6.937500e-03
-1.170750e-09,6.656250e-03
-1.166750e-09,6.625000e-03
-1.162750e-09,5.937500e-03
-1.158750e-09,5.406250e-03
-1.154750e-09,5.031250e-03
-1.150750e-09,4.843750e-03
-1.146750e-09,4.015625e-03
-1.142750e-09,3.484375e-03
-1.138750e-09,2.937500e-03
-1.134750e-09,2.406250e-03
-1.130750e-09,1.875000e-03
-1.126750e-09,1.656250e-03
-1.122750e-09,8.750000e-04
-1.118750e-09,3.125000e-04
-1.114750e-09,1.562500e-05
-1.110750e-09,-3.125000e-05
-1.106750e-09,-6.250000e-04
-1.102750e-09,-8.593750e-04
-1.098750e-09,-1.031250e-03
-1.094750e-09,-1.109375e-03
-1.090750e-09,-1.125000e-03
-1.086750e-09,-7.656250e-04
-1.082750e-09,-9.375000e-04
-1.078750e-09,-8.281250e-04
-1.074750e-09,-4.375000e-04
-1.070750e-09,2.031250e-04
-1.066750e-09,3.125000e-04
-1.062750e-09,7.656250e-04
-1.058750e-09,1.281250e-03
-1.054750e-09,1.812500e-03
-1.050750e-09,2.390625e-03
-1.046750e-09,3.281250e-03
-1.042750e-09,3.562500e-03
-1.038750e-09,4.062500e-03
-1.034750e-09,4.734375e-03
-1.030750e-09,5.593750e-03
-1.026750e-09,5.812500e-03
-1.022750e-09,6.296875e-03
-1.018750e-09,6.734375e-03
-1.014750e-09,7.093750e-03
-1.010750e-09,7.406250e-03
-1.006750e-09,7.953125e-03
-1.002750e-09,7.812500e-03
-9.987500e-10,7.796875e-03
-9.947500e-10,7.906250e-03
-9.907500e-10,8.140625e-03
-9.867500e-10,7.703125e-03
-9.827500e-10,7.484375e-03
-9.787500e-10,7.218750e-03
-9.747500e-10,6.875000e-03
-9.707500e-10,6.484375e-03
-9.667500e-10,6.359375e-03
-9.627500e-10,5.578125e-03
-9.587500e-10,4.984375e-03
-9.547500e-10,4.562500e-03
-9.507500e-10,4.343750e-03
-9.467500e-10,3.531250e-03
-9.427500e-10,3.031250e-03
-9.387500e-10,2.546875e-03
-9.347500e-10,2.109375e-03
-9.307500e-10,1.718750e-03
-9.267500e-10,1.671875e-03
-9.227500e-10,1.078125e-03
-9.187500e-10,7.500000e-04
-9.147500e-10,6.875000e-04
-9.107500e-10,9.062500e-04
-9.067500e-10,5.937500e-04
-9.027500e-10,6.406250e-04
-8.987500e-10,7.812500e-04
-8.947500e-10,9.687500e-04
-8.907500e-10,1.234375e-03
-8.867500e-10,1.859375e-03
-8.827500e-10,1.937500e-03
-8.787500e-10,2.265625e-03
-8.747500e-10,2.828125e-03
-8.707500e-10,3.625000e-03
-8.667500e-10,3.828125e-03
-8.627500e-10,4.343750e-03
-8.587500e-10,4.859375e-03
-8.547500e-10,5.375000e-03
-8.507500e-10,5.859375e-03
-8.467500e-10,6.625000e-03
-8.427500e-10,6.750000e-03
-8.387500e-10,7.015625e-03
-8.347500e-10,7.453125e-03
-8.307500e-10,8.015625e-03
-8.267500e-10,7.906250e-03
-8.227500e-10,8.046875e-03
-8.187500e-10,8.125000e-03
-8.147500e-10,8.125000e-03
-8.107500e-10,8.046875e-03
-8.067500e-10,8.218750e-03
-8.027500e-10,7.718750e-03
-7.987500e-10,7.375000e-03
-7.947500e-10,7.171875e-03
-7.907500e-10,7.125000e-03
-7.867500e-10,6.437500e-03
-7.827500e-10,6.015625e-03
-7.787500e-10,5.593750e-03
-7.747500e-10,5.140625e-03
-7.707500e-10,4.687500e-03
-7.667500e-10,4.562500e-03
-7.627500e-10,3.843750e-03
-7.587500e-10,3.343750e-03
-7.547500e-10,3.078125e-03
-7.507500e-10,3.078125e-03
-7.467500e-10,2.500000e-03
-7.427500e-10,2.281250e-03
-7.387500e-10,2.140625e-03
-7.347500e-10,2.046875e-03
-7.307500e-10,2.015625e-03
-7.267500e-10,2.359375e-03
-7.227500e-10,2.156250e-03
-7.187500e-10,2.234375e-03
-7.147500e-10,2.562500e-03
-7.107500e-10,3.156250e-03
-7.067500e-10,3.187500e-03
-7.027500e-10,3.562500e-03
-6.987500e-10,3.984375e-03
-6.947500e-10,4.437500e-03
-6.907500e-10,4.921875e-03
-6.867500e-10,5.703125e-03
-6.827500e-10,5.890625e-03
-6.787500e-10,6.281250e-03
-6.747500e-10,6.859375e-03
-6.707500e-10,7.609375e-03
-6.667500e-10,7.734375e-03
-6.627500e-10,8.109375e-03
-6.587500e-10,8.453125e-03
-6.547500e-10,8.734375e-03
-6.507500e-10,8.968750e-03
-6.467500e-10,9.437500e-03
-6.427500e-10,9.234375e-03
-6.387500e-10,9.171875e-03
-6.347500e-10,9.250000e-03
-6.307500e-10,9.468750e-03
-6.267500e-10,9.000000e-03
-6.227500e-10,8.796875e-03
-6.187500e-10,8.531250e-03
-6.147500e-10,8.203125e-03
-6.107500e-10,7.843750e-03
-6.067500e-10,7.734375e-03
-6.027500e-10,7.000000e-03
-5.987500e-10,6.437500e-03
-5.947500e-10,6.062500e-03
-5.907500e-10,5.875000e-03
-5.867500e-10,5.093750e-03
-5.827500e-10,4.625000e-03
-5.787500e-10,4.187500e-03
-5.747500e-10,3.750000e-03
-5.707500e-10,3.359375e-03
-5.667500e-10,3.312500e-03
-5.627500e-10,2.703125e-03
-5.587500e-10,2.343750e-03
-5.547500e-10,2.250000e-03
-5.507500e-10,2.406250e-03
-5.467500e-10,2.015625e-03
-5.427500e-10,2.000000e-03
-5.387500e-10,2.031250e-03
-5.347500e-10,2.109375e-03
-5.307500e-10,2.265625e-03
-5.267500e-10,2.765625e-03
-5.227500e-10,2.703125e-03
-5.187500e-10,2.890625e-03
-5.147500e-10,3.312500e-03
-5.107500e-10,3.968750e-03
-5.067500e-10,4.046875e-03
-5.027500e-10,4.437500e-03
-4.987500e-10,4.843750e-03
-4.947500e-10,5.250000e-03
-4.907500e-10,5.656250e-03
-4.867500e-10,6.359375e-03
-4.827500e-10,6.421875e-03
-4.787500e-10,6.671875e-03
-4.747500e-10,7.093750e-03
-4.707500e-10,7.687500e-03
-4.667500e-10,7.640625e-03
-4.627500e-10,7.843750e-03
-4.587500e-10,8.000000e-03
-4.547500e-10,8.109375e-03
-4.507500e-10,8.171875e-03
-4.467500e-10,8.500000e-03
-4.427500e-10,8.171875e-03
-4.387500e-10,8.000000e-03
-4.347500e-10,7.984375e-03
-4.307500e-10,8.140625e-03
-4.267500e-10,7.671875e-03
-4.227500e-10,7.468750e-03
-4.187500e-10,7.187500e-03
-4.147500e-10,6.921875e-03
-4.107500e-10,6.625000e-03
-4.067500e-10,6.625000e-03
-4.027500e-10,5.984375e-03
-3.987500e-10,5.578125e-03
-3.947500e-10,5.375000e-03
-3.907500e-10,5.375000e-03
-3.867500e-10,4.812500e-03
-3.827500e-10,4.562500e-03
-3.787500e-10,4.250000e-03
-3.747500e-10,4.000000e-03
-3.707500e-10,3.765625e-03
-3.667500e-10,3.875000e-03
-3.627500e-10,3.375000e-03
-3.587500e-10,3.125000e-03
-3.547500e-10,3.125000e-03
-3.507500e-10,3.328125e-03
-3.467500e-10,3.015625e-03
-3.427500e-10,3.000000e-03
-3.387500e-10,2.921875e-03
-3.347500e-10,2.875000e-03
-3.307500e-10,2.875000e-03
-3.267500e-10,3.187500e-03
-3.227500e-10,2.875000e-03
-3.187500e-10,2.796875e-03
-3.147500e-10,2.984375e-03
-3.107500e-10,3.312500e-03
-3.067500e-10,3.125000e-03
-3.027500e-10,3.203125e-03
-2.987500e-10,3.187500e-03
-2.947500e-10,3.140625e-03
-2.907500e-10,3.156250e-03
-2.867500e-10,3.453125e-03
-2.827500e-10,3.125000e-03
-2.787500e-10,3.000000e-03
-2.747500e-10,3.125000e-03
-2.707500e-10,3.390625e-03
-2.667500e-10,3.140625e-03
-2.627500e-10,3.171875e-03
-2.587500e-10,3.078125e-03
-2.547500e-10,2.937500e-03
-2.507500e-10,2.937500e-03
-2.467500e-10,3.171875e-03
-2.427500e-10,2.875000e-03
-2.387500e-10,2.734375e-03
-2.347500e-10,2.890625e-03
-2.307500e-10,3.203125e-03
-2.267500e-10,3.000000e-03
-2.227500e-10,3.140625e-03
-2.187500e-10,3.156250e-03
-2.147500e-10,3.125000e-03
-2.107500e-10,3.312500e-03
-2.067500e-10,3.671875e-03
-2.027500e-10,3.578125e-03
-1.987500e-10,3.593750e-03
-1.947500e-10,3.937500e-03
-1.907500e-10,4.406250e-03
-1.867500e-10,4.343750e-03
-1.827500e-10,4.609375e-03
-1.787500e-10,4.750000e-03
-1.747500e-10,4.796875e-03
-1.707500e-10,5.062500e-03
-1.667500e-10,5.406250e-03
-1.627500e-10,5.343750e-03
-1.587500e-10,5.312500e-03
-1.547500e-10,5.531250e-03
-1.507500e-10,5.859375e-03
-1.467500e-10,5.593750e-03
-1.427500e-10,5.593750e-03
-1.387500e-10,5.453125e-03
-1.347500e-10,5.218750e-03
-1.307500e-10,5.125000e-03
-1.267500e-10,5.093750e-03
-1.227500e-10,4.687500e-03
-1.187500e-10,4.265625e-03
-1.147500e-10,4.046875e-03
-1.107500e-10,4.015625e-03
-1.067500e-10,3.375000e-03
-1.027500e-10,3.015625e-03
-9.875000e-11,2.609375e-03
-9.475000e-11,2.171875e-03
-9.075000e-11,1.937500e-03
-8.675000e-11,1.875000e-03
-8.275000e-11,1.562500e-03
-7.875000e-11,1.359375e-03
-7.475000e-11,1.437500e-03
-7.075000e-11,1.906250e-03
-6.675000e-11,1.921875e-03
-6.275000e-11,2.359375e-03
-5.875000e-11,2.968750e-03
-5.475000e-11,3.750000e-03
-5.075000e-11,4.890625e-03
-4.675000e-11,6.468750e-03
-4.275000e-11,8.000000e-03
-3.875000e-11,9.859375e-03
-3.475000e-11,1.215625e-02
-3.075000e-11,1.509375e-02
-2.675000e-11,1.782813e-02
-2.275000e-11,2.114063e-02
-1.875000e-11,2.481250e-02
-1.475000e-11,2.889063e-02
-1.075000e-11,3.342188e-02
-6.750000e-12,3.860938e-02
-2.750000e-12,4.389063e-02
1.250000e-12,4.964063e-02
5.250000e-12,5.590625e-02
9.250000e-12,6.285938e-02
1.325000e-11,6.976563e-02
1.725000e-11,7.721875e-02
2.125000e-11,8.506250e-02
2.525000e-11,9.334375e-02
2.925000e-11,1.020000e-01
3.325000e-11,1.113281e-01
3.725000e-11,1.206406e-01
4.125000e-11,1.303438e-01
4.525000e-11,1.404219e-01
4.925000e-11,1.510156e-01
5.325000e-11,1.615000e-01
5.725000e-11,1.722969e-01
6.125000e-11,1.833125e-01
6.525000e-11,1.945469e-01
6.925000e-11,2.059063e-01
7.325000e-11,2.177188e-01
7.725000e-11,2.292813e-01
8.125000e-11,2.410000e-01
8.525000e-11,2.527656e-01
8.925000e-11,2.647500e-01
9.325000e-11,2.764219e-01
9.725000e-11,2.880781e-01
1.012500e-10,2.996875e-01
1.052500e-10,3.112031e-01
1.092500e-10,3.225781e-01
1.132500e-10,3.340781e-01
1.172500e-10,3.450938e-01
1.212500e-10,3.559531e-01
1.252500e-10,3.665781e-01
1.292500e-10,3.771250e-01
1.332500e-10,3.871563e-01
1.372500e-10,3.968906e-01
1.412500e-10,4.063281e-01
1.452500e-10,4.154375e-01
1.492500e-10,4.241406e-01
1.532500e-10,4.327344e-01
1.572500e-10,4.406563e-01
1.612500e-10,4.482031e-01
1.652500e-10,4.553281e-01
1.692500e-10,4.621406e-01
1.732500e-10,4.682813e-01
1.772500e-10,4.739844e-01
1.812500e-10,4.792344e-01
1.852500e-10,4.840156e-01
1.892500e-10,4.882656e-01
1.932500e-10,4.922031e-01
1.972500e-10,4.954375e-01
2.012500e-10,4.982031e-01
2.052500e-10,5.004531e-01
2.092500e-10,5.023125e-01
2.132500e-10,5.034375e-01
2.172500e-10,5.041719e-01
2.212500e-10,5.043906e-01
2.252500e-10,5.041563e-01
2.292500e-10,5.033906e-01
2.332500e-10,5.023125e-01
2.372500e-10,5.005938e-01
2.412500e-10,4.985000e-01
2.452500e-10,4.959531e-01
2.492500e-10,4.931094e-01
2.532500e-10,4.896250e-01
2.572500e-10,4.859375e-01
2.612500e-10,4.818594e-01
2.652500e-10,4.774844e-01
2.692500e-10,4.727969e-01
2.732500e-10,4.678906e-01
2.772500e-10,4.625625e-01
2.812500e-10,4.570781e-01
2.852500e-10,4.513438e-01
2.892500e-10,4.455469e-01
2.932500e-10,4.392813e-01
2.972500e-10,4.331250e-01
3.012500e-10,4.267500e-01
3.052500e-10,4.203125e-01
3.092500e-10,4.138125e-01
3.132500e-10,4.072813e-01
3.172500e-10,4.004844e-01
3.212500e-10,3.938125e-01
3.252500e-10,3.870781e-01
3.292500e-10,3.804375e-01
3.332500e-10,3.734844e-01
3.372500e-10,3.668438e-01
3.412500e-10,3.601094e-01
3.452500e-10,3.534688e-01
3.492500e-10,3.469063e-01
3.532500e-10,3.403750e-01
3.572500e-10,3.336406e-01
3.612500e-10,3.271406e-01
3.652500e-10,3.206250e-01
3.692500e-10,3.142344e-01
3.732500e-10,3.075625e-01
3.772500e-10,3.012344e-01
3.812500e-10,2.948438e-01
3.852500e-10,2.885313e-01
3.892500e-10,2.822813e-01
3.932500e-10,2.760938e-01
3.972500e-10,2.695938e-01
4.012500e-10,2.633438e-01
4.052500e-10,2.570781e-01
4.092500e-10,2.508750e-01
4.132500e-10,2.443906e-01
4.172500e-10,2.381719e-01
4.212500e-10,2.319375e-01
4.252500e-10,2.257344e-01
4.292500e-10,2.195938e-01
4.332500e-10,2.135469e-01
4.372500e-10,2.071250e-01
4.412500e-10,2.009844e-01
4.452500e-10,1.948906e-01
4.492500e-10,1.888594e-01
4.532500e-10,1.826250e-01
4.572500e-10,1.766406e-01
4.612500e-10,1.707656e-01
4.652500e-10,1.649688e-01
4.692500e-10,1.592813e-01
4.732500e-10,1.538281e-01
4.772500e-10,1.480313e-01
4.812500e-10,1.425938e-01
4.852500e-10,1.373594e-01
4.892500e-10,1.322500e-01
4.932500e-10,1.270625e-01
4.972500e-10,1.221719e-01
5.012500e-10,1.175313e-01
5.052500e-10,1.130313e-01
5.092500e-10,1.087031e-01
5.132500e-10,1.047500e-01
5.172500e-10,1.004844e-01
5.212500e-10,9.664063e-02
5.252500e-10,9.310938e-02
5.292500e-10,8.975000e-02
5.332500e-10,8.632813e-02
5.372500e-10,8.321875e-02
5.412500e-10,8.045313e-02
5.452500e-10,7.779688e-02
5.492500e-10,7.529688e-02
5.532500e-10,7.318750e-02
5.572500e-10,7.075000e-02
5.612500e-10,6.868750e-02
5.652500e-10,6.695313e-02
5.692500e-10,6.535938e-02
5.732500e-10,6.364063e-02
5.772500e-10,6.217188e-02
5.812500e-10,6.098438e-02
5.852500e-10,5.987500e-02
5.892500e-10,5.879688e-02
5.932500e-10,5.807813e-02
5.972500e-10,5.695313e-02
6.012500e-10,5.607813e-02
6.052500e-10,5.551563e-02
6.092500e-10,5.504688e-02
6.132500e-10,5.431250e-02
6.172500e-10,5.375000e-02
6.212500e-10,5.342188e-02
6.252500e-10,5.306250e-02
6.292500e-10,5.265625e-02
6.332500e-10,5.253125e-02
6.372500e-10,5.192188e-02
6.412500e-10,5.150000e-02
6.452500e-10,5.131250e-02
6.492500e-10,5.118750e-02
6.532500e-10,5.065625e-02
6.572500e-10,5.026563e-02
6.612500e-10,5.003125e-02
6.652500e-10,4.970313e-02
6.692500e-10,4.925000e-02
6.732500e-10,4.900000e-02
6.772500e-10,4.823438e-02
6.812500e-10,4.756250e-02
6.852500e-10,4.709375e-02
6.892500e-10,4.665625e-02
6.932500e-10,4.571875e-02
6.972500e-10,4.489063e-02
7.012500e-10,4.415625e-02
7.052500e-10,4.331250e-02
7.092500e-10,4.228125e-02
7.132500e-10,4.145313e-02
7.172500e-10,4.006250e-02
7.212500e-10,3.876563e-02
7.252500e-10,3.765625e-02
7.292500e-10,3.662500e-02
7.332500e-10,3.503125e-02
7.372500e-10,3.364063e-02
7.412500e-10,3.229688e-02
7.452500e-10,3.092188e-02
7.492500e-10,2.940625e-02
7.532500e-10,2.814063e-02
7.572500e-10,2.639063e-02
7.612500e-10,2.479688e-02
7.652500e-10,2.346875e-02
7.692500e-10,2.231250e-02
7.732500e-10,2.068750e-02
7.772500e-10,1.935938e-02
7.812500e-10,1.815625e-02
7.852500e-10,1.703125e-02
7.892500e-10,1.589063e-02
7.932500e-10,1.512500e-02
7.972500e-10,1.393750e-02
8.012500e-10,1.300000e-02
8.052500e-10,1.242188e-02
8.092500e-10,1.214063e-02
8.132500e-10,1.142188e-02
8.172500e-10,1.109375e-02
8.212500e-10,1.092188e-02
8.252500e-10,1.087500e-02
8.292500e-10,1.087500e-02
8.332500e-10,1.123438e-02
8.372500e-10,1.118750e-02
8.412500e-10,1.140625e-02
8.452500e-10,1.193750e-02
8.492500e-10,1.271875e-02
8.532500e-10,1.300000e-02
8.572500e-10,1.362500e-02
8.612500e-10,1.431250e-02
8.652500e-10,1.504688e-02
8.692500e-10,1.573438e-02
8.732500e-10,1.670313e-02
8.772500e-10,1.709375e-02
8.812500e-10,1.767188e-02
8.852500e-10,1.842188e-02
8.892500e-10,1.931250e-02
8.932500e-10,1.956250e-02
8.972500e-10,2.004688e-02
9.012500e-10,2.046875e-02
9.052500e-10,2.082813e-02
9.092500e-10,2.106250e-02
9.132500e-10,2.150000e-02
9.172500e-10,2.126563e-02
9.212500e-10,2.114063e-02
9.252500e-10,2.114063e-02
9.292500e-10,2.125000e-02
9.332500e-10,2.070313e-02
9.372500e-10,2.037500e-02
9.412500e-10,2.000000e-02
9.452500e-10,1.957813e-02
9.492500e-10,1.907813e-02
9.532500e-10,1.882813e-02
9.572500e-10,1.798438e-02
9.612500e-10,1.731250e-02
9.652500e-10,1.685938e-02
9.692500e-10,1.660938e-02
9.732500e-10,1.579688e-02
9.772500e-10,1.529688e-02
9.812500e-10,1.484375e-02
9.852500e-10,1.446875e-02
9.892500e-10,1.410938e-02
9.932500e-10,1.410938e-02
9.972500e-10,1.360938e-02
1.001250e-09,1.335938e-02
1.005250e-09,1.340625e-02
1.009250e-09,1.370313e-02
1.013250e-09,1.350000e-02
1.017250e-09,1.365625e-02
1.021250e-09,1.387500e-02
1.025250e-09,1.417188e-02
1.029250e-09,1.450000e-02
1.033250e-09,1.518750e-02
1.037250e-09,1.531250e-02
1.041250e-09,1.565625e-02
1.045250e-09,1.623438e-02
1.049250e-09,1.701563e-02
1.053250e-09,1.720313e-02
1.057250e-09,1.767188e-02
1.061250e-09,1.812500e-02
1.065250e-09,1.854688e-02
1.069250e-09,1.892188e-02
1.073250e-09,1.954688e-02
1.077250e-09,1.953125e-02
1.081250e-09,1.964063e-02
1.085250e-09,1.989063e-02
1.089250e-09,2.026563e-02
1.093250e-09,1.998438e-02
1.097250e-09,1.993750e-02
1.101250e-09,1.981250e-02
1.105250e-09,1.960938e-02
1.109250e-09,1.934375e-02
1.113250e-09,1.931250e-02
1.117250e-09,1.862500e-02
1.121250e-09,1.809375e-02
1.125250e-09,1.771875e-02
1.129250e-09,1.750000e-02
1.133250e-09,1.665625e-02
1.137250e-09,1.609375e-02
1.141250e-09,1.553125e-02
1.145250e-09,1.495313e-02
1.149250e-09,1.437500e-02
1.153250e-09,1.409375e-02
1.157250e-09,1.325000e-02
1.161250e-09,1.262500e-02
1.165250e-09,1.223438e-02
1.169250e-09,1.207813e-02
1.173250e-09,1.134375e-02
1.177250e-09,1.096875e-02
1.181250e-09,1.062500e-02
1.185250e-09,1.034375e-02
1.189250e-09,1.007813e-02
1.193250e-09,1.017188e-02
1.197250e-09,9.687500e-03
1.201250e-09,9.468750e-03
1.205250e-09,9.453125e-03
1.209250e-09,9.687500e-03
1.213250e-09,9.343750e-03
1.217250e-09,9.312500e-03
1.221250e-09,9.296875e-03
1.225250e-09,9.312500e-03
1.229250e-09,9.328125e-03
1.233250e-09,9.625000e-03
1.237250e-09,9.343750e-03
1.241250e-09,9.250000e-03
1.245250e-09,9.359375e-03
1.249250e-09,9.656250e-03
1.253250e-09,9.328125e-03
1.257250e-09,9.312500e-03
1.261250e-09,9.265625e-03
1.265250e-09,9.218750e-03
1.269250e-09,9.171875e-03
1.273250e-09,9.406250e-03
1.277250e-09,9.031250e-03
1.281250e-09,8.875000e-03
1.285250e-09,8.906250e-03
1.289250e-09,9.140625e-03
1.293250e-09,8.781250e-03
1.297250e-09,8.750000e-03
1.301250e-09,8.734375e-03
1.305250e-09,8.734375e-03
1.309250e-09,8.750000e-03
1.313250e-09,9.093750e-03
1.317250e-09,8.875000e-03
1.321250e-09,8.875000e-03
1.325250e-09,9.109375e-03
1.329250e-09,9.562500e-03
1.333250e-09,9.453125e-03
1.337250e-09,9.671875e-03
1.341250e-09,9.906250e-03
1.345250e-09,1.017188e-02
1.349250e-09,1.045313e-02
1.353250e-09,1.104688e-02
1.357250e-09,1.103125e-02
1.361250e-09,1.123438e-02
1.365250e-09,1.162500e-02
1.369250e-09,1.221875e-02
1.373250e-09,1.218750e-02
1.377250e-09,1.243750e-02
1.381250e-09,1.265625e-02
1.385250e-09,1.284375e-02
1.389250e-09,1.300000e-02
1.393250e-09,1.340625e-02
1.397250e-09,1.318750e-02
1.401250e-09,1.310938e-02
1.405250e-09,1.318750e-02
1.409250e-09,1.342188e-02
1.413250e-09,1.301563e-02
1.417250e-09,1.285938e-02
1.421250e-09,1.265625e-02
1.425250e-09,1.243750e-02
1.429250e-09,1.217188e-02
1.433250e-09,1.217188e-02
1.437250e-09,1.156250e-02
1.441250e-09,1.114063e-02
1.445250e-09,1.090625e-02
1.449250e-09,1.087500e-02
1.453250e-09,1.026563e-02
1.457250e-09,9.968750e-03
1.461250e-09,9.687500e-03
1.465250e-09,9.437500e-03
1.469250e-09,9.234375e-03
1.473250e-09,9.375000e-03
1.477250e-09,8.953125e-03
1.481250e-09,8.796875e-03
1.485250e-09,8.875000e-03
1.489250e-09,9.234375e-03
1.493250e-09,9.031250e-03
1.497250e-09,9.203125e-03
1.501250e-09,9.406250e-03
1.505250e-09,9.671875e-03
1.509250e-09,9.984375e-03
1.513250e-09,1.062500e-02
1.517250e-09,1.070313e-02
1.521250e-09,1.101563e-02
1.525250e-09,1.153125e-02
1.529250e-09,1.225000e-02
1.533250e-09,1.237500e-02
1.537250e-09,1.276563e-02
1.541250e-09,1.315625e-02
1.545250e-09,1.350000e-02
1.549250e-09,1.379688e-02
1.553250e-09,1.434375e-02
1.557250e-09,1.423438e-02
1.561250e-09,1.426563e-02
1.565250e-09,1.440625e-02
1.569250e-09,1.468750e-02
1.573250e-09,1.426563e-02
1.577250e-09,1.407813e-02
1.581250e-09,1.379688e-02
1.585250e-09,1.345313e-02
1.589250e-09,1.301563e-02
1.593250e-09,1.281250e-02
1.597250e-09,1.193750e-02
1.601250e-09,1.120313e-02
1.605250e-09,1.060938e-02
1.609250e-09,1.018750e-02
1.613250e-09,9.125000e-03
1.617250e-09,8.359375e-03
1.621250e-09,7.578125e-03
1.625250e-09,6.796875e-03
1.629250e-09,6.031250e-03
1.633250e-09,5.593750e-03
1.637250e-09,4.609375e-03
1.641250e-09,3.859375e-03
1.645250e-09,3.375000e-03
1.649250e-09,3.171875e-03
1.653250e-09,2.437500e-03
1.657250e-09,2.109375e-03
1.661250e-09,1.843750e-03
1.665250e-09,1.703125e-03
1.669250e-09,1.640625e-03
1.673250e-09,1.968750e-03
1.677250e-09,1.812500e-03
1.681250e-09,1.937500e-03
1.685250e-09,2.343750e-03
1.689250e-09,3.046875e-03
1.693250e-09,3.218750e-03
1.697250e-09,3.765625e-03
1.701250e-09,4.359375e-03
1.705250e-09,5.015625e-03
1.709250e-09,5.703125e-03
1.713250e-09,6.718750e-03
1.717250e-09,7.125000e-03
1.721250e-09,7.750000e-03
1.725250e-09,8.578125e-03
1.729250e-09,9.562500e-03
1.733250e-09,9.921875e-03
1.737250e-09,1.054688e-02
1.741250e-09,1.112500e-02
1.745250e-09,1.162500e-02
1.749250e-09,1.207813e-02
1.753250e-09,1.276563e-02
1.757250e-09,1.276563e-02
