Measurements-streak-laser/Photodiode-on-Tek-6GHz/Tek000_ch1_20190613132802834.csv

Model,MSO64
Waveform Type,ANALOG
Horizontal Units,s
Sample Interval,4.000000e-12
Record Length,1000
Zero Index,310.164062
Vertical Units,V

TIME,CH1
-1.240656e-09,6.578125e-03
-1.236656e-09,6.593750e-03
-1.232656e-09,6.578125e-03
-1.228656e-09,6.531250e-03
-1.224656e-09,6.453125e-03
-1.220656e-09,6.656250e-03
-1.216656e-09,6.218750e-03
-1.212656e-09,5.968750e-03
-1.208656e-09,5.906250e-03
-1.204656e-09,6.015625e-03
-1.200656e-09,5.515625e-03
-1.196656e-09,5.296875e-03
-1.192656e-09,5.078125e-03
-1.188656e-09,4.843750e-03
-1.184656e-09,4.609375e-03
-1.180656e-09,4.687500e-03
-1.176656e-09,4.156250e-03
-1.172656e-09,3.843750e-03
-1.168656e-09,3.734375e-03
-1.164656e-09,3.843750e-03
-1.160656e-09,3.375000e-03
-1.156656e-09,3.218750e-03
-1.152656e-09,3.078125e-03
-1.148656e-09,2.968750e-03
-1.144656e-09,2.890625e-03
-1.140656e-09,3.125000e-03
-1.136656e-09,2.796875e-03
-1.132656e-09,2.671875e-03
-1.128656e-09,2.781250e-03
-1.124656e-09,3.125000e-03
-1.120656e-09,2.890625e-03
-1.116656e-09,2.953125e-03
-1.112656e-09,3.062500e-03
-1.108656e-09,3.171875e-03
-1.104656e-09,3.296875e-03
-1.100656e-09,3.734375e-03
-1.096656e-09,3.562500e-03
-1.092656e-09,3.609375e-03
-1.088656e-09,3.859375e-03
-1.084656e-09,4.312500e-03
-1.080656e-09,4.156250e-03
-1.076656e-09,4.296875e-03
-1.072656e-09,4.437500e-03
-1.068656e-09,4.546875e-03
-1.064656e-09,4.656250e-03
-1.060656e-09,5.062500e-03
-1.056656e-09,4.843750e-03
-1.052656e-09,4.812500e-03
-1.048656e-09,4.968750e-03
-1.044656e-09,5.312500e-03
-1.040656e-09,5.031250e-03
-1.036656e-09,5.062500e-03
-1.032656e-09,5.062500e-03
-1.028656e-09,5.078125e-03
-1.024656e-09,5.078125e-03
-1.020656e-09,5.375000e-03
-1.016656e-09,5.078125e-03
-1.012656e-09,4.984375e-03
-1.008656e-09,5.109375e-03
-1.004656e-09,5.437500e-03
-1.000656e-09,5.171875e-03
-9.966562e-10,5.234375e-03
-9.926563e-10,5.312500e-03
-9.886563e-10,5.421875e-03
-9.846563e-10,5.562500e-03
-9.806563e-10,6.015625e-03
-9.766563e-10,5.906250e-03
-9.726563e-10,6.015625e-03
-9.686562e-10,6.359375e-03
-9.646562e-10,6.937500e-03
-9.606562e-10,6.937500e-03
-9.566562e-10,7.265625e-03
-9.526562e-10,7.609375e-03
-9.486562e-10,7.984375e-03
-9.446562e-10,8.375000e-03
-9.406562e-10,9.078125e-03
-9.366562e-10,9.171875e-03
-9.326563e-10,9.484375e-03
-9.286563e-10,9.984375e-03
-9.246562e-10,1.068750e-02
-9.206562e-10,1.078125e-02
-9.166562e-10,1.115625e-02
-9.126562e-10,1.150000e-02
-9.086562e-10,1.181250e-02
-9.046563e-10,1.209375e-02
-9.006563e-10,1.264063e-02
-8.966563e-10,1.254688e-02
-8.926562e-10,1.259375e-02
-8.886562e-10,1.281250e-02
-8.846562e-10,1.317188e-02
-8.806562e-10,1.287500e-02
-8.766562e-10,1.282813e-02
-8.726563e-10,1.273438e-02
-8.686563e-10,1.257813e-02
-8.646562e-10,1.237500e-02
-8.606562e-10,1.242188e-02
-8.566562e-10,1.182813e-02
-8.526562e-10,1.139063e-02
-8.486562e-10,1.112500e-02
-8.446563e-10,1.101563e-02
-8.406563e-10,1.028125e-02
-8.366563e-10,9.843750e-03
-8.326562e-10,9.390625e-03
-8.286562e-10,8.921875e-03
-8.246562e-10,8.453125e-03
-8.206562e-10,8.312500e-03
-8.166562e-10,7.562500e-03
-8.126563e-10,7.046875e-03
-8.086563e-10,6.765625e-03
-8.046562e-10,6.703125e-03
-8.006562e-10,6.078125e-03
-7.966562e-10,5.812500e-03
-7.926562e-10,5.578125e-03
-7.886562e-10,5.390625e-03
-7.846563e-10,5.250000e-03
-7.806563e-10,5.468750e-03
-7.766563e-10,5.140625e-03
-7.726562e-10,5.046875e-03
-7.686562e-10,5.218750e-03
-7.646562e-10,5.625000e-03
-7.606562e-10,5.484375e-03
-7.566562e-10,5.671875e-03
-7.526563e-10,5.890625e-03
-7.486563e-10,6.156250e-03
-7.446563e-10,6.421875e-03
-7.406562e-10,7.015625e-03
-7.366562e-10,7.015625e-03
-7.326562e-10,7.234375e-03
-7.286562e-10,7.640625e-03
-7.246563e-10,8.234375e-03
-7.206563e-10,8.203125e-03
-7.166563e-10,8.468750e-03
-7.126562e-10,8.703125e-03
-7.086562e-10,8.890625e-03
-7.046562e-10,9.062500e-03
-7.006562e-10,9.484375e-03
-6.966562e-10,9.265625e-03
-6.926563e-10,9.187500e-03
-6.886563e-10,9.281250e-03
-6.846563e-10,9.515625e-03
-6.806562e-10,9.093750e-03
-6.766562e-10,8.937500e-03
-6.726562e-10,8.734375e-03
-6.686562e-10,8.500000e-03
-6.646563e-10,8.218750e-03
-6.606563e-10,8.187500e-03
-6.566563e-10,7.531250e-03
-6.526562e-10,7.062500e-03
-6.486562e-10,6.750000e-03
-6.446562e-10,6.640625e-03
-6.406562e-10,5.906250e-03
-6.366562e-10,5.484375e-03
-6.326563e-10,5.062500e-03
-6.286563e-10,4.640625e-03
-6.246563e-10,4.234375e-03
-6.206562e-10,4.156250e-03
-6.166562e-10,3.484375e-03
-6.126562e-10,3.046875e-03
-6.086562e-10,2.859375e-03
-6.046563e-10,2.890625e-03
-6.006563e-10,2.375000e-03
-5.966563e-10,2.187500e-03
-5.926562e-10,2.062500e-03
-5.886562e-10,1.968750e-03
-5.846562e-10,1.921875e-03
-5.806562e-10,2.218750e-03
-5.766562e-10,1.953125e-03
-5.726563e-10,1.937500e-03
-5.686563e-10,2.171875e-03
-5.646563e-10,2.625000e-03
-5.606562e-10,2.515625e-03
-5.566562e-10,2.734375e-03
-5.526562e-10,2.968750e-03
-5.486562e-10,3.234375e-03
-5.446563e-10,3.515625e-03
-5.406563e-10,4.109375e-03
-5.366563e-10,4.093750e-03
-5.326562e-10,4.296875e-03
-5.286562e-10,4.687500e-03
-5.246562e-10,5.265625e-03
-5.206562e-10,5.250000e-03
-5.166562e-10,5.500000e-03
-5.126563e-10,5.734375e-03
-5.086563e-10,5.953125e-03
-5.046563e-10,6.156250e-03
-5.006562e-10,6.625000e-03
-4.966562e-10,6.468750e-03
-4.926562e-10,6.484375e-03
-4.886562e-10,6.687500e-03
-4.846563e-10,7.062500e-03
-4.806563e-10,6.796875e-03
-4.766563e-10,6.828125e-03
-4.726562e-10,6.812500e-03
-4.686562e-10,6.796875e-03
-4.646562e-10,6.750000e-03
-4.606562e-10,7.000000e-03
-4.566562e-10,6.625000e-03
-4.526563e-10,6.453125e-03
-4.486562e-10,6.484375e-03
-4.446562e-10,6.703125e-03
-4.406563e-10,6.328125e-03
-4.366563e-10,6.265625e-03
-4.326562e-10,6.171875e-03
-4.286562e-10,6.109375e-03
-4.246563e-10,6.046875e-03
-4.206562e-10,6.312500e-03
-4.166562e-10,5.968750e-03
-4.126562e-10,5.843750e-03
-4.086563e-10,5.937500e-03
-4.046562e-10,6.250000e-03
-4.006562e-10,6.000000e-03
-3.966562e-10,6.031250e-03
-3.926563e-10,6.062500e-03
-3.886562e-10,6.109375e-03
-3.846562e-10,6.171875e-03
-3.806563e-10,6.546875e-03
-3.766563e-10,6.296875e-03
-3.726562e-10,6.281250e-03
-3.686562e-10,6.468750e-03
-3.646563e-10,6.828125e-03
-3.606563e-10,6.625000e-03
-3.566562e-10,6.703125e-03
-3.526562e-10,6.718750e-03
-3.486563e-10,6.750000e-03
-3.446562e-10,6.765625e-03
-3.406562e-10,7.078125e-03
-3.366562e-10,6.765625e-03
-3.326563e-10,6.640625e-03
-3.286562e-10,6.718750e-03
-3.246562e-10,6.968750e-03
-3.206563e-10,6.640625e-03
-3.166563e-10,6.578125e-03
-3.126562e-10,6.468750e-03
-3.086562e-10,6.343750e-03
-3.046563e-10,6.250000e-03
-3.006563e-10,6.421875e-03
-2.966562e-10,6.015625e-03
-2.926562e-10,5.781250e-03
-2.886563e-10,5.812500e-03
-2.846562e-10,6.000000e-03
-2.806562e-10,5.656250e-03
-2.766562e-10,5.609375e-03
-2.726563e-10,5.531250e-03
-2.686562e-10,5.453125e-03
-2.646562e-10,5.453125e-03
-2.606563e-10,5.734375e-03
-2.566563e-10,5.484375e-03
-2.526562e-10,5.437500e-03
-2.486562e-10,5.640625e-03
-2.446563e-10,6.062500e-03
-2.406563e-10,5.937500e-03
-2.366562e-10,6.140625e-03
-2.326562e-10,6.312500e-03
-2.286562e-10,6.484375e-03
-2.246562e-10,6.750000e-03
-2.206562e-10,7.281250e-03
-2.166562e-10,7.281250e-03
-2.126562e-10,7.453125e-03
-2.086563e-10,7.859375e-03
-2.046562e-10,8.453125e-03
-2.006563e-10,8.468750e-03
-1.966562e-10,8.781250e-03
-1.926563e-10,9.031250e-03
-1.886562e-10,9.234375e-03
-1.846563e-10,9.500000e-03
-1.806562e-10,9.984375e-03
-1.766563e-10,9.921875e-03
-1.726562e-10,9.953125e-03
-1.686563e-10,1.018750e-02
-1.646562e-10,1.057813e-02
-1.606562e-10,1.034375e-02
-1.566562e-10,1.039063e-02
-1.526562e-10,1.035938e-02
-1.486563e-10,1.026563e-02
-1.446562e-10,1.021875e-02
-1.406563e-10,1.037500e-02
-1.366562e-10,1.001563e-02
-1.326563e-10,9.765625e-03
-1.286562e-10,9.718750e-03
-1.246563e-10,9.859375e-03
-1.206562e-10,9.421875e-03
-1.166563e-10,9.296875e-03
-1.126562e-10,9.156250e-03
-1.086562e-10,9.031250e-03
-1.046562e-10,9.015625e-03
-1.006562e-10,9.281250e-03
-9.665625e-11,9.125000e-03
-9.265625e-11,9.171875e-03
-8.865625e-11,9.468750e-03
-8.465625e-11,1.009375e-02
-8.065625e-11,1.021875e-02
-7.665625e-11,1.073438e-02
-7.265625e-11,1.134375e-02
-6.865625e-11,1.207813e-02
-6.465625e-11,1.296875e-02
-6.065625e-11,1.426563e-02
-5.665625e-11,1.521875e-02
-5.265625e-11,1.643750e-02
-4.865625e-11,1.798438e-02
-4.465625e-11,1.990625e-02
-4.065625e-11,2.140625e-02
-3.665625e-11,2.331250e-02
-3.265625e-11,2.537500e-02
-2.865625e-11,2.757813e-02
-2.465625e-11,2.995313e-02
-2.065625e-11,3.275000e-02
-1.665625e-11,3.518750e-02
-1.265625e-11,3.790625e-02
-8.656250e-12,4.090625e-02
-4.656250e-12,4.426563e-02
-6.562500e-13,4.718750e-02
3.343750e-12,5.045313e-02
7.343750e-12,5.382813e-02
1.134375e-11,5.731250e-02
1.534375e-11,6.089063e-02
1.934375e-11,6.484375e-02
2.334375e-11,6.839063e-02
2.734375e-11,7.215625e-02
3.134375e-11,7.610938e-02
3.534375e-11,8.035938e-02
3.934375e-11,8.415625e-02
4.334375e-11,8.820313e-02
4.734375e-11,9.229688e-02
5.134375e-11,9.645313e-02
5.534375e-11,1.006406e-01
5.934375e-11,1.051563e-01
6.334375e-11,1.092031e-01
6.734375e-11,1.134219e-01
7.134375e-11,1.177813e-01
7.534375e-11,1.223594e-01
7.934375e-11,1.264688e-01
8.334375e-11,1.307813e-01
8.734375e-11,1.350938e-01
9.134375e-11,1.394063e-01
9.534375e-11,1.436875e-01
9.934375e-11,1.482344e-01
1.033437e-10,1.522813e-01
1.073437e-10,1.564219e-01
1.113437e-10,1.606250e-01
1.153437e-10,1.649688e-01
1.193438e-10,1.687813e-01
1.233437e-10,1.726875e-01
1.273438e-10,1.765156e-01
1.313437e-10,1.802500e-01
1.353438e-10,1.838438e-01
1.393437e-10,1.875781e-01
1.433437e-10,1.907188e-01
1.473437e-10,1.938281e-01
1.513437e-10,1.968750e-01
1.553438e-10,1.999219e-01
1.593437e-10,2.023281e-01
1.633438e-10,2.047188e-01
1.673437e-10,2.068906e-01
1.713438e-10,2.088438e-01
1.753437e-10,2.105469e-01
1.793438e-10,2.122656e-01
1.833437e-10,2.132813e-01
1.873438e-10,2.142031e-01
1.913437e-10,2.149688e-01
1.953438e-10,2.156406e-01
1.993437e-10,2.156094e-01
2.033437e-10,2.155469e-01
2.073437e-10,2.152344e-01
2.113437e-10,2.146875e-01
2.153437e-10,2.138906e-01
2.193437e-10,2.130781e-01
2.233438e-10,2.116406e-01
2.273437e-10,2.101250e-01
2.313438e-10,2.085313e-01
2.353437e-10,2.069063e-01
2.393437e-10,2.046563e-01
2.433438e-10,2.025156e-01
2.473438e-10,2.002188e-01
2.513437e-10,1.977969e-01
2.553437e-10,1.952813e-01
2.593438e-10,1.928438e-01
2.633437e-10,1.899219e-01
2.673437e-10,1.870938e-01
2.713437e-10,1.842969e-01
2.753438e-10,1.816406e-01
2.793437e-10,1.784531e-01
2.833437e-10,1.755469e-01
2.873438e-10,1.725781e-01
2.913438e-10,1.696250e-01
2.953437e-10,1.666875e-01
2.993437e-10,1.639375e-01
3.033438e-10,1.607500e-01
3.073438e-10,1.577656e-01
3.113437e-10,1.548906e-01
3.153437e-10,1.521875e-01
3.193438e-10,1.490156e-01
3.233437e-10,1.461563e-01
3.273437e-10,1.432500e-01
3.313437e-10,1.404063e-01
3.353438e-10,1.375625e-01
3.393437e-10,1.349063e-01
3.433437e-10,1.317813e-01
3.473438e-10,1.288594e-01
3.513438e-10,1.260313e-01
3.553437e-10,1.233594e-01
3.593437e-10,1.201875e-01
3.633438e-10,1.173125e-01
3.673438e-10,1.143906e-01
3.713437e-10,1.114844e-01
3.753437e-10,1.085781e-01
3.793438e-10,1.058750e-01
3.833437e-10,1.026719e-01
3.873437e-10,9.968750e-02
3.913437e-10,9.682813e-02
3.953438e-10,9.412500e-02
3.993437e-10,9.095313e-02
4.033437e-10,8.809375e-02
4.073437e-10,8.526563e-02
4.113438e-10,8.248438e-02
4.153437e-10,7.976563e-02
4.193437e-10,7.732813e-02
4.233438e-10,7.440625e-02
4.273438e-10,7.178125e-02
4.313437e-10,6.937500e-02
4.353437e-10,6.717188e-02
4.393438e-10,6.459375e-02
4.433437e-10,6.235938e-02
4.473437e-10,6.025000e-02
4.513437e-10,5.823438e-02
4.553438e-10,5.632813e-02
4.593437e-10,5.476563e-02
4.633437e-10,5.275000e-02
4.673438e-10,5.106250e-02
4.713438e-10,4.962500e-02
4.753437e-10,4.840625e-02
4.793437e-10,4.684375e-02
4.833437e-10,4.557813e-02
4.873437e-10,4.446875e-02
4.913438e-10,4.340625e-02
4.953438e-10,4.242188e-02
4.993438e-10,4.178125e-02
5.033437e-10,4.062500e-02
5.073437e-10,3.973438e-02
5.113437e-10,3.907813e-02
5.153437e-10,3.857813e-02
5.193437e-10,3.765625e-02
5.233438e-10,3.700000e-02
5.273438e-10,3.643750e-02
5.313438e-10,3.587500e-02
5.353437e-10,3.529688e-02
5.393437e-10,3.503125e-02
5.433437e-10,3.420313e-02
5.473437e-10,3.357813e-02
5.513438e-10,3.315625e-02
5.553438e-10,3.287500e-02
5.593438e-10,3.210938e-02
5.633437e-10,3.157813e-02
5.673437e-10,3.112500e-02
5.713437e-10,3.065625e-02
5.753437e-10,3.014063e-02
5.793437e-10,2.992188e-02
5.833438e-10,2.914063e-02
5.873438e-10,2.856250e-02
5.913438e-10,2.818750e-02
5.953437e-10,2.795313e-02
5.993437e-10,2.721875e-02
6.033437e-10,2.673438e-02
6.073437e-10,2.631250e-02
6.113438e-10,2.587500e-02
6.153438e-10,2.539063e-02
6.193438e-10,2.518750e-02
6.233437e-10,2.442188e-02
6.273437e-10,2.382813e-02
6.313437e-10,2.345313e-02
6.353437e-10,2.321875e-02
6.393437e-10,2.243750e-02
6.433438e-10,2.187500e-02
6.473438e-10,2.137500e-02
6.513438e-10,2.082813e-02
6.553437e-10,2.020313e-02
6.593437e-10,1.984375e-02
6.633437e-10,1.889063e-02
6.673437e-10,1.809375e-02
6.713438e-10,1.748438e-02
6.753438e-10,1.701563e-02
6.793438e-10,1.595313e-02
6.833437e-10,1.512500e-02
6.873437e-10,1.432813e-02
6.913437e-10,1.350000e-02
6.953437e-10,1.259375e-02
6.993437e-10,1.195313e-02
7.033438e-10,1.073438e-02
7.073438e-10,9.703125e-03
7.113438e-10,8.890625e-03
7.153437e-10,8.250000e-03
7.193437e-10,7.062500e-03
7.233437e-10,6.171875e-03
7.273437e-10,5.343750e-03
7.313438e-10,4.546875e-03
7.353438e-10,3.750000e-03
7.393438e-10,3.296875e-03
7.433437e-10,2.312500e-03
7.473437e-10,1.593750e-03
7.513437e-10,1.156250e-03
7.553437e-10,1.000000e-03
7.593437e-10,3.125000e-04
7.633438e-10,1.562500e-05
7.673438e-10,-1.875000e-04
7.713438e-10,-2.812500e-04
7.753437e-10,-3.437500e-04
7.793437e-10,-1.562500e-05
7.833437e-10,-1.875000e-04
7.873437e-10,-7.812500e-05
7.913437e-10,3.281250e-04
7.953438e-10,1.000000e-03
7.993438e-10,1.156250e-03
8.033437e-10,1.656250e-03
8.073437e-10,2.250000e-03
8.113437e-10,2.875000e-03
8.153437e-10,3.515625e-03
8.193437e-10,4.484375e-03
8.233438e-10,4.890625e-03
8.273438e-10,5.500000e-03
8.313438e-10,6.328125e-03
8.353437e-10,7.343750e-03
8.393437e-10,7.750000e-03
8.433437e-10,8.421875e-03
8.473437e-10,9.062500e-03
8.513437e-10,9.671875e-03
8.553438e-10,1.021875e-02
8.593438e-10,1.100000e-02
8.633437e-10,1.112500e-02
8.673437e-10,1.139063e-02
8.713437e-10,1.179688e-02
8.753437e-10,1.232813e-02
8.793437e-10,1.218750e-02
8.833438e-10,1.228125e-02
8.873438e-10,1.229688e-02
8.913438e-10,1.226563e-02
8.953437e-10,1.214063e-02
8.993437e-10,1.226563e-02
9.033437e-10,1.173438e-02
9.073437e-10,1.134375e-02
9.113437e-10,1.112500e-02
9.153438e-10,1.106250e-02
9.193438e-10,1.037500e-02
9.233437e-10,9.968750e-03
9.273437e-10,9.562500e-03
9.313437e-10,9.140625e-03
9.353437e-10,8.703125e-03
9.393437e-10,8.593750e-03
9.433437e-10,7.906250e-03
9.473437e-10,7.437500e-03
9.513437e-10,7.218750e-03
9.553437e-10,7.234375e-03
9.593438e-10,6.703125e-03
9.633438e-10,6.515625e-03
9.673438e-10,6.375000e-03
9.713438e-10,6.312500e-03
9.753438e-10,6.296875e-03
9.793438e-10,6.640625e-03
9.833437e-10,6.453125e-03
9.873437e-10,6.515625e-03
9.913437e-10,6.859375e-03
9.953437e-10,7.437500e-03
9.993437e-10,7.484375e-03
1.003344e-09,7.875000e-03
1.007344e-09,8.312500e-03
1.011344e-09,8.781250e-03
1.015344e-09,9.281250e-03
1.019344e-09,1.009375e-02
1.023344e-09,1.032813e-02
1.027344e-09,1.076563e-02
1.031344e-09,1.142188e-02
1.035344e-09,1.225000e-02
1.039344e-09,1.246875e-02
1.043344e-09,1.296875e-02
1.047344e-09,1.343750e-02
1.051344e-09,1.385938e-02
1.055344e-09,1.423438e-02
1.059344e-09,1.485938e-02
1.063344e-09,1.482813e-02
1.067344e-09,1.492188e-02
1.071344e-09,1.517188e-02
1.075344e-09,1.556250e-02
1.079344e-09,1.526563e-02
1.083344e-09,1.520313e-02
1.087344e-09,1.507813e-02
1.091344e-09,1.487500e-02
1.095344e-09,1.462500e-02
1.099344e-09,1.459375e-02
1.103344e-09,1.390625e-02
1.107344e-09,1.337500e-02
1.111344e-09,1.298438e-02
1.115344e-09,1.276563e-02
1.119344e-09,1.189063e-02
1.123344e-09,1.131250e-02
1.127344e-09,1.068750e-02
1.131344e-09,1.006250e-02
1.135344e-09,9.437500e-03
1.139344e-09,9.093750e-03
1.143344e-09,8.171875e-03
1.147344e-09,7.468750e-03
1.151344e-09,6.968750e-03
1.155344e-09,6.703125e-03
1.159344e-09,5.875000e-03
1.163344e-09,5.375000e-03
1.167344e-09,4.906250e-03
1.171344e-09,4.500000e-03
1.175344e-09,4.140625e-03
1.179344e-09,4.109375e-03
1.183344e-09,3.531250e-03
1.187344e-09,3.218750e-03
1.191344e-09,3.140625e-03
1.195344e-09,3.312500e-03
1.199344e-09,2.921875e-03
1.203344e-09,2.875000e-03
1.207344e-09,2.859375e-03
1.211344e-09,2.890625e-03
1.215344e-09,2.953125e-03
1.219344e-09,3.343750e-03
1.223344e-09,3.140625e-03
1.227344e-09,3.171875e-03
1.231344e-09,3.421875e-03
1.235344e-09,3.875000e-03
1.239344e-09,3.734375e-03
1.243344e-09,3.890625e-03
1.247344e-09,4.046875e-03
1.251344e-09,4.218750e-03
1.255344e-09,4.375000e-03
1.259344e-09,4.828125e-03
1.263344e-09,4.656250e-03
1.267344e-09,4.687500e-03
1.271344e-09,4.906250e-03
1.275344e-09,5.312500e-03
1.279344e-09,5.109375e-03
1.283344e-09,5.187500e-03
1.287344e-09,5.281250e-03
1.291344e-09,5.343750e-03
1.295344e-09,5.406250e-03
1.299344e-09,5.781250e-03
1.303344e-09,5.531250e-03
1.307344e-09,5.484375e-03
1.311344e-09,5.625000e-03
1.315344e-09,5.984375e-03
1.319344e-09,5.734375e-03
1.323344e-09,5.796875e-03
1.327344e-09,5.859375e-03
1.331344e-09,5.906250e-03
1.335344e-09,5.968750e-03
1.339344e-09,6.343750e-03
1.343344e-09,6.109375e-03
1.347344e-09,6.078125e-03
1.351344e-09,6.250000e-03
1.355344e-09,6.609375e-03
1.359344e-09,6.375000e-03
1.363344e-09,6.437500e-03
1.367344e-09,6.500000e-03
1.371344e-09,6.546875e-03
1.375344e-09,6.578125e-03
1.379344e-09,6.906250e-03
1.383344e-09,6.625000e-03
1.387344e-09,6.531250e-03
1.391344e-09,6.640625e-03
1.395344e-09,6.921875e-03
1.399344e-09,6.593750e-03
1.403344e-09,6.546875e-03
1.407344e-09,6.500000e-03
1.411344e-09,6.453125e-03
1.415344e-09,6.390625e-03
1.419344e-09,6.640625e-03
1.423344e-09,6.281250e-03
1.427344e-09,6.125000e-03
1.431344e-09,6.171875e-03
1.435344e-09,6.421875e-03
1.439344e-09,6.093750e-03
1.443344e-09,6.078125e-03
1.447344e-09,6.093750e-03
1.451344e-09,6.109375e-03
1.455344e-09,6.156250e-03
1.459344e-09,6.546875e-03
1.463344e-09,6.343750e-03
1.467344e-09,6.375000e-03
1.471344e-09,6.640625e-03
1.475344e-09,7.125000e-03
1.479344e-09,7.031250e-03
1.483344e-09,7.265625e-03
1.487344e-09,7.531250e-03
1.491344e-09,7.796875e-03
1.495344e-09,8.078125e-03
1.499344e-09,8.687500e-03
1.503344e-09,8.671875e-03
1.507344e-09,8.859375e-03
1.511344e-09,9.250000e-03
1.515344e-09,9.812500e-03
1.519344e-09,9.750000e-03
1.523344e-09,9.953125e-03
1.527344e-09,1.014063e-02
1.531344e-09,1.026563e-02
1.535344e-09,1.034375e-02
1.539344e-09,1.068750e-02
1.543344e-09,1.035938e-02
1.547344e-09,1.018750e-02
1.551344e-09,1.014063e-02
1.555344e-09,1.025000e-02
1.559344e-09,9.687500e-03
1.563344e-09,9.359375e-03
1.567344e-09,9.000000e-03
1.571344e-09,8.578125e-03
1.575344e-09,8.093750e-03
1.579344e-09,7.890625e-03
1.583344e-09,7.046875e-03
1.587344e-09,6.390625e-03
1.591344e-09,5.906250e-03
1.595344e-09,5.625000e-03
1.599344e-09,4.750000e-03
1.603344e-09,4.187500e-03
1.607344e-09,3.656250e-03
1.611344e-09,3.171875e-03
1.615344e-09,2.718750e-03
1.619344e-09,2.625000e-03
1.623344e-09,2.000000e-03
1.627344e-09,1.640625e-03
1.631344e-09,1.562500e-03
1.635344e-09,1.781250e-03
1.639344e-09,1.468750e-03
1.643344e-09,1.562500e-03
1.647344e-09,1.734375e-03
1.651344e-09,2.015625e-03
1.655344e-09,2.359375e-03
1.659344e-09,3.109375e-03
1.663344e-09,3.312500e-03
1.667344e-09,3.781250e-03
1.671344e-09,4.531250e-03
1.675344e-09,5.515625e-03
1.679344e-09,5.937500e-03
1.683344e-09,6.687500e-03
1.687344e-09,7.437500e-03
1.691344e-09,8.203125e-03
1.695344e-09,8.937500e-03
1.699344e-09,9.953125e-03
1.703344e-09,1.032813e-02
1.707344e-09,1.082813e-02
1.711344e-09,1.148438e-02
1.715344e-09,1.225000e-02
1.719344e-09,1.232813e-02
1.723344e-09,1.260938e-02
1.727344e-09,1.279688e-02
1.731344e-09,1.285938e-02
1.735344e-09,1.282813e-02
1.739344e-09,1.298438e-02
1.743344e-09,1.242188e-02
1.747344e-09,1.195313e-02
1.751344e-09,1.157813e-02
1.755344e-09,1.132813e-02
1.759344e-09,1.037500e-02
