Measurements-streak-laser/Old-photodiode-on-Tek/SaveOnEvent_ch1_20190613112408078.csv

Model,MSO64
Waveform Type,ANALOG
Horizontal Units,s
Sample Interval,4.000000e-11
Record Length,1000
Zero Index,219.578125
Vertical Units,V

TIME,CH1
-8.783125e-09,-7.875000e-03
-8.743125e-09,-9.843750e-03
-8.703125e-09,-1.212500e-02
-8.663125e-09,-1.340625e-02
-8.623125e-09,-1.256250e-02
-8.583125e-09,-9.593750e-03
-8.543125e-09,-5.906250e-03
-8.503125e-09,-3.687500e-03
-8.463125e-09,-4.406250e-03
-8.423125e-09,-7.593750e-03
-8.383125e-09,-1.090625e-02
-8.343125e-09,-1.171875e-02
-8.303125e-09,-9.250000e-03
-8.263125e-09,-5.062500e-03
-8.223125e-09,-2.312500e-03
-8.183125e-09,-3.093750e-03
-8.143125e-09,-7.062500e-03
-8.103125e-09,-1.156250e-02
-8.063125e-09,-1.359375e-02
-8.023125e-09,-1.209375e-02
-7.983125e-09,-8.562500e-03
-7.943125e-09,-5.625000e-03
-7.903125e-09,-5.218750e-03
-7.863125e-09,-7.125000e-03
-7.823125e-09,-9.625000e-03
-7.783125e-09,-1.096875e-02
-7.743125e-09,-1.065625e-02
-7.703125e-09,-9.468750e-03
-7.663125e-09,-8.343750e-03
-7.623125e-09,-7.781250e-03
-7.583125e-09,-7.500000e-03
-7.543125e-09,-7.218750e-03
-7.503125e-09,-7.218750e-03
-7.463125e-09,-7.906250e-03
-7.423125e-09,-9.406250e-03
-7.383125e-09,-1.096875e-02
-7.343125e-09,-1.153125e-02
-7.303125e-09,-1.059375e-02
-7.263125e-09,-8.937500e-03
-7.223125e-09,-7.968750e-03
-7.183125e-09,-8.593750e-03
-7.143125e-09,-1.025000e-02
-7.103125e-09,-1.115625e-02
-7.063125e-09,-9.562500e-03
-7.023125e-09,-5.437500e-03
-6.983125e-09,-5.937500e-04
-6.943125e-09,2.343750e-03
-6.903125e-09,1.812500e-03
-6.863125e-09,-1.656250e-03
-6.823125e-09,-5.875000e-03
-6.783125e-09,-8.500000e-03
-6.743125e-09,-8.562500e-03
-6.703125e-09,-6.937500e-03
-6.663125e-09,-5.406250e-03
-6.623125e-09,-5.312500e-03
-6.583125e-09,-6.750000e-03
-6.543125e-09,-8.781250e-03
-6.503125e-09,-1.021875e-02
-6.463125e-09,-1.046875e-02
-6.423125e-09,-9.593750e-03
-6.383125e-09,-8.093750e-03
-6.343125e-09,-6.500000e-03
-6.303125e-09,-5.187500e-03
-6.263125e-09,-4.468750e-03
-6.223125e-09,-4.718750e-03
-6.183125e-09,-6.093750e-03
-6.143125e-09,-8.250000e-03
-6.103125e-09,-1.037500e-02
-6.063125e-09,-1.146875e-02
-6.023125e-09,-1.106250e-02
-5.983125e-09,-9.562500e-03
-5.943125e-09,-7.843750e-03
-5.903125e-09,-6.781250e-03
-5.863125e-09,-6.625000e-03
-5.823125e-09,-6.875000e-03
-5.783125e-09,-6.843750e-03
-5.743125e-09,-6.093750e-03
-5.703125e-09,-4.937500e-03
-5.663125e-09,-4.125000e-03
-5.623125e-09,-4.375000e-03
-5.583125e-09,-5.812500e-03
-5.543125e-09,-7.968750e-03
-5.503125e-09,-1.003125e-02
-5.463125e-09,-1.121875e-02
-5.423125e-09,-1.112500e-02
-5.383125e-09,-9.906250e-03
-5.343125e-09,-8.187500e-03
-5.303125e-09,-6.812500e-03
-5.263125e-09,-6.531250e-03
-5.223125e-09,-7.593750e-03
-5.183125e-09,-9.437500e-03
-5.143125e-09,-1.090625e-02
-5.103125e-09,-1.075000e-02
-5.063125e-09,-8.500000e-03
-5.023125e-09,-4.843750e-03
-4.983125e-09,-1.437500e-03
-4.943125e-09,-1.875000e-04
-4.903125e-09,-2.000000e-03
-4.863125e-09,-6.187500e-03
-4.823125e-09,-1.056250e-02
-4.783125e-09,-1.262500e-02
-4.743125e-09,-1.093750e-02
-4.703125e-09,-6.187500e-03
-4.663125e-09,-7.187500e-04
-4.623125e-09,2.531250e-03
-4.583125e-09,1.968750e-03
-4.543125e-09,-1.750000e-03
-4.503125e-09,-5.906250e-03
-4.463125e-09,-7.593750e-03
-4.423125e-09,-5.375000e-03
-4.383125e-09,-4.687500e-04
-4.343125e-09,4.000000e-03
-4.303125e-09,5.062500e-03
-4.263125e-09,1.687500e-03
-4.223125e-09,-4.562500e-03
-4.183125e-09,-1.059375e-02
-4.143125e-09,-1.368750e-02
-4.103125e-09,-1.309375e-02
-4.063125e-09,-1.015625e-02
-4.023125e-09,-7.156250e-03
-3.983125e-09,-5.843750e-03
-3.943125e-09,-6.437500e-03
-3.903125e-09,-8.000000e-03
-3.863125e-09,-9.218750e-03
-3.823125e-09,-9.343750e-03
-3.783125e-09,-8.562500e-03
-3.743125e-09,-7.562500e-03
-3.703125e-09,-6.968750e-03
-3.663125e-09,-7.000000e-03
-3.623125e-09,-7.437500e-03
-3.583125e-09,-7.750000e-03
-3.543125e-09,-7.437500e-03
-3.503125e-09,-6.218750e-03
-3.463125e-09,-4.312500e-03
-3.423125e-09,-2.531250e-03
-3.383125e-09,-1.875000e-03
-3.343125e-09,-3.000000e-03
-3.303125e-09,-5.718750e-03
-3.263125e-09,-8.781250e-03
-3.223125e-09,-1.046875e-02
-3.183125e-09,-9.718750e-03
-3.143125e-09,-6.687500e-03
-3.103125e-09,-3.031250e-03
-3.063125e-09,-8.437500e-04
-3.023125e-09,-1.562500e-03
-2.983125e-09,-4.968750e-03
-2.943125e-09,-9.437500e-03
-2.903125e-09,-1.281250e-02
-2.863125e-09,-1.350000e-02
-2.823125e-09,-1.140625e-02
-2.783125e-09,-7.656250e-03
-2.743125e-09,-4.156250e-03
-2.703125e-09,-2.437500e-03
-2.663125e-09,-3.000000e-03
-2.623125e-09,-5.156250e-03
-2.583125e-09,-7.437500e-03
-2.543125e-09,-8.437500e-03
-2.503125e-09,-7.593750e-03
-2.463125e-09,-5.625000e-03
-2.423125e-09,-3.875000e-03
-2.383125e-09,-3.500000e-03
-2.343125e-09,-4.718750e-03
-2.303125e-09,-6.687500e-03
-2.263125e-09,-8.218750e-03
-2.223125e-09,-8.593750e-03
-2.183125e-09,-8.281250e-03
-2.143125e-09,-8.156250e-03
-2.103125e-09,-8.843750e-03
-2.063125e-09,-9.625000e-03
-2.023125e-09,-9.125000e-03
-1.983125e-09,-6.250000e-03
-1.943125e-09,-1.500000e-03
-1.903125e-09,3.156250e-03
-1.863125e-09,5.312500e-03
-1.823125e-09,4.031250e-03
-1.783125e-09,4.062500e-04
-1.743125e-09,-3.062500e-03
-1.703125e-09,-4.343750e-03
-1.663125e-09,-3.218750e-03
-1.623125e-09,-1.093750e-03
-1.583125e-09,2.812500e-04
-1.543125e-09,2.812500e-04
-1.503125e-09,-1.250000e-04
-1.463125e-09,4.687500e-04
-1.423125e-09,2.937500e-03
-1.383125e-09,6.656250e-03
-1.343125e-09,1.046875e-02
-1.303125e-09,1.356250e-02
-1.263125e-09,1.621875e-02
-1.223125e-09,1.909375e-02
-1.183125e-09,2.250000e-02
-1.143125e-09,2.556250e-02
-1.103125e-09,2.734375e-02
-1.063125e-09,2.746875e-02
-1.023125e-09,2.725000e-02
-9.831250e-10,2.865625e-02
-9.431250e-10,3.312500e-02
-9.031250e-10,4.006250e-02
-8.631250e-10,4.762500e-02
-8.231250e-10,5.359375e-02
-7.831250e-10,5.771875e-02
-7.431250e-10,6.125000e-02
-7.031250e-10,6.653125e-02
-6.631250e-10,7.456250e-02
-6.231250e-10,8.475000e-02
-5.831250e-10,9.478125e-02
-5.431250e-10,1.029687e-01
-5.031250e-10,1.088125e-01
-4.631250e-10,1.137188e-01
-4.231250e-10,1.192500e-01
-3.831250e-10,1.263438e-01
-3.431250e-10,1.343438e-01
-3.031250e-10,1.422500e-01
-2.631250e-10,1.490000e-01
-2.231250e-10,1.550000e-01
-1.831250e-10,1.609063e-01
-1.431250e-10,1.677187e-01
-1.031250e-10,1.753750e-01
-6.312500e-11,1.835313e-01
-2.312500e-11,1.915000e-01
1.687500e-11,1.992813e-01
5.687500e-11,2.066563e-01
9.687500e-11,2.136563e-01
1.368750e-10,2.195625e-01
1.768750e-10,2.241250e-01
2.168750e-10,2.274063e-01
2.568750e-10,2.306250e-01
2.968750e-10,2.350000e-01
3.368750e-10,2.414375e-01
3.768750e-10,2.491875e-01
4.168750e-10,2.569688e-01
4.568750e-10,2.631875e-01
4.968750e-10,2.677188e-01
5.368750e-10,2.714687e-01
5.768750e-10,2.760313e-01
6.168750e-10,2.820937e-01
6.568750e-10,2.893125e-01
6.968750e-10,2.963437e-01
7.368750e-10,3.021875e-01
7.768750e-10,3.063125e-01
8.168750e-10,3.091250e-01
8.568750e-10,3.107813e-01
8.968750e-10,3.115000e-01
9.368750e-10,3.113125e-01
9.768750e-10,3.112500e-01
1.016875e-09,3.127500e-01
1.056875e-09,3.174063e-01
1.096875e-09,3.251250e-01
1.136875e-09,3.341562e-01
1.176875e-09,3.414375e-01
1.216875e-09,3.447812e-01
1.256875e-09,3.440313e-01
1.296875e-09,3.414687e-01
1.336875e-09,3.400625e-01
1.376875e-09,3.415625e-01
1.416875e-09,3.454062e-01
1.456875e-09,3.493125e-01
1.496875e-09,3.509375e-01
1.536875e-09,3.494375e-01
1.576875e-09,3.459062e-01
1.616875e-09,3.423750e-01
1.656875e-09,3.405313e-01
1.696875e-09,3.409375e-01
1.736875e-09,3.430313e-01
1.776875e-09,3.456250e-01
1.816875e-09,3.476250e-01
1.856875e-09,3.481563e-01
1.896875e-09,3.469687e-01
1.936875e-09,3.442500e-01
1.976875e-09,3.405937e-01
2.016875e-09,3.367812e-01
2.056875e-09,3.333750e-01
2.096875e-09,3.302500e-01
2.136875e-09,3.269375e-01
2.176875e-09,3.229063e-01
2.216875e-09,3.183750e-01
2.256875e-09,3.143125e-01
2.296875e-09,3.118437e-01
2.336875e-09,3.112813e-01
2.376875e-09,3.116875e-01
2.416875e-09,3.110938e-01
2.456875e-09,3.080000e-01
2.496875e-09,3.023125e-01
2.536875e-09,2.958125e-01
2.576875e-09,2.908438e-01
2.616875e-09,2.889375e-01
2.656875e-09,2.893750e-01
2.696875e-09,2.898125e-01
2.736875e-09,2.873750e-01
2.776875e-09,2.810000e-01
2.816875e-09,2.715313e-01
2.856875e-09,2.615625e-01
2.896875e-09,2.532813e-01
2.936875e-09,2.477500e-01
2.976875e-09,2.438750e-01
3.016875e-09,2.400313e-01
3.056875e-09,2.348438e-01
3.096875e-09,2.285313e-01
3.136875e-09,2.222813e-01
3.176875e-09,2.175000e-01
3.216875e-09,2.143125e-01
3.256875e-09,2.118125e-01
3.296875e-09,2.079063e-01
3.336875e-09,2.012188e-01
3.376875e-09,1.915000e-01
3.416875e-09,1.803750e-01
3.456875e-09,1.700625e-01
3.496875e-09,1.625938e-01
3.536875e-09,1.583125e-01
3.576875e-09,1.562813e-01
3.616875e-09,1.540000e-01
3.656875e-09,1.495625e-01
3.696875e-09,1.418750e-01
3.736875e-09,1.320313e-01
3.776875e-09,1.219062e-01
3.816875e-09,1.140000e-01
3.856875e-09,1.091875e-01
3.896875e-09,1.069063e-01
3.936875e-09,1.047813e-01
3.976875e-09,1.006250e-01
4.016875e-09,9.309375e-02
4.056875e-09,8.321875e-02
4.096875e-09,7.315625e-02
4.136875e-09,6.537500e-02
4.176875e-09,6.068750e-02
4.216875e-09,5.812500e-02
4.256875e-09,5.528125e-02
4.296875e-09,5.034375e-02
4.336875e-09,4.287500e-02
4.376875e-09,3.456250e-02
4.416875e-09,2.765625e-02
4.456875e-09,2.371875e-02
4.496875e-09,2.228125e-02
4.536875e-09,2.150000e-02
4.576875e-09,1.903125e-02
4.616875e-09,1.406250e-02
4.656875e-09,7.125000e-03
4.696875e-09,9.375000e-05
4.736875e-09,-5.812500e-03
4.776875e-09,-1.025000e-02
4.816875e-09,-1.418750e-02
4.856875e-09,-1.850000e-02
4.896875e-09,-2.350000e-02
4.936875e-09,-2.850000e-02
4.976875e-09,-3.284375e-02
5.016875e-09,-3.631250e-02
5.056875e-09,-3.950000e-02
5.096875e-09,-4.271875e-02
5.136875e-09,-4.575000e-02
5.176875e-09,-4.771875e-02
5.216875e-09,-4.821875e-02
5.256875e-09,-4.793750e-02
5.296875e-09,-4.875000e-02
5.336875e-09,-5.225000e-02
5.376875e-09,-5.862500e-02
5.416875e-09,-6.578125e-02
5.456875e-09,-7.100000e-02
5.496875e-09,-7.246875e-02
5.536875e-09,-7.090625e-02
5.576875e-09,-6.881250e-02
5.616875e-09,-6.896875e-02
5.656875e-09,-7.228125e-02
5.696875e-09,-7.759375e-02
5.736875e-09,-8.256250e-02
5.776875e-09,-8.556250e-02
5.816875e-09,-8.634375e-02
5.856875e-09,-8.609375e-02
5.896875e-09,-8.609375e-02
5.936875e-09,-8.709375e-02
5.976875e-09,-8.906250e-02
6.016875e-09,-9.168750e-02
6.056875e-09,-9.459375e-02
6.096875e-09,-9.762500e-02
6.136875e-09,-1.002500e-01
6.176875e-09,-1.019375e-01
6.216875e-09,-1.021875e-01
6.256875e-09,-1.011875e-01
6.296875e-09,-9.962500e-02
6.336875e-09,-9.818750e-02
6.376875e-09,-9.703125e-02
6.416875e-09,-9.590625e-02
6.456875e-09,-9.462500e-02
6.496875e-09,-9.356250e-02
6.536875e-09,-9.368750e-02
6.576875e-09,-9.581250e-02
6.616875e-09,-9.978125e-02
6.656875e-09,-1.040312e-01
6.696875e-09,-1.065000e-01
6.736875e-09,-1.058125e-01
6.776875e-09,-1.021563e-01
6.816875e-09,-9.725000e-02
6.856875e-09,-9.318750e-02
6.896875e-09,-9.112500e-02
6.936875e-09,-9.090625e-02
6.976875e-09,-9.146875e-02
7.016875e-09,-9.181250e-02
7.056875e-09,-9.156250e-02
7.096875e-09,-9.090625e-02
7.136875e-09,-9.003125e-02
7.176875e-09,-8.875000e-02
7.216875e-09,-8.675000e-02
7.256875e-09,-8.396875e-02
7.296875e-09,-8.087500e-02
7.336875e-09,-7.825000e-02
7.376875e-09,-7.665625e-02
7.416875e-09,-7.631250e-02
7.456875e-09,-7.693750e-02
7.496875e-09,-7.821875e-02
7.536875e-09,-7.946875e-02
7.576875e-09,-8.003125e-02
7.616875e-09,-7.896875e-02
7.656875e-09,-7.581250e-02
7.696875e-09,-7.071875e-02
7.736875e-09,-6.506250e-02
7.776875e-09,-6.034375e-02
7.816875e-09,-5.759375e-02
7.856875e-09,-5.650000e-02
7.896875e-09,-5.609375e-02
7.936875e-09,-5.528125e-02
7.976875e-09,-5.403125e-02
8.016875e-09,-5.278125e-02
8.056875e-09,-5.200000e-02
8.096875e-09,-5.121875e-02
8.136875e-09,-4.965625e-02
8.176875e-09,-4.668750e-02
8.216875e-09,-4.303125e-02
8.256875e-09,-3.993750e-02
8.296875e-09,-3.843750e-02
8.336875e-09,-3.806250e-02
8.376875e-09,-3.734375e-02
8.416875e-09,-3.493750e-02
8.456875e-09,-3.096875e-02
8.496875e-09,-2.696875e-02
8.536875e-09,-2.493750e-02
8.576875e-09,-2.546875e-02
8.616875e-09,-2.750000e-02
8.656875e-09,-2.890625e-02
8.696875e-09,-2.812500e-02
8.736875e-09,-2.518750e-02
8.776875e-09,-2.156250e-02
8.816875e-09,-1.878125e-02
8.856875e-09,-1.746875e-02
8.896875e-09,-1.675000e-02
8.936875e-09,-1.531250e-02
8.976875e-09,-1.228125e-02
9.016875e-09,-8.093750e-03
9.056875e-09,-4.125000e-03
9.096875e-09,-2.062500e-03
9.136875e-09,-2.562500e-03
9.176875e-09,-5.156250e-03
9.216875e-09,-8.125000e-03
9.256875e-09,-9.687500e-03
9.296875e-09,-8.812500e-03
9.336875e-09,-5.656250e-03
9.376875e-09,-1.343750e-03
9.416875e-09,2.843750e-03
9.456875e-09,6.031250e-03
9.496875e-09,8.062500e-03
9.536875e-09,9.187500e-03
9.576875e-09,9.593750e-03
9.616875e-09,9.312500e-03
9.656875e-09,8.437500e-03
9.696875e-09,7.375000e-03
9.736875e-09,6.843750e-03
9.776875e-09,7.406250e-03
9.816875e-09,8.968750e-03
9.856875e-09,1.068750e-02
9.896875e-09,1.153125e-02
9.936875e-09,1.112500e-02
9.976875e-09,1.003125e-02
1.001687e-08,9.593750e-03
1.005688e-08,1.081250e-02
1.009687e-08,1.365625e-02
1.013687e-08,1.712500e-02
1.017687e-08,1.996875e-02
1.021687e-08,2.143750e-02
1.025687e-08,2.187500e-02
1.029687e-08,2.209375e-02
1.033688e-08,2.262500e-02
1.037687e-08,2.328125e-02
1.041687e-08,2.334375e-02
1.045687e-08,2.228125e-02
1.049687e-08,2.037500e-02
1.053688e-08,1.853125e-02
1.057687e-08,1.784375e-02
1.061687e-08,1.865625e-02
1.065687e-08,2.056250e-02
1.069687e-08,2.253125e-02
1.073687e-08,2.375000e-02
1.077687e-08,2.387500e-02
1.081688e-08,2.331250e-02
1.085687e-08,2.262500e-02
1.089687e-08,2.246875e-02
1.093687e-08,2.300000e-02
1.097687e-08,2.406250e-02
1.101687e-08,2.518750e-02
1.105687e-08,2.584375e-02
1.109687e-08,2.571875e-02
1.113687e-08,2.490625e-02
1.117687e-08,2.387500e-02
1.121687e-08,2.337500e-02
1.125687e-08,2.378125e-02
1.129688e-08,2.493750e-02
1.133687e-08,2.606250e-02
1.137687e-08,2.634375e-02
1.141687e-08,2.537500e-02
1.145687e-08,2.356250e-02
1.149687e-08,2.184375e-02
1.153687e-08,2.109375e-02
1.157687e-08,2.143750e-02
1.161687e-08,2.231250e-02
1.165687e-08,2.281250e-02
1.169687e-08,2.243750e-02
1.173687e-08,2.118750e-02
1.177688e-08,1.959375e-02
1.181687e-08,1.828125e-02
1.185687e-08,1.750000e-02
1.189687e-08,1.715625e-02
1.193687e-08,1.687500e-02
1.197687e-08,1.637500e-02
1.201687e-08,1.578125e-02
1.205687e-08,1.537500e-02
1.209687e-08,1.556250e-02
1.213687e-08,1.637500e-02
1.217687e-08,1.750000e-02
1.221687e-08,1.831250e-02
1.225688e-08,1.837500e-02
1.229687e-08,1.765625e-02
1.233687e-08,1.656250e-02
1.237687e-08,1.562500e-02
1.241687e-08,1.484375e-02
1.245687e-08,1.393750e-02
1.249687e-08,1.253125e-02
1.253687e-08,1.081250e-02
1.257687e-08,9.468750e-03
1.261687e-08,9.281250e-03
1.265687e-08,1.025000e-02
1.269687e-08,1.150000e-02
1.273688e-08,1.187500e-02
1.277687e-08,1.103125e-02
1.281687e-08,9.750000e-03
1.285687e-08,9.375000e-03
1.289687e-08,1.034375e-02
1.293687e-08,1.150000e-02
1.297687e-08,1.081250e-02
1.301687e-08,7.218750e-03
1.305687e-08,1.781250e-03
1.309687e-08,-2.468750e-03
1.313687e-08,-2.937500e-03
1.317687e-08,4.687500e-04
1.321688e-08,4.937500e-03
1.325687e-08,6.750000e-03
1.329687e-08,4.187500e-03
1.333687e-08,-9.687500e-04
1.337687e-08,-4.843750e-03
1.341687e-08,-4.531250e-03
1.345687e-08,-3.750000e-04
1.349687e-08,4.218750e-03
1.353687e-08,5.531250e-03
1.357687e-08,2.500000e-03
1.361687e-08,-2.718750e-03
1.365687e-08,-6.625000e-03
1.369687e-08,-7.125000e-03
1.373687e-08,-5.000000e-03
1.377687e-08,-2.812500e-03
1.381687e-08,-2.437500e-03
1.385687e-08,-3.750000e-03
1.389687e-08,-4.968750e-03
1.393687e-08,-4.593750e-03
1.397687e-08,-2.875000e-03
1.401687e-08,-1.437500e-03
1.405687e-08,-1.687500e-03
1.409687e-08,-3.437500e-03
1.413687e-08,-5.218750e-03
1.417687e-08,-5.531250e-03
1.421687e-08,-4.437500e-03
1.425687e-08,-3.250000e-03
1.429687e-08,-3.531250e-03
1.433687e-08,-5.468750e-03
1.437687e-08,-7.968750e-03
1.441687e-08,-9.562500e-03
1.445687e-08,-9.781250e-03
1.449687e-08,-9.375000e-03
1.453687e-08,-9.406250e-03
1.457687e-08,-1.012500e-02
1.461687e-08,-1.068750e-02
1.465687e-08,-9.906250e-03
1.469687e-08,-7.625000e-03
1.473687e-08,-4.906250e-03
1.477687e-08,-3.218750e-03
1.481687e-08,-3.375000e-03
1.485687e-08,-4.843750e-03
1.489687e-08,-6.625000e-03
1.493687e-08,-8.031250e-03
1.497687e-08,-9.281250e-03
1.501687e-08,-1.093750e-02
1.505688e-08,-1.293750e-02
1.509687e-08,-1.425000e-02
1.513687e-08,-1.390625e-02
1.517688e-08,-1.193750e-02
1.521687e-08,-9.781250e-03
1.525687e-08,-9.343750e-03
1.529687e-08,-1.131250e-02
1.533688e-08,-1.453125e-02
1.537687e-08,-1.653125e-02
1.541687e-08,-1.559375e-02
1.545688e-08,-1.190625e-02
1.549687e-08,-7.656250e-03
1.553687e-08,-5.375000e-03
1.557687e-08,-6.093750e-03
1.561688e-08,-8.843750e-03
1.565687e-08,-1.150000e-02
1.569687e-08,-1.237500e-02
1.573688e-08,-1.146875e-02
1.577687e-08,-1.009375e-02
1.581687e-08,-9.781250e-03
1.585687e-08,-1.093750e-02
1.589687e-08,-1.271875e-02
1.593687e-08,-1.368750e-02
1.597687e-08,-1.293750e-02
1.601688e-08,-1.065625e-02
1.605687e-08,-7.906250e-03
1.609687e-08,-5.968750e-03
1.613687e-08,-5.500000e-03
1.617687e-08,-6.593750e-03
1.621687e-08,-8.750000e-03
1.625687e-08,-1.143750e-02
1.629688e-08,-1.400000e-02
1.633687e-08,-1.562500e-02
1.637687e-08,-1.568750e-02
1.641688e-08,-1.390625e-02
1.645687e-08,-1.087500e-02
1.649687e-08,-7.968750e-03
1.653687e-08,-6.531250e-03
1.657687e-08,-7.062500e-03
1.661687e-08,-8.781250e-03
1.665687e-08,-9.968750e-03
1.669688e-08,-9.218750e-03
1.673687e-08,-6.500000e-03
1.677687e-08,-3.281250e-03
1.681687e-08,-1.593750e-03
1.685687e-08,-2.875000e-03
1.689687e-08,-6.750000e-03
1.693687e-08,-1.140625e-02
1.697688e-08,-1.465625e-02
1.701687e-08,-1.531250e-02
1.705687e-08,-1.393750e-02
1.709687e-08,-1.215625e-02
1.713687e-08,-1.150000e-02
1.717687e-08,-1.221875e-02
1.721687e-08,-1.331250e-02
1.725688e-08,-1.321875e-02
1.729687e-08,-1.128125e-02
1.733687e-08,-8.281250e-03
1.737688e-08,-5.906250e-03
1.741687e-08,-5.531250e-03
1.745687e-08,-7.250000e-03
1.749687e-08,-9.812500e-03
1.753687e-08,-1.184375e-02
1.757687e-08,-1.275000e-02
1.761687e-08,-1.318750e-02
1.765688e-08,-1.421875e-02
1.769687e-08,-1.609375e-02
1.773687e-08,-1.771875e-02
1.777687e-08,-1.737500e-02
1.781687e-08,-1.425000e-02
1.785687e-08,-9.281250e-03
1.789687e-08,-4.875000e-03
1.793688e-08,-3.093750e-03
1.797687e-08,-4.375000e-03
1.801687e-08,-7.250000e-03
1.805687e-08,-9.687500e-03
1.809687e-08,-1.062500e-02
1.813687e-08,-1.059375e-02
1.817687e-08,-1.075000e-02
1.821688e-08,-1.146875e-02
1.825687e-08,-1.187500e-02
1.829687e-08,-1.078125e-02
1.833688e-08,-8.156250e-03
1.837687e-08,-5.625000e-03
1.841687e-08,-5.312500e-03
1.845687e-08,-7.875000e-03
1.849687e-08,-1.140625e-02
1.853687e-08,-1.265625e-02
1.857687e-08,-9.562500e-03
1.861688e-08,-3.093750e-03
1.865687e-08,3.062500e-03
1.869687e-08,5.156250e-03
1.873687e-08,2.125000e-03
1.877687e-08,-3.687500e-03
1.881687e-08,-8.312500e-03
1.885687e-08,-9.125000e-03
1.889688e-08,-6.750000e-03
1.893687e-08,-4.093750e-03
1.897687e-08,-3.937500e-03
1.901687e-08,-6.875000e-03
1.905687e-08,-1.096875e-02
1.909687e-08,-1.353125e-02
1.913687e-08,-1.318750e-02
1.917688e-08,-1.071875e-02
1.921687e-08,-7.937500e-03
1.925687e-08,-6.343750e-03
1.929687e-08,-6.000000e-03
1.933687e-08,-6.062500e-03
1.937687e-08,-5.906250e-03
1.941687e-08,-5.656250e-03
1.945687e-08,-6.000000e-03
1.949687e-08,-7.250000e-03
1.953687e-08,-8.937500e-03
1.957688e-08,-1.009375e-02
1.961687e-08,-1.018750e-02
1.965687e-08,-9.375000e-03
1.969687e-08,-8.406250e-03
1.973687e-08,-7.687500e-03
1.977687e-08,-6.906250e-03
1.981687e-08,-5.250000e-03
1.985688e-08,-2.468750e-03
1.989687e-08,6.562500e-04
1.993687e-08,2.500000e-03
1.997687e-08,1.656250e-03
2.001687e-08,-1.968750e-03
2.005687e-08,-6.906250e-03
2.009687e-08,-1.103125e-02
2.013688e-08,-1.265625e-02
2.017687e-08,-1.162500e-02
2.021687e-08,-9.062500e-03
2.025687e-08,-6.406250e-03
2.029687e-08,-4.625000e-03
2.033687e-08,-3.843750e-03
2.037687e-08,-3.750000e-03
2.041687e-08,-4.218750e-03
2.045687e-08,-5.406250e-03
2.049687e-08,-7.343750e-03
2.053688e-08,-9.375000e-03
2.057687e-08,-1.028125e-02
2.061687e-08,-9.125000e-03
2.065687e-08,-6.156250e-03
