Measurements-streak-laser/Old-photodiode-on-Tek/SaveOnEvent_ch1_20190613112420212.csv

Model,MSO64
Waveform Type,ANALOG
Horizontal Units,s
Sample Interval,4.000000e-11
Record Length,1000
Zero Index,219.539062
Vertical Units,V

TIME,CH1
-8.781562e-09,-9.437500e-03
-8.741562e-09,-1.296875e-02
-8.701563e-09,-1.412500e-02
-8.661562e-09,-1.262500e-02
-8.621562e-09,-9.437500e-03
-8.581562e-09,-6.218750e-03
-8.541562e-09,-4.312500e-03
-8.501563e-09,-4.281250e-03
-8.461562e-09,-5.718750e-03
-8.421562e-09,-7.375000e-03
-8.381562e-09,-7.937500e-03
-8.341562e-09,-6.750000e-03
-8.301562e-09,-4.312500e-03
-8.261562e-09,-2.187500e-03
-8.221563e-09,-2.093750e-03
-8.181562e-09,-4.718750e-03
-8.141562e-09,-9.000000e-03
-8.101562e-09,-1.284375e-02
-8.061562e-09,-1.431250e-02
-8.021563e-09,-1.309375e-02
-7.981562e-09,-1.050000e-02
-7.941562e-09,-8.500000e-03
-7.901562e-09,-8.218750e-03
-7.861562e-09,-9.156250e-03
-7.821562e-09,-9.812500e-03
-7.781562e-09,-9.000000e-03
-7.741563e-09,-6.875000e-03
-7.701562e-09,-4.781250e-03
-7.661562e-09,-4.156250e-03
-7.621562e-09,-5.406250e-03
-7.581562e-09,-7.593750e-03
-7.541563e-09,-9.312500e-03
-7.501562e-09,-9.687500e-03
-7.461562e-09,-8.968750e-03
-7.421562e-09,-8.156250e-03
-7.381562e-09,-8.031250e-03
-7.341562e-09,-8.593750e-03
-7.301562e-09,-9.312500e-03
-7.261562e-09,-9.562500e-03
-7.221562e-09,-9.187500e-03
-7.181562e-09,-8.437500e-03
-7.141562e-09,-7.531250e-03
-7.101562e-09,-6.250000e-03
-7.061562e-09,-4.187500e-03
-7.021562e-09,-1.500000e-03
-6.981562e-09,8.437500e-04
-6.941562e-09,1.156250e-03
-6.901562e-09,-1.593750e-03
-6.861562e-09,-6.906250e-03
-6.821562e-09,-1.256250e-02
-6.781562e-09,-1.581250e-02
-6.741562e-09,-1.512500e-02
-6.701562e-09,-1.121875e-02
-6.661562e-09,-6.718750e-03
-6.621563e-09,-4.218750e-03
-6.581562e-09,-4.625000e-03
-6.541562e-09,-6.687500e-03
-6.501562e-09,-8.187500e-03
-6.461562e-09,-7.875000e-03
-6.421562e-09,-6.343750e-03
-6.381563e-09,-5.562500e-03
-6.341562e-09,-6.937500e-03
-6.301562e-09,-1.009375e-02
-6.261562e-09,-1.321875e-02
-6.221562e-09,-1.431250e-02
-6.181562e-09,-1.287500e-02
-6.141563e-09,-1.003125e-02
-6.101562e-09,-7.562500e-03
-6.061562e-09,-6.593750e-03
-6.021562e-09,-6.812500e-03
-5.981562e-09,-7.250000e-03
-5.941562e-09,-7.187500e-03
-5.901563e-09,-6.843750e-03
-5.861562e-09,-6.875000e-03
-5.821562e-09,-7.593750e-03
-5.781562e-09,-8.500000e-03
-5.741562e-09,-8.656250e-03
-5.701562e-09,-7.718750e-03
-5.661563e-09,-6.343750e-03
-5.621562e-09,-5.937500e-03
-5.581562e-09,-7.312500e-03
-5.541562e-09,-1.006250e-02
-5.501562e-09,-1.275000e-02
-5.461562e-09,-1.384375e-02
-5.421563e-09,-1.287500e-02
-5.381562e-09,-1.068750e-02
-5.341562e-09,-8.625000e-03
-5.301562e-09,-7.375000e-03
-5.261562e-09,-6.593750e-03
-5.221562e-09,-5.468750e-03
-5.181563e-09,-3.625000e-03
-5.141562e-09,-1.875000e-03
-5.101562e-09,-1.531250e-03
-5.061562e-09,-3.468750e-03
-5.021562e-09,-7.156250e-03
-4.981562e-09,-1.090625e-02
-4.941563e-09,-1.293750e-02
-4.901562e-09,-1.265625e-02
-4.861562e-09,-1.090625e-02
-4.821562e-09,-9.187500e-03
-4.781562e-09,-8.468750e-03
-4.741562e-09,-8.656250e-03
-4.701563e-09,-8.875000e-03
-4.661562e-09,-8.343750e-03
-4.621562e-09,-7.093750e-03
-4.581562e-09,-5.750000e-03
-4.541562e-09,-4.843750e-03
-4.501562e-09,-4.312500e-03
-4.461563e-09,-3.781250e-03
-4.421562e-09,-3.187500e-03
-4.381562e-09,-3.031250e-03
-4.341562e-09,-4.156250e-03
-4.301562e-09,-6.625000e-03
-4.261562e-09,-9.468750e-03
-4.221563e-09,-1.115625e-02
-4.181563e-09,-1.093750e-02
-4.141562e-09,-9.468750e-03
-4.101562e-09,-8.406250e-03
-4.061562e-09,-8.875000e-03
-4.021562e-09,-1.040625e-02
-3.981563e-09,-1.121875e-02
-3.941563e-09,-9.750000e-03
-3.901562e-09,-6.187500e-03
-3.861562e-09,-2.625000e-03
-3.821562e-09,-1.593750e-03
-3.781562e-09,-4.187500e-03
-3.741563e-09,-9.000000e-03
-3.701562e-09,-1.318750e-02
-3.661562e-09,-1.443750e-02
-3.621562e-09,-1.243750e-02
-3.581562e-09,-9.000000e-03
-3.541562e-09,-6.500000e-03
-3.501562e-09,-6.156250e-03
-3.461562e-09,-7.406250e-03
-3.421562e-09,-8.500000e-03
-3.381562e-09,-8.031250e-03
-3.341562e-09,-5.843750e-03
-3.301562e-09,-2.968750e-03
-3.261562e-09,-9.062500e-04
-3.221562e-09,-6.250000e-04
-3.181562e-09,-2.218750e-03
-3.141562e-09,-5.062500e-03
-3.101562e-09,-8.187500e-03
-3.061562e-09,-1.090625e-02
-3.021562e-09,-1.265625e-02
-2.981562e-09,-1.328125e-02
-2.941562e-09,-1.281250e-02
-2.901563e-09,-1.168750e-02
-2.861562e-09,-1.053125e-02
-2.821562e-09,-1.000000e-02
-2.781563e-09,-1.040625e-02
-2.741562e-09,-1.137500e-02
-2.701562e-09,-1.196875e-02
-2.661563e-09,-1.115625e-02
-2.621562e-09,-8.500000e-03
-2.581562e-09,-4.625000e-03
-2.541563e-09,-1.187500e-03
-2.501562e-09,3.125000e-05
-2.461562e-09,-1.843750e-03
-2.421563e-09,-5.937500e-03
-2.381562e-09,-1.018750e-02
-2.341562e-09,-1.231250e-02
-2.301563e-09,-1.137500e-02
-2.261562e-09,-8.187500e-03
-2.221562e-09,-4.937500e-03
-2.181563e-09,-3.437500e-03
-2.141562e-09,-4.156250e-03
-2.101562e-09,-5.750000e-03
-2.061563e-09,-6.406250e-03
-2.021562e-09,-5.187500e-03
-1.981562e-09,-2.750000e-03
-1.941563e-09,-6.875000e-04
-1.901562e-09,-4.375000e-04
-1.861562e-09,-2.000000e-03
-1.821562e-09,-4.187500e-03
-1.781562e-09,-5.406250e-03
-1.741562e-09,-4.781250e-03
-1.701562e-09,-2.562500e-03
-1.661562e-09,1.250000e-04
-1.621562e-09,2.218750e-03
-1.581562e-09,3.187500e-03
-1.541562e-09,3.250000e-03
-1.501562e-09,3.093750e-03
-1.461562e-09,3.406250e-03
-1.421562e-09,4.531250e-03
-1.381562e-09,6.375000e-03
-1.341562e-09,8.281250e-03
-1.301562e-09,9.812500e-03
-1.261562e-09,1.078125e-02
-1.221562e-09,1.181250e-02
-1.181562e-09,1.359375e-02
-1.141562e-09,1.681250e-02
-1.101562e-09,2.112500e-02
-1.061562e-09,2.593750e-02
-1.021562e-09,3.059375e-02
-9.815625e-10,3.556250e-02
-9.415625e-10,4.143750e-02
-9.015625e-10,4.868750e-02
-8.615625e-10,5.606250e-02
-8.215625e-10,6.159375e-02
-7.815625e-10,6.343750e-02
-7.415625e-10,6.225000e-02
-7.015625e-10,6.093750e-02
-6.615625e-10,6.365625e-02
-6.215625e-10,7.231250e-02
-5.815625e-10,8.565625e-02
-5.415625e-10,9.937500e-02
-5.015625e-10,1.095000e-01
-4.615625e-10,1.145937e-01
-4.215625e-10,1.170313e-01
-3.815625e-10,1.204062e-01
-3.415625e-10,1.273750e-01
-3.015625e-10,1.372500e-01
-2.615625e-10,1.477188e-01
-2.215625e-10,1.561562e-01
-1.815625e-10,1.623438e-01
-1.415625e-10,1.677187e-01
-1.015625e-10,1.743750e-01
-6.156250e-11,1.826250e-01
-2.156250e-11,1.915313e-01
1.843750e-11,1.992500e-01
5.843750e-11,2.052500e-01
9.843750e-11,2.100938e-01
1.384375e-10,2.154688e-01
1.784375e-10,2.217813e-01
2.184375e-10,2.286250e-01
2.584375e-10,2.345000e-01
2.984375e-10,2.388750e-01
3.384375e-10,2.422188e-01
3.784375e-10,2.462500e-01
4.184375e-10,2.521250e-01
4.584375e-10,2.599063e-01
4.984375e-10,2.680625e-01
5.384375e-10,2.749687e-01
5.784375e-10,2.794375e-01
6.184375e-10,2.820625e-01
6.584375e-10,2.839687e-01
6.984375e-10,2.867188e-01
7.384375e-10,2.906250e-01
7.784375e-10,2.954062e-01
8.184375e-10,3.000312e-01
8.584375e-10,3.040625e-01
8.984375e-10,3.074375e-01
9.384375e-10,3.106875e-01
9.784375e-10,3.139687e-01
1.018437e-09,3.172187e-01
1.058437e-09,3.200312e-01
1.098438e-09,3.224375e-01
1.138437e-09,3.248125e-01
1.178437e-09,3.280000e-01
1.218438e-09,3.321562e-01
1.258437e-09,3.366875e-01
1.298437e-09,3.399687e-01
1.338438e-09,3.408125e-01
1.378437e-09,3.390000e-01
1.418437e-09,3.360625e-01
1.458438e-09,3.340937e-01
1.498437e-09,3.345625e-01
1.538437e-09,3.370937e-01
1.578437e-09,3.398125e-01
1.618437e-09,3.407812e-01
1.658437e-09,3.394375e-01
1.698437e-09,3.371562e-01
1.738437e-09,3.361250e-01
1.778437e-09,3.375625e-01
1.818437e-09,3.407188e-01
1.858437e-09,3.432812e-01
1.898437e-09,3.430625e-01
1.938437e-09,3.393750e-01
1.978438e-09,3.332188e-01
2.018437e-09,3.265625e-01
2.058437e-09,3.209063e-01
2.098438e-09,3.169687e-01
2.138437e-09,3.146562e-01
2.178437e-09,3.137813e-01
2.218437e-09,3.139375e-01
2.258437e-09,3.144062e-01
2.298437e-09,3.138750e-01
2.338437e-09,3.112813e-01
2.378437e-09,3.065000e-01
2.418437e-09,3.008750e-01
2.458437e-09,2.960937e-01
2.498437e-09,2.932812e-01
2.538437e-09,2.916563e-01
2.578437e-09,2.896250e-01
2.618437e-09,2.856563e-01
2.658437e-09,2.800313e-01
2.698437e-09,2.741250e-01
2.738437e-09,2.695312e-01
2.778437e-09,2.661562e-01
2.818437e-09,2.627188e-01
2.858437e-09,2.572813e-01
2.898437e-09,2.494688e-01
2.938437e-09,2.401563e-01
2.978437e-09,2.315313e-01
3.018437e-09,2.248750e-01
3.058437e-09,2.205000e-01
3.098437e-09,2.173750e-01
3.138437e-09,2.145313e-01
3.178437e-09,2.109063e-01
3.218437e-09,2.062500e-01
3.258437e-09,2.000625e-01
3.298437e-09,1.923438e-01
3.338437e-09,1.832188e-01
3.378437e-09,1.739688e-01
3.418437e-09,1.657187e-01
3.458437e-09,1.594375e-01
3.498437e-09,1.545313e-01
3.538437e-09,1.499375e-01
3.578437e-09,1.445000e-01
3.618437e-09,1.385625e-01
3.658437e-09,1.331250e-01
3.698437e-09,1.295000e-01
3.738437e-09,1.271562e-01
3.778437e-09,1.244375e-01
3.818437e-09,1.190000e-01
3.858437e-09,1.101875e-01
3.898438e-09,9.928125e-02
3.938437e-09,8.906250e-02
3.978437e-09,8.156250e-02
4.018437e-09,7.715625e-02
4.058437e-09,7.403125e-02
4.098437e-09,7.028125e-02
4.138438e-09,6.481250e-02
4.178437e-09,5.856250e-02
4.218437e-09,5.296875e-02
4.258437e-09,4.893750e-02
4.298437e-09,4.568750e-02
4.338437e-09,4.184375e-02
4.378438e-09,3.625000e-02
4.418437e-09,2.956250e-02
4.458437e-09,2.331250e-02
4.498437e-09,1.909375e-02
4.538437e-09,1.653125e-02
4.578437e-09,1.403125e-02
4.618438e-09,9.281250e-03
4.658437e-09,1.656250e-03
4.698437e-09,-7.656250e-03
4.738437e-09,-1.593750e-02
4.778437e-09,-2.137500e-02
4.818437e-09,-2.353125e-02
4.858438e-09,-2.409375e-02
4.898437e-09,-2.487500e-02
4.938437e-09,-2.696875e-02
4.978437e-09,-3.003125e-02
5.018437e-09,-3.334375e-02
5.058437e-09,-3.646875e-02
5.098438e-09,-3.996875e-02
5.138437e-09,-4.440625e-02
5.178437e-09,-4.987500e-02
5.218437e-09,-5.531250e-02
5.258437e-09,-5.956250e-02
5.298437e-09,-6.178125e-02
5.338438e-09,-6.256250e-02
5.378437e-09,-6.300000e-02
5.418437e-09,-6.425000e-02
5.458437e-09,-6.653125e-02
5.498437e-09,-6.940625e-02
5.538437e-09,-7.203125e-02
5.578438e-09,-7.415625e-02
5.618437e-09,-7.571875e-02
5.658437e-09,-7.703125e-02
5.698437e-09,-7.815625e-02
5.738437e-09,-7.921875e-02
5.778437e-09,-8.031250e-02
5.818438e-09,-8.184375e-02
5.858437e-09,-8.393750e-02
5.898437e-09,-8.640625e-02
5.938437e-09,-8.840625e-02
5.978437e-09,-8.925000e-02
6.018437e-09,-8.881250e-02
6.058437e-09,-8.781250e-02
6.098437e-09,-8.743750e-02
6.138437e-09,-8.831250e-02
6.178437e-09,-9.018750e-02
6.218437e-09,-9.206250e-02
6.258437e-09,-9.312500e-02
6.298437e-09,-9.309375e-02
6.338437e-09,-9.240625e-02
6.378437e-09,-9.159375e-02
6.418437e-09,-9.090625e-02
6.458437e-09,-9.040625e-02
6.498437e-09,-9.028125e-02
6.538437e-09,-9.106250e-02
6.578437e-09,-9.309375e-02
6.618437e-09,-9.600000e-02
6.658437e-09,-9.840625e-02
6.698437e-09,-9.875000e-02
6.738437e-09,-9.643750e-02
6.778437e-09,-9.240625e-02
6.818437e-09,-8.856250e-02
6.858437e-09,-8.646875e-02
6.898437e-09,-8.625000e-02
6.938437e-09,-8.659375e-02
6.978437e-09,-8.618750e-02
7.018437e-09,-8.465625e-02
7.058437e-09,-8.312500e-02
7.098437e-09,-8.284375e-02
7.138437e-09,-8.412500e-02
7.178437e-09,-8.584375e-02
7.218437e-09,-8.625000e-02
7.258437e-09,-8.443750e-02
7.298437e-09,-8.109375e-02
7.338437e-09,-7.787500e-02
7.378437e-09,-7.600000e-02
7.418437e-09,-7.543750e-02
7.458438e-09,-7.493750e-02
7.498437e-09,-7.334375e-02
7.538437e-09,-7.050000e-02
7.578437e-09,-6.725000e-02
7.618437e-09,-6.468750e-02
7.658438e-09,-6.318750e-02
7.698437e-09,-6.228125e-02
7.738438e-09,-6.137500e-02
7.778437e-09,-6.043750e-02
7.818437e-09,-5.996875e-02
7.858437e-09,-6.021875e-02
7.898437e-09,-6.065625e-02
7.938438e-09,-6.006250e-02
7.978437e-09,-5.750000e-02
8.018437e-09,-5.334375e-02
8.058437e-09,-4.912500e-02
8.098437e-09,-4.656250e-02
8.138438e-09,-4.612500e-02
8.178437e-09,-4.678125e-02
8.218438e-09,-4.662500e-02
8.258437e-09,-4.459375e-02
8.298437e-09,-4.103125e-02
8.338437e-09,-3.768750e-02
8.378437e-09,-3.593750e-02
8.418438e-09,-3.593750e-02
8.458437e-09,-3.634375e-02
8.498437e-09,-3.537500e-02
8.538437e-09,-3.218750e-02
8.578437e-09,-2.762500e-02
8.618437e-09,-2.356250e-02
8.658437e-09,-2.171875e-02
8.698438e-09,-2.234375e-02
8.738437e-09,-2.406250e-02
8.778437e-09,-2.465625e-02
8.818437e-09,-2.256250e-02
8.858437e-09,-1.768750e-02
8.898438e-09,-1.168750e-02
8.938437e-09,-6.750000e-03
8.978437e-09,-4.531250e-03
9.018437e-09,-5.156250e-03
9.058437e-09,-7.343750e-03
9.098437e-09,-9.250000e-03
9.138437e-09,-9.781250e-03
9.178438e-09,-8.750000e-03
9.218437e-09,-7.000000e-03
9.258437e-09,-5.312500e-03
9.298437e-09,-3.812500e-03
9.338437e-09,-2.000000e-03
9.378438e-09,5.937500e-04
9.418437e-09,3.843750e-03
9.458437e-09,6.625000e-03
9.498437e-09,7.687500e-03
9.538437e-09,6.562500e-03
9.578437e-09,4.156250e-03
9.618437e-09,2.156250e-03
9.658438e-09,2.125000e-03
9.698437e-09,4.125000e-03
9.738437e-09,7.031250e-03
9.778437e-09,9.312500e-03
9.818437e-09,1.034375e-02
9.858438e-09,1.084375e-02
9.898437e-09,1.193750e-02
9.938437e-09,1.403125e-02
9.978437e-09,1.621875e-02
1.001844e-08,1.703125e-02
1.005844e-08,1.593750e-02
1.009844e-08,1.396875e-02
1.013844e-08,1.321875e-02
1.017844e-08,1.490625e-02
1.021844e-08,1.818750e-02
1.025844e-08,2.056250e-02
1.029844e-08,1.990625e-02
1.033844e-08,1.618750e-02
1.037844e-08,1.190625e-02
1.041844e-08,1.025000e-02
1.045844e-08,1.278125e-02
1.049844e-08,1.818750e-02
1.053844e-08,2.343750e-02
1.057844e-08,2.593750e-02
1.061844e-08,2.528125e-02
1.065844e-08,2.306250e-02
1.069844e-08,2.150000e-02
1.073844e-08,2.171875e-02
1.077844e-08,2.356250e-02
1.081844e-08,2.593750e-02
1.085844e-08,2.803125e-02
1.089844e-08,2.918750e-02
1.093844e-08,2.878125e-02
1.097844e-08,2.634375e-02
1.101844e-08,2.187500e-02
1.105844e-08,1.662500e-02
1.109844e-08,1.287500e-02
1.113844e-08,1.256250e-02
1.117844e-08,1.587500e-02
1.121844e-08,2.075000e-02
1.125844e-08,2.421875e-02
1.129844e-08,2.450000e-02
1.133844e-08,2.212500e-02
1.137844e-08,1.943750e-02
1.141844e-08,1.871875e-02
1.145844e-08,2.031250e-02
1.149844e-08,2.278125e-02
1.153844e-08,2.400000e-02
1.157844e-08,2.290625e-02
1.161844e-08,2.021875e-02
1.165844e-08,1.750000e-02
1.169844e-08,1.606250e-02
1.173844e-08,1.621875e-02
1.177844e-08,1.731250e-02
1.181844e-08,1.865625e-02
1.185844e-08,1.993750e-02
1.189844e-08,2.103125e-02
1.193844e-08,2.184375e-02
1.197844e-08,2.200000e-02
1.201844e-08,2.140625e-02
1.205844e-08,2.037500e-02
1.209844e-08,1.953125e-02
1.213844e-08,1.937500e-02
1.217844e-08,1.959375e-02
1.221844e-08,1.925000e-02
1.225844e-08,1.743750e-02
1.229844e-08,1.418750e-02
1.233844e-08,1.062500e-02
1.237844e-08,8.312500e-03
1.241844e-08,8.250000e-03
1.245844e-08,9.968750e-03
1.249844e-08,1.200000e-02
1.253844e-08,1.287500e-02
1.257844e-08,1.221875e-02
1.261844e-08,1.081250e-02
1.265844e-08,1.012500e-02
1.269844e-08,1.096875e-02
1.273844e-08,1.296875e-02
1.277844e-08,1.471875e-02
1.281844e-08,1.487500e-02
1.285844e-08,1.284375e-02
1.289844e-08,9.250000e-03
1.293844e-08,5.437500e-03
1.297844e-08,2.843750e-03
1.301844e-08,2.062500e-03
1.305844e-08,2.968750e-03
1.309844e-08,4.625000e-03
1.313844e-08,5.937500e-03
1.317844e-08,6.156250e-03
1.321844e-08,5.281250e-03
1.325844e-08,3.750000e-03
1.329844e-08,2.343750e-03
1.333844e-08,1.531250e-03
1.337844e-08,1.312500e-03
1.341844e-08,1.250000e-03
1.345844e-08,1.125000e-03
1.349844e-08,9.375000e-04
1.353844e-08,9.375000e-04
1.357844e-08,1.093750e-03
1.361844e-08,9.375000e-04
1.365844e-08,-3.125000e-04
1.369844e-08,-2.812500e-03
1.373844e-08,-5.781250e-03
1.377844e-08,-7.687500e-03
1.381844e-08,-7.125000e-03
1.385844e-08,-4.156250e-03
1.389844e-08,-3.437500e-04
1.393844e-08,2.093750e-03
1.397844e-08,1.875000e-03
1.401844e-08,-6.250000e-04
1.405844e-08,-3.562500e-03
1.409844e-08,-5.281250e-03
1.413844e-08,-5.437500e-03
1.417844e-08,-5.125000e-03
1.421844e-08,-5.750000e-03
1.425844e-08,-7.656250e-03
1.429844e-08,-9.875000e-03
1.433844e-08,-1.090625e-02
1.437844e-08,-1.006250e-02
1.441844e-08,-8.156250e-03
1.445844e-08,-7.000000e-03
1.449844e-08,-7.812500e-03
1.453844e-08,-1.025000e-02
1.457844e-08,-1.253125e-02
1.461844e-08,-1.271875e-02
1.465844e-08,-1.021875e-02
1.469844e-08,-6.312500e-03
1.473844e-08,-3.343750e-03
1.477844e-08,-3.187500e-03
1.481844e-08,-6.093750e-03
1.485844e-08,-1.056250e-02
1.489844e-08,-1.456250e-02
1.493844e-08,-1.675000e-02
1.497844e-08,-1.700000e-02
1.501844e-08,-1.625000e-02
1.505844e-08,-1.531250e-02
1.509844e-08,-1.440625e-02
1.513844e-08,-1.315625e-02
1.517844e-08,-1.131250e-02
1.521844e-08,-9.187500e-03
1.525844e-08,-7.750000e-03
1.529844e-08,-7.968750e-03
1.533844e-08,-9.906250e-03
1.537844e-08,-1.256250e-02
1.541844e-08,-1.443750e-02
1.545844e-08,-1.465625e-02
1.549844e-08,-1.343750e-02
1.553844e-08,-1.203125e-02
1.557844e-08,-1.181250e-02
1.561844e-08,-1.334375e-02
1.565844e-08,-1.593750e-02
1.569844e-08,-1.809375e-02
1.573844e-08,-1.862500e-02
1.577844e-08,-1.728125e-02
1.581844e-08,-1.500000e-02
1.585844e-08,-1.312500e-02
1.589844e-08,-1.262500e-02
1.593844e-08,-1.325000e-02
1.597844e-08,-1.381250e-02
1.601844e-08,-1.300000e-02
1.605844e-08,-1.040625e-02
1.609844e-08,-7.156250e-03
1.613844e-08,-5.187500e-03
1.617844e-08,-6.125000e-03
1.621844e-08,-9.906250e-03
1.625844e-08,-1.450000e-02
1.629844e-08,-1.718750e-02
1.633844e-08,-1.631250e-02
1.637844e-08,-1.250000e-02
1.641844e-08,-8.218750e-03
1.645844e-08,-6.187500e-03
1.649844e-08,-7.437500e-03
1.653844e-08,-1.062500e-02
1.657844e-08,-1.312500e-02
1.661844e-08,-1.296875e-02
1.665844e-08,-1.040625e-02
1.669844e-08,-7.687500e-03
1.673844e-08,-7.281250e-03
1.677844e-08,-1.012500e-02
1.681844e-08,-1.493750e-02
1.685844e-08,-1.900000e-02
1.689844e-08,-2.015625e-02
1.693844e-08,-1.812500e-02
1.697844e-08,-1.446875e-02
1.701844e-08,-1.134375e-02
1.705844e-08,-1.009375e-02
1.709844e-08,-1.050000e-02
1.713844e-08,-1.115625e-02
1.717844e-08,-1.084375e-02
1.721844e-08,-9.250000e-03
1.725844e-08,-7.312500e-03
1.729844e-08,-6.406250e-03
1.733844e-08,-7.375000e-03
1.737844e-08,-9.781250e-03
1.741844e-08,-1.225000e-02
1.745844e-08,-1.325000e-02
1.749844e-08,-1.231250e-02
1.753844e-08,-1.037500e-02
1.757844e-08,-9.187500e-03
1.761844e-08,-1.003125e-02
1.765844e-08,-1.278125e-02
1.769844e-08,-1.571875e-02
1.773844e-08,-1.675000e-02
1.777844e-08,-1.478125e-02
1.781844e-08,-1.053125e-02
1.785844e-08,-6.156250e-03
1.789844e-08,-3.593750e-03
1.793844e-08,-3.562500e-03
1.797844e-08,-5.156250e-03
1.801844e-08,-6.718750e-03
1.805844e-08,-7.156250e-03
1.809844e-08,-6.406250e-03
1.813844e-08,-5.312500e-03
1.817844e-08,-4.687500e-03
1.821844e-08,-4.843750e-03
1.825844e-08,-5.562500e-03
1.829844e-08,-6.437500e-03
1.833844e-08,-7.125000e-03
1.837844e-08,-7.312500e-03
1.841844e-08,-6.812500e-03
1.845844e-08,-5.625000e-03
1.849844e-08,-4.281250e-03
1.853844e-08,-3.750000e-03
1.857844e-08,-4.812500e-03
1.861844e-08,-7.468750e-03
1.865844e-08,-1.053125e-02
1.869844e-08,-1.243750e-02
1.873844e-08,-1.218750e-02
1.877844e-08,-1.006250e-02
1.881844e-08,-7.437500e-03
1.885844e-08,-5.687500e-03
1.889844e-08,-5.250000e-03
1.893844e-08,-5.406250e-03
1.897844e-08,-5.125000e-03
1.901844e-08,-4.218750e-03
1.905844e-08,-3.593750e-03
1.909844e-08,-4.437500e-03
1.913844e-08,-7.093750e-03
1.917844e-08,-1.034375e-02
1.921844e-08,-1.212500e-02
1.925844e-08,-1.103125e-02
1.929844e-08,-7.500000e-03
1.933844e-08,-3.750000e-03
1.937844e-08,-2.312500e-03
1.941844e-08,-4.125000e-03
1.945844e-08,-7.937500e-03
1.949844e-08,-1.109375e-02
1.953844e-08,-1.137500e-02
1.957844e-08,-8.687500e-03
1.961844e-08,-5.000000e-03
1.965844e-08,-3.062500e-03
1.969844e-08,-4.375000e-03
1.973844e-08,-8.093750e-03
1.977844e-08,-1.184375e-02
1.981844e-08,-1.337500e-02
1.985844e-08,-1.218750e-02
1.989844e-08,-9.718750e-03
1.993844e-08,-8.062500e-03
1.997844e-08,-8.375000e-03
2.001844e-08,-1.018750e-02
2.005844e-08,-1.193750e-02
2.009844e-08,-1.243750e-02
2.013844e-08,-1.159375e-02
2.017844e-08,-1.021875e-02
2.021844e-08,-9.000000e-03
2.025844e-08,-7.812500e-03
2.029844e-08,-6.031250e-03
2.033844e-08,-3.437500e-03
2.037844e-08,-9.062500e-04
2.041844e-08,6.250000e-05
2.045844e-08,-1.562500e-03
2.049844e-08,-5.312500e-03
2.053844e-08,-9.375000e-03
2.057844e-08,-1.193750e-02
2.061844e-08,-1.209375e-02
2.065844e-08,-1.037500e-02
