Measurements-streak-laser/Old-photodiode-on-Tek/SaveOnEvent_ch1_20190613112417706.csv

Model,MSO64
Waveform Type,ANALOG
Horizontal Units,s
Sample Interval,4.000000e-11
Record Length,1000
Zero Index,219.687500
Vertical Units,V

TIME,CH1
-8.787500e-09,-5.812500e-03
-8.747500e-09,-5.343750e-03
-8.707500e-09,-6.656250e-03
-8.667500e-09,-8.218750e-03
-8.627500e-09,-8.281250e-03
-8.587500e-09,-6.468750e-03
-8.547500e-09,-4.375000e-03
-8.507500e-09,-4.062500e-03
-8.467500e-09,-6.375000e-03
-8.427500e-09,-9.812500e-03
-8.387500e-09,-1.165625e-02
-8.347500e-09,-9.968750e-03
-8.307500e-09,-5.343750e-03
-8.267500e-09,-5.937500e-04
-8.227500e-09,1.093750e-03
-8.187500e-09,-1.531250e-03
-8.147500e-09,-7.000000e-03
-8.107500e-09,-1.206250e-02
-8.067500e-09,-1.403125e-02
-8.027500e-09,-1.240625e-02
-7.987500e-09,-9.062500e-03
-7.947500e-09,-6.531250e-03
-7.907500e-09,-6.250000e-03
-7.867500e-09,-7.750000e-03
-7.827500e-09,-9.125000e-03
-7.787500e-09,-8.718750e-03
-7.747500e-09,-6.218750e-03
-7.707500e-09,-2.718750e-03
-7.667500e-09,6.938894e-18
-7.627500e-09,7.187500e-04
-7.587500e-09,-6.562500e-04
-7.547500e-09,-3.312500e-03
-7.507500e-09,-6.312500e-03
-7.467500e-09,-8.906250e-03
-7.427500e-09,-1.090625e-02
-7.387500e-09,-1.231250e-02
-7.347500e-09,-1.315625e-02
-7.307500e-09,-1.334375e-02
-7.267500e-09,-1.281250e-02
-7.227500e-09,-1.153125e-02
-7.187500e-09,-9.593750e-03
-7.147500e-09,-7.218750e-03
-7.107500e-09,-4.718750e-03
-7.067500e-09,-2.500000e-03
-7.027500e-09,-9.687500e-04
-6.987500e-09,-4.062500e-04
-6.947500e-09,-9.062500e-04
-6.907500e-09,-2.468750e-03
-6.867500e-09,-5.062500e-03
-6.827500e-09,-8.468750e-03
-6.787500e-09,-1.184375e-02
-6.747500e-09,-1.393750e-02
-6.707500e-09,-1.340625e-02
-6.667500e-09,-9.906250e-03
-6.627500e-09,-4.656250e-03
-6.587500e-09,-2.500000e-04
-6.547500e-09,9.062500e-04
-6.507500e-09,-1.781250e-03
-6.467500e-09,-6.437500e-03
-6.427500e-09,-1.003125e-02
-6.387500e-09,-1.034375e-02
-6.347500e-09,-7.500000e-03
-6.307500e-09,-3.968750e-03
-6.267500e-09,-2.531250e-03
-6.227500e-09,-4.281250e-03
-6.187500e-09,-8.000000e-03
-6.147500e-09,-1.134375e-02
-6.107500e-09,-1.278125e-02
-6.067500e-09,-1.250000e-02
-6.027500e-09,-1.200000e-02
-5.987500e-09,-1.250000e-02
-5.947500e-09,-1.375000e-02
-5.907500e-09,-1.437500e-02
-5.867500e-09,-1.321875e-02
-5.827500e-09,-1.028125e-02
-5.787500e-09,-6.781250e-03
-5.747500e-09,-4.062500e-03
-5.707500e-09,-2.687500e-03
-5.667500e-09,-2.250000e-03
-5.627500e-09,-2.343750e-03
-5.587500e-09,-3.375000e-03
-5.547500e-09,-6.250000e-03
-5.507500e-09,-1.118750e-02
-5.467500e-09,-1.684375e-02
-5.427500e-09,-2.059375e-02
-5.387500e-09,-2.018750e-02
-5.347500e-09,-1.546875e-02
-5.307500e-09,-8.750000e-03
-5.267500e-09,-3.406250e-03
-5.227500e-09,-1.531250e-03
-5.187500e-09,-2.812500e-03
-5.147500e-09,-5.000000e-03
-5.107500e-09,-5.843750e-03
-5.067500e-09,-4.812500e-03
-5.027500e-09,-3.187500e-03
-4.987500e-09,-2.843750e-03
-4.947500e-09,-4.437500e-03
-4.907500e-09,-7.093750e-03
-4.867500e-09,-9.125000e-03
-4.827500e-09,-9.531250e-03
-4.787500e-09,-8.656250e-03
-4.747500e-09,-7.750000e-03
-4.707500e-09,-7.812500e-03
-4.667500e-09,-8.750000e-03
-4.627500e-09,-9.718750e-03
-4.587500e-09,-9.843750e-03
-4.547500e-09,-9.031250e-03
-4.507500e-09,-7.750000e-03
-4.467500e-09,-6.562500e-03
-4.427500e-09,-5.718750e-03
-4.387500e-09,-5.312500e-03
-4.347500e-09,-5.500000e-03
-4.307500e-09,-6.468750e-03
-4.267500e-09,-8.187500e-03
-4.227500e-09,-9.843750e-03
-4.187500e-09,-1.034375e-02
-4.147500e-09,-9.093750e-03
-4.107500e-09,-7.000000e-03
-4.067500e-09,-5.968750e-03
-4.027500e-09,-7.531250e-03
-3.987500e-09,-1.143750e-02
-3.947500e-09,-1.537500e-02
-3.907500e-09,-1.662500e-02
-3.867500e-09,-1.406250e-02
-3.827500e-09,-9.125000e-03
-3.787500e-09,-5.031250e-03
-3.747500e-09,-4.312500e-03
-3.707500e-09,-7.250000e-03
-3.667500e-09,-1.165625e-02
-3.627500e-09,-1.484375e-02
-3.587500e-09,-1.537500e-02
-3.547500e-09,-1.381250e-02
-3.507500e-09,-1.187500e-02
-3.467500e-09,-1.084375e-02
-3.427500e-09,-1.075000e-02
-3.387500e-09,-1.071875e-02
-3.347500e-09,-9.937500e-03
-3.307500e-09,-8.218750e-03
-3.267500e-09,-6.000000e-03
-3.227500e-09,-3.781250e-03
-3.187500e-09,-2.000000e-03
-3.147500e-09,-1.062500e-03
-3.107500e-09,-1.593750e-03
-3.067500e-09,-4.000000e-03
-3.027500e-09,-7.937500e-03
-2.987500e-09,-1.175000e-02
-2.947500e-09,-1.346875e-02
-2.907500e-09,-1.190625e-02
-2.867500e-09,-7.843750e-03
-2.827500e-09,-3.687500e-03
-2.787500e-09,-1.843750e-03
-2.747500e-09,-3.156250e-03
-2.707500e-09,-6.281250e-03
-2.667500e-09,-8.875000e-03
-2.627500e-09,-9.281250e-03
-2.587500e-09,-7.500000e-03
-2.547500e-09,-4.968750e-03
-2.507500e-09,-3.187500e-03
-2.467500e-09,-2.812500e-03
-2.427500e-09,-3.531250e-03
-2.387500e-09,-4.718750e-03
-2.347500e-09,-6.031250e-03
-2.307500e-09,-7.375000e-03
-2.267500e-09,-8.531250e-03
-2.227500e-09,-9.062500e-03
-2.187500e-09,-8.593750e-03
-2.147500e-09,-7.531250e-03
-2.107500e-09,-6.812500e-03
-2.067500e-09,-7.250000e-03
-2.027500e-09,-8.625000e-03
-1.987500e-09,-9.593750e-03
-1.947500e-09,-8.750000e-03
-1.907500e-09,-5.750000e-03
-1.867500e-09,-1.875000e-03
-1.827500e-09,8.750000e-04
-1.787500e-09,1.156250e-03
-1.747500e-09,-7.500000e-04
-1.707500e-09,-3.156250e-03
-1.667500e-09,-4.406250e-03
-1.627500e-09,-3.906250e-03
-1.587500e-09,-2.343750e-03
-1.547500e-09,-8.437500e-04
-1.507500e-09,-6.250000e-05
-1.467500e-09,4.062500e-04
-1.427500e-09,1.375000e-03
-1.387500e-09,3.531250e-03
-1.347500e-09,6.656250e-03
-1.307500e-09,1.031250e-02
-1.267500e-09,1.375000e-02
-1.227500e-09,1.662500e-02
-1.187500e-09,1.846875e-02
-1.147500e-09,1.918750e-02
-1.107500e-09,1.875000e-02
-1.067500e-09,1.781250e-02
-1.027500e-09,1.734375e-02
-9.875000e-10,1.856250e-02
-9.475000e-10,2.187500e-02
-9.075000e-10,2.693750e-02
-8.675000e-10,3.265625e-02
-8.275000e-10,3.840625e-02
-7.875000e-10,4.412500e-02
-7.475000e-10,5.068750e-02
-7.075000e-10,5.853125e-02
-6.675000e-10,6.746875e-02
-6.275000e-10,7.606250e-02
-5.875000e-10,8.309375e-02
-5.475000e-10,8.787500e-02
-5.075000e-10,9.146875e-02
-4.675000e-10,9.553125e-02
-4.275000e-10,1.017813e-01
-3.875000e-10,1.104063e-01
-3.475000e-10,1.207500e-01
-3.075000e-10,1.310938e-01
-2.675000e-10,1.402812e-01
-2.275000e-10,1.476875e-01
-1.875000e-10,1.539375e-01
-1.475000e-10,1.599688e-01
-1.075000e-10,1.672187e-01
-6.750000e-11,1.763750e-01
-2.750000e-11,1.876875e-01
1.250000e-11,1.998750e-01
5.250000e-11,2.112500e-01
9.250000e-11,2.197188e-01
1.325000e-10,2.245938e-01
1.725000e-10,2.263750e-01
2.125000e-10,2.273750e-01
2.525000e-10,2.297813e-01
2.925000e-10,2.351250e-01
3.325000e-10,2.430938e-01
3.725000e-10,2.524688e-01
4.125000e-10,2.613125e-01
4.525000e-10,2.687500e-01
4.925000e-10,2.744687e-01
5.325000e-10,2.790625e-01
5.725000e-10,2.829687e-01
6.125000e-10,2.868125e-01
6.525000e-10,2.907188e-01
6.925000e-10,2.950625e-01
7.325000e-10,2.998750e-01
7.725000e-10,3.051875e-01
8.125000e-10,3.103750e-01
8.525000e-10,3.150000e-01
8.925000e-10,3.187187e-01
9.325000e-10,3.221875e-01
9.725000e-10,3.263750e-01
1.012500e-09,3.323125e-01
1.052500e-09,3.399062e-01
1.092500e-09,3.479375e-01
1.132500e-09,3.542187e-01
1.172500e-09,3.572187e-01
1.212500e-09,3.568125e-01
1.252500e-09,3.548438e-01
1.292500e-09,3.539375e-01
1.332500e-09,3.560937e-01
1.372500e-09,3.611250e-01
1.412500e-09,3.671250e-01
1.452500e-09,3.714375e-01
1.492500e-09,3.726562e-01
1.532500e-09,3.711250e-01
1.572500e-09,3.686250e-01
1.612500e-09,3.668125e-01
1.652500e-09,3.661563e-01
1.692500e-09,3.661250e-01
1.732500e-09,3.661563e-01
1.772500e-09,3.663437e-01
1.812500e-09,3.675312e-01
1.852500e-09,3.700937e-01
1.892500e-09,3.734688e-01
1.932500e-09,3.759375e-01
1.972500e-09,3.760000e-01
2.012500e-09,3.733437e-01
2.052500e-09,3.689688e-01
2.092500e-09,3.644375e-01
2.132500e-09,3.605937e-01
2.172500e-09,3.574688e-01
2.212500e-09,3.544687e-01
2.252500e-09,3.514375e-01
2.292500e-09,3.484687e-01
2.332500e-09,3.458438e-01
2.372500e-09,3.430625e-01
2.412500e-09,3.394687e-01
2.452500e-09,3.346562e-01
2.492500e-09,3.295937e-01
2.532500e-09,3.257500e-01
2.572500e-09,3.243437e-01
2.612500e-09,3.245938e-01
2.652500e-09,3.242500e-01
2.692500e-09,3.206875e-01
2.732500e-09,3.132187e-01
2.772500e-09,3.034688e-01
2.812500e-09,2.949688e-01
2.852500e-09,2.900625e-01
2.892500e-09,2.889375e-01
2.932500e-09,2.887500e-01
2.972500e-09,2.863125e-01
3.012500e-09,2.795625e-01
3.052500e-09,2.696875e-01
3.092500e-09,2.594063e-01
3.132500e-09,2.519375e-01
3.172500e-09,2.480938e-01
3.212500e-09,2.465313e-01
3.252500e-09,2.441875e-01
3.292500e-09,2.387813e-01
3.332500e-09,2.295000e-01
3.372500e-09,2.180938e-01
3.412500e-09,2.069063e-01
3.452500e-09,1.982813e-01
3.492500e-09,1.925625e-01
3.532500e-09,1.887500e-01
3.572500e-09,1.846563e-01
3.612500e-09,1.788750e-01
3.652500e-09,1.708438e-01
3.692500e-09,1.619375e-01
3.732500e-09,1.536562e-01
3.772500e-09,1.473125e-01
3.812500e-09,1.425938e-01
3.852500e-09,1.384063e-01
3.892500e-09,1.330313e-01
3.932500e-09,1.259062e-01
3.972500e-09,1.173125e-01
4.012500e-09,1.088125e-01
4.052500e-09,1.014063e-01
4.092500e-09,9.562500e-02
4.132500e-09,9.056250e-02
4.172500e-09,8.521875e-02
4.212500e-09,7.868750e-02
4.252500e-09,7.125000e-02
4.292500e-09,6.387500e-02
4.332500e-09,5.790625e-02
4.372500e-09,5.387500e-02
4.412500e-09,5.162500e-02
4.452500e-09,4.965625e-02
4.492500e-09,4.659375e-02
4.532500e-09,4.103125e-02
4.572500e-09,3.290625e-02
4.612500e-09,2.287500e-02
4.652500e-09,1.265625e-02
4.692500e-09,3.781250e-03
4.732500e-09,-2.312500e-03
4.772500e-09,-5.781250e-03
4.812500e-09,-7.593750e-03
4.852500e-09,-9.937500e-03
4.892500e-09,-1.418750e-02
4.932500e-09,-2.075000e-02
4.972500e-09,-2.790625e-02
5.012500e-09,-3.343750e-02
5.052500e-09,-3.568750e-02
5.092500e-09,-3.528125e-02
5.132500e-09,-3.462500e-02
5.172500e-09,-3.668750e-02
5.212500e-09,-4.240625e-02
5.252500e-09,-5.056250e-02
5.292500e-09,-5.793750e-02
5.332500e-09,-6.228125e-02
5.372500e-09,-6.346875e-02
5.412500e-09,-6.381250e-02
5.452500e-09,-6.575000e-02
5.492500e-09,-7.025000e-02
5.532500e-09,-7.571875e-02
5.572500e-09,-7.971875e-02
5.612500e-09,-8.062500e-02
5.652500e-09,-7.928125e-02
5.692500e-09,-7.800000e-02
5.732500e-09,-7.893750e-02
5.772500e-09,-8.225000e-02
5.812500e-09,-8.637500e-02
5.852500e-09,-8.931250e-02
5.892500e-09,-9.034375e-02
5.932500e-09,-9.031250e-02
5.972500e-09,-9.087500e-02
6.012500e-09,-9.281250e-02
6.052500e-09,-9.565625e-02
6.092500e-09,-9.815625e-02
6.132500e-09,-9.962500e-02
6.172500e-09,-1.004063e-01
6.212500e-09,-1.013437e-01
6.252500e-09,-1.029063e-01
6.292500e-09,-1.045937e-01
6.332500e-09,-1.053750e-01
6.372500e-09,-1.048750e-01
6.412500e-09,-1.036563e-01
6.452500e-09,-1.030625e-01
6.492500e-09,-1.039375e-01
6.532500e-09,-1.059375e-01
6.572500e-09,-1.078437e-01
6.612500e-09,-1.085625e-01
6.652500e-09,-1.079688e-01
6.692500e-09,-1.068437e-01
6.732500e-09,-1.061250e-01
6.772500e-09,-1.059688e-01
6.812500e-09,-1.057500e-01
6.852500e-09,-1.046875e-01
6.892500e-09,-1.025312e-01
6.932500e-09,-9.962500e-02
6.972500e-09,-9.671875e-02
7.012500e-09,-9.425000e-02
7.052500e-09,-9.246875e-02
7.092500e-09,-9.143750e-02
7.132500e-09,-9.131250e-02
7.172500e-09,-9.196875e-02
7.212500e-09,-9.271875e-02
7.252500e-09,-9.250000e-02
7.292500e-09,-9.056250e-02
7.332500e-09,-8.728125e-02
7.372500e-09,-8.425000e-02
7.412500e-09,-8.318750e-02
7.452500e-09,-8.471875e-02
7.492500e-09,-8.731250e-02
7.532500e-09,-8.843750e-02
7.572500e-09,-8.600000e-02
7.612500e-09,-8.018750e-02
7.652500e-09,-7.325000e-02
7.692500e-09,-6.803125e-02
7.732500e-09,-6.581250e-02
7.772500e-09,-6.568750e-02
7.812500e-09,-6.553125e-02
7.852500e-09,-6.393750e-02
7.892500e-09,-6.125000e-02
7.932500e-09,-5.925000e-02
7.972500e-09,-5.931250e-02
8.012500e-09,-6.125000e-02
8.052500e-09,-6.312500e-02
8.092500e-09,-6.296875e-02
8.132500e-09,-6.003125e-02
8.172500e-09,-5.543750e-02
8.212500e-09,-5.096875e-02
8.252500e-09,-4.787500e-02
8.292500e-09,-4.603125e-02
8.332500e-09,-4.453125e-02
8.372500e-09,-4.256250e-02
8.412500e-09,-4.025000e-02
8.452500e-09,-3.821875e-02
8.492500e-09,-3.715625e-02
8.532500e-09,-3.715625e-02
8.572500e-09,-3.762500e-02
8.612500e-09,-3.775000e-02
8.652500e-09,-3.678125e-02
8.692500e-09,-3.431250e-02
8.732500e-09,-3.046875e-02
8.772500e-09,-2.587500e-02
8.812500e-09,-2.168750e-02
8.852500e-09,-1.896875e-02
8.892500e-09,-1.828125e-02
8.932500e-09,-1.906250e-02
8.972500e-09,-1.987500e-02
9.012500e-09,-1.940625e-02
9.052500e-09,-1.740625e-02
9.092500e-09,-1.484375e-02
9.132500e-09,-1.318750e-02
9.172500e-09,-1.300000e-02
9.212500e-09,-1.356250e-02
9.252500e-09,-1.309375e-02
9.292500e-09,-1.062500e-02
9.332500e-09,-6.593750e-03
9.372500e-09,-2.937500e-03
9.412500e-09,-1.187500e-03
9.452500e-09,-1.406250e-03
9.492500e-09,-1.656250e-03
9.532500e-09,1.250000e-04
9.572500e-09,4.718750e-03
9.612500e-09,1.031250e-02
9.652500e-09,1.403125e-02
9.692500e-09,1.378125e-02
9.732500e-09,1.018750e-02
9.772500e-09,6.000000e-03
9.812500e-09,4.500000e-03
9.852500e-09,6.937500e-03
9.892500e-09,1.190625e-02
9.932500e-09,1.640625e-02
9.972500e-09,1.806250e-02
1.001250e-08,1.665625e-02
1.005250e-08,1.425000e-02
1.009250e-08,1.328125e-02
1.013250e-08,1.509375e-02
1.017250e-08,1.884375e-02
1.021250e-08,2.256250e-02
1.025250e-08,2.434375e-02
1.029250e-08,2.375000e-02
1.033250e-08,2.168750e-02
1.037250e-08,1.959375e-02
1.041250e-08,1.840625e-02
1.045250e-08,1.837500e-02
1.049250e-08,1.918750e-02
1.053250e-08,2.068750e-02
1.057250e-08,2.275000e-02
1.061250e-08,2.515625e-02
1.065250e-08,2.731250e-02
1.069250e-08,2.846875e-02
1.073250e-08,2.815625e-02
1.077250e-08,2.671875e-02
1.081250e-08,2.531250e-02
1.085250e-08,2.512500e-02
1.089250e-08,2.650000e-02
1.093250e-08,2.890625e-02
1.097250e-08,3.106250e-02
1.101250e-08,3.193750e-02
1.105250e-08,3.118750e-02
1.109250e-08,2.928125e-02
1.113250e-08,2.703125e-02
1.117250e-08,2.521875e-02
1.121250e-08,2.428125e-02
1.125250e-08,2.437500e-02
1.129250e-08,2.528125e-02
1.133250e-08,2.650000e-02
1.137250e-08,2.759375e-02
1.141250e-08,2.815625e-02
1.145250e-08,2.806250e-02
1.149250e-08,2.740625e-02
1.153250e-08,2.631250e-02
1.157250e-08,2.484375e-02
1.161250e-08,2.300000e-02
1.165250e-08,2.100000e-02
1.169250e-08,1.940625e-02
1.173250e-08,1.871875e-02
1.177250e-08,1.915625e-02
1.181250e-08,2.021875e-02
1.185250e-08,2.103125e-02
1.189250e-08,2.090625e-02
1.193250e-08,1.993750e-02
1.197250e-08,1.887500e-02
1.201250e-08,1.865625e-02
1.205250e-08,1.953125e-02
1.209250e-08,2.096875e-02
1.213250e-08,2.200000e-02
1.217250e-08,2.193750e-02
1.221250e-08,2.087500e-02
1.225250e-08,1.940625e-02
1.229250e-08,1.803125e-02
1.233250e-08,1.684375e-02
1.237250e-08,1.556250e-02
1.241250e-08,1.406250e-02
1.245250e-08,1.250000e-02
1.249250e-08,1.140625e-02
1.253250e-08,1.118750e-02
1.257250e-08,1.162500e-02
1.261250e-08,1.221875e-02
1.265250e-08,1.237500e-02
1.269250e-08,1.193750e-02
1.273250e-08,1.137500e-02
1.277250e-08,1.125000e-02
1.281250e-08,1.190625e-02
1.285250e-08,1.303125e-02
1.289250e-08,1.400000e-02
1.293250e-08,1.418750e-02
1.297250e-08,1.334375e-02
1.301250e-08,1.168750e-02
1.305250e-08,9.687500e-03
1.309250e-08,7.687500e-03
1.313250e-08,5.781250e-03
1.317250e-08,4.000000e-03
1.321250e-08,2.562500e-03
1.325250e-08,1.843750e-03
1.329250e-08,2.343750e-03
1.333250e-08,4.125000e-03
1.337250e-08,6.562500e-03
1.341250e-08,8.343750e-03
1.345250e-08,8.187500e-03
1.349250e-08,5.625000e-03
1.353250e-08,1.375000e-03
1.357250e-08,-2.906250e-03
1.361250e-08,-5.531250e-03
1.365250e-08,-5.750000e-03
1.369250e-08,-4.000000e-03
1.373250e-08,-1.625000e-03
1.377250e-08,-9.375000e-05
1.381250e-08,-3.125000e-05
1.385250e-08,-1.250000e-03
1.389250e-08,-2.906250e-03
1.393250e-08,-3.937500e-03
1.397250e-08,-3.812500e-03
1.401250e-08,-2.468750e-03
1.405250e-08,-5.625000e-04
1.409250e-08,8.125000e-04
1.413250e-08,6.875000e-04
1.417250e-08,-1.312500e-03
1.421250e-08,-4.656250e-03
1.425250e-08,-7.906250e-03
1.429250e-08,-9.562500e-03
1.433250e-08,-8.906250e-03
1.437250e-08,-6.468750e-03
1.441250e-08,-3.906250e-03
1.445250e-08,-3.062500e-03
1.449250e-08,-4.656250e-03
1.453250e-08,-7.906250e-03
1.457250e-08,-1.090625e-02
1.461250e-08,-1.193750e-02
1.465250e-08,-1.053125e-02
1.469250e-08,-7.968750e-03
1.473250e-08,-6.312500e-03
1.477250e-08,-6.937500e-03
1.481250e-08,-9.562500e-03
1.485250e-08,-1.225000e-02
1.489250e-08,-1.300000e-02
1.493250e-08,-1.118750e-02
1.497250e-08,-8.187500e-03
1.501250e-08,-6.500000e-03
1.505250e-08,-7.843750e-03
1.509250e-08,-1.193750e-02
1.513250e-08,-1.637500e-02
1.517250e-08,-1.856250e-02
1.521250e-08,-1.728125e-02
1.525250e-08,-1.378125e-02
1.529250e-08,-1.056250e-02
1.533250e-08,-9.531250e-03
1.537250e-08,-1.068750e-02
1.541250e-08,-1.225000e-02
1.545250e-08,-1.240625e-02
1.549250e-08,-1.075000e-02
1.553250e-08,-8.687500e-03
1.557250e-08,-7.968750e-03
1.561250e-08,-9.250000e-03
1.565250e-08,-1.168750e-02
1.569250e-08,-1.359375e-02
1.573250e-08,-1.412500e-02
1.577250e-08,-1.381250e-02
1.581250e-08,-1.387500e-02
1.585250e-08,-1.490625e-02
1.589250e-08,-1.609375e-02
1.593250e-08,-1.606250e-02
1.597250e-08,-1.406250e-02
1.601250e-08,-1.090625e-02
1.605250e-08,-8.406250e-03
1.609250e-08,-8.000000e-03
1.613250e-08,-9.656250e-03
1.617250e-08,-1.209375e-02
1.621250e-08,-1.393750e-02
1.625250e-08,-1.490625e-02
1.629250e-08,-1.565625e-02
1.633250e-08,-1.678125e-02
1.637250e-08,-1.800000e-02
1.641250e-08,-1.825000e-02
1.645250e-08,-1.675000e-02
1.649250e-08,-1.396875e-02
1.653250e-08,-1.146875e-02
1.657250e-08,-1.059375e-02
1.661250e-08,-1.128125e-02
1.665250e-08,-1.212500e-02
1.669250e-08,-1.168750e-02
1.673250e-08,-9.968750e-03
1.677250e-08,-8.531250e-03
1.681250e-08,-9.250000e-03
1.685250e-08,-1.221875e-02
1.689250e-08,-1.556250e-02
1.693250e-08,-1.675000e-02
1.697250e-08,-1.481250e-02
1.701250e-08,-1.153125e-02
1.705250e-08,-9.875000e-03
1.709250e-08,-1.168750e-02
1.713250e-08,-1.565625e-02
1.717250e-08,-1.828125e-02
1.721250e-08,-1.675000e-02
1.725250e-08,-1.134375e-02
1.729250e-08,-5.562500e-03
1.733250e-08,-3.343750e-03
1.737250e-08,-6.000000e-03
1.741250e-08,-1.121875e-02
1.745250e-08,-1.493750e-02
1.749250e-08,-1.475000e-02
1.753250e-08,-1.165625e-02
1.757250e-08,-8.968750e-03
1.761250e-08,-9.312500e-03
1.765250e-08,-1.246875e-02
1.769250e-08,-1.568750e-02
1.773250e-08,-1.609375e-02
1.777250e-08,-1.328125e-02
1.781250e-08,-9.218750e-03
1.785250e-08,-6.437500e-03
1.789250e-08,-5.781250e-03
1.793250e-08,-5.968750e-03
1.797250e-08,-5.312500e-03
1.801250e-08,-3.687500e-03
1.805250e-08,-3.000000e-03
1.809250e-08,-5.250000e-03
1.813250e-08,-1.043750e-02
1.817250e-08,-1.568750e-02
1.821250e-08,-1.731250e-02
1.825250e-08,-1.368750e-02
1.829250e-08,-6.812500e-03
1.833250e-08,-1.187500e-03
1.837250e-08,-3.750000e-04
1.841250e-08,-4.562500e-03
1.845250e-08,-1.025000e-02
1.849250e-08,-1.306250e-02
1.853250e-08,-1.100000e-02
1.857250e-08,-5.562500e-03
1.861250e-08,-5.937500e-04
1.865250e-08,7.812500e-04
1.869250e-08,-1.875000e-03
1.873250e-08,-6.437500e-03
1.877250e-08,-1.025000e-02
1.881250e-08,-1.200000e-02
1.885250e-08,-1.218750e-02
1.889250e-08,-1.212500e-02
1.893250e-08,-1.246875e-02
1.897250e-08,-1.262500e-02
1.901250e-08,-1.165625e-02
1.905250e-08,-9.156250e-03
1.909250e-08,-5.812500e-03
1.913250e-08,-2.968750e-03
1.917250e-08,-1.593750e-03
1.921250e-08,-1.843750e-03
1.925250e-08,-3.312500e-03
1.929250e-08,-5.406250e-03
1.933250e-08,-7.625000e-03
1.937250e-08,-9.500000e-03
1.941250e-08,-1.043750e-02
1.945250e-08,-1.009375e-02
1.949250e-08,-8.500000e-03
1.953250e-08,-6.500000e-03
1.957250e-08,-5.281250e-03
1.961250e-08,-5.500000e-03
1.965250e-08,-7.000000e-03
1.969250e-08,-8.687500e-03
1.973250e-08,-9.375000e-03
1.977250e-08,-8.562500e-03
1.981250e-08,-6.750000e-03
1.985250e-08,-5.000000e-03
1.989250e-08,-4.218750e-03
1.993250e-08,-4.718750e-03
1.997250e-08,-6.125000e-03
2.001250e-08,-7.687500e-03
2.005250e-08,-8.625000e-03
2.009250e-08,-8.375000e-03
2.013250e-08,-6.812500e-03
2.017250e-08,-4.562500e-03
2.021250e-08,-2.625000e-03
2.025250e-08,-2.187500e-03
2.029250e-08,-3.687500e-03
2.033250e-08,-6.312500e-03
2.037250e-08,-8.218750e-03
2.041250e-08,-7.718750e-03
2.045250e-08,-4.343750e-03
2.049250e-08,4.375000e-04
2.053250e-08,4.031250e-03
2.057250e-08,4.343750e-03
2.061250e-08,1.187500e-03
2.065250e-08,-3.562500e-03
