Measurements-streak-laser/Old-photodiode-on-Tek/SaveOnEvent_ch1_20190613112417404.csv

Model,MSO64
Waveform Type,ANALOG
Horizontal Units,s
Sample Interval,4.000000e-11
Record Length,1000
Zero Index,219.328125
Vertical Units,V

TIME,CH1
-8.773125e-09,-1.065625e-02
-8.733125e-09,-1.331250e-02
-8.693125e-09,-1.434375e-02
-8.653125e-09,-1.334375e-02
-8.613125e-09,-1.109375e-02
-8.573125e-09,-9.031250e-03
-8.533125e-09,-8.625000e-03
-8.493125e-09,-1.018750e-02
-8.453125e-09,-1.275000e-02
-8.413125e-09,-1.431250e-02
-8.373125e-09,-1.337500e-02
-8.333125e-09,-9.906250e-03
-8.293125e-09,-5.687500e-03
-8.253125e-09,-2.968750e-03
-8.213125e-09,-3.093750e-03
-8.173125e-09,-5.437500e-03
-8.133125e-09,-7.968750e-03
-8.093125e-09,-8.937500e-03
-8.053125e-09,-8.093750e-03
-8.013125e-09,-6.750000e-03
-7.973125e-09,-6.718750e-03
-7.933125e-09,-8.750000e-03
-7.893125e-09,-1.196875e-02
-7.853125e-09,-1.456250e-02
-7.813125e-09,-1.518750e-02
-7.773125e-09,-1.378125e-02
-7.733125e-09,-1.125000e-02
-7.693125e-09,-8.781250e-03
-7.653125e-09,-6.906250e-03
-7.613125e-09,-5.562500e-03
-7.573125e-09,-4.750000e-03
-7.533125e-09,-4.843750e-03
-7.493125e-09,-6.250000e-03
-7.453125e-09,-8.812500e-03
-7.413125e-09,-1.128125e-02
-7.373125e-09,-1.200000e-02
-7.333125e-09,-1.009375e-02
-7.293125e-09,-6.156250e-03
-7.253125e-09,-2.250000e-03
-7.213125e-09,-4.687500e-04
-7.173125e-09,-1.531250e-03
-7.133125e-09,-4.312500e-03
-7.093125e-09,-6.843750e-03
-7.053125e-09,-7.687500e-03
-7.013125e-09,-6.968750e-03
-6.973125e-09,-6.093750e-03
-6.933125e-09,-6.343750e-03
-6.893125e-09,-7.906250e-03
-6.853125e-09,-9.781250e-03
-6.813125e-09,-1.071875e-02
-6.773125e-09,-1.043750e-02
-6.733125e-09,-9.718750e-03
-6.693125e-09,-9.812500e-03
-6.653125e-09,-1.118750e-02
-6.613125e-09,-1.309375e-02
-6.573125e-09,-1.396875e-02
-6.533125e-09,-1.271875e-02
-6.493125e-09,-9.468750e-03
-6.453125e-09,-5.687500e-03
-6.413125e-09,-3.281250e-03
-6.373125e-09,-3.218750e-03
-6.333125e-09,-5.281250e-03
-6.293125e-09,-8.125000e-03
-6.253125e-09,-1.037500e-02
-6.213125e-09,-1.137500e-02
-6.173125e-09,-1.140625e-02
-6.133125e-09,-1.121875e-02
-6.093125e-09,-1.137500e-02
-6.053125e-09,-1.178125e-02
-6.013125e-09,-1.190625e-02
-5.973125e-09,-1.128125e-02
-5.933125e-09,-1.000000e-02
-5.893125e-09,-8.531250e-03
-5.853125e-09,-7.281250e-03
-5.813125e-09,-6.093750e-03
-5.773125e-09,-4.281250e-03
-5.733125e-09,-1.437500e-03
-5.693125e-09,1.750000e-03
-5.653125e-09,3.625000e-03
-5.613125e-09,2.437500e-03
-5.573125e-09,-2.343750e-03
-5.533125e-09,-9.093750e-03
-5.493125e-09,-1.478125e-02
-5.453125e-09,-1.662500e-02
-5.413125e-09,-1.393750e-02
-5.373125e-09,-8.468750e-03
-5.333125e-09,-3.531250e-03
-5.293125e-09,-1.718750e-03
-5.253125e-09,-3.562500e-03
-5.213125e-09,-7.406250e-03
-5.173125e-09,-1.053125e-02
-5.133125e-09,-1.103125e-02
-5.093125e-09,-8.843750e-03
-5.053125e-09,-5.625000e-03
-5.013125e-09,-3.531250e-03
-4.973125e-09,-3.875000e-03
-4.933125e-09,-6.312500e-03
-4.893125e-09,-9.218750e-03
-4.853125e-09,-1.078125e-02
-4.813125e-09,-1.015625e-02
-4.773125e-09,-8.093750e-03
-4.733125e-09,-6.375000e-03
-4.693125e-09,-6.593750e-03
-4.653125e-09,-8.812500e-03
-4.613125e-09,-1.143750e-02
-4.573125e-09,-1.206250e-02
-4.533125e-09,-9.218750e-03
-4.493125e-09,-3.500000e-03
-4.453125e-09,2.437500e-03
-4.413125e-09,5.562500e-03
-4.373125e-09,4.000000e-03
-4.333125e-09,-1.562500e-03
-4.293125e-09,-8.437500e-03
-4.253125e-09,-1.353125e-02
-4.213125e-09,-1.475000e-02
-4.173125e-09,-1.218750e-02
-4.133125e-09,-7.687500e-03
-4.093125e-09,-3.687500e-03
-4.053125e-09,-2.000000e-03
-4.013125e-09,-2.968750e-03
-3.973125e-09,-5.468750e-03
-3.933125e-09,-7.718750e-03
-3.893125e-09,-8.312500e-03
-3.853125e-09,-6.875000e-03
-3.813125e-09,-4.281250e-03
-3.773125e-09,-2.125000e-03
-3.733125e-09,-1.718750e-03
-3.693125e-09,-3.468750e-03
-3.653125e-09,-6.718750e-03
-3.613125e-09,-1.003125e-02
-3.573125e-09,-1.225000e-02
-3.533125e-09,-1.300000e-02
-3.493125e-09,-1.281250e-02
-3.453125e-09,-1.271875e-02
-3.413125e-09,-1.328125e-02
-3.373125e-09,-1.428125e-02
-3.333125e-09,-1.475000e-02
-3.293125e-09,-1.359375e-02
-3.253125e-09,-1.046875e-02
-3.213125e-09,-6.187500e-03
-3.173125e-09,-2.375000e-03
-3.133125e-09,-5.625000e-04
-3.093125e-09,-1.281250e-03
-3.053125e-09,-3.843750e-03
-3.013125e-09,-6.812500e-03
-2.973125e-09,-9.031250e-03
-2.933125e-09,-1.012500e-02
-2.893125e-09,-1.068750e-02
-2.853125e-09,-1.146875e-02
-2.813125e-09,-1.281250e-02
-2.773125e-09,-1.412500e-02
-2.733125e-09,-1.446875e-02
-2.693125e-09,-1.312500e-02
-2.653125e-09,-1.034375e-02
-2.613125e-09,-7.000000e-03
-2.573125e-09,-4.250000e-03
-2.533125e-09,-2.812500e-03
-2.493125e-09,-2.718750e-03
-2.453125e-09,-3.593750e-03
-2.413125e-09,-4.937500e-03
-2.373125e-09,-6.250000e-03
-2.333125e-09,-7.062500e-03
-2.293125e-09,-6.937500e-03
-2.253125e-09,-5.750000e-03
-2.213125e-09,-3.968750e-03
-2.173125e-09,-2.500000e-03
-2.133125e-09,-2.156250e-03
-2.093125e-09,-2.937500e-03
-2.053125e-09,-3.812500e-03
-2.013125e-09,-3.718750e-03
-1.973125e-09,-2.218750e-03
-1.933125e-09,-3.437500e-04
-1.893125e-09,2.812500e-04
-1.853125e-09,-1.343750e-03
-1.813125e-09,-4.437500e-03
-1.773125e-09,-7.125000e-03
-1.733125e-09,-7.656250e-03
-1.693125e-09,-6.062500e-03
-1.653125e-09,-4.093750e-03
-1.613125e-09,-3.781250e-03
-1.573125e-09,-5.625000e-03
-1.533125e-09,-8.093750e-03
-1.493125e-09,-8.687500e-03
-1.453125e-09,-6.031250e-03
-1.413125e-09,-1.000000e-03
-1.373125e-09,3.781250e-03
-1.333125e-09,6.281250e-03
-1.293125e-09,6.250000e-03
-1.253125e-09,5.562500e-03
-1.213125e-09,6.437500e-03
-1.173125e-09,9.718750e-03
-1.133125e-09,1.406250e-02
-1.093125e-09,1.740625e-02
-1.053125e-09,1.828125e-02
-1.013125e-09,1.734375e-02
-9.731250e-10,1.646875e-02
-9.331250e-10,1.778125e-02
-8.931250e-10,2.187500e-02
-8.531250e-10,2.815625e-02
-8.131250e-10,3.525000e-02
-7.731250e-10,4.240625e-02
-7.331250e-10,4.940625e-02
-6.931250e-10,5.668750e-02
-6.531250e-10,6.421875e-02
-6.131250e-10,7.193750e-02
-5.731250e-10,7.925000e-02
-5.331250e-10,8.618750e-02
-4.931250e-10,9.281250e-02
-4.531250e-10,9.962500e-02
-4.131250e-10,1.066563e-01
-3.731250e-10,1.140000e-01
-3.331250e-10,1.212500e-01
-2.931250e-10,1.284062e-01
-2.531250e-10,1.354375e-01
-2.131250e-10,1.427812e-01
-1.731250e-10,1.506875e-01
-1.331250e-10,1.596250e-01
-9.312500e-11,1.696875e-01
-5.312500e-11,1.809063e-01
-1.312500e-11,1.924063e-01
2.687500e-11,2.031250e-01
6.687500e-11,2.116250e-01
1.068750e-10,2.174688e-01
1.468750e-10,2.210938e-01
1.868750e-10,2.243438e-01
2.268750e-10,2.289375e-01
2.668750e-10,2.359063e-01
3.068750e-10,2.442500e-01
3.468750e-10,2.522187e-01
3.868750e-10,2.578750e-01
4.268750e-10,2.614063e-01
4.668750e-10,2.642813e-01
5.068750e-10,2.692500e-01
5.468750e-10,2.775313e-01
5.868750e-10,2.885000e-01
6.268750e-10,2.990937e-01
6.668750e-10,3.064062e-01
7.068750e-10,3.089375e-01
7.468750e-10,3.080625e-01
7.868750e-10,3.067813e-01
8.268750e-10,3.084062e-01
8.668750e-10,3.142187e-01
9.068750e-10,3.233437e-01
9.468750e-10,3.330937e-01
9.868750e-10,3.408750e-01
1.026875e-09,3.451250e-01
1.066875e-09,3.463438e-01
1.106875e-09,3.462187e-01
1.146875e-09,3.472500e-01
1.186875e-09,3.510313e-01
1.226875e-09,3.578438e-01
1.266875e-09,3.661563e-01
1.306875e-09,3.735312e-01
1.346875e-09,3.777187e-01
1.386875e-09,3.781875e-01
1.426875e-09,3.760312e-01
1.466875e-09,3.737500e-01
1.506875e-09,3.733750e-01
1.546875e-09,3.755000e-01
1.586875e-09,3.790625e-01
1.626875e-09,3.822500e-01
1.666875e-09,3.834063e-01
1.706875e-09,3.823125e-01
1.746875e-09,3.799375e-01
1.786875e-09,3.779062e-01
1.826875e-09,3.775000e-01
1.866875e-09,3.790625e-01
1.906875e-09,3.818125e-01
1.946875e-09,3.842500e-01
1.986875e-09,3.849375e-01
2.026875e-09,3.831875e-01
2.066875e-09,3.796250e-01
2.106875e-09,3.755938e-01
2.146875e-09,3.724688e-01
2.186875e-09,3.707187e-01
2.226875e-09,3.697500e-01
2.266875e-09,3.682500e-01
2.306875e-09,3.654375e-01
2.346875e-09,3.615625e-01
2.386875e-09,3.578438e-01
2.426875e-09,3.553125e-01
2.466875e-09,3.540625e-01
2.506875e-09,3.530312e-01
2.546875e-09,3.509687e-01
2.586875e-09,3.470625e-01
2.626875e-09,3.418438e-01
2.666875e-09,3.360000e-01
2.706875e-09,3.301875e-01
2.746875e-09,3.240000e-01
2.786875e-09,3.172187e-01
2.826875e-09,3.100938e-01
2.866875e-09,3.039688e-01
2.906875e-09,3.000937e-01
2.946875e-09,2.987500e-01
2.986875e-09,2.980000e-01
3.026875e-09,2.953750e-01
3.066875e-09,2.889062e-01
3.106875e-09,2.793750e-01
3.146875e-09,2.693750e-01
3.186875e-09,2.618750e-01
3.226875e-09,2.575000e-01
3.266875e-09,2.545000e-01
3.306875e-09,2.495313e-01
3.346875e-09,2.409375e-01
3.386875e-09,2.295000e-01
3.426875e-09,2.185313e-01
3.466875e-09,2.109688e-01
3.506875e-09,2.076250e-01
3.546875e-09,2.061250e-01
3.586875e-09,2.032188e-01
3.626875e-09,1.964688e-01
3.666875e-09,1.864375e-01
3.706875e-09,1.752813e-01
3.746875e-09,1.657813e-01
3.786875e-09,1.589375e-01
3.826875e-09,1.542813e-01
3.866875e-09,1.498125e-01
3.906875e-09,1.442188e-01
3.946875e-09,1.366563e-01
3.986875e-09,1.278125e-01
4.026875e-09,1.184688e-01
4.066875e-09,1.100312e-01
4.106875e-09,1.032500e-01
4.146875e-09,9.859375e-02
4.186875e-09,9.512500e-02
4.226875e-09,9.146875e-02
4.266875e-09,8.593750e-02
4.306875e-09,7.837500e-02
4.346875e-09,6.990625e-02
4.386875e-09,6.287500e-02
4.426875e-09,5.853125e-02
4.466875e-09,5.631250e-02
4.506875e-09,5.353125e-02
4.546875e-09,4.781250e-02
4.586875e-09,3.846875e-02
4.626875e-09,2.778125e-02
4.666875e-09,1.890625e-02
4.706875e-09,1.412500e-02
4.746875e-09,1.253125e-02
4.786875e-09,1.134375e-02
4.826875e-09,7.437500e-03
4.866875e-09,1.562500e-04
4.906875e-09,-9.000000e-03
4.946875e-09,-1.712500e-02
4.986875e-09,-2.250000e-02
5.026875e-09,-2.496875e-02
5.066875e-09,-2.615625e-02
5.106875e-09,-2.768750e-02
5.146875e-09,-3.068750e-02
5.186875e-09,-3.512500e-02
5.226875e-09,-4.075000e-02
5.266875e-09,-4.687500e-02
5.306875e-09,-5.281250e-02
5.346875e-09,-5.734375e-02
5.386875e-09,-5.993750e-02
5.426875e-09,-6.075000e-02
5.466875e-09,-6.137500e-02
5.506875e-09,-6.359375e-02
5.546875e-09,-6.843750e-02
5.586875e-09,-7.484375e-02
5.626875e-09,-8.050000e-02
5.666875e-09,-8.303125e-02
5.706875e-09,-8.209375e-02
5.746875e-09,-7.940625e-02
5.786875e-09,-7.790625e-02
5.826875e-09,-7.946875e-02
5.866875e-09,-8.428125e-02
5.906875e-09,-9.059375e-02
5.946875e-09,-9.634375e-02
5.986875e-09,-1.000937e-01
6.026875e-09,-1.017187e-01
6.066875e-09,-1.016875e-01
6.106875e-09,-1.007812e-01
6.146875e-09,-9.956250e-02
6.186875e-09,-9.868750e-02
6.226875e-09,-9.868750e-02
6.266875e-09,-9.981250e-02
6.306875e-09,-1.015312e-01
6.346875e-09,-1.029687e-01
6.386875e-09,-1.032812e-01
6.426875e-09,-1.024063e-01
6.466875e-09,-1.012500e-01
6.506875e-09,-1.010625e-01
6.546875e-09,-1.025937e-01
6.586875e-09,-1.055625e-01
6.626875e-09,-1.089062e-01
6.666875e-09,-1.115625e-01
6.706875e-09,-1.128750e-01
6.746875e-09,-1.129375e-01
6.786875e-09,-1.120000e-01
6.826875e-09,-1.103125e-01
6.866875e-09,-1.079688e-01
6.906875e-09,-1.051562e-01
6.946875e-09,-1.023750e-01
6.986875e-09,-1.001250e-01
7.026875e-09,-9.868750e-02
7.066875e-09,-9.787500e-02
7.106875e-09,-9.728125e-02
7.146875e-09,-9.662500e-02
7.186875e-09,-9.581250e-02
7.226875e-09,-9.478125e-02
7.266875e-09,-9.356250e-02
7.306875e-09,-9.209375e-02
7.346875e-09,-9.050000e-02
7.386875e-09,-8.906250e-02
7.426875e-09,-8.818750e-02
7.466875e-09,-8.787500e-02
7.506875e-09,-8.740625e-02
7.546875e-09,-8.575000e-02
7.586875e-09,-8.246875e-02
7.626875e-09,-7.790625e-02
7.666875e-09,-7.343750e-02
7.706875e-09,-7.025000e-02
7.746875e-09,-6.884375e-02
7.786875e-09,-6.878125e-02
7.826875e-09,-6.931250e-02
7.866875e-09,-6.993750e-02
7.906875e-09,-7.068750e-02
7.946875e-09,-7.131250e-02
7.986875e-09,-7.112500e-02
8.026875e-09,-6.903125e-02
8.066875e-09,-6.459375e-02
8.106875e-09,-5.878125e-02
8.146875e-09,-5.387500e-02
8.186875e-09,-5.181250e-02
8.226875e-09,-5.300000e-02
8.266875e-09,-5.556250e-02
8.306875e-09,-5.681250e-02
8.346875e-09,-5.493750e-02
8.386875e-09,-5.021875e-02
8.426875e-09,-4.471875e-02
8.466875e-09,-4.081250e-02
8.506875e-09,-3.956250e-02
8.546875e-09,-4.040625e-02
8.586875e-09,-4.162500e-02
8.626875e-09,-4.181250e-02
8.666875e-09,-4.034375e-02
8.706875e-09,-3.750000e-02
8.746875e-09,-3.387500e-02
8.786875e-09,-3.006250e-02
8.826875e-09,-2.634375e-02
8.866875e-09,-2.312500e-02
8.906875e-09,-2.056250e-02
8.946875e-09,-1.875000e-02
8.986875e-09,-1.746875e-02
9.026875e-09,-1.653125e-02
9.066875e-09,-1.568750e-02
9.106875e-09,-1.503125e-02
9.146875e-09,-1.440625e-02
9.186875e-09,-1.365625e-02
9.226875e-09,-1.240625e-02
9.266875e-09,-1.050000e-02
9.306875e-09,-8.250000e-03
9.346875e-09,-6.281250e-03
9.386875e-09,-5.062500e-03
9.426875e-09,-4.312500e-03
9.466875e-09,-3.218750e-03
9.506875e-09,-1.000000e-03
9.546875e-09,2.343750e-03
9.586875e-09,5.812500e-03
9.626875e-09,8.218750e-03
9.666875e-09,8.843750e-03
9.706875e-09,8.218750e-03
9.746875e-09,7.375000e-03
9.786875e-09,7.312500e-03
9.826875e-09,8.187500e-03
9.866875e-09,9.500000e-03
9.906875e-09,1.081250e-02
9.946875e-09,1.193750e-02
9.986875e-09,1.309375e-02
1.002687e-08,1.431250e-02
1.006687e-08,1.534375e-02
1.010687e-08,1.587500e-02
1.014687e-08,1.596875e-02
1.018687e-08,1.625000e-02
1.022687e-08,1.734375e-02
1.026688e-08,1.931250e-02
1.030687e-08,2.134375e-02
1.034687e-08,2.265625e-02
1.038687e-08,2.296875e-02
1.042687e-08,2.303125e-02
1.046687e-08,2.375000e-02
1.050687e-08,2.525000e-02
1.054687e-08,2.637500e-02
1.058687e-08,2.581250e-02
1.062687e-08,2.325000e-02
1.066687e-08,2.028125e-02
1.070687e-08,1.928125e-02
1.074688e-08,2.175000e-02
1.078687e-08,2.687500e-02
1.082687e-08,3.203125e-02
1.086687e-08,3.459375e-02
1.090687e-08,3.378125e-02
1.094687e-08,3.096875e-02
1.098687e-08,2.825000e-02
1.102687e-08,2.671875e-02
1.106687e-08,2.600000e-02
1.110687e-08,2.525000e-02
1.114687e-08,2.428125e-02
1.118687e-08,2.393750e-02
1.122688e-08,2.500000e-02
1.126687e-08,2.687500e-02
1.130687e-08,2.775000e-02
1.134687e-08,2.593750e-02
1.138687e-08,2.200000e-02
1.142687e-08,1.856250e-02
1.146687e-08,1.878125e-02
1.150687e-08,2.343750e-02
1.154687e-08,3.009375e-02
1.158687e-08,3.450000e-02
1.162687e-08,3.362500e-02
1.166687e-08,2.796875e-02
1.170688e-08,2.109375e-02
1.174687e-08,1.709375e-02
1.178687e-08,1.746875e-02
1.182687e-08,2.062500e-02
1.186687e-08,2.321875e-02
1.190687e-08,2.300000e-02
1.194687e-08,2.031250e-02
1.198687e-08,1.743750e-02
1.202687e-08,1.671875e-02
1.206687e-08,1.900000e-02
1.210687e-08,2.309375e-02
1.214687e-08,2.703125e-02
1.218688e-08,2.906250e-02
1.222687e-08,2.853125e-02
1.226687e-08,2.571875e-02
1.230687e-08,2.153125e-02
1.234687e-08,1.734375e-02
1.238687e-08,1.443750e-02
1.242687e-08,1.362500e-02
1.246687e-08,1.459375e-02
1.250687e-08,1.590625e-02
1.254687e-08,1.593750e-02
1.258687e-08,1.418750e-02
1.262687e-08,1.187500e-02
1.266688e-08,1.112500e-02
1.270687e-08,1.318750e-02
1.274687e-08,1.709375e-02
1.278687e-08,2.012500e-02
1.282687e-08,1.987500e-02
1.286687e-08,1.628125e-02
1.290687e-08,1.168750e-02
1.294687e-08,9.281250e-03
1.298687e-08,1.031250e-02
1.302687e-08,1.334375e-02
1.306687e-08,1.543750e-02
1.310687e-08,1.481250e-02
1.314687e-08,1.200000e-02
1.318687e-08,9.375000e-03
1.322687e-08,8.531250e-03
1.326687e-08,8.906250e-03
1.330687e-08,8.250000e-03
1.334687e-08,5.062500e-03
1.338687e-08,2.500000e-04
1.342687e-08,-3.218750e-03
1.346687e-08,-2.750000e-03
1.350687e-08,1.531250e-03
1.354687e-08,6.531250e-03
1.358687e-08,8.468750e-03
1.362687e-08,5.843750e-03
1.366687e-08,5.625000e-04
1.370687e-08,-3.750000e-03
1.374687e-08,-4.375000e-03
1.378687e-08,-1.906250e-03
1.382687e-08,8.125000e-04
1.386687e-08,7.500000e-04
1.390687e-08,-2.593750e-03
1.394687e-08,-7.031250e-03
1.398687e-08,-9.406250e-03
1.402687e-08,-8.125000e-03
1.406687e-08,-4.187500e-03
1.410687e-08,-5.625000e-04
1.414687e-08,2.187500e-04
1.418687e-08,-2.531250e-03
1.422687e-08,-7.218750e-03
1.426687e-08,-1.137500e-02
1.430687e-08,-1.331250e-02
1.434687e-08,-1.293750e-02
1.438687e-08,-1.165625e-02
1.442687e-08,-1.093750e-02
1.446687e-08,-1.140625e-02
1.450687e-08,-1.240625e-02
1.454687e-08,-1.268750e-02
1.458687e-08,-1.137500e-02
1.462687e-08,-8.625000e-03
1.466687e-08,-5.593750e-03
1.470687e-08,-3.625000e-03
1.474687e-08,-3.562500e-03
1.478687e-08,-5.125000e-03
1.482687e-08,-7.500000e-03
1.486687e-08,-9.750000e-03
1.490687e-08,-1.137500e-02
1.494687e-08,-1.225000e-02
1.498688e-08,-1.256250e-02
1.502687e-08,-1.259375e-02
1.506687e-08,-1.265625e-02
1.510688e-08,-1.303125e-02
1.514687e-08,-1.393750e-02
1.518687e-08,-1.500000e-02
1.522687e-08,-1.531250e-02
1.526688e-08,-1.393750e-02
1.530687e-08,-1.087500e-02
1.534687e-08,-7.562500e-03
1.538688e-08,-6.125000e-03
1.542687e-08,-8.093750e-03
1.546687e-08,-1.306250e-02
1.550687e-08,-1.865625e-02
1.554688e-08,-2.187500e-02
1.558687e-08,-2.125000e-02
1.562687e-08,-1.787500e-02
1.566688e-08,-1.446875e-02
1.570687e-08,-1.359375e-02
1.574687e-08,-1.568750e-02
1.578687e-08,-1.887500e-02
1.582687e-08,-2.050000e-02
1.586687e-08,-1.887500e-02
1.590687e-08,-1.446875e-02
1.594688e-08,-9.406250e-03
1.598687e-08,-5.937500e-03
1.602687e-08,-5.375000e-03
1.606687e-08,-7.750000e-03
1.610687e-08,-1.225000e-02
1.614687e-08,-1.756250e-02
1.618687e-08,-2.221875e-02
1.622688e-08,-2.468750e-02
1.626687e-08,-2.381250e-02
1.630687e-08,-1.971875e-02
1.634688e-08,-1.403125e-02
1.638687e-08,-9.531250e-03
1.642687e-08,-8.343750e-03
1.646687e-08,-1.053125e-02
1.650688e-08,-1.390625e-02
1.654687e-08,-1.546875e-02
1.658687e-08,-1.350000e-02
1.662688e-08,-9.000000e-03
1.666687e-08,-4.812500e-03
1.670687e-08,-3.687500e-03
1.674687e-08,-6.250000e-03
1.678687e-08,-1.053125e-02
1.682687e-08,-1.359375e-02
1.686687e-08,-1.368750e-02
1.690688e-08,-1.131250e-02
1.694687e-08,-8.781250e-03
1.698687e-08,-8.281250e-03
1.702687e-08,-1.040625e-02
1.706687e-08,-1.396875e-02
1.710687e-08,-1.703125e-02
1.714687e-08,-1.834375e-02
1.718688e-08,-1.778125e-02
1.722687e-08,-1.606250e-02
1.726687e-08,-1.387500e-02
1.730688e-08,-1.171875e-02
1.734687e-08,-1.012500e-02
1.738687e-08,-9.687500e-03
1.742687e-08,-1.106250e-02
1.746688e-08,-1.396875e-02
1.750687e-08,-1.703125e-02
1.754687e-08,-1.834375e-02
1.758688e-08,-1.684375e-02
1.762687e-08,-1.334375e-02
1.766687e-08,-1.031250e-02
1.770687e-08,-1.006250e-02
1.774687e-08,-1.284375e-02
1.778687e-08,-1.637500e-02
1.782687e-08,-1.725000e-02
1.786688e-08,-1.362500e-02
1.790687e-08,-6.687500e-03
1.794687e-08,-3.125000e-05
1.798687e-08,2.687500e-03
1.802687e-08,3.125000e-04
1.806687e-08,-5.000000e-03
1.810687e-08,-9.562500e-03
1.814688e-08,-1.075000e-02
1.818687e-08,-8.593750e-03
1.822687e-08,-5.343750e-03
1.826687e-08,-3.687500e-03
1.830687e-08,-4.656250e-03
1.834687e-08,-7.375000e-03
1.838687e-08,-9.968750e-03
1.842688e-08,-1.112500e-02
1.846687e-08,-1.078125e-02
1.850687e-08,-9.656250e-03
1.854688e-08,-8.437500e-03
1.858687e-08,-7.312500e-03
1.862687e-08,-6.343750e-03
1.866687e-08,-5.906250e-03
1.870687e-08,-6.718750e-03
1.874687e-08,-9.000000e-03
1.878687e-08,-1.203125e-02
1.882688e-08,-1.431250e-02
1.886687e-08,-1.443750e-02
1.890687e-08,-1.225000e-02
1.894687e-08,-8.906250e-03
1.898687e-08,-6.031250e-03
1.902687e-08,-4.468750e-03
1.906687e-08,-3.937500e-03
1.910688e-08,-3.562500e-03
1.914687e-08,-3.000000e-03
1.918687e-08,-2.687500e-03
1.922687e-08,-3.375000e-03
1.926687e-08,-5.156250e-03
1.930687e-08,-7.156250e-03
1.934687e-08,-8.187500e-03
1.938688e-08,-7.875000e-03
1.942687e-08,-7.000000e-03
1.946687e-08,-6.968750e-03
1.950688e-08,-8.375000e-03
1.954687e-08,-1.046875e-02
1.958687e-08,-1.165625e-02
1.962687e-08,-1.084375e-02
1.966687e-08,-8.343750e-03
1.970687e-08,-5.687500e-03
1.974687e-08,-4.500000e-03
1.978688e-08,-5.250000e-03
1.982687e-08,-7.062500e-03
1.986687e-08,-8.500000e-03
1.990687e-08,-8.625000e-03
1.994687e-08,-7.625000e-03
1.998687e-08,-6.406250e-03
2.002687e-08,-5.781250e-03
2.006688e-08,-5.781250e-03
2.010687e-08,-5.843750e-03
2.014687e-08,-5.437500e-03
2.018687e-08,-4.531250e-03
2.022687e-08,-3.593750e-03
2.026687e-08,-3.218750e-03
2.030687e-08,-3.562500e-03
2.034688e-08,-4.218750e-03
2.038687e-08,-4.687500e-03
2.042687e-08,-4.531250e-03
2.046687e-08,-3.812500e-03
2.050687e-08,-2.937500e-03
2.054687e-08,-2.218750e-03
2.058687e-08,-1.843750e-03
2.062687e-08,-1.937500e-03
2.066687e-08,-2.687500e-03
