Measurements-streak-laser/Old-photodiode-on-Tek/SaveOnEvent_ch1_20190613112613336.csv

Model,MSO64
Waveform Type,ANALOG
Horizontal Units,s
Sample Interval,4.000000e-11
Record Length,1000
Zero Index,219.039062
Vertical Units,V

TIME,CH1
-8.761562e-09,-5.437500e-03
-8.721562e-09,-8.234375e-03
-8.681562e-09,-9.921875e-03
-8.641563e-09,-9.906250e-03
-8.601562e-09,-8.578125e-03
-8.561562e-09,-6.953125e-03
-8.521562e-09,-5.921875e-03
-8.481562e-09,-5.671875e-03
-8.441562e-09,-5.687500e-03
-8.401562e-09,-5.406250e-03
-8.361563e-09,-4.718750e-03
-8.321562e-09,-4.218750e-03
-8.281562e-09,-4.484375e-03
-8.241562e-09,-5.609375e-03
-8.201562e-09,-6.937500e-03
-8.161563e-09,-7.562500e-03
-8.121562e-09,-7.093750e-03
-8.081562e-09,-5.937500e-03
-8.041562e-09,-5.046875e-03
-8.001562e-09,-5.078125e-03
-7.961562e-09,-5.984375e-03
-7.921562e-09,-7.031250e-03
-7.881563e-09,-7.578125e-03
-7.841562e-09,-7.500000e-03
-7.801562e-09,-7.250000e-03
-7.761562e-09,-7.250000e-03
-7.721562e-09,-7.406250e-03
-7.681563e-09,-7.109375e-03
-7.641562e-09,-5.812500e-03
-7.601563e-09,-3.703125e-03
-7.561562e-09,-1.750000e-03
-7.521562e-09,-1.218750e-03
-7.481562e-09,-2.640625e-03
-7.441562e-09,-5.406250e-03
-7.401562e-09,-7.984375e-03
-7.361562e-09,-8.968750e-03
-7.321562e-09,-7.906250e-03
-7.281562e-09,-5.687500e-03
-7.241562e-09,-3.828125e-03
-7.201562e-09,-3.531250e-03
-7.161562e-09,-4.843750e-03
-7.121562e-09,-6.593750e-03
-7.081562e-09,-7.312500e-03
-7.041562e-09,-6.125000e-03
-7.001562e-09,-3.421875e-03
-6.961562e-09,-5.781250e-04
-6.921562e-09,8.750000e-04
-6.881562e-09,2.343750e-04
-6.841562e-09,-2.015625e-03
-6.801562e-09,-4.609375e-03
-6.761562e-09,-6.312500e-03
-6.721562e-09,-6.625000e-03
-6.681562e-09,-5.984375e-03
-6.641562e-09,-5.171875e-03
-6.601562e-09,-4.687500e-03
-6.561562e-09,-4.421875e-03
-6.521562e-09,-3.875000e-03
-6.481562e-09,-2.671875e-03
-6.441562e-09,-1.031250e-03
-6.401562e-09,4.062500e-04
-6.361562e-09,9.218750e-04
-6.321562e-09,1.875000e-04
-6.281562e-09,-1.484375e-03
-6.241562e-09,-3.375000e-03
-6.201562e-09,-4.703125e-03
-6.161562e-09,-5.062500e-03
-6.121562e-09,-4.531250e-03
-6.081562e-09,-3.593750e-03
-6.041562e-09,-2.968750e-03
-6.001562e-09,-3.156250e-03
-5.961562e-09,-4.156250e-03
-5.921562e-09,-5.390625e-03
-5.881562e-09,-5.984375e-03
-5.841562e-09,-5.281250e-03
-5.801562e-09,-3.375000e-03
-5.761562e-09,-1.140625e-03
-5.721562e-09,2.656250e-04
-5.681562e-09,6.250000e-05
-5.641562e-09,-1.625000e-03
-5.601562e-09,-3.937500e-03
-5.561562e-09,-5.781250e-03
-5.521562e-09,-6.500000e-03
-5.481562e-09,-6.093750e-03
-5.441562e-09,-5.062500e-03
-5.401562e-09,-3.875000e-03
-5.361562e-09,-2.875000e-03
-5.321562e-09,-2.156250e-03
-5.281563e-09,-1.781250e-03
-5.241562e-09,-1.843750e-03
-5.201562e-09,-2.343750e-03
-5.161562e-09,-3.093750e-03
-5.121562e-09,-3.796875e-03
-5.081562e-09,-4.218750e-03
-5.041563e-09,-4.390625e-03
-5.001562e-09,-4.562500e-03
-4.961562e-09,-4.921875e-03
-4.921562e-09,-5.421875e-03
-4.881562e-09,-5.718750e-03
-4.841562e-09,-5.500000e-03
-4.801563e-09,-4.796875e-03
-4.761562e-09,-4.031250e-03
-4.721562e-09,-3.687500e-03
-4.681562e-09,-3.906250e-03
-4.641562e-09,-4.375000e-03
-4.601562e-09,-4.500000e-03
-4.561563e-09,-3.937500e-03
-4.521562e-09,-2.843750e-03
-4.481562e-09,-1.796875e-03
-4.441562e-09,-1.312500e-03
-4.401562e-09,-1.625000e-03
-4.361562e-09,-2.500000e-03
-4.321563e-09,-3.640625e-03
-4.281562e-09,-4.843750e-03
-4.241562e-09,-6.078125e-03
-4.201562e-09,-7.218750e-03
-4.161562e-09,-7.921875e-03
-4.121562e-09,-7.781250e-03
-4.081563e-09,-6.656250e-03
-4.041562e-09,-5.000000e-03
-4.001562e-09,-3.656250e-03
-3.961562e-09,-3.312500e-03
-3.921562e-09,-4.031250e-03
-3.881562e-09,-5.187500e-03
-3.841563e-09,-5.937500e-03
-3.801562e-09,-5.906250e-03
-3.761562e-09,-5.375000e-03
-3.721562e-09,-4.968750e-03
-3.681562e-09,-5.109375e-03
-3.641562e-09,-5.656250e-03
-3.601562e-09,-6.093750e-03
-3.561562e-09,-6.015625e-03
-3.521562e-09,-5.484375e-03
-3.481562e-09,-4.890625e-03
-3.441562e-09,-4.578125e-03
-3.401562e-09,-4.546875e-03
-3.361562e-09,-4.546875e-03
-3.321562e-09,-4.359375e-03
-3.281562e-09,-4.000000e-03
-3.241562e-09,-3.671875e-03
-3.201562e-09,-3.484375e-03
-3.161562e-09,-3.375000e-03
-3.121562e-09,-3.218750e-03
-3.081562e-09,-3.093750e-03
-3.041562e-09,-3.296875e-03
-3.001562e-09,-4.093750e-03
-2.961562e-09,-5.281250e-03
-2.921562e-09,-6.312500e-03
-2.881562e-09,-6.546875e-03
-2.841562e-09,-5.906250e-03
-2.801562e-09,-4.921875e-03
-2.761562e-09,-4.406250e-03
-2.721562e-09,-4.750000e-03
-2.681562e-09,-5.531250e-03
-2.641562e-09,-5.890625e-03
-2.601562e-09,-5.218750e-03
-2.561562e-09,-3.812500e-03
-2.521562e-09,-2.640625e-03
-2.481562e-09,-2.734375e-03
-2.441562e-09,-4.296875e-03
-2.401562e-09,-6.531250e-03
-2.361562e-09,-8.140625e-03
-2.321562e-09,-8.187500e-03
-2.281562e-09,-6.765625e-03
-2.241562e-09,-4.843750e-03
-2.201562e-09,-3.562500e-03
-2.161562e-09,-3.468750e-03
-2.121562e-09,-4.187500e-03
-2.081562e-09,-4.734375e-03
-2.041562e-09,-4.250000e-03
-2.001562e-09,-2.625000e-03
-1.961562e-09,-6.406250e-04
-1.921562e-09,6.875000e-04
-1.881562e-09,6.406250e-04
-1.841562e-09,-5.937500e-04
-1.801562e-09,-2.156250e-03
-1.761562e-09,-3.062500e-03
-1.721562e-09,-2.921875e-03
-1.681562e-09,-2.046875e-03
-1.641562e-09,-1.234375e-03
-1.601562e-09,-1.031250e-03
-1.561562e-09,-1.406250e-03
-1.521562e-09,-1.718750e-03
-1.481562e-09,-1.359375e-03
-1.441562e-09,-1.093750e-04
-1.401562e-09,1.546875e-03
-1.361562e-09,3.000000e-03
-1.321562e-09,3.781250e-03
-1.281562e-09,4.093750e-03
-1.241562e-09,4.437500e-03
-1.201562e-09,5.359375e-03
-1.161562e-09,6.828125e-03
-1.121562e-09,8.562500e-03
-1.081562e-09,1.017187e-02
-1.041562e-09,1.181250e-02
-1.001562e-09,1.389063e-02
-9.615625e-10,1.696875e-02
-9.215625e-10,2.087500e-02
-8.815625e-10,2.501563e-02
-8.415625e-10,2.832813e-02
-8.015625e-10,3.065625e-02
-7.615625e-10,3.264063e-02
-7.215625e-10,3.598438e-02
-6.815625e-10,4.184375e-02
-6.415625e-10,5.050000e-02
-6.015625e-10,6.039063e-02
-5.615625e-10,6.964063e-02
-5.215625e-10,7.660938e-02
-4.815625e-10,8.154688e-02
-4.415625e-10,8.575000e-02
-4.015625e-10,9.134375e-02
-3.615625e-10,9.925000e-02
-3.215625e-10,1.095781e-01
-2.815625e-10,1.210781e-01
-2.415625e-10,1.328281e-01
-2.015625e-10,1.438906e-01
-1.615625e-10,1.543438e-01
-1.215625e-10,1.640313e-01
-8.156250e-11,1.733750e-01
-4.156250e-11,1.823594e-01
-1.562500e-12,1.916563e-01
3.843750e-11,2.015469e-01
7.843750e-11,2.125000e-01
1.184375e-10,2.238281e-01
1.584375e-10,2.348750e-01
1.984375e-10,2.444688e-01
2.384375e-10,2.527344e-01
2.784375e-10,2.601094e-01
3.184375e-10,2.679375e-01
3.584375e-10,2.766250e-01
3.984375e-10,2.861406e-01
4.384375e-10,2.952344e-01
4.784375e-10,3.032500e-01
5.184375e-10,3.098125e-01
5.584375e-10,3.159219e-01
5.984375e-10,3.223906e-01
6.384375e-10,3.300781e-01
6.784375e-10,3.385313e-01
7.184375e-10,3.470469e-01
7.584375e-10,3.544375e-01
7.984375e-10,3.605000e-01
8.384375e-10,3.652188e-01
8.784375e-10,3.696563e-01
9.184375e-10,3.745469e-01
9.584375e-10,3.807813e-01
9.984375e-10,3.882813e-01
1.038438e-09,3.967031e-01
1.078437e-09,4.049375e-01
1.118437e-09,4.122969e-01
1.158438e-09,4.183906e-01
1.198437e-09,4.238125e-01
1.238437e-09,4.292344e-01
1.278438e-09,4.352656e-01
1.318437e-09,4.414062e-01
1.358437e-09,4.467656e-01
1.398438e-09,4.503281e-01
1.438437e-09,4.522500e-01
1.478437e-09,4.535156e-01
1.518438e-09,4.557188e-01
1.558437e-09,4.594844e-01
1.598437e-09,4.643438e-01
1.638437e-09,4.686719e-01
1.678437e-09,4.711094e-01
1.718437e-09,4.713281e-01
1.758437e-09,4.704375e-01
1.798437e-09,4.699062e-01
1.838437e-09,4.707188e-01
1.878438e-09,4.725781e-01
1.918437e-09,4.744531e-01
1.958437e-09,4.752812e-01
1.998438e-09,4.746875e-01
2.038437e-09,4.730937e-01
2.078437e-09,4.710937e-01
2.118438e-09,4.690937e-01
2.158437e-09,4.671094e-01
2.198437e-09,4.650313e-01
2.238438e-09,4.628125e-01
2.278437e-09,4.606250e-01
2.318437e-09,4.584531e-01
2.358438e-09,4.561719e-01
2.398437e-09,4.534687e-01
2.438437e-09,4.503281e-01
2.478438e-09,4.469219e-01
2.518437e-09,4.437500e-01
2.558437e-09,4.409375e-01
2.598438e-09,4.383594e-01
2.638437e-09,4.353594e-01
2.678437e-09,4.315625e-01
2.718438e-09,4.267344e-01
2.758437e-09,4.213750e-01
2.798437e-09,4.158281e-01
2.838438e-09,4.104531e-01
2.878437e-09,4.049375e-01
2.918437e-09,3.990469e-01
2.958438e-09,3.922500e-01
2.998437e-09,3.848281e-01
3.038437e-09,3.770938e-01
3.078437e-09,3.699844e-01
3.118437e-09,3.638281e-01
3.158437e-09,3.588438e-01
3.198437e-09,3.541406e-01
3.238437e-09,3.489375e-01
3.278437e-09,3.421094e-01
3.318437e-09,3.336875e-01
3.358437e-09,3.240156e-01
3.398437e-09,3.143125e-01
3.438437e-09,3.052187e-01
3.478437e-09,2.970781e-01
3.518437e-09,2.891094e-01
3.558437e-09,2.807344e-01
3.598437e-09,2.712969e-01
3.638437e-09,2.614531e-01
3.678437e-09,2.518906e-01
3.718437e-09,2.437656e-01
3.758438e-09,2.370156e-01
3.798437e-09,2.312188e-01
3.838437e-09,2.250000e-01
3.878437e-09,2.176563e-01
3.918437e-09,2.086563e-01
3.958437e-09,1.987813e-01
3.998438e-09,1.886875e-01
4.038437e-09,1.794688e-01
4.078437e-09,1.711563e-01
4.118437e-09,1.637813e-01
4.158437e-09,1.565313e-01
4.198437e-09,1.491250e-01
4.238438e-09,1.410938e-01
4.278437e-09,1.327344e-01
4.318437e-09,1.241563e-01
4.358437e-09,1.159844e-01
4.398437e-09,1.082344e-01
4.438437e-09,1.011563e-01
4.478438e-09,9.431250e-02
4.518437e-09,8.760938e-02
4.558437e-09,8.048438e-02
4.598437e-09,7.296875e-02
4.638437e-09,6.490625e-02
4.678437e-09,5.676563e-02
4.718438e-09,4.871875e-02
4.758437e-09,4.134375e-02
4.798437e-09,3.456250e-02
4.838437e-09,2.846875e-02
4.878437e-09,2.257813e-02
4.918437e-09,1.689063e-02
4.958437e-09,1.123438e-02
4.998437e-09,5.984375e-03
5.038437e-09,1.093750e-03
5.078437e-09,-3.531250e-03
5.118437e-09,-8.656250e-03
5.158437e-09,-1.462500e-02
5.198437e-09,-2.164062e-02
5.238437e-09,-2.879687e-02
5.278437e-09,-3.520313e-02
5.318437e-09,-3.996875e-02
5.358437e-09,-4.342187e-02
5.398437e-09,-4.640625e-02
5.438437e-09,-5.012500e-02
5.478437e-09,-5.484375e-02
5.518437e-09,-6.012500e-02
5.558437e-09,-6.479688e-02
5.598437e-09,-6.839062e-02
5.638437e-09,-7.107812e-02
5.678437e-09,-7.403125e-02
5.718437e-09,-7.804687e-02
5.758437e-09,-8.329687e-02
5.798437e-09,-8.876562e-02
5.838437e-09,-9.325000e-02
5.878437e-09,-9.590625e-02
5.918437e-09,-9.701562e-02
5.958437e-09,-9.746875e-02
5.998437e-09,-9.840625e-02
6.038437e-09,-1.002031e-01
6.078437e-09,-1.027031e-01
6.118437e-09,-1.052812e-01
6.158437e-09,-1.076719e-01
6.198437e-09,-1.098281e-01
6.238437e-09,-1.120000e-01
6.278437e-09,-1.141406e-01
6.318437e-09,-1.159531e-01
6.358437e-09,-1.169687e-01
6.398437e-09,-1.171094e-01
6.438437e-09,-1.167031e-01
6.478437e-09,-1.165469e-01
6.518437e-09,-1.172031e-01
6.558437e-09,-1.187812e-01
6.598437e-09,-1.208125e-01
6.638437e-09,-1.226562e-01
6.678437e-09,-1.239062e-01
6.718437e-09,-1.245937e-01
6.758437e-09,-1.249531e-01
6.798437e-09,-1.250937e-01
6.838437e-09,-1.248906e-01
6.878437e-09,-1.241094e-01
6.918437e-09,-1.227188e-01
6.958437e-09,-1.210156e-01
6.998437e-09,-1.195000e-01
7.038437e-09,-1.185000e-01
7.078437e-09,-1.179687e-01
7.118437e-09,-1.175781e-01
7.158437e-09,-1.170313e-01
7.198437e-09,-1.162969e-01
7.238437e-09,-1.155000e-01
7.278437e-09,-1.146719e-01
7.318437e-09,-1.135937e-01
7.358437e-09,-1.119531e-01
7.398437e-09,-1.097500e-01
7.438437e-09,-1.074844e-01
7.478437e-09,-1.059531e-01
7.518437e-09,-1.055000e-01
7.558437e-09,-1.057188e-01
7.598438e-09,-1.054219e-01
7.638437e-09,-1.036250e-01
7.678437e-09,-1.001250e-01
7.718437e-09,-9.596875e-02
7.758437e-09,-9.259375e-02
7.798438e-09,-9.107812e-02
7.838437e-09,-9.115625e-02
7.878437e-09,-9.168750e-02
7.918437e-09,-9.139062e-02
7.958437e-09,-8.990625e-02
7.998437e-09,-8.768750e-02
8.038437e-09,-8.565625e-02
8.078438e-09,-8.406250e-02
8.118437e-09,-8.234375e-02
8.158437e-09,-7.935937e-02
8.198437e-09,-7.457812e-02
8.238437e-09,-6.848437e-02
8.278438e-09,-6.267187e-02
8.318437e-09,-5.865625e-02
8.358437e-09,-5.718750e-02
8.398437e-09,-5.754687e-02
8.438437e-09,-5.839063e-02
8.478437e-09,-5.829687e-02
8.518437e-09,-5.681250e-02
8.558438e-09,-5.423438e-02
8.598437e-09,-5.135937e-02
8.638437e-09,-4.867188e-02
8.678437e-09,-4.626562e-02
8.718437e-09,-4.382812e-02
8.758438e-09,-4.126563e-02
8.798437e-09,-3.857812e-02
8.838437e-09,-3.610937e-02
8.878437e-09,-3.401562e-02
8.918437e-09,-3.231250e-02
8.958437e-09,-3.070312e-02
8.998437e-09,-2.892187e-02
9.038438e-09,-2.670312e-02
9.078437e-09,-2.412500e-02
9.118437e-09,-2.129687e-02
9.158437e-09,-1.846875e-02
9.198437e-09,-1.582812e-02
9.238438e-09,-1.359375e-02
9.278437e-09,-1.176563e-02
9.318437e-09,-1.031250e-02
9.358437e-09,-9.000000e-03
9.398437e-09,-7.609375e-03
9.438437e-09,-5.937500e-03
9.478437e-09,-3.937500e-03
9.518438e-09,-1.625000e-03
9.558437e-09,7.812500e-04
9.598437e-09,3.109375e-03
9.638437e-09,5.031250e-03
9.678437e-09,6.359375e-03
9.718438e-09,7.062500e-03
9.758437e-09,7.437500e-03
9.798437e-09,7.921875e-03
9.838437e-09,8.968750e-03
9.878437e-09,1.060938e-02
9.918437e-09,1.265625e-02
9.958437e-09,1.467188e-02
9.998438e-09,1.650000e-02
1.003844e-08,1.817188e-02
1.007844e-08,2.000000e-02
1.011844e-08,2.200000e-02
1.015844e-08,2.398438e-02
1.019844e-08,2.548438e-02
1.023844e-08,2.632813e-02
1.027844e-08,2.675000e-02
1.031844e-08,2.731250e-02
1.035844e-08,2.839063e-02
1.039844e-08,2.989063e-02
1.043844e-08,3.117188e-02
1.047844e-08,3.162500e-02
1.051844e-08,3.107813e-02
1.055844e-08,2.995313e-02
1.059844e-08,2.900000e-02
1.063844e-08,2.881250e-02
1.067844e-08,2.956250e-02
1.071844e-08,3.106250e-02
1.075844e-08,3.306250e-02
1.079844e-08,3.534375e-02
1.083844e-08,3.759375e-02
1.087844e-08,3.929688e-02
1.091844e-08,3.995313e-02
1.095844e-08,3.937500e-02
1.099844e-08,3.800000e-02
1.103844e-08,3.668750e-02
1.107844e-08,3.617188e-02
1.111844e-08,3.650000e-02
1.115844e-08,3.710938e-02
1.119844e-08,3.734375e-02
1.123844e-08,3.698438e-02
1.127844e-08,3.640625e-02
1.131844e-08,3.612500e-02
1.135844e-08,3.623438e-02
1.139844e-08,3.640625e-02
1.143844e-08,3.626563e-02
1.147844e-08,3.593750e-02
1.151844e-08,3.601563e-02
1.155844e-08,3.692188e-02
1.159844e-08,3.834375e-02
1.163844e-08,3.925000e-02
1.167844e-08,3.865625e-02
1.171844e-08,3.654688e-02
1.175844e-08,3.403125e-02
1.179844e-08,3.257813e-02
1.183844e-08,3.289063e-02
1.187844e-08,3.429688e-02
1.191844e-08,3.531250e-02
1.195844e-08,3.484375e-02
1.199844e-08,3.309375e-02
1.203844e-08,3.139063e-02
1.207844e-08,3.106250e-02
1.211844e-08,3.240625e-02
1.215844e-08,3.442188e-02
1.219844e-08,3.567188e-02
1.223844e-08,3.525000e-02
1.227844e-08,3.335938e-02
1.231844e-08,3.087500e-02
1.235844e-08,2.871875e-02
1.239844e-08,2.723438e-02
1.243844e-08,2.635938e-02
1.247844e-08,2.590625e-02
1.251844e-08,2.581250e-02
1.255844e-08,2.600000e-02
1.259844e-08,2.617188e-02
1.263844e-08,2.576563e-02
1.267844e-08,2.448438e-02
1.271844e-08,2.264062e-02
1.275844e-08,2.109375e-02
1.279844e-08,2.065625e-02
1.283844e-08,2.135938e-02
1.287844e-08,2.232813e-02
1.291844e-08,2.240625e-02
1.295844e-08,2.104688e-02
1.299844e-08,1.881250e-02
1.303844e-08,1.685938e-02
1.307844e-08,1.606250e-02
1.311844e-08,1.617188e-02
1.315844e-08,1.626563e-02
1.319844e-08,1.553125e-02
1.323844e-08,1.412500e-02
1.327844e-08,1.303125e-02
1.331844e-08,1.315625e-02
1.335844e-08,1.435938e-02
1.339844e-08,1.537500e-02
1.343844e-08,1.481250e-02
1.347844e-08,1.239063e-02
1.351844e-08,9.265625e-03
1.355844e-08,7.203125e-03
1.359844e-08,7.125000e-03
1.363844e-08,8.234375e-03
1.367844e-08,8.546875e-03
1.371844e-08,6.593750e-03
1.375844e-08,2.671875e-03
1.379844e-08,-1.109375e-03
1.383844e-08,-2.484375e-03
1.387844e-08,-6.562500e-04
1.391844e-08,2.921875e-03
1.395844e-08,5.671875e-03
1.399844e-08,5.765625e-03
1.403844e-08,3.406250e-03
1.407844e-08,5.000000e-04
1.411844e-08,-9.531250e-04
1.415844e-08,-4.687500e-04
1.419844e-08,7.343750e-04
1.423844e-08,8.125000e-04
1.427844e-08,-1.046875e-03
1.431844e-08,-4.078125e-03
1.435844e-08,-6.562500e-03
1.439844e-08,-7.328125e-03
1.443844e-08,-6.515625e-03
1.447844e-08,-5.328125e-03
1.451844e-08,-4.906250e-03
1.455844e-08,-5.421875e-03
1.459844e-08,-6.125000e-03
1.463844e-08,-6.218750e-03
1.467844e-08,-5.656250e-03
1.471844e-08,-5.125000e-03
1.475844e-08,-5.312500e-03
1.479844e-08,-6.281250e-03
1.483844e-08,-7.265625e-03
1.487844e-08,-7.500000e-03
1.491844e-08,-6.859375e-03
1.495844e-08,-6.015625e-03
1.499844e-08,-5.890625e-03
1.503844e-08,-6.812500e-03
1.507844e-08,-8.250000e-03
1.511844e-08,-9.328125e-03
1.515844e-08,-9.468750e-03
1.519844e-08,-8.875000e-03
1.523844e-08,-8.218750e-03
1.527844e-08,-7.937500e-03
1.531844e-08,-7.890625e-03
1.535844e-08,-7.406250e-03
1.539844e-08,-6.109375e-03
1.543844e-08,-4.250000e-03
1.547844e-08,-2.828125e-03
1.551844e-08,-2.843750e-03
1.555844e-08,-4.671875e-03
1.559844e-08,-7.718750e-03
1.563844e-08,-1.071875e-02
1.567844e-08,-1.246875e-02
1.571844e-08,-1.242187e-02
1.575844e-08,-1.093750e-02
1.579844e-08,-9.093750e-03
1.583844e-08,-7.921875e-03
1.587844e-08,-7.984375e-03
1.591844e-08,-8.953125e-03
1.595844e-08,-9.953125e-03
1.599844e-08,-1.017187e-02
1.603844e-08,-9.421875e-03
1.607844e-08,-8.343750e-03
1.611844e-08,-7.890625e-03
1.615844e-08,-8.609375e-03
1.619844e-08,-1.015625e-02
1.623844e-08,-1.145312e-02
1.627844e-08,-1.148437e-02
1.631844e-08,-1.009375e-02
1.635844e-08,-8.062500e-03
1.639844e-08,-6.546875e-03
1.643844e-08,-6.218750e-03
1.647844e-08,-6.890625e-03
1.651844e-08,-7.781250e-03
1.655844e-08,-8.312500e-03
1.659844e-08,-8.562500e-03
1.663844e-08,-9.046875e-03
1.667844e-08,-1.004687e-02
1.671844e-08,-1.112500e-02
1.675844e-08,-1.143750e-02
1.679844e-08,-1.051563e-02
1.683844e-08,-8.734375e-03
1.687844e-08,-7.234375e-03
1.691844e-08,-7.015625e-03
1.695844e-08,-8.156250e-03
1.699844e-08,-9.765625e-03
1.703844e-08,-1.075000e-02
1.707844e-08,-1.070312e-02
1.711844e-08,-1.007812e-02
1.715844e-08,-9.640625e-03
1.719844e-08,-9.625000e-03
1.723844e-08,-9.421875e-03
1.727844e-08,-8.296875e-03
1.731844e-08,-6.171875e-03
1.735844e-08,-4.046875e-03
1.739844e-08,-3.296875e-03
1.743844e-08,-4.562500e-03
1.747844e-08,-7.156250e-03
1.751844e-08,-9.453125e-03
1.755844e-08,-1.007812e-02
1.759844e-08,-8.937500e-03
1.763844e-08,-7.093750e-03
1.767844e-08,-5.906250e-03
1.771844e-08,-5.812500e-03
1.775844e-08,-6.156250e-03
1.779844e-08,-5.859375e-03
1.783844e-08,-4.406250e-03
1.787844e-08,-2.421875e-03
1.791844e-08,-1.000000e-03
1.795844e-08,-9.062500e-04
1.799844e-08,-1.921875e-03
1.803844e-08,-3.078125e-03
1.807844e-08,-3.625000e-03
1.811844e-08,-3.578125e-03
1.815844e-08,-3.656250e-03
1.819844e-08,-4.500000e-03
1.823844e-08,-6.031250e-03
1.827844e-08,-7.453125e-03
1.831844e-08,-7.906250e-03
1.835844e-08,-7.203125e-03
1.839844e-08,-5.906250e-03
1.843844e-08,-4.921875e-03
1.847844e-08,-4.625000e-03
1.851844e-08,-4.734375e-03
1.855844e-08,-4.625000e-03
1.859844e-08,-4.000000e-03
1.863844e-08,-3.234375e-03
1.867844e-08,-3.000000e-03
1.871844e-08,-3.625000e-03
1.875844e-08,-4.765625e-03
1.879844e-08,-5.640625e-03
1.883844e-08,-5.781250e-03
1.887844e-08,-5.437500e-03
1.891844e-08,-5.328125e-03
1.895844e-08,-5.984375e-03
1.899844e-08,-7.062500e-03
1.903844e-08,-7.515625e-03
1.907844e-08,-6.359375e-03
1.911844e-08,-3.609375e-03
1.915844e-08,-5.156250e-04
1.919844e-08,1.125000e-03
1.923844e-08,2.187500e-04
1.927844e-08,-2.781250e-03
1.931844e-08,-6.140625e-03
1.935844e-08,-7.875000e-03
1.939844e-08,-7.078125e-03
1.943844e-08,-4.406250e-03
1.947844e-08,-1.578125e-03
1.951844e-08,-1.250000e-04
1.955844e-08,-4.218750e-04
1.959844e-08,-1.593750e-03
1.963844e-08,-2.312500e-03
1.967844e-08,-1.781250e-03
1.971844e-08,-2.656250e-04
1.975844e-08,1.296875e-03
1.979844e-08,1.968750e-03
1.983844e-08,1.437500e-03
1.987844e-08,9.375000e-05
1.991844e-08,-1.453125e-03
1.995844e-08,-2.781250e-03
1.999844e-08,-3.765625e-03
2.003844e-08,-4.312500e-03
2.007844e-08,-4.250000e-03
2.011844e-08,-3.359375e-03
2.015844e-08,-1.750000e-03
2.019844e-08,-7.812500e-05
2.023844e-08,6.718750e-04
2.027844e-08,-1.875000e-04
2.031844e-08,-2.437500e-03
2.035844e-08,-4.859375e-03
2.039844e-08,-5.875000e-03
2.043844e-08,-4.531250e-03
2.047844e-08,-1.156250e-03
2.051844e-08,2.765625e-03
2.055844e-08,5.484375e-03
2.059844e-08,5.937500e-03
2.063844e-08,4.296875e-03
2.067844e-08,1.656250e-03
2.071844e-08,-7.812500e-04
