Measurements-streak-laser/Photodiode-on-Tek-12bit-4GHz/Tek000_ch1_20190613133032865.csv

Model,MSO64
Waveform Type,ANALOG
Horizontal Units,s
Sample Interval,4.000000e-12
Record Length,1000
Zero Index,310.625000
Vertical Units,V

TIME,CH1
-1.242500e-09,7.156250e-03
-1.238500e-09,6.468750e-03
-1.234500e-09,7.796875e-03
-1.230500e-09,7.734375e-03
-1.226500e-09,7.656250e-03
-1.222500e-09,7.156250e-03
-1.218500e-09,7.671875e-03
-1.214500e-09,7.390625e-03
-1.210500e-09,7.484375e-03
-1.206500e-09,7.984375e-03
-1.202500e-09,8.281250e-03
-1.198500e-09,8.156250e-03
-1.194500e-09,7.812500e-03
-1.190500e-09,7.859375e-03
-1.186500e-09,8.312500e-03
-1.182500e-09,7.937500e-03
-1.178500e-09,8.562500e-03
-1.174500e-09,8.750000e-03
-1.170500e-09,8.953125e-03
-1.166500e-09,7.703125e-03
-1.162500e-09,8.468750e-03
-1.158500e-09,7.593750e-03
-1.154500e-09,8.734375e-03
-1.150500e-09,8.453125e-03
-1.146500e-09,8.156250e-03
-1.142500e-09,7.421875e-03
-1.138500e-09,7.703125e-03
-1.134500e-09,7.171875e-03
-1.130500e-09,7.015625e-03
-1.126500e-09,7.265625e-03
-1.122500e-09,7.296875e-03
-1.118500e-09,6.906250e-03
-1.114500e-09,6.328125e-03
-1.110500e-09,6.140625e-03
-1.106500e-09,6.359375e-03
-1.102500e-09,5.750000e-03
-1.098500e-09,6.156250e-03
-1.094500e-09,6.171875e-03
-1.090500e-09,6.171875e-03
-1.086500e-09,4.765625e-03
-1.082500e-09,5.390625e-03
-1.078500e-09,4.390625e-03
-1.074500e-09,5.437500e-03
-1.070500e-09,5.062500e-03
-1.066500e-09,4.703125e-03
-1.062500e-09,3.953125e-03
-1.058500e-09,4.218750e-03
-1.054500e-09,3.687500e-03
-1.050500e-09,3.578125e-03
-1.046500e-09,3.890625e-03
-1.042500e-09,4.000000e-03
-1.038500e-09,3.734375e-03
-1.034500e-09,3.281250e-03
-1.030500e-09,3.250000e-03
-1.026500e-09,3.640625e-03
-1.022500e-09,3.234375e-03
-1.018500e-09,3.843750e-03
-1.014500e-09,4.093750e-03
-1.010500e-09,4.343750e-03
-1.006500e-09,3.187500e-03
-1.002500e-09,4.078125e-03
-9.985000e-10,3.359375e-03
-9.945000e-10,4.671875e-03
-9.905000e-10,4.578125e-03
-9.865000e-10,4.500000e-03
-9.825000e-10,4.046875e-03
-9.785000e-10,4.593750e-03
-9.745000e-10,4.343750e-03
-9.705000e-10,4.500000e-03
-9.665000e-10,5.078125e-03
-9.625000e-10,5.453125e-03
-9.585000e-10,5.421875e-03
-9.545000e-10,5.187500e-03
-9.505000e-10,5.359375e-03
-9.465000e-10,5.937500e-03
-9.425000e-10,5.703125e-03
-9.385000e-10,6.468750e-03
-9.345000e-10,6.843750e-03
-9.305000e-10,7.187500e-03
-9.265000e-10,6.140625e-03
-9.225000e-10,7.078125e-03
-9.185000e-10,6.406250e-03
-9.145000e-10,7.687500e-03
-9.105000e-10,7.593750e-03
-9.065000e-10,7.500000e-03
-9.025000e-10,6.968750e-03
-8.985000e-10,7.437500e-03
-8.945000e-10,7.093750e-03
-8.905000e-10,7.140625e-03
-8.865000e-10,7.562500e-03
-8.825000e-10,7.781250e-03
-8.785000e-10,7.593750e-03
-8.745000e-10,7.171875e-03
-8.705000e-10,7.156250e-03
-8.665000e-10,7.515625e-03
-8.625000e-10,7.062500e-03
-8.585000e-10,7.609375e-03
-8.545000e-10,7.750000e-03
-8.505000e-10,7.875000e-03
-8.465000e-10,6.609375e-03
-8.425000e-10,7.328125e-03
-8.385000e-10,6.421875e-03
-8.345000e-10,7.468750e-03
-8.305000e-10,7.187500e-03
-8.265000e-10,6.890625e-03
-8.225000e-10,6.203125e-03
-8.185000e-10,6.500000e-03
-8.145000e-10,6.000000e-03
-8.105000e-10,5.937500e-03
-8.065000e-10,6.234375e-03
-8.025000e-10,6.359375e-03
-7.985000e-10,6.109375e-03
-7.945000e-10,5.640625e-03
-7.905000e-10,5.578125e-03
-7.865000e-10,5.921875e-03
-7.825000e-10,5.484375e-03
-7.785000e-10,6.062500e-03
-7.745000e-10,6.250000e-03
-7.705000e-10,6.437500e-03
-7.665000e-10,5.281250e-03
-7.625000e-10,6.109375e-03
-7.585000e-10,5.359375e-03
-7.545000e-10,6.500000e-03
-7.505000e-10,6.406250e-03
-7.465000e-10,6.296875e-03
-7.425000e-10,5.828125e-03
-7.385000e-10,6.296875e-03
-7.345000e-10,5.984375e-03
-7.305000e-10,6.156250e-03
-7.265000e-10,6.671875e-03
-7.225000e-10,6.984375e-03
-7.185000e-10,7.015625e-03
-7.145000e-10,6.750000e-03
-7.105000e-10,6.890625e-03
-7.065000e-10,7.437500e-03
-7.025000e-10,7.218750e-03
-6.985000e-10,7.968750e-03
-6.945000e-10,8.343750e-03
-6.905000e-10,8.703125e-03
-6.865000e-10,7.671875e-03
-6.825000e-10,8.656250e-03
-6.785000e-10,8.046875e-03
-6.745000e-10,9.250000e-03
-6.705000e-10,9.250000e-03
-6.665000e-10,9.218750e-03
-6.625000e-10,8.781250e-03
-6.585000e-10,9.265625e-03
-6.545000e-10,8.921875e-03
-6.505000e-10,9.078125e-03
-6.465000e-10,9.546875e-03
-6.425000e-10,9.765625e-03
-6.385000e-10,9.750000e-03
-6.345000e-10,9.359375e-03
-6.305000e-10,9.359375e-03
-6.265000e-10,9.750000e-03
-6.225000e-10,9.375000e-03
-6.185000e-10,9.937500e-03
-6.145000e-10,1.010938e-02
-6.105000e-10,1.023438e-02
-6.065000e-10,8.968750e-03
-6.025000e-10,9.718750e-03
-5.985000e-10,8.906250e-03
-5.945000e-10,9.875000e-03
-5.905000e-10,9.656250e-03
-5.865000e-10,9.359375e-03
-5.825000e-10,8.671875e-03
-5.785000e-10,8.906250e-03
-5.745000e-10,8.312500e-03
-5.705000e-10,8.234375e-03
-5.665000e-10,8.500000e-03
-5.625000e-10,8.484375e-03
-5.585000e-10,8.265625e-03
-5.545000e-10,7.687500e-03
-5.505000e-10,7.515625e-03
-5.465000e-10,7.765625e-03
-5.425000e-10,7.250000e-03
-5.385000e-10,7.718750e-03
-5.345000e-10,7.765625e-03
-5.305000e-10,7.796875e-03
-5.265000e-10,6.453125e-03
-5.225000e-10,7.125000e-03
-5.185000e-10,6.312500e-03
-5.145000e-10,7.265625e-03
-5.105000e-10,7.078125e-03
-5.065000e-10,6.796875e-03
-5.025000e-10,6.156250e-03
-4.985000e-10,6.437500e-03
-4.945000e-10,5.953125e-03
-4.905000e-10,5.937500e-03
-4.865000e-10,6.312500e-03
-4.825000e-10,6.390625e-03
-4.785000e-10,6.250000e-03
-4.745000e-10,5.828125e-03
-4.705000e-10,5.828125e-03
-4.665000e-10,6.250000e-03
-4.625000e-10,5.859375e-03
-4.585000e-10,6.484375e-03
-4.545000e-10,6.671875e-03
-4.505000e-10,6.859375e-03
-4.465000e-10,5.671875e-03
-4.425000e-10,6.453125e-03
-4.385000e-10,5.796875e-03
-4.345000e-10,6.890625e-03
-4.305000e-10,6.828125e-03
-4.265000e-10,6.625000e-03
-4.225000e-10,6.093750e-03
-4.185000e-10,6.468750e-03
-4.145000e-10,6.109375e-03
-4.105000e-10,6.109375e-03
-4.065000e-10,6.562500e-03
-4.025000e-10,6.687500e-03
-3.985000e-10,6.531250e-03
-3.945000e-10,6.125000e-03
-3.905000e-10,6.171875e-03
-3.865000e-10,6.578125e-03
-3.825000e-10,6.140625e-03
-3.785000e-10,6.734375e-03
-3.745000e-10,6.890625e-03
-3.705000e-10,7.031250e-03
-3.665000e-10,5.812500e-03
-3.625000e-10,6.468750e-03
-3.585000e-10,5.718750e-03
-3.545000e-10,6.750000e-03
-3.505000e-10,6.609375e-03
-3.465000e-10,6.296875e-03
-3.425000e-10,5.687500e-03
-3.385000e-10,6.000000e-03
-3.345000e-10,5.593750e-03
-3.305000e-10,5.468750e-03
-3.265000e-10,5.812500e-03
-3.225000e-10,5.890625e-03
-3.185000e-10,5.609375e-03
-3.145000e-10,5.187500e-03
-3.105000e-10,5.171875e-03
-3.065000e-10,5.562500e-03
-3.025000e-10,5.062500e-03
-2.985000e-10,5.625000e-03
-2.945000e-10,5.812500e-03
-2.905000e-10,5.937500e-03
-2.865000e-10,4.750000e-03
-2.825000e-10,5.421875e-03
-2.785000e-10,4.687500e-03
-2.745000e-10,5.765625e-03
-2.705000e-10,5.656250e-03
-2.665000e-10,5.421875e-03
-2.625000e-10,4.921875e-03
-2.585000e-10,5.312500e-03
-2.545000e-10,4.984375e-03
-2.505000e-10,4.953125e-03
-2.465000e-10,5.375000e-03
-2.425000e-10,5.562500e-03
-2.385000e-10,5.375000e-03
-2.345000e-10,5.093750e-03
-2.305000e-10,5.171875e-03
-2.265000e-10,5.625000e-03
-2.225000e-10,5.265625e-03
-2.185000e-10,5.906250e-03
-2.145000e-10,6.187500e-03
-2.105000e-10,6.406250e-03
-2.065000e-10,5.343750e-03
-2.025000e-10,6.093750e-03
-1.985000e-10,5.390625e-03
-1.945000e-10,6.578125e-03
-1.905000e-10,6.468750e-03
-1.865000e-10,6.312500e-03
-1.825000e-10,5.875000e-03
-1.785000e-10,6.312500e-03
-1.745000e-10,6.000000e-03
-1.705000e-10,6.031250e-03
-1.665000e-10,6.468750e-03
-1.625000e-10,6.671875e-03
-1.585000e-10,6.531250e-03
-1.545000e-10,6.296875e-03
-1.505000e-10,6.390625e-03
-1.465000e-10,6.843750e-03
-1.425000e-10,6.562500e-03
-1.385000e-10,7.281250e-03
-1.345000e-10,7.640625e-03
-1.305000e-10,7.984375e-03
-1.265000e-10,7.078125e-03
-1.225000e-10,8.000000e-03
-1.185000e-10,7.468750e-03
-1.145000e-10,8.921875e-03
-1.105000e-10,9.046875e-03
-1.065000e-10,9.218750e-03
-1.025000e-10,9.140625e-03
-9.850000e-11,1.000000e-02
-9.450000e-11,1.015625e-02
-9.050000e-11,1.073438e-02
-8.650000e-11,1.175000e-02
-8.250000e-11,1.264063e-02
-7.850000e-11,1.320313e-02
-7.450000e-11,1.376563e-02
-7.050000e-11,1.470313e-02
-6.650000e-11,1.604688e-02
-6.250000e-11,1.678125e-02
-5.850000e-11,1.857813e-02
-5.450000e-11,2.007813e-02
-5.050000e-11,2.168750e-02
-4.650000e-11,2.212500e-02
-4.250000e-11,2.442188e-02
-3.850000e-11,2.532813e-02
-3.450000e-11,2.832813e-02
-3.050000e-11,3.000000e-02
-2.650000e-11,3.185938e-02
-2.250000e-11,3.350000e-02
-1.850000e-11,3.614063e-02
-1.450000e-11,3.812500e-02
-1.050000e-11,4.057813e-02
-6.500000e-12,4.351563e-02
-2.500000e-12,4.642188e-02
1.500000e-12,4.893750e-02
5.500000e-12,5.151563e-02
9.500000e-12,5.448438e-02
1.350000e-11,5.784375e-02
1.750000e-11,6.062500e-02
2.150000e-11,6.446875e-02
2.550000e-11,6.795313e-02
2.950000e-11,7.160938e-02
3.350000e-11,7.400000e-02
3.750000e-11,7.825000e-02
4.150000e-11,8.101563e-02
4.550000e-11,8.582813e-02
4.950000e-11,8.923438e-02
5.350000e-11,9.281250e-02
5.750000e-11,9.601563e-02
6.150000e-11,1.001406e-01
6.550000e-11,1.035469e-01
6.950000e-11,1.072813e-01
7.350000e-11,1.114219e-01
7.750000e-11,1.154375e-01
8.150000e-11,1.188750e-01
8.550000e-11,1.222500e-01
8.950000e-11,1.258906e-01
9.350000e-11,1.297813e-01
9.750000e-11,1.329844e-01
1.015000e-10,1.370469e-01
1.055000e-10,1.405938e-01
1.095000e-10,1.442188e-01
1.135000e-10,1.463594e-01
1.175000e-10,1.502500e-01
1.215000e-10,1.524844e-01
1.255000e-10,1.565938e-01
1.295000e-10,1.591094e-01
1.335000e-10,1.617031e-01
1.375000e-10,1.637344e-01
1.415000e-10,1.665000e-01
1.455000e-10,1.684688e-01
1.495000e-10,1.706094e-01
1.535000e-10,1.730000e-01
1.575000e-10,1.751719e-01
1.615000e-10,1.765625e-01
1.655000e-10,1.777969e-01
1.695000e-10,1.792031e-01
1.735000e-10,1.807500e-01
1.775000e-10,1.815156e-01
1.815000e-10,1.830156e-01
1.855000e-10,1.838906e-01
1.895000e-10,1.847969e-01
1.935000e-10,1.841250e-01
1.975000e-10,1.851719e-01
2.015000e-10,1.845313e-01
2.055000e-10,1.856406e-01
2.095000e-10,1.851406e-01
2.135000e-10,1.847031e-01
2.175000e-10,1.836563e-01
2.215000e-10,1.833438e-01
2.255000e-10,1.822656e-01
2.295000e-10,1.813438e-01
2.335000e-10,1.806406e-01
2.375000e-10,1.797813e-01
2.415000e-10,1.781406e-01
2.455000e-10,1.763594e-01
2.495000e-10,1.748125e-01
2.535000e-10,1.734688e-01
2.575000e-10,1.713594e-01
2.615000e-10,1.700313e-01
2.655000e-10,1.681563e-01
2.695000e-10,1.663750e-01
2.735000e-10,1.630469e-01
2.775000e-10,1.615938e-01
2.815000e-10,1.585000e-01
2.855000e-10,1.572031e-01
2.895000e-10,1.544219e-01
2.935000e-10,1.517500e-01
2.975000e-10,1.485625e-01
3.015000e-10,1.462500e-01
3.055000e-10,1.432656e-01
3.095000e-10,1.405313e-01
3.135000e-10,1.380781e-01
3.175000e-10,1.355625e-01
3.215000e-10,1.324219e-01
3.255000e-10,1.291875e-01
3.295000e-10,1.263125e-01
3.335000e-10,1.237500e-01
3.375000e-10,1.205000e-01
3.415000e-10,1.181250e-01
3.455000e-10,1.153281e-01
3.495000e-10,1.127188e-01
3.535000e-10,1.086406e-01
3.575000e-10,1.065625e-01
3.615000e-10,1.029531e-01
3.655000e-10,1.011875e-01
3.695000e-10,9.807813e-02
3.735000e-10,9.514063e-02
3.775000e-10,9.178125e-02
3.815000e-10,8.940625e-02
3.855000e-10,8.643750e-02
3.895000e-10,8.381250e-02
3.935000e-10,8.150000e-02
3.975000e-10,7.921875e-02
4.015000e-10,7.646875e-02
4.055000e-10,7.365625e-02
4.095000e-10,7.125000e-02
4.135000e-10,6.928125e-02
4.175000e-10,6.660938e-02
4.215000e-10,6.490625e-02
4.255000e-10,6.289063e-02
4.295000e-10,6.107813e-02
4.335000e-10,5.785938e-02
4.375000e-10,5.671875e-02
4.415000e-10,5.410938e-02
4.455000e-10,5.335938e-02
4.495000e-10,5.135938e-02
4.535000e-10,4.950000e-02
4.575000e-10,4.729688e-02
4.615000e-10,4.612500e-02
4.655000e-10,4.434375e-02
4.695000e-10,4.295313e-02
4.735000e-10,4.190625e-02
4.775000e-10,4.087500e-02
4.815000e-10,3.945313e-02
4.855000e-10,3.795313e-02
4.895000e-10,3.685938e-02
4.935000e-10,3.620313e-02
4.975000e-10,3.485938e-02
5.015000e-10,3.443750e-02
5.055000e-10,3.375000e-02
5.095000e-10,3.318750e-02
5.135000e-10,3.125000e-02
5.175000e-10,3.134375e-02
5.215000e-10,2.996875e-02
5.255000e-10,3.042188e-02
5.295000e-10,2.962500e-02
5.335000e-10,2.887500e-02
5.375000e-10,2.778125e-02
5.415000e-10,2.767188e-02
5.455000e-10,2.685938e-02
5.495000e-10,2.642188e-02
5.535000e-10,2.629688e-02
5.575000e-10,2.612500e-02
5.615000e-10,2.556250e-02
5.655000e-10,2.481250e-02
5.695000e-10,2.446875e-02
5.735000e-10,2.446875e-02
5.775000e-10,2.373438e-02
5.815000e-10,2.385938e-02
5.855000e-10,2.368750e-02
5.895000e-10,2.353125e-02
5.935000e-10,2.201563e-02
5.975000e-10,2.242188e-02
6.015000e-10,2.134375e-02
6.055000e-10,2.206250e-02
6.095000e-10,2.150000e-02
6.135000e-10,2.085938e-02
6.175000e-10,1.985938e-02
6.215000e-10,1.984375e-02
6.255000e-10,1.901563e-02
6.295000e-10,1.854688e-02
6.335000e-10,1.839063e-02
6.375000e-10,1.815625e-02
6.415000e-10,1.751563e-02
6.455000e-10,1.664063e-02
6.495000e-10,1.618750e-02
6.535000e-10,1.603125e-02
6.575000e-10,1.512500e-02
6.615000e-10,1.510938e-02
6.655000e-10,1.481250e-02
6.695000e-10,1.443750e-02
6.735000e-10,1.278125e-02
6.775000e-10,1.300000e-02
6.815000e-10,1.179688e-02
6.855000e-10,1.242188e-02
6.895000e-10,1.173438e-02
6.935000e-10,1.101563e-02
6.975000e-10,9.937500e-03
7.015000e-10,9.906250e-03
7.055000e-10,9.031250e-03
7.095000e-10,8.546875e-03
7.135000e-10,8.453125e-03
7.175000e-10,8.296875e-03
7.215000e-10,7.765625e-03
7.255000e-10,7.000000e-03
7.295000e-10,6.734375e-03
7.335000e-10,6.765625e-03
7.375000e-10,6.109375e-03
7.415000e-10,6.390625e-03
7.455000e-10,6.421875e-03
7.495000e-10,6.328125e-03
7.535000e-10,5.062500e-03
7.575000e-10,5.625000e-03
7.615000e-10,4.828125e-03
7.655000e-10,5.906250e-03
7.695000e-10,5.687500e-03
7.735000e-10,5.468750e-03
7.775000e-10,4.859375e-03
7.815000e-10,5.312500e-03
7.855000e-10,4.953125e-03
7.895000e-10,4.968750e-03
7.935000e-10,5.453125e-03
7.975000e-10,5.765625e-03
8.015000e-10,5.781250e-03
8.055000e-10,5.515625e-03
8.095000e-10,5.718750e-03
8.135000e-10,6.265625e-03
8.175000e-10,6.093750e-03
8.215000e-10,6.859375e-03
8.255000e-10,7.312500e-03
8.295000e-10,7.625000e-03
8.335000e-10,6.765625e-03
8.375000e-10,7.671875e-03
8.415000e-10,7.171875e-03
8.455000e-10,8.593750e-03
8.495000e-10,8.640625e-03
8.535000e-10,8.671875e-03
8.575000e-10,8.265625e-03
8.615000e-10,8.859375e-03
8.655000e-10,8.625000e-03
8.695000e-10,8.781250e-03
8.735000e-10,9.328125e-03
8.775000e-10,9.609375e-03
8.815000e-10,9.625000e-03
8.855000e-10,9.312500e-03
8.895000e-10,9.390625e-03
8.935000e-10,9.875000e-03
8.975000e-10,9.578125e-03
9.015000e-10,1.018750e-02
9.055000e-10,1.042188e-02
9.095000e-10,1.051563e-02
9.135000e-10,9.437500e-03
9.175000e-10,1.007813e-02
9.215000e-10,9.265625e-03
9.255000e-10,1.040625e-02
9.295000e-10,1.017188e-02
9.335000e-10,9.875000e-03
9.375000e-10,9.171875e-03
9.415000e-10,9.421875e-03
9.455000e-10,8.890625e-03
9.495000e-10,8.750000e-03
9.535000e-10,9.015625e-03
9.575000e-10,8.937500e-03
9.615000e-10,8.656250e-03
9.655000e-10,8.078125e-03
9.695000e-10,7.859375e-03
9.735000e-10,8.125000e-03
9.775000e-10,7.593750e-03
9.815000e-10,7.984375e-03
9.855000e-10,8.000000e-03
9.895000e-10,7.937500e-03
9.935000e-10,6.734375e-03
9.975000e-10,7.281250e-03
1.001500e-09,6.343750e-03
1.005500e-09,7.421875e-03
1.009500e-09,7.125000e-03
1.013500e-09,6.812500e-03
1.017500e-09,6.125000e-03
1.021500e-09,6.406250e-03
1.025500e-09,5.953125e-03
1.029500e-09,5.906250e-03
1.033500e-09,6.281250e-03
1.037500e-09,6.328125e-03
1.041500e-09,6.156250e-03
1.045500e-09,5.765625e-03
1.049500e-09,5.718750e-03
1.053500e-09,6.187500e-03
1.057500e-09,5.875000e-03
1.061500e-09,6.468750e-03
1.065500e-09,6.718750e-03
1.069500e-09,6.921875e-03
1.073500e-09,5.968750e-03
1.077500e-09,6.812500e-03
1.081500e-09,6.109375e-03
1.085500e-09,7.421875e-03
1.089500e-09,7.375000e-03
1.093500e-09,7.296875e-03
1.097500e-09,6.859375e-03
1.101500e-09,7.390625e-03
1.105500e-09,7.156250e-03
1.109500e-09,7.312500e-03
1.113500e-09,7.890625e-03
1.117500e-09,8.156250e-03
1.121500e-09,8.156250e-03
1.125500e-09,7.921875e-03
1.129500e-09,8.015625e-03
1.133500e-09,8.593750e-03
1.137500e-09,8.375000e-03
1.141500e-09,9.062500e-03
1.145500e-09,9.390625e-03
1.149500e-09,9.656250e-03
1.153500e-09,8.718750e-03
1.157500e-09,9.609375e-03
1.161500e-09,8.906250e-03
1.165500e-09,1.018750e-02
1.169500e-09,1.007813e-02
1.173500e-09,9.968750e-03
1.177500e-09,9.437500e-03
1.181500e-09,9.890625e-03
1.185500e-09,9.546875e-03
1.189500e-09,9.593750e-03
1.193500e-09,1.004688e-02
1.197500e-09,1.020313e-02
1.201500e-09,1.003125e-02
1.205500e-09,9.640625e-03
1.209500e-09,9.593750e-03
1.213500e-09,1.000000e-02
1.217500e-09,9.593750e-03
1.221500e-09,1.012500e-02
1.225500e-09,1.028125e-02
1.229500e-09,1.039063e-02
1.233500e-09,9.234375e-03
1.237500e-09,9.968750e-03
1.241500e-09,9.093750e-03
1.245500e-09,1.020313e-02
1.249500e-09,9.921875e-03
1.253500e-09,9.640625e-03
1.257500e-09,8.953125e-03
1.261500e-09,9.250000e-03
1.265500e-09,8.765625e-03
1.269500e-09,8.671875e-03
1.273500e-09,8.984375e-03
1.277500e-09,9.046875e-03
1.281500e-09,8.750000e-03
1.285500e-09,8.250000e-03
1.289500e-09,8.125000e-03
1.293500e-09,8.421875e-03
1.297500e-09,7.921875e-03
1.301500e-09,8.406250e-03
1.305500e-09,8.500000e-03
1.309500e-09,8.562500e-03
1.313500e-09,7.312500e-03
1.317500e-09,8.000000e-03
1.321500e-09,7.093750e-03
1.325500e-09,8.187500e-03
1.329500e-09,7.875000e-03
1.333500e-09,7.578125e-03
1.337500e-09,6.875000e-03
1.341500e-09,7.171875e-03
1.345500e-09,6.671875e-03
1.349500e-09,6.578125e-03
1.353500e-09,6.875000e-03
1.357500e-09,6.968750e-03
1.361500e-09,6.671875e-03
1.365500e-09,6.187500e-03
1.369500e-09,6.078125e-03
1.373500e-09,6.406250e-03
1.377500e-09,5.906250e-03
1.381500e-09,6.421875e-03
1.385500e-09,6.531250e-03
1.389500e-09,6.656250e-03
1.393500e-09,5.406250e-03
1.397500e-09,6.125000e-03
1.401500e-09,5.250000e-03
1.405500e-09,6.390625e-03
1.409500e-09,6.125000e-03
1.413500e-09,5.859375e-03
1.417500e-09,5.187500e-03
1.421500e-09,5.546875e-03
1.425500e-09,5.109375e-03
1.429500e-09,5.062500e-03
1.433500e-09,5.437500e-03
1.437500e-09,5.593750e-03
1.441500e-09,5.375000e-03
1.445500e-09,4.968750e-03
1.449500e-09,4.953125e-03
1.453500e-09,5.343750e-03
1.457500e-09,4.953125e-03
1.461500e-09,5.562500e-03
1.465500e-09,5.781250e-03
1.469500e-09,6.015625e-03
1.473500e-09,4.843750e-03
1.477500e-09,5.703125e-03
1.481500e-09,4.953125e-03
1.485500e-09,6.203125e-03
1.489500e-09,6.062500e-03
1.493500e-09,5.937500e-03
1.497500e-09,5.421875e-03
1.501500e-09,5.906250e-03
1.505500e-09,5.593750e-03
1.509500e-09,5.703125e-03
1.513500e-09,6.203125e-03
1.517500e-09,6.515625e-03
1.521500e-09,6.421875e-03
1.525500e-09,6.140625e-03
1.529500e-09,6.250000e-03
1.533500e-09,6.781250e-03
1.537500e-09,6.500000e-03
1.541500e-09,7.218750e-03
1.545500e-09,7.546875e-03
1.549500e-09,7.875000e-03
1.553500e-09,6.796875e-03
1.557500e-09,7.718750e-03
1.561500e-09,7.031250e-03
1.565500e-09,8.343750e-03
1.569500e-09,8.250000e-03
1.573500e-09,8.140625e-03
1.577500e-09,7.640625e-03
1.581500e-09,8.125000e-03
1.585500e-09,7.796875e-03
1.589500e-09,7.859375e-03
1.593500e-09,8.312500e-03
1.597500e-09,8.562500e-03
1.601500e-09,8.406250e-03
1.605500e-09,8.031250e-03
1.609500e-09,8.031250e-03
1.613500e-09,8.437500e-03
1.617500e-09,8.031250e-03
1.621500e-09,8.609375e-03
1.625500e-09,8.765625e-03
1.629500e-09,8.921875e-03
1.633500e-09,7.656250e-03
1.637500e-09,8.390625e-03
1.641500e-09,7.500000e-03
1.645500e-09,8.609375e-03
1.649500e-09,8.296875e-03
1.653500e-09,7.984375e-03
1.657500e-09,7.250000e-03
1.661500e-09,7.515625e-03
1.665500e-09,6.953125e-03
1.669500e-09,6.812500e-03
1.673500e-09,7.062500e-03
1.677500e-09,7.093750e-03
1.681500e-09,6.734375e-03
1.685500e-09,6.156250e-03
1.689500e-09,5.984375e-03
1.693500e-09,6.218750e-03
1.697500e-09,5.640625e-03
1.701500e-09,6.078125e-03
1.705500e-09,6.109375e-03
1.709500e-09,6.140625e-03
1.713500e-09,4.781250e-03
1.717500e-09,5.437500e-03
1.721500e-09,4.484375e-03
1.725500e-09,5.562500e-03
1.729500e-09,5.250000e-03
1.733500e-09,4.937500e-03
1.737500e-09,4.234375e-03
1.741500e-09,4.546875e-03
1.745500e-09,4.078125e-03
1.749500e-09,4.015625e-03
1.753500e-09,4.375000e-03
1.757500e-09,4.546875e-03
