Measurements-streak-laser/Photodiode-on-Tek-12bit-4GHz/Tek000_ch1_20190613132936602.csv

Model,MSO64
Waveform Type,ANALOG
Horizontal Units,s
Sample Interval,4.000000e-12
Record Length,1000
Zero Index,310.281250
Vertical Units,V

TIME,CH1
-1.241125e-09,6.593750e-03
-1.237125e-09,7.015625e-03
-1.233125e-09,7.218750e-03
-1.229125e-09,7.031250e-03
-1.225125e-09,6.625000e-03
-1.221125e-09,6.640625e-03
-1.217125e-09,7.062500e-03
-1.213125e-09,6.671875e-03
-1.209125e-09,7.296875e-03
-1.205125e-09,7.531250e-03
-1.201125e-09,7.765625e-03
-1.197125e-09,6.578125e-03
-1.193125e-09,7.421875e-03
-1.189125e-09,6.640625e-03
-1.185125e-09,7.906250e-03
-1.181125e-09,7.734375e-03
-1.177125e-09,7.578125e-03
-1.173125e-09,7.015625e-03
-1.169125e-09,7.468750e-03
-1.165125e-09,7.125000e-03
-1.161125e-09,7.171875e-03
-1.157125e-09,7.625000e-03
-1.153125e-09,7.890625e-03
-1.149125e-09,7.734375e-03
-1.145125e-09,7.375000e-03
-1.141125e-09,7.437500e-03
-1.137125e-09,7.890625e-03
-1.133125e-09,7.531250e-03
-1.129125e-09,8.187500e-03
-1.125125e-09,8.421875e-03
-1.121125e-09,8.671875e-03
-1.117125e-09,7.484375e-03
-1.113125e-09,8.328125e-03
-1.109125e-09,7.546875e-03
-1.105125e-09,8.781250e-03
-1.101125e-09,8.593750e-03
-1.097125e-09,8.406250e-03
-1.093125e-09,7.796875e-03
-1.089125e-09,8.203125e-03
-1.085125e-09,7.781250e-03
-1.081125e-09,7.781250e-03
-1.077125e-09,8.156250e-03
-1.073125e-09,8.328125e-03
-1.069125e-09,8.078125e-03
-1.065125e-09,7.625000e-03
-1.061125e-09,7.562500e-03
-1.057125e-09,7.921875e-03
-1.053125e-09,7.437500e-03
-1.049125e-09,7.968750e-03
-1.045125e-09,8.078125e-03
-1.041125e-09,8.187500e-03
-1.037125e-09,6.875000e-03
-1.033125e-09,7.578125e-03
-1.029125e-09,6.640625e-03
-1.025125e-09,7.734375e-03
-1.021125e-09,7.406250e-03
-1.017125e-09,7.062500e-03
-1.013125e-09,6.312500e-03
-1.009125e-09,6.578125e-03
-1.005125e-09,6.031250e-03
-1.001125e-09,5.875000e-03
-9.971250e-10,6.125000e-03
-9.931250e-10,6.156250e-03
-9.891250e-10,5.796875e-03
-9.851250e-10,5.218750e-03
-9.811250e-10,5.046875e-03
-9.771250e-10,5.296875e-03
-9.731250e-10,4.718750e-03
-9.691250e-10,5.171875e-03
-9.651250e-10,5.203125e-03
-9.611250e-10,5.250000e-03
-9.571250e-10,3.875000e-03
-9.531250e-10,4.531250e-03
-9.491250e-10,3.562500e-03
-9.451250e-10,4.609375e-03
-9.411250e-10,4.265625e-03
-9.371250e-10,3.937500e-03
-9.331250e-10,3.203125e-03
-9.291250e-10,3.484375e-03
-9.251250e-10,2.968750e-03
-9.211250e-10,2.875000e-03
-9.171250e-10,3.187500e-03
-9.131250e-10,3.312500e-03
-9.091250e-10,3.031250e-03
-9.051250e-10,2.562500e-03
-9.011250e-10,2.515625e-03
-8.971250e-10,2.890625e-03
-8.931250e-10,2.453125e-03
-8.891250e-10,3.046875e-03
-8.851250e-10,3.234375e-03
-8.811250e-10,3.453125e-03
-8.771250e-10,2.281250e-03
-8.731250e-10,3.125000e-03
-8.691250e-10,2.375000e-03
-8.651250e-10,3.578125e-03
-8.611250e-10,3.468750e-03
-8.571250e-10,3.343750e-03
-8.531250e-10,2.859375e-03
-8.491250e-10,3.359375e-03
-8.451250e-10,3.078125e-03
-8.411250e-10,3.218750e-03
-8.371250e-10,3.765625e-03
-8.331250e-10,4.109375e-03
-8.291250e-10,4.093750e-03
-8.251250e-10,3.843750e-03
-8.211250e-10,4.015625e-03
-8.171250e-10,4.593750e-03
-8.131250e-10,4.375000e-03
-8.091250e-10,5.171875e-03
-8.051250e-10,5.562500e-03
-8.011250e-10,5.968750e-03
-7.971250e-10,5.000000e-03
-7.931250e-10,6.015625e-03
-7.891250e-10,5.406250e-03
-7.851250e-10,6.687500e-03
-7.811250e-10,6.734375e-03
-7.771250e-10,6.734375e-03
-7.731250e-10,6.359375e-03
-7.691250e-10,6.937500e-03
-7.651250e-10,6.687500e-03
-7.611250e-10,6.906250e-03
-7.571250e-10,7.453125e-03
-7.531250e-10,7.796875e-03
-7.491250e-10,7.812500e-03
-7.451250e-10,7.515625e-03
-7.411250e-10,7.625000e-03
-7.371250e-10,8.125000e-03
-7.331250e-10,7.812500e-03
-7.291250e-10,8.484375e-03
-7.251250e-10,8.765625e-03
-7.211250e-10,9.000000e-03
-7.171250e-10,7.859375e-03
-7.131250e-10,8.703125e-03
-7.091250e-10,7.921875e-03
-7.051250e-10,8.968750e-03
-7.011250e-10,8.812500e-03
-6.971250e-10,8.593750e-03
-6.931250e-10,7.984375e-03
-6.891250e-10,8.281250e-03
-6.851250e-10,7.734375e-03
-6.811250e-10,7.718750e-03
-6.771250e-10,7.984375e-03
-6.731250e-10,8.031250e-03
-6.691250e-10,7.828125e-03
-6.651250e-10,7.250000e-03
-6.611250e-10,7.078125e-03
-6.571250e-10,7.281250e-03
-6.531250e-10,6.750000e-03
-6.491250e-10,7.156250e-03
-6.451250e-10,7.187500e-03
-6.411250e-10,7.187500e-03
-6.371250e-10,5.796875e-03
-6.331250e-10,6.437500e-03
-6.291250e-10,5.515625e-03
-6.251250e-10,6.375000e-03
-6.211250e-10,6.078125e-03
-6.171250e-10,5.734375e-03
-6.131250e-10,5.015625e-03
-6.091250e-10,5.218750e-03
-6.051250e-10,4.593750e-03
-6.011250e-10,4.531250e-03
-5.971250e-10,4.812500e-03
-5.931250e-10,4.828125e-03
-5.891250e-10,4.671875e-03
-5.851250e-10,4.156250e-03
-5.811250e-10,4.062500e-03
-5.771250e-10,4.390625e-03
-5.731250e-10,3.984375e-03
-5.691250e-10,4.546875e-03
-5.651250e-10,4.734375e-03
-5.611250e-10,4.906250e-03
-5.571250e-10,3.718750e-03
-5.531250e-10,4.546875e-03
-5.491250e-10,3.921875e-03
-5.451250e-10,5.031250e-03
-5.411250e-10,5.031250e-03
-5.371250e-10,4.937500e-03
-5.331250e-10,4.500000e-03
-5.291250e-10,4.968750e-03
-5.251250e-10,4.656250e-03
-5.211250e-10,4.859375e-03
-5.171250e-10,5.437500e-03
-5.131250e-10,5.718750e-03
-5.091250e-10,5.812500e-03
-5.051250e-10,5.562500e-03
-5.011250e-10,5.734375e-03
-4.971250e-10,6.328125e-03
-4.931250e-10,6.125000e-03
-4.891250e-10,6.921875e-03
-4.851250e-10,7.265625e-03
-4.811250e-10,7.593750e-03
-4.771250e-10,6.531250e-03
-4.731250e-10,7.453125e-03
-4.691250e-10,6.906250e-03
-4.651250e-10,8.093750e-03
-4.611250e-10,8.140625e-03
-4.571250e-10,8.015625e-03
-4.531250e-10,7.531250e-03
-4.491250e-10,7.953125e-03
-4.451250e-10,7.609375e-03
-4.411250e-10,7.640625e-03
-4.371250e-10,8.078125e-03
-4.331250e-10,8.187500e-03
-4.291250e-10,8.015625e-03
-4.251250e-10,7.562500e-03
-4.211250e-10,7.546875e-03
-4.171250e-10,7.890625e-03
-4.131250e-10,7.343750e-03
-4.091250e-10,7.859375e-03
-4.051250e-10,7.906250e-03
-4.011250e-10,7.906250e-03
-3.971250e-10,6.531250e-03
-3.931250e-10,7.062500e-03
-3.891250e-10,6.187500e-03
-3.851250e-10,7.031250e-03
-3.811250e-10,6.750000e-03
-3.771250e-10,6.265625e-03
-3.731250e-10,5.468750e-03
-3.691250e-10,5.593750e-03
-3.651250e-10,5.000000e-03
-3.611250e-10,4.718750e-03
-3.571250e-10,4.906250e-03
-3.531250e-10,4.781250e-03
-3.491250e-10,4.359375e-03
-3.451250e-10,3.765625e-03
-3.411250e-10,3.609375e-03
-3.371250e-10,3.843750e-03
-3.331250e-10,3.218750e-03
-3.291250e-10,3.656250e-03
-3.251250e-10,3.718750e-03
-3.211250e-10,3.734375e-03
-3.171250e-10,2.453125e-03
-3.131250e-10,3.031250e-03
-3.091250e-10,2.265625e-03
-3.051250e-10,3.281250e-03
-3.011250e-10,3.156250e-03
-2.971250e-10,2.906250e-03
-2.931250e-10,2.406250e-03
-2.891250e-10,2.796875e-03
-2.851250e-10,2.515625e-03
-2.811250e-10,2.531250e-03
-2.771250e-10,3.031250e-03
-2.731250e-10,3.265625e-03
-2.691250e-10,3.171875e-03
-2.651250e-10,2.984375e-03
-2.611250e-10,3.187500e-03
-2.571250e-10,3.781250e-03
-2.531250e-10,3.531250e-03
-2.491250e-10,4.296875e-03
-2.451250e-10,4.734375e-03
-2.411250e-10,5.078125e-03
-2.371250e-10,4.156250e-03
-2.331250e-10,5.031250e-03
-2.291250e-10,4.484375e-03
-2.251250e-10,5.765625e-03
-2.211250e-10,5.812500e-03
-2.171250e-10,5.750000e-03
-2.131250e-10,5.421875e-03
-2.091250e-10,5.937500e-03
-2.051250e-10,5.703125e-03
-2.011250e-10,5.765625e-03
-1.971250e-10,6.218750e-03
-1.931250e-10,6.421875e-03
-1.891250e-10,6.250000e-03
-1.851250e-10,5.968750e-03
-1.811250e-10,5.984375e-03
-1.771250e-10,6.343750e-03
-1.731250e-10,5.906250e-03
-1.691250e-10,6.421875e-03
-1.651250e-10,6.562500e-03
-1.611250e-10,6.640625e-03
-1.571250e-10,5.437500e-03
-1.531250e-10,6.015625e-03
-1.491250e-10,5.125000e-03
-1.451250e-10,6.140625e-03
-1.411250e-10,5.843750e-03
-1.371250e-10,5.515625e-03
-1.331250e-10,4.937500e-03
-1.291250e-10,5.234375e-03
-1.251250e-10,4.781250e-03
-1.211250e-10,4.734375e-03
-1.171250e-10,5.093750e-03
-1.131250e-10,5.281250e-03
-1.091250e-10,5.125000e-03
-1.051250e-10,4.968750e-03
-1.011250e-10,5.156250e-03
-9.712500e-11,5.734375e-03
-9.312500e-11,5.687500e-03
-8.912500e-11,6.671875e-03
-8.512500e-11,7.375000e-03
-8.112500e-11,8.171875e-03
-7.712500e-11,7.796875e-03
-7.312500e-11,9.281250e-03
-6.912500e-11,9.390625e-03
-6.512500e-11,1.160938e-02
-6.112500e-11,1.253125e-02
-5.712500e-11,1.364063e-02
-5.312500e-11,1.459375e-02
-4.912500e-11,1.654688e-02
-4.512500e-11,1.789063e-02
-4.112500e-11,1.975000e-02
-3.712500e-11,2.210938e-02
-3.312500e-11,2.448438e-02
-2.912500e-11,2.654688e-02
-2.512500e-11,2.871875e-02
-2.112500e-11,3.134375e-02
-1.712500e-11,3.440625e-02
-1.312500e-11,3.695313e-02
-9.125000e-12,4.060938e-02
-5.125000e-12,4.401563e-02
-1.125000e-12,4.764063e-02
2.875000e-12,5.009375e-02
6.875000e-12,5.443750e-02
1.087500e-11,5.739063e-02
1.487500e-11,6.246875e-02
1.887500e-11,6.620313e-02
2.287500e-11,7.018750e-02
2.687500e-11,7.390625e-02
3.087500e-11,7.857813e-02
3.487500e-11,8.260938e-02
3.887500e-11,8.704688e-02
4.287500e-11,9.193750e-02
4.687500e-11,9.676563e-02
5.087500e-11,1.010938e-01
5.487500e-11,1.054375e-01
5.887500e-11,1.100781e-01
6.287500e-11,1.150000e-01
6.687500e-11,1.193125e-01
7.087500e-11,1.245313e-01
7.487500e-11,1.292969e-01
7.887500e-11,1.341563e-01
8.287500e-11,1.375938e-01
8.687500e-11,1.427500e-01
9.087500e-11,1.462969e-01
9.487500e-11,1.517656e-01
9.887500e-11,1.556406e-01
1.028750e-10,1.596250e-01
1.068750e-10,1.630625e-01
1.108750e-10,1.672188e-01
1.148750e-10,1.705781e-01
1.188750e-10,1.741094e-01
1.228750e-10,1.778750e-01
1.268750e-10,1.814375e-01
1.308750e-10,1.841719e-01
1.348750e-10,1.867656e-01
1.388750e-10,1.894844e-01
1.428750e-10,1.923125e-01
1.468750e-10,1.943438e-01
1.508750e-10,1.970938e-01
1.548750e-10,1.991875e-01
1.588750e-10,2.012813e-01
1.628750e-10,2.017656e-01
1.668750e-10,2.039063e-01
1.708750e-10,2.043125e-01
1.748750e-10,2.064688e-01
1.788750e-10,2.069531e-01
1.828750e-10,2.074688e-01
1.868750e-10,2.073438e-01
1.908750e-10,2.079063e-01
1.948750e-10,2.076406e-01
1.988750e-10,2.075000e-01
2.028750e-10,2.075469e-01
2.068750e-10,2.074219e-01
2.108750e-10,2.064375e-01
2.148750e-10,2.052813e-01
2.188750e-10,2.043438e-01
2.228750e-10,2.035313e-01
2.268750e-10,2.019688e-01
2.308750e-10,2.011250e-01
2.348750e-10,1.996875e-01
2.388750e-10,1.983594e-01
2.428750e-10,1.954531e-01
2.468750e-10,1.943438e-01
2.508750e-10,1.915781e-01
2.548750e-10,1.905938e-01
2.588750e-10,1.880781e-01
2.628750e-10,1.856719e-01
2.668750e-10,1.827500e-01
2.708750e-10,1.806250e-01
2.748750e-10,1.778281e-01
2.788750e-10,1.752344e-01
2.828750e-10,1.729219e-01
2.868750e-10,1.705469e-01
2.908750e-10,1.674688e-01
2.948750e-10,1.642969e-01
2.988750e-10,1.614844e-01
3.028750e-10,1.589219e-01
3.068750e-10,1.556719e-01
3.108750e-10,1.532813e-01
3.148750e-10,1.504219e-01
3.188750e-10,1.477656e-01
3.228750e-10,1.435938e-01
3.268750e-10,1.413906e-01
3.308750e-10,1.376406e-01
3.348750e-10,1.357031e-01
3.388750e-10,1.323750e-01
3.428750e-10,1.292188e-01
3.468750e-10,1.256250e-01
3.508750e-10,1.229688e-01
3.548750e-10,1.197188e-01
3.588750e-10,1.167500e-01
3.628750e-10,1.140938e-01
3.668750e-10,1.114375e-01
3.708750e-10,1.082500e-01
3.748750e-10,1.049844e-01
3.788750e-10,1.021250e-01
3.828750e-10,9.964063e-02
3.868750e-10,9.646875e-02
3.908750e-10,9.423438e-02
3.948750e-10,9.162500e-02
3.988750e-10,8.925000e-02
4.028750e-10,8.542188e-02
4.068750e-10,8.365625e-02
4.108750e-10,8.040625e-02
4.148750e-10,7.896875e-02
4.188750e-10,7.626563e-02
4.228750e-10,7.375000e-02
4.268750e-10,7.084375e-02
4.308750e-10,6.893750e-02
4.348750e-10,6.646875e-02
4.388750e-10,6.435938e-02
4.428750e-10,6.257813e-02
4.468750e-10,6.084375e-02
4.508750e-10,5.868750e-02
4.548750e-10,5.648438e-02
4.588750e-10,5.468750e-02
4.628750e-10,5.332813e-02
4.668750e-10,5.131250e-02
4.708750e-10,5.021875e-02
4.748750e-10,4.887500e-02
4.788750e-10,4.768750e-02
4.828750e-10,4.515625e-02
4.868750e-10,4.467188e-02
4.908750e-10,4.275000e-02
4.948750e-10,4.264063e-02
4.988750e-10,4.132813e-02
5.028750e-10,4.010938e-02
5.068750e-10,3.857813e-02
5.108750e-10,3.803125e-02
5.148750e-10,3.685938e-02
5.188750e-10,3.609375e-02
5.228750e-10,3.562500e-02
5.268750e-10,3.517188e-02
5.308750e-10,3.432813e-02
5.348750e-10,3.337500e-02
5.388750e-10,3.281250e-02
5.428750e-10,3.264063e-02
5.468750e-10,3.176563e-02
5.508750e-10,3.176563e-02
5.548750e-10,3.148438e-02
5.588750e-10,3.128125e-02
5.628750e-10,2.971875e-02
5.668750e-10,3.009375e-02
5.708750e-10,2.903125e-02
5.748750e-10,2.971875e-02
5.788750e-10,2.915625e-02
5.828750e-10,2.854688e-02
5.868750e-10,2.760938e-02
5.908750e-10,2.760938e-02
5.948750e-10,2.685938e-02
5.988750e-10,2.643750e-02
6.028750e-10,2.631250e-02
6.068750e-10,2.614063e-02
6.108750e-10,2.553125e-02
6.148750e-10,2.470313e-02
6.188750e-10,2.428125e-02
6.228750e-10,2.412500e-02
6.268750e-10,2.323438e-02
6.308750e-10,2.318750e-02
6.348750e-10,2.284375e-02
6.388750e-10,2.243750e-02
6.428750e-10,2.073438e-02
6.468750e-10,2.087500e-02
6.508750e-10,1.959375e-02
6.548750e-10,2.007813e-02
6.588750e-10,1.926563e-02
6.628750e-10,1.837500e-02
6.668750e-10,1.714063e-02
6.708750e-10,1.690625e-02
6.748750e-10,1.584375e-02
6.788750e-10,1.514063e-02
6.828750e-10,1.479688e-02
6.868750e-10,1.439063e-02
6.908750e-10,1.359375e-02
6.948750e-10,1.254688e-02
6.988750e-10,1.200000e-02
7.028750e-10,1.171875e-02
7.068750e-10,1.075000e-02
7.108750e-10,1.068750e-02
7.148750e-10,1.039063e-02
7.188750e-10,9.968750e-03
7.228750e-10,8.390625e-03
7.268750e-10,8.640625e-03
7.308750e-10,7.546875e-03
7.348750e-10,8.281250e-03
7.388750e-10,7.734375e-03
7.428750e-10,7.203125e-03
7.468750e-10,6.296875e-03
7.508750e-10,6.484375e-03
7.548750e-10,5.843750e-03
7.588750e-10,5.593750e-03
7.628750e-10,5.796875e-03
7.668750e-10,5.906250e-03
7.708750e-10,5.687500e-03
7.748750e-10,5.218750e-03
7.788750e-10,5.265625e-03
7.828750e-10,5.625000e-03
7.868750e-10,5.312500e-03
7.908750e-10,5.921875e-03
7.948750e-10,6.265625e-03
7.988750e-10,6.468750e-03
8.028750e-10,5.531250e-03
8.068750e-10,6.359375e-03
8.108750e-10,5.843750e-03
8.148750e-10,7.203125e-03
8.188750e-10,7.234375e-03
8.228750e-10,7.250000e-03
8.268750e-10,6.828125e-03
8.308750e-10,7.437500e-03
8.348750e-10,7.218750e-03
8.388750e-10,7.375000e-03
8.428750e-10,7.953125e-03
8.468750e-10,8.281250e-03
8.508750e-10,8.343750e-03
8.548750e-10,8.062500e-03
8.588750e-10,8.203125e-03
8.628750e-10,8.718750e-03
8.668750e-10,8.453125e-03
8.708750e-10,9.093750e-03
8.748750e-10,9.359375e-03
8.788750e-10,9.468750e-03
8.828750e-10,8.421875e-03
8.868750e-10,9.062500e-03
8.908750e-10,8.281250e-03
8.948750e-10,9.421875e-03
8.988750e-10,9.171875e-03
9.028750e-10,8.875000e-03
9.068750e-10,8.125000e-03
9.108750e-10,8.359375e-03
9.148750e-10,7.781250e-03
9.188750e-10,7.578125e-03
9.228750e-10,7.781250e-03
9.268750e-10,7.625000e-03
9.308750e-10,7.281250e-03
9.348750e-10,6.625000e-03
9.388750e-10,6.328125e-03
9.428750e-10,6.500000e-03
9.468750e-10,5.906250e-03
9.508750e-10,6.187500e-03
9.548750e-10,6.109375e-03
9.588750e-10,5.937500e-03
9.628750e-10,4.656250e-03
9.668750e-10,5.093750e-03
9.708750e-10,4.078125e-03
9.748750e-10,5.078125e-03
9.788750e-10,4.718750e-03
9.828750e-10,4.343750e-03
9.868750e-10,3.593750e-03
9.908750e-10,3.828125e-03
9.948750e-10,3.328125e-03
9.988750e-10,3.250000e-03
1.002875e-09,3.609375e-03
1.006875e-09,3.640625e-03
1.010875e-09,3.515625e-03
1.014875e-09,3.140625e-03
1.018875e-09,3.125000e-03
1.022875e-09,3.640625e-03
1.026875e-09,3.406250e-03
1.030875e-09,4.078125e-03
1.034875e-09,4.437500e-03
1.038875e-09,4.734375e-03
1.042875e-09,3.921875e-03
1.046875e-09,4.875000e-03
1.050875e-09,4.343750e-03
1.054875e-09,5.812500e-03
1.058875e-09,5.953125e-03
1.062875e-09,6.062500e-03
1.066875e-09,5.812500e-03
1.070875e-09,6.546875e-03
1.074875e-09,6.515625e-03
1.078875e-09,6.890625e-03
1.082875e-09,7.687500e-03
1.086875e-09,8.140625e-03
1.090875e-09,8.375000e-03
1.094875e-09,8.359375e-03
1.098875e-09,8.656250e-03
1.102875e-09,9.453125e-03
1.106875e-09,9.453125e-03
1.110875e-09,1.034375e-02
1.114875e-09,1.085938e-02
1.118875e-09,1.129688e-02
1.122875e-09,1.056250e-02
1.126875e-09,1.159375e-02
1.130875e-09,1.104688e-02
1.134875e-09,1.245313e-02
1.138875e-09,1.248438e-02
1.142875e-09,1.248438e-02
1.146875e-09,1.204688e-02
1.150875e-09,1.257813e-02
1.154875e-09,1.229688e-02
1.158875e-09,1.240625e-02
1.162875e-09,1.289063e-02
1.166875e-09,1.304688e-02
1.170875e-09,1.289063e-02
1.174875e-09,1.248438e-02
1.178875e-09,1.240625e-02
1.182875e-09,1.276563e-02
1.186875e-09,1.231250e-02
1.190875e-09,1.278125e-02
1.194875e-09,1.284375e-02
1.198875e-09,1.285938e-02
1.202875e-09,1.162500e-02
1.206875e-09,1.225000e-02
1.210875e-09,1.126563e-02
1.214875e-09,1.225000e-02
1.218875e-09,1.185938e-02
1.222875e-09,1.143750e-02
1.226875e-09,1.062500e-02
1.230875e-09,1.081250e-02
1.234875e-09,1.018750e-02
1.238875e-09,9.984375e-03
1.242875e-09,1.017188e-02
1.246875e-09,1.012500e-02
1.250875e-09,9.718750e-03
1.254875e-09,9.109375e-03
1.258875e-09,8.890625e-03
1.262875e-09,9.109375e-03
1.266875e-09,8.546875e-03
1.270875e-09,8.953125e-03
1.274875e-09,8.984375e-03
1.278875e-09,9.015625e-03
1.282875e-09,7.750000e-03
1.286875e-09,8.437500e-03
1.290875e-09,7.515625e-03
1.294875e-09,8.625000e-03
1.298875e-09,8.343750e-03
1.302875e-09,8.078125e-03
1.306875e-09,7.421875e-03
1.310875e-09,7.781250e-03
1.314875e-09,7.343750e-03
1.318875e-09,7.343750e-03
1.322875e-09,7.750000e-03
1.326875e-09,7.921875e-03
1.330875e-09,7.750000e-03
1.334875e-09,7.375000e-03
1.338875e-09,7.390625e-03
1.342875e-09,7.843750e-03
1.346875e-09,7.484375e-03
1.350875e-09,8.125000e-03
1.354875e-09,8.390625e-03
1.358875e-09,8.640625e-03
1.362875e-09,7.531250e-03
1.366875e-09,8.390625e-03
1.370875e-09,7.640625e-03
1.374875e-09,8.906250e-03
1.378875e-09,8.750000e-03
1.382875e-09,8.609375e-03
1.386875e-09,8.046875e-03
1.390875e-09,8.500000e-03
1.394875e-09,8.140625e-03
1.398875e-09,8.171875e-03
1.402875e-09,8.609375e-03
1.406875e-09,8.812500e-03
1.410875e-09,8.640625e-03
1.414875e-09,8.234375e-03
1.418875e-09,8.234375e-03
1.422875e-09,8.625000e-03
1.426875e-09,8.218750e-03
1.430875e-09,8.781250e-03
1.434875e-09,8.953125e-03
1.438875e-09,9.109375e-03
1.442875e-09,7.875000e-03
1.446875e-09,8.625000e-03
1.450875e-09,7.765625e-03
1.454875e-09,8.906250e-03
1.458875e-09,8.625000e-03
1.462875e-09,8.343750e-03
1.466875e-09,7.656250e-03
1.470875e-09,7.968750e-03
1.474875e-09,7.484375e-03
1.478875e-09,7.390625e-03
1.482875e-09,7.687500e-03
1.486875e-09,7.796875e-03
1.490875e-09,7.484375e-03
1.494875e-09,6.984375e-03
1.498875e-09,6.859375e-03
1.502875e-09,7.171875e-03
1.506875e-09,6.656250e-03
1.510875e-09,7.140625e-03
1.514875e-09,7.234375e-03
1.518875e-09,7.328125e-03
1.522875e-09,6.015625e-03
1.526875e-09,6.718750e-03
1.530875e-09,5.796875e-03
1.534875e-09,6.890625e-03
1.538875e-09,6.593750e-03
1.542875e-09,6.281250e-03
1.546875e-09,5.562500e-03
1.550875e-09,5.859375e-03
1.554875e-09,5.343750e-03
1.558875e-09,5.250000e-03
1.562875e-09,5.546875e-03
1.566875e-09,5.640625e-03
1.570875e-09,5.328125e-03
1.574875e-09,4.812500e-03
1.578875e-09,4.703125e-03
1.582875e-09,5.000000e-03
1.586875e-09,4.484375e-03
1.590875e-09,4.984375e-03
1.594875e-09,5.062500e-03
1.598875e-09,5.156250e-03
1.602875e-09,3.843750e-03
1.606875e-09,4.531250e-03
1.610875e-09,3.609375e-03
1.614875e-09,4.703125e-03
1.618875e-09,4.375000e-03
1.622875e-09,4.046875e-03
1.626875e-09,3.328125e-03
1.630875e-09,3.609375e-03
1.634875e-09,3.078125e-03
1.638875e-09,2.968750e-03
1.642875e-09,3.250000e-03
1.646875e-09,3.328125e-03
1.650875e-09,3.015625e-03
1.654875e-09,2.500000e-03
1.658875e-09,2.390625e-03
1.662875e-09,2.687500e-03
1.666875e-09,2.171875e-03
1.670875e-09,2.671875e-03
1.674875e-09,2.781250e-03
1.678875e-09,2.906250e-03
1.682875e-09,1.609375e-03
1.686875e-09,2.343750e-03
1.690875e-09,1.468750e-03
1.694875e-09,2.625000e-03
1.698875e-09,2.375000e-03
1.702875e-09,2.125000e-03
1.706875e-09,1.500000e-03
1.710875e-09,1.890625e-03
1.714875e-09,1.468750e-03
1.718875e-09,1.468750e-03
1.722875e-09,1.890625e-03
1.726875e-09,2.109375e-03
1.730875e-09,1.953125e-03
1.734875e-09,1.609375e-03
1.738875e-09,1.656250e-03
1.742875e-09,2.140625e-03
1.746875e-09,1.828125e-03
1.750875e-09,2.515625e-03
1.754875e-09,2.828125e-03
1.758875e-09,3.156250e-03
