Measurements-streak-laser/Photodiode-on-Tek-12bit-4GHz/Tek000_ch1_20190613132931188.csv

Model,MSO64
Waveform Type,ANALOG
Horizontal Units,s
Sample Interval,4.000000e-12
Record Length,1000
Zero Index,310.562500
Vertical Units,V

TIME,CH1
-1.242250e-09,1.265625e-03
-1.238250e-09,2.328125e-03
-1.234250e-09,2.000000e-03
-1.230250e-09,1.687500e-03
-1.226250e-09,1.000000e-03
-1.222250e-09,1.359375e-03
-1.218250e-09,9.375000e-04
-1.214250e-09,9.218750e-04
-1.210250e-09,1.359375e-03
-1.206250e-09,1.609375e-03
-1.202250e-09,1.484375e-03
-1.198250e-09,1.187500e-03
-1.194250e-09,1.312500e-03
-1.190250e-09,1.875000e-03
-1.186250e-09,1.640625e-03
-1.182250e-09,2.437500e-03
-1.178250e-09,2.843750e-03
-1.174250e-09,3.281250e-03
-1.170250e-09,2.312500e-03
-1.166250e-09,3.375000e-03
-1.162250e-09,2.843750e-03
-1.158250e-09,4.328125e-03
-1.154250e-09,4.421875e-03
-1.150250e-09,4.515625e-03
-1.146250e-09,4.203125e-03
-1.142250e-09,4.906250e-03
-1.138250e-09,4.796875e-03
-1.134250e-09,5.093750e-03
-1.130250e-09,5.796875e-03
-1.126250e-09,6.281250e-03
-1.122250e-09,6.359375e-03
-1.118250e-09,6.218750e-03
-1.114250e-09,6.468750e-03
-1.110250e-09,7.109375e-03
-1.106250e-09,6.921875e-03
-1.102250e-09,7.734375e-03
-1.098250e-09,8.125000e-03
-1.094250e-09,8.500000e-03
-1.090250e-09,7.421875e-03
-1.086250e-09,8.359375e-03
-1.082250e-09,7.640625e-03
-1.078250e-09,8.937500e-03
-1.074250e-09,8.796875e-03
-1.070250e-09,8.625000e-03
-1.066250e-09,8.031250e-03
-1.062250e-09,8.406250e-03
-1.058250e-09,7.968750e-03
-1.054250e-09,7.921875e-03
-1.050250e-09,8.250000e-03
-1.046250e-09,8.343750e-03
-1.042250e-09,8.031250e-03
-1.038250e-09,7.484375e-03
-1.034250e-09,7.328125e-03
-1.030250e-09,7.562500e-03
-1.026250e-09,6.984375e-03
-1.022250e-09,7.390625e-03
-1.018250e-09,7.390625e-03
-1.014250e-09,7.375000e-03
-1.010250e-09,5.953125e-03
-1.006250e-09,6.531250e-03
-1.002250e-09,5.484375e-03
-9.982500e-10,6.468750e-03
-9.942500e-10,6.031250e-03
-9.902500e-10,5.593750e-03
-9.862500e-10,4.765625e-03
-9.822500e-10,4.937500e-03
-9.782500e-10,4.328125e-03
-9.742500e-10,4.125000e-03
-9.702500e-10,4.328125e-03
-9.662500e-10,4.343750e-03
-9.622500e-10,3.953125e-03
-9.582500e-10,3.390625e-03
-9.542500e-10,3.250000e-03
-9.502500e-10,3.515625e-03
-9.462500e-10,2.984375e-03
-9.422500e-10,3.484375e-03
-9.382500e-10,3.609375e-03
-9.342500e-10,3.734375e-03
-9.302500e-10,2.484375e-03
-9.262500e-10,3.250000e-03
-9.222500e-10,2.421875e-03
-9.182500e-10,3.593750e-03
-9.142500e-10,3.406250e-03
-9.102500e-10,3.234375e-03
-9.062500e-10,2.687500e-03
-9.022500e-10,3.156250e-03
-8.982500e-10,2.812500e-03
-8.942500e-10,2.906250e-03
-8.902500e-10,3.421875e-03
-8.862500e-10,3.718750e-03
-8.822500e-10,3.656250e-03
-8.782500e-10,3.375000e-03
-8.742500e-10,3.515625e-03
-8.702500e-10,4.062500e-03
-8.662500e-10,3.812500e-03
-8.622500e-10,4.578125e-03
-8.582500e-10,4.937500e-03
-8.542500e-10,5.296875e-03
-8.502500e-10,4.281250e-03
-8.462500e-10,5.250000e-03
-8.422500e-10,4.609375e-03
-8.382500e-10,5.875000e-03
-8.342500e-10,5.859375e-03
-8.302500e-10,5.812500e-03
-8.262500e-10,5.390625e-03
-8.222500e-10,5.937500e-03
-8.182500e-10,5.656250e-03
-8.142500e-10,5.812500e-03
-8.102500e-10,6.328125e-03
-8.062500e-10,6.640625e-03
-8.022500e-10,6.578125e-03
-7.982500e-10,6.265625e-03
-7.942500e-10,6.343750e-03
-7.902500e-10,6.812500e-03
-7.862500e-10,6.484375e-03
-7.822500e-10,7.140625e-03
-7.782500e-10,7.390625e-03
-7.742500e-10,7.625000e-03
-7.702500e-10,6.484375e-03
-7.662500e-10,7.328125e-03
-7.622500e-10,6.531250e-03
-7.582500e-10,7.578125e-03
-7.542500e-10,7.421875e-03
-7.502500e-10,7.218750e-03
-7.462500e-10,6.656250e-03
-7.422500e-10,7.000000e-03
-7.382500e-10,6.515625e-03
-7.342500e-10,6.546875e-03
-7.302500e-10,6.890625e-03
-7.262500e-10,7.015625e-03
-7.222500e-10,6.859375e-03
-7.182500e-10,6.375000e-03
-7.142500e-10,6.296875e-03
-7.102500e-10,6.609375e-03
-7.062500e-10,6.156250e-03
-7.022500e-10,6.687500e-03
-6.982500e-10,6.828125e-03
-6.942500e-10,6.953125e-03
-6.902500e-10,5.718750e-03
-6.862500e-10,6.484375e-03
-6.822500e-10,5.656250e-03
-6.782500e-10,6.609375e-03
-6.742500e-10,6.453125e-03
-6.702500e-10,6.234375e-03
-6.662500e-10,5.671875e-03
-6.622500e-10,5.984375e-03
-6.582500e-10,5.484375e-03
-6.542500e-10,5.562500e-03
-6.502500e-10,5.937500e-03
-6.462500e-10,6.062500e-03
-6.422500e-10,6.046875e-03
-6.382500e-10,5.609375e-03
-6.342500e-10,5.593750e-03
-6.302500e-10,5.984375e-03
-6.262500e-10,5.656250e-03
-6.222500e-10,6.265625e-03
-6.182500e-10,6.531250e-03
-6.142500e-10,6.750000e-03
-6.102500e-10,5.593750e-03
-6.062500e-10,6.484375e-03
-6.022500e-10,5.859375e-03
-5.982500e-10,6.921875e-03
-5.942500e-10,6.921875e-03
-5.902500e-10,6.859375e-03
-5.862500e-10,6.421875e-03
-5.822500e-10,6.859375e-03
-5.782500e-10,6.484375e-03
-5.742500e-10,6.703125e-03
-5.702500e-10,7.218750e-03
-5.662500e-10,7.437500e-03
-5.622500e-10,7.562500e-03
-5.582500e-10,7.250000e-03
-5.542500e-10,7.343750e-03
-5.502500e-10,7.843750e-03
-5.462500e-10,7.640625e-03
-5.422500e-10,8.343750e-03
-5.382500e-10,8.656250e-03
-5.342500e-10,8.921875e-03
-5.302500e-10,7.812500e-03
-5.262500e-10,8.718750e-03
-5.222500e-10,8.156250e-03
-5.182500e-10,9.234375e-03
-5.142500e-10,9.265625e-03
-5.102500e-10,9.156250e-03
-5.062500e-10,8.671875e-03
-5.022500e-10,9.062500e-03
-4.982500e-10,8.656250e-03
-4.942500e-10,8.750000e-03
-4.902500e-10,9.187500e-03
-4.862500e-10,9.265625e-03
-4.822500e-10,9.218750e-03
-4.782500e-10,8.765625e-03
-4.742500e-10,8.734375e-03
-4.702500e-10,9.078125e-03
-4.662500e-10,8.625000e-03
-4.622500e-10,9.171875e-03
-4.582500e-10,9.218750e-03
-4.542500e-10,9.250000e-03
-4.502500e-10,7.890625e-03
-4.462500e-10,8.468750e-03
-4.422500e-10,7.671875e-03
-4.382500e-10,8.468750e-03
-4.342500e-10,8.250000e-03
-4.302500e-10,7.796875e-03
-4.262500e-10,7.015625e-03
-4.222500e-10,7.093750e-03
-4.182500e-10,6.453125e-03
-4.142500e-10,6.187500e-03
-4.102500e-10,6.343750e-03
-4.062500e-10,6.140625e-03
-4.022500e-10,5.703125e-03
-3.982500e-10,5.000000e-03
-3.942500e-10,4.765625e-03
-3.902500e-10,4.890625e-03
-3.862500e-10,4.140625e-03
-3.822500e-10,4.468750e-03
-3.782500e-10,4.343750e-03
-3.742500e-10,4.187500e-03
-3.702500e-10,2.718750e-03
-3.662500e-10,3.093750e-03
-3.622500e-10,2.187500e-03
-3.582500e-10,2.937500e-03
-3.542500e-10,2.656250e-03
-3.502500e-10,2.156250e-03
-3.462500e-10,1.406250e-03
-3.422500e-10,1.546875e-03
-3.382500e-10,1.031250e-03
-3.342500e-10,7.968750e-04
-3.302500e-10,1.093750e-03
-3.262500e-10,1.078125e-03
-3.222500e-10,7.812500e-04
-3.182500e-10,3.437500e-04
-3.142500e-10,3.750000e-04
-3.102500e-10,8.125000e-04
-3.062500e-10,3.593750e-04
-3.022500e-10,1.000000e-03
-2.982500e-10,1.281250e-03
-2.942500e-10,1.500000e-03
-2.902500e-10,4.687500e-04
-2.862500e-10,1.234375e-03
-2.822500e-10,7.187500e-04
-2.782500e-10,1.921875e-03
-2.742500e-10,2.062500e-03
-2.702500e-10,2.015625e-03
-2.662500e-10,1.765625e-03
-2.622500e-10,2.375000e-03
-2.582500e-10,2.312500e-03
-2.542500e-10,2.484375e-03
-2.502500e-10,3.171875e-03
-2.462500e-10,3.562500e-03
-2.422500e-10,3.609375e-03
-2.382500e-10,3.593750e-03
-2.342500e-10,3.937500e-03
-2.302500e-10,4.640625e-03
-2.262500e-10,4.484375e-03
-2.222500e-10,5.312500e-03
-2.182500e-10,5.828125e-03
-2.142500e-10,6.203125e-03
-2.102500e-10,5.328125e-03
-2.062500e-10,6.187500e-03
-2.022500e-10,5.656250e-03
-1.982500e-10,6.906250e-03
-1.942500e-10,6.937500e-03
-1.902500e-10,6.843750e-03
-1.862500e-10,6.500000e-03
-1.822500e-10,6.953125e-03
-1.782500e-10,6.656250e-03
-1.742500e-10,6.656250e-03
-1.702500e-10,7.031250e-03
-1.662500e-10,7.140625e-03
-1.622500e-10,6.890625e-03
-1.582500e-10,6.578125e-03
-1.542500e-10,6.531250e-03
-1.502500e-10,6.828125e-03
-1.462500e-10,6.359375e-03
-1.422500e-10,6.812500e-03
-1.382500e-10,6.968750e-03
-1.342500e-10,7.031250e-03
-1.302500e-10,5.906250e-03
-1.262500e-10,6.484375e-03
-1.222500e-10,5.671875e-03
-1.182500e-10,6.765625e-03
-1.142500e-10,6.578125e-03
-1.102500e-10,6.421875e-03
-1.062500e-10,6.062500e-03
-1.022500e-10,6.578125e-03
-9.825000e-11,6.406250e-03
-9.425000e-11,6.640625e-03
-9.025000e-11,7.312500e-03
-8.625000e-11,7.875000e-03
-8.225000e-11,8.125000e-03
-7.825000e-11,8.453125e-03
-7.425000e-11,9.140625e-03
-7.025000e-11,1.021875e-02
-6.625000e-11,1.075000e-02
-6.225000e-11,1.235938e-02
-5.825000e-11,1.370313e-02
-5.425000e-11,1.521875e-02
-5.025000e-11,1.564063e-02
-4.625000e-11,1.787500e-02
-4.225000e-11,1.881250e-02
-3.825000e-11,2.185938e-02
-3.425000e-11,2.367188e-02
-3.025000e-11,2.571875e-02
-2.625000e-11,2.768750e-02
-2.225000e-11,3.062500e-02
-1.825000e-11,3.300000e-02
-1.425000e-11,3.590625e-02
-1.025000e-11,3.935938e-02
-6.250000e-12,4.282813e-02
-2.250000e-12,4.600000e-02
1.750000e-12,4.937500e-02
5.750000e-12,5.315625e-02
9.750000e-12,5.734375e-02
1.375000e-11,6.109375e-02
1.775000e-11,6.596875e-02
2.175000e-11,7.057813e-02
2.575000e-11,7.545313e-02
2.975000e-11,7.918750e-02
3.375000e-11,8.471875e-02
3.775000e-11,8.890625e-02
4.175000e-11,9.520313e-02
4.575000e-11,1.001563e-01
4.975000e-11,1.053906e-01
5.375000e-11,1.103594e-01
5.775000e-11,1.162344e-01
6.175000e-11,1.214844e-01
6.575000e-11,1.271250e-01
6.975000e-11,1.331875e-01
7.375000e-11,1.392188e-01
7.775000e-11,1.446719e-01
8.175000e-11,1.502031e-01
8.575000e-11,1.559688e-01
8.975000e-11,1.619688e-01
9.375000e-11,1.673906e-01
9.775000e-11,1.736875e-01
1.017500e-10,1.795000e-01
1.057500e-10,1.854219e-01
1.097500e-10,1.899375e-01
1.137500e-10,1.960625e-01
1.177500e-10,2.006094e-01
1.217500e-10,2.070156e-01
1.257500e-10,2.117969e-01
1.297500e-10,2.167344e-01
1.337500e-10,2.210781e-01
1.377500e-10,2.260781e-01
1.417500e-10,2.303125e-01
1.457500e-10,2.346406e-01
1.497500e-10,2.391875e-01
1.537500e-10,2.435469e-01
1.577500e-10,2.469688e-01
1.617500e-10,2.502813e-01
1.657500e-10,2.536719e-01
1.697500e-10,2.570938e-01
1.737500e-10,2.597656e-01
1.777500e-10,2.630625e-01
1.817500e-10,2.656563e-01
1.857500e-10,2.682813e-01
1.897500e-10,2.692656e-01
1.937500e-10,2.717969e-01
1.977500e-10,2.725938e-01
2.017500e-10,2.750313e-01
2.057500e-10,2.757656e-01
2.097500e-10,2.765625e-01
2.137500e-10,2.766406e-01
2.177500e-10,2.772969e-01
2.217500e-10,2.771563e-01
2.257500e-10,2.770625e-01
2.297500e-10,2.770625e-01
2.337500e-10,2.768906e-01
2.377500e-10,2.757188e-01
2.417500e-10,2.743906e-01
2.457500e-10,2.732031e-01
2.497500e-10,2.720469e-01
2.537500e-10,2.701406e-01
2.577500e-10,2.688594e-01
2.617500e-10,2.668906e-01
2.657500e-10,2.650313e-01
2.697500e-10,2.615313e-01
2.737500e-10,2.597344e-01
2.777500e-10,2.562500e-01
2.817500e-10,2.544219e-01
2.857500e-10,2.510000e-01
2.897500e-10,2.477188e-01
2.937500e-10,2.438281e-01
2.977500e-10,2.406406e-01
3.017500e-10,2.368125e-01
3.057500e-10,2.330938e-01
3.097500e-10,2.295625e-01
3.137500e-10,2.260000e-01
3.177500e-10,2.216094e-01
3.217500e-10,2.171563e-01
3.257500e-10,2.129844e-01
3.297500e-10,2.090313e-01
3.337500e-10,2.043906e-01
3.377500e-10,2.005313e-01
3.417500e-10,1.961875e-01
3.457500e-10,1.920781e-01
3.497500e-10,1.864375e-01
3.537500e-10,1.827344e-01
3.577500e-10,1.775000e-01
3.617500e-10,1.740000e-01
3.657500e-10,1.691250e-01
3.697500e-10,1.645000e-01
3.737500e-10,1.594063e-01
3.777500e-10,1.552656e-01
3.817500e-10,1.505938e-01
3.857500e-10,1.461875e-01
3.897500e-10,1.420781e-01
3.937500e-10,1.380781e-01
3.977500e-10,1.335156e-01
4.017500e-10,1.289531e-01
4.057500e-10,1.248281e-01
4.097500e-10,1.210938e-01
4.137500e-10,1.167500e-01
4.177500e-10,1.133125e-01
4.217500e-10,1.096094e-01
4.257500e-10,1.062031e-01
4.297500e-10,1.014063e-01
4.337500e-10,9.870313e-02
4.377500e-10,9.460938e-02
4.417500e-10,9.229688e-02
4.457500e-10,8.879688e-02
4.497500e-10,8.556250e-02
4.537500e-10,8.201563e-02
4.577500e-10,7.950000e-02
4.617500e-10,7.651563e-02
4.657500e-10,7.390625e-02
4.697500e-10,7.164063e-02
4.737500e-10,6.953125e-02
4.777500e-10,6.701563e-02
4.817500e-10,6.453125e-02
4.857500e-10,6.246875e-02
4.897500e-10,6.089063e-02
4.937500e-10,5.868750e-02
4.977500e-10,5.740625e-02
5.017500e-10,5.595313e-02
5.057500e-10,5.471875e-02
5.097500e-10,5.214063e-02
5.137500e-10,5.164063e-02
5.177500e-10,4.975000e-02
5.217500e-10,4.962500e-02
5.257500e-10,4.834375e-02
5.297500e-10,4.717188e-02
5.337500e-10,4.571875e-02
5.377500e-10,4.523438e-02
5.417500e-10,4.417188e-02
5.457500e-10,4.346875e-02
5.497500e-10,4.303125e-02
5.537500e-10,4.268750e-02
5.577500e-10,4.192188e-02
5.617500e-10,4.104688e-02
5.657500e-10,4.054688e-02
5.697500e-10,4.040625e-02
5.737500e-10,3.956250e-02
5.777500e-10,3.954688e-02
5.817500e-10,3.928125e-02
5.857500e-10,3.906250e-02
5.897500e-10,3.748438e-02
5.937500e-10,3.782813e-02
5.977500e-10,3.673438e-02
6.017500e-10,3.732813e-02
6.057500e-10,3.667188e-02
6.097500e-10,3.596875e-02
6.137500e-10,3.492188e-02
6.177500e-10,3.478125e-02
6.217500e-10,3.389063e-02
6.257500e-10,3.331250e-02
6.297500e-10,3.296875e-02
6.337500e-10,3.262500e-02
6.377500e-10,3.184375e-02
6.417500e-10,3.081250e-02
6.457500e-10,3.020313e-02
6.497500e-10,2.981250e-02
6.537500e-10,2.871875e-02
6.577500e-10,2.840625e-02
6.617500e-10,2.785938e-02
6.657500e-10,2.721875e-02
6.697500e-10,2.532813e-02
6.737500e-10,2.523438e-02
6.777500e-10,2.379688e-02
6.817500e-10,2.403125e-02
6.857500e-10,2.304688e-02
6.897500e-10,2.196875e-02
6.937500e-10,2.056250e-02
6.977500e-10,2.017188e-02
7.017500e-10,1.895313e-02
7.057500e-10,1.807813e-02
7.097500e-10,1.759375e-02
7.137500e-10,1.707813e-02
7.177500e-10,1.621875e-02
7.217500e-10,1.507813e-02
7.257500e-10,1.450000e-02
7.297500e-10,1.412500e-02
7.337500e-10,1.314063e-02
7.377500e-10,1.301563e-02
7.417500e-10,1.271875e-02
7.457500e-10,1.228125e-02
7.497500e-10,1.075000e-02
7.537500e-10,1.098438e-02
7.577500e-10,9.984375e-03
7.617500e-10,1.075000e-02
7.657500e-10,1.028125e-02
7.697500e-10,9.812500e-03
7.737500e-10,8.984375e-03
7.777500e-10,9.265625e-03
7.817500e-10,8.703125e-03
7.857500e-10,8.531250e-03
7.897500e-10,8.828125e-03
7.937500e-10,9.031250e-03
7.977500e-10,8.953125e-03
8.017500e-10,8.578125e-03
8.057500e-10,8.734375e-03
8.097500e-10,9.187500e-03
8.137500e-10,8.968750e-03
8.177500e-10,9.656250e-03
8.217500e-10,1.010938e-02
8.257500e-10,1.034375e-02
8.297500e-10,9.546875e-03
8.337500e-10,1.040625e-02
8.377500e-10,9.968750e-03
8.417500e-10,1.139063e-02
8.457500e-10,1.146875e-02
8.497500e-10,1.154688e-02
8.537500e-10,1.114063e-02
8.577500e-10,1.179688e-02
8.617500e-10,1.159375e-02
8.657500e-10,1.173438e-02
8.697500e-10,1.229688e-02
8.737500e-10,1.260938e-02
8.777500e-10,1.267188e-02
8.817500e-10,1.237500e-02
8.857500e-10,1.248438e-02
8.897500e-10,1.293750e-02
8.937500e-10,1.267188e-02
8.977500e-10,1.323438e-02
9.017500e-10,1.345313e-02
9.057500e-10,1.346875e-02
9.097500e-10,1.240625e-02
9.137500e-10,1.293750e-02
9.177500e-10,1.210938e-02
9.217500e-10,1.318750e-02
9.257500e-10,1.287500e-02
9.297500e-10,1.253125e-02
9.337500e-10,1.171875e-02
9.377500e-10,1.185938e-02
9.417500e-10,1.121875e-02
9.457500e-10,1.096875e-02
9.497500e-10,1.109375e-02
9.537500e-10,1.085938e-02
9.577500e-10,1.048438e-02
9.617500e-10,9.781250e-03
9.657500e-10,9.421875e-03
9.697500e-10,9.562500e-03
9.737500e-10,8.937500e-03
9.777500e-10,9.156250e-03
9.817500e-10,9.062500e-03
9.857500e-10,8.812500e-03
9.897500e-10,7.578125e-03
9.937500e-10,7.953125e-03
9.977500e-10,6.921875e-03
1.001750e-09,7.906250e-03
1.005750e-09,7.546875e-03
1.009750e-09,7.140625e-03
1.013750e-09,6.406250e-03
1.017750e-09,6.593750e-03
1.021750e-09,6.093750e-03
1.025750e-09,6.015625e-03
1.029750e-09,6.375000e-03
1.033750e-09,6.312500e-03
1.037750e-09,6.187500e-03
1.041750e-09,5.812500e-03
1.045750e-09,5.734375e-03
1.049750e-09,6.250000e-03
1.053750e-09,6.000000e-03
1.057750e-09,6.593750e-03
1.061750e-09,6.890625e-03
1.065750e-09,7.093750e-03
1.069750e-09,6.296875e-03
1.073750e-09,7.156250e-03
1.077750e-09,6.531250e-03
1.081750e-09,7.906250e-03
1.085750e-09,7.953125e-03
1.089750e-09,7.953125e-03
1.093750e-09,7.609375e-03
1.097750e-09,8.187500e-03
1.101750e-09,8.046875e-03
1.105750e-09,8.296875e-03
1.109750e-09,8.937500e-03
1.113750e-09,9.187500e-03
1.117750e-09,9.281250e-03
1.121750e-09,9.093750e-03
1.125750e-09,9.203125e-03
1.129750e-09,9.812500e-03
1.133750e-09,9.640625e-03
1.137750e-09,1.031250e-02
1.141750e-09,1.062500e-02
1.145750e-09,1.084375e-02
1.149750e-09,9.953125e-03
1.153750e-09,1.078125e-02
1.157750e-09,1.003125e-02
1.161750e-09,1.123438e-02
1.165750e-09,1.106250e-02
1.169750e-09,1.085938e-02
1.173750e-09,1.025000e-02
1.177750e-09,1.059375e-02
1.181750e-09,1.014063e-02
1.185750e-09,1.007813e-02
1.189750e-09,1.039063e-02
1.193750e-09,1.037500e-02
1.197750e-09,1.009375e-02
1.201750e-09,9.562500e-03
1.205750e-09,9.343750e-03
1.209750e-09,9.609375e-03
1.213750e-09,9.062500e-03
1.217750e-09,9.437500e-03
1.221750e-09,9.453125e-03
1.225750e-09,9.406250e-03
1.229750e-09,8.203125e-03
1.233750e-09,8.796875e-03
1.237750e-09,7.828125e-03
1.241750e-09,8.828125e-03
1.245750e-09,8.484375e-03
1.249750e-09,8.140625e-03
1.253750e-09,7.421875e-03
1.257750e-09,7.687500e-03
1.261750e-09,7.203125e-03
1.265750e-09,7.125000e-03
1.269750e-09,7.468750e-03
1.273750e-09,7.578125e-03
1.277750e-09,7.375000e-03
1.281750e-09,6.984375e-03
1.285750e-09,6.968750e-03
1.289750e-09,7.421875e-03
1.293750e-09,7.109375e-03
1.297750e-09,7.765625e-03
1.301750e-09,8.078125e-03
1.305750e-09,8.375000e-03
1.309750e-09,7.437500e-03
1.313750e-09,8.390625e-03
1.317750e-09,7.796875e-03
1.321750e-09,9.187500e-03
1.325750e-09,9.218750e-03
1.329750e-09,9.265625e-03
1.333750e-09,8.937500e-03
1.337750e-09,9.609375e-03
1.341750e-09,9.484375e-03
1.345750e-09,9.781250e-03
1.349750e-09,1.050000e-02
1.353750e-09,1.096875e-02
1.357750e-09,1.107813e-02
1.361750e-09,1.098438e-02
1.365750e-09,1.126563e-02
1.369750e-09,1.196875e-02
1.373750e-09,1.187500e-02
1.377750e-09,1.275000e-02
1.381750e-09,1.320313e-02
1.385750e-09,1.364063e-02
1.389750e-09,1.273438e-02
1.393750e-09,1.375000e-02
1.397750e-09,1.314063e-02
1.401750e-09,1.453125e-02
1.405750e-09,1.448438e-02
1.409750e-09,1.442188e-02
1.413750e-09,1.392188e-02
1.417750e-09,1.440625e-02
1.421750e-09,1.406250e-02
1.425750e-09,1.409375e-02
1.429750e-09,1.451563e-02
1.433750e-09,1.467188e-02
1.437750e-09,1.442188e-02
1.441750e-09,1.393750e-02
1.445750e-09,1.382813e-02
1.449750e-09,1.409375e-02
1.453750e-09,1.354688e-02
1.457750e-09,1.395313e-02
1.461750e-09,1.393750e-02
1.465750e-09,1.390625e-02
1.469750e-09,1.246875e-02
1.473750e-09,1.300000e-02
1.477750e-09,1.190625e-02
1.481750e-09,1.279688e-02
1.485750e-09,1.228125e-02
1.489750e-09,1.175000e-02
1.493750e-09,1.079688e-02
1.497750e-09,1.084375e-02
1.501750e-09,1.007813e-02
1.505750e-09,9.718750e-03
1.509750e-09,9.750000e-03
1.513750e-09,9.593750e-03
1.517750e-09,9.015625e-03
1.521750e-09,8.250000e-03
1.525750e-09,7.890625e-03
1.529750e-09,7.953125e-03
1.533750e-09,7.218750e-03
1.537750e-09,7.484375e-03
1.541750e-09,7.359375e-03
1.545750e-09,7.250000e-03
1.549750e-09,5.781250e-03
1.553750e-09,6.312500e-03
1.557750e-09,5.250000e-03
1.561750e-09,6.218750e-03
1.565750e-09,5.796875e-03
1.569750e-09,5.390625e-03
1.573750e-09,4.609375e-03
1.577750e-09,4.843750e-03
1.581750e-09,4.312500e-03
1.585750e-09,4.187500e-03
1.589750e-09,4.484375e-03
1.593750e-09,4.593750e-03
1.597750e-09,4.328125e-03
1.601750e-09,3.875000e-03
1.605750e-09,3.843750e-03
1.609750e-09,4.234375e-03
1.613750e-09,3.843750e-03
1.617750e-09,4.453125e-03
1.621750e-09,4.671875e-03
1.625750e-09,4.921875e-03
1.629750e-09,3.765625e-03
1.633750e-09,4.625000e-03
1.637750e-09,3.875000e-03
1.641750e-09,5.156250e-03
1.645750e-09,5.031250e-03
1.649750e-09,4.906250e-03
1.653750e-09,4.375000e-03
1.657750e-09,4.859375e-03
1.661750e-09,4.531250e-03
1.665750e-09,4.609375e-03
1.669750e-09,5.093750e-03
1.673750e-09,5.359375e-03
1.677750e-09,5.218750e-03
1.681750e-09,4.875000e-03
1.685750e-09,4.921875e-03
1.689750e-09,5.375000e-03
1.693750e-09,5.000000e-03
1.697750e-09,5.625000e-03
1.701750e-09,5.843750e-03
1.705750e-09,6.046875e-03
1.709750e-09,4.843750e-03
1.713750e-09,5.640625e-03
1.717750e-09,4.812500e-03
1.721750e-09,5.984375e-03
1.725750e-09,5.750000e-03
1.729750e-09,5.500000e-03
1.733750e-09,4.828125e-03
1.737750e-09,5.171875e-03
1.741750e-09,4.703125e-03
1.745750e-09,4.640625e-03
1.749750e-09,4.953125e-03
1.753750e-09,5.078125e-03
1.757750e-09,4.796875e-03
