Measurements-streak-laser/Photodiode-on-Tek-12bit-4GHz/Tek000_ch1_20190613132938910.csv

Model,MSO64
Waveform Type,ANALOG
Horizontal Units,s
Sample Interval,4.000000e-12
Record Length,1000
Zero Index,310.296875
Vertical Units,V

TIME,CH1
-1.241187e-09,6.250000e-03
-1.237187e-09,7.015625e-03
-1.233187e-09,6.140625e-03
-1.229188e-09,7.281250e-03
-1.225188e-09,7.000000e-03
-1.221188e-09,6.718750e-03
-1.217188e-09,6.015625e-03
-1.213188e-09,6.312500e-03
-1.209188e-09,5.796875e-03
-1.205187e-09,5.687500e-03
-1.201187e-09,5.968750e-03
-1.197187e-09,6.046875e-03
-1.193187e-09,5.718750e-03
-1.189187e-09,5.187500e-03
-1.185187e-09,5.062500e-03
-1.181187e-09,5.343750e-03
-1.177187e-09,4.812500e-03
-1.173187e-09,5.296875e-03
-1.169188e-09,5.390625e-03
-1.165188e-09,5.468750e-03
-1.161188e-09,4.156250e-03
-1.157188e-09,4.859375e-03
-1.153188e-09,3.953125e-03
-1.149188e-09,5.078125e-03
-1.145187e-09,4.781250e-03
-1.141187e-09,4.500000e-03
-1.137187e-09,3.828125e-03
-1.133187e-09,4.187500e-03
-1.129187e-09,3.718750e-03
-1.125187e-09,3.687500e-03
-1.121187e-09,4.062500e-03
-1.117187e-09,4.234375e-03
-1.113187e-09,4.031250e-03
-1.109188e-09,3.625000e-03
-1.105188e-09,3.640625e-03
-1.101188e-09,4.062500e-03
-1.097188e-09,3.671875e-03
-1.093188e-09,4.328125e-03
-1.089188e-09,4.578125e-03
-1.085187e-09,4.843750e-03
-1.081187e-09,3.687500e-03
-1.077187e-09,4.578125e-03
-1.073187e-09,3.843750e-03
-1.069187e-09,5.156250e-03
-1.065187e-09,5.046875e-03
-1.061187e-09,4.953125e-03
-1.057187e-09,4.453125e-03
-1.053187e-09,4.984375e-03
-1.049188e-09,4.703125e-03
-1.045188e-09,4.828125e-03
-1.041188e-09,5.359375e-03
-1.037188e-09,5.703125e-03
-1.033188e-09,5.640625e-03
-1.029188e-09,5.375000e-03
-1.025187e-09,5.500000e-03
-1.021187e-09,6.046875e-03
-1.017187e-09,5.781250e-03
-1.013187e-09,6.531250e-03
-1.009187e-09,6.875000e-03
-1.005187e-09,7.218750e-03
-1.001187e-09,6.140625e-03
-9.971875e-10,7.078125e-03
-9.931875e-10,6.390625e-03
-9.891875e-10,7.718750e-03
-9.851875e-10,7.640625e-03
-9.811875e-10,7.562500e-03
-9.771875e-10,7.062500e-03
-9.731875e-10,7.578125e-03
-9.691875e-10,7.265625e-03
-9.651875e-10,7.375000e-03
-9.611875e-10,7.859375e-03
-9.571875e-10,8.156250e-03
-9.531875e-10,8.031250e-03
-9.491875e-10,7.687500e-03
-9.451875e-10,7.750000e-03
-9.411875e-10,8.218750e-03
-9.371875e-10,7.859375e-03
-9.331875e-10,8.515625e-03
-9.291875e-10,8.765625e-03
-9.251875e-10,9.000000e-03
-9.211875e-10,7.812500e-03
-9.171875e-10,8.656250e-03
-9.131875e-10,7.843750e-03
-9.091875e-10,9.031250e-03
-9.051875e-10,8.843750e-03
-9.011875e-10,8.640625e-03
-8.971875e-10,8.046875e-03
-8.931875e-10,8.421875e-03
-8.891875e-10,8.015625e-03
-8.851875e-10,8.000000e-03
-8.811875e-10,8.375000e-03
-8.771875e-10,8.546875e-03
-8.731875e-10,8.328125e-03
-8.691875e-10,7.890625e-03
-8.651875e-10,7.843750e-03
-8.611875e-10,8.203125e-03
-8.571875e-10,7.765625e-03
-8.531875e-10,8.312500e-03
-8.491875e-10,8.468750e-03
-8.451875e-10,8.625000e-03
-8.411875e-10,7.390625e-03
-8.371875e-10,8.140625e-03
-8.331875e-10,7.281250e-03
-8.291875e-10,8.359375e-03
-8.251875e-10,8.125000e-03
-8.211875e-10,7.859375e-03
-8.171875e-10,7.234375e-03
-8.131875e-10,7.562500e-03
-8.091875e-10,7.093750e-03
-8.051875e-10,7.062500e-03
-8.011875e-10,7.406250e-03
-7.971875e-10,7.531250e-03
-7.931875e-10,7.312500e-03
-7.891875e-10,6.828125e-03
-7.851875e-10,6.765625e-03
-7.811875e-10,7.109375e-03
-7.771875e-10,6.640625e-03
-7.731875e-10,7.171875e-03
-7.691875e-10,7.312500e-03
-7.651875e-10,7.453125e-03
-7.611875e-10,6.203125e-03
-7.571875e-10,6.968750e-03
-7.531875e-10,6.109375e-03
-7.491875e-10,7.140625e-03
-7.451875e-10,6.921875e-03
-7.411875e-10,6.671875e-03
-7.371875e-10,6.031250e-03
-7.331875e-10,6.359375e-03
-7.291875e-10,5.859375e-03
-7.251875e-10,5.843750e-03
-7.211875e-10,6.171875e-03
-7.171875e-10,6.281250e-03
-7.131875e-10,6.109375e-03
-7.091875e-10,5.625000e-03
-7.051875e-10,5.531250e-03
-7.011875e-10,5.859375e-03
-6.971875e-10,5.406250e-03
-6.931875e-10,5.921875e-03
-6.891875e-10,6.062500e-03
-6.851875e-10,6.187500e-03
-6.811875e-10,4.921875e-03
-6.771875e-10,5.671875e-03
-6.731875e-10,4.843750e-03
-6.691875e-10,5.859375e-03
-6.651875e-10,5.656250e-03
-6.611875e-10,5.406250e-03
-6.571875e-10,4.781250e-03
-6.531875e-10,5.078125e-03
-6.491875e-10,4.562500e-03
-6.451875e-10,4.562500e-03
-6.411875e-10,4.890625e-03
-6.371875e-10,4.984375e-03
-6.331875e-10,4.843750e-03
-6.291875e-10,4.343750e-03
-6.251875e-10,4.265625e-03
-6.211875e-10,4.593750e-03
-6.171875e-10,4.171875e-03
-6.131875e-10,4.703125e-03
-6.091875e-10,4.843750e-03
-6.051875e-10,4.968750e-03
-6.011875e-10,3.687500e-03
-5.971875e-10,4.453125e-03
-5.931875e-10,3.687500e-03
-5.891875e-10,4.718750e-03
-5.851875e-10,4.546875e-03
-5.811875e-10,4.312500e-03
-5.771875e-10,3.703125e-03
-5.731875e-10,4.031250e-03
-5.691875e-10,3.546875e-03
-5.651875e-10,3.562500e-03
-5.611875e-10,3.937500e-03
-5.571875e-10,4.046875e-03
-5.531875e-10,3.937500e-03
-5.491875e-10,3.484375e-03
-5.451875e-10,3.468750e-03
-5.411875e-10,3.843750e-03
-5.371875e-10,3.453125e-03
-5.331875e-10,4.046875e-03
-5.291875e-10,4.234375e-03
-5.251875e-10,4.406250e-03
-5.211875e-10,3.171875e-03
-5.171875e-10,3.968750e-03
-5.131875e-10,3.265625e-03
-5.091875e-10,4.375000e-03
-5.051875e-10,4.281250e-03
-5.011875e-10,4.093750e-03
-4.971875e-10,3.546875e-03
-4.931875e-10,3.937500e-03
-4.891875e-10,3.546875e-03
-4.851875e-10,3.609375e-03
-4.811875e-10,4.062500e-03
-4.771875e-10,4.250000e-03
-4.731875e-10,4.156250e-03
-4.691875e-10,3.812500e-03
-4.651875e-10,3.890625e-03
-4.611875e-10,4.375000e-03
-4.571875e-10,4.031250e-03
-4.531875e-10,4.734375e-03
-4.491875e-10,4.984375e-03
-4.451875e-10,5.250000e-03
-4.411875e-10,4.125000e-03
-4.371875e-10,4.953125e-03
-4.331875e-10,4.343750e-03
-4.291875e-10,5.531250e-03
-4.251875e-10,5.531250e-03
-4.211875e-10,5.406250e-03
-4.171875e-10,4.937500e-03
-4.131875e-10,5.406250e-03
-4.091875e-10,5.156250e-03
-4.051875e-10,5.234375e-03
-4.011875e-10,5.765625e-03
-3.971875e-10,6.031250e-03
-3.931875e-10,5.937500e-03
-3.891875e-10,5.671875e-03
-3.851875e-10,5.828125e-03
-3.811875e-10,6.375000e-03
-3.771875e-10,6.031250e-03
-3.731875e-10,6.765625e-03
-3.691875e-10,7.078125e-03
-3.651875e-10,7.343750e-03
-3.611875e-10,6.265625e-03
-3.571875e-10,7.078125e-03
-3.531875e-10,6.453125e-03
-3.491875e-10,7.640625e-03
-3.451875e-10,7.609375e-03
-3.411875e-10,7.453125e-03
-3.371875e-10,6.968750e-03
-3.331875e-10,7.390625e-03
-3.291875e-10,7.093750e-03
-3.251875e-10,7.078125e-03
-3.211875e-10,7.531250e-03
-3.171875e-10,7.703125e-03
-3.131875e-10,7.500000e-03
-3.091875e-10,7.140625e-03
-3.051875e-10,7.171875e-03
-3.011875e-10,7.578125e-03
-2.971875e-10,7.125000e-03
-2.931875e-10,7.687500e-03
-2.891875e-10,7.859375e-03
-2.851875e-10,7.968750e-03
-2.811875e-10,6.734375e-03
-2.771875e-10,7.359375e-03
-2.731875e-10,6.531250e-03
-2.691875e-10,7.546875e-03
-2.651875e-10,7.296875e-03
-2.611875e-10,6.953125e-03
-2.571875e-10,6.281250e-03
-2.531875e-10,6.531250e-03
-2.491875e-10,6.015625e-03
-2.451875e-10,5.812500e-03
-2.411875e-10,6.046875e-03
-2.371875e-10,6.031250e-03
-2.331875e-10,5.625000e-03
-2.291875e-10,5.125000e-03
-2.251875e-10,4.953125e-03
-2.211875e-10,5.171875e-03
-2.171875e-10,4.593750e-03
-2.131875e-10,4.984375e-03
-2.091875e-10,5.031250e-03
-2.051875e-10,5.031250e-03
-2.011875e-10,3.734375e-03
-1.971875e-10,4.296875e-03
-1.931875e-10,3.375000e-03
-1.891875e-10,4.390625e-03
-1.851875e-10,4.078125e-03
-1.811875e-10,3.765625e-03
-1.771875e-10,3.171875e-03
-1.731875e-10,3.484375e-03
-1.691875e-10,3.046875e-03
-1.651875e-10,3.015625e-03
-1.611875e-10,3.390625e-03
-1.571875e-10,3.578125e-03
-1.531875e-10,3.421875e-03
-1.491875e-10,3.187500e-03
-1.451875e-10,3.312500e-03
-1.411875e-10,3.828125e-03
-1.371875e-10,3.640625e-03
-1.331875e-10,4.468750e-03
-1.291875e-10,4.968750e-03
-1.251875e-10,5.500000e-03
-1.211875e-10,4.765625e-03
-1.171875e-10,5.921875e-03
-1.131875e-10,5.593750e-03
-1.091875e-10,7.312500e-03
-1.051875e-10,7.703125e-03
-1.011875e-10,8.156250e-03
-9.718750e-11,8.359375e-03
-9.318750e-11,9.531250e-03
-8.918750e-11,1.000000e-02
-8.518750e-11,1.090625e-02
-8.118750e-11,1.225000e-02
-7.718750e-11,1.348438e-02
-7.318750e-11,1.435938e-02
-6.918750e-11,1.523438e-02
-6.518750e-11,1.648438e-02
-6.118750e-11,1.815625e-02
-5.718750e-11,1.917188e-02
-5.318750e-11,2.125000e-02
-4.918750e-11,2.300000e-02
-4.518750e-11,2.487500e-02
-4.118750e-11,2.548438e-02
-3.718750e-11,2.800000e-02
-3.318750e-11,2.906250e-02
-2.918750e-11,3.220313e-02
-2.518750e-11,3.398438e-02
-2.118750e-11,3.592188e-02
-1.718750e-11,3.757813e-02
-1.318750e-11,4.021875e-02
-9.187500e-12,4.217188e-02
-5.187500e-12,4.456250e-02
-1.187500e-12,4.740625e-02
2.812500e-12,5.017188e-02
6.812500e-12,5.251563e-02
1.081250e-11,5.487500e-02
1.481250e-11,5.759375e-02
1.881250e-11,6.068750e-02
2.281250e-11,6.314063e-02
2.681250e-11,6.664063e-02
3.081250e-11,6.975000e-02
3.481250e-11,7.300000e-02
3.881250e-11,7.493750e-02
4.281250e-11,7.873438e-02
4.681250e-11,8.101563e-02
5.081250e-11,8.532813e-02
5.481250e-11,8.820313e-02
5.881250e-11,9.121875e-02
6.281250e-11,9.385938e-02
6.681250e-11,9.739063e-02
7.081250e-11,1.002031e-01
7.481250e-11,1.033594e-01
7.881250e-11,1.068906e-01
8.281250e-11,1.103125e-01
8.681250e-11,1.131250e-01
9.081250e-11,1.158750e-01
9.481250e-11,1.189063e-01
9.881250e-11,1.222031e-01
1.028125e-10,1.247813e-01
1.068125e-10,1.282344e-01
1.108125e-10,1.312031e-01
1.148125e-10,1.342188e-01
1.188125e-10,1.357500e-01
1.228125e-10,1.390625e-01
1.268125e-10,1.407344e-01
1.308125e-10,1.442656e-01
1.348125e-10,1.462500e-01
1.388125e-10,1.482656e-01
1.428125e-10,1.497344e-01
1.468125e-10,1.519688e-01
1.508125e-10,1.533750e-01
1.548125e-10,1.550000e-01
1.588125e-10,1.568594e-01
1.628125e-10,1.585000e-01
1.668125e-10,1.593750e-01
1.708125e-10,1.600469e-01
1.748125e-10,1.609219e-01
1.788125e-10,1.619531e-01
1.828125e-10,1.621719e-01
1.868125e-10,1.631250e-01
1.908125e-10,1.634531e-01
1.948125e-10,1.637813e-01
1.988125e-10,1.625000e-01
2.028125e-10,1.629844e-01
2.068125e-10,1.617344e-01
2.108125e-10,1.622344e-01
2.148125e-10,1.611406e-01
2.188125e-10,1.600469e-01
2.228125e-10,1.583281e-01
2.268125e-10,1.573750e-01
2.308125e-10,1.555938e-01
2.348125e-10,1.540000e-01
2.388125e-10,1.526094e-01
2.428125e-10,1.510313e-01
2.468125e-10,1.487031e-01
2.508125e-10,1.461719e-01
2.548125e-10,1.439063e-01
2.588125e-10,1.418594e-01
2.628125e-10,1.390156e-01
2.668125e-10,1.369844e-01
2.708125e-10,1.344063e-01
2.748125e-10,1.319219e-01
2.788125e-10,1.278750e-01
2.828125e-10,1.257656e-01
2.868125e-10,1.220313e-01
2.908125e-10,1.201250e-01
2.948125e-10,1.167656e-01
2.988125e-10,1.135156e-01
3.028125e-10,1.097969e-01
3.068125e-10,1.070156e-01
3.108125e-10,1.035781e-01
3.148125e-10,1.004531e-01
3.188125e-10,9.765625e-02
3.228125e-10,9.484375e-02
3.268125e-10,9.150000e-02
3.308125e-10,8.807813e-02
3.348125e-10,8.509375e-02
3.388125e-10,8.251563e-02
3.428125e-10,7.925000e-02
3.468125e-10,7.696875e-02
3.508125e-10,7.435938e-02
3.548125e-10,7.196875e-02
3.588125e-10,6.818750e-02
3.628125e-10,6.648438e-02
3.668125e-10,6.332813e-02
3.708125e-10,6.209375e-02
3.748125e-10,5.959375e-02
3.788125e-10,5.728125e-02
3.828125e-10,5.465625e-02
3.868125e-10,5.309375e-02
3.908125e-10,5.093750e-02
3.948125e-10,4.920313e-02
3.988125e-10,4.789063e-02
4.028125e-10,4.659375e-02
4.068125e-10,4.490625e-02
4.108125e-10,4.318750e-02
4.148125e-10,4.190625e-02
4.188125e-10,4.110938e-02
4.228125e-10,3.962500e-02
4.268125e-10,3.914063e-02
4.308125e-10,3.837500e-02
4.348125e-10,3.778125e-02
4.388125e-10,3.579688e-02
4.428125e-10,3.587500e-02
4.468125e-10,3.448438e-02
4.508125e-10,3.496875e-02
4.548125e-10,3.418750e-02
4.588125e-10,3.348438e-02
4.628125e-10,3.242188e-02
4.668125e-10,3.235938e-02
4.708125e-10,3.160938e-02
4.748125e-10,3.123438e-02
4.788125e-10,3.117188e-02
4.828125e-10,3.104688e-02
4.868125e-10,3.050000e-02
4.908125e-10,2.979688e-02
4.948125e-10,2.943750e-02
4.988125e-10,2.948438e-02
5.028125e-10,2.873438e-02
5.068125e-10,2.889063e-02
5.108125e-10,2.868750e-02
5.148125e-10,2.851563e-02
5.188125e-10,2.692188e-02
5.228125e-10,2.729688e-02
5.268125e-10,2.612500e-02
5.308125e-10,2.675000e-02
5.348125e-10,2.606250e-02
5.388125e-10,2.532813e-02
5.428125e-10,2.420313e-02
5.468125e-10,2.401563e-02
5.508125e-10,2.306250e-02
5.548125e-10,2.245313e-02
5.588125e-10,2.212500e-02
5.628125e-10,2.170313e-02
5.668125e-10,2.084375e-02
5.708125e-10,1.978125e-02
5.748125e-10,1.910938e-02
5.788125e-10,1.876563e-02
5.828125e-10,1.765625e-02
5.868125e-10,1.742188e-02
5.908125e-10,1.689063e-02
5.948125e-10,1.634375e-02
5.988125e-10,1.445313e-02
6.028125e-10,1.450000e-02
6.068125e-10,1.306250e-02
6.108125e-10,1.348438e-02
6.148125e-10,1.260938e-02
6.188125e-10,1.168750e-02
6.228125e-10,1.045313e-02
6.268125e-10,1.021875e-02
6.308125e-10,9.203125e-03
6.348125e-10,8.593750e-03
6.388125e-10,8.359375e-03
6.428125e-10,8.062500e-03
6.468125e-10,7.390625e-03
6.508125e-10,6.515625e-03
6.548125e-10,6.125000e-03
6.588125e-10,6.078125e-03
6.628125e-10,5.312500e-03
6.668125e-10,5.500000e-03
6.708125e-10,5.437500e-03
6.748125e-10,5.312500e-03
6.788125e-10,3.937500e-03
6.828125e-10,4.484375e-03
6.868125e-10,3.625000e-03
6.908125e-10,4.625000e-03
6.948125e-10,4.359375e-03
6.988125e-10,4.062500e-03
7.028125e-10,3.406250e-03
7.068125e-10,3.828125e-03
7.108125e-10,3.406250e-03
7.148125e-10,3.390625e-03
7.188125e-10,3.796875e-03
7.228125e-10,4.093750e-03
7.268125e-10,4.015625e-03
7.308125e-10,3.703125e-03
7.348125e-10,3.859375e-03
7.388125e-10,4.328125e-03
7.428125e-10,4.062500e-03
7.468125e-10,4.750000e-03
7.508125e-10,5.140625e-03
7.548125e-10,5.390625e-03
7.588125e-10,4.406250e-03
7.628125e-10,5.265625e-03
7.668125e-10,4.687500e-03
7.708125e-10,6.000000e-03
7.748125e-10,5.937500e-03
7.788125e-10,5.875000e-03
7.828125e-10,5.359375e-03
7.868125e-10,5.906250e-03
7.908125e-10,5.578125e-03
7.948125e-10,5.625000e-03
7.988125e-10,6.093750e-03
8.028125e-10,6.359375e-03
8.068125e-10,6.281250e-03
8.108125e-10,5.921875e-03
8.148125e-10,5.984375e-03
8.188125e-10,6.406250e-03
8.228125e-10,6.078125e-03
8.268125e-10,6.671875e-03
8.308125e-10,6.937500e-03
8.348125e-10,7.046875e-03
8.388125e-10,5.984375e-03
8.428125e-10,6.703125e-03
8.468125e-10,5.968750e-03
8.508125e-10,7.203125e-03
8.548125e-10,7.046875e-03
8.588125e-10,6.890625e-03
8.628125e-10,6.312500e-03
8.668125e-10,6.750000e-03
8.708125e-10,6.375000e-03
8.748125e-10,6.421875e-03
8.788125e-10,6.875000e-03
8.828125e-10,7.093750e-03
8.868125e-10,7.031250e-03
8.908125e-10,6.718750e-03
8.948125e-10,6.796875e-03
8.988125e-10,7.328125e-03
9.028125e-10,7.109375e-03
9.068125e-10,7.812500e-03
9.108125e-10,8.171875e-03
9.148125e-10,8.437500e-03
9.188125e-10,7.531250e-03
9.228125e-10,8.421875e-03
9.268125e-10,7.828125e-03
9.308125e-10,9.265625e-03
9.348125e-10,9.312500e-03
9.388125e-10,9.328125e-03
9.428125e-10,8.968750e-03
9.468125e-10,9.578125e-03
9.508125e-10,9.421875e-03
9.548125e-10,9.656250e-03
9.588125e-10,1.032813e-02
9.628125e-10,1.065625e-02
9.668125e-10,1.075000e-02
9.708125e-10,1.059375e-02
9.748125e-10,1.078125e-02
9.788125e-10,1.143750e-02
9.828125e-10,1.129688e-02
9.868125e-10,1.206250e-02
9.908125e-10,1.243750e-02
9.948125e-10,1.275000e-02
9.988125e-10,1.184375e-02
1.002812e-09,1.271875e-02
1.006812e-09,1.206250e-02
1.010812e-09,1.339063e-02
1.014812e-09,1.331250e-02
1.018812e-09,1.318750e-02
1.022813e-09,1.267188e-02
1.026813e-09,1.309375e-02
1.030813e-09,1.273438e-02
1.034813e-09,1.276563e-02
1.038813e-09,1.317188e-02
1.042813e-09,1.323438e-02
1.046812e-09,1.303125e-02
1.050812e-09,1.256250e-02
1.054812e-09,1.242188e-02
1.058812e-09,1.275000e-02
1.062812e-09,1.226563e-02
1.066812e-09,1.270313e-02
1.070812e-09,1.273438e-02
1.074812e-09,1.270313e-02
1.078812e-09,1.145313e-02
1.082813e-09,1.203125e-02
1.086813e-09,1.103125e-02
1.090813e-09,1.201563e-02
1.094813e-09,1.162500e-02
1.098813e-09,1.120313e-02
1.102813e-09,1.040625e-02
1.106812e-09,1.057813e-02
1.110812e-09,9.968750e-03
1.114812e-09,9.765625e-03
1.118812e-09,9.968750e-03
1.122812e-09,9.906250e-03
1.126812e-09,9.531250e-03
1.130812e-09,8.937500e-03
1.134812e-09,8.718750e-03
1.138812e-09,8.968750e-03
1.142813e-09,8.421875e-03
1.146813e-09,8.828125e-03
1.150813e-09,8.890625e-03
1.154813e-09,8.906250e-03
1.158813e-09,7.703125e-03
1.162813e-09,8.390625e-03
1.166812e-09,7.500000e-03
1.170812e-09,8.609375e-03
1.174812e-09,8.359375e-03
1.178812e-09,8.109375e-03
1.182812e-09,7.484375e-03
1.186812e-09,7.875000e-03
1.190812e-09,7.468750e-03
1.194812e-09,7.484375e-03
1.198812e-09,7.921875e-03
1.202812e-09,8.125000e-03
1.206813e-09,7.968750e-03
1.210813e-09,7.640625e-03
1.214813e-09,7.671875e-03
1.218813e-09,8.156250e-03
1.222813e-09,7.843750e-03
1.226812e-09,8.515625e-03
1.230812e-09,8.812500e-03
1.234812e-09,9.078125e-03
1.238812e-09,8.046875e-03
1.242812e-09,8.937500e-03
1.246812e-09,8.234375e-03
1.250812e-09,9.531250e-03
1.254812e-09,9.437500e-03
1.258812e-09,9.343750e-03
1.262812e-09,8.843750e-03
1.266813e-09,9.328125e-03
1.270813e-09,9.031250e-03
1.274813e-09,9.125000e-03
1.278813e-09,9.609375e-03
1.282813e-09,9.875000e-03
1.286812e-09,9.750000e-03
1.290812e-09,9.421875e-03
1.294812e-09,9.468750e-03
1.298812e-09,9.937500e-03
1.302812e-09,9.593750e-03
1.306812e-09,1.021875e-02
1.310812e-09,1.045313e-02
1.314812e-09,1.068750e-02
1.318812e-09,9.546875e-03
1.322812e-09,1.035938e-02
1.326813e-09,9.562500e-03
1.330813e-09,1.078125e-02
1.334813e-09,1.059375e-02
1.338813e-09,1.039063e-02
1.342813e-09,9.781250e-03
1.346812e-09,1.017188e-02
1.350812e-09,9.765625e-03
1.354812e-09,9.750000e-03
1.358812e-09,1.014063e-02
1.362812e-09,1.032813e-02
1.366812e-09,1.009375e-02
1.370812e-09,9.687500e-03
1.374812e-09,9.656250e-03
1.378812e-09,1.003125e-02
1.382812e-09,9.609375e-03
1.386813e-09,1.018750e-02
1.390813e-09,1.035938e-02
1.394813e-09,1.053125e-02
1.398813e-09,9.328125e-03
1.402813e-09,1.010938e-02
1.406812e-09,9.281250e-03
1.410812e-09,1.046875e-02
1.414812e-09,1.023438e-02
1.418812e-09,1.001563e-02
1.422812e-09,9.375000e-03
1.426812e-09,9.765625e-03
1.430812e-09,9.343750e-03
1.434812e-09,9.312500e-03
1.438812e-09,9.687500e-03
1.442812e-09,9.859375e-03
1.446813e-09,9.625000e-03
1.450813e-09,9.187500e-03
1.454813e-09,9.156250e-03
1.458813e-09,9.531250e-03
1.462813e-09,9.078125e-03
1.466812e-09,9.640625e-03
1.470812e-09,9.812500e-03
1.474812e-09,9.968750e-03
1.478812e-09,8.718750e-03
1.482812e-09,9.468750e-03
1.486812e-09,8.609375e-03
1.490812e-09,9.765625e-03
1.494812e-09,9.500000e-03
1.498812e-09,9.234375e-03
1.502812e-09,8.562500e-03
1.506813e-09,8.906250e-03
1.510813e-09,8.437500e-03
1.514813e-09,8.375000e-03
1.518813e-09,8.718750e-03
1.522813e-09,8.859375e-03
1.526812e-09,8.593750e-03
1.530812e-09,8.109375e-03
1.534812e-09,8.062500e-03
1.538812e-09,8.390625e-03
1.542812e-09,7.937500e-03
1.546812e-09,8.484375e-03
1.550812e-09,8.640625e-03
1.554812e-09,8.796875e-03
1.558812e-09,7.546875e-03
1.562812e-09,8.328125e-03
1.566813e-09,7.500000e-03
1.570813e-09,8.687500e-03
1.574813e-09,8.468750e-03
1.578813e-09,8.265625e-03
1.582813e-09,7.656250e-03
1.586812e-09,8.078125e-03
1.590812e-09,7.687500e-03
1.594812e-09,7.718750e-03
1.598812e-09,8.156250e-03
1.602812e-09,8.406250e-03
1.606812e-09,8.250000e-03
1.610812e-09,7.906250e-03
1.614812e-09,7.968750e-03
1.618812e-09,8.437500e-03
1.622812e-09,8.125000e-03
1.626813e-09,8.796875e-03
1.630813e-09,9.093750e-03
1.634813e-09,9.390625e-03
1.638813e-09,8.265625e-03
1.642813e-09,9.171875e-03
1.646812e-09,8.453125e-03
1.650812e-09,9.765625e-03
1.654812e-09,9.656250e-03
1.658812e-09,9.531250e-03
1.662812e-09,9.015625e-03
1.666812e-09,9.500000e-03
1.670812e-09,9.156250e-03
1.674812e-09,9.218750e-03
1.678812e-09,9.671875e-03
1.682812e-09,9.906250e-03
1.686813e-09,9.734375e-03
1.690813e-09,9.343750e-03
1.694813e-09,9.343750e-03
1.698813e-09,9.734375e-03
1.702813e-09,9.296875e-03
1.706812e-09,9.843750e-03
1.710812e-09,9.968750e-03
1.714812e-09,1.009375e-02
1.718812e-09,8.765625e-03
1.722812e-09,9.453125e-03
1.726812e-09,8.500000e-03
1.730812e-09,9.546875e-03
1.734812e-09,9.156250e-03
1.738812e-09,8.750000e-03
1.742812e-09,7.921875e-03
1.746813e-09,8.093750e-03
1.750813e-09,7.437500e-03
1.754813e-09,7.171875e-03
1.758813e-09,7.296875e-03
