Measurements-streak-laser/Photodiode-on-Tek-12bit-4GHz/Tek000_ch1_20190613132937907.csv

Model,MSO64
Waveform Type,ANALOG
Horizontal Units,s
Sample Interval,4.000000e-12
Record Length,1000
Zero Index,310.375000
Vertical Units,V

TIME,CH1
-1.241500e-09,4.906250e-03
-1.237500e-09,5.968750e-03
-1.233500e-09,5.406250e-03
-1.229500e-09,6.875000e-03
-1.225500e-09,6.921875e-03
-1.221500e-09,6.968750e-03
-1.217500e-09,6.625000e-03
-1.213500e-09,7.281250e-03
-1.209500e-09,7.125000e-03
-1.205500e-09,7.359375e-03
-1.201500e-09,8.000000e-03
-1.197500e-09,8.437500e-03
-1.193500e-09,8.453125e-03
-1.189500e-09,8.265625e-03
-1.185500e-09,8.468750e-03
-1.181500e-09,9.062500e-03
-1.177500e-09,8.843750e-03
-1.173500e-09,9.625000e-03
-1.169500e-09,1.000000e-02
-1.165500e-09,1.034375e-02
-1.161500e-09,9.281250e-03
-1.157500e-09,1.021875e-02
-1.153500e-09,9.531250e-03
-1.149500e-09,1.084375e-02
-1.145500e-09,1.073438e-02
-1.141500e-09,1.062500e-02
-1.137500e-09,1.007813e-02
-1.133500e-09,1.054688e-02
-1.129500e-09,1.018750e-02
-1.125500e-09,1.021875e-02
-1.121500e-09,1.064063e-02
-1.117500e-09,1.085938e-02
-1.113500e-09,1.065625e-02
-1.109500e-09,1.025000e-02
-1.105500e-09,1.021875e-02
-1.101500e-09,1.059375e-02
-1.097500e-09,1.015625e-02
-1.093500e-09,1.070313e-02
-1.089500e-09,1.085938e-02
-1.085500e-09,1.098438e-02
-1.081500e-09,9.703125e-03
-1.077500e-09,1.043750e-02
-1.073500e-09,9.546875e-03
-1.069500e-09,1.065625e-02
-1.065500e-09,1.035938e-02
-1.061500e-09,1.006250e-02
-1.057500e-09,9.343750e-03
-1.053500e-09,9.625000e-03
-1.049500e-09,9.109375e-03
-1.045500e-09,9.000000e-03
-1.041500e-09,9.281250e-03
-1.037500e-09,9.359375e-03
-1.033500e-09,9.046875e-03
-1.029500e-09,8.515625e-03
-1.025500e-09,8.390625e-03
-1.021500e-09,8.671875e-03
-1.017500e-09,8.140625e-03
-1.013500e-09,8.625000e-03
-1.009500e-09,8.703125e-03
-1.005500e-09,8.796875e-03
-1.001500e-09,7.468750e-03
-9.975000e-10,8.171875e-03
-9.935000e-10,7.250000e-03
-9.895000e-10,8.359375e-03
-9.855000e-10,8.046875e-03
-9.815000e-10,7.765625e-03
-9.775000e-10,7.062500e-03
-9.735000e-10,7.390625e-03
-9.695000e-10,6.906250e-03
-9.655000e-10,6.843750e-03
-9.615000e-10,7.187500e-03
-9.575000e-10,7.328125e-03
-9.535000e-10,7.078125e-03
-9.495000e-10,6.640625e-03
-9.455000e-10,6.609375e-03
-9.415000e-10,6.984375e-03
-9.375000e-10,6.562500e-03
-9.335000e-10,7.156250e-03
-9.295000e-10,7.343750e-03
-9.255000e-10,7.562500e-03
-9.215000e-10,6.375000e-03
-9.175000e-10,7.187500e-03
-9.135000e-10,6.406250e-03
-9.095000e-10,7.625000e-03
-9.055000e-10,7.468750e-03
-9.015000e-10,7.312500e-03
-8.975000e-10,6.765625e-03
-8.935000e-10,7.218750e-03
-8.895000e-10,6.875000e-03
-8.855000e-10,6.953125e-03
-8.815000e-10,7.421875e-03
-8.775000e-10,7.703125e-03
-8.735000e-10,7.578125e-03
-8.695000e-10,7.250000e-03
-8.655000e-10,7.328125e-03
-8.615000e-10,7.812500e-03
-8.575000e-10,7.484375e-03
-8.535000e-10,8.171875e-03
-8.495000e-10,8.453125e-03
-8.455000e-10,8.718750e-03
-8.415000e-10,7.609375e-03
-8.375000e-10,8.484375e-03
-8.335000e-10,7.734375e-03
-8.295000e-10,8.921875e-03
-8.255000e-10,8.796875e-03
-8.215000e-10,8.640625e-03
-8.175000e-10,8.109375e-03
-8.135000e-10,8.531250e-03
-8.095000e-10,8.140625e-03
-8.055000e-10,8.171875e-03
-8.015000e-10,8.578125e-03
-7.975000e-10,8.750000e-03
-7.935000e-10,8.578125e-03
-7.895000e-10,8.140625e-03
-7.855000e-10,8.093750e-03
-7.815000e-10,8.453125e-03
-7.775000e-10,7.984375e-03
-7.735000e-10,8.515625e-03
-7.695000e-10,8.640625e-03
-7.655000e-10,8.750000e-03
-7.615000e-10,7.484375e-03
-7.575000e-10,8.187500e-03
-7.535000e-10,7.265625e-03
-7.495000e-10,8.250000e-03
-7.455000e-10,7.968750e-03
-7.415000e-10,7.640625e-03
-7.375000e-10,6.937500e-03
-7.335000e-10,7.156250e-03
-7.295000e-10,6.578125e-03
-7.255000e-10,6.468750e-03
-7.215000e-10,6.703125e-03
-7.175000e-10,6.718750e-03
-7.135000e-10,6.437500e-03
-7.095000e-10,5.859375e-03
-7.055000e-10,5.687500e-03
-7.015000e-10,5.921875e-03
-6.975000e-10,5.390625e-03
-6.935000e-10,5.828125e-03
-6.895000e-10,5.890625e-03
-6.855000e-10,5.937500e-03
-6.815000e-10,4.625000e-03
-6.775000e-10,5.312500e-03
-6.735000e-10,4.437500e-03
-6.695000e-10,5.421875e-03
-6.655000e-10,5.187500e-03
-6.615000e-10,4.921875e-03
-6.575000e-10,4.296875e-03
-6.535000e-10,4.609375e-03
-6.495000e-10,4.125000e-03
-6.455000e-10,4.156250e-03
-6.415000e-10,4.531250e-03
-6.375000e-10,4.687500e-03
-6.335000e-10,4.609375e-03
-6.295000e-10,4.203125e-03
-6.255000e-10,4.218750e-03
-6.215000e-10,4.656250e-03
-6.175000e-10,4.343750e-03
-6.135000e-10,5.000000e-03
-6.095000e-10,5.296875e-03
-6.055000e-10,5.562500e-03
-6.015000e-10,4.453125e-03
-5.975000e-10,5.390625e-03
-5.935000e-10,4.781250e-03
-5.895000e-10,5.984375e-03
-5.855000e-10,5.984375e-03
-5.815000e-10,5.937500e-03
-5.775000e-10,5.515625e-03
-5.735000e-10,6.015625e-03
-5.695000e-10,5.734375e-03
-5.655000e-10,5.921875e-03
-5.615000e-10,6.468750e-03
-5.575000e-10,6.750000e-03
-5.535000e-10,6.796875e-03
-5.495000e-10,6.515625e-03
-5.455000e-10,6.640625e-03
-5.415000e-10,7.156250e-03
-5.375000e-10,6.890625e-03
-5.335000e-10,7.609375e-03
-5.295000e-10,7.890625e-03
-5.255000e-10,8.156250e-03
-5.215000e-10,7.015625e-03
-5.175000e-10,7.859375e-03
-5.135000e-10,7.203125e-03
-5.095000e-10,8.328125e-03
-5.055000e-10,8.250000e-03
-5.015000e-10,8.062500e-03
-4.975000e-10,7.500000e-03
-4.935000e-10,7.843750e-03
-4.895000e-10,7.421875e-03
-4.855000e-10,7.406250e-03
-4.815000e-10,7.781250e-03
-4.775000e-10,7.859375e-03
-4.735000e-10,7.656250e-03
-4.695000e-10,7.171875e-03
-4.655000e-10,7.125000e-03
-4.615000e-10,7.437500e-03
-4.575000e-10,6.937500e-03
-4.535000e-10,7.468750e-03
-4.495000e-10,7.546875e-03
-4.455000e-10,7.625000e-03
-4.415000e-10,6.312500e-03
-4.375000e-10,6.953125e-03
-4.335000e-10,6.140625e-03
-4.295000e-10,7.140625e-03
-4.255000e-10,6.953125e-03
-4.215000e-10,6.625000e-03
-4.175000e-10,5.968750e-03
-4.135000e-10,6.265625e-03
-4.095000e-10,5.828125e-03
-4.055000e-10,5.750000e-03
-4.015000e-10,6.140625e-03
-3.975000e-10,6.250000e-03
-3.935000e-10,6.046875e-03
-3.895000e-10,5.656250e-03
-3.855000e-10,5.718750e-03
-3.815000e-10,6.171875e-03
-3.775000e-10,5.796875e-03
-3.735000e-10,6.468750e-03
-3.695000e-10,6.750000e-03
-3.655000e-10,7.015625e-03
-3.615000e-10,5.953125e-03
-3.575000e-10,6.796875e-03
-3.535000e-10,6.218750e-03
-3.495000e-10,7.484375e-03
-3.455000e-10,7.546875e-03
-3.415000e-10,7.500000e-03
-3.375000e-10,7.156250e-03
-3.335000e-10,7.734375e-03
-3.295000e-10,7.593750e-03
-3.255000e-10,7.781250e-03
-3.215000e-10,8.421875e-03
-3.175000e-10,8.796875e-03
-3.135000e-10,8.828125e-03
-3.095000e-10,8.718750e-03
-3.055000e-10,8.984375e-03
-3.015000e-10,9.656250e-03
-2.975000e-10,9.453125e-03
-2.935000e-10,1.028125e-02
-2.895000e-10,1.071875e-02
-2.855000e-10,1.109375e-02
-2.815000e-10,1.014063e-02
-2.775000e-10,1.103125e-02
-2.735000e-10,1.046875e-02
-2.695000e-10,1.173438e-02
-2.655000e-10,1.171875e-02
-2.615000e-10,1.162500e-02
-2.575000e-10,1.118750e-02
-2.535000e-10,1.164063e-02
-2.495000e-10,1.132813e-02
-2.455000e-10,1.131250e-02
-2.415000e-10,1.170313e-02
-2.375000e-10,1.182813e-02
-2.335000e-10,1.156250e-02
-2.295000e-10,1.115625e-02
-2.255000e-10,1.107813e-02
-2.215000e-10,1.135938e-02
-2.175000e-10,1.081250e-02
-2.135000e-10,1.123438e-02
-2.095000e-10,1.126563e-02
-2.055000e-10,1.123438e-02
-2.015000e-10,9.890625e-03
-1.975000e-10,1.037500e-02
-1.935000e-10,9.359375e-03
-1.895000e-10,1.025000e-02
-1.855000e-10,9.812500e-03
-1.815000e-10,9.343750e-03
-1.775000e-10,8.562500e-03
-1.735000e-10,8.687500e-03
-1.695000e-10,8.046875e-03
-1.655000e-10,7.781250e-03
-1.615000e-10,7.921875e-03
-1.575000e-10,7.859375e-03
-1.535000e-10,7.437500e-03
-1.495000e-10,6.953125e-03
-1.455000e-10,6.796875e-03
-1.415000e-10,7.046875e-03
-1.375000e-10,6.578125e-03
-1.335000e-10,7.125000e-03
-1.295000e-10,7.328125e-03
-1.255000e-10,7.578125e-03
-1.215000e-10,6.578125e-03
-1.175000e-10,7.468750e-03
-1.135000e-10,6.890625e-03
-1.095000e-10,8.343750e-03
-1.055000e-10,8.500000e-03
-1.015000e-10,8.718750e-03
-9.750000e-11,8.718750e-03
-9.350000e-11,9.687500e-03
-8.950000e-11,9.953125e-03
-8.550000e-11,1.070313e-02
-8.150000e-11,1.189063e-02
-7.750000e-11,1.298438e-02
-7.350000e-11,1.375000e-02
-6.950000e-11,1.451563e-02
-6.550000e-11,1.568750e-02
-6.150000e-11,1.728125e-02
-5.750000e-11,1.825000e-02
-5.350000e-11,2.029688e-02
-4.950000e-11,2.203125e-02
-4.550000e-11,2.390625e-02
-4.150000e-11,2.453125e-02
-3.750000e-11,2.707813e-02
-3.350000e-11,2.817188e-02
-2.950000e-11,3.135938e-02
-2.550000e-11,3.320313e-02
-2.150000e-11,3.521875e-02
-1.750000e-11,3.693750e-02
-1.350000e-11,3.965625e-02
-9.500000e-12,4.170313e-02
-5.500000e-12,4.417188e-02
-1.500000e-12,4.710938e-02
2.500000e-12,4.995313e-02
6.500000e-12,5.237500e-02
1.050000e-11,5.481250e-02
1.450000e-11,5.759375e-02
1.850000e-11,6.075000e-02
2.250000e-11,6.325000e-02
2.650000e-11,6.678125e-02
3.050000e-11,6.992188e-02
3.450000e-11,7.317188e-02
3.850000e-11,7.509375e-02
4.250000e-11,7.887500e-02
4.650000e-11,8.110938e-02
5.050000e-11,8.535938e-02
5.450000e-11,8.815625e-02
5.850000e-11,9.109375e-02
6.250000e-11,9.360938e-02
6.650000e-11,9.700000e-02
7.050000e-11,9.965625e-02
7.450000e-11,1.026406e-01
7.850000e-11,1.059844e-01
8.250000e-11,1.091719e-01
8.650000e-11,1.117656e-01
9.050000e-11,1.142656e-01
9.450000e-11,1.170313e-01
9.850000e-11,1.200625e-01
1.025000e-10,1.223594e-01
1.065000e-10,1.255313e-01
1.105000e-10,1.281875e-01
1.145000e-10,1.308906e-01
1.185000e-10,1.321094e-01
1.225000e-10,1.351094e-01
1.265000e-10,1.364688e-01
1.305000e-10,1.396875e-01
1.345000e-10,1.413438e-01
1.385000e-10,1.430625e-01
1.425000e-10,1.442500e-01
1.465000e-10,1.462031e-01
1.505000e-10,1.473438e-01
1.545000e-10,1.487188e-01
1.585000e-10,1.503438e-01
1.625000e-10,1.517656e-01
1.665000e-10,1.524531e-01
1.705000e-10,1.529844e-01
1.745000e-10,1.537188e-01
1.785000e-10,1.546406e-01
1.825000e-10,1.547656e-01
1.865000e-10,1.556719e-01
1.905000e-10,1.560000e-01
1.945000e-10,1.563438e-01
1.985000e-10,1.551250e-01
2.025000e-10,1.556875e-01
2.065000e-10,1.545625e-01
2.105000e-10,1.552344e-01
2.145000e-10,1.543438e-01
2.185000e-10,1.534688e-01
2.225000e-10,1.520469e-01
2.265000e-10,1.513906e-01
2.305000e-10,1.499531e-01
2.345000e-10,1.487344e-01
2.385000e-10,1.477344e-01
2.425000e-10,1.465781e-01
2.465000e-10,1.447188e-01
2.505000e-10,1.426875e-01
2.545000e-10,1.409375e-01
2.585000e-10,1.394219e-01
2.625000e-10,1.371250e-01
2.665000e-10,1.356719e-01
2.705000e-10,1.336875e-01
2.745000e-10,1.317969e-01
2.785000e-10,1.283906e-01
2.825000e-10,1.268906e-01
2.865000e-10,1.237813e-01
2.905000e-10,1.225000e-01
2.945000e-10,1.197813e-01
2.985000e-10,1.171563e-01
3.025000e-10,1.140625e-01
3.065000e-10,1.119063e-01
3.105000e-10,1.090625e-01
3.145000e-10,1.065156e-01
3.185000e-10,1.042969e-01
3.225000e-10,1.020313e-01
3.265000e-10,9.921875e-02
3.305000e-10,9.631250e-02
3.345000e-10,9.381250e-02
3.385000e-10,9.168750e-02
3.425000e-10,8.885938e-02
3.465000e-10,8.698438e-02
3.505000e-10,8.475000e-02
3.545000e-10,8.270313e-02
3.585000e-10,7.923438e-02
3.625000e-10,7.781250e-02
3.665000e-10,7.490625e-02
3.705000e-10,7.387500e-02
3.745000e-10,7.156250e-02
3.785000e-10,6.940625e-02
3.825000e-10,6.689063e-02
3.865000e-10,6.540625e-02
3.905000e-10,6.331250e-02
3.945000e-10,6.159375e-02
3.985000e-10,6.026563e-02
4.025000e-10,5.893750e-02
4.065000e-10,5.718750e-02
4.105000e-10,5.537500e-02
4.145000e-10,5.398438e-02
4.185000e-10,5.304688e-02
4.225000e-10,5.142188e-02
4.265000e-10,5.076563e-02
4.305000e-10,4.979688e-02
4.345000e-10,4.898438e-02
4.385000e-10,4.678125e-02
4.425000e-10,4.664063e-02
4.465000e-10,4.498438e-02
4.505000e-10,4.521875e-02
4.545000e-10,4.417188e-02
4.585000e-10,4.320313e-02
4.625000e-10,4.187500e-02
4.665000e-10,4.153125e-02
4.705000e-10,4.051563e-02
4.745000e-10,3.985938e-02
4.785000e-10,3.953125e-02
4.825000e-10,3.912500e-02
4.865000e-10,3.831250e-02
4.905000e-10,3.734375e-02
4.945000e-10,3.675000e-02
4.985000e-10,3.653125e-02
5.025000e-10,3.556250e-02
5.065000e-10,3.546875e-02
5.105000e-10,3.504688e-02
5.145000e-10,3.465625e-02
5.185000e-10,3.287500e-02
5.225000e-10,3.304688e-02
5.265000e-10,3.168750e-02
5.305000e-10,3.214063e-02
5.345000e-10,3.128125e-02
5.385000e-10,3.039063e-02
5.425000e-10,2.912500e-02
5.465000e-10,2.879688e-02
5.505000e-10,2.771875e-02
5.545000e-10,2.698438e-02
5.585000e-10,2.653125e-02
5.625000e-10,2.601563e-02
5.665000e-10,2.504688e-02
5.705000e-10,2.390625e-02
5.745000e-10,2.314063e-02
5.785000e-10,2.270313e-02
5.825000e-10,2.153125e-02
5.865000e-10,2.123438e-02
5.905000e-10,2.062500e-02
5.945000e-10,2.003125e-02
5.985000e-10,1.809375e-02
6.025000e-10,1.807813e-02
6.065000e-10,1.660938e-02
6.105000e-10,1.698438e-02
6.145000e-10,1.606250e-02
6.185000e-10,1.512500e-02
6.225000e-10,1.385938e-02
6.265000e-10,1.360938e-02
6.305000e-10,1.257813e-02
6.345000e-10,1.195313e-02
6.385000e-10,1.171875e-02
6.425000e-10,1.142188e-02
6.465000e-10,1.075000e-02
6.505000e-10,9.890625e-03
6.545000e-10,9.531250e-03
6.585000e-10,9.500000e-03
6.625000e-10,8.781250e-03
6.665000e-10,9.000000e-03
6.705000e-10,8.968750e-03
6.745000e-10,8.906250e-03
6.785000e-10,7.609375e-03
6.825000e-10,8.234375e-03
6.865000e-10,7.453125e-03
6.905000e-10,8.546875e-03
6.945000e-10,8.359375e-03
6.985000e-10,8.187500e-03
7.025000e-10,7.656250e-03
7.065000e-10,8.203125e-03
7.105000e-10,7.921875e-03
7.145000e-10,8.031250e-03
7.185000e-10,8.593750e-03
7.225000e-10,9.031250e-03
7.265000e-10,9.109375e-03
7.305000e-10,8.968750e-03
7.345000e-10,9.281250e-03
7.385000e-10,9.921875e-03
7.425000e-10,9.843750e-03
7.465000e-10,1.068750e-02
7.505000e-10,1.123438e-02
7.545000e-10,1.165625e-02
7.585000e-10,1.084375e-02
7.625000e-10,1.185938e-02
7.665000e-10,1.143750e-02
7.705000e-10,1.289063e-02
7.745000e-10,1.296875e-02
7.785000e-10,1.303125e-02
7.825000e-10,1.265625e-02
7.865000e-10,1.328125e-02
7.905000e-10,1.304688e-02
7.945000e-10,1.317188e-02
7.985000e-10,1.368750e-02
8.025000e-10,1.400000e-02
8.065000e-10,1.393750e-02
8.105000e-10,1.357813e-02
8.145000e-10,1.364063e-02
8.185000e-10,1.401563e-02
8.225000e-10,1.362500e-02
8.265000e-10,1.412500e-02
8.305000e-10,1.428125e-02
8.345000e-10,1.428125e-02
8.385000e-10,1.304688e-02
8.425000e-10,1.360938e-02
8.465000e-10,1.268750e-02
8.505000e-10,1.368750e-02
8.545000e-10,1.329688e-02
8.585000e-10,1.289063e-02
8.625000e-10,1.203125e-02
8.665000e-10,1.217188e-02
8.705000e-10,1.150000e-02
8.745000e-10,1.121875e-02
8.785000e-10,1.134375e-02
8.825000e-10,1.120313e-02
8.865000e-10,1.079688e-02
8.905000e-10,1.010938e-02
8.945000e-10,9.828125e-03
8.985000e-10,9.968750e-03
9.025000e-10,9.375000e-03
9.065000e-10,9.687500e-03
9.105000e-10,9.671875e-03
9.145000e-10,9.578125e-03
9.185000e-10,8.312500e-03
9.225000e-10,8.843750e-03
9.265000e-10,7.921875e-03
9.305000e-10,9.000000e-03
9.345000e-10,8.734375e-03
9.385000e-10,8.453125e-03
9.425000e-10,7.812500e-03
9.465000e-10,8.156250e-03
9.505000e-10,7.765625e-03
9.545000e-10,7.796875e-03
9.585000e-10,8.250000e-03
9.625000e-10,8.421875e-03
9.665000e-10,8.390625e-03
9.705000e-10,8.109375e-03
9.745000e-10,8.203125e-03
9.785000e-10,8.796875e-03
9.825000e-10,8.609375e-03
9.865000e-10,9.375000e-03
9.905000e-10,9.765625e-03
9.945000e-10,1.012500e-02
9.985000e-10,9.296875e-03
1.002500e-09,1.026563e-02
1.006500e-09,9.718750e-03
1.010500e-09,1.118750e-02
1.014500e-09,1.128125e-02
1.018500e-09,1.134375e-02
1.022500e-09,1.101563e-02
1.026500e-09,1.165625e-02
1.030500e-09,1.153125e-02
1.034500e-09,1.179688e-02
1.038500e-09,1.245313e-02
1.042500e-09,1.278125e-02
1.046500e-09,1.284375e-02
1.050500e-09,1.265625e-02
1.054500e-09,1.278125e-02
1.058500e-09,1.339063e-02
1.062500e-09,1.317188e-02
1.066500e-09,1.385938e-02
1.070500e-09,1.415625e-02
1.074500e-09,1.439063e-02
1.078500e-09,1.337500e-02
1.082500e-09,1.418750e-02
1.086500e-09,1.342188e-02
1.090500e-09,1.459375e-02
1.094500e-09,1.439063e-02
1.098500e-09,1.415625e-02
1.102500e-09,1.350000e-02
1.106500e-09,1.381250e-02
1.110500e-09,1.331250e-02
1.114500e-09,1.320313e-02
1.118500e-09,1.348438e-02
1.122500e-09,1.346875e-02
1.126500e-09,1.312500e-02
1.130500e-09,1.256250e-02
1.134500e-09,1.232813e-02
1.138500e-09,1.254688e-02
1.142500e-09,1.196875e-02
1.146500e-09,1.231250e-02
1.150500e-09,1.228125e-02
1.154500e-09,1.220313e-02
1.158500e-09,1.089063e-02
1.162500e-09,1.143750e-02
1.166500e-09,1.042188e-02
1.170500e-09,1.137500e-02
1.174500e-09,1.096875e-02
1.178500e-09,1.054688e-02
1.182500e-09,9.750000e-03
1.186500e-09,9.937500e-03
1.190500e-09,9.359375e-03
1.194500e-09,9.187500e-03
1.198500e-09,9.437500e-03
1.202500e-09,9.437500e-03
1.206500e-09,9.093750e-03
1.210500e-09,8.562500e-03
1.214500e-09,8.421875e-03
1.218500e-09,8.734375e-03
1.222500e-09,8.250000e-03
1.226500e-09,8.734375e-03
1.230500e-09,8.859375e-03
1.234500e-09,8.968750e-03
1.238500e-09,7.796875e-03
1.242500e-09,8.546875e-03
1.246500e-09,7.718750e-03
1.250500e-09,8.890625e-03
1.254500e-09,8.671875e-03
1.258500e-09,8.468750e-03
1.262500e-09,7.875000e-03
1.266500e-09,8.281250e-03
1.270500e-09,7.890625e-03
1.274500e-09,7.906250e-03
1.278500e-09,8.328125e-03
1.282500e-09,8.515625e-03
1.286500e-09,8.343750e-03
1.290500e-09,7.953125e-03
1.294500e-09,7.953125e-03
1.298500e-09,8.375000e-03
1.302500e-09,7.968750e-03
1.306500e-09,8.562500e-03
1.310500e-09,8.750000e-03
1.314500e-09,8.921875e-03
1.318500e-09,7.750000e-03
1.322500e-09,8.515625e-03
1.326500e-09,7.671875e-03
1.330500e-09,8.828125e-03
1.334500e-09,8.578125e-03
1.338500e-09,8.312500e-03
1.342500e-09,7.656250e-03
1.346500e-09,7.984375e-03
1.350500e-09,7.500000e-03
1.354500e-09,7.406250e-03
1.358500e-09,7.718750e-03
1.362500e-09,7.812500e-03
1.366500e-09,7.500000e-03
1.370500e-09,7.000000e-03
1.374500e-09,6.875000e-03
1.378500e-09,7.156250e-03
1.382500e-09,6.640625e-03
1.386500e-09,7.109375e-03
1.390500e-09,7.187500e-03
1.394500e-09,7.265625e-03
1.398500e-09,5.968750e-03
1.402500e-09,6.656250e-03
1.406500e-09,5.734375e-03
1.410500e-09,6.828125e-03
1.414500e-09,6.531250e-03
1.418500e-09,6.234375e-03
1.422500e-09,5.546875e-03
1.426500e-09,5.875000e-03
1.430500e-09,5.390625e-03
1.434500e-09,5.328125e-03
1.438500e-09,5.687500e-03
1.442500e-09,5.843750e-03
1.446500e-09,5.609375e-03
1.450500e-09,5.187500e-03
1.454500e-09,5.171875e-03
1.458500e-09,5.578125e-03
1.462500e-09,5.187500e-03
1.466500e-09,5.796875e-03
1.470500e-09,6.031250e-03
1.474500e-09,6.265625e-03
1.478500e-09,5.125000e-03
1.482500e-09,5.984375e-03
1.486500e-09,5.250000e-03
1.490500e-09,6.531250e-03
1.494500e-09,6.406250e-03
1.498500e-09,6.281250e-03
1.502500e-09,5.781250e-03
1.506500e-09,6.281250e-03
1.510500e-09,5.968750e-03
1.514500e-09,6.062500e-03
1.518500e-09,6.562500e-03
1.522500e-09,6.859375e-03
1.526500e-09,6.765625e-03
1.530500e-09,6.468750e-03
1.534500e-09,6.562500e-03
1.538500e-09,7.046875e-03
1.542500e-09,6.734375e-03
1.546500e-09,7.421875e-03
1.550500e-09,7.703125e-03
1.554500e-09,7.968750e-03
1.558500e-09,6.828125e-03
1.562500e-09,7.687500e-03
1.566500e-09,6.937500e-03
1.570500e-09,8.187500e-03
1.574500e-09,8.015625e-03
1.578500e-09,7.843750e-03
1.582500e-09,7.250000e-03
1.586500e-09,7.656250e-03
1.590500e-09,7.265625e-03
1.594500e-09,7.250000e-03
1.598500e-09,7.640625e-03
1.602500e-09,7.812500e-03
1.606500e-09,7.593750e-03
1.610500e-09,7.156250e-03
1.614500e-09,7.109375e-03
1.618500e-09,7.468750e-03
1.622500e-09,7.031250e-03
1.626500e-09,7.578125e-03
1.630500e-09,7.734375e-03
1.634500e-09,7.875000e-03
1.638500e-09,6.625000e-03
1.642500e-09,7.375000e-03
1.646500e-09,6.515625e-03
1.650500e-09,7.687500e-03
1.654500e-09,7.437500e-03
1.658500e-09,7.203125e-03
1.662500e-09,6.562500e-03
1.666500e-09,6.937500e-03
1.670500e-09,6.515625e-03
1.674500e-09,6.500000e-03
1.678500e-09,6.890625e-03
1.682500e-09,7.093750e-03
1.686500e-09,6.906250e-03
1.690500e-09,6.515625e-03
1.694500e-09,6.546875e-03
1.698500e-09,6.984375e-03
1.702500e-09,6.625000e-03
1.706500e-09,7.281250e-03
1.710500e-09,7.531250e-03
1.714500e-09,7.796875e-03
1.718500e-09,6.671875e-03
1.722500e-09,7.546875e-03
1.726500e-09,6.843750e-03
1.730500e-09,8.125000e-03
1.734500e-09,8.031250e-03
1.738500e-09,7.937500e-03
1.742500e-09,7.437500e-03
1.746500e-09,7.937500e-03
1.750500e-09,7.640625e-03
1.754500e-09,7.750000e-03
1.758500e-09,8.265625e-03
