Measurements-streak-laser/Photodiode-on-Tek-12bit-4GHz/Tek000_ch1_20190613133024841.csv

Model,MSO64
Waveform Type,ANALOG
Horizontal Units,s
Sample Interval,4.000000e-12
Record Length,1000
Zero Index,310.640625
Vertical Units,V

TIME,CH1
-1.242563e-09,4.484375e-03
-1.238562e-09,5.843750e-03
-1.234562e-09,5.796875e-03
-1.230562e-09,5.734375e-03
-1.226562e-09,5.265625e-03
-1.222562e-09,5.796875e-03
-1.218562e-09,5.531250e-03
-1.214562e-09,5.656250e-03
-1.210562e-09,6.171875e-03
-1.206562e-09,6.500000e-03
-1.202563e-09,6.390625e-03
-1.198563e-09,6.093750e-03
-1.194563e-09,6.171875e-03
-1.190563e-09,6.656250e-03
-1.186563e-09,6.328125e-03
-1.182563e-09,6.984375e-03
-1.178562e-09,7.234375e-03
-1.174562e-09,7.468750e-03
-1.170562e-09,6.281250e-03
-1.166562e-09,7.093750e-03
-1.162562e-09,6.281250e-03
-1.158562e-09,7.484375e-03
-1.154562e-09,7.250000e-03
-1.150562e-09,7.015625e-03
-1.146562e-09,6.359375e-03
-1.142563e-09,6.703125e-03
-1.138563e-09,6.218750e-03
-1.134563e-09,6.140625e-03
-1.130563e-09,6.453125e-03
-1.126563e-09,6.562500e-03
-1.122563e-09,6.250000e-03
-1.118562e-09,5.734375e-03
-1.114562e-09,5.609375e-03
-1.110562e-09,5.890625e-03
-1.106562e-09,5.359375e-03
-1.102562e-09,5.828125e-03
-1.098562e-09,5.890625e-03
-1.094562e-09,5.953125e-03
-1.090562e-09,4.609375e-03
-1.086562e-09,5.281250e-03
-1.082563e-09,4.328125e-03
-1.078563e-09,5.406250e-03
-1.074563e-09,5.078125e-03
-1.070563e-09,4.750000e-03
-1.066563e-09,4.031250e-03
-1.062563e-09,4.328125e-03
-1.058562e-09,3.812500e-03
-1.054562e-09,3.718750e-03
-1.050562e-09,4.046875e-03
-1.046562e-09,4.171875e-03
-1.042562e-09,3.906250e-03
-1.038562e-09,3.437500e-03
-1.034562e-09,3.406250e-03
-1.030562e-09,3.765625e-03
-1.026562e-09,3.343750e-03
-1.022563e-09,3.953125e-03
-1.018563e-09,4.156250e-03
-1.014563e-09,4.375000e-03
-1.010563e-09,3.187500e-03
-1.006563e-09,4.046875e-03
-1.002563e-09,3.281250e-03
-9.985625e-10,4.562500e-03
-9.945625e-10,4.421875e-03
-9.905625e-10,4.312500e-03
-9.865625e-10,3.796875e-03
-9.825625e-10,4.312500e-03
-9.785625e-10,4.015625e-03
-9.745625e-10,4.125000e-03
-9.705625e-10,4.656250e-03
-9.665625e-10,5.000000e-03
-9.625625e-10,4.921875e-03
-9.585625e-10,4.656250e-03
-9.545625e-10,4.796875e-03
-9.505625e-10,5.343750e-03
-9.465625e-10,5.078125e-03
-9.425625e-10,5.828125e-03
-9.385625e-10,6.171875e-03
-9.345625e-10,6.515625e-03
-9.305625e-10,5.437500e-03
-9.265625e-10,6.375000e-03
-9.225625e-10,5.687500e-03
-9.185625e-10,6.984375e-03
-9.145625e-10,6.906250e-03
-9.105625e-10,6.812500e-03
-9.065625e-10,6.312500e-03
-9.025625e-10,6.796875e-03
-8.985625e-10,6.468750e-03
-8.945625e-10,6.546875e-03
-8.905625e-10,7.015625e-03
-8.865625e-10,7.265625e-03
-8.825625e-10,7.109375e-03
-8.785625e-10,6.734375e-03
-8.745625e-10,6.765625e-03
-8.705625e-10,7.187500e-03
-8.665625e-10,6.781250e-03
-8.625625e-10,7.390625e-03
-8.585625e-10,7.578125e-03
-8.545625e-10,7.750000e-03
-8.505625e-10,6.546875e-03
-8.465625e-10,7.312500e-03
-8.425625e-10,6.468750e-03
-8.385625e-10,7.546875e-03
-8.345625e-10,7.328125e-03
-8.305625e-10,7.062500e-03
-8.265625e-10,6.437500e-03
-8.225625e-10,6.781250e-03
-8.185625e-10,6.312500e-03
-8.145625e-10,6.281250e-03
-8.105625e-10,6.609375e-03
-8.065625e-10,6.750000e-03
-8.025625e-10,6.531250e-03
-7.985625e-10,6.062500e-03
-7.945625e-10,6.015625e-03
-7.905625e-10,6.359375e-03
-7.865625e-10,5.921875e-03
-7.825625e-10,6.484375e-03
-7.785625e-10,6.656250e-03
-7.745625e-10,6.843750e-03
-7.705625e-10,5.656250e-03
-7.665625e-10,6.453125e-03
-7.625625e-10,5.640625e-03
-7.585625e-10,6.734375e-03
-7.545625e-10,6.593750e-03
-7.505625e-10,6.421875e-03
-7.465625e-10,5.890625e-03
-7.425625e-10,6.296875e-03
-7.385625e-10,5.906250e-03
-7.345625e-10,6.000000e-03
-7.305625e-10,6.437500e-03
-7.265625e-10,6.656250e-03
-7.225625e-10,6.609375e-03
-7.185625e-10,6.250000e-03
-7.145625e-10,6.281250e-03
-7.105625e-10,6.734375e-03
-7.065625e-10,6.421875e-03
-7.025625e-10,7.062500e-03
-6.985625e-10,7.343750e-03
-6.945625e-10,7.593750e-03
-6.905625e-10,6.484375e-03
-6.865625e-10,7.359375e-03
-6.825625e-10,6.656250e-03
-6.785625e-10,7.781250e-03
-6.745625e-10,7.687500e-03
-6.705625e-10,7.562500e-03
-6.665625e-10,7.046875e-03
-6.625625e-10,7.453125e-03
-6.585625e-10,7.031250e-03
-6.545625e-10,7.140625e-03
-6.505625e-10,7.546875e-03
-6.465625e-10,7.703125e-03
-6.425625e-10,7.656250e-03
-6.385625e-10,7.218750e-03
-6.345625e-10,7.187500e-03
-6.305625e-10,7.546875e-03
-6.265625e-10,7.171875e-03
-6.225625e-10,7.718750e-03
-6.185625e-10,7.906250e-03
-6.145625e-10,8.031250e-03
-6.105625e-10,6.781250e-03
-6.065625e-10,7.562500e-03
-6.025625e-10,6.781250e-03
-5.985625e-10,7.781250e-03
-5.945625e-10,7.609375e-03
-5.905625e-10,7.375000e-03
-5.865625e-10,6.765625e-03
-5.825625e-10,7.062500e-03
-5.785625e-10,6.546875e-03
-5.745625e-10,6.562500e-03
-5.705625e-10,6.906250e-03
-5.665625e-10,6.984375e-03
-5.625625e-10,6.875000e-03
-5.585625e-10,6.406250e-03
-5.545625e-10,6.359375e-03
-5.505625e-10,6.703125e-03
-5.465625e-10,6.328125e-03
-5.425625e-10,6.906250e-03
-5.385625e-10,7.062500e-03
-5.345625e-10,7.234375e-03
-5.305625e-10,6.000000e-03
-5.265625e-10,6.796875e-03
-5.225625e-10,6.125000e-03
-5.185625e-10,7.187500e-03
-5.145625e-10,7.125000e-03
-5.105625e-10,6.953125e-03
-5.065625e-10,6.437500e-03
-5.025625e-10,6.828125e-03
-4.985625e-10,6.453125e-03
-4.945625e-10,6.531250e-03
-4.905625e-10,7.015625e-03
-4.865625e-10,7.187500e-03
-4.825625e-10,7.156250e-03
-4.785625e-10,6.796875e-03
-4.745625e-10,6.875000e-03
-4.705625e-10,7.359375e-03
-4.665625e-10,7.031250e-03
-4.625625e-10,7.718750e-03
-4.585625e-10,7.953125e-03
-4.545625e-10,8.171875e-03
-4.505625e-10,7.015625e-03
-4.465625e-10,7.812500e-03
-4.425625e-10,7.171875e-03
-4.385625e-10,8.265625e-03
-4.345625e-10,8.234375e-03
-4.305625e-10,8.015625e-03
-4.265625e-10,7.468750e-03
-4.225625e-10,7.828125e-03
-4.185625e-10,7.453125e-03
-4.145625e-10,7.421875e-03
-4.105625e-10,7.828125e-03
-4.065625e-10,7.921875e-03
-4.025625e-10,7.703125e-03
-3.985625e-10,7.265625e-03
-3.945625e-10,7.250000e-03
-3.905625e-10,7.625000e-03
-3.865625e-10,7.109375e-03
-3.825625e-10,7.656250e-03
-3.785625e-10,7.750000e-03
-3.745625e-10,7.828125e-03
-3.705625e-10,6.531250e-03
-3.665625e-10,7.140625e-03
-3.625625e-10,6.343750e-03
-3.585625e-10,7.312500e-03
-3.545625e-10,7.125000e-03
-3.505625e-10,6.765625e-03
-3.465625e-10,6.109375e-03
-3.425625e-10,6.375000e-03
-3.385625e-10,5.921875e-03
-3.345625e-10,5.765625e-03
-3.305625e-10,6.093750e-03
-3.265625e-10,6.140625e-03
-3.225625e-10,5.859375e-03
-3.185625e-10,5.421875e-03
-3.145625e-10,5.406250e-03
-3.105625e-10,5.796875e-03
-3.065625e-10,5.312500e-03
-3.025625e-10,5.875000e-03
-2.985625e-10,6.078125e-03
-2.945625e-10,6.218750e-03
-2.905625e-10,5.062500e-03
-2.865625e-10,5.765625e-03
-2.825625e-10,5.078125e-03
-2.785625e-10,6.203125e-03
-2.745625e-10,6.125000e-03
-2.705625e-10,5.937500e-03
-2.665625e-10,5.484375e-03
-2.625625e-10,5.921875e-03
-2.585625e-10,5.640625e-03
-2.545625e-10,5.656250e-03
-2.505625e-10,6.140625e-03
-2.465625e-10,6.359375e-03
-2.425625e-10,6.218750e-03
-2.385625e-10,5.968750e-03
-2.345625e-10,6.078125e-03
-2.305625e-10,6.562500e-03
-2.265625e-10,6.234375e-03
-2.225625e-10,6.859375e-03
-2.185625e-10,7.156250e-03
-2.145625e-10,7.375000e-03
-2.105625e-10,6.281250e-03
-2.065625e-10,7.015625e-03
-2.025625e-10,6.281250e-03
-1.985625e-10,7.406250e-03
-1.945625e-10,7.250000e-03
-1.905625e-10,7.015625e-03
-1.865625e-10,6.500000e-03
-1.825625e-10,6.828125e-03
-1.785625e-10,6.406250e-03
-1.745625e-10,6.312500e-03
-1.705625e-10,6.609375e-03
-1.665625e-10,6.671875e-03
-1.625625e-10,6.359375e-03
-1.585625e-10,5.968750e-03
-1.545625e-10,5.875000e-03
-1.505625e-10,6.140625e-03
-1.465625e-10,5.656250e-03
-1.425625e-10,6.156250e-03
-1.385625e-10,6.296875e-03
-1.345625e-10,6.421875e-03
-1.305625e-10,5.281250e-03
-1.265625e-10,5.968750e-03
-1.225625e-10,5.203125e-03
-1.185625e-10,6.406250e-03
-1.145625e-10,6.296875e-03
-1.105625e-10,6.234375e-03
-1.065625e-10,5.937500e-03
-1.025625e-10,6.562500e-03
-9.856250e-11,6.500000e-03
-9.456250e-11,6.859375e-03
-9.056250e-11,7.671875e-03
-8.656250e-11,8.375000e-03
-8.256250e-11,8.750000e-03
-7.856250e-11,9.171875e-03
-7.456250e-11,9.968750e-03
-7.056250e-11,1.118750e-02
-6.656250e-11,1.181250e-02
-6.256250e-11,1.353125e-02
-5.856250e-11,1.496875e-02
-5.456250e-11,1.656250e-02
-5.056250e-11,1.698438e-02
-4.656250e-11,1.931250e-02
-4.256250e-11,2.026563e-02
-3.856250e-11,2.332813e-02
-3.456250e-11,2.512500e-02
-3.056250e-11,2.710938e-02
-2.656250e-11,2.892188e-02
-2.256250e-11,3.176563e-02
-1.856250e-11,3.398438e-02
-1.456250e-11,3.668750e-02
-1.056250e-11,3.992188e-02
-6.562500e-12,4.314063e-02
-2.562500e-12,4.600000e-02
1.437500e-12,4.896875e-02
5.437500e-12,5.232813e-02
9.437500e-12,5.610938e-02
1.343750e-11,5.934375e-02
1.743750e-11,6.364063e-02
2.143750e-11,6.762500e-02
2.543750e-11,7.181250e-02
2.943750e-11,7.473438e-02
3.343750e-11,7.951563e-02
3.743750e-11,8.284375e-02
4.143750e-11,8.821875e-02
4.543750e-11,9.220313e-02
4.943750e-11,9.635938e-02
5.343750e-11,1.001719e-01
5.743750e-11,1.048750e-01
6.143750e-11,1.088594e-01
6.543750e-11,1.131875e-01
6.943750e-11,1.179063e-01
7.343750e-11,1.225000e-01
7.743750e-11,1.264688e-01
8.143750e-11,1.304063e-01
8.543750e-11,1.345625e-01
8.943750e-11,1.389531e-01
9.343750e-11,1.426563e-01
9.743750e-11,1.471875e-01
1.014375e-10,1.511875e-01
1.054375e-10,1.552188e-01
1.094375e-10,1.577813e-01
1.134375e-10,1.620156e-01
1.174375e-10,1.645781e-01
1.214375e-10,1.689844e-01
1.254375e-10,1.717813e-01
1.294375e-10,1.746094e-01
1.334375e-10,1.768594e-01
1.374375e-10,1.797969e-01
1.414375e-10,1.819063e-01
1.454375e-10,1.841563e-01
1.494375e-10,1.866094e-01
1.534375e-10,1.888438e-01
1.574375e-10,1.902500e-01
1.614375e-10,1.914531e-01
1.654375e-10,1.928125e-01
1.694375e-10,1.942813e-01
1.734375e-10,1.949531e-01
1.774375e-10,1.963281e-01
1.814375e-10,1.970469e-01
1.854375e-10,1.977813e-01
1.894375e-10,1.969219e-01
1.934375e-10,1.977656e-01
1.974375e-10,1.968750e-01
2.014375e-10,1.977500e-01
2.054375e-10,1.970000e-01
2.094375e-10,1.962813e-01
2.134375e-10,1.949844e-01
2.174375e-10,1.943906e-01
2.214375e-10,1.930313e-01
2.254375e-10,1.918281e-01
2.294375e-10,1.908438e-01
2.334375e-10,1.897188e-01
2.374375e-10,1.877969e-01
2.414375e-10,1.857344e-01
2.454375e-10,1.839375e-01
2.494375e-10,1.823438e-01
2.534375e-10,1.800156e-01
2.574375e-10,1.784531e-01
2.614375e-10,1.763594e-01
2.654375e-10,1.744063e-01
2.694375e-10,1.709219e-01
2.734375e-10,1.692969e-01
2.774375e-10,1.660781e-01
2.814375e-10,1.646406e-01
2.854375e-10,1.617500e-01
2.894375e-10,1.590156e-01
2.934375e-10,1.557813e-01
2.974375e-10,1.534063e-01
3.014375e-10,1.504063e-01
3.054375e-10,1.476563e-01
3.094375e-10,1.452031e-01
3.134375e-10,1.427344e-01
3.174375e-10,1.396250e-01
3.214375e-10,1.364531e-01
3.254375e-10,1.336406e-01
3.294375e-10,1.311563e-01
3.334375e-10,1.279844e-01
3.374375e-10,1.257188e-01
3.414375e-10,1.230156e-01
3.454375e-10,1.205313e-01
3.494375e-10,1.165625e-01
3.534375e-10,1.146094e-01
3.574375e-10,1.111250e-01
3.614375e-10,1.094688e-01
3.654375e-10,1.064688e-01
3.694375e-10,1.036406e-01
3.734375e-10,1.003906e-01
3.774375e-10,9.810938e-02
3.814375e-10,9.525000e-02
3.854375e-10,9.268750e-02
3.894375e-10,9.043750e-02
3.934375e-10,8.821875e-02
3.974375e-10,8.548438e-02
4.014375e-10,8.270313e-02
4.054375e-10,8.029688e-02
4.094375e-10,7.831250e-02
4.134375e-10,7.562500e-02
4.174375e-10,7.387500e-02
4.214375e-10,7.179688e-02
4.254375e-10,6.989063e-02
4.294375e-10,6.657813e-02
4.334375e-10,6.531250e-02
4.374375e-10,6.256250e-02
4.414375e-10,6.165625e-02
4.454375e-10,5.946875e-02
4.494375e-10,5.742188e-02
4.534375e-10,5.501563e-02
4.574375e-10,5.360938e-02
4.614375e-10,5.160938e-02
4.654375e-10,4.996875e-02
4.694375e-10,4.864063e-02
4.734375e-10,4.734375e-02
4.774375e-10,4.562500e-02
4.814375e-10,4.384375e-02
4.854375e-10,4.243750e-02
4.894375e-10,4.148438e-02
4.934375e-10,3.982813e-02
4.974375e-10,3.909375e-02
5.014375e-10,3.809375e-02
5.054375e-10,3.721875e-02
5.094375e-10,3.498438e-02
5.134375e-10,3.476563e-02
5.174375e-10,3.309375e-02
5.214375e-10,3.325000e-02
5.254375e-10,3.217188e-02
5.294375e-10,3.114063e-02
5.334375e-10,2.979688e-02
5.374375e-10,2.942188e-02
5.414375e-10,2.839063e-02
5.454375e-10,2.771875e-02
5.494375e-10,2.737500e-02
5.534375e-10,2.701563e-02
5.574375e-10,2.626563e-02
5.614375e-10,2.537500e-02
5.654375e-10,2.487500e-02
5.694375e-10,2.475000e-02
5.734375e-10,2.390625e-02
5.774375e-10,2.392188e-02
5.814375e-10,2.368750e-02
5.854375e-10,2.346875e-02
5.894375e-10,2.192188e-02
5.934375e-10,2.229688e-02
5.974375e-10,2.123438e-02
6.014375e-10,2.195313e-02
6.054375e-10,2.140625e-02
6.094375e-10,2.079688e-02
6.134375e-10,1.987500e-02
6.174375e-10,1.992188e-02
6.214375e-10,1.917188e-02
6.254375e-10,1.878125e-02
6.294375e-10,1.871875e-02
6.334375e-10,1.860938e-02
6.374375e-10,1.807813e-02
6.414375e-10,1.731250e-02
6.454375e-10,1.700000e-02
6.494375e-10,1.695313e-02
6.534375e-10,1.618750e-02
6.574375e-10,1.629688e-02
6.614375e-10,1.612500e-02
6.654375e-10,1.587500e-02
6.694375e-10,1.435938e-02
6.734375e-10,1.470313e-02
6.774375e-10,1.364063e-02
6.814375e-10,1.435938e-02
6.854375e-10,1.378125e-02
6.894375e-10,1.315625e-02
6.934375e-10,1.217188e-02
6.974375e-10,1.221875e-02
7.014375e-10,1.142188e-02
7.054375e-10,1.100000e-02
7.094375e-10,1.095313e-02
7.134375e-10,1.084375e-02
7.174375e-10,1.034375e-02
7.214375e-10,9.593750e-03
7.254375e-10,9.343750e-03
7.294375e-10,9.359375e-03
7.334375e-10,8.687500e-03
7.374375e-10,8.921875e-03
7.414375e-10,8.906250e-03
7.454375e-10,8.750000e-03
7.494375e-10,7.421875e-03
7.534375e-10,7.921875e-03
7.574375e-10,7.046875e-03
7.614375e-10,8.015625e-03
7.654375e-10,7.687500e-03
7.694375e-10,7.359375e-03
7.734375e-10,6.625000e-03
7.774375e-10,6.968750e-03
7.814375e-10,6.453125e-03
7.854375e-10,6.343750e-03
7.894375e-10,6.671875e-03
7.934375e-10,6.843750e-03
7.974375e-10,6.718750e-03
8.014375e-10,6.296875e-03
8.054375e-10,6.359375e-03
8.094375e-10,6.765625e-03
8.134375e-10,6.453125e-03
8.174375e-10,7.062500e-03
8.214375e-10,7.375000e-03
8.254375e-10,7.546875e-03
8.294375e-10,6.578125e-03
8.334375e-10,7.359375e-03
8.374375e-10,6.750000e-03
8.414375e-10,8.062500e-03
8.454375e-10,8.015625e-03
8.494375e-10,7.968750e-03
8.534375e-10,7.468750e-03
8.574375e-10,8.000000e-03
8.614375e-10,7.718750e-03
8.654375e-10,7.812500e-03
8.694375e-10,8.343750e-03
8.734375e-10,8.593750e-03
8.774375e-10,8.609375e-03
8.814375e-10,8.312500e-03
8.854375e-10,8.421875e-03
8.894375e-10,8.921875e-03
8.934375e-10,8.687500e-03
8.974375e-10,9.343750e-03
9.014375e-10,9.640625e-03
9.054375e-10,9.812500e-03
9.094375e-10,8.828125e-03
9.134375e-10,9.578125e-03
9.174375e-10,8.875000e-03
9.214375e-10,1.015625e-02
9.254375e-10,1.003125e-02
9.294375e-10,9.890625e-03
9.334375e-10,9.328125e-03
9.374375e-10,9.734375e-03
9.414375e-10,9.375000e-03
9.454375e-10,9.390625e-03
9.494375e-10,9.828125e-03
9.534375e-10,9.921875e-03
9.574375e-10,9.812500e-03
9.614375e-10,9.406250e-03
9.654375e-10,9.359375e-03
9.694375e-10,9.796875e-03
9.734375e-10,9.468750e-03
9.774375e-10,1.000000e-02
9.814375e-10,1.018750e-02
9.854375e-10,1.028125e-02
9.894375e-10,9.234375e-03
9.934375e-10,9.937500e-03
9.974375e-10,9.140625e-03
1.001438e-09,1.034375e-02
1.005438e-09,1.017188e-02
1.009438e-09,9.968750e-03
1.013437e-09,9.390625e-03
1.017437e-09,9.750000e-03
1.021437e-09,9.375000e-03
1.025437e-09,9.390625e-03
1.029437e-09,9.812500e-03
1.033437e-09,9.875000e-03
1.037437e-09,9.750000e-03
1.041437e-09,9.359375e-03
1.045437e-09,9.296875e-03
1.049438e-09,9.734375e-03
1.053438e-09,9.390625e-03
1.057438e-09,9.921875e-03
1.061438e-09,1.010938e-02
1.065438e-09,1.021875e-02
1.069438e-09,9.171875e-03
1.073437e-09,9.906250e-03
1.077437e-09,9.078125e-03
1.081437e-09,1.025000e-02
1.085437e-09,1.004688e-02
1.089437e-09,9.812500e-03
1.093437e-09,9.187500e-03
1.097437e-09,9.531250e-03
1.101437e-09,9.109375e-03
1.105437e-09,9.062500e-03
1.109438e-09,9.437500e-03
1.113438e-09,9.468750e-03
1.117438e-09,9.234375e-03
1.121438e-09,8.765625e-03
1.125438e-09,8.640625e-03
1.129438e-09,8.984375e-03
1.133437e-09,8.515625e-03
1.137437e-09,8.968750e-03
1.141437e-09,9.046875e-03
1.145437e-09,9.078125e-03
1.149437e-09,7.906250e-03
1.153437e-09,8.562500e-03
1.157437e-09,7.640625e-03
1.161437e-09,8.687500e-03
1.165437e-09,8.375000e-03
1.169438e-09,8.031250e-03
1.173438e-09,7.312500e-03
1.177438e-09,7.578125e-03
1.181438e-09,7.062500e-03
1.185438e-09,6.937500e-03
1.189438e-09,7.218750e-03
1.193437e-09,7.234375e-03
1.197437e-09,6.937500e-03
1.201437e-09,6.421875e-03
1.205437e-09,6.281250e-03
1.209437e-09,6.593750e-03
1.213437e-09,6.109375e-03
1.217437e-09,6.578125e-03
1.221437e-09,6.703125e-03
1.225437e-09,6.781250e-03
1.229438e-09,5.625000e-03
1.233438e-09,6.359375e-03
1.237438e-09,5.500000e-03
1.241438e-09,6.640625e-03
1.245438e-09,6.421875e-03
1.249438e-09,6.203125e-03
1.253437e-09,5.593750e-03
1.257437e-09,6.000000e-03
1.261437e-09,5.625000e-03
1.265437e-09,5.656250e-03
1.269437e-09,6.093750e-03
1.273437e-09,6.312500e-03
1.277437e-09,6.171875e-03
1.281437e-09,5.843750e-03
1.285437e-09,5.890625e-03
1.289438e-09,6.375000e-03
1.293438e-09,6.078125e-03
1.297438e-09,6.750000e-03
1.301438e-09,7.046875e-03
1.305438e-09,7.328125e-03
1.309438e-09,6.281250e-03
1.313437e-09,7.203125e-03
1.317437e-09,6.500000e-03
1.321437e-09,7.796875e-03
1.325437e-09,7.703125e-03
1.329437e-09,7.609375e-03
1.333437e-09,7.109375e-03
1.337437e-09,7.609375e-03
1.341437e-09,7.312500e-03
1.345437e-09,7.406250e-03
1.349437e-09,7.890625e-03
1.353438e-09,8.156250e-03
1.357438e-09,8.031250e-03
1.361438e-09,7.687500e-03
1.365438e-09,7.718750e-03
1.369438e-09,8.171875e-03
1.373437e-09,7.796875e-03
1.377437e-09,8.406250e-03
1.381437e-09,8.609375e-03
1.385437e-09,8.796875e-03
1.389437e-09,7.593750e-03
1.393437e-09,8.375000e-03
1.397437e-09,7.531250e-03
1.401437e-09,8.671875e-03
1.405437e-09,8.406250e-03
1.409437e-09,8.125000e-03
1.413438e-09,7.437500e-03
1.417438e-09,7.734375e-03
1.421438e-09,7.218750e-03
1.425438e-09,7.093750e-03
1.429438e-09,7.375000e-03
1.433437e-09,7.421875e-03
1.437437e-09,7.093750e-03
1.441437e-09,6.531250e-03
1.445437e-09,6.375000e-03
1.449437e-09,6.609375e-03
1.453437e-09,6.046875e-03
1.457437e-09,6.484375e-03
1.461437e-09,6.500000e-03
1.465437e-09,6.531250e-03
1.469437e-09,5.171875e-03
1.473438e-09,5.812500e-03
1.477438e-09,4.843750e-03
1.481438e-09,5.890625e-03
1.485438e-09,5.531250e-03
1.489438e-09,5.187500e-03
1.493437e-09,4.437500e-03
1.497437e-09,4.703125e-03
1.501437e-09,4.187500e-03
1.505437e-09,4.062500e-03
1.509437e-09,4.375000e-03
1.513437e-09,4.468750e-03
1.517437e-09,4.187500e-03
1.521437e-09,3.718750e-03
1.525437e-09,3.671875e-03
1.529437e-09,4.031250e-03
1.533438e-09,3.593750e-03
1.537438e-09,4.171875e-03
1.541438e-09,4.375000e-03
1.545438e-09,4.578125e-03
1.549438e-09,3.406250e-03
1.553437e-09,4.250000e-03
1.557437e-09,3.484375e-03
1.561437e-09,4.750000e-03
1.565437e-09,4.625000e-03
1.569437e-09,4.500000e-03
1.573437e-09,3.984375e-03
1.577437e-09,4.500000e-03
1.581437e-09,4.203125e-03
1.585437e-09,4.328125e-03
1.589437e-09,4.859375e-03
1.593438e-09,5.187500e-03
1.597438e-09,5.125000e-03
1.601438e-09,4.859375e-03
1.605438e-09,5.000000e-03
1.609438e-09,5.546875e-03
1.613437e-09,5.281250e-03
1.617437e-09,6.046875e-03
1.621437e-09,6.390625e-03
1.625437e-09,6.734375e-03
1.629437e-09,5.671875e-03
1.633437e-09,6.609375e-03
1.637437e-09,5.937500e-03
1.641437e-09,7.265625e-03
1.645437e-09,7.187500e-03
1.649437e-09,7.093750e-03
1.653438e-09,6.593750e-03
1.657438e-09,7.093750e-03
1.661438e-09,6.765625e-03
1.665438e-09,6.843750e-03
1.669438e-09,7.312500e-03
1.673437e-09,7.562500e-03
1.677437e-09,7.406250e-03
1.681437e-09,7.031250e-03
1.685437e-09,7.046875e-03
1.689437e-09,7.453125e-03
1.693437e-09,7.046875e-03
1.697437e-09,7.640625e-03
1.701437e-09,7.812500e-03
1.705437e-09,7.968750e-03
1.709437e-09,6.718750e-03
1.713438e-09,7.468750e-03
1.717438e-09,6.593750e-03
1.721438e-09,7.718750e-03
1.725438e-09,7.437500e-03
1.729438e-09,7.140625e-03
1.733437e-09,6.421875e-03
1.737437e-09,6.718750e-03
1.741437e-09,6.203125e-03
1.745437e-09,6.078125e-03
1.749437e-09,6.343750e-03
1.753437e-09,6.421875e-03
1.757437e-09,6.078125e-03
