Measurements-streak-laser/Photodiode-on-Tek-12bit-4GHz/Tek000_ch1_20190613133021632.csv

Model,MSO64
Waveform Type,ANALOG
Horizontal Units,s
Sample Interval,4.000000e-12
Record Length,1000
Zero Index,310.281250
Vertical Units,V

TIME,CH1
-1.241125e-09,2.953125e-03
-1.237125e-09,3.375000e-03
-1.233125e-09,2.968750e-03
-1.229125e-09,3.593750e-03
-1.225125e-09,3.828125e-03
-1.221125e-09,4.046875e-03
-1.217125e-09,2.859375e-03
-1.213125e-09,3.703125e-03
-1.209125e-09,2.921875e-03
-1.205125e-09,4.171875e-03
-1.201125e-09,4.015625e-03
-1.197125e-09,3.859375e-03
-1.193125e-09,3.296875e-03
-1.189125e-09,3.750000e-03
-1.185125e-09,3.406250e-03
-1.181125e-09,3.468750e-03
-1.177125e-09,3.921875e-03
-1.173125e-09,4.187500e-03
-1.169125e-09,4.046875e-03
-1.165125e-09,3.703125e-03
-1.161125e-09,3.765625e-03
-1.157125e-09,4.250000e-03
-1.153125e-09,3.906250e-03
-1.149125e-09,4.578125e-03
-1.145125e-09,4.859375e-03
-1.141125e-09,5.125000e-03
-1.137125e-09,3.984375e-03
-1.133125e-09,4.859375e-03
-1.129125e-09,4.125000e-03
-1.125125e-09,5.406250e-03
-1.121125e-09,5.281250e-03
-1.117125e-09,5.140625e-03
-1.113125e-09,4.609375e-03
-1.109125e-09,5.093750e-03
-1.105125e-09,4.750000e-03
-1.101125e-09,4.828125e-03
-1.097125e-09,5.296875e-03
-1.093125e-09,5.578125e-03
-1.089125e-09,5.453125e-03
-1.085125e-09,5.109375e-03
-1.081125e-09,5.187500e-03
-1.077125e-09,5.671875e-03
-1.073125e-09,5.343750e-03
-1.069125e-09,6.031250e-03
-1.065125e-09,6.296875e-03
-1.061125e-09,6.578125e-03
-1.057125e-09,5.453125e-03
-1.053125e-09,6.343750e-03
-1.049125e-09,5.609375e-03
-1.045125e-09,6.906250e-03
-1.041125e-09,6.796875e-03
-1.037125e-09,6.671875e-03
-1.033125e-09,6.156250e-03
-1.029125e-09,6.656250e-03
-1.025125e-09,6.343750e-03
-1.021125e-09,6.437500e-03
-1.017125e-09,6.921875e-03
-1.013125e-09,7.218750e-03
-1.009125e-09,7.109375e-03
-1.005125e-09,6.812500e-03
-1.001125e-09,6.906250e-03
-9.971250e-10,7.390625e-03
-9.931250e-10,7.078125e-03
-9.891250e-10,7.781250e-03
-9.851250e-10,8.078125e-03
-9.811250e-10,8.375000e-03
-9.771250e-10,7.250000e-03
-9.731250e-10,8.140625e-03
-9.691250e-10,7.406250e-03
-9.651250e-10,8.687500e-03
-9.611250e-10,8.546875e-03
-9.571250e-10,8.421875e-03
-9.531250e-10,7.875000e-03
-9.491250e-10,8.343750e-03
-9.451250e-10,7.984375e-03
-9.411250e-10,8.031250e-03
-9.371250e-10,8.484375e-03
-9.331250e-10,8.718750e-03
-9.291250e-10,8.531250e-03
-9.251250e-10,8.140625e-03
-9.211250e-10,8.156250e-03
-9.171250e-10,8.562500e-03
-9.131250e-10,8.156250e-03
-9.091250e-10,8.750000e-03
-9.051250e-10,8.921875e-03
-9.011250e-10,9.093750e-03
-8.971250e-10,7.859375e-03
-8.931250e-10,8.609375e-03
-8.891250e-10,7.750000e-03
-8.851250e-10,8.828125e-03
-8.811250e-10,8.578125e-03
-8.771250e-10,8.296875e-03
-8.731250e-10,7.625000e-03
-8.691250e-10,7.937500e-03
-8.651250e-10,7.437500e-03
-8.611250e-10,7.343750e-03
-8.571250e-10,7.656250e-03
-8.531250e-10,7.750000e-03
-8.491250e-10,7.453125e-03
-8.451250e-10,6.937500e-03
-8.411250e-10,6.812500e-03
-8.371250e-10,7.109375e-03
-8.331250e-10,6.593750e-03
-8.291250e-10,7.093750e-03
-8.251250e-10,7.187500e-03
-8.211250e-10,7.281250e-03
-8.171250e-10,6.015625e-03
-8.131250e-10,6.718750e-03
-8.091250e-10,5.828125e-03
-8.051250e-10,6.796875e-03
-8.011250e-10,6.562500e-03
-7.971250e-10,6.296875e-03
-7.931250e-10,5.671875e-03
-7.891250e-10,6.000000e-03
-7.851250e-10,5.546875e-03
-7.811250e-10,5.546875e-03
-7.771250e-10,5.906250e-03
-7.731250e-10,6.078125e-03
-7.691250e-10,5.921875e-03
-7.651250e-10,5.500000e-03
-7.611250e-10,5.500000e-03
-7.571250e-10,5.906250e-03
-7.531250e-10,5.515625e-03
-7.491250e-10,6.140625e-03
-7.451250e-10,6.390625e-03
-7.411250e-10,6.625000e-03
-7.371250e-10,5.531250e-03
-7.331250e-10,6.406250e-03
-7.291250e-10,5.671875e-03
-7.251250e-10,6.734375e-03
-7.211250e-10,6.687500e-03
-7.171250e-10,6.593750e-03
-7.131250e-10,6.140625e-03
-7.091250e-10,6.578125e-03
-7.051250e-10,6.218750e-03
-7.011250e-10,6.390625e-03
-6.971250e-10,6.843750e-03
-6.931250e-10,7.078125e-03
-6.891250e-10,7.125000e-03
-6.851250e-10,6.765625e-03
-6.811250e-10,6.796875e-03
-6.771250e-10,7.234375e-03
-6.731250e-10,6.921875e-03
-6.691250e-10,7.546875e-03
-6.651250e-10,7.812500e-03
-6.611250e-10,8.015625e-03
-6.571250e-10,6.875000e-03
-6.531250e-10,7.734375e-03
-6.491250e-10,7.015625e-03
-6.451250e-10,7.984375e-03
-6.411250e-10,7.875000e-03
-6.371250e-10,7.734375e-03
-6.331250e-10,7.203125e-03
-6.291250e-10,7.500000e-03
-6.251250e-10,6.984375e-03
-6.211250e-10,7.078125e-03
-6.171250e-10,7.406250e-03
-6.131250e-10,7.453125e-03
-6.091250e-10,7.437500e-03
-6.051250e-10,6.937500e-03
-6.011250e-10,6.828125e-03
-5.971250e-10,7.125000e-03
-5.931250e-10,6.718750e-03
-5.891250e-10,7.203125e-03
-5.851250e-10,7.343750e-03
-5.811250e-10,7.421875e-03
-5.771250e-10,6.125000e-03
-5.731250e-10,6.875000e-03
-5.691250e-10,6.156250e-03
-5.651250e-10,7.031250e-03
-5.611250e-10,6.906250e-03
-5.571250e-10,6.687500e-03
-5.531250e-10,6.125000e-03
-5.491250e-10,6.375000e-03
-5.451250e-10,5.859375e-03
-5.411250e-10,5.937500e-03
-5.371250e-10,6.312500e-03
-5.331250e-10,6.375000e-03
-5.291250e-10,6.406250e-03
-5.251250e-10,5.968750e-03
-5.211250e-10,5.953125e-03
-5.171250e-10,6.359375e-03
-5.131250e-10,6.046875e-03
-5.091250e-10,6.687500e-03
-5.051250e-10,6.890625e-03
-5.011250e-10,7.093750e-03
-4.971250e-10,5.921875e-03
-4.931250e-10,6.750000e-03
-4.891250e-10,6.218750e-03
-4.851250e-10,7.234375e-03
-4.811250e-10,7.312500e-03
-4.771250e-10,7.187500e-03
-4.731250e-10,6.734375e-03
-4.691250e-10,7.125000e-03
-4.651250e-10,6.781250e-03
-4.611250e-10,6.906250e-03
-4.571250e-10,7.437500e-03
-4.531250e-10,7.578125e-03
-4.491250e-10,7.593750e-03
-4.451250e-10,7.250000e-03
-4.411250e-10,7.359375e-03
-4.371250e-10,7.843750e-03
-4.331250e-10,7.500000e-03
-4.291250e-10,8.187500e-03
-4.251250e-10,8.375000e-03
-4.211250e-10,8.562500e-03
-4.171250e-10,7.375000e-03
-4.131250e-10,8.078125e-03
-4.091250e-10,7.484375e-03
-4.051250e-10,8.437500e-03
-4.011250e-10,8.437500e-03
-3.971250e-10,8.156250e-03
-3.931250e-10,7.578125e-03
-3.891250e-10,7.875000e-03
-3.851250e-10,7.468750e-03
-3.811250e-10,7.359375e-03
-3.771250e-10,7.750000e-03
-3.731250e-10,7.750000e-03
-3.691250e-10,7.515625e-03
-3.651250e-10,7.046875e-03
-3.611250e-10,7.046875e-03
-3.571250e-10,7.421875e-03
-3.531250e-10,6.875000e-03
-3.491250e-10,7.421875e-03
-3.451250e-10,7.531250e-03
-3.411250e-10,7.593750e-03
-3.371250e-10,6.359375e-03
-3.331250e-10,6.906250e-03
-3.291250e-10,6.250000e-03
-3.251250e-10,7.156250e-03
-3.211250e-10,7.109375e-03
-3.171250e-10,6.796875e-03
-3.131250e-10,6.281250e-03
-3.091250e-10,6.609375e-03
-3.051250e-10,6.312500e-03
-3.011250e-10,6.218750e-03
-2.971250e-10,6.671875e-03
-2.931250e-10,6.781250e-03
-2.891250e-10,6.625000e-03
-2.851250e-10,6.343750e-03
-2.811250e-10,6.500000e-03
-2.771250e-10,7.046875e-03
-2.731250e-10,6.687500e-03
-2.691250e-10,7.359375e-03
-2.651250e-10,7.718750e-03
-2.611250e-10,7.968750e-03
-2.571250e-10,6.968750e-03
-2.531250e-10,7.703125e-03
-2.491250e-10,7.171875e-03
-2.451250e-10,8.296875e-03
-2.411250e-10,8.375000e-03
-2.371250e-10,8.218750e-03
-2.331250e-10,7.906250e-03
-2.291250e-10,8.343750e-03
-2.251250e-10,8.109375e-03
-2.211250e-10,8.093750e-03
-2.171250e-10,8.531250e-03
-2.131250e-10,8.671875e-03
-2.091250e-10,8.437500e-03
-2.051250e-10,8.171875e-03
-2.011250e-10,8.187500e-03
-1.971250e-10,8.531250e-03
-1.931250e-10,8.046875e-03
-1.891250e-10,8.484375e-03
-1.851250e-10,8.593750e-03
-1.811250e-10,8.562500e-03
-1.771250e-10,7.312500e-03
-1.731250e-10,7.703125e-03
-1.691250e-10,6.734375e-03
-1.651250e-10,7.531250e-03
-1.611250e-10,7.109375e-03
-1.571250e-10,6.562500e-03
-1.531250e-10,5.828125e-03
-1.491250e-10,5.843750e-03
-1.451250e-10,5.140625e-03
-1.411250e-10,4.734375e-03
-1.371250e-10,4.718750e-03
-1.331250e-10,4.468750e-03
-1.291250e-10,3.875000e-03
-1.251250e-10,3.312500e-03
-1.211250e-10,3.000000e-03
-1.171250e-10,3.031250e-03
-1.131250e-10,2.406250e-03
-1.091250e-10,2.765625e-03
-1.051250e-10,2.828125e-03
-1.011250e-10,2.921875e-03
-9.712500e-11,1.906250e-03
-9.312500e-11,2.593750e-03
-8.912500e-11,1.968750e-03
-8.512500e-11,3.359375e-03
-8.112500e-11,3.515625e-03
-7.712500e-11,3.812500e-03
-7.312500e-11,4.031250e-03
-6.912500e-11,5.171875e-03
-6.512500e-11,5.718750e-03
-6.112500e-11,6.765625e-03
-5.712500e-11,8.328125e-03
-5.312500e-11,9.890625e-03
-4.912500e-11,1.121875e-02
-4.512500e-11,1.276563e-02
-4.112500e-11,1.471875e-02
-3.712500e-11,1.714063e-02
-3.312500e-11,1.914063e-02
-2.912500e-11,2.231250e-02
-2.512500e-11,2.531250e-02
-2.112500e-11,2.857813e-02
-1.712500e-11,3.087500e-02
-1.312500e-11,3.498438e-02
-9.125000e-12,3.789063e-02
-5.125000e-12,4.300000e-02
-1.125000e-12,4.690625e-02
2.875000e-12,5.115625e-02
6.875000e-12,5.537500e-02
1.087500e-11,6.059375e-02
1.487500e-11,6.531250e-02
1.887500e-11,7.056250e-02
2.287500e-11,7.639063e-02
2.687500e-11,8.229688e-02
3.087500e-11,8.785938e-02
3.487500e-11,9.368750e-02
3.887500e-11,9.987500e-02
4.287500e-11,1.064375e-01
4.687500e-11,1.125938e-01
5.087500e-11,1.198125e-01
5.487500e-11,1.267188e-01
5.887500e-11,1.339063e-01
6.287500e-11,1.399063e-01
6.687500e-11,1.475781e-01
7.087500e-11,1.538594e-01
7.487500e-11,1.621719e-01
7.887500e-11,1.690156e-01
8.287500e-11,1.761250e-01
8.687500e-11,1.828594e-01
9.087500e-11,1.903281e-01
9.487500e-11,1.971250e-01
9.887500e-11,2.041719e-01
1.028750e-10,2.115156e-01
1.068750e-10,2.187656e-01
1.108750e-10,2.252031e-01
1.148750e-10,2.316563e-01
1.188750e-10,2.381875e-01
1.228750e-10,2.447813e-01
1.268750e-10,2.507188e-01
1.308750e-10,2.573438e-01
1.348750e-10,2.633125e-01
1.388750e-10,2.693281e-01
1.428750e-10,2.737656e-01
1.468750e-10,2.796719e-01
1.508750e-10,2.838438e-01
1.548750e-10,2.897188e-01
1.588750e-10,2.938125e-01
1.628750e-10,2.980000e-01
1.668750e-10,3.014375e-01
1.708750e-10,3.053750e-01
1.748750e-10,3.084688e-01
1.788750e-10,3.115313e-01
1.828750e-10,3.146719e-01
1.868750e-10,3.175781e-01
1.908750e-10,3.193750e-01
1.948750e-10,3.210156e-01
1.988750e-10,3.226406e-01
2.028750e-10,3.241875e-01
2.068750e-10,3.249844e-01
2.108750e-10,3.262656e-01
2.148750e-10,3.267813e-01
2.188750e-10,3.273438e-01
2.228750e-10,3.261875e-01
2.268750e-10,3.265313e-01
2.308750e-10,3.251406e-01
2.348750e-10,3.253125e-01
2.388750e-10,3.237656e-01
2.428750e-10,3.223125e-01
2.468750e-10,3.201563e-01
2.508750e-10,3.185313e-01
2.548750e-10,3.161875e-01
2.588750e-10,3.138750e-01
2.628750e-10,3.116406e-01
2.668750e-10,3.093281e-01
2.708750e-10,3.059844e-01
2.748750e-10,3.025625e-01
2.788750e-10,2.993281e-01
2.828750e-10,2.961563e-01
2.868750e-10,2.922969e-01
2.908750e-10,2.890781e-01
2.948750e-10,2.852500e-01
2.988750e-10,2.816406e-01
3.028750e-10,2.764219e-01
3.068750e-10,2.729688e-01
3.108750e-10,2.679375e-01
3.148750e-10,2.645312e-01
3.188750e-10,2.596563e-01
3.228750e-10,2.550000e-01
3.268750e-10,2.497969e-01
3.308750e-10,2.453906e-01
3.348750e-10,2.404375e-01
3.388750e-10,2.356406e-01
3.428750e-10,2.310625e-01
3.468750e-10,2.265625e-01
3.508750e-10,2.212969e-01
3.548750e-10,2.160313e-01
3.588750e-10,2.111250e-01
3.628750e-10,2.064844e-01
3.668750e-10,2.012188e-01
3.708750e-10,1.967656e-01
3.748750e-10,1.919063e-01
3.788750e-10,1.873750e-01
3.828750e-10,1.813438e-01
3.868750e-10,1.772969e-01
3.908750e-10,1.718281e-01
3.948750e-10,1.680313e-01
3.988750e-10,1.629531e-01
4.028750e-10,1.581719e-01
4.068750e-10,1.529688e-01
4.108750e-10,1.487344e-01
4.148750e-10,1.440625e-01
4.188750e-10,1.396563e-01
4.228750e-10,1.355313e-01
4.268750e-10,1.315625e-01
4.308750e-10,1.270781e-01
4.348750e-10,1.226406e-01
4.388750e-10,1.186094e-01
4.428750e-10,1.150156e-01
4.468750e-10,1.108281e-01
4.508750e-10,1.075156e-01
4.548750e-10,1.040000e-01
4.588750e-10,1.007813e-01
4.628750e-10,9.618750e-02
4.668750e-10,9.370313e-02
4.708750e-10,8.984375e-02
4.748750e-10,8.771875e-02
4.788750e-10,8.445313e-02
4.828750e-10,8.143750e-02
4.868750e-10,7.812500e-02
4.908750e-10,7.582813e-02
4.948750e-10,7.307813e-02
4.988750e-10,7.070313e-02
5.028750e-10,6.860938e-02
5.068750e-10,6.671875e-02
5.108750e-10,6.442188e-02
5.148750e-10,6.215625e-02
5.188750e-10,6.028125e-02
5.228750e-10,5.887500e-02
5.268750e-10,5.687500e-02
5.308750e-10,5.570313e-02
5.348750e-10,5.439063e-02
5.388750e-10,5.328125e-02
5.428750e-10,5.085938e-02
5.468750e-10,5.046875e-02
5.508750e-10,4.870313e-02
5.548750e-10,4.864063e-02
5.588750e-10,4.745313e-02
5.628750e-10,4.631250e-02
5.668750e-10,4.492188e-02
5.708750e-10,4.446875e-02
5.748750e-10,4.342188e-02
5.788750e-10,4.270313e-02
5.828750e-10,4.223438e-02
5.868750e-10,4.185938e-02
5.908750e-10,4.107813e-02
5.948750e-10,4.015625e-02
5.988750e-10,3.960938e-02
6.028750e-10,3.937500e-02
6.068750e-10,3.845313e-02
6.108750e-10,3.828125e-02
6.148750e-10,3.792188e-02
6.188750e-10,3.754688e-02
6.228750e-10,3.589063e-02
6.268750e-10,3.606250e-02
6.308750e-10,3.487500e-02
6.348750e-10,3.528125e-02
6.388750e-10,3.450000e-02
6.428750e-10,3.359375e-02
6.468750e-10,3.239063e-02
6.508750e-10,3.214063e-02
6.548750e-10,3.106250e-02
6.588750e-10,3.029688e-02
6.628750e-10,2.979688e-02
6.668750e-10,2.931250e-02
6.708750e-10,2.840625e-02
6.748750e-10,2.723438e-02
6.788750e-10,2.653125e-02
6.828750e-10,2.598438e-02
6.868750e-10,2.478125e-02
6.908750e-10,2.437500e-02
6.948750e-10,2.376563e-02
6.988750e-10,2.301563e-02
7.028750e-10,2.112500e-02
7.068750e-10,2.096875e-02
7.108750e-10,1.956250e-02
7.148750e-10,1.979688e-02
7.188750e-10,1.882813e-02
7.228750e-10,1.781250e-02
7.268750e-10,1.645313e-02
7.308750e-10,1.618750e-02
7.348750e-10,1.504688e-02
7.388750e-10,1.428125e-02
7.428750e-10,1.393750e-02
7.468750e-10,1.360938e-02
7.508750e-10,1.295313e-02
7.548750e-10,1.201563e-02
7.588750e-10,1.165625e-02
7.628750e-10,1.153125e-02
7.668750e-10,1.081250e-02
7.708750e-10,1.096875e-02
7.748750e-10,1.098438e-02
7.788750e-10,1.079688e-02
7.828750e-10,9.640625e-03
7.868750e-10,1.015625e-02
7.908750e-10,9.515625e-03
7.948750e-10,1.062500e-02
7.988750e-10,1.053125e-02
8.028750e-10,1.045313e-02
8.068750e-10,9.968750e-03
8.108750e-10,1.060938e-02
8.148750e-10,1.039063e-02
8.188750e-10,1.057813e-02
8.228750e-10,1.121875e-02
8.268750e-10,1.175000e-02
8.308750e-10,1.204688e-02
8.348750e-10,1.198438e-02
8.388750e-10,1.245313e-02
8.428750e-10,1.320313e-02
8.468750e-10,1.331250e-02
8.508750e-10,1.426563e-02
8.548750e-10,1.498438e-02
8.588750e-10,1.542188e-02
8.628750e-10,1.487500e-02
8.668750e-10,1.589063e-02
8.708750e-10,1.564063e-02
8.748750e-10,1.721875e-02
8.788750e-10,1.745313e-02
8.828750e-10,1.764063e-02
8.868750e-10,1.734375e-02
8.908750e-10,1.801563e-02
8.948750e-10,1.785938e-02
8.988750e-10,1.803125e-02
9.028750e-10,1.859375e-02
9.068750e-10,1.881250e-02
9.108750e-10,1.884375e-02
9.148750e-10,1.846875e-02
9.188750e-10,1.845313e-02
9.228750e-10,1.881250e-02
9.268750e-10,1.843750e-02
9.308750e-10,1.882813e-02
9.348750e-10,1.884375e-02
9.388750e-10,1.864063e-02
9.428750e-10,1.743750e-02
9.468750e-10,1.771875e-02
9.508750e-10,1.664063e-02
9.548750e-10,1.748438e-02
9.588750e-10,1.695313e-02
9.628750e-10,1.632813e-02
9.668750e-10,1.526563e-02
9.708750e-10,1.512500e-02
9.748750e-10,1.423438e-02
9.788750e-10,1.371875e-02
9.828750e-10,1.359375e-02
9.868750e-10,1.303125e-02
9.908750e-10,1.240625e-02
9.948750e-10,1.145313e-02
9.988750e-10,1.081250e-02
1.002875e-09,1.071875e-02
1.006875e-09,9.875000e-03
1.010875e-09,9.859375e-03
1.014875e-09,9.515625e-03
1.018875e-09,9.046875e-03
1.022875e-09,7.671875e-03
1.026875e-09,7.859375e-03
1.030875e-09,6.671875e-03
1.034875e-09,7.468750e-03
1.038875e-09,6.984375e-03
1.042875e-09,6.453125e-03
1.046875e-09,5.609375e-03
1.050875e-09,5.718750e-03
1.054875e-09,5.156250e-03
1.058875e-09,5.031250e-03
1.062875e-09,5.343750e-03
1.066875e-09,5.250000e-03
1.070875e-09,5.109375e-03
1.074875e-09,4.734375e-03
1.078875e-09,4.671875e-03
1.082875e-09,5.218750e-03
1.086875e-09,5.015625e-03
1.090875e-09,5.671875e-03
1.094875e-09,6.031250e-03
1.098875e-09,6.312500e-03
1.102875e-09,5.640625e-03
1.106875e-09,6.609375e-03
1.110875e-09,6.125000e-03
1.114875e-09,7.593750e-03
1.118875e-09,7.765625e-03
1.122875e-09,7.921875e-03
1.126875e-09,7.703125e-03
1.130875e-09,8.453125e-03
1.134875e-09,8.453125e-03
1.138875e-09,8.859375e-03
1.142875e-09,9.671875e-03
1.146875e-09,1.007813e-02
1.150875e-09,1.031250e-02
1.154875e-09,1.029688e-02
1.158875e-09,1.054688e-02
1.162875e-09,1.132813e-02
1.166875e-09,1.129688e-02
1.170875e-09,1.210938e-02
1.174875e-09,1.256250e-02
1.178875e-09,1.290625e-02
1.182875e-09,1.217188e-02
1.186875e-09,1.312500e-02
1.190875e-09,1.248438e-02
1.194875e-09,1.376563e-02
1.198875e-09,1.368750e-02
1.202875e-09,1.357813e-02
1.206875e-09,1.303125e-02
1.210875e-09,1.342188e-02
1.214875e-09,1.301563e-02
1.218875e-09,1.298438e-02
1.222875e-09,1.332813e-02
1.226875e-09,1.331250e-02
1.230875e-09,1.301563e-02
1.234875e-09,1.246875e-02
1.238875e-09,1.221875e-02
1.242875e-09,1.242188e-02
1.246875e-09,1.182813e-02
1.250875e-09,1.210938e-02
1.254875e-09,1.203125e-02
1.258875e-09,1.185938e-02
1.262875e-09,1.053125e-02
1.266875e-09,1.100000e-02
1.270875e-09,9.875000e-03
1.274875e-09,1.070313e-02
1.278875e-09,1.017188e-02
1.282875e-09,9.625000e-03
1.286875e-09,8.703125e-03
1.290875e-09,8.750000e-03
1.294875e-09,8.031250e-03
1.298875e-09,7.703125e-03
1.302875e-09,7.796875e-03
1.306875e-09,7.640625e-03
1.310875e-09,7.156250e-03
1.314875e-09,6.484375e-03
1.318875e-09,6.187500e-03
1.322875e-09,6.343750e-03
1.326875e-09,5.734375e-03
1.330875e-09,6.093750e-03
1.334875e-09,6.093750e-03
1.338875e-09,6.093750e-03
1.342875e-09,4.859375e-03
1.346875e-09,5.515625e-03
1.350875e-09,4.609375e-03
1.354875e-09,5.718750e-03
1.358875e-09,5.468750e-03
1.362875e-09,5.234375e-03
1.366875e-09,4.640625e-03
1.370875e-09,5.062500e-03
1.374875e-09,4.703125e-03
1.378875e-09,4.765625e-03
1.382875e-09,5.250000e-03
1.386875e-09,5.531250e-03
1.390875e-09,5.453125e-03
1.394875e-09,5.187500e-03
1.398875e-09,5.343750e-03
1.402875e-09,5.906250e-03
1.406875e-09,5.703125e-03
1.410875e-09,6.484375e-03
1.414875e-09,6.890625e-03
1.418875e-09,7.296875e-03
1.422875e-09,6.375000e-03
1.426875e-09,7.406250e-03
1.430875e-09,6.843750e-03
1.434875e-09,8.281250e-03
1.438875e-09,8.328125e-03
1.442875e-09,8.375000e-03
1.446875e-09,8.031250e-03
1.450875e-09,8.671875e-03
1.454875e-09,8.515625e-03
1.458875e-09,8.750000e-03
1.462875e-09,9.390625e-03
1.466875e-09,9.812500e-03
1.470875e-09,9.828125e-03
1.474875e-09,9.640625e-03
1.478875e-09,9.843750e-03
1.482875e-09,1.043750e-02
1.486875e-09,1.021875e-02
1.490875e-09,1.098438e-02
1.494875e-09,1.134375e-02
1.498875e-09,1.168750e-02
1.502875e-09,1.064063e-02
1.506875e-09,1.156250e-02
1.510875e-09,1.087500e-02
1.514875e-09,1.215625e-02
1.518875e-09,1.204688e-02
1.522875e-09,1.192188e-02
1.526875e-09,1.135938e-02
1.530875e-09,1.181250e-02
1.534875e-09,1.143750e-02
1.538875e-09,1.145313e-02
1.542875e-09,1.185938e-02
1.546875e-09,1.206250e-02
1.550875e-09,1.184375e-02
1.554875e-09,1.140625e-02
1.558875e-09,1.135938e-02
1.562875e-09,1.171875e-02
1.566875e-09,1.126563e-02
1.570875e-09,1.179688e-02
1.574875e-09,1.192188e-02
1.578875e-09,1.204688e-02
1.582875e-09,1.076563e-02
1.586875e-09,1.148438e-02
1.590875e-09,1.057813e-02
1.594875e-09,1.168750e-02
1.598875e-09,1.137500e-02
1.602875e-09,1.106250e-02
1.606875e-09,1.034375e-02
1.610875e-09,1.064063e-02
1.614875e-09,1.012500e-02
1.618875e-09,1.000000e-02
1.622875e-09,1.029688e-02
1.626875e-09,1.037500e-02
1.630875e-09,1.006250e-02
1.634875e-09,9.546875e-03
1.638875e-09,9.437500e-03
1.642875e-09,9.718750e-03
1.646875e-09,9.218750e-03
1.650875e-09,9.718750e-03
1.654875e-09,9.812500e-03
1.658875e-09,9.906250e-03
1.662875e-09,8.625000e-03
1.666875e-09,9.328125e-03
1.670875e-09,8.437500e-03
1.674875e-09,9.562500e-03
1.678875e-09,9.281250e-03
1.682875e-09,9.000000e-03
1.686875e-09,8.328125e-03
1.690875e-09,8.656250e-03
1.694875e-09,8.203125e-03
1.698875e-09,8.140625e-03
1.702875e-09,8.500000e-03
1.706875e-09,8.640625e-03
1.710875e-09,8.390625e-03
1.714875e-09,7.953125e-03
1.718875e-09,7.921875e-03
1.722875e-09,8.281250e-03
1.726875e-09,7.859375e-03
1.730875e-09,8.437500e-03
1.734875e-09,8.609375e-03
1.738875e-09,8.796875e-03
1.742875e-09,7.578125e-03
1.746875e-09,8.375000e-03
1.750875e-09,7.562500e-03
1.754875e-09,8.765625e-03
1.758875e-09,8.546875e-03
