Measurements-streak-laser/Photodiode-on-Tek-12bit-4GHz/Tek000_ch1_20190613132930185.csv

Model,MSO64
Waveform Type,ANALOG
Horizontal Units,s
Sample Interval,4.000000e-12
Record Length,1000
Zero Index,310.875000
Vertical Units,V

TIME,CH1
-1.243500e-09,6.718750e-03
-1.239500e-09,6.328125e-03
-1.235500e-09,6.328125e-03
-1.231500e-09,6.734375e-03
-1.227500e-09,6.921875e-03
-1.223500e-09,6.718750e-03
-1.219500e-09,6.281250e-03
-1.215500e-09,6.265625e-03
-1.211500e-09,6.640625e-03
-1.207500e-09,6.187500e-03
-1.203500e-09,6.765625e-03
-1.199500e-09,6.921875e-03
-1.195500e-09,7.078125e-03
-1.191500e-09,5.812500e-03
-1.187500e-09,6.562500e-03
-1.183500e-09,5.703125e-03
-1.179500e-09,6.859375e-03
-1.175500e-09,6.593750e-03
-1.171500e-09,6.343750e-03
-1.167500e-09,5.671875e-03
-1.163500e-09,6.015625e-03
-1.159500e-09,5.562500e-03
-1.155500e-09,5.500000e-03
-1.151500e-09,5.859375e-03
-1.147500e-09,6.015625e-03
-1.143500e-09,5.765625e-03
-1.139500e-09,5.312500e-03
-1.135500e-09,5.281250e-03
-1.131500e-09,5.656250e-03
-1.127500e-09,5.218750e-03
-1.123500e-09,5.812500e-03
-1.119500e-09,6.000000e-03
-1.115500e-09,6.203125e-03
-1.111500e-09,4.984375e-03
-1.107500e-09,5.796875e-03
-1.103500e-09,5.000000e-03
-1.099500e-09,6.234375e-03
-1.095500e-09,6.046875e-03
-1.091500e-09,5.890625e-03
-1.087500e-09,5.312500e-03
-1.083500e-09,5.765625e-03
-1.079500e-09,5.421875e-03
-1.075500e-09,5.468750e-03
-1.071500e-09,5.937500e-03
-1.067500e-09,6.218750e-03
-1.063500e-09,6.093750e-03
-1.059500e-09,5.765625e-03
-1.055500e-09,5.843750e-03
-1.051500e-09,6.343750e-03
-1.047500e-09,6.031250e-03
-1.043500e-09,6.734375e-03
-1.039500e-09,7.046875e-03
-1.035500e-09,7.343750e-03
-1.031500e-09,6.234375e-03
-1.027500e-09,7.156250e-03
-1.023500e-09,6.453125e-03
-1.019500e-09,7.765625e-03
-1.015500e-09,7.671875e-03
-1.011500e-09,7.562500e-03
-1.007500e-09,7.062500e-03
-1.003500e-09,7.562500e-03
-9.995000e-10,7.250000e-03
-9.955000e-10,7.328125e-03
-9.915000e-10,7.828125e-03
-9.875000e-10,8.109375e-03
-9.835000e-10,7.968750e-03
-9.795000e-10,7.640625e-03
-9.755000e-10,7.687500e-03
-9.715000e-10,8.156250e-03
-9.675000e-10,7.796875e-03
-9.635000e-10,8.437500e-03
-9.595000e-10,8.656250e-03
-9.555000e-10,8.875000e-03
-9.515000e-10,7.671875e-03
-9.475000e-10,8.484375e-03
-9.435000e-10,7.656250e-03
-9.395000e-10,8.828125e-03
-9.355000e-10,8.593750e-03
-9.315000e-10,8.343750e-03
-9.275000e-10,7.687500e-03
-9.235000e-10,8.031250e-03
-9.195000e-10,7.562500e-03
-9.155000e-10,7.468750e-03
-9.115000e-10,7.781250e-03
-9.075000e-10,7.890625e-03
-9.035000e-10,7.578125e-03
-8.995000e-10,7.046875e-03
-8.955000e-10,6.921875e-03
-8.915000e-10,7.203125e-03
-8.875000e-10,6.656250e-03
-8.835000e-10,7.109375e-03
-8.795000e-10,7.156250e-03
-8.755000e-10,7.203125e-03
-8.715000e-10,5.859375e-03
-8.675000e-10,6.500000e-03
-8.635000e-10,5.515625e-03
-8.595000e-10,6.484375e-03
-8.555000e-10,6.125000e-03
-8.515000e-10,5.750000e-03
-8.475000e-10,5.000000e-03
-8.435000e-10,5.250000e-03
-8.395000e-10,4.671875e-03
-8.355000e-10,4.546875e-03
-8.315000e-10,4.781250e-03
-8.275000e-10,4.828125e-03
-8.235000e-10,4.515625e-03
-8.195000e-10,3.968750e-03
-8.155000e-10,3.843750e-03
-8.115000e-10,4.125000e-03
-8.075000e-10,3.609375e-03
-8.035000e-10,4.109375e-03
-7.995000e-10,4.218750e-03
-7.955000e-10,4.343750e-03
-7.915000e-10,3.125000e-03
-7.875000e-10,3.875000e-03
-7.835000e-10,3.031250e-03
-7.795000e-10,4.062500e-03
-7.755000e-10,3.906250e-03
-7.715000e-10,3.703125e-03
-7.675000e-10,3.171875e-03
-7.635000e-10,3.578125e-03
-7.595000e-10,3.187500e-03
-7.555000e-10,3.312500e-03
-7.515000e-10,3.765625e-03
-7.475000e-10,4.031250e-03
-7.435000e-10,4.015625e-03
-7.395000e-10,3.687500e-03
-7.355000e-10,3.796875e-03
-7.315000e-10,4.296875e-03
-7.275000e-10,4.046875e-03
-7.235000e-10,4.781250e-03
-7.195000e-10,5.156250e-03
-7.155000e-10,5.500000e-03
-7.115000e-10,4.515625e-03
-7.075000e-10,5.515625e-03
-7.035000e-10,4.921875e-03
-6.995000e-10,6.093750e-03
-6.955000e-10,6.171875e-03
-6.915000e-10,6.187500e-03
-6.875000e-10,5.859375e-03
-6.835000e-10,6.406250e-03
-6.795000e-10,6.140625e-03
-6.755000e-10,6.437500e-03
-6.715000e-10,7.000000e-03
-6.675000e-10,7.328125e-03
-6.635000e-10,7.484375e-03
-6.595000e-10,7.218750e-03
-6.555000e-10,7.343750e-03
-6.515000e-10,7.875000e-03
-6.475000e-10,7.671875e-03
-6.435000e-10,8.375000e-03
-6.395000e-10,8.734375e-03
-6.355000e-10,9.015625e-03
-6.315000e-10,7.953125e-03
-6.275000e-10,8.875000e-03
-6.235000e-10,8.265625e-03
-6.195000e-10,9.296875e-03
-6.155000e-10,9.281250e-03
-6.115000e-10,9.187500e-03
-6.075000e-10,8.703125e-03
-6.035000e-10,9.062500e-03
-5.995000e-10,8.593750e-03
-5.955000e-10,8.718750e-03
-5.915000e-10,9.109375e-03
-5.875000e-10,9.187500e-03
-5.835000e-10,9.203125e-03
-5.795000e-10,8.734375e-03
-5.755000e-10,8.656250e-03
-5.715000e-10,8.968750e-03
-5.675000e-10,8.578125e-03
-5.635000e-10,9.093750e-03
-5.595000e-10,9.203125e-03
-5.555000e-10,9.281250e-03
-5.515000e-10,7.968750e-03
-5.475000e-10,8.687500e-03
-5.435000e-10,7.953125e-03
-5.395000e-10,8.812500e-03
-5.355000e-10,8.671875e-03
-5.315000e-10,8.390625e-03
-5.275000e-10,7.765625e-03
-5.235000e-10,7.968750e-03
-5.195000e-10,7.406250e-03
-5.155000e-10,7.390625e-03
-5.115000e-10,7.718750e-03
-5.075000e-10,7.687500e-03
-5.035000e-10,7.593750e-03
-4.995000e-10,7.078125e-03
-4.955000e-10,6.984375e-03
-4.915000e-10,7.312500e-03
-4.875000e-10,6.875000e-03
-4.835000e-10,7.421875e-03
-4.795000e-10,7.515625e-03
-4.755000e-10,7.593750e-03
-4.715000e-10,6.312500e-03
-4.675000e-10,7.015625e-03
-4.635000e-10,6.375000e-03
-4.595000e-10,7.281250e-03
-4.555000e-10,7.250000e-03
-4.515000e-10,6.984375e-03
-4.475000e-10,6.421875e-03
-4.435000e-10,6.718750e-03
-4.395000e-10,6.296875e-03
-4.355000e-10,6.296875e-03
-4.315000e-10,6.734375e-03
-4.275000e-10,6.796875e-03
-4.235000e-10,6.687500e-03
-4.195000e-10,6.281250e-03
-4.155000e-10,6.328125e-03
-4.115000e-10,6.765625e-03
-4.075000e-10,6.343750e-03
-4.035000e-10,7.000000e-03
-3.995000e-10,7.156250e-03
-3.955000e-10,7.312500e-03
-3.915000e-10,6.125000e-03
-3.875000e-10,6.812500e-03
-3.835000e-10,6.218750e-03
-3.795000e-10,7.187500e-03
-3.755000e-10,7.203125e-03
-3.715000e-10,6.953125e-03
-3.675000e-10,6.421875e-03
-3.635000e-10,6.765625e-03
-3.595000e-10,6.437500e-03
-3.555000e-10,6.375000e-03
-3.515000e-10,6.828125e-03
-3.475000e-10,6.906250e-03
-3.435000e-10,6.734375e-03
-3.395000e-10,6.375000e-03
-3.355000e-10,6.453125e-03
-3.315000e-10,6.921875e-03
-3.275000e-10,6.453125e-03
-3.235000e-10,7.078125e-03
-3.195000e-10,7.296875e-03
-3.155000e-10,7.437500e-03
-3.115000e-10,6.281250e-03
-3.075000e-10,6.906250e-03
-3.035000e-10,6.296875e-03
-2.995000e-10,7.281250e-03
-2.955000e-10,7.265625e-03
-2.915000e-10,7.000000e-03
-2.875000e-10,6.515625e-03
-2.835000e-10,6.859375e-03
-2.795000e-10,6.562500e-03
-2.755000e-10,6.453125e-03
-2.715000e-10,6.859375e-03
-2.675000e-10,6.937500e-03
-2.635000e-10,6.703125e-03
-2.595000e-10,6.359375e-03
-2.555000e-10,6.406250e-03
-2.515000e-10,6.812500e-03
-2.475000e-10,6.343750e-03
-2.435000e-10,6.859375e-03
-2.395000e-10,7.062500e-03
-2.355000e-10,7.125000e-03
-2.315000e-10,5.953125e-03
-2.275000e-10,6.484375e-03
-2.235000e-10,5.703125e-03
-2.195000e-10,6.640625e-03
-2.155000e-10,6.437500e-03
-2.115000e-10,6.062500e-03
-2.075000e-10,5.484375e-03
-2.035000e-10,5.671875e-03
-1.995000e-10,5.187500e-03
-1.955000e-10,4.921875e-03
-1.915000e-10,5.109375e-03
-1.875000e-10,4.984375e-03
-1.835000e-10,4.531250e-03
-1.795000e-10,4.046875e-03
-1.755000e-10,3.828125e-03
-1.715000e-10,3.968750e-03
-1.675000e-10,3.296875e-03
-1.635000e-10,3.593750e-03
-1.595000e-10,3.578125e-03
-1.555000e-10,3.453125e-03
-1.515000e-10,2.140625e-03
-1.475000e-10,2.515625e-03
-1.435000e-10,1.531250e-03
-1.395000e-10,2.390625e-03
-1.355000e-10,2.031250e-03
-1.315000e-10,1.625000e-03
-1.275000e-10,1.062500e-03
-1.235000e-10,1.312500e-03
-1.195000e-10,8.750000e-04
-1.155000e-10,7.968750e-04
-1.115000e-10,1.156250e-03
-1.075000e-10,1.343750e-03
-1.035000e-10,1.234375e-03
-9.950000e-11,1.203125e-03
-9.550000e-11,1.484375e-03
-9.150000e-11,2.140625e-03
-8.750000e-11,2.203125e-03
-8.350000e-11,3.312500e-03
-7.950000e-11,4.171875e-03
-7.550000e-11,5.125000e-03
-7.150000e-11,5.015625e-03
-6.750000e-11,6.640625e-03
-6.350000e-11,7.000000e-03
-5.950000e-11,9.421875e-03
-5.550000e-11,1.062500e-02
-5.150000e-11,1.201563e-02
-4.750000e-11,1.334375e-02
-4.350000e-11,1.564063e-02
-3.950000e-11,1.734375e-02
-3.550000e-11,1.959375e-02
-3.150000e-11,2.235938e-02
-2.750000e-11,2.515625e-02
-2.350000e-11,2.767188e-02
-1.950000e-11,3.043750e-02
-1.550000e-11,3.360938e-02
-1.150000e-11,3.720313e-02
-7.500000e-12,4.039063e-02
-3.500000e-12,4.471875e-02
5.000000e-13,4.884375e-02
4.500000e-12,5.323438e-02
8.500000e-12,5.659375e-02
1.250000e-11,6.173438e-02
1.650000e-11,6.562500e-02
2.050000e-11,7.165625e-02
2.450000e-11,7.642188e-02
2.850000e-11,8.151563e-02
3.250000e-11,8.645313e-02
3.650000e-11,9.234375e-02
4.050000e-11,9.768750e-02
4.450000e-11,1.034688e-01
4.850000e-11,1.097656e-01
5.250000e-11,1.160938e-01
5.650000e-11,1.219375e-01
6.050000e-11,1.279688e-01
6.450000e-11,1.342969e-01
6.850000e-11,1.409063e-01
7.250000e-11,1.470469e-01
7.650000e-11,1.541406e-01
8.050000e-11,1.608281e-01
8.450000e-11,1.677188e-01
8.850000e-11,1.733125e-01
9.250000e-11,1.805156e-01
9.650000e-11,1.862344e-01
1.005000e-10,1.938906e-01
1.045000e-10,2.000000e-01
1.085000e-10,2.063125e-01
1.125000e-10,2.121250e-01
1.165000e-10,2.186250e-01
1.205000e-10,2.243906e-01
1.245000e-10,2.303281e-01
1.285000e-10,2.365000e-01
1.325000e-10,2.425313e-01
1.365000e-10,2.476563e-01
1.405000e-10,2.527188e-01
1.445000e-10,2.578594e-01
1.485000e-10,2.630156e-01
1.525000e-10,2.674688e-01
1.565000e-10,2.725625e-01
1.605000e-10,2.769375e-01
1.645000e-10,2.813594e-01
1.685000e-10,2.841562e-01
1.725000e-10,2.884219e-01
1.765000e-10,2.909531e-01
1.805000e-10,2.951250e-01
1.845000e-10,2.975313e-01
1.885000e-10,3.000156e-01
1.925000e-10,3.017656e-01
1.965000e-10,3.040000e-01
2.005000e-10,3.054219e-01
2.045000e-10,3.068125e-01
2.085000e-10,3.082969e-01
2.125000e-10,3.095625e-01
2.165000e-10,3.097500e-01
2.205000e-10,3.097656e-01
2.245000e-10,3.098438e-01
2.285000e-10,3.098750e-01
2.325000e-10,3.091406e-01
2.365000e-10,3.089531e-01
2.405000e-10,3.080313e-01
2.445000e-10,3.071875e-01
2.485000e-10,3.046563e-01
2.525000e-10,3.037031e-01
2.565000e-10,3.010625e-01
2.605000e-10,3.000000e-01
2.645000e-10,2.972813e-01
2.685000e-10,2.946719e-01
2.725000e-10,2.914219e-01
2.765000e-10,2.887813e-01
2.805000e-10,2.854688e-01
2.845000e-10,2.822188e-01
2.885000e-10,2.791094e-01
2.925000e-10,2.759688e-01
2.965000e-10,2.718750e-01
3.005000e-10,2.677188e-01
3.045000e-10,2.637969e-01
3.085000e-10,2.600313e-01
3.125000e-10,2.555938e-01
3.165000e-10,2.518594e-01
3.205000e-10,2.475625e-01
3.245000e-10,2.435469e-01
3.285000e-10,2.379531e-01
3.325000e-10,2.342031e-01
3.365000e-10,2.289375e-01
3.405000e-10,2.253125e-01
3.445000e-10,2.202969e-01
3.485000e-10,2.155313e-01
3.525000e-10,2.102500e-01
3.565000e-10,2.058594e-01
3.605000e-10,2.009375e-01
3.645000e-10,1.962344e-01
3.685000e-10,1.917813e-01
3.725000e-10,1.874375e-01
3.765000e-10,1.824063e-01
3.805000e-10,1.774219e-01
3.845000e-10,1.727969e-01
3.885000e-10,1.685313e-01
3.925000e-10,1.636250e-01
3.965000e-10,1.595938e-01
4.005000e-10,1.552188e-01
4.045000e-10,1.511719e-01
4.085000e-10,1.456563e-01
4.125000e-10,1.422031e-01
4.165000e-10,1.373125e-01
4.205000e-10,1.341563e-01
4.245000e-10,1.297500e-01
4.285000e-10,1.256406e-01
4.325000e-10,1.211406e-01
4.365000e-10,1.176406e-01
4.405000e-10,1.137031e-01
4.445000e-10,1.100625e-01
4.485000e-10,1.067188e-01
4.525000e-10,1.035469e-01
4.565000e-10,9.990625e-02
4.605000e-10,9.628125e-02
4.645000e-10,9.307813e-02
4.685000e-10,9.032813e-02
4.725000e-10,8.696875e-02
4.765000e-10,8.450000e-02
4.805000e-10,8.181250e-02
4.845000e-10,7.942188e-02
4.885000e-10,7.567188e-02
4.925000e-10,7.398438e-02
4.965000e-10,7.093750e-02
5.005000e-10,6.962500e-02
5.045000e-10,6.717188e-02
5.085000e-10,6.490625e-02
5.125000e-10,6.235938e-02
5.165000e-10,6.079688e-02
5.205000e-10,5.873438e-02
5.245000e-10,5.704688e-02
5.285000e-10,5.562500e-02
5.325000e-10,5.435938e-02
5.365000e-10,5.270313e-02
5.405000e-10,5.101563e-02
5.445000e-10,4.971875e-02
5.485000e-10,4.885938e-02
5.525000e-10,4.735938e-02
5.565000e-10,4.667188e-02
5.605000e-10,4.582813e-02
5.645000e-10,4.512500e-02
5.685000e-10,4.310938e-02
5.725000e-10,4.304688e-02
5.765000e-10,4.164063e-02
5.805000e-10,4.189063e-02
5.845000e-10,4.101563e-02
5.885000e-10,4.010938e-02
5.925000e-10,3.896875e-02
5.965000e-10,3.873438e-02
6.005000e-10,3.784375e-02
6.045000e-10,3.728125e-02
6.085000e-10,3.696875e-02
6.125000e-10,3.673438e-02
6.165000e-10,3.607813e-02
6.205000e-10,3.523438e-02
6.245000e-10,3.479688e-02
6.285000e-10,3.460938e-02
6.325000e-10,3.375000e-02
6.365000e-10,3.365625e-02
6.405000e-10,3.335938e-02
6.445000e-10,3.300000e-02
6.485000e-10,3.137500e-02
6.525000e-10,3.156250e-02
6.565000e-10,3.040625e-02
6.605000e-10,3.085938e-02
6.645000e-10,3.010938e-02
6.685000e-10,2.925000e-02
6.725000e-10,2.806250e-02
6.765000e-10,2.785938e-02
6.805000e-10,2.679688e-02
6.845000e-10,2.606250e-02
6.885000e-10,2.564063e-02
6.925000e-10,2.521875e-02
6.965000e-10,2.435938e-02
7.005000e-10,2.325000e-02
7.045000e-10,2.262500e-02
7.085000e-10,2.215625e-02
7.125000e-10,2.104688e-02
7.165000e-10,2.075000e-02
7.205000e-10,2.025000e-02
7.245000e-10,1.957813e-02
7.285000e-10,1.778125e-02
7.325000e-10,1.771875e-02
7.365000e-10,1.642188e-02
7.405000e-10,1.679688e-02
7.445000e-10,1.593750e-02
7.485000e-10,1.506250e-02
7.525000e-10,1.379688e-02
7.565000e-10,1.364063e-02
7.605000e-10,1.260938e-02
7.645000e-10,1.196875e-02
7.685000e-10,1.175000e-02
7.725000e-10,1.150000e-02
7.765000e-10,1.093750e-02
7.805000e-10,1.009375e-02
7.845000e-10,9.812500e-03
7.885000e-10,9.765625e-03
7.925000e-10,9.125000e-03
7.965000e-10,9.359375e-03
8.005000e-10,9.437500e-03
8.045000e-10,9.296875e-03
8.085000e-10,8.156250e-03
8.125000e-10,8.703125e-03
8.165000e-10,8.046875e-03
8.205000e-10,9.203125e-03
8.245000e-10,9.109375e-03
8.285000e-10,9.031250e-03
8.325000e-10,8.531250e-03
8.365000e-10,9.125000e-03
8.405000e-10,8.890625e-03
8.445000e-10,9.046875e-03
8.485000e-10,9.671875e-03
8.525000e-10,1.012500e-02
8.565000e-10,1.035938e-02
8.605000e-10,1.025000e-02
8.645000e-10,1.064063e-02
8.685000e-10,1.135938e-02
8.725000e-10,1.140625e-02
8.765000e-10,1.231250e-02
8.805000e-10,1.293750e-02
8.845000e-10,1.334375e-02
8.885000e-10,1.275000e-02
8.925000e-10,1.370313e-02
8.965000e-10,1.337500e-02
9.005000e-10,1.493750e-02
9.045000e-10,1.514063e-02
9.085000e-10,1.529688e-02
9.125000e-10,1.496875e-02
9.165000e-10,1.562500e-02
9.205000e-10,1.546875e-02
9.245000e-10,1.565625e-02
9.285000e-10,1.625000e-02
9.325000e-10,1.646875e-02
9.365000e-10,1.653125e-02
9.405000e-10,1.620313e-02
9.445000e-10,1.620313e-02
9.485000e-10,1.665625e-02
9.525000e-10,1.634375e-02
9.565000e-10,1.681250e-02
9.605000e-10,1.690625e-02
9.645000e-10,1.681250e-02
9.685000e-10,1.570313e-02
9.725000e-10,1.610938e-02
9.765000e-10,1.512500e-02
9.805000e-10,1.607813e-02
9.845000e-10,1.565625e-02
9.885000e-10,1.514063e-02
9.925000e-10,1.421875e-02
9.965000e-10,1.420313e-02
1.000500e-09,1.343750e-02
1.004500e-09,1.306250e-02
1.008500e-09,1.306250e-02
1.012500e-09,1.260938e-02
1.016500e-09,1.209375e-02
1.020500e-09,1.126563e-02
1.024500e-09,1.071875e-02
1.028500e-09,1.073438e-02
1.032500e-09,9.968750e-03
1.036500e-09,1.003125e-02
1.040500e-09,9.765625e-03
1.044500e-09,9.390625e-03
1.048500e-09,8.062500e-03
1.052500e-09,8.312500e-03
1.056500e-09,7.156250e-03
1.060500e-09,7.984375e-03
1.064500e-09,7.500000e-03
1.068500e-09,6.968750e-03
1.072500e-09,6.125000e-03
1.076500e-09,6.218750e-03
1.080500e-09,5.625000e-03
1.084500e-09,5.468750e-03
1.088500e-09,5.734375e-03
1.092500e-09,5.593750e-03
1.096500e-09,5.390625e-03
1.100500e-09,4.937500e-03
1.104500e-09,4.796875e-03
1.108500e-09,5.250000e-03
1.112500e-09,4.953125e-03
1.116500e-09,5.515625e-03
1.120500e-09,5.781250e-03
1.124500e-09,5.968750e-03
1.128500e-09,5.187500e-03
1.132500e-09,6.062500e-03
1.136500e-09,5.468750e-03
1.140500e-09,6.828125e-03
1.144500e-09,6.890625e-03
1.148500e-09,6.937500e-03
1.152500e-09,6.625000e-03
1.156500e-09,7.281250e-03
1.160500e-09,7.203125e-03
1.164500e-09,7.515625e-03
1.168500e-09,8.250000e-03
1.172500e-09,8.609375e-03
1.176500e-09,8.781250e-03
1.180500e-09,8.703125e-03
1.184500e-09,8.921875e-03
1.188500e-09,9.656250e-03
1.192500e-09,9.593750e-03
1.196500e-09,1.040625e-02
1.200500e-09,1.087500e-02
1.204500e-09,1.123438e-02
1.208500e-09,1.048438e-02
1.212500e-09,1.146875e-02
1.216500e-09,1.087500e-02
1.220500e-09,1.221875e-02
1.224500e-09,1.220313e-02
1.228500e-09,1.215625e-02
1.232500e-09,1.167188e-02
1.236500e-09,1.217188e-02
1.240500e-09,1.185938e-02
1.244500e-09,1.192188e-02
1.248500e-09,1.235938e-02
1.252500e-09,1.250000e-02
1.256500e-09,1.231250e-02
1.260500e-09,1.187500e-02
1.264500e-09,1.176563e-02
1.268500e-09,1.210938e-02
1.272500e-09,1.164063e-02
1.276500e-09,1.207813e-02
1.280500e-09,1.212500e-02
1.284500e-09,1.212500e-02
1.288500e-09,1.090625e-02
1.292500e-09,1.151563e-02
1.296500e-09,1.051563e-02
1.300500e-09,1.150000e-02
1.304500e-09,1.109375e-02
1.308500e-09,1.068750e-02
1.312500e-09,9.875000e-03
1.316500e-09,1.004688e-02
1.320500e-09,9.421875e-03
1.324500e-09,9.218750e-03
1.328500e-09,9.406250e-03
1.332500e-09,9.359375e-03
1.336500e-09,8.953125e-03
1.340500e-09,8.359375e-03
1.344500e-09,8.140625e-03
1.348500e-09,8.375000e-03
1.352500e-09,7.812500e-03
1.356500e-09,8.218750e-03
1.360500e-09,8.265625e-03
1.364500e-09,8.296875e-03
1.368500e-09,7.062500e-03
1.372500e-09,7.734375e-03
1.376500e-09,6.843750e-03
1.380500e-09,7.953125e-03
1.384500e-09,7.687500e-03
1.388500e-09,7.437500e-03
1.392500e-09,6.796875e-03
1.396500e-09,7.171875e-03
1.400500e-09,6.765625e-03
1.404500e-09,6.781250e-03
1.408500e-09,7.203125e-03
1.412500e-09,7.421875e-03
1.416500e-09,7.265625e-03
1.420500e-09,6.921875e-03
1.424500e-09,6.984375e-03
1.428500e-09,7.453125e-03
1.432500e-09,7.140625e-03
1.436500e-09,7.828125e-03
1.440500e-09,8.109375e-03
1.444500e-09,8.406250e-03
1.448500e-09,7.343750e-03
1.452500e-09,8.250000e-03
1.456500e-09,7.546875e-03
1.460500e-09,8.859375e-03
1.464500e-09,8.765625e-03
1.468500e-09,8.671875e-03
1.472500e-09,8.171875e-03
1.476500e-09,8.671875e-03
1.480500e-09,8.359375e-03
1.484500e-09,8.453125e-03
1.488500e-09,8.937500e-03
1.492500e-09,9.203125e-03
1.496500e-09,9.078125e-03
1.500500e-09,8.734375e-03
1.504500e-09,8.781250e-03
1.508500e-09,9.218750e-03
1.512500e-09,8.859375e-03
1.516500e-09,9.484375e-03
1.520500e-09,9.703125e-03
1.524500e-09,9.890625e-03
1.528500e-09,8.703125e-03
1.532500e-09,9.500000e-03
1.536500e-09,8.671875e-03
1.540500e-09,9.843750e-03
1.544500e-09,9.609375e-03
1.548500e-09,9.359375e-03
1.552500e-09,8.703125e-03
1.556500e-09,9.046875e-03
1.560500e-09,8.578125e-03
1.564500e-09,8.500000e-03
1.568500e-09,8.828125e-03
1.572500e-09,8.953125e-03
1.576500e-09,8.656250e-03
1.580500e-09,8.171875e-03
1.584500e-09,8.062500e-03
1.588500e-09,8.375000e-03
1.592500e-09,7.890625e-03
1.596500e-09,8.390625e-03
1.600500e-09,8.484375e-03
1.604500e-09,8.578125e-03
1.608500e-09,7.296875e-03
1.612500e-09,8.000000e-03
1.616500e-09,7.093750e-03
1.620500e-09,8.203125e-03
1.624500e-09,7.906250e-03
1.628500e-09,7.609375e-03
1.632500e-09,6.921875e-03
1.636500e-09,7.218750e-03
1.640500e-09,6.734375e-03
1.644500e-09,6.656250e-03
1.648500e-09,6.968750e-03
1.652500e-09,7.078125e-03
1.656500e-09,6.796875e-03
1.660500e-09,6.312500e-03
1.664500e-09,6.234375e-03
1.668500e-09,6.562500e-03
1.672500e-09,6.078125e-03
1.676500e-09,6.593750e-03
1.680500e-09,6.718750e-03
1.684500e-09,6.843750e-03
1.688500e-09,5.562500e-03
1.692500e-09,6.281250e-03
1.696500e-09,5.390625e-03
1.700500e-09,6.515625e-03
1.704500e-09,6.234375e-03
1.708500e-09,5.937500e-03
1.712500e-09,5.250000e-03
1.716500e-09,5.546875e-03
1.720500e-09,5.062500e-03
1.724500e-09,4.968750e-03
1.728500e-09,5.265625e-03
1.732500e-09,5.359375e-03
1.736500e-09,5.062500e-03
1.740500e-09,4.546875e-03
1.744500e-09,4.453125e-03
1.748500e-09,4.750000e-03
1.752500e-09,4.234375e-03
1.756500e-09,4.734375e-03
