Measurements-streak-laser/Photodiode-on-Tek-12bit-4GHz/Tek000_ch1_20190613133055228.csv

Model,MSO64
Waveform Type,ANALOG
Horizontal Units,s
Sample Interval,4.000000e-12
Record Length,1000
Zero Index,310.203125
Vertical Units,V

TIME,CH1
-1.240812e-09,2.203125e-03
-1.236812e-09,2.171875e-03
-1.232812e-09,1.750000e-03
-1.228812e-09,2.328125e-03
-1.224813e-09,2.109375e-03
-1.220813e-09,2.281250e-03
-1.216813e-09,2.875000e-03
-1.212813e-09,3.250000e-03
-1.208813e-09,3.218750e-03
-1.204813e-09,2.984375e-03
-1.200812e-09,3.156250e-03
-1.196812e-09,3.718750e-03
-1.192812e-09,3.453125e-03
-1.188812e-09,4.203125e-03
-1.184812e-09,4.531250e-03
-1.180812e-09,4.859375e-03
-1.176812e-09,3.750000e-03
-1.172812e-09,4.656250e-03
-1.168812e-09,3.921875e-03
-1.164813e-09,5.218750e-03
-1.160813e-09,5.062500e-03
-1.156813e-09,4.906250e-03
-1.152813e-09,4.343750e-03
-1.148813e-09,4.765625e-03
-1.144813e-09,4.359375e-03
-1.140812e-09,4.359375e-03
-1.136812e-09,4.750000e-03
-1.132812e-09,4.921875e-03
-1.128812e-09,4.687500e-03
-1.124812e-09,4.218750e-03
-1.120812e-09,4.171875e-03
-1.116812e-09,4.515625e-03
-1.112812e-09,4.031250e-03
-1.108812e-09,4.562500e-03
-1.104813e-09,4.671875e-03
-1.100813e-09,4.796875e-03
-1.096813e-09,3.484375e-03
-1.092813e-09,4.203125e-03
-1.088813e-09,3.296875e-03
-1.084813e-09,4.421875e-03
-1.080812e-09,4.125000e-03
-1.076812e-09,3.843750e-03
-1.072812e-09,3.156250e-03
-1.068812e-09,3.484375e-03
-1.064812e-09,3.000000e-03
-1.060812e-09,2.937500e-03
-1.056812e-09,3.296875e-03
-1.052812e-09,3.453125e-03
-1.048812e-09,3.218750e-03
-1.044813e-09,2.796875e-03
-1.040813e-09,2.796875e-03
-1.036813e-09,3.203125e-03
-1.032813e-09,2.812500e-03
-1.028813e-09,3.453125e-03
-1.024813e-09,3.703125e-03
-1.020812e-09,3.968750e-03
-1.016812e-09,2.828125e-03
-1.012812e-09,3.734375e-03
-1.008812e-09,3.015625e-03
-1.004812e-09,4.359375e-03
-1.000812e-09,4.281250e-03
-9.968125e-10,4.234375e-03
-9.928125e-10,3.781250e-03
-9.888125e-10,4.359375e-03
-9.848125e-10,4.140625e-03
-9.808125e-10,4.328125e-03
-9.768125e-10,4.937500e-03
-9.728125e-10,5.343750e-03
-9.688125e-10,5.375000e-03
-9.648125e-10,5.187500e-03
-9.608125e-10,5.421875e-03
-9.568125e-10,6.062500e-03
-9.528125e-10,5.890625e-03
-9.488125e-10,6.750000e-03
-9.448125e-10,7.187500e-03
-9.408125e-10,7.625000e-03
-9.368125e-10,6.656250e-03
-9.328125e-10,7.703125e-03
-9.288125e-10,7.125000e-03
-9.248125e-10,8.531250e-03
-9.208125e-10,8.546875e-03
-9.168125e-10,8.562500e-03
-9.128125e-10,8.156250e-03
-9.088125e-10,8.750000e-03
-9.048125e-10,8.515625e-03
-9.008125e-10,8.687500e-03
-8.968125e-10,9.250000e-03
-8.928125e-10,9.578125e-03
-8.888125e-10,9.500000e-03
-8.848125e-10,9.203125e-03
-8.808125e-10,9.296875e-03
-8.768125e-10,9.781250e-03
-8.728125e-10,9.437500e-03
-8.688125e-10,1.009375e-02
-8.648125e-10,1.031250e-02
-8.608125e-10,1.053125e-02
-8.568125e-10,9.343750e-03
-8.528125e-10,1.012500e-02
-8.488125e-10,9.281250e-03
-8.448125e-10,1.037500e-02
-8.408125e-10,1.012500e-02
-8.368125e-10,9.843750e-03
-8.328125e-10,9.171875e-03
-8.288125e-10,9.468750e-03
-8.248125e-10,8.937500e-03
-8.208125e-10,8.843750e-03
-8.168125e-10,9.109375e-03
-8.128125e-10,9.156250e-03
-8.088125e-10,8.843750e-03
-8.048125e-10,8.265625e-03
-8.008125e-10,8.093750e-03
-7.968125e-10,8.328125e-03
-7.928125e-10,7.750000e-03
-7.888125e-10,8.187500e-03
-7.848125e-10,8.203125e-03
-7.808125e-10,8.218750e-03
-7.768125e-10,6.875000e-03
-7.728125e-10,7.515625e-03
-7.688125e-10,6.531250e-03
-7.648125e-10,7.453125e-03
-7.608125e-10,7.125000e-03
-7.568125e-10,6.781250e-03
-7.528125e-10,6.062500e-03
-7.488125e-10,6.296875e-03
-7.448125e-10,5.718750e-03
-7.408125e-10,5.656250e-03
-7.368125e-10,5.906250e-03
-7.328125e-10,5.968750e-03
-7.288125e-10,5.750000e-03
-7.248125e-10,5.218750e-03
-7.208125e-10,5.125000e-03
-7.168125e-10,5.421875e-03
-7.128125e-10,4.968750e-03
-7.088125e-10,5.500000e-03
-7.048125e-10,5.656250e-03
-7.008125e-10,5.796875e-03
-6.968125e-10,4.578125e-03
-6.928125e-10,5.375000e-03
-6.888125e-10,4.593750e-03
-6.848125e-10,5.656250e-03
-6.808125e-10,5.515625e-03
-6.768125e-10,5.343750e-03
-6.728125e-10,4.828125e-03
-6.688125e-10,5.218750e-03
-6.648125e-10,4.796875e-03
-6.608125e-10,4.921875e-03
-6.568125e-10,5.343750e-03
-6.528125e-10,5.546875e-03
-6.488125e-10,5.546875e-03
-6.448125e-10,5.187500e-03
-6.408125e-10,5.218750e-03
-6.368125e-10,5.656250e-03
-6.328125e-10,5.375000e-03
-6.288125e-10,6.015625e-03
-6.248125e-10,6.312500e-03
-6.208125e-10,6.562500e-03
-6.168125e-10,5.421875e-03
-6.128125e-10,6.312500e-03
-6.088125e-10,5.671875e-03
-6.048125e-10,6.781250e-03
-6.008125e-10,6.734375e-03
-5.968125e-10,6.625000e-03
-5.928125e-10,6.140625e-03
-5.888125e-10,6.546875e-03
-5.848125e-10,6.156250e-03
-5.808125e-10,6.281250e-03
-5.768125e-10,6.734375e-03
-5.728125e-10,6.906250e-03
-5.688125e-10,6.906250e-03
-5.648125e-10,6.515625e-03
-5.608125e-10,6.531250e-03
-5.568125e-10,6.953125e-03
-5.528125e-10,6.609375e-03
-5.488125e-10,7.218750e-03
-5.448125e-10,7.421875e-03
-5.408125e-10,7.593750e-03
-5.368125e-10,6.375000e-03
-5.328125e-10,7.156250e-03
-5.288125e-10,6.468750e-03
-5.248125e-10,7.484375e-03
-5.208125e-10,7.375000e-03
-5.168125e-10,7.140625e-03
-5.128125e-10,6.546875e-03
-5.088125e-10,6.843750e-03
-5.048125e-10,6.359375e-03
-5.008125e-10,6.359375e-03
-4.968125e-10,6.703125e-03
-4.928125e-10,6.765625e-03
-4.888125e-10,6.593750e-03
-4.848125e-10,6.093750e-03
-4.808125e-10,6.031250e-03
-4.768125e-10,6.359375e-03
-4.728125e-10,5.875000e-03
-4.688125e-10,6.406250e-03
-4.648125e-10,6.468750e-03
-4.608125e-10,6.531250e-03
-4.568125e-10,5.218750e-03
-4.528125e-10,5.859375e-03
-4.488125e-10,5.078125e-03
-4.448125e-10,6.015625e-03
-4.408125e-10,5.843750e-03
-4.368125e-10,5.484375e-03
-4.328125e-10,4.812500e-03
-4.288125e-10,5.062500e-03
-4.248125e-10,4.562500e-03
-4.208125e-10,4.437500e-03
-4.168125e-10,4.765625e-03
-4.128125e-10,4.781250e-03
-4.088125e-10,4.515625e-03
-4.048125e-10,4.015625e-03
-4.008125e-10,3.984375e-03
-3.968125e-10,4.328125e-03
-3.928125e-10,3.812500e-03
-3.888125e-10,4.375000e-03
-3.848125e-10,4.484375e-03
-3.808125e-10,4.593750e-03
-3.768125e-10,3.359375e-03
-3.728125e-10,4.015625e-03
-3.688125e-10,3.296875e-03
-3.648125e-10,4.343750e-03
-3.608125e-10,4.265625e-03
-3.568125e-10,4.000000e-03
-3.528125e-10,3.468750e-03
-3.488125e-10,3.843750e-03
-3.448125e-10,3.531250e-03
-3.408125e-10,3.500000e-03
-3.368125e-10,3.984375e-03
-3.328125e-10,4.156250e-03
-3.288125e-10,4.015625e-03
-3.248125e-10,3.734375e-03
-3.208125e-10,3.875000e-03
-3.168125e-10,4.406250e-03
-3.128125e-10,4.062500e-03
-3.088125e-10,4.765625e-03
-3.048125e-10,5.109375e-03
-3.008125e-10,5.390625e-03
-2.968125e-10,4.359375e-03
-2.928125e-10,5.156250e-03
-2.888125e-10,4.593750e-03
-2.848125e-10,5.796875e-03
-2.808125e-10,5.828125e-03
-2.768125e-10,5.718750e-03
-2.728125e-10,5.343750e-03
-2.688125e-10,5.828125e-03
-2.648125e-10,5.609375e-03
-2.608125e-10,5.656250e-03
-2.568125e-10,6.171875e-03
-2.528125e-10,6.390625e-03
-2.488125e-10,6.250000e-03
-2.448125e-10,6.000000e-03
-2.408125e-10,6.093750e-03
-2.368125e-10,6.562500e-03
-2.328125e-10,6.187500e-03
-2.288125e-10,6.765625e-03
-2.248125e-10,7.015625e-03
-2.208125e-10,7.156250e-03
-2.168125e-10,6.000000e-03
-2.128125e-10,6.640625e-03
-2.088125e-10,5.828125e-03
-2.048125e-10,6.875000e-03
-2.008125e-10,6.625000e-03
-1.968125e-10,6.296875e-03
-1.928125e-10,5.687500e-03
-1.888125e-10,5.921875e-03
-1.848125e-10,5.406250e-03
-1.808125e-10,5.218750e-03
-1.768125e-10,5.421875e-03
-1.728125e-10,5.375000e-03
-1.688125e-10,4.968750e-03
-1.648125e-10,4.484375e-03
-1.608125e-10,4.312500e-03
-1.568125e-10,4.500000e-03
-1.528125e-10,3.937500e-03
-1.488125e-10,4.359375e-03
-1.448125e-10,4.437500e-03
-1.408125e-10,4.484375e-03
-1.368125e-10,3.281250e-03
-1.328125e-10,3.906250e-03
-1.288125e-10,3.078125e-03
-1.248125e-10,4.234375e-03
-1.208125e-10,4.078125e-03
-1.168125e-10,3.953125e-03
-1.128125e-10,3.625000e-03
-1.088125e-10,4.203125e-03
-1.048125e-10,4.093750e-03
-1.008125e-10,4.406250e-03
-9.681250e-11,5.171875e-03
-9.281250e-11,5.812500e-03
-8.881250e-11,6.140625e-03
-8.481250e-11,6.515625e-03
-8.081250e-11,7.250000e-03
-7.681250e-11,8.421875e-03
-7.281250e-11,8.984375e-03
-6.881250e-11,1.062500e-02
-6.481250e-11,1.196875e-02
-6.081250e-11,1.346875e-02
-5.681250e-11,1.379688e-02
-5.281250e-11,1.601563e-02
-4.881250e-11,1.684375e-02
-4.481250e-11,1.978125e-02
-4.081250e-11,2.145313e-02
-3.681250e-11,2.329688e-02
-3.281250e-11,2.496875e-02
-2.881250e-11,2.764063e-02
-2.481250e-11,2.968750e-02
-2.081250e-11,3.221875e-02
-1.681250e-11,3.526563e-02
-1.281250e-11,3.829688e-02
-8.812500e-12,4.095313e-02
-4.812500e-12,4.373438e-02
-8.125000e-13,4.689063e-02
3.187500e-12,5.046875e-02
7.187500e-12,5.350000e-02
1.118750e-11,5.760938e-02
1.518750e-11,6.139063e-02
1.918750e-11,6.537500e-02
2.318750e-11,6.812500e-02
2.718750e-11,7.271875e-02
3.118750e-11,7.587500e-02
3.518750e-11,8.112500e-02
3.918750e-11,8.495313e-02
4.318750e-11,8.900000e-02
4.718750e-11,9.270313e-02
5.118750e-11,9.734375e-02
5.518750e-11,1.012813e-01
5.918750e-11,1.055625e-01
6.318750e-11,1.102813e-01
6.718750e-11,1.148906e-01
7.118750e-11,1.189219e-01
7.518750e-11,1.229375e-01
7.918750e-11,1.272344e-01
8.318750e-11,1.317656e-01
8.718750e-11,1.356406e-01
9.118750e-11,1.404063e-01
9.518750e-11,1.446719e-01
9.918750e-11,1.490000e-01
1.031875e-10,1.519063e-01
1.071875e-10,1.565000e-01
1.111875e-10,1.594844e-01
1.151875e-10,1.643438e-01
1.191875e-10,1.676094e-01
1.231875e-10,1.709688e-01
1.271875e-10,1.737656e-01
1.311875e-10,1.772969e-01
1.351875e-10,1.800156e-01
1.391875e-10,1.829219e-01
1.431875e-10,1.860469e-01
1.471875e-10,1.889844e-01
1.511875e-10,1.910938e-01
1.551875e-10,1.930625e-01
1.591875e-10,1.951875e-01
1.631875e-10,1.974219e-01
1.671875e-10,1.988750e-01
1.711875e-10,2.010469e-01
1.751875e-10,2.025781e-01
1.791875e-10,2.041250e-01
1.831875e-10,2.040781e-01
1.871875e-10,2.057031e-01
1.911875e-10,2.056094e-01
1.951875e-10,2.072656e-01
1.991875e-10,2.072813e-01
2.031875e-10,2.073281e-01
2.071875e-10,2.067500e-01
2.111875e-10,2.068594e-01
2.151875e-10,2.061719e-01
2.191875e-10,2.056094e-01
2.231875e-10,2.052344e-01
2.271875e-10,2.046875e-01
2.311875e-10,2.032969e-01
2.351875e-10,2.017500e-01
2.391875e-10,2.004063e-01
2.431875e-10,1.992031e-01
2.471875e-10,1.972344e-01
2.511875e-10,1.960000e-01
2.551875e-10,1.941719e-01
2.591875e-10,1.924375e-01
2.631875e-10,1.891094e-01
2.671875e-10,1.876094e-01
2.711875e-10,1.844375e-01
2.751875e-10,1.830313e-01
2.791875e-10,1.800938e-01
2.831875e-10,1.772656e-01
2.871875e-10,1.738906e-01
2.911875e-10,1.713438e-01
2.951875e-10,1.681250e-01
2.991875e-10,1.651094e-01
3.031875e-10,1.623438e-01
3.071875e-10,1.595156e-01
3.111875e-10,1.560156e-01
3.151875e-10,1.524063e-01
3.191875e-10,1.491563e-01
3.231875e-10,1.461719e-01
3.271875e-10,1.425000e-01
3.311875e-10,1.396875e-01
3.351875e-10,1.364375e-01
3.391875e-10,1.333750e-01
3.431875e-10,1.288281e-01
3.471875e-10,1.262813e-01
3.511875e-10,1.222031e-01
3.551875e-10,1.199375e-01
3.591875e-10,1.163281e-01
3.631875e-10,1.129063e-01
3.671875e-10,1.090625e-01
3.711875e-10,1.062031e-01
3.751875e-10,1.027656e-01
3.791875e-10,9.965625e-02
3.831875e-10,9.687500e-02
3.871875e-10,9.415625e-02
3.911875e-10,9.092188e-02
3.951875e-10,8.767188e-02
3.991875e-10,8.484375e-02
4.031875e-10,8.243750e-02
4.071875e-10,7.937500e-02
4.111875e-10,7.726563e-02
4.151875e-10,7.487500e-02
4.191875e-10,7.270313e-02
4.231875e-10,6.914063e-02
4.271875e-10,6.767188e-02
4.311875e-10,6.476563e-02
4.351875e-10,6.370313e-02
4.391875e-10,6.140625e-02
4.431875e-10,5.929688e-02
4.471875e-10,5.684375e-02
4.511875e-10,5.543750e-02
4.551875e-10,5.346875e-02
4.591875e-10,5.187500e-02
4.631875e-10,5.062500e-02
4.671875e-10,4.945313e-02
4.711875e-10,4.785938e-02
4.751875e-10,4.621875e-02
4.791875e-10,4.500000e-02
4.831875e-10,4.423438e-02
4.871875e-10,4.278125e-02
4.911875e-10,4.225000e-02
4.951875e-10,4.146875e-02
4.991875e-10,4.082813e-02
5.031875e-10,3.882813e-02
5.071875e-10,3.884375e-02
5.111875e-10,3.742188e-02
5.151875e-10,3.779688e-02
5.191875e-10,3.692188e-02
5.231875e-10,3.610938e-02
5.271875e-10,3.496875e-02
5.311875e-10,3.476563e-02
5.351875e-10,3.390625e-02
5.391875e-10,3.340625e-02
5.431875e-10,3.318750e-02
5.471875e-10,3.293750e-02
5.511875e-10,3.226563e-02
5.551875e-10,3.143750e-02
5.591875e-10,3.096875e-02
5.631875e-10,3.085938e-02
5.671875e-10,2.998438e-02
5.711875e-10,2.995313e-02
5.751875e-10,2.964063e-02
5.791875e-10,2.931250e-02
5.831875e-10,2.762500e-02
5.871875e-10,2.784375e-02
5.911875e-10,2.657813e-02
5.951875e-10,2.706250e-02
5.991875e-10,2.626563e-02
6.031875e-10,2.537500e-02
6.071875e-10,2.415625e-02
6.111875e-10,2.385938e-02
6.151875e-10,2.278125e-02
6.191875e-10,2.203125e-02
6.231875e-10,2.157813e-02
6.271875e-10,2.104688e-02
6.311875e-10,2.010938e-02
6.351875e-10,1.892188e-02
6.391875e-10,1.817188e-02
6.431875e-10,1.768750e-02
6.471875e-10,1.646875e-02
6.511875e-10,1.612500e-02
6.551875e-10,1.550000e-02
6.591875e-10,1.479688e-02
6.631875e-10,1.284375e-02
6.671875e-10,1.275000e-02
6.711875e-10,1.126563e-02
6.751875e-10,1.156250e-02
6.791875e-10,1.059375e-02
6.831875e-10,9.578125e-03
6.871875e-10,8.234375e-03
6.911875e-10,7.937500e-03
6.951875e-10,6.812500e-03
6.991875e-10,6.093750e-03
7.031875e-10,5.781250e-03
7.071875e-10,5.421875e-03
7.111875e-10,4.703125e-03
7.151875e-10,3.765625e-03
7.191875e-10,3.359375e-03
7.231875e-10,3.234375e-03
7.271875e-10,2.468750e-03
7.311875e-10,2.625000e-03
7.351875e-10,2.578125e-03
7.391875e-10,2.406250e-03
7.431875e-10,1.109375e-03
7.471875e-10,1.656250e-03
7.511875e-10,8.593750e-04
7.551875e-10,1.937500e-03
7.591875e-10,1.750000e-03
7.631875e-10,1.562500e-03
7.671875e-10,1.015625e-03
7.711875e-10,1.562500e-03
7.751875e-10,1.281250e-03
7.791875e-10,1.390625e-03
7.831875e-10,1.968750e-03
7.871875e-10,2.437500e-03
7.911875e-10,2.593750e-03
7.951875e-10,2.468750e-03
7.991875e-10,2.843750e-03
8.031875e-10,3.546875e-03
8.071875e-10,3.546875e-03
8.111875e-10,4.468750e-03
8.151875e-10,5.109375e-03
8.191875e-10,5.593750e-03
8.231875e-10,4.921875e-03
8.271875e-10,6.000000e-03
8.311875e-10,5.703125e-03
8.351875e-10,7.281250e-03
8.391875e-10,7.515625e-03
8.431875e-10,7.734375e-03
8.471875e-10,7.484375e-03
8.511875e-10,8.250000e-03
8.551875e-10,8.171875e-03
8.591875e-10,8.453125e-03
8.631875e-10,9.140625e-03
8.671875e-10,9.562500e-03
8.711875e-10,9.703125e-03
8.751875e-10,9.515625e-03
8.791875e-10,9.718750e-03
8.831875e-10,1.028125e-02
8.871875e-10,1.009375e-02
8.911875e-10,1.076563e-02
8.951875e-10,1.107813e-02
8.991875e-10,1.123438e-02
9.031875e-10,1.021875e-02
9.071875e-10,1.090625e-02
9.111875e-10,1.014063e-02
9.151875e-10,1.132813e-02
9.191875e-10,1.112500e-02
9.231875e-10,1.087500e-02
9.271875e-10,1.018750e-02
9.311875e-10,1.045313e-02
9.351875e-10,9.937500e-03
9.391875e-10,9.796875e-03
9.431875e-10,1.006250e-02
9.471875e-10,1.000000e-02
9.511875e-10,9.718750e-03
9.551875e-10,9.156250e-03
9.591875e-10,8.937500e-03
9.631875e-10,9.218750e-03
9.671875e-10,8.718750e-03
9.711875e-10,9.109375e-03
9.751875e-10,9.140625e-03
9.791875e-10,9.078125e-03
9.831875e-10,7.906250e-03
9.871875e-10,8.468750e-03
9.911875e-10,7.562500e-03
9.951875e-10,8.671875e-03
9.991875e-10,8.421875e-03
1.003187e-09,8.140625e-03
1.007187e-09,7.515625e-03
1.011187e-09,7.828125e-03
1.015187e-09,7.421875e-03
1.019187e-09,7.421875e-03
1.023187e-09,7.859375e-03
1.027188e-09,7.921875e-03
1.031188e-09,7.828125e-03
1.035188e-09,7.500000e-03
1.039188e-09,7.500000e-03
1.043188e-09,8.015625e-03
1.047188e-09,7.765625e-03
1.051187e-09,8.406250e-03
1.055187e-09,8.687500e-03
1.059187e-09,8.921875e-03
1.063187e-09,8.031250e-03
1.067187e-09,8.875000e-03
1.071187e-09,8.218750e-03
1.075187e-09,9.531250e-03
1.079187e-09,9.500000e-03
1.083187e-09,9.437500e-03
1.087188e-09,8.984375e-03
1.091188e-09,9.484375e-03
1.095188e-09,9.234375e-03
1.099188e-09,9.359375e-03
1.103188e-09,9.890625e-03
1.107188e-09,1.007813e-02
1.111187e-09,1.000000e-02
1.115187e-09,9.687500e-03
1.119187e-09,9.687500e-03
1.123187e-09,1.017188e-02
1.127187e-09,9.828125e-03
1.131187e-09,1.040625e-02
1.135187e-09,1.059375e-02
1.139187e-09,1.070313e-02
1.143187e-09,9.625000e-03
1.147188e-09,1.035938e-02
1.151188e-09,9.484375e-03
1.155188e-09,1.059375e-02
1.159188e-09,1.031250e-02
1.163188e-09,1.001563e-02
1.167188e-09,9.296875e-03
1.171187e-09,9.562500e-03
1.175187e-09,9.031250e-03
1.179187e-09,8.906250e-03
1.183187e-09,9.156250e-03
1.187187e-09,9.140625e-03
1.191187e-09,8.796875e-03
1.195187e-09,8.234375e-03
1.199187e-09,8.015625e-03
1.203187e-09,8.265625e-03
1.207188e-09,7.718750e-03
1.211188e-09,8.109375e-03
1.215188e-09,8.140625e-03
1.219188e-09,8.140625e-03
1.223188e-09,6.906250e-03
1.227188e-09,7.546875e-03
1.231187e-09,6.609375e-03
1.235187e-09,7.671875e-03
1.239187e-09,7.359375e-03
1.243187e-09,7.062500e-03
1.247187e-09,6.390625e-03
1.251187e-09,6.718750e-03
1.255187e-09,6.281250e-03
1.259187e-09,6.250000e-03
1.263187e-09,6.640625e-03
1.267188e-09,6.796875e-03
1.271188e-09,6.625000e-03
1.275188e-09,6.265625e-03
1.279188e-09,6.281250e-03
1.283188e-09,6.765625e-03
1.287188e-09,6.453125e-03
1.291187e-09,7.125000e-03
1.295187e-09,7.421875e-03
1.299187e-09,7.718750e-03
1.303187e-09,6.718750e-03
1.307187e-09,7.656250e-03
1.311187e-09,7.000000e-03
1.315187e-09,8.359375e-03
1.319187e-09,8.328125e-03
1.323187e-09,8.296875e-03
1.327188e-09,7.875000e-03
1.331188e-09,8.437500e-03
1.335188e-09,8.218750e-03
1.339188e-09,8.406250e-03
1.343188e-09,8.984375e-03
1.347188e-09,9.343750e-03
1.351187e-09,9.312500e-03
1.355187e-09,9.062500e-03
1.359187e-09,9.203125e-03
1.363187e-09,9.765625e-03
1.367187e-09,9.500000e-03
1.371187e-09,1.020313e-02
1.375187e-09,1.051563e-02
1.379187e-09,1.081250e-02
1.383187e-09,9.718750e-03
1.387187e-09,1.057813e-02
1.391188e-09,9.828125e-03
1.395188e-09,1.106250e-02
1.399188e-09,1.089063e-02
1.403188e-09,1.068750e-02
1.407188e-09,1.007813e-02
1.411187e-09,1.045313e-02
1.415187e-09,1.001563e-02
1.419187e-09,9.968750e-03
1.423187e-09,1.029688e-02
1.427187e-09,1.040625e-02
1.431187e-09,1.010938e-02
1.435187e-09,9.609375e-03
1.439187e-09,9.484375e-03
1.443187e-09,9.765625e-03
1.447187e-09,9.234375e-03
1.451188e-09,9.687500e-03
1.455188e-09,9.734375e-03
1.459188e-09,9.781250e-03
1.463188e-09,8.437500e-03
1.467188e-09,9.093750e-03
1.471187e-09,8.125000e-03
1.475187e-09,9.171875e-03
1.479187e-09,8.812500e-03
1.483187e-09,8.468750e-03
1.487187e-09,7.718750e-03
1.491187e-09,7.968750e-03
1.495187e-09,7.437500e-03
1.499187e-09,7.312500e-03
1.503187e-09,7.593750e-03
1.507187e-09,7.687500e-03
1.511188e-09,7.375000e-03
1.515188e-09,6.890625e-03
1.519188e-09,6.812500e-03
1.523188e-09,7.140625e-03
1.527188e-09,6.687500e-03
1.531187e-09,7.234375e-03
1.535187e-09,7.421875e-03
1.539187e-09,7.593750e-03
1.543187e-09,6.390625e-03
1.547187e-09,7.203125e-03
1.551187e-09,6.421875e-03
1.555187e-09,7.656250e-03
1.559187e-09,7.484375e-03
1.563187e-09,7.343750e-03
1.567187e-09,6.796875e-03
1.571188e-09,7.265625e-03
1.575188e-09,6.937500e-03
1.579188e-09,7.015625e-03
1.583188e-09,7.515625e-03
1.587188e-09,7.812500e-03
1.591187e-09,7.718750e-03
1.595187e-09,7.406250e-03
1.599187e-09,7.515625e-03
1.603187e-09,8.015625e-03
1.607187e-09,7.718750e-03
1.611187e-09,8.421875e-03
1.615187e-09,8.734375e-03
1.619187e-09,9.031250e-03
1.623187e-09,7.921875e-03
1.627187e-09,8.828125e-03
1.631188e-09,8.093750e-03
1.635188e-09,9.390625e-03
1.639188e-09,9.265625e-03
1.643188e-09,9.125000e-03
1.647188e-09,8.578125e-03
1.651187e-09,9.031250e-03
1.655187e-09,8.671875e-03
1.659187e-09,8.703125e-03
1.663187e-09,9.140625e-03
1.667187e-09,9.359375e-03
1.671187e-09,9.156250e-03
1.675187e-09,8.750000e-03
1.679187e-09,8.734375e-03
1.683187e-09,9.125000e-03
1.687187e-09,8.687500e-03
1.691188e-09,9.265625e-03
1.695188e-09,9.421875e-03
1.699188e-09,9.562500e-03
1.703188e-09,8.296875e-03
1.707188e-09,9.046875e-03
1.711187e-09,8.171875e-03
1.715187e-09,9.312500e-03
1.719187e-09,9.031250e-03
1.723187e-09,8.750000e-03
1.727187e-09,8.046875e-03
1.731187e-09,8.375000e-03
1.735187e-09,7.875000e-03
1.739187e-09,7.796875e-03
1.743187e-09,8.109375e-03
1.747187e-09,8.218750e-03
1.751188e-09,7.937500e-03
1.755188e-09,7.437500e-03
1.759188e-09,7.359375e-03
