Measurements-streak-laser/Photodiode-on-Tek-12bit-4GHz/Tek000_ch1_20190613132948237.csv

Model,MSO64
Waveform Type,ANALOG
Horizontal Units,s
Sample Interval,4.000000e-12
Record Length,1000
Zero Index,310.343750
Vertical Units,V

TIME,CH1
-1.241375e-09,3.328125e-03
-1.237375e-09,3.234375e-03
-1.233375e-09,3.546875e-03
-1.229375e-09,3.671875e-03
-1.225375e-09,3.406250e-03
-1.221375e-09,2.953125e-03
-1.217375e-09,2.921875e-03
-1.213375e-09,3.312500e-03
-1.209375e-09,2.890625e-03
-1.205375e-09,3.515625e-03
-1.201375e-09,3.750000e-03
-1.197375e-09,3.984375e-03
-1.193375e-09,2.828125e-03
-1.189375e-09,3.703125e-03
-1.185375e-09,2.968750e-03
-1.181375e-09,4.281250e-03
-1.177375e-09,4.187500e-03
-1.173375e-09,4.109375e-03
-1.169375e-09,3.625000e-03
-1.165375e-09,4.171875e-03
-1.161375e-09,3.921875e-03
-1.157375e-09,4.078125e-03
-1.153375e-09,4.656250e-03
-1.149375e-09,5.031250e-03
-1.145375e-09,5.000000e-03
-1.141375e-09,4.765625e-03
-1.137375e-09,4.953125e-03
-1.133375e-09,5.546875e-03
-1.129375e-09,5.328125e-03
-1.125375e-09,6.125000e-03
-1.121375e-09,6.500000e-03
-1.117375e-09,6.890625e-03
-1.113375e-09,5.859375e-03
-1.109375e-09,6.828125e-03
-1.105375e-09,6.187500e-03
-1.101375e-09,7.562500e-03
-1.097375e-09,7.515625e-03
-1.093375e-09,7.468750e-03
-1.089375e-09,7.000000e-03
-1.085375e-09,7.531250e-03
-1.081375e-09,7.250000e-03
-1.077375e-09,7.359375e-03
-1.073375e-09,7.875000e-03
-1.069375e-09,8.156250e-03
-1.065375e-09,8.031250e-03
-1.061375e-09,7.703125e-03
-1.057375e-09,7.765625e-03
-1.053375e-09,8.234375e-03
-1.049375e-09,7.875000e-03
-1.045375e-09,8.515625e-03
-1.041375e-09,8.734375e-03
-1.037375e-09,8.953125e-03
-1.033375e-09,7.750000e-03
-1.029375e-09,8.562500e-03
-1.025375e-09,7.734375e-03
-1.021375e-09,8.937500e-03
-1.017375e-09,8.718750e-03
-1.013375e-09,8.484375e-03
-1.009375e-09,7.843750e-03
-1.005375e-09,8.218750e-03
-1.001375e-09,7.765625e-03
-9.973750e-10,7.703125e-03
-9.933750e-10,8.062500e-03
-9.893750e-10,8.203125e-03
-9.853750e-10,7.937500e-03
-9.813750e-10,7.453125e-03
-9.773750e-10,7.390625e-03
-9.733750e-10,7.718750e-03
-9.693750e-10,7.234375e-03
-9.653750e-10,7.750000e-03
-9.613750e-10,7.875000e-03
-9.573750e-10,7.984375e-03
-9.533750e-10,6.671875e-03
-9.493750e-10,7.390625e-03
-9.453750e-10,6.484375e-03
-9.413750e-10,7.562500e-03
-9.373750e-10,7.250000e-03
-9.333750e-10,6.937500e-03
-9.293750e-10,6.218750e-03
-9.253750e-10,6.500000e-03
-9.213750e-10,5.968750e-03
-9.173750e-10,5.843750e-03
-9.133750e-10,6.125000e-03
-9.093750e-10,6.187500e-03
-9.053750e-10,5.843750e-03
-9.013750e-10,5.296875e-03
-8.973750e-10,5.156250e-03
-8.933750e-10,5.406250e-03
-8.893750e-10,4.859375e-03
-8.853750e-10,5.312500e-03
-8.813750e-10,5.343750e-03
-8.773750e-10,5.390625e-03
-8.733750e-10,4.046875e-03
-8.693750e-10,4.703125e-03
-8.653750e-10,3.718750e-03
-8.613750e-10,4.625000e-03
-8.573750e-10,4.296875e-03
-8.533750e-10,3.921875e-03
-8.493750e-10,3.203125e-03
-8.453750e-10,3.453125e-03
-8.413750e-10,2.906250e-03
-8.373750e-10,2.796875e-03
-8.333750e-10,3.062500e-03
-8.293750e-10,3.156250e-03
-8.253750e-10,2.859375e-03
-8.213750e-10,2.343750e-03
-8.173750e-10,2.265625e-03
-8.133750e-10,2.578125e-03
-8.093750e-10,2.109375e-03
-8.053750e-10,2.671875e-03
-8.013750e-10,2.828125e-03
-7.973750e-10,3.015625e-03
-7.933750e-10,1.921875e-03
-7.893750e-10,2.750000e-03
-7.853750e-10,1.984375e-03
-7.813750e-10,2.906250e-03
-7.773750e-10,2.906250e-03
-7.733750e-10,2.796875e-03
-7.693750e-10,2.437500e-03
-7.653750e-10,2.937500e-03
-7.613750e-10,2.656250e-03
-7.573750e-10,2.968750e-03
-7.533750e-10,3.531250e-03
-7.493750e-10,3.906250e-03
-7.453750e-10,4.093750e-03
-7.413750e-10,3.906250e-03
-7.373750e-10,4.125000e-03
-7.333750e-10,4.781250e-03
-7.293750e-10,4.656250e-03
-7.253750e-10,5.531250e-03
-7.213750e-10,6.046875e-03
-7.173750e-10,6.531250e-03
-7.133750e-10,5.781250e-03
-7.093750e-10,6.921875e-03
-7.053750e-10,6.468750e-03
-7.013750e-10,7.500000e-03
-6.973750e-10,7.796875e-03
-6.933750e-10,7.937500e-03
-6.893750e-10,7.812500e-03
-6.853750e-10,8.390625e-03
-6.813750e-10,8.140625e-03
-6.773750e-10,8.609375e-03
-6.733750e-10,9.171875e-03
-6.693750e-10,9.468750e-03
-6.653750e-10,9.843750e-03
-6.613750e-10,9.531250e-03
-6.573750e-10,9.593750e-03
-6.533750e-10,1.003125e-02
-6.493750e-10,9.781250e-03
-6.453750e-10,1.037500e-02
-6.413750e-10,1.064063e-02
-6.373750e-10,1.075000e-02
-6.333750e-10,9.578125e-03
-6.293750e-10,1.037500e-02
-6.253750e-10,9.656250e-03
-6.213750e-10,1.017188e-02
-6.173750e-10,1.004688e-02
-6.133750e-10,9.781250e-03
-6.093750e-10,9.156250e-03
-6.053750e-10,9.140625e-03
-6.013750e-10,8.296875e-03
-5.973750e-10,8.296875e-03
-5.933750e-10,8.328125e-03
-5.893750e-10,8.000000e-03
-5.853750e-10,8.015625e-03
-5.813750e-10,7.156250e-03
-5.773750e-10,6.703125e-03
-5.733750e-10,6.640625e-03
-5.693750e-10,6.046875e-03
-5.653750e-10,6.171875e-03
-5.613750e-10,6.015625e-03
-5.573750e-10,5.734375e-03
-5.533750e-10,4.140625e-03
-5.493750e-10,4.625000e-03
-5.453750e-10,3.843750e-03
-5.413750e-10,4.109375e-03
-5.373750e-10,3.937500e-03
-5.333750e-10,3.531250e-03
-5.293750e-10,2.843750e-03
-5.253750e-10,2.796875e-03
-5.213750e-10,1.984375e-03
-5.173750e-10,2.046875e-03
-5.133750e-10,2.312500e-03
-5.093750e-10,2.093750e-03
-5.053750e-10,2.296875e-03
-5.013750e-10,1.750000e-03
-4.973750e-10,1.671875e-03
-4.933750e-10,2.031250e-03
-4.893750e-10,1.796875e-03
-4.853750e-10,2.468750e-03
-4.813750e-10,2.656250e-03
-4.773750e-10,2.843750e-03
-4.733750e-10,1.734375e-03
-4.693750e-10,2.625000e-03
-4.653750e-10,2.437500e-03
-4.613750e-10,3.234375e-03
-4.573750e-10,3.718750e-03
-4.533750e-10,3.703125e-03
-4.493750e-10,3.484375e-03
-4.453750e-10,3.921875e-03
-4.413750e-10,3.718750e-03
-4.373750e-10,4.062500e-03
-4.333750e-10,4.781250e-03
-4.293750e-10,4.906250e-03
-4.253750e-10,5.250000e-03
-4.213750e-10,5.015625e-03
-4.173750e-10,5.296875e-03
-4.133750e-10,5.937500e-03
-4.093750e-10,5.671875e-03
-4.053750e-10,6.515625e-03
-4.013750e-10,6.703125e-03
-3.973750e-10,6.859375e-03
-3.933750e-10,5.718750e-03
-3.893750e-10,6.296875e-03
-3.853750e-10,5.953125e-03
-3.813750e-10,6.562500e-03
-3.773750e-10,6.781250e-03
-3.733750e-10,6.343750e-03
-3.693750e-10,5.765625e-03
-3.653750e-10,5.828125e-03
-3.613750e-10,5.375000e-03
-3.573750e-10,5.046875e-03
-3.533750e-10,5.312500e-03
-3.493750e-10,4.953125e-03
-3.453750e-10,4.578125e-03
-3.413750e-10,3.906250e-03
-3.373750e-10,3.781250e-03
-3.333750e-10,3.968750e-03
-3.293750e-10,3.109375e-03
-3.253750e-10,3.437500e-03
-3.213750e-10,3.312500e-03
-3.173750e-10,3.031250e-03
-3.133750e-10,1.625000e-03
-3.093750e-10,1.718750e-03
-3.053750e-10,1.093750e-03
-3.013750e-10,1.515625e-03
-2.973750e-10,1.531250e-03
-2.933750e-10,9.687500e-04
-2.893750e-10,4.531250e-04
-2.853750e-10,5.781250e-04
-2.813750e-10,2.968750e-04
-2.773750e-10,1.562500e-05
-2.733750e-10,4.687500e-04
-2.693750e-10,4.218750e-04
-2.653750e-10,2.812500e-04
-2.613750e-10,1.718750e-04
-2.573750e-10,5.000000e-04
-2.533750e-10,1.218750e-03
-2.493750e-10,9.687500e-04
-2.453750e-10,1.796875e-03
-2.413750e-10,2.437500e-03
-2.373750e-10,2.828125e-03
-2.333750e-10,2.250000e-03
-2.293750e-10,3.015625e-03
-2.253750e-10,3.000000e-03
-2.213750e-10,4.203125e-03
-2.173750e-10,4.812500e-03
-2.133750e-10,4.968750e-03
-2.093750e-10,5.234375e-03
-2.053750e-10,5.968750e-03
-2.013750e-10,6.218750e-03
-1.973750e-10,6.468750e-03
-1.933750e-10,7.250000e-03
-1.893750e-10,7.578125e-03
-1.853750e-10,7.656250e-03
-1.813750e-10,7.875000e-03
-1.773750e-10,8.203125e-03
-1.733750e-10,8.812500e-03
-1.693750e-10,8.531250e-03
-1.653750e-10,9.093750e-03
-1.613750e-10,9.406250e-03
-1.573750e-10,9.390625e-03
-1.533750e-10,8.390625e-03
-1.493750e-10,8.546875e-03
-1.453750e-10,7.640625e-03
-1.413750e-10,8.171875e-03
-1.373750e-10,7.718750e-03
-1.333750e-10,6.984375e-03
-1.293750e-10,6.281250e-03
-1.253750e-10,5.984375e-03
-1.213750e-10,5.062500e-03
-1.173750e-10,4.296875e-03
-1.133750e-10,3.843750e-03
-1.093750e-10,3.109375e-03
-1.053750e-10,2.093750e-03
-1.013750e-10,1.359375e-03
-9.737500e-11,6.718750e-04
-9.337500e-11,2.187500e-04
-8.937500e-11,-7.500000e-04
-8.537500e-11,-7.656250e-04
-8.137500e-11,-9.687500e-04
-7.737500e-11,-1.140625e-03
-7.337500e-11,-2.062500e-03
-6.937500e-11,-1.687500e-03
-6.537500e-11,-2.234375e-03
-6.137500e-11,-8.437500e-04
-5.737500e-11,-4.375000e-04
-5.337500e-11,2.656250e-04
-4.937500e-11,1.265625e-03
-4.537500e-11,3.093750e-03
-4.137500e-11,4.593750e-03
-3.737500e-11,6.734375e-03
-3.337500e-11,9.500000e-03
-2.937500e-11,1.253125e-02
-2.537500e-11,1.556250e-02
-2.137500e-11,1.937500e-02
-1.737500e-11,2.359375e-02
-1.337500e-11,2.835938e-02
-9.375000e-12,3.321875e-02
-5.375000e-12,3.946875e-02
-1.375000e-12,4.587500e-02
2.625000e-12,5.293750e-02
6.625000e-12,5.957813e-02
1.062500e-11,6.781250e-02
1.462500e-11,7.542188e-02
1.862500e-11,8.545313e-02
2.262500e-11,9.459375e-02
2.662500e-11,1.045938e-01
3.062500e-11,1.150156e-01
3.462500e-11,1.264688e-01
3.862500e-11,1.378594e-01
4.262500e-11,1.499844e-01
4.662500e-11,1.629375e-01
5.062500e-11,1.763750e-01
5.462500e-11,1.895313e-01
5.862500e-11,2.035938e-01
6.262500e-11,2.179844e-01
6.662500e-11,2.327500e-01
7.062500e-11,2.476406e-01
7.462500e-11,2.636719e-01
7.862500e-11,2.795313e-01
8.262500e-11,2.960000e-01
8.662500e-11,3.115625e-01
9.062500e-11,3.283906e-01
9.462500e-11,3.441094e-01
9.862500e-11,3.618281e-01
1.026250e-10,3.780313e-01
1.066250e-10,3.948438e-01
1.106250e-10,4.112344e-01
1.146250e-10,4.280156e-01
1.186250e-10,4.442656e-01
1.226250e-10,4.604844e-01
1.266250e-10,4.768906e-01
1.306250e-10,4.932344e-01
1.346250e-10,5.082031e-01
1.386250e-10,5.234063e-01
1.426250e-10,5.382344e-01
1.466250e-10,5.526250e-01
1.506250e-10,5.665000e-01
1.546250e-10,5.805938e-01
1.586250e-10,5.935625e-01
1.626250e-10,6.066250e-01
1.666250e-10,6.178125e-01
1.706250e-10,6.296719e-01
1.746250e-10,6.396094e-01
1.786250e-10,6.507188e-01
1.826250e-10,6.595625e-01
1.866250e-10,6.685000e-01
1.906250e-10,6.762031e-01
1.946250e-10,6.836563e-01
1.986250e-10,6.901875e-01
2.026250e-10,6.960781e-01
2.066250e-10,7.015469e-01
2.106250e-10,7.067031e-01
2.146250e-10,7.097969e-01
2.186250e-10,7.127188e-01
2.226250e-10,7.151094e-01
2.266250e-10,7.167813e-01
2.306250e-10,7.176875e-01
2.346250e-10,7.184531e-01
2.386250e-10,7.179375e-01
2.426250e-10,7.175313e-01
2.466250e-10,7.150469e-01
2.506250e-10,7.134375e-01
2.546250e-10,7.099375e-01
2.586250e-10,7.074531e-01
2.626250e-10,7.028906e-01
2.666250e-10,6.985625e-01
2.706250e-10,6.932344e-01
2.746250e-10,6.879063e-01
2.786250e-10,6.820469e-01
2.826250e-10,6.757656e-01
2.866250e-10,6.692813e-01
2.906250e-10,6.629375e-01
2.946250e-10,6.549063e-01
2.986250e-10,6.470156e-01
3.026250e-10,6.391250e-01
3.066250e-10,6.310000e-01
3.106250e-10,6.224375e-01
3.146250e-10,6.141563e-01
3.186250e-10,6.051406e-01
3.226250e-10,5.967344e-01
3.266250e-10,5.865781e-01
3.306250e-10,5.780000e-01
3.346250e-10,5.680312e-01
3.386250e-10,5.592969e-01
3.426250e-10,5.491250e-01
3.466250e-10,5.395625e-01
3.506250e-10,5.294063e-01
3.546250e-10,5.198594e-01
3.586250e-10,5.102188e-01
3.626250e-10,5.004844e-01
3.666250e-10,4.908438e-01
3.706250e-10,4.817031e-01
3.746250e-10,4.714219e-01
3.786250e-10,4.615156e-01
3.826250e-10,4.519063e-01
3.866250e-10,4.424688e-01
3.906250e-10,4.326719e-01
3.946250e-10,4.235156e-01
3.986250e-10,4.139531e-01
4.026250e-10,4.051563e-01
4.066250e-10,3.947188e-01
4.106250e-10,3.862656e-01
4.146250e-10,3.765938e-01
4.186250e-10,3.681406e-01
4.226250e-10,3.585938e-01
4.266250e-10,3.496563e-01
4.306250e-10,3.402344e-01
4.346250e-10,3.316563e-01
4.386250e-10,3.230469e-01
4.426250e-10,3.144688e-01
4.466250e-10,3.059375e-01
4.506250e-10,2.979844e-01
4.546250e-10,2.892500e-01
4.586250e-10,2.808125e-01
4.626250e-10,2.726563e-01
4.666250e-10,2.649063e-01
4.706250e-10,2.567187e-01
4.746250e-10,2.491875e-01
4.786250e-10,2.415313e-01
4.826250e-10,2.345000e-01
4.866250e-10,2.260313e-01
4.906250e-10,2.196406e-01
4.946250e-10,2.121250e-01
4.986250e-10,2.058438e-01
5.026250e-10,1.987188e-01
5.066250e-10,1.920625e-01
5.106250e-10,1.851719e-01
5.146250e-10,1.791563e-01
5.186250e-10,1.731250e-01
5.226250e-10,1.673438e-01
5.266250e-10,1.616094e-01
5.306250e-10,1.565313e-01
5.346250e-10,1.510313e-01
5.386250e-10,1.457656e-01
5.426250e-10,1.408906e-01
5.466250e-10,1.365156e-01
5.506250e-10,1.317656e-01
5.546250e-10,1.276406e-01
5.586250e-10,1.236875e-01
5.626250e-10,1.202031e-01
5.666250e-10,1.155625e-01
5.706250e-10,1.129219e-01
5.746250e-10,1.093125e-01
5.786250e-10,1.069688e-01
5.826250e-10,1.039531e-01
5.866250e-10,1.010625e-01
5.906250e-10,9.820313e-02
5.946250e-10,9.620313e-02
5.986250e-10,9.393750e-02
6.026250e-10,9.198438e-02
6.066250e-10,9.014063e-02
6.106250e-10,8.884375e-02
6.146250e-10,8.718750e-02
6.186250e-10,8.554688e-02
6.226250e-10,8.435938e-02
6.266250e-10,8.335938e-02
6.306250e-10,8.195313e-02
6.346250e-10,8.106250e-02
6.386250e-10,8.026563e-02
6.426250e-10,7.956250e-02
6.466250e-10,7.776563e-02
6.506250e-10,7.759375e-02
6.546250e-10,7.648438e-02
6.586250e-10,7.646875e-02
6.626250e-10,7.559375e-02
6.666250e-10,7.451563e-02
6.706250e-10,7.329688e-02
6.746250e-10,7.293750e-02
6.786250e-10,7.181250e-02
6.826250e-10,7.085938e-02
6.866250e-10,7.003125e-02
6.906250e-10,6.950000e-02
6.946250e-10,6.850000e-02
6.986250e-10,6.715625e-02
7.026250e-10,6.634375e-02
7.066250e-10,6.534375e-02
7.106250e-10,6.389063e-02
7.146250e-10,6.290625e-02
7.186250e-10,6.193750e-02
7.226250e-10,6.059375e-02
7.266250e-10,5.839063e-02
7.306250e-10,5.751563e-02
7.346250e-10,5.579688e-02
7.386250e-10,5.515625e-02
7.426250e-10,5.354688e-02
7.466250e-10,5.176563e-02
7.506250e-10,4.960938e-02
7.546250e-10,4.857813e-02
7.586250e-10,4.653125e-02
7.626250e-10,4.475000e-02
7.666250e-10,4.331250e-02
7.706250e-10,4.210938e-02
7.746250e-10,4.056250e-02
7.786250e-10,3.860938e-02
7.826250e-10,3.735938e-02
7.866250e-10,3.603125e-02
7.906250e-10,3.435938e-02
7.946250e-10,3.331250e-02
7.986250e-10,3.240625e-02
8.026250e-10,3.096875e-02
8.066250e-10,2.909375e-02
8.106250e-10,2.842188e-02
8.146250e-10,2.709375e-02
8.186250e-10,2.717188e-02
8.226250e-10,2.625000e-02
8.266250e-10,2.537500e-02
8.306250e-10,2.409375e-02
8.346250e-10,2.403125e-02
8.386250e-10,2.309375e-02
8.426250e-10,2.256250e-02
8.466250e-10,2.254688e-02
8.506250e-10,2.254688e-02
8.546250e-10,2.253125e-02
8.586250e-10,2.203125e-02
8.626250e-10,2.223438e-02
8.666250e-10,2.262500e-02
8.706250e-10,2.260938e-02
8.746250e-10,2.328125e-02
8.786250e-10,2.393750e-02
8.826250e-10,2.409375e-02
8.866250e-10,2.387500e-02
8.906250e-10,2.465625e-02
8.946250e-10,2.470313e-02
8.986250e-10,2.640625e-02
9.026250e-10,2.692188e-02
9.066250e-10,2.739063e-02
9.106250e-10,2.737500e-02
9.146250e-10,2.834375e-02
9.186250e-10,2.853125e-02
9.226250e-10,2.903125e-02
9.266250e-10,2.998438e-02
9.306250e-10,3.043750e-02
9.346250e-10,3.107813e-02
9.386250e-10,3.112500e-02
9.426250e-10,3.153125e-02
9.466250e-10,3.234375e-02
9.506250e-10,3.251563e-02
9.546250e-10,3.325000e-02
9.586250e-10,3.370313e-02
9.626250e-10,3.368750e-02
9.666250e-10,3.323438e-02
9.706250e-10,3.362500e-02
9.746250e-10,3.300000e-02
9.786250e-10,3.418750e-02
9.826250e-10,3.404688e-02
9.866250e-10,3.375000e-02
9.906250e-10,3.298438e-02
9.946250e-10,3.301563e-02
9.986250e-10,3.239063e-02
1.002625e-09,3.206250e-02
1.006625e-09,3.210938e-02
1.010625e-09,3.140625e-02
1.014625e-09,3.104688e-02
1.018625e-09,3.018750e-02
1.022625e-09,2.946875e-02
1.026625e-09,2.945313e-02
1.030625e-09,2.873438e-02
1.034625e-09,2.853125e-02
1.038625e-09,2.809375e-02
1.042625e-09,2.734375e-02
1.046625e-09,2.623438e-02
1.050625e-09,2.609375e-02
1.054625e-09,2.481250e-02
1.058625e-09,2.540625e-02
1.062625e-09,2.482813e-02
1.066625e-09,2.414063e-02
1.070625e-09,2.315625e-02
1.074625e-09,2.300000e-02
1.078625e-09,2.228125e-02
1.082625e-09,2.196875e-02
1.086625e-09,2.210938e-02
1.090625e-09,2.153125e-02
1.094625e-09,2.131250e-02
1.098625e-09,2.078125e-02
1.102625e-09,2.035938e-02
1.106625e-09,2.076563e-02
1.110625e-09,2.048438e-02
1.114625e-09,2.078125e-02
1.118625e-09,2.092188e-02
1.122625e-09,2.082813e-02
1.126625e-09,2.037500e-02
1.130625e-09,2.101563e-02
1.134625e-09,2.037500e-02
1.138625e-09,2.159375e-02
1.142625e-09,2.165625e-02
1.146625e-09,2.165625e-02
1.150625e-09,2.134375e-02
1.154625e-09,2.189063e-02
1.158625e-09,2.178125e-02
1.162625e-09,2.207813e-02
1.166625e-09,2.276563e-02
1.170625e-09,2.284375e-02
1.174625e-09,2.303125e-02
1.178625e-09,2.290625e-02
1.182625e-09,2.292188e-02
1.186625e-09,2.360938e-02
1.190625e-09,2.353125e-02
1.194625e-09,2.407813e-02
1.198625e-09,2.437500e-02
1.202625e-09,2.446875e-02
1.206625e-09,2.393750e-02
1.210625e-09,2.464063e-02
1.214625e-09,2.390625e-02
1.218625e-09,2.496875e-02
1.222625e-09,2.478125e-02
1.226625e-09,2.453125e-02
1.230625e-09,2.389063e-02
1.234625e-09,2.414063e-02
1.238625e-09,2.364063e-02
1.242625e-09,2.350000e-02
1.246625e-09,2.371875e-02
1.250625e-09,2.348438e-02
1.254625e-09,2.312500e-02
1.258625e-09,2.250000e-02
1.262625e-09,2.207813e-02
1.266625e-09,2.223438e-02
1.270625e-09,2.160938e-02
1.274625e-09,2.175000e-02
1.278625e-09,2.160938e-02
1.282625e-09,2.134375e-02
1.286625e-09,2.023438e-02
1.290625e-09,2.064063e-02
1.294625e-09,1.954688e-02
1.298625e-09,2.034375e-02
1.302625e-09,1.987500e-02
1.306625e-09,1.940625e-02
1.310625e-09,1.857813e-02
1.314625e-09,1.871875e-02
1.318625e-09,1.814063e-02
1.322625e-09,1.796875e-02
1.326625e-09,1.821875e-02
1.330625e-09,1.817188e-02
1.334625e-09,1.790625e-02
1.338625e-09,1.745313e-02
1.342625e-09,1.734375e-02
1.346625e-09,1.775000e-02
1.350625e-09,1.742188e-02
1.354625e-09,1.796875e-02
1.358625e-09,1.825000e-02
1.362625e-09,1.846875e-02
1.366625e-09,1.765625e-02
1.370625e-09,1.857813e-02
1.374625e-09,1.798438e-02
1.378625e-09,1.934375e-02
1.382625e-09,1.937500e-02
1.386625e-09,1.943750e-02
1.390625e-09,1.912500e-02
1.394625e-09,1.978125e-02
1.398625e-09,1.970313e-02
1.402625e-09,2.001563e-02
1.406625e-09,2.071875e-02
1.410625e-09,2.117188e-02
1.414625e-09,2.129688e-02
1.418625e-09,2.121875e-02
1.422625e-09,2.146875e-02
1.426625e-09,2.217188e-02
1.430625e-09,2.206250e-02
1.434625e-09,2.287500e-02
1.438625e-09,2.331250e-02
1.442625e-09,2.368750e-02
1.446625e-09,2.284375e-02
1.450625e-09,2.378125e-02
1.454625e-09,2.314063e-02
1.458625e-09,2.443750e-02
1.462625e-09,2.432813e-02
1.466625e-09,2.418750e-02
1.470625e-09,2.362500e-02
1.474625e-09,2.401563e-02
1.478625e-09,2.360938e-02
1.482625e-09,2.354688e-02
1.486625e-09,2.384375e-02
1.490625e-09,2.389063e-02
1.494625e-09,2.354688e-02
1.498625e-09,2.296875e-02
1.502625e-09,2.275000e-02
1.506625e-09,2.290625e-02
1.510625e-09,2.226563e-02
1.514625e-09,2.254688e-02
1.518625e-09,2.243750e-02
1.522625e-09,2.228125e-02
1.526625e-09,2.081250e-02
1.530625e-09,2.125000e-02
1.534625e-09,2.009375e-02
1.538625e-09,2.089063e-02
1.542625e-09,2.029688e-02
1.546625e-09,1.971875e-02
1.550625e-09,1.871875e-02
1.554625e-09,1.871875e-02
1.558625e-09,1.795313e-02
1.562625e-09,1.756250e-02
1.566625e-09,1.757813e-02
1.570625e-09,1.739063e-02
1.574625e-09,1.684375e-02
1.578625e-09,1.609375e-02
1.582625e-09,1.575000e-02
1.586625e-09,1.584375e-02
1.590625e-09,1.515625e-02
1.594625e-09,1.543750e-02
1.598625e-09,1.537500e-02
1.602625e-09,1.531250e-02
1.606625e-09,1.395313e-02
1.610625e-09,1.453125e-02
1.614625e-09,1.356250e-02
1.618625e-09,1.457813e-02
1.622625e-09,1.423438e-02
1.626625e-09,1.392188e-02
1.630625e-09,1.321875e-02
1.634625e-09,1.353125e-02
1.638625e-09,1.306250e-02
1.642625e-09,1.300000e-02
1.646625e-09,1.335938e-02
1.650625e-09,1.351563e-02
1.654625e-09,1.331250e-02
1.658625e-09,1.289063e-02
1.662625e-09,1.289063e-02
1.666625e-09,1.329688e-02
1.670625e-09,1.290625e-02
1.674625e-09,1.350000e-02
1.678625e-09,1.371875e-02
1.682625e-09,1.392188e-02
1.686625e-09,1.276563e-02
1.690625e-09,1.356250e-02
1.694625e-09,1.276563e-02
1.698625e-09,1.393750e-02
1.702625e-09,1.373438e-02
1.706625e-09,1.350000e-02
1.710625e-09,1.287500e-02
1.714625e-09,1.321875e-02
1.718625e-09,1.276563e-02
1.722625e-09,1.268750e-02
1.726625e-09,1.300000e-02
1.730625e-09,1.309375e-02
1.734625e-09,1.279688e-02
1.738625e-09,1.226563e-02
1.742625e-09,1.212500e-02
1.746625e-09,1.235938e-02
1.750625e-09,1.181250e-02
1.754625e-09,1.221875e-02
1.758625e-09,1.221875e-02
