Measurements-streak-laser/Photodiode-on-Tek-12bit-4GHz/Tek000_ch1_20190613132958165.csv

Model,MSO64
Waveform Type,ANALOG
Horizontal Units,s
Sample Interval,4.000000e-12
Record Length,1000
Zero Index,310.656250
Vertical Units,V

TIME,CH1
-1.242625e-09,5.437500e-03
-1.238625e-09,5.640625e-03
-1.234625e-09,4.437500e-03
-1.230625e-09,5.265625e-03
-1.226625e-09,4.468750e-03
-1.222625e-09,5.703125e-03
-1.218625e-09,5.531250e-03
-1.214625e-09,5.359375e-03
-1.210625e-09,4.781250e-03
-1.206625e-09,5.234375e-03
-1.202625e-09,4.859375e-03
-1.198625e-09,4.906250e-03
-1.194625e-09,5.343750e-03
-1.190625e-09,5.593750e-03
-1.186625e-09,5.437500e-03
-1.182625e-09,5.062500e-03
-1.178625e-09,5.109375e-03
-1.174625e-09,5.562500e-03
-1.170625e-09,5.187500e-03
-1.166625e-09,5.828125e-03
-1.162625e-09,6.046875e-03
-1.158625e-09,6.265625e-03
-1.154625e-09,5.062500e-03
-1.150625e-09,5.875000e-03
-1.146625e-09,5.062500e-03
-1.142625e-09,6.265625e-03
-1.138625e-09,6.031250e-03
-1.134625e-09,5.796875e-03
-1.130625e-09,5.140625e-03
-1.126625e-09,5.500000e-03
-1.122625e-09,5.031250e-03
-1.118625e-09,4.953125e-03
-1.114625e-09,5.265625e-03
-1.110625e-09,5.359375e-03
-1.106625e-09,5.046875e-03
-1.102625e-09,4.515625e-03
-1.098625e-09,4.390625e-03
-1.094625e-09,4.656250e-03
-1.090625e-09,4.093750e-03
-1.086625e-09,4.546875e-03
-1.082625e-09,4.578125e-03
-1.078625e-09,4.609375e-03
-1.074625e-09,3.203125e-03
-1.070625e-09,3.828125e-03
-1.066625e-09,2.828125e-03
-1.062625e-09,3.843750e-03
-1.058625e-09,3.453125e-03
-1.054625e-09,3.046875e-03
-1.050625e-09,2.250000e-03
-1.046625e-09,2.468750e-03
-1.042625e-09,1.875000e-03
-1.038625e-09,1.687500e-03
-1.034625e-09,1.921875e-03
-1.030625e-09,1.953125e-03
-1.026625e-09,1.578125e-03
-1.022625e-09,1.031250e-03
-1.018625e-09,8.750000e-04
-1.014625e-09,1.156250e-03
-1.010625e-09,6.406250e-04
-1.006625e-09,1.140625e-03
-1.002625e-09,1.265625e-03
-9.986250e-10,1.390625e-03
-9.946250e-10,1.093750e-04
-9.906250e-10,8.906250e-04
-9.866250e-10,4.687500e-05
-9.826250e-10,1.250000e-03
-9.786250e-10,1.046875e-03
-9.746250e-10,8.750000e-04
-9.706250e-10,3.125000e-04
-9.666250e-10,7.656250e-04
-9.626250e-10,4.375000e-04
-9.586250e-10,5.312500e-04
-9.546250e-10,1.031250e-03
-9.506250e-10,1.343750e-03
-9.466250e-10,1.281250e-03
-9.426250e-10,1.015625e-03
-9.386250e-10,1.156250e-03
-9.346250e-10,1.718750e-03
-9.306250e-10,1.484375e-03
-9.266250e-10,2.265625e-03
-9.226250e-10,2.656250e-03
-9.186250e-10,3.046875e-03
-9.146250e-10,2.031250e-03
-9.106250e-10,3.046875e-03
-9.066250e-10,2.421875e-03
-9.026250e-10,3.781250e-03
-8.986250e-10,3.781250e-03
-8.946250e-10,3.765625e-03
-8.906250e-10,3.359375e-03
-8.866250e-10,3.953125e-03
-8.826250e-10,3.718750e-03
-8.786250e-10,3.906250e-03
-8.746250e-10,4.468750e-03
-8.706250e-10,4.828125e-03
-8.666250e-10,4.796875e-03
-8.626250e-10,4.531250e-03
-8.586250e-10,4.656250e-03
-8.546250e-10,5.187500e-03
-8.506250e-10,4.890625e-03
-8.466250e-10,5.593750e-03
-8.426250e-10,5.906250e-03
-8.386250e-10,6.187500e-03
-8.346250e-10,5.093750e-03
-8.306250e-10,5.968750e-03
-8.266250e-10,5.218750e-03
-8.226250e-10,6.359375e-03
-8.186250e-10,6.250000e-03
-8.146250e-10,6.078125e-03
-8.106250e-10,5.546875e-03
-8.066250e-10,5.968750e-03
-8.026250e-10,5.578125e-03
-7.986250e-10,5.656250e-03
-7.946250e-10,6.062500e-03
-7.906250e-10,6.281250e-03
-7.866250e-10,6.156250e-03
-7.826250e-10,5.750000e-03
-7.786250e-10,5.765625e-03
-7.746250e-10,6.187500e-03
-7.706250e-10,5.812500e-03
-7.666250e-10,6.437500e-03
-7.626250e-10,6.671875e-03
-7.586250e-10,6.906250e-03
-7.546250e-10,5.796875e-03
-7.506250e-10,6.656250e-03
-7.466250e-10,5.906250e-03
-7.426250e-10,6.984375e-03
-7.386250e-10,6.921875e-03
-7.346250e-10,6.796875e-03
-7.306250e-10,6.328125e-03
-7.266250e-10,6.781250e-03
-7.226250e-10,6.406250e-03
-7.186250e-10,6.578125e-03
-7.146250e-10,7.046875e-03
-7.106250e-10,7.312500e-03
-7.066250e-10,7.328125e-03
-7.026250e-10,6.984375e-03
-6.986250e-10,7.046875e-03
-6.946250e-10,7.515625e-03
-6.906250e-10,7.218750e-03
-6.866250e-10,7.875000e-03
-6.826250e-10,8.171875e-03
-6.786250e-10,8.421875e-03
-6.746250e-10,7.312500e-03
-6.706250e-10,8.203125e-03
-6.666250e-10,7.500000e-03
-6.626250e-10,8.531250e-03
-6.586250e-10,8.437500e-03
-6.546250e-10,8.296875e-03
-6.506250e-10,7.781250e-03
-6.466250e-10,8.109375e-03
-6.426250e-10,7.609375e-03
-6.386250e-10,7.687500e-03
-6.346250e-10,8.015625e-03
-6.306250e-10,8.078125e-03
-6.266250e-10,8.015625e-03
-6.226250e-10,7.468750e-03
-6.186250e-10,7.328125e-03
-6.146250e-10,7.562500e-03
-6.106250e-10,7.093750e-03
-6.066250e-10,7.515625e-03
-6.026250e-10,7.562500e-03
-5.986250e-10,7.546875e-03
-5.946250e-10,6.140625e-03
-5.906250e-10,6.781250e-03
-5.866250e-10,5.890625e-03
-5.826250e-10,6.640625e-03
-5.786250e-10,6.359375e-03
-5.746250e-10,5.968750e-03
-5.706250e-10,5.218750e-03
-5.666250e-10,5.312500e-03
-5.626250e-10,4.593750e-03
-5.586250e-10,4.484375e-03
-5.546250e-10,4.656250e-03
-5.506250e-10,4.531250e-03
-5.466250e-10,4.343750e-03
-5.426250e-10,3.687500e-03
-5.386250e-10,3.468750e-03
-5.346250e-10,3.671875e-03
-5.306250e-10,3.156250e-03
-5.266250e-10,3.593750e-03
-5.226250e-10,3.625000e-03
-5.186250e-10,3.656250e-03
-5.146250e-10,2.296875e-03
-5.106250e-10,2.984375e-03
-5.066250e-10,2.281250e-03
-5.026250e-10,3.156250e-03
-4.986250e-10,3.093750e-03
-4.946250e-10,2.859375e-03
-4.906250e-10,2.296875e-03
-4.866250e-10,2.609375e-03
-4.826250e-10,2.187500e-03
-4.786250e-10,2.265625e-03
-4.746250e-10,2.734375e-03
-4.706250e-10,2.859375e-03
-4.666250e-10,2.875000e-03
-4.626250e-10,2.531250e-03
-4.586250e-10,2.640625e-03
-4.546250e-10,3.140625e-03
-4.506250e-10,2.859375e-03
-4.466250e-10,3.593750e-03
-4.426250e-10,3.843750e-03
-4.386250e-10,4.093750e-03
-4.346250e-10,2.984375e-03
-4.306250e-10,3.812500e-03
-4.266250e-10,3.281250e-03
-4.226250e-10,4.343750e-03
-4.186250e-10,4.437500e-03
-4.146250e-10,4.250000e-03
-4.106250e-10,3.765625e-03
-4.066250e-10,4.125000e-03
-4.026250e-10,3.781250e-03
-3.986250e-10,3.781250e-03
-3.946250e-10,4.218750e-03
-3.906250e-10,4.281250e-03
-3.866250e-10,4.093750e-03
-3.826250e-10,3.640625e-03
-3.786250e-10,3.640625e-03
-3.746250e-10,3.984375e-03
-3.706250e-10,3.421875e-03
-3.666250e-10,3.921875e-03
-3.626250e-10,3.953125e-03
-3.586250e-10,3.937500e-03
-3.546250e-10,2.562500e-03
-3.506250e-10,3.015625e-03
-3.466250e-10,2.187500e-03
-3.426250e-10,2.953125e-03
-3.386250e-10,2.703125e-03
-3.346250e-10,2.171875e-03
-3.306250e-10,1.406250e-03
-3.266250e-10,1.500000e-03
-3.226250e-10,9.062500e-04
-3.186250e-10,5.625000e-04
-3.146250e-10,7.187500e-04
-3.106250e-10,5.468750e-04
-3.066250e-10,9.375000e-05
-3.026250e-10,-5.156250e-04
-2.986250e-10,-6.718750e-04
-2.946250e-10,-4.531250e-04
-2.906250e-10,-1.125000e-03
-2.866250e-10,-7.343750e-04
-2.826250e-10,-6.875000e-04
-2.786250e-10,-7.187500e-04
-2.746250e-10,-2.000000e-03
-2.706250e-10,-1.515625e-03
-2.666250e-10,-2.281250e-03
-2.626250e-10,-1.343750e-03
-2.586250e-10,-1.453125e-03
-2.546250e-10,-1.765625e-03
-2.506250e-10,-2.234375e-03
-2.466250e-10,-1.875000e-03
-2.426250e-10,-2.171875e-03
-2.386250e-10,-2.218750e-03
-2.346250e-10,-1.734375e-03
-2.306250e-10,-1.562500e-03
-2.266250e-10,-1.671875e-03
-2.226250e-10,-1.828125e-03
-2.186250e-10,-1.640625e-03
-2.146250e-10,-1.062500e-03
-2.106250e-10,-1.328125e-03
-2.066250e-10,-5.781250e-04
-2.026250e-10,-1.406250e-04
-1.986250e-10,1.875000e-04
-1.946250e-10,-6.875000e-04
-1.906250e-10,1.406250e-04
-1.866250e-10,-3.593750e-04
-1.826250e-10,9.218750e-04
-1.786250e-10,1.015625e-03
-1.746250e-10,9.843750e-04
-1.706250e-10,7.656250e-04
-1.666250e-10,1.328125e-03
-1.626250e-10,1.171875e-03
-1.586250e-10,1.312500e-03
-1.546250e-10,1.859375e-03
-1.506250e-10,2.156250e-03
-1.466250e-10,2.093750e-03
-1.426250e-10,2.031250e-03
-1.386250e-10,2.203125e-03
-1.346250e-10,2.734375e-03
-1.306250e-10,2.515625e-03
-1.266250e-10,3.265625e-03
-1.226250e-10,3.703125e-03
-1.186250e-10,4.078125e-03
-1.146250e-10,3.281250e-03
-1.106250e-10,4.156250e-03
-1.066250e-10,3.687500e-03
-1.026250e-10,5.125000e-03
-9.862500e-11,5.296875e-03
-9.462500e-11,5.515625e-03
-9.062500e-11,5.562500e-03
-8.662500e-11,6.484375e-03
-8.262500e-11,6.718750e-03
-7.862500e-11,7.390625e-03
-7.462500e-11,8.500000e-03
-7.062500e-11,9.515625e-03
-6.662500e-11,1.021875e-02
-6.262500e-11,1.106250e-02
-5.862500e-11,1.225000e-02
-5.462500e-11,1.384375e-02
-5.062500e-11,1.490625e-02
-4.662500e-11,1.707813e-02
-4.262500e-11,1.900000e-02
-3.862500e-11,2.112500e-02
-3.462500e-11,2.218750e-02
-3.062500e-11,2.504688e-02
-2.662500e-11,2.664063e-02
-2.262500e-11,3.039063e-02
-1.862500e-11,3.289063e-02
-1.462500e-11,3.568750e-02
-1.062500e-11,3.840625e-02
-6.625000e-12,4.212500e-02
-2.625000e-12,4.531250e-02
1.375000e-12,4.903125e-02
5.375000e-12,5.331250e-02
9.375000e-12,5.765625e-02
1.337500e-11,6.167188e-02
1.737500e-11,6.595313e-02
2.137500e-11,7.064063e-02
2.537500e-11,7.573438e-02
2.937500e-11,8.042188e-02
3.337500e-11,8.623438e-02
3.737500e-11,9.178125e-02
4.137500e-11,9.760938e-02
4.537500e-11,1.023125e-01
4.937500e-11,1.087813e-01
5.337500e-11,1.139063e-01
5.737500e-11,1.211406e-01
6.137500e-11,1.270000e-01
6.537500e-11,1.331563e-01
6.937500e-11,1.390313e-01
7.337500e-11,1.457500e-01
7.737500e-11,1.518438e-01
8.137500e-11,1.582813e-01
8.537500e-11,1.651406e-01
8.937500e-11,1.719219e-01
9.337500e-11,1.780313e-01
9.737500e-11,1.842344e-01
1.013750e-10,1.906094e-01
1.053750e-10,1.971563e-01
1.093750e-10,2.030781e-01
1.133750e-10,2.098281e-01
1.173750e-10,2.159844e-01
1.213750e-10,2.222656e-01
1.253750e-10,2.270313e-01
1.293750e-10,2.333438e-01
1.333750e-10,2.380156e-01
1.373750e-10,2.444531e-01
1.413750e-10,2.492031e-01
1.453750e-10,2.540469e-01
1.493750e-10,2.582344e-01
1.533750e-10,2.629844e-01
1.573750e-10,2.669063e-01
1.613750e-10,2.708594e-01
1.653750e-10,2.749531e-01
1.693750e-10,2.787969e-01
1.733750e-10,2.816250e-01
1.773750e-10,2.842813e-01
1.813750e-10,2.869688e-01
1.853750e-10,2.895938e-01
1.893750e-10,2.914531e-01
1.933750e-10,2.938594e-01
1.973750e-10,2.955000e-01
2.013750e-10,2.971563e-01
2.053750e-10,2.971250e-01
2.093750e-10,2.985938e-01
2.133750e-10,2.982969e-01
2.173750e-10,2.996094e-01
2.213750e-10,2.991719e-01
2.253750e-10,2.988125e-01
2.293750e-10,2.977344e-01
2.333750e-10,2.971875e-01
2.373750e-10,2.958906e-01
2.413750e-10,2.946094e-01
2.453750e-10,2.934219e-01
2.493750e-10,2.921094e-01
2.533750e-10,2.897813e-01
2.573750e-10,2.873281e-01
2.613750e-10,2.850469e-01
2.653750e-10,2.828281e-01
2.693750e-10,2.798906e-01
2.733750e-10,2.775938e-01
2.773750e-10,2.746719e-01
2.813750e-10,2.719375e-01
2.853750e-10,2.675781e-01
2.893750e-10,2.649844e-01
2.933750e-10,2.607813e-01
2.973750e-10,2.582344e-01
3.013750e-10,2.541719e-01
3.053750e-10,2.503125e-01
3.093750e-10,2.459063e-01
3.133750e-10,2.422656e-01
3.173750e-10,2.380625e-01
3.213750e-10,2.340156e-01
3.253750e-10,2.302031e-01
3.293750e-10,2.264375e-01
3.333750e-10,2.218750e-01
3.373750e-10,2.173281e-01
3.413750e-10,2.131094e-01
3.453750e-10,2.091563e-01
3.493750e-10,2.045625e-01
3.533750e-10,2.007969e-01
3.573750e-10,1.965781e-01
3.613750e-10,1.926719e-01
3.653750e-10,1.872500e-01
3.693750e-10,1.837969e-01
3.733750e-10,1.788594e-01
3.773750e-10,1.756406e-01
3.813750e-10,1.710938e-01
3.853750e-10,1.668125e-01
3.893750e-10,1.620938e-01
3.933750e-10,1.582969e-01
3.973750e-10,1.540313e-01
4.013750e-10,1.500000e-01
4.053750e-10,1.462500e-01
4.093750e-10,1.426250e-01
4.133750e-10,1.384219e-01
4.173750e-10,1.342344e-01
4.213750e-10,1.304219e-01
4.253750e-10,1.270000e-01
4.293750e-10,1.229531e-01
4.333750e-10,1.197969e-01
4.373750e-10,1.163281e-01
4.413750e-10,1.131563e-01
4.453750e-10,1.085469e-01
4.493750e-10,1.060156e-01
4.533750e-10,1.020625e-01
4.573750e-10,9.982813e-02
4.613750e-10,9.639063e-02
4.653750e-10,9.320313e-02
4.693750e-10,8.964063e-02
4.733750e-10,8.709375e-02
4.773750e-10,8.406250e-02
4.813750e-10,8.135938e-02
4.853750e-10,7.893750e-02
4.893750e-10,7.667188e-02
4.933750e-10,7.398438e-02
4.973750e-10,7.128125e-02
5.013750e-10,6.898438e-02
5.053750e-10,6.714063e-02
5.093750e-10,6.467188e-02
5.133750e-10,6.307813e-02
5.173750e-10,6.129688e-02
5.213750e-10,5.971875e-02
5.253750e-10,5.681250e-02
5.293750e-10,5.596875e-02
5.333750e-10,5.373438e-02
5.373750e-10,5.323438e-02
5.413750e-10,5.159375e-02
5.453750e-10,5.004688e-02
5.493750e-10,4.825000e-02
5.533750e-10,4.740625e-02
5.573750e-10,4.600000e-02
5.613750e-10,4.495313e-02
5.653750e-10,4.417188e-02
5.693750e-10,4.351563e-02
5.733750e-10,4.246875e-02
5.773750e-10,4.131250e-02
5.813750e-10,4.056250e-02
5.853750e-10,4.015625e-02
5.893750e-10,3.910938e-02
5.933750e-10,3.885938e-02
5.973750e-10,3.840625e-02
6.013750e-10,3.801563e-02
6.053750e-10,3.632813e-02
6.093750e-10,3.653125e-02
6.133750e-10,3.537500e-02
6.173750e-10,3.585938e-02
6.213750e-10,3.517188e-02
6.253750e-10,3.440625e-02
6.293750e-10,3.334375e-02
6.333750e-10,3.323438e-02
6.373750e-10,3.234375e-02
6.413750e-10,3.178125e-02
6.453750e-10,3.150000e-02
6.493750e-10,3.121875e-02
6.533750e-10,3.051563e-02
6.573750e-10,2.957813e-02
6.613750e-10,2.907813e-02
6.653750e-10,2.876563e-02
6.693750e-10,2.778125e-02
6.733750e-10,2.757813e-02
6.773750e-10,2.714063e-02
6.813750e-10,2.660938e-02
6.853750e-10,2.482813e-02
6.893750e-10,2.484375e-02
6.933750e-10,2.353125e-02
6.973750e-10,2.387500e-02
7.013750e-10,2.296875e-02
7.053750e-10,2.198438e-02
7.093750e-10,2.064063e-02
7.133750e-10,2.034375e-02
7.173750e-10,1.917188e-02
7.213750e-10,1.834375e-02
7.253750e-10,1.787500e-02
7.293750e-10,1.739063e-02
7.333750e-10,1.654688e-02
7.373750e-10,1.540625e-02
7.413750e-10,1.479688e-02
7.453750e-10,1.439063e-02
7.493750e-10,1.334375e-02
7.533750e-10,1.317188e-02
7.573750e-10,1.281250e-02
7.613750e-10,1.225000e-02
7.653750e-10,1.062500e-02
7.693750e-10,1.075000e-02
7.733750e-10,9.625000e-03
7.773750e-10,1.025000e-02
7.813750e-10,9.640625e-03
7.853750e-10,9.031250e-03
7.893750e-10,8.031250e-03
7.933750e-10,8.156250e-03
7.973750e-10,7.406250e-03
8.013750e-10,7.062500e-03
8.053750e-10,7.156250e-03
8.093750e-10,7.187500e-03
8.133750e-10,6.937500e-03
8.173750e-10,6.359375e-03
8.213750e-10,6.343750e-03
8.253750e-10,6.609375e-03
8.293750e-10,6.234375e-03
8.333750e-10,6.734375e-03
8.373750e-10,7.031250e-03
8.413750e-10,7.093750e-03
8.453750e-10,6.156250e-03
8.493750e-10,6.859375e-03
8.533750e-10,6.296875e-03
8.573750e-10,7.593750e-03
8.613750e-10,7.578125e-03
8.653750e-10,7.546875e-03
8.693750e-10,7.078125e-03
8.733750e-10,7.640625e-03
8.773750e-10,7.375000e-03
8.813750e-10,7.484375e-03
8.853750e-10,8.015625e-03
8.893750e-10,8.281250e-03
8.933750e-10,8.359375e-03
8.973750e-10,8.062500e-03
9.013750e-10,8.187500e-03
9.053750e-10,8.703125e-03
9.093750e-10,8.468750e-03
9.133750e-10,9.093750e-03
9.173750e-10,9.375000e-03
9.213750e-10,9.453125e-03
9.253750e-10,8.531250e-03
9.293750e-10,9.140625e-03
9.333750e-10,8.421875e-03
9.373750e-10,9.625000e-03
9.413750e-10,9.453125e-03
9.453750e-10,9.218750e-03
9.493750e-10,8.562500e-03
9.533750e-10,8.843750e-03
9.573750e-10,8.359375e-03
9.613750e-10,8.250000e-03
9.653750e-10,8.546875e-03
9.693750e-10,8.421875e-03
9.733750e-10,8.218750e-03
9.773750e-10,7.671875e-03
9.813750e-10,7.437500e-03
9.853750e-10,7.734375e-03
9.893750e-10,7.265625e-03
9.933750e-10,7.609375e-03
9.973750e-10,7.625000e-03
1.001375e-09,7.500000e-03
1.005375e-09,6.390625e-03
1.009375e-09,6.875000e-03
1.013375e-09,5.953125e-03
1.017375e-09,7.015625e-03
1.021375e-09,6.734375e-03
1.025375e-09,6.406250e-03
1.029375e-09,5.718750e-03
1.033375e-09,5.984375e-03
1.037375e-09,5.515625e-03
1.041375e-09,5.468750e-03
1.045375e-09,5.843750e-03
1.049375e-09,5.781250e-03
1.053375e-09,5.671875e-03
1.057375e-09,5.265625e-03
1.061375e-09,5.171875e-03
1.065375e-09,5.656250e-03
1.069375e-09,5.359375e-03
1.073375e-09,5.906250e-03
1.077375e-09,6.140625e-03
1.081375e-09,6.265625e-03
1.085375e-09,5.421875e-03
1.089375e-09,6.203125e-03
1.093375e-09,5.500000e-03
1.097375e-09,6.781250e-03
1.101375e-09,6.734375e-03
1.105375e-09,6.656250e-03
1.109375e-09,6.203125e-03
1.113375e-09,6.703125e-03
1.117375e-09,6.437500e-03
1.121375e-09,6.593750e-03
1.125375e-09,7.156250e-03
1.129375e-09,7.312500e-03
1.133375e-09,7.296875e-03
1.137375e-09,7.031250e-03
1.141375e-09,7.046875e-03
1.145375e-09,7.609375e-03
1.149375e-09,7.359375e-03
1.153375e-09,7.953125e-03
1.157375e-09,8.218750e-03
1.161375e-09,8.375000e-03
1.165375e-09,7.468750e-03
1.169375e-09,8.250000e-03
1.173375e-09,7.484375e-03
1.177375e-09,8.656250e-03
1.181375e-09,8.484375e-03
1.185375e-09,8.281250e-03
1.189375e-09,7.671875e-03
1.193375e-09,8.046875e-03
1.197375e-09,7.625000e-03
1.201375e-09,7.593750e-03
1.205375e-09,7.968750e-03
1.209375e-09,8.000000e-03
1.213375e-09,7.765625e-03
1.217375e-09,7.312500e-03
1.221375e-09,7.171875e-03
1.225375e-09,7.515625e-03
1.229375e-09,7.062500e-03
1.233375e-09,7.531250e-03
1.237375e-09,7.625000e-03
1.241375e-09,7.671875e-03
1.245375e-09,6.562500e-03
1.249375e-09,7.265625e-03
1.253375e-09,6.390625e-03
1.257375e-09,7.500000e-03
1.261375e-09,7.250000e-03
1.265375e-09,7.000000e-03
1.269375e-09,6.359375e-03
1.273375e-09,6.718750e-03
1.277375e-09,6.312500e-03
1.281375e-09,6.312500e-03
1.285375e-09,6.734375e-03
1.289375e-09,6.890625e-03
1.293375e-09,6.734375e-03
1.297375e-09,6.390625e-03
1.301375e-09,6.406250e-03
1.305375e-09,6.890625e-03
1.309375e-09,6.578125e-03
1.313375e-09,7.250000e-03
1.317375e-09,7.546875e-03
1.321375e-09,7.828125e-03
1.325375e-09,6.859375e-03
1.329375e-09,7.781250e-03
1.333375e-09,7.125000e-03
1.337375e-09,8.468750e-03
1.341375e-09,8.437500e-03
1.345375e-09,8.406250e-03
1.349375e-09,7.968750e-03
1.353375e-09,8.546875e-03
1.357375e-09,8.312500e-03
1.361375e-09,8.500000e-03
1.365375e-09,9.093750e-03
1.369375e-09,9.437500e-03
1.373375e-09,9.421875e-03
1.377375e-09,9.187500e-03
1.381375e-09,9.328125e-03
1.385375e-09,9.906250e-03
1.389375e-09,9.656250e-03
1.393375e-09,1.039063e-02
1.397375e-09,1.070313e-02
1.401375e-09,1.100000e-02
1.405375e-09,9.968750e-03
1.409375e-09,1.084375e-02
1.413375e-09,1.010938e-02
1.417375e-09,1.137500e-02
1.421375e-09,1.121875e-02
1.425375e-09,1.104688e-02
1.429375e-09,1.046875e-02
1.433375e-09,1.085938e-02
1.437375e-09,1.043750e-02
1.441375e-09,1.040625e-02
1.445375e-09,1.076563e-02
1.449375e-09,1.087500e-02
1.453375e-09,1.059375e-02
1.457375e-09,1.009375e-02
1.461375e-09,9.968750e-03
1.465375e-09,1.025000e-02
1.469375e-09,9.703125e-03
1.473375e-09,1.015625e-02
1.477375e-09,1.018750e-02
1.481375e-09,1.020313e-02
1.485375e-09,8.828125e-03
1.489375e-09,9.437500e-03
1.493375e-09,8.437500e-03
1.497375e-09,9.421875e-03
1.501375e-09,9.015625e-03
1.505375e-09,8.593750e-03
1.509375e-09,7.765625e-03
1.513375e-09,7.953125e-03
1.517375e-09,7.328125e-03
1.521375e-09,7.109375e-03
1.525375e-09,7.296875e-03
1.529375e-09,7.281250e-03
1.533375e-09,6.875000e-03
1.537375e-09,6.265625e-03
1.541375e-09,6.062500e-03
1.545375e-09,6.281250e-03
1.549375e-09,5.703125e-03
1.553375e-09,6.125000e-03
1.557375e-09,6.156250e-03
1.561375e-09,6.203125e-03
1.565375e-09,4.859375e-03
1.569375e-09,5.546875e-03
1.573375e-09,4.609375e-03
1.577375e-09,5.718750e-03
1.581375e-09,5.406250e-03
1.585375e-09,5.125000e-03
1.589375e-09,4.453125e-03
1.593375e-09,4.796875e-03
1.597375e-09,4.343750e-03
1.601375e-09,4.312500e-03
1.605375e-09,4.687500e-03
1.609375e-09,4.875000e-03
1.613375e-09,4.671875e-03
1.617375e-09,4.281250e-03
1.621375e-09,4.281250e-03
1.625375e-09,4.718750e-03
1.629375e-09,4.343750e-03
1.633375e-09,4.984375e-03
1.637375e-09,5.250000e-03
1.641375e-09,5.500000e-03
1.645375e-09,4.359375e-03
1.649375e-09,5.234375e-03
1.653375e-09,4.500000e-03
1.657375e-09,5.781250e-03
1.661375e-09,5.656250e-03
1.665375e-09,5.546875e-03
1.669375e-09,5.031250e-03
1.673375e-09,5.515625e-03
1.677375e-09,5.187500e-03
1.681375e-09,5.281250e-03
1.685375e-09,5.765625e-03
1.689375e-09,6.046875e-03
1.693375e-09,5.937500e-03
1.697375e-09,5.609375e-03
1.701375e-09,5.687500e-03
1.705375e-09,6.156250e-03
1.709375e-09,5.828125e-03
1.713375e-09,6.500000e-03
1.717375e-09,6.765625e-03
1.721375e-09,7.031250e-03
1.725375e-09,5.875000e-03
1.729375e-09,6.734375e-03
1.733375e-09,5.968750e-03
1.737375e-09,7.218750e-03
1.741375e-09,7.062500e-03
1.745375e-09,6.890625e-03
1.749375e-09,6.312500e-03
1.753375e-09,6.734375e-03
