Measurements-streak-laser/Photodiode-on-Tek-12bit-4GHz/Tek000_ch1_20190613133002778.csv

Model,MSO64
Waveform Type,ANALOG
Horizontal Units,s
Sample Interval,4.000000e-12
Record Length,1000
Zero Index,310.156250
Vertical Units,V

TIME,CH1
-1.240625e-09,3.234375e-03
-1.236625e-09,3.078125e-03
-1.232625e-09,2.734375e-03
-1.228625e-09,2.796875e-03
-1.224625e-09,3.265625e-03
-1.220625e-09,2.921875e-03
-1.216625e-09,3.609375e-03
-1.212625e-09,3.890625e-03
-1.208625e-09,4.156250e-03
-1.204625e-09,3.031250e-03
-1.200625e-09,3.921875e-03
-1.196625e-09,3.203125e-03
-1.192625e-09,4.500000e-03
-1.188625e-09,4.375000e-03
-1.184625e-09,4.265625e-03
-1.180625e-09,3.750000e-03
-1.176625e-09,4.265625e-03
-1.172625e-09,3.953125e-03
-1.168625e-09,4.046875e-03
-1.164625e-09,4.546875e-03
-1.160625e-09,4.859375e-03
-1.156625e-09,4.750000e-03
-1.152625e-09,4.453125e-03
-1.148625e-09,4.562500e-03
-1.144625e-09,5.062500e-03
-1.140625e-09,4.765625e-03
-1.136625e-09,5.484375e-03
-1.132625e-09,5.796875e-03
-1.128625e-09,6.109375e-03
-1.124625e-09,5.000000e-03
-1.120625e-09,5.921875e-03
-1.116625e-09,5.218750e-03
-1.112625e-09,6.546875e-03
-1.108625e-09,6.453125e-03
-1.104625e-09,6.359375e-03
-1.100625e-09,5.859375e-03
-1.096625e-09,6.359375e-03
-1.092625e-09,6.062500e-03
-1.088625e-09,6.156250e-03
-1.084625e-09,6.671875e-03
-1.080625e-09,6.968750e-03
-1.076625e-09,6.875000e-03
-1.072625e-09,6.562500e-03
-1.068625e-09,6.640625e-03
-1.064625e-09,7.140625e-03
-1.060625e-09,6.828125e-03
-1.056625e-09,7.515625e-03
-1.052625e-09,7.796875e-03
-1.048625e-09,8.078125e-03
-1.044625e-09,6.937500e-03
-1.040625e-09,7.812500e-03
-1.036625e-09,7.062500e-03
-1.032625e-09,8.343750e-03
-1.028625e-09,8.187500e-03
-1.024625e-09,8.046875e-03
-1.020625e-09,7.484375e-03
-1.016625e-09,7.937500e-03
-1.012625e-09,7.562500e-03
-1.008625e-09,7.593750e-03
-1.004625e-09,8.031250e-03
-1.000625e-09,8.250000e-03
-9.966250e-10,8.078125e-03
-9.926250e-10,7.687500e-03
-9.886250e-10,7.687500e-03
-9.846250e-10,8.109375e-03
-9.806250e-10,7.703125e-03
-9.766250e-10,8.312500e-03
-9.726250e-10,8.500000e-03
-9.686250e-10,8.687500e-03
-9.646250e-10,7.437500e-03
-9.606250e-10,8.234375e-03
-9.566250e-10,7.390625e-03
-9.526250e-10,8.546875e-03
-9.486250e-10,8.312500e-03
-9.446250e-10,8.062500e-03
-9.406250e-10,7.406250e-03
-9.366250e-10,7.750000e-03
-9.326250e-10,7.296875e-03
-9.286250e-10,7.234375e-03
-9.246250e-10,7.578125e-03
-9.206250e-10,7.703125e-03
-9.166250e-10,7.437500e-03
-9.126250e-10,6.953125e-03
-9.086250e-10,6.875000e-03
-9.046250e-10,7.187500e-03
-9.006250e-10,6.703125e-03
-8.966250e-10,7.218750e-03
-8.926250e-10,7.343750e-03
-8.886250e-10,7.437500e-03
-8.846250e-10,6.156250e-03
-8.806250e-10,6.875000e-03
-8.766250e-10,5.968750e-03
-8.726250e-10,7.000000e-03
-8.686250e-10,6.718750e-03
-8.646250e-10,6.421875e-03
-8.606250e-10,5.750000e-03
-8.566250e-10,6.046875e-03
-8.526250e-10,5.562500e-03
-8.486250e-10,5.484375e-03
-8.446250e-10,5.796875e-03
-8.406250e-10,5.921875e-03
-8.366250e-10,5.656250e-03
-8.326250e-10,5.171875e-03
-8.286250e-10,5.093750e-03
-8.246250e-10,5.421875e-03
-8.206250e-10,4.953125e-03
-8.166250e-10,5.500000e-03
-8.126250e-10,5.640625e-03
-8.086250e-10,5.781250e-03
-8.046250e-10,4.593750e-03
-8.006250e-10,5.359375e-03
-7.966250e-10,4.500000e-03
-7.926250e-10,5.515625e-03
-7.886250e-10,5.359375e-03
-7.846250e-10,5.140625e-03
-7.806250e-10,4.578125e-03
-7.766250e-10,4.953125e-03
-7.726250e-10,4.531250e-03
-7.686250e-10,4.593750e-03
-7.646250e-10,4.984375e-03
-7.606250e-10,5.187500e-03
-7.566250e-10,5.078125e-03
-7.526250e-10,4.671875e-03
-7.486250e-10,4.687500e-03
-7.446250e-10,5.093750e-03
-7.406250e-10,4.718750e-03
-7.366250e-10,5.343750e-03
-7.326250e-10,5.578125e-03
-7.286250e-10,5.796875e-03
-7.246250e-10,4.687500e-03
-7.206250e-10,5.531250e-03
-7.166250e-10,4.781250e-03
-7.126250e-10,5.781250e-03
-7.086250e-10,5.703125e-03
-7.046250e-10,5.546875e-03
-7.006250e-10,5.046875e-03
-6.966250e-10,5.406250e-03
-6.926250e-10,4.953125e-03
-6.886250e-10,5.062500e-03
-6.846250e-10,5.421875e-03
-6.806250e-10,5.562500e-03
-6.766250e-10,5.531250e-03
-6.726250e-10,5.062500e-03
-6.686250e-10,5.000000e-03
-6.646250e-10,5.328125e-03
-6.606250e-10,4.906250e-03
-6.566250e-10,5.421875e-03
-6.526250e-10,5.578125e-03
-6.486250e-10,5.671875e-03
-6.446250e-10,4.406250e-03
-6.406250e-10,5.156250e-03
-6.366250e-10,4.343750e-03
-6.326250e-10,5.187500e-03
-6.286250e-10,5.000000e-03
-6.246250e-10,4.734375e-03
-6.206250e-10,4.109375e-03
-6.166250e-10,4.296875e-03
-6.126250e-10,3.687500e-03
-6.086250e-10,3.687500e-03
-6.046250e-10,3.937500e-03
-6.006250e-10,3.906250e-03
-5.966250e-10,3.843750e-03
-5.926250e-10,3.250000e-03
-5.886250e-10,3.078125e-03
-5.846250e-10,3.328125e-03
-5.806250e-10,2.890625e-03
-5.766250e-10,3.328125e-03
-5.726250e-10,3.421875e-03
-5.686250e-10,3.468750e-03
-5.646250e-10,2.156250e-03
-5.606250e-10,2.875000e-03
-5.566250e-10,2.171875e-03
-5.526250e-10,3.031250e-03
-5.486250e-10,2.937500e-03
-5.446250e-10,2.718750e-03
-5.406250e-10,2.171875e-03
-5.366250e-10,2.453125e-03
-5.326250e-10,1.953125e-03
-5.286250e-10,2.062500e-03
-5.246250e-10,2.500000e-03
-5.206250e-10,2.593750e-03
-5.166250e-10,2.656250e-03
-5.126250e-10,2.281250e-03
-5.086250e-10,2.328125e-03
-5.046250e-10,2.796875e-03
-5.006250e-10,2.546875e-03
-4.966250e-10,3.265625e-03
-4.926250e-10,3.531250e-03
-4.886250e-10,3.796875e-03
-4.846250e-10,2.703125e-03
-4.806250e-10,3.593750e-03
-4.766250e-10,3.140625e-03
-4.726250e-10,4.218750e-03
-4.686250e-10,4.406250e-03
-4.646250e-10,4.328125e-03
-4.606250e-10,3.953125e-03
-4.566250e-10,4.421875e-03
-4.526250e-10,4.156250e-03
-4.486250e-10,4.343750e-03
-4.446250e-10,4.937500e-03
-4.406250e-10,5.156250e-03
-4.366250e-10,5.218750e-03
-4.326250e-10,4.953125e-03
-4.286250e-10,5.125000e-03
-4.246250e-10,5.687500e-03
-4.206250e-10,5.375000e-03
-4.166250e-10,6.140625e-03
-4.126250e-10,6.390625e-03
-4.086250e-10,6.625000e-03
-4.046250e-10,5.515625e-03
-4.006250e-10,6.250000e-03
-3.966250e-10,5.718750e-03
-3.926250e-10,6.718750e-03
-3.886250e-10,6.796875e-03
-3.846250e-10,6.562500e-03
-3.806250e-10,6.046875e-03
-3.766250e-10,6.390625e-03
-3.726250e-10,6.062500e-03
-3.686250e-10,6.000000e-03
-3.646250e-10,6.453125e-03
-3.606250e-10,6.515625e-03
-3.566250e-10,6.328125e-03
-3.526250e-10,5.937500e-03
-3.486250e-10,6.015625e-03
-3.446250e-10,6.453125e-03
-3.406250e-10,5.968750e-03
-3.366250e-10,6.593750e-03
-3.326250e-10,6.796875e-03
-3.286250e-10,6.937500e-03
-3.246250e-10,5.796875e-03
-3.206250e-10,6.406250e-03
-3.166250e-10,5.828125e-03
-3.126250e-10,6.843750e-03
-3.086250e-10,6.890625e-03
-3.046250e-10,6.671875e-03
-3.006250e-10,6.265625e-03
-2.966250e-10,6.687500e-03
-2.926250e-10,6.484375e-03
-2.886250e-10,6.468750e-03
-2.846250e-10,7.015625e-03
-2.806250e-10,7.234375e-03
-2.766250e-10,7.156250e-03
-2.726250e-10,7.000000e-03
-2.686250e-10,7.234375e-03
-2.646250e-10,7.859375e-03
-2.606250e-10,7.593750e-03
-2.566250e-10,8.343750e-03
-2.526250e-10,8.796875e-03
-2.486250e-10,9.109375e-03
-2.446250e-10,8.218750e-03
-2.406250e-10,9.000000e-03
-2.366250e-10,8.531250e-03
-2.326250e-10,9.718750e-03
-2.286250e-10,9.828125e-03
-2.246250e-10,9.734375e-03
-2.206250e-10,9.468750e-03
-2.166250e-10,9.937500e-03
-2.126250e-10,9.718750e-03
-2.086250e-10,9.734375e-03
-2.046250e-10,1.017188e-02
-2.006250e-10,1.029688e-02
-1.966250e-10,1.007813e-02
-1.926250e-10,9.812500e-03
-1.886250e-10,9.796875e-03
-1.846250e-10,1.012500e-02
-1.806250e-10,9.609375e-03
-1.766250e-10,1.001563e-02
-1.726250e-10,1.009375e-02
-1.686250e-10,1.003125e-02
-1.646250e-10,8.750000e-03
-1.606250e-10,9.093750e-03
-1.566250e-10,8.078125e-03
-1.526250e-10,8.843750e-03
-1.486250e-10,8.359375e-03
-1.446250e-10,7.796875e-03
-1.406250e-10,7.031250e-03
-1.366250e-10,7.031250e-03
-1.326250e-10,6.312500e-03
-1.286250e-10,5.906250e-03
-1.246250e-10,5.890625e-03
-1.206250e-10,5.656250e-03
-1.166250e-10,5.078125e-03
-1.126250e-10,4.578125e-03
-1.086250e-10,4.312500e-03
-1.046250e-10,4.421875e-03
-1.006250e-10,3.890625e-03
-9.662500e-11,4.375000e-03
-9.262500e-11,4.562500e-03
-8.862500e-11,4.828125e-03
-8.462500e-11,4.015625e-03
-8.062500e-11,4.906250e-03
-7.662500e-11,4.531250e-03
-7.262500e-11,6.187500e-03
-6.862500e-11,6.625000e-03
-6.462500e-11,7.265625e-03
-6.062500e-11,7.843750e-03
-5.662500e-11,9.375000e-03
-5.262500e-11,1.034375e-02
-4.862500e-11,1.184375e-02
-4.462500e-11,1.389063e-02
-4.062500e-11,1.598438e-02
-3.662500e-11,1.784375e-02
-3.262500e-11,1.998438e-02
-2.862500e-11,2.254688e-02
-2.462500e-11,2.557813e-02
-2.062500e-11,2.825000e-02
-1.662500e-11,3.210938e-02
-1.262500e-11,3.582813e-02
-8.625000e-12,3.985938e-02
-4.625000e-12,4.293750e-02
-6.250000e-13,4.782813e-02
3.375000e-12,5.154688e-02
7.375000e-12,5.746875e-02
1.137500e-11,6.220313e-02
1.537500e-11,6.732813e-02
1.937500e-11,7.240625e-02
2.337500e-11,7.848438e-02
2.737500e-11,8.407813e-02
3.137500e-11,9.020313e-02
3.537500e-11,9.690625e-02
3.937500e-11,1.037188e-01
4.337500e-11,1.101094e-01
4.737500e-11,1.167969e-01
5.137500e-11,1.238125e-01
5.537500e-11,1.311875e-01
5.937500e-11,1.381563e-01
6.337500e-11,1.461563e-01
6.737500e-11,1.537969e-01
7.137500e-11,1.617188e-01
7.537500e-11,1.684063e-01
7.937500e-11,1.767344e-01
8.337500e-11,1.836250e-01
8.737500e-11,1.924844e-01
9.137500e-11,1.998281e-01
9.537500e-11,2.074375e-01
9.937500e-11,2.145938e-01
1.033750e-10,2.224375e-01
1.073750e-10,2.295469e-01
1.113750e-10,2.368438e-01
1.153750e-10,2.444063e-01
1.193750e-10,2.518125e-01
1.233750e-10,2.582969e-01
1.273750e-10,2.647656e-01
1.313750e-10,2.712500e-01
1.353750e-10,2.777188e-01
1.393750e-10,2.835000e-01
1.433750e-10,2.898906e-01
1.473750e-10,2.955156e-01
1.513750e-10,3.011875e-01
1.553750e-10,3.051719e-01
1.593750e-10,3.105781e-01
1.633750e-10,3.141875e-01
1.673750e-10,3.194219e-01
1.713750e-10,3.228125e-01
1.753750e-10,3.262500e-01
1.793750e-10,3.288906e-01
1.833750e-10,3.319375e-01
1.873750e-10,3.341250e-01
1.913750e-10,3.362188e-01
1.953750e-10,3.383281e-01
1.993750e-10,3.402031e-01
2.033750e-10,3.408750e-01
2.073750e-10,3.413594e-01
2.113750e-10,3.418125e-01
2.153750e-10,3.421563e-01
2.193750e-10,3.417188e-01
2.233750e-10,3.417344e-01
2.273750e-10,3.409375e-01
2.313750e-10,3.402031e-01
2.353750e-10,3.377188e-01
2.393750e-10,3.367500e-01
2.433750e-10,3.340469e-01
2.473750e-10,3.328750e-01
2.513750e-10,3.299844e-01
2.553750e-10,3.272031e-01
2.593750e-10,3.237188e-01
2.633750e-10,3.208125e-01
2.673750e-10,3.172031e-01
2.713750e-10,3.136406e-01
2.753750e-10,3.101563e-01
2.793750e-10,3.066563e-01
2.833750e-10,3.021563e-01
2.873750e-10,2.975938e-01
2.913750e-10,2.932813e-01
2.953750e-10,2.890469e-01
2.993750e-10,2.841875e-01
3.033750e-10,2.800000e-01
3.073750e-10,2.752500e-01
3.113750e-10,2.708125e-01
3.153750e-10,2.647813e-01
3.193750e-10,2.605938e-01
3.233750e-10,2.548906e-01
3.273750e-10,2.508438e-01
3.313750e-10,2.453906e-01
3.353750e-10,2.402344e-01
3.393750e-10,2.345781e-01
3.433750e-10,2.297813e-01
3.473750e-10,2.245156e-01
3.513750e-10,2.194531e-01
3.553750e-10,2.146563e-01
3.593750e-10,2.100156e-01
3.633750e-10,2.046563e-01
3.673750e-10,1.993594e-01
3.713750e-10,1.944688e-01
3.753750e-10,1.899063e-01
3.793750e-10,1.847500e-01
3.833750e-10,1.804844e-01
3.873750e-10,1.758438e-01
3.913750e-10,1.715938e-01
3.953750e-10,1.658594e-01
3.993750e-10,1.621719e-01
4.033750e-10,1.570938e-01
4.073750e-10,1.537031e-01
4.113750e-10,1.490781e-01
4.153750e-10,1.447813e-01
4.193750e-10,1.400781e-01
4.233750e-10,1.363750e-01
4.273750e-10,1.322500e-01
4.313750e-10,1.284063e-01
4.353750e-10,1.248281e-01
4.393750e-10,1.214531e-01
4.433750e-10,1.175625e-01
4.473750e-10,1.137188e-01
4.513750e-10,1.102813e-01
4.553750e-10,1.072656e-01
4.593750e-10,1.036563e-01
4.633750e-10,1.009063e-01
4.673750e-10,9.793750e-02
4.713750e-10,9.526563e-02
4.753750e-10,9.120313e-02
4.793750e-10,8.921875e-02
4.833750e-10,8.587500e-02
4.873750e-10,8.420313e-02
4.913750e-10,8.139063e-02
4.953750e-10,7.878125e-02
4.993750e-10,7.587500e-02
5.033750e-10,7.392188e-02
5.073750e-10,7.151563e-02
5.113750e-10,6.943750e-02
5.153750e-10,6.760938e-02
5.193750e-10,6.596875e-02
5.233750e-10,6.390625e-02
5.273750e-10,6.181250e-02
5.313750e-10,6.010938e-02
5.353750e-10,5.884375e-02
5.393750e-10,5.693750e-02
5.433750e-10,5.582813e-02
5.473750e-10,5.456250e-02
5.513750e-10,5.346875e-02
5.553750e-10,5.104688e-02
5.593750e-10,5.059375e-02
5.633750e-10,4.881250e-02
5.673750e-10,4.865625e-02
5.713750e-10,4.739063e-02
5.753750e-10,4.612500e-02
5.793750e-10,4.462500e-02
5.833750e-10,4.404688e-02
5.873750e-10,4.282813e-02
5.913750e-10,4.193750e-02
5.953750e-10,4.129688e-02
5.993750e-10,4.075000e-02
6.033750e-10,3.978125e-02
6.073750e-10,3.867188e-02
6.113750e-10,3.796875e-02
6.153750e-10,3.751563e-02
6.193750e-10,3.640625e-02
6.233750e-10,3.606250e-02
6.273750e-10,3.551563e-02
6.313750e-10,3.496875e-02
6.353750e-10,3.314063e-02
6.393750e-10,3.314063e-02
6.433750e-10,3.181250e-02
6.473750e-10,3.207813e-02
6.513750e-10,3.115625e-02
6.553750e-10,3.014063e-02
6.593750e-10,2.882813e-02
6.633750e-10,2.846875e-02
6.673750e-10,2.729688e-02
6.713750e-10,2.645313e-02
6.753750e-10,2.589063e-02
6.793750e-10,2.535938e-02
6.833750e-10,2.440625e-02
6.873750e-10,2.320313e-02
6.913750e-10,2.250000e-02
6.953750e-10,2.193750e-02
6.993750e-10,2.075000e-02
7.033750e-10,2.034375e-02
7.073750e-10,1.978125e-02
7.113750e-10,1.903125e-02
7.153750e-10,1.718750e-02
7.193750e-10,1.706250e-02
7.233750e-10,1.571875e-02
7.273750e-10,1.600000e-02
7.313750e-10,1.510938e-02
7.353750e-10,1.415625e-02
7.393750e-10,1.285938e-02
7.433750e-10,1.267188e-02
7.473750e-10,1.159375e-02
7.513750e-10,1.089063e-02
7.553750e-10,1.062500e-02
7.593750e-10,1.035938e-02
7.633750e-10,9.781250e-03
7.673750e-10,8.906250e-03
7.713750e-10,8.609375e-03
7.753750e-10,8.531250e-03
7.793750e-10,7.875000e-03
7.833750e-10,8.093750e-03
7.873750e-10,8.171875e-03
7.913750e-10,8.015625e-03
7.953750e-10,6.906250e-03
7.993750e-10,7.453125e-03
8.033750e-10,6.843750e-03
8.073750e-10,8.015625e-03
8.113750e-10,7.937500e-03
8.153750e-10,7.906250e-03
8.193750e-10,7.453125e-03
8.233750e-10,8.109375e-03
8.273750e-10,7.921875e-03
8.313750e-10,8.140625e-03
8.353750e-10,8.828125e-03
8.393750e-10,9.375000e-03
8.433750e-10,9.718750e-03
8.473750e-10,9.703125e-03
8.513750e-10,1.018750e-02
8.553750e-10,1.100000e-02
8.593750e-10,1.117188e-02
8.633750e-10,1.218750e-02
8.673750e-10,1.295313e-02
8.713750e-10,1.345313e-02
8.753750e-10,1.301563e-02
8.793750e-10,1.409375e-02
8.833750e-10,1.393750e-02
8.873750e-10,1.562500e-02
8.913750e-10,1.598438e-02
8.953750e-10,1.629688e-02
8.993750e-10,1.614063e-02
9.033750e-10,1.693750e-02
9.073750e-10,1.693750e-02
9.113750e-10,1.729688e-02
9.153750e-10,1.804688e-02
9.193750e-10,1.840625e-02
9.233750e-10,1.865625e-02
9.273750e-10,1.848438e-02
9.313750e-10,1.865625e-02
9.353750e-10,1.925000e-02
9.393750e-10,1.909375e-02
9.433750e-10,1.971875e-02
9.473750e-10,1.996875e-02
9.513750e-10,2.000000e-02
9.553750e-10,1.904688e-02
9.593750e-10,1.957813e-02
9.633750e-10,1.873438e-02
9.673750e-10,1.981250e-02
9.713750e-10,1.953125e-02
9.753750e-10,1.914063e-02
9.793750e-10,1.832813e-02
9.833750e-10,1.840625e-02
9.873750e-10,1.775000e-02
9.913750e-10,1.745313e-02
9.953750e-10,1.754688e-02
9.993750e-10,1.715625e-02
1.003375e-09,1.671875e-02
1.007375e-09,1.595313e-02
1.011375e-09,1.545313e-02
1.015375e-09,1.551563e-02
1.019375e-09,1.481250e-02
1.023375e-09,1.490625e-02
1.027375e-09,1.465625e-02
1.031375e-09,1.428125e-02
1.035375e-09,1.296875e-02
1.039375e-09,1.320313e-02
1.043375e-09,1.204688e-02
1.047375e-09,1.284375e-02
1.051375e-09,1.234375e-02
1.055375e-09,1.179688e-02
1.059375e-09,1.090625e-02
1.063375e-09,1.095313e-02
1.067375e-09,1.029688e-02
1.071375e-09,1.006250e-02
1.075375e-09,1.026563e-02
1.079375e-09,1.003125e-02
1.083375e-09,9.734375e-03
1.087375e-09,9.203125e-03
1.091375e-09,8.953125e-03
1.095375e-09,9.296875e-03
1.099375e-09,8.890625e-03
1.103375e-09,9.328125e-03
1.107375e-09,9.468750e-03
1.111375e-09,9.500000e-03
1.115375e-09,8.609375e-03
1.119375e-09,9.328125e-03
1.123375e-09,8.593750e-03
1.127375e-09,9.796875e-03
1.131375e-09,9.718750e-03
1.135375e-09,9.609375e-03
1.139375e-09,9.140625e-03
1.143375e-09,9.625000e-03
1.147375e-09,9.390625e-03
1.151375e-09,9.546875e-03
1.155375e-09,1.012500e-02
1.159375e-09,1.031250e-02
1.163375e-09,1.031250e-02
1.167375e-09,1.009375e-02
1.171375e-09,1.015625e-02
1.175375e-09,1.073438e-02
1.179375e-09,1.053125e-02
1.183375e-09,1.118750e-02
1.187375e-09,1.150000e-02
1.191375e-09,1.171875e-02
1.195375e-09,1.087500e-02
1.199375e-09,1.171875e-02
1.203375e-09,1.101563e-02
1.207375e-09,1.223438e-02
1.211375e-09,1.210938e-02
1.215375e-09,1.195313e-02
1.219375e-09,1.139063e-02
1.223375e-09,1.179688e-02
1.227375e-09,1.140625e-02
1.231375e-09,1.140625e-02
1.235375e-09,1.179688e-02
1.239375e-09,1.185938e-02
1.243375e-09,1.162500e-02
1.247375e-09,1.117188e-02
1.251375e-09,1.101563e-02
1.255375e-09,1.134375e-02
1.259375e-09,1.085938e-02
1.263375e-09,1.128125e-02
1.267375e-09,1.134375e-02
1.271375e-09,1.132813e-02
1.275375e-09,1.014063e-02
1.279375e-09,1.076563e-02
1.283375e-09,9.796875e-03
1.287375e-09,1.078125e-02
1.291375e-09,1.042188e-02
1.295375e-09,1.004688e-02
1.299375e-09,9.265625e-03
1.303375e-09,9.468750e-03
1.307375e-09,8.890625e-03
1.311375e-09,8.734375e-03
1.315375e-09,8.953125e-03
1.319375e-09,8.921875e-03
1.323375e-09,8.562500e-03
1.327375e-09,8.015625e-03
1.331375e-09,7.812500e-03
1.335375e-09,8.078125e-03
1.339375e-09,7.546875e-03
1.343375e-09,7.968750e-03
1.347375e-09,8.031250e-03
1.351375e-09,8.078125e-03
1.355375e-09,6.859375e-03
1.359375e-09,7.546875e-03
1.363375e-09,6.656250e-03
1.367375e-09,7.750000e-03
1.371375e-09,7.484375e-03
1.375375e-09,7.218750e-03
1.379375e-09,6.562500e-03
1.383375e-09,6.921875e-03
1.387375e-09,6.500000e-03
1.391375e-09,6.484375e-03
1.395375e-09,6.875000e-03
1.399375e-09,7.062500e-03
1.403375e-09,6.875000e-03
1.407375e-09,6.500000e-03
1.411375e-09,6.515625e-03
1.415375e-09,6.968750e-03
1.419375e-09,6.625000e-03
1.423375e-09,7.265625e-03
1.427375e-09,7.531250e-03
1.431375e-09,7.796875e-03
1.435375e-09,6.734375e-03
1.439375e-09,7.625000e-03
1.443375e-09,6.937500e-03
1.447375e-09,8.234375e-03
1.451375e-09,8.156250e-03
1.455375e-09,8.078125e-03
1.459375e-09,7.609375e-03
1.463375e-09,8.156250e-03
1.467375e-09,7.906250e-03
1.471375e-09,8.062500e-03
1.475375e-09,8.625000e-03
1.479375e-09,8.968750e-03
1.483375e-09,8.937500e-03
1.487375e-09,8.718750e-03
1.491375e-09,8.890625e-03
1.495375e-09,9.468750e-03
1.499375e-09,9.265625e-03
1.503375e-09,1.004688e-02
1.507375e-09,1.043750e-02
1.511375e-09,1.082813e-02
1.515375e-09,9.859375e-03
1.519375e-09,1.085938e-02
1.523375e-09,1.025000e-02
1.527375e-09,1.165625e-02
1.531375e-09,1.165625e-02
1.535375e-09,1.167188e-02
1.539375e-09,1.126563e-02
1.543375e-09,1.185938e-02
1.547375e-09,1.165625e-02
1.551375e-09,1.184375e-02
1.555375e-09,1.243750e-02
1.559375e-09,1.282813e-02
1.563375e-09,1.281250e-02
1.567375e-09,1.257813e-02
1.571375e-09,1.273438e-02
1.575375e-09,1.329688e-02
1.579375e-09,1.304688e-02
1.583375e-09,1.378125e-02
1.587375e-09,1.412500e-02
1.591375e-09,1.443750e-02
1.595375e-09,1.334375e-02
1.599375e-09,1.425000e-02
1.603375e-09,1.353125e-02
1.607375e-09,1.479688e-02
1.611375e-09,1.464063e-02
1.615375e-09,1.448438e-02
1.619375e-09,1.390625e-02
1.623375e-09,1.429688e-02
1.627375e-09,1.389063e-02
1.631375e-09,1.385938e-02
1.635375e-09,1.420313e-02
1.639375e-09,1.434375e-02
1.643375e-09,1.406250e-02
1.647375e-09,1.354688e-02
1.651375e-09,1.343750e-02
1.655375e-09,1.370313e-02
1.659375e-09,1.315625e-02
1.663375e-09,1.357813e-02
1.667375e-09,1.359375e-02
1.671375e-09,1.359375e-02
1.675375e-09,1.217188e-02
1.679375e-09,1.275000e-02
1.683375e-09,1.170313e-02
1.687375e-09,1.265625e-02
1.691375e-09,1.218750e-02
1.695375e-09,1.170313e-02
1.699375e-09,1.081250e-02
1.703375e-09,1.090625e-02
1.707375e-09,1.020313e-02
1.711375e-09,9.906250e-03
1.715375e-09,1.000000e-02
1.719375e-09,9.875000e-03
1.723375e-09,9.359375e-03
1.727375e-09,8.640625e-03
1.731375e-09,8.328125e-03
1.735375e-09,8.421875e-03
1.739375e-09,7.718750e-03
1.743375e-09,8.031250e-03
1.747375e-09,7.937500e-03
1.751375e-09,7.843750e-03
1.755375e-09,6.375000e-03
1.759375e-09,6.906250e-03
