Measurements-streak-laser/Photodiode-on-Tek-12bit-4GHz/Tek000_ch1_20190613133032964.csv

Model,MSO64
Waveform Type,ANALOG
Horizontal Units,s
Sample Interval,4.000000e-12
Record Length,1000
Zero Index,310.000000
Vertical Units,V

TIME,CH1
-1.240000e-09,9.687500e-03
-1.236000e-09,9.531250e-03
-1.232000e-09,9.156250e-03
-1.228000e-09,9.156250e-03
-1.224000e-09,9.546875e-03
-1.220000e-09,9.109375e-03
-1.216000e-09,9.671875e-03
-1.212000e-09,9.796875e-03
-1.208000e-09,9.906250e-03
-1.204000e-09,8.578125e-03
-1.200000e-09,9.265625e-03
-1.196000e-09,8.312500e-03
-1.192000e-09,9.359375e-03
-1.188000e-09,8.984375e-03
-1.184000e-09,8.593750e-03
-1.180000e-09,7.781250e-03
-1.176000e-09,7.968750e-03
-1.172000e-09,7.343750e-03
-1.168000e-09,7.109375e-03
-1.164000e-09,7.265625e-03
-1.160000e-09,7.218750e-03
-1.156000e-09,6.765625e-03
-1.152000e-09,6.093750e-03
-1.148000e-09,5.843750e-03
-1.144000e-09,5.984375e-03
-1.140000e-09,5.328125e-03
-1.136000e-09,5.671875e-03
-1.132000e-09,5.625000e-03
-1.128000e-09,5.578125e-03
-1.124000e-09,4.140625e-03
-1.120000e-09,4.718750e-03
-1.116000e-09,3.687500e-03
-1.112000e-09,4.703125e-03
-1.108000e-09,4.312500e-03
-1.104000e-09,3.937500e-03
-1.100000e-09,3.171875e-03
-1.096000e-09,3.421875e-03
-1.092000e-09,2.906250e-03
-1.088000e-09,2.796875e-03
-1.084000e-09,3.109375e-03
-1.080000e-09,3.234375e-03
-1.076000e-09,2.984375e-03
-1.072000e-09,2.546875e-03
-1.068000e-09,2.531250e-03
-1.064000e-09,2.937500e-03
-1.060000e-09,2.546875e-03
-1.056000e-09,3.203125e-03
-1.052000e-09,3.453125e-03
-1.048000e-09,3.734375e-03
-1.044000e-09,2.609375e-03
-1.040000e-09,3.531250e-03
-1.036000e-09,2.843750e-03
-1.032000e-09,4.171875e-03
-1.028000e-09,4.125000e-03
-1.024000e-09,4.062500e-03
-1.020000e-09,3.625000e-03
-1.016000e-09,4.203125e-03
-1.012000e-09,3.968750e-03
-1.008000e-09,4.156250e-03
-1.004000e-09,4.750000e-03
-1.000000e-09,5.125000e-03
-9.960000e-10,5.109375e-03
-9.920000e-10,4.890625e-03
-9.880000e-10,5.078125e-03
-9.840000e-10,5.656250e-03
-9.800000e-10,5.421875e-03
-9.760000e-10,6.187500e-03
-9.720000e-10,6.562500e-03
-9.680000e-10,6.906250e-03
-9.640000e-10,5.828125e-03
-9.600000e-10,6.765625e-03
-9.560000e-10,6.078125e-03
-9.520000e-10,7.359375e-03
-9.480000e-10,7.250000e-03
-9.440000e-10,7.125000e-03
-9.400000e-10,6.578125e-03
-9.360000e-10,7.031250e-03
-9.320000e-10,6.640625e-03
-9.280000e-10,6.656250e-03
-9.240000e-10,7.062500e-03
-9.200000e-10,7.250000e-03
-9.160000e-10,7.015625e-03
-9.120000e-10,6.562500e-03
-9.080000e-10,6.500000e-03
-9.040000e-10,6.828125e-03
-9.000000e-10,6.343750e-03
-8.960000e-10,6.843750e-03
-8.920000e-10,6.937500e-03
-8.880000e-10,7.015625e-03
-8.840000e-10,5.687500e-03
-8.800000e-10,6.359375e-03
-8.760000e-10,5.421875e-03
-8.720000e-10,6.421875e-03
-8.680000e-10,6.093750e-03
-8.640000e-10,5.734375e-03
-8.600000e-10,4.984375e-03
-8.560000e-10,5.218750e-03
-8.520000e-10,4.656250e-03
-8.480000e-10,4.515625e-03
-8.440000e-10,4.765625e-03
-8.400000e-10,4.828125e-03
-8.360000e-10,4.500000e-03
-8.320000e-10,3.953125e-03
-8.280000e-10,3.828125e-03
-8.240000e-10,4.109375e-03
-8.200000e-10,3.609375e-03
-8.160000e-10,4.109375e-03
-8.120000e-10,4.218750e-03
-8.080000e-10,4.343750e-03
-8.040000e-10,3.109375e-03
-8.000000e-10,3.859375e-03
-7.960000e-10,3.031250e-03
-7.920000e-10,4.125000e-03
-7.880000e-10,3.953125e-03
-7.840000e-10,3.750000e-03
-7.800000e-10,3.203125e-03
-7.760000e-10,3.625000e-03
-7.720000e-10,3.234375e-03
-7.680000e-10,3.328125e-03
-7.640000e-10,3.796875e-03
-7.600000e-10,4.062500e-03
-7.560000e-10,4.015625e-03
-7.520000e-10,3.703125e-03
-7.480000e-10,3.796875e-03
-7.440000e-10,4.312500e-03
-7.400000e-10,4.046875e-03
-7.360000e-10,4.781250e-03
-7.320000e-10,5.125000e-03
-7.280000e-10,5.468750e-03
-7.240000e-10,4.437500e-03
-7.200000e-10,5.406250e-03
-7.160000e-10,4.781250e-03
-7.120000e-10,6.031250e-03
-7.080000e-10,6.046875e-03
-7.040000e-10,6.031250e-03
-7.000000e-10,5.625000e-03
-6.960000e-10,6.156250e-03
-6.920000e-10,5.875000e-03
-6.880000e-10,6.078125e-03
-6.840000e-10,6.609375e-03
-6.800000e-10,6.921875e-03
-6.760000e-10,6.953125e-03
-6.720000e-10,6.671875e-03
-6.680000e-10,6.765625e-03
-6.640000e-10,7.265625e-03
-6.600000e-10,7.000000e-03
-6.560000e-10,7.687500e-03
-6.520000e-10,8.000000e-03
-6.480000e-10,8.250000e-03
-6.440000e-10,7.125000e-03
-6.400000e-10,8.000000e-03
-6.360000e-10,7.312500e-03
-6.320000e-10,8.453125e-03
-6.280000e-10,8.359375e-03
-6.240000e-10,8.203125e-03
-6.200000e-10,7.671875e-03
-6.160000e-10,8.046875e-03
-6.120000e-10,7.609375e-03
-6.080000e-10,7.671875e-03
-6.040000e-10,8.062500e-03
-6.000000e-10,8.203125e-03
-5.960000e-10,8.093750e-03
-5.920000e-10,7.640625e-03
-5.880000e-10,7.593750e-03
-5.840000e-10,7.953125e-03
-5.800000e-10,7.562500e-03
-5.760000e-10,8.109375e-03
-5.720000e-10,8.265625e-03
-5.680000e-10,8.390625e-03
-5.640000e-10,7.109375e-03
-5.600000e-10,7.859375e-03
-5.560000e-10,7.093750e-03
-5.520000e-10,8.125000e-03
-5.480000e-10,7.937500e-03
-5.440000e-10,7.687500e-03
-5.400000e-10,7.062500e-03
-5.360000e-10,7.359375e-03
-5.320000e-10,6.859375e-03
-5.280000e-10,6.843750e-03
-5.240000e-10,7.187500e-03
-5.200000e-10,7.265625e-03
-5.160000e-10,7.093750e-03
-5.120000e-10,6.609375e-03
-5.080000e-10,6.546875e-03
-5.040000e-10,6.906250e-03
-5.000000e-10,6.453125e-03
-4.960000e-10,7.000000e-03
-4.920000e-10,7.109375e-03
-4.880000e-10,7.234375e-03
-4.840000e-10,5.953125e-03
-4.800000e-10,6.656250e-03
-4.760000e-10,5.875000e-03
-4.720000e-10,6.906250e-03
-4.680000e-10,6.734375e-03
-4.640000e-10,6.437500e-03
-4.600000e-10,5.812500e-03
-4.560000e-10,6.093750e-03
-4.520000e-10,5.640625e-03
-4.480000e-10,5.562500e-03
-4.440000e-10,5.921875e-03
-4.400000e-10,5.984375e-03
-4.360000e-10,5.750000e-03
-4.320000e-10,5.265625e-03
-4.280000e-10,5.234375e-03
-4.240000e-10,5.578125e-03
-4.200000e-10,5.078125e-03
-4.160000e-10,5.640625e-03
-4.120000e-10,5.750000e-03
-4.080000e-10,5.859375e-03
-4.040000e-10,4.593750e-03
-4.000000e-10,5.265625e-03
-3.960000e-10,4.484375e-03
-3.920000e-10,5.515625e-03
-3.880000e-10,5.359375e-03
-3.840000e-10,5.062500e-03
-3.800000e-10,4.453125e-03
-3.760000e-10,4.781250e-03
-3.720000e-10,4.375000e-03
-3.680000e-10,4.312500e-03
-3.640000e-10,4.703125e-03
-3.600000e-10,4.828125e-03
-3.560000e-10,4.609375e-03
-3.520000e-10,4.218750e-03
-3.480000e-10,4.250000e-03
-3.440000e-10,4.687500e-03
-3.400000e-10,4.265625e-03
-3.360000e-10,4.906250e-03
-3.320000e-10,5.140625e-03
-3.280000e-10,5.359375e-03
-3.240000e-10,4.234375e-03
-3.200000e-10,5.000000e-03
-3.160000e-10,4.328125e-03
-3.120000e-10,5.515625e-03
-3.080000e-10,5.468750e-03
-3.040000e-10,5.328125e-03
-3.000000e-10,4.875000e-03
-2.960000e-10,5.343750e-03
-2.920000e-10,5.093750e-03
-2.880000e-10,5.156250e-03
-2.840000e-10,5.671875e-03
-2.800000e-10,5.937500e-03
-2.760000e-10,5.843750e-03
-2.720000e-10,5.625000e-03
-2.680000e-10,5.765625e-03
-2.640000e-10,6.312500e-03
-2.600000e-10,6.015625e-03
-2.560000e-10,6.718750e-03
-2.520000e-10,7.078125e-03
-2.480000e-10,7.375000e-03
-2.440000e-10,6.343750e-03
-2.400000e-10,7.171875e-03
-2.360000e-10,6.531250e-03
-2.320000e-10,7.781250e-03
-2.280000e-10,7.718750e-03
-2.240000e-10,7.609375e-03
-2.200000e-10,7.187500e-03
-2.160000e-10,7.656250e-03
-2.120000e-10,7.359375e-03
-2.080000e-10,7.421875e-03
-2.040000e-10,7.875000e-03
-2.000000e-10,8.093750e-03
-1.960000e-10,7.937500e-03
-1.920000e-10,7.671875e-03
-1.880000e-10,7.734375e-03
-1.840000e-10,8.171875e-03
-1.800000e-10,7.828125e-03
-1.760000e-10,8.468750e-03
-1.720000e-10,8.734375e-03
-1.680000e-10,8.968750e-03
-1.640000e-10,7.906250e-03
-1.600000e-10,8.687500e-03
-1.560000e-10,7.984375e-03
-1.520000e-10,9.234375e-03
-1.480000e-10,9.156250e-03
-1.440000e-10,9.078125e-03
-1.400000e-10,8.703125e-03
-1.360000e-10,9.250000e-03
-1.320000e-10,9.062500e-03
-1.280000e-10,9.265625e-03
-1.240000e-10,9.875000e-03
-1.200000e-10,1.034375e-02
-1.160000e-10,1.043750e-02
-1.120000e-10,1.046875e-02
-1.080000e-10,1.087500e-02
-1.040000e-10,1.165625e-02
-1.000000e-10,1.176563e-02
-9.600000e-11,1.292188e-02
-9.200000e-11,1.371875e-02
-8.800000e-11,1.460938e-02
-8.400000e-11,1.423438e-02
-8.000000e-11,1.575000e-02
-7.600000e-11,1.582813e-02
-7.200000e-11,1.795313e-02
-6.800000e-11,1.875000e-02
-6.400000e-11,1.965625e-02
-6.000000e-11,2.031250e-02
-5.600000e-11,2.195313e-02
-5.200000e-11,2.292188e-02
-4.800000e-11,2.434375e-02
-4.400000e-11,2.621875e-02
-4.000000e-11,2.801563e-02
-3.600000e-11,2.946875e-02
-3.200000e-11,3.090625e-02
-2.800000e-11,3.276563e-02
-2.400000e-11,3.501563e-02
-2.000000e-11,3.665625e-02
-1.600000e-11,3.937500e-02
-1.200000e-11,4.175000e-02
-8.000000e-12,4.426563e-02
-4.000000e-12,4.553125e-02
0.000000e+00,4.868750e-02
4.000000e-12,5.039063e-02
8.000000e-12,5.417188e-02
1.200000e-11,5.656250e-02
1.600000e-11,5.912500e-02
2.000000e-11,6.135938e-02
2.400000e-11,6.457813e-02
2.800000e-11,6.707813e-02
3.200000e-11,7.000000e-02
3.600000e-11,7.334375e-02
4.000000e-11,7.659375e-02
4.400000e-11,7.934375e-02
4.800000e-11,8.207813e-02
5.200000e-11,8.512500e-02
5.600000e-11,8.851563e-02
6.000000e-11,9.121875e-02
6.400000e-11,9.489063e-02
6.800000e-11,9.812500e-02
7.200000e-11,1.014375e-01
7.600000e-11,1.033594e-01
8.000000e-11,1.070781e-01
8.400000e-11,1.092344e-01
8.800000e-11,1.133125e-01
9.200000e-11,1.159063e-01
9.600000e-11,1.185625e-01
1.000000e-10,1.207500e-01
1.040000e-10,1.237500e-01
1.080000e-10,1.259844e-01
1.120000e-10,1.284531e-01
1.160000e-10,1.312344e-01
1.200000e-10,1.338281e-01
1.240000e-10,1.357188e-01
1.280000e-10,1.374844e-01
1.320000e-10,1.394531e-01
1.360000e-10,1.416406e-01
1.400000e-10,1.430313e-01
1.440000e-10,1.452344e-01
1.480000e-10,1.468438e-01
1.520000e-10,1.484844e-01
1.560000e-10,1.485625e-01
1.600000e-10,1.504063e-01
1.640000e-10,1.505469e-01
1.680000e-10,1.525156e-01
1.720000e-10,1.528750e-01
1.760000e-10,1.532656e-01
1.800000e-10,1.530625e-01
1.840000e-10,1.536250e-01
1.880000e-10,1.533594e-01
1.920000e-10,1.532969e-01
1.960000e-10,1.534531e-01
2.000000e-10,1.534063e-01
2.040000e-10,1.526094e-01
2.080000e-10,1.516406e-01
2.120000e-10,1.509063e-01
2.160000e-10,1.503594e-01
2.200000e-10,1.490156e-01
2.240000e-10,1.484688e-01
2.280000e-10,1.473438e-01
2.320000e-10,1.462813e-01
2.360000e-10,1.436719e-01
2.400000e-10,1.428906e-01
2.440000e-10,1.404688e-01
2.480000e-10,1.398438e-01
2.520000e-10,1.377188e-01
2.560000e-10,1.356719e-01
2.600000e-10,1.330938e-01
2.640000e-10,1.313906e-01
2.680000e-10,1.289531e-01
2.720000e-10,1.267656e-01
2.760000e-10,1.248750e-01
2.800000e-10,1.228906e-01
2.840000e-10,1.202813e-01
2.880000e-10,1.175625e-01
2.920000e-10,1.152031e-01
2.960000e-10,1.131563e-01
3.000000e-10,1.103750e-01
3.040000e-10,1.085156e-01
3.080000e-10,1.062031e-01
3.120000e-10,1.040625e-01
3.160000e-10,1.004688e-01
3.200000e-10,9.885938e-02
3.240000e-10,9.570313e-02
3.280000e-10,9.443750e-02
3.320000e-10,9.179688e-02
3.360000e-10,8.931250e-02
3.400000e-10,8.643750e-02
3.440000e-10,8.453125e-02
3.480000e-10,8.201563e-02
3.520000e-10,7.982813e-02
3.560000e-10,7.801563e-02
3.600000e-10,7.618750e-02
3.640000e-10,7.387500e-02
3.680000e-10,7.151563e-02
3.720000e-10,6.956250e-02
3.760000e-10,6.803125e-02
3.800000e-10,6.579688e-02
3.840000e-10,6.454688e-02
3.880000e-10,6.295313e-02
3.920000e-10,6.154688e-02
3.960000e-10,5.871875e-02
4.000000e-10,5.796875e-02
4.040000e-10,5.570313e-02
4.080000e-10,5.534375e-02
4.120000e-10,5.367188e-02
4.160000e-10,5.214063e-02
4.200000e-10,5.025000e-02
4.240000e-10,4.935938e-02
4.280000e-10,4.784375e-02
4.320000e-10,4.668750e-02
4.360000e-10,4.589063e-02
4.400000e-10,4.506250e-02
4.440000e-10,4.382813e-02
4.480000e-10,4.246875e-02
4.520000e-10,4.151563e-02
4.560000e-10,4.098438e-02
4.600000e-10,3.973438e-02
4.640000e-10,3.940625e-02
4.680000e-10,3.878125e-02
4.720000e-10,3.825000e-02
4.760000e-10,3.632813e-02
4.800000e-10,3.642188e-02
4.840000e-10,3.500000e-02
4.880000e-10,3.543750e-02
4.920000e-10,3.457813e-02
4.960000e-10,3.376563e-02
5.000000e-10,3.259375e-02
5.040000e-10,3.239063e-02
5.080000e-10,3.148438e-02
5.120000e-10,3.093750e-02
5.160000e-10,3.071875e-02
5.200000e-10,3.043750e-02
5.240000e-10,2.975000e-02
5.280000e-10,2.889063e-02
5.320000e-10,2.840625e-02
5.360000e-10,2.831250e-02
5.400000e-10,2.745313e-02
5.440000e-10,2.751563e-02
5.480000e-10,2.725000e-02
5.520000e-10,2.701563e-02
5.560000e-10,2.540625e-02
5.600000e-10,2.576563e-02
5.640000e-10,2.462500e-02
5.680000e-10,2.532813e-02
5.720000e-10,2.471875e-02
5.760000e-10,2.407813e-02
5.800000e-10,2.310938e-02
5.840000e-10,2.309375e-02
5.880000e-10,2.231250e-02
5.920000e-10,2.190625e-02
5.960000e-10,2.184375e-02
6.000000e-10,2.168750e-02
6.040000e-10,2.112500e-02
6.080000e-10,2.035938e-02
6.120000e-10,2.001563e-02
6.160000e-10,2.000000e-02
6.200000e-10,1.923438e-02
6.240000e-10,1.939063e-02
6.280000e-10,1.921875e-02
6.320000e-10,1.903125e-02
6.360000e-10,1.751563e-02
6.400000e-10,1.792188e-02
6.440000e-10,1.685938e-02
6.480000e-10,1.762500e-02
6.520000e-10,1.709375e-02
6.560000e-10,1.653125e-02
6.600000e-10,1.559375e-02
6.640000e-10,1.567188e-02
6.680000e-10,1.492188e-02
6.720000e-10,1.454688e-02
6.760000e-10,1.456250e-02
6.800000e-10,1.446875e-02
6.840000e-10,1.396875e-02
6.880000e-10,1.325000e-02
6.920000e-10,1.298438e-02
6.960000e-10,1.301563e-02
7.000000e-10,1.232813e-02
7.040000e-10,1.256250e-02
7.080000e-10,1.248438e-02
7.120000e-10,1.232813e-02
7.160000e-10,1.090625e-02
7.200000e-10,1.135938e-02
7.240000e-10,1.037500e-02
7.280000e-10,1.125000e-02
7.320000e-10,1.081250e-02
7.360000e-10,1.034375e-02
7.400000e-10,9.484375e-03
7.440000e-10,9.671875e-03
7.480000e-10,9.015625e-03
7.520000e-10,8.734375e-03
7.560000e-10,8.890625e-03
7.600000e-10,8.890625e-03
7.640000e-10,8.531250e-03
7.680000e-10,7.906250e-03
7.720000e-10,7.765625e-03
7.760000e-10,7.937500e-03
7.800000e-10,7.390625e-03
7.840000e-10,7.796875e-03
7.880000e-10,7.875000e-03
7.920000e-10,7.843750e-03
7.960000e-10,6.609375e-03
8.000000e-10,7.187500e-03
8.040000e-10,6.343750e-03
8.080000e-10,7.437500e-03
8.120000e-10,7.156250e-03
8.160000e-10,6.890625e-03
8.200000e-10,6.203125e-03
8.240000e-10,6.531250e-03
8.280000e-10,6.062500e-03
8.320000e-10,5.984375e-03
8.360000e-10,6.328125e-03
8.400000e-10,6.468750e-03
8.440000e-10,6.296875e-03
8.480000e-10,5.859375e-03
8.520000e-10,5.843750e-03
8.560000e-10,6.234375e-03
8.600000e-10,5.859375e-03
8.640000e-10,6.421875e-03
8.680000e-10,6.656250e-03
8.720000e-10,6.765625e-03
8.760000e-10,5.687500e-03
8.800000e-10,6.390625e-03
8.840000e-10,5.656250e-03
8.880000e-10,6.875000e-03
8.920000e-10,6.718750e-03
8.960000e-10,6.546875e-03
9.000000e-10,5.968750e-03
9.040000e-10,6.359375e-03
9.080000e-10,5.968750e-03
9.120000e-10,5.984375e-03
9.160000e-10,6.406250e-03
9.200000e-10,6.515625e-03
9.240000e-10,6.390625e-03
9.280000e-10,5.984375e-03
9.320000e-10,5.953125e-03
9.360000e-10,6.375000e-03
9.400000e-10,6.015625e-03
9.440000e-10,6.562500e-03
9.480000e-10,6.734375e-03
9.520000e-10,6.843750e-03
9.560000e-10,5.734375e-03
9.600000e-10,6.421875e-03
9.640000e-10,5.593750e-03
9.680000e-10,6.781250e-03
9.720000e-10,6.562500e-03
9.760000e-10,6.328125e-03
9.800000e-10,5.687500e-03
9.840000e-10,6.031250e-03
9.880000e-10,5.593750e-03
9.920000e-10,5.546875e-03
9.960000e-10,5.921875e-03
1.000000e-09,5.968750e-03
1.004000e-09,5.781250e-03
1.008000e-09,5.328125e-03
1.012000e-09,5.234375e-03
1.016000e-09,5.625000e-03
1.020000e-09,5.234375e-03
1.024000e-09,5.750000e-03
1.028000e-09,5.906250e-03
1.032000e-09,6.015625e-03
1.036000e-09,4.906250e-03
1.040000e-09,5.640625e-03
1.044000e-09,4.828125e-03
1.048000e-09,6.015625e-03
1.052000e-09,5.843750e-03
1.056000e-09,5.640625e-03
1.060000e-09,5.062500e-03
1.064000e-09,5.468750e-03
1.068000e-09,5.109375e-03
1.072000e-09,5.156250e-03
1.076000e-09,5.609375e-03
1.080000e-09,5.781250e-03
1.084000e-09,5.671875e-03
1.088000e-09,5.343750e-03
1.092000e-09,5.375000e-03
1.096000e-09,5.875000e-03
1.100000e-09,5.593750e-03
1.104000e-09,6.234375e-03
1.108000e-09,6.531250e-03
1.112000e-09,6.765625e-03
1.116000e-09,5.796875e-03
1.120000e-09,6.671875e-03
1.124000e-09,5.984375e-03
1.128000e-09,7.281250e-03
1.132000e-09,7.218750e-03
1.136000e-09,7.140625e-03
1.140000e-09,6.671875e-03
1.144000e-09,7.187500e-03
1.148000e-09,6.921875e-03
1.152000e-09,7.046875e-03
1.156000e-09,7.578125e-03
1.160000e-09,7.843750e-03
1.164000e-09,7.781250e-03
1.168000e-09,7.500000e-03
1.172000e-09,7.593750e-03
1.176000e-09,8.109375e-03
1.180000e-09,7.828125e-03
1.184000e-09,8.500000e-03
1.188000e-09,8.796875e-03
1.192000e-09,9.046875e-03
1.196000e-09,8.031250e-03
1.200000e-09,8.890625e-03
1.204000e-09,8.171875e-03
1.208000e-09,9.421875e-03
1.212000e-09,9.296875e-03
1.216000e-09,9.156250e-03
1.220000e-09,8.593750e-03
1.224000e-09,9.046875e-03
1.228000e-09,8.687500e-03
1.232000e-09,8.734375e-03
1.236000e-09,9.171875e-03
1.240000e-09,9.375000e-03
1.244000e-09,9.203125e-03
1.248000e-09,8.828125e-03
1.252000e-09,8.812500e-03
1.256000e-09,9.234375e-03
1.260000e-09,8.859375e-03
1.264000e-09,9.453125e-03
1.268000e-09,9.656250e-03
1.272000e-09,9.843750e-03
1.276000e-09,8.703125e-03
1.280000e-09,9.500000e-03
1.284000e-09,8.703125e-03
1.288000e-09,9.906250e-03
1.292000e-09,9.703125e-03
1.296000e-09,9.515625e-03
1.300000e-09,8.921875e-03
1.304000e-09,9.312500e-03
1.308000e-09,8.921875e-03
1.312000e-09,8.937500e-03
1.316000e-09,9.359375e-03
1.320000e-09,9.546875e-03
1.324000e-09,9.359375e-03
1.328000e-09,8.968750e-03
1.332000e-09,8.984375e-03
1.336000e-09,9.406250e-03
1.340000e-09,9.015625e-03
1.344000e-09,9.625000e-03
1.348000e-09,9.843750e-03
1.352000e-09,1.004688e-02
1.356000e-09,8.890625e-03
1.360000e-09,9.703125e-03
1.364000e-09,8.906250e-03
1.368000e-09,1.012500e-02
1.372000e-09,9.921875e-03
1.376000e-09,9.718750e-03
1.380000e-09,9.125000e-03
1.384000e-09,9.515625e-03
1.388000e-09,9.109375e-03
1.392000e-09,9.093750e-03
1.396000e-09,9.484375e-03
1.400000e-09,9.640625e-03
1.404000e-09,9.406250e-03
1.408000e-09,8.968750e-03
1.412000e-09,8.921875e-03
1.416000e-09,9.281250e-03
1.420000e-09,8.812500e-03
1.424000e-09,9.343750e-03
1.428000e-09,9.468750e-03
1.432000e-09,9.593750e-03
1.436000e-09,8.312500e-03
1.440000e-09,9.015625e-03
1.444000e-09,8.109375e-03
1.448000e-09,9.203125e-03
1.452000e-09,8.890625e-03
1.456000e-09,8.562500e-03
1.460000e-09,7.828125e-03
1.464000e-09,8.109375e-03
1.468000e-09,7.578125e-03
1.472000e-09,7.437500e-03
1.476000e-09,7.703125e-03
1.480000e-09,7.765625e-03
1.484000e-09,7.421875e-03
1.488000e-09,6.875000e-03
1.492000e-09,6.734375e-03
1.496000e-09,7.015625e-03
1.500000e-09,6.468750e-03
1.504000e-09,6.953125e-03
1.508000e-09,7.015625e-03
1.512000e-09,7.109375e-03
1.516000e-09,5.796875e-03
1.520000e-09,6.500000e-03
1.524000e-09,5.593750e-03
1.528000e-09,6.718750e-03
1.532000e-09,6.453125e-03
1.536000e-09,6.187500e-03
1.540000e-09,5.531250e-03
1.544000e-09,5.890625e-03
1.548000e-09,5.468750e-03
1.552000e-09,5.453125e-03
1.556000e-09,5.859375e-03
1.560000e-09,6.078125e-03
1.564000e-09,5.890625e-03
1.568000e-09,5.531250e-03
1.572000e-09,5.593750e-03
1.576000e-09,6.062500e-03
1.580000e-09,5.734375e-03
1.584000e-09,6.437500e-03
1.588000e-09,6.750000e-03
1.592000e-09,7.062500e-03
1.596000e-09,5.984375e-03
1.600000e-09,6.937500e-03
1.604000e-09,6.281250e-03
1.608000e-09,7.640625e-03
1.612000e-09,7.609375e-03
1.616000e-09,7.578125e-03
1.620000e-09,7.140625e-03
1.624000e-09,7.718750e-03
1.628000e-09,7.500000e-03
1.632000e-09,7.671875e-03
1.636000e-09,8.265625e-03
1.640000e-09,8.640625e-03
1.644000e-09,8.609375e-03
1.648000e-09,8.390625e-03
1.652000e-09,8.546875e-03
1.656000e-09,9.109375e-03
1.660000e-09,8.859375e-03
1.664000e-09,9.593750e-03
1.668000e-09,9.937500e-03
1.672000e-09,1.025000e-02
1.676000e-09,9.140625e-03
1.680000e-09,1.004688e-02
1.684000e-09,9.312500e-03
1.688000e-09,1.057813e-02
1.692000e-09,1.042188e-02
1.696000e-09,1.025000e-02
1.700000e-09,9.656250e-03
1.704000e-09,1.004688e-02
1.708000e-09,9.625000e-03
1.712000e-09,9.593750e-03
1.716000e-09,9.937500e-03
1.720000e-09,1.006250e-02
1.724000e-09,9.765625e-03
1.728000e-09,9.250000e-03
1.732000e-09,9.125000e-03
1.736000e-09,9.390625e-03
1.740000e-09,8.828125e-03
1.744000e-09,9.265625e-03
1.748000e-09,9.281250e-03
1.752000e-09,9.296875e-03
1.756000e-09,7.890625e-03
1.760000e-09,8.484375e-03
