Measurements-streak-laser/Photodiode-on-Tek-12bit-4GHz/Tek000_ch1_20190613133013408.csv

Model,MSO64
Waveform Type,ANALOG
Horizontal Units,s
Sample Interval,4.000000e-12
Record Length,1000
Zero Index,310.078125
Vertical Units,V

TIME,CH1
-1.240313e-09,4.843750e-03
-1.236313e-09,5.343750e-03
-1.232313e-09,5.031250e-03
-1.228313e-09,5.125000e-03
-1.224313e-09,5.609375e-03
-1.220313e-09,5.890625e-03
-1.216312e-09,5.750000e-03
-1.212312e-09,5.406250e-03
-1.208312e-09,5.468750e-03
-1.204312e-09,5.921875e-03
-1.200312e-09,5.546875e-03
-1.196312e-09,6.187500e-03
-1.192312e-09,6.406250e-03
-1.188312e-09,6.625000e-03
-1.184312e-09,5.406250e-03
-1.180313e-09,6.218750e-03
-1.176313e-09,5.390625e-03
-1.172313e-09,6.578125e-03
-1.168313e-09,6.343750e-03
-1.164313e-09,6.093750e-03
-1.160313e-09,5.437500e-03
-1.156312e-09,5.781250e-03
-1.152312e-09,5.312500e-03
-1.148312e-09,5.250000e-03
-1.144312e-09,5.578125e-03
-1.140312e-09,5.687500e-03
-1.136312e-09,5.390625e-03
-1.132312e-09,4.890625e-03
-1.128312e-09,4.796875e-03
-1.124312e-09,5.109375e-03
-1.120313e-09,4.593750e-03
-1.116313e-09,5.093750e-03
-1.112313e-09,5.187500e-03
-1.108313e-09,5.296875e-03
-1.104313e-09,3.968750e-03
-1.100313e-09,4.671875e-03
-1.096312e-09,3.765625e-03
-1.092312e-09,4.875000e-03
-1.088312e-09,4.578125e-03
-1.084312e-09,4.281250e-03
-1.080312e-09,3.593750e-03
-1.076312e-09,3.906250e-03
-1.072312e-09,3.437500e-03
-1.068312e-09,3.359375e-03
-1.064312e-09,3.703125e-03
-1.060313e-09,3.859375e-03
-1.056313e-09,3.593750e-03
-1.052313e-09,3.156250e-03
-1.048313e-09,3.125000e-03
-1.044313e-09,3.500000e-03
-1.040313e-09,3.062500e-03
-1.036312e-09,3.671875e-03
-1.032312e-09,3.875000e-03
-1.028312e-09,4.078125e-03
-1.024312e-09,2.859375e-03
-1.020312e-09,3.703125e-03
-1.016312e-09,2.906250e-03
-1.012312e-09,4.156250e-03
-1.008312e-09,3.984375e-03
-1.004312e-09,3.828125e-03
-1.000313e-09,3.265625e-03
-9.963125e-10,3.718750e-03
-9.923125e-10,3.375000e-03
-9.883125e-10,3.437500e-03
-9.843125e-10,3.906250e-03
-9.803125e-10,4.171875e-03
-9.763125e-10,4.031250e-03
-9.723125e-10,3.703125e-03
-9.683125e-10,3.765625e-03
-9.643125e-10,4.250000e-03
-9.603125e-10,3.906250e-03
-9.563125e-10,4.593750e-03
-9.523125e-10,4.859375e-03
-9.483125e-10,5.125000e-03
-9.443125e-10,3.968750e-03
-9.403125e-10,4.843750e-03
-9.363125e-10,4.093750e-03
-9.323125e-10,5.343750e-03
-9.283125e-10,5.187500e-03
-9.243125e-10,5.031250e-03
-9.203125e-10,4.468750e-03
-9.163125e-10,4.906250e-03
-9.123125e-10,4.531250e-03
-9.083125e-10,4.562500e-03
-9.043125e-10,4.984375e-03
-9.003125e-10,5.203125e-03
-8.963125e-10,5.015625e-03
-8.923125e-10,4.609375e-03
-8.883125e-10,4.593750e-03
-8.843125e-10,5.000000e-03
-8.803125e-10,4.578125e-03
-8.763125e-10,5.171875e-03
-8.723125e-10,5.343750e-03
-8.683125e-10,5.515625e-03
-8.643125e-10,4.281250e-03
-8.603125e-10,5.062500e-03
-8.563125e-10,4.203125e-03
-8.523125e-10,5.296875e-03
-8.483125e-10,5.078125e-03
-8.443125e-10,4.812500e-03
-8.403125e-10,4.171875e-03
-8.363125e-10,4.515625e-03
-8.323125e-10,4.031250e-03
-8.283125e-10,4.000000e-03
-8.243125e-10,4.328125e-03
-8.203125e-10,4.468750e-03
-8.163125e-10,4.218750e-03
-8.123125e-10,3.734375e-03
-8.083125e-10,3.671875e-03
-8.043125e-10,4.000000e-03
-8.003125e-10,3.531250e-03
-7.963125e-10,4.062500e-03
-7.923125e-10,4.203125e-03
-7.883125e-10,4.328125e-03
-7.843125e-10,3.093750e-03
-7.803125e-10,3.843750e-03
-7.763125e-10,2.968750e-03
-7.723125e-10,4.015625e-03
-7.683125e-10,3.796875e-03
-7.643125e-10,3.546875e-03
-7.603125e-10,2.937500e-03
-7.563125e-10,3.281250e-03
-7.523125e-10,2.812500e-03
-7.483125e-10,2.812500e-03
-7.443125e-10,3.171875e-03
-7.403125e-10,3.312500e-03
-7.363125e-10,3.156250e-03
-7.323125e-10,2.718750e-03
-7.283125e-10,2.671875e-03
-7.243125e-10,3.046875e-03
-7.203125e-10,2.640625e-03
-7.163125e-10,3.218750e-03
-7.123125e-10,3.421875e-03
-7.083125e-10,3.609375e-03
-7.043125e-10,2.421875e-03
-7.003125e-10,3.250000e-03
-6.963125e-10,2.484375e-03
-6.923125e-10,3.578125e-03
-6.883125e-10,3.453125e-03
-6.843125e-10,3.296875e-03
-6.803125e-10,2.765625e-03
-6.763125e-10,3.171875e-03
-6.723125e-10,2.765625e-03
-6.683125e-10,2.875000e-03
-6.643125e-10,3.312500e-03
-6.603125e-10,3.515625e-03
-6.563125e-10,3.500000e-03
-6.523125e-10,3.125000e-03
-6.483125e-10,3.171875e-03
-6.443125e-10,3.625000e-03
-6.403125e-10,3.328125e-03
-6.363125e-10,3.984375e-03
-6.323125e-10,4.281250e-03
-6.283125e-10,4.531250e-03
-6.243125e-10,3.406250e-03
-6.203125e-10,4.312500e-03
-6.163125e-10,3.671875e-03
-6.123125e-10,4.828125e-03
-6.083125e-10,4.796875e-03
-6.043125e-10,4.734375e-03
-6.003125e-10,4.281250e-03
-5.963125e-10,4.718750e-03
-5.923125e-10,4.375000e-03
-5.883125e-10,4.546875e-03
-5.843125e-10,5.046875e-03
-5.803125e-10,5.281250e-03
-5.763125e-10,5.328125e-03
-5.723125e-10,5.000000e-03
-5.683125e-10,5.078125e-03
-5.643125e-10,5.562500e-03
-5.603125e-10,5.281250e-03
-5.563125e-10,5.968750e-03
-5.523125e-10,6.250000e-03
-5.483125e-10,6.500000e-03
-5.443125e-10,5.343750e-03
-5.403125e-10,6.218750e-03
-5.363125e-10,5.578125e-03
-5.323125e-10,6.687500e-03
-5.283125e-10,6.640625e-03
-5.243125e-10,6.484375e-03
-5.203125e-10,5.937500e-03
-5.163125e-10,6.312500e-03
-5.123125e-10,5.890625e-03
-5.083125e-10,5.937500e-03
-5.043125e-10,6.343750e-03
-5.003125e-10,6.453125e-03
-4.963125e-10,6.328125e-03
-4.923125e-10,5.875000e-03
-4.883125e-10,5.843750e-03
-4.843125e-10,6.187500e-03
-4.803125e-10,5.734375e-03
-4.763125e-10,6.281250e-03
-4.723125e-10,6.375000e-03
-4.683125e-10,6.453125e-03
-4.643125e-10,5.125000e-03
-4.603125e-10,5.781250e-03
-4.563125e-10,4.968750e-03
-4.523125e-10,5.906250e-03
-4.483125e-10,5.703125e-03
-4.443125e-10,5.343750e-03
-4.403125e-10,4.625000e-03
-4.363125e-10,4.843750e-03
-4.323125e-10,4.312500e-03
-4.283125e-10,4.156250e-03
-4.243125e-10,4.437500e-03
-4.203125e-10,4.406250e-03
-4.163125e-10,4.093750e-03
-4.123125e-10,3.562500e-03
-4.083125e-10,3.468750e-03
-4.043125e-10,3.750000e-03
-4.003125e-10,3.187500e-03
-3.963125e-10,3.703125e-03
-3.923125e-10,3.781250e-03
-3.883125e-10,3.843750e-03
-3.843125e-10,2.562500e-03
-3.803125e-10,3.187500e-03
-3.763125e-10,2.437500e-03
-3.723125e-10,3.453125e-03
-3.683125e-10,3.343750e-03
-3.643125e-10,3.062500e-03
-3.603125e-10,2.515625e-03
-3.563125e-10,2.890625e-03
-3.523125e-10,2.562500e-03
-3.483125e-10,2.546875e-03
-3.443125e-10,3.031250e-03
-3.403125e-10,3.250000e-03
-3.363125e-10,3.125000e-03
-3.323125e-10,2.875000e-03
-3.283125e-10,3.046875e-03
-3.243125e-10,3.625000e-03
-3.203125e-10,3.343750e-03
-3.163125e-10,4.125000e-03
-3.123125e-10,4.531250e-03
-3.083125e-10,4.906250e-03
-3.043125e-10,3.953125e-03
-3.003125e-10,4.859375e-03
-2.963125e-10,4.375000e-03
-2.923125e-10,5.718750e-03
-2.883125e-10,5.843750e-03
-2.843125e-10,5.859375e-03
-2.803125e-10,5.593750e-03
-2.763125e-10,6.218750e-03
-2.723125e-10,6.125000e-03
-2.683125e-10,6.312500e-03
-2.643125e-10,6.953125e-03
-2.603125e-10,7.328125e-03
-2.563125e-10,7.328125e-03
-2.523125e-10,7.218750e-03
-2.483125e-10,7.453125e-03
-2.443125e-10,8.062500e-03
-2.403125e-10,7.812500e-03
-2.363125e-10,8.546875e-03
-2.323125e-10,8.921875e-03
-2.283125e-10,9.203125e-03
-2.243125e-10,8.156250e-03
-2.203125e-10,8.937500e-03
-2.163125e-10,8.234375e-03
-2.123125e-10,9.390625e-03
-2.083125e-10,9.250000e-03
-2.043125e-10,9.015625e-03
-2.003125e-10,8.484375e-03
-1.963125e-10,8.796875e-03
-1.923125e-10,8.343750e-03
-1.883125e-10,8.218750e-03
-1.843125e-10,8.468750e-03
-1.803125e-10,8.484375e-03
-1.763125e-10,8.109375e-03
-1.723125e-10,7.640625e-03
-1.683125e-10,7.468750e-03
-1.643125e-10,7.656250e-03
-1.603125e-10,7.078125e-03
-1.563125e-10,7.468750e-03
-1.523125e-10,7.500000e-03
-1.483125e-10,7.500000e-03
-1.443125e-10,6.234375e-03
-1.403125e-10,6.781250e-03
-1.363125e-10,5.859375e-03
-1.323125e-10,6.921875e-03
-1.283125e-10,6.640625e-03
-1.243125e-10,6.406250e-03
-1.203125e-10,5.906250e-03
-1.163125e-10,6.343750e-03
-1.123125e-10,6.062500e-03
-1.083125e-10,6.218750e-03
-1.043125e-10,6.796875e-03
-1.003125e-10,7.250000e-03
-9.631250e-11,7.375000e-03
-9.231250e-11,7.500000e-03
-8.831250e-11,8.015625e-03
-8.431250e-11,8.953125e-03
-8.031250e-11,9.250000e-03
-7.631250e-11,1.064063e-02
-7.231250e-11,1.171875e-02
-6.831250e-11,1.295313e-02
-6.431250e-11,1.298438e-02
-6.031250e-11,1.490625e-02
-5.631250e-11,1.543750e-02
-5.231250e-11,1.807813e-02
-4.831250e-11,1.942188e-02
-4.431250e-11,2.095313e-02
-4.031250e-11,2.228125e-02
-3.631250e-11,2.462500e-02
-3.231250e-11,2.634375e-02
-2.831250e-11,2.853125e-02
-2.431250e-11,3.123438e-02
-2.031250e-11,3.390625e-02
-1.631250e-11,3.623438e-02
-1.231250e-11,3.864063e-02
-8.312500e-12,4.145313e-02
-4.312500e-12,4.467188e-02
-3.125000e-13,4.734375e-02
3.687500e-12,5.109375e-02
7.687500e-12,5.453125e-02
1.168750e-11,5.814063e-02
1.568750e-11,6.051563e-02
1.968750e-11,6.476563e-02
2.368750e-11,6.757813e-02
2.768750e-11,7.245313e-02
3.168750e-11,7.593750e-02
3.568750e-11,7.962500e-02
3.968750e-11,8.298438e-02
4.368750e-11,8.728125e-02
4.768750e-11,9.087500e-02
5.168750e-11,9.482813e-02
5.568750e-11,9.921875e-02
5.968750e-11,1.035000e-01
6.368750e-11,1.072188e-01
6.768750e-11,1.109219e-01
7.168750e-11,1.148906e-01
7.568750e-11,1.191406e-01
7.968750e-11,1.227188e-01
8.368750e-11,1.272031e-01
8.768750e-11,1.311875e-01
9.168750e-11,1.352500e-01
9.568750e-11,1.378750e-01
9.968750e-11,1.422344e-01
1.036875e-10,1.449688e-01
1.076875e-10,1.495938e-01
1.116875e-10,1.526406e-01
1.156875e-10,1.557813e-01
1.196875e-10,1.583750e-01
1.236875e-10,1.617188e-01
1.276875e-10,1.642500e-01
1.316875e-10,1.669844e-01
1.356875e-10,1.699688e-01
1.396875e-10,1.727344e-01
1.436875e-10,1.747344e-01
1.476875e-10,1.765625e-01
1.516875e-10,1.785625e-01
1.556875e-10,1.807188e-01
1.596875e-10,1.820781e-01
1.636875e-10,1.841719e-01
1.676875e-10,1.856406e-01
1.716875e-10,1.871406e-01
1.756875e-10,1.870313e-01
1.796875e-10,1.886406e-01
1.836875e-10,1.885313e-01
1.876875e-10,1.901875e-01
1.916875e-10,1.902188e-01
1.956875e-10,1.902969e-01
1.996875e-10,1.897500e-01
2.036875e-10,1.899063e-01
2.076875e-10,1.892813e-01
2.116875e-10,1.887969e-01
2.156875e-10,1.885156e-01
2.196875e-10,1.880625e-01
2.236875e-10,1.868125e-01
2.276875e-10,1.853750e-01
2.316875e-10,1.841719e-01
2.356875e-10,1.831250e-01
2.396875e-10,1.813125e-01
2.436875e-10,1.802656e-01
2.476875e-10,1.786250e-01
2.516875e-10,1.770781e-01
2.556875e-10,1.739688e-01
2.596875e-10,1.726719e-01
2.636875e-10,1.697344e-01
2.676875e-10,1.685781e-01
2.716875e-10,1.659063e-01
2.756875e-10,1.633281e-01
2.796875e-10,1.602344e-01
2.836875e-10,1.579688e-01
2.876875e-10,1.550000e-01
2.916875e-10,1.522813e-01
2.956875e-10,1.498281e-01
2.996875e-10,1.472969e-01
3.036875e-10,1.441094e-01
3.076875e-10,1.408281e-01
3.116875e-10,1.378906e-01
3.156875e-10,1.352500e-01
3.196875e-10,1.318906e-01
3.236875e-10,1.294219e-01
3.276875e-10,1.265000e-01
3.316875e-10,1.237656e-01
3.356875e-10,1.195469e-01
3.396875e-10,1.173281e-01
3.436875e-10,1.135781e-01
3.476875e-10,1.116406e-01
3.516875e-10,1.083594e-01
3.556875e-10,1.052500e-01
3.596875e-10,1.017188e-01
3.636875e-10,9.917188e-02
3.676875e-10,9.601563e-02
3.716875e-10,9.318750e-02
3.756875e-10,9.070313e-02
3.796875e-10,8.823438e-02
3.836875e-10,8.528125e-02
3.876875e-10,8.226563e-02
3.916875e-10,7.968750e-02
3.956875e-10,7.750000e-02
3.996875e-10,7.465625e-02
4.036875e-10,7.276563e-02
4.076875e-10,7.056250e-02
4.116875e-10,6.856250e-02
4.156875e-10,6.515625e-02
4.196875e-10,6.382813e-02
4.236875e-10,6.104688e-02
4.276875e-10,6.010938e-02
4.316875e-10,5.792188e-02
4.356875e-10,5.590625e-02
4.396875e-10,5.351563e-02
4.436875e-10,5.217188e-02
4.476875e-10,5.023438e-02
4.516875e-10,4.867188e-02
4.556875e-10,4.746875e-02
4.596875e-10,4.628125e-02
4.636875e-10,4.468750e-02
4.676875e-10,4.303125e-02
4.716875e-10,4.179688e-02
4.756875e-10,4.100000e-02
4.796875e-10,3.950000e-02
4.836875e-10,3.893750e-02
4.876875e-10,3.809375e-02
4.916875e-10,3.740625e-02
4.956875e-10,3.532813e-02
4.996875e-10,3.528125e-02
5.036875e-10,3.378125e-02
5.076875e-10,3.409375e-02
5.116875e-10,3.317188e-02
5.156875e-10,3.228125e-02
5.196875e-10,3.107813e-02
5.236875e-10,3.082813e-02
5.276875e-10,2.990625e-02
5.316875e-10,2.935938e-02
5.356875e-10,2.910938e-02
5.396875e-10,2.882813e-02
5.436875e-10,2.812500e-02
5.476875e-10,2.728125e-02
5.516875e-10,2.681250e-02
5.556875e-10,2.671875e-02
5.596875e-10,2.585938e-02
5.636875e-10,2.587500e-02
5.676875e-10,2.560938e-02
5.716875e-10,2.534375e-02
5.756875e-10,2.371875e-02
5.796875e-10,2.403125e-02
5.836875e-10,2.285938e-02
5.876875e-10,2.346875e-02
5.916875e-10,2.279688e-02
5.956875e-10,2.206250e-02
5.996875e-10,2.098438e-02
6.036875e-10,2.085938e-02
6.076875e-10,1.995313e-02
6.116875e-10,1.940625e-02
6.156875e-10,1.915625e-02
6.196875e-10,1.884375e-02
6.236875e-10,1.810938e-02
6.276875e-10,1.715625e-02
6.316875e-10,1.662500e-02
6.356875e-10,1.637500e-02
6.396875e-10,1.540625e-02
6.436875e-10,1.531250e-02
6.476875e-10,1.493750e-02
6.516875e-10,1.450000e-02
6.556875e-10,1.276563e-02
6.596875e-10,1.293750e-02
6.636875e-10,1.167188e-02
6.676875e-10,1.221875e-02
6.716875e-10,1.148438e-02
6.756875e-10,1.070313e-02
6.796875e-10,9.578125e-03
6.836875e-10,9.500000e-03
6.876875e-10,8.578125e-03
6.916875e-10,8.046875e-03
6.956875e-10,7.921875e-03
6.996875e-10,7.734375e-03
7.036875e-10,7.171875e-03
7.076875e-10,6.375000e-03
7.116875e-10,6.093750e-03
7.156875e-10,6.093750e-03
7.196875e-10,5.421875e-03
7.236875e-10,5.687500e-03
7.276875e-10,5.703125e-03
7.316875e-10,5.609375e-03
7.356875e-10,4.343750e-03
7.396875e-10,4.921875e-03
7.436875e-10,4.140625e-03
7.476875e-10,5.218750e-03
7.516875e-10,5.015625e-03
7.556875e-10,4.812500e-03
7.596875e-10,4.234375e-03
7.636875e-10,4.734375e-03
7.676875e-10,4.390625e-03
7.716875e-10,4.453125e-03
7.756875e-10,4.953125e-03
7.796875e-10,5.328125e-03
7.836875e-10,5.390625e-03
7.876875e-10,5.171875e-03
7.916875e-10,5.437500e-03
7.956875e-10,6.031250e-03
7.996875e-10,5.921875e-03
8.036875e-10,6.734375e-03
8.076875e-10,7.265625e-03
8.116875e-10,7.625000e-03
8.156875e-10,6.828125e-03
8.196875e-10,7.812500e-03
8.236875e-10,7.390625e-03
8.276875e-10,8.875000e-03
8.316875e-10,8.984375e-03
8.356875e-10,9.093750e-03
8.396875e-10,8.734375e-03
8.436875e-10,9.406250e-03
8.476875e-10,9.250000e-03
8.516875e-10,9.453125e-03
8.556875e-10,1.006250e-02
8.596875e-10,1.042188e-02
8.636875e-10,1.048438e-02
8.676875e-10,1.023438e-02
8.716875e-10,1.039063e-02
8.756875e-10,1.092188e-02
8.796875e-10,1.067188e-02
8.836875e-10,1.132813e-02
8.876875e-10,1.162500e-02
8.916875e-10,1.175000e-02
8.956875e-10,1.071875e-02
8.996875e-10,1.140625e-02
9.036875e-10,1.064063e-02
9.076875e-10,1.184375e-02
9.116875e-10,1.162500e-02
9.156875e-10,1.139063e-02
9.196875e-10,1.070313e-02
9.236875e-10,1.100000e-02
9.276875e-10,1.050000e-02
9.316875e-10,1.039063e-02
9.356875e-10,1.068750e-02
9.396875e-10,1.065625e-02
9.436875e-10,1.040625e-02
9.476875e-10,9.875000e-03
9.516875e-10,9.703125e-03
9.556875e-10,1.000000e-02
9.596875e-10,9.515625e-03
9.636875e-10,9.953125e-03
9.676875e-10,1.001563e-02
9.716875e-10,1.000000e-02
9.756875e-10,8.843750e-03
9.796875e-10,9.453125e-03
9.836875e-10,8.578125e-03
9.876875e-10,9.718750e-03
9.916875e-10,9.484375e-03
9.956875e-10,9.234375e-03
9.996875e-10,8.625000e-03
1.003687e-09,8.984375e-03
1.007687e-09,8.609375e-03
1.011688e-09,8.625000e-03
1.015688e-09,9.093750e-03
1.019688e-09,9.218750e-03
1.023688e-09,9.140625e-03
1.027688e-09,8.843750e-03
1.031688e-09,8.875000e-03
1.035687e-09,9.437500e-03
1.039687e-09,9.218750e-03
1.043687e-09,9.890625e-03
1.047687e-09,1.023438e-02
1.051687e-09,1.051563e-02
1.055687e-09,9.640625e-03
1.059687e-09,1.054688e-02
1.063687e-09,9.937500e-03
1.067687e-09,1.131250e-02
1.071688e-09,1.131250e-02
1.075688e-09,1.129688e-02
1.079688e-09,1.089063e-02
1.083688e-09,1.145313e-02
1.087688e-09,1.125000e-02
1.091688e-09,1.143750e-02
1.095687e-09,1.201563e-02
1.099687e-09,1.225000e-02
1.103687e-09,1.221875e-02
1.107687e-09,1.195313e-02
1.111687e-09,1.200000e-02
1.115687e-09,1.251563e-02
1.119687e-09,1.221875e-02
1.123687e-09,1.281250e-02
1.127687e-09,1.301563e-02
1.131688e-09,1.315625e-02
1.135688e-09,1.207813e-02
1.139688e-09,1.279688e-02
1.143688e-09,1.192188e-02
1.147688e-09,1.300000e-02
1.151688e-09,1.268750e-02
1.155687e-09,1.234375e-02
1.159687e-09,1.157813e-02
1.163687e-09,1.178125e-02
1.167687e-09,1.117188e-02
1.171687e-09,1.093750e-02
1.175687e-09,1.109375e-02
1.179687e-09,1.095313e-02
1.183687e-09,1.048438e-02
1.187687e-09,9.765625e-03
1.191688e-09,9.406250e-03
1.195688e-09,9.468750e-03
1.199688e-09,8.750000e-03
1.203688e-09,8.937500e-03
1.207688e-09,8.765625e-03
1.211688e-09,8.546875e-03
1.215687e-09,7.062500e-03
1.219687e-09,7.484375e-03
1.223687e-09,6.296875e-03
1.227687e-09,7.109375e-03
1.231687e-09,6.531250e-03
1.235687e-09,5.968750e-03
1.239687e-09,5.015625e-03
1.243687e-09,5.078125e-03
1.247687e-09,4.343750e-03
1.251687e-09,4.046875e-03
1.255688e-09,4.156250e-03
1.259688e-09,4.062500e-03
1.263688e-09,3.609375e-03
1.267688e-09,2.984375e-03
1.271688e-09,2.750000e-03
1.275687e-09,2.984375e-03
1.279687e-09,2.437500e-03
1.283687e-09,2.890625e-03
1.287687e-09,2.984375e-03
1.291687e-09,3.078125e-03
1.295687e-09,1.890625e-03
1.299687e-09,2.671875e-03
1.303687e-09,1.875000e-03
1.307687e-09,3.109375e-03
1.311687e-09,2.968750e-03
1.315688e-09,2.843750e-03
1.319688e-09,2.359375e-03
1.323688e-09,2.890625e-03
1.327688e-09,2.640625e-03
1.331688e-09,2.828125e-03
1.335687e-09,3.437500e-03
1.339687e-09,3.843750e-03
1.343687e-09,3.875000e-03
1.347687e-09,3.718750e-03
1.351687e-09,3.968750e-03
1.355687e-09,4.656250e-03
1.359687e-09,4.531250e-03
1.363687e-09,5.421875e-03
1.367687e-09,5.921875e-03
1.371687e-09,6.421875e-03
1.375688e-09,5.546875e-03
1.379688e-09,6.640625e-03
1.383688e-09,6.140625e-03
1.387688e-09,7.640625e-03
1.391688e-09,7.718750e-03
1.395687e-09,7.812500e-03
1.399687e-09,7.468750e-03
1.403687e-09,8.140625e-03
1.407687e-09,7.984375e-03
1.411687e-09,8.218750e-03
1.415687e-09,8.859375e-03
1.419687e-09,9.250000e-03
1.423687e-09,9.250000e-03
1.427687e-09,9.031250e-03
1.431687e-09,9.171875e-03
1.435688e-09,9.718750e-03
1.439688e-09,9.437500e-03
1.443688e-09,1.014063e-02
1.447688e-09,1.043750e-02
1.451688e-09,1.068750e-02
1.455687e-09,9.546875e-03
1.459687e-09,1.039063e-02
1.463687e-09,9.593750e-03
1.467687e-09,1.079688e-02
1.471687e-09,1.057813e-02
1.475687e-09,1.034375e-02
1.479687e-09,9.703125e-03
1.483687e-09,1.004688e-02
1.487687e-09,9.562500e-03
1.491687e-09,9.484375e-03
1.495688e-09,9.796875e-03
1.499688e-09,9.906250e-03
1.503688e-09,9.593750e-03
1.507688e-09,9.078125e-03
1.511688e-09,8.953125e-03
1.515687e-09,9.234375e-03
1.519687e-09,8.718750e-03
1.523687e-09,9.187500e-03
1.527687e-09,9.265625e-03
1.531687e-09,9.328125e-03
1.535687e-09,8.000000e-03
1.539687e-09,8.687500e-03
1.543687e-09,7.765625e-03
1.547687e-09,8.843750e-03
1.551687e-09,8.531250e-03
1.555688e-09,8.218750e-03
1.559688e-09,7.515625e-03
1.563688e-09,7.812500e-03
1.567688e-09,7.312500e-03
1.571688e-09,7.218750e-03
1.575687e-09,7.531250e-03
1.579687e-09,7.656250e-03
1.583687e-09,7.390625e-03
1.587687e-09,6.906250e-03
1.591687e-09,6.843750e-03
1.595687e-09,7.187500e-03
1.599687e-09,6.718750e-03
1.603687e-09,7.265625e-03
1.607687e-09,7.421875e-03
1.611687e-09,7.562500e-03
1.615688e-09,6.312500e-03
1.619688e-09,7.062500e-03
1.623688e-09,6.203125e-03
1.627688e-09,7.359375e-03
1.631688e-09,7.109375e-03
1.635687e-09,6.843750e-03
1.639687e-09,6.171875e-03
1.643687e-09,6.515625e-03
1.647687e-09,6.046875e-03
1.651687e-09,5.968750e-03
1.655687e-09,6.281250e-03
1.659687e-09,6.390625e-03
1.663687e-09,6.109375e-03
1.667687e-09,5.593750e-03
1.671687e-09,5.484375e-03
1.675688e-09,5.781250e-03
1.679688e-09,5.250000e-03
1.683688e-09,5.734375e-03
1.687688e-09,5.796875e-03
1.691688e-09,5.843750e-03
1.695687e-09,4.484375e-03
1.699687e-09,5.125000e-03
1.703687e-09,4.156250e-03
1.707687e-09,5.203125e-03
1.711687e-09,4.828125e-03
1.715687e-09,4.453125e-03
1.719687e-09,3.656250e-03
1.723687e-09,3.890625e-03
1.727687e-09,3.296875e-03
1.731687e-09,3.109375e-03
1.735688e-09,3.328125e-03
1.739688e-09,3.343750e-03
1.743688e-09,2.968750e-03
1.747688e-09,2.390625e-03
1.751688e-09,2.203125e-03
1.755687e-09,2.453125e-03
1.759687e-09,1.890625e-03
