Measurements-streak-laser/Photodiode-on-Tek-12bit-4GHz/Tek000_ch1_20190613133032363.csv

Model,MSO64
Waveform Type,ANALOG
Horizontal Units,s
Sample Interval,4.000000e-12
Record Length,1000
Zero Index,310.125000
Vertical Units,V

TIME,CH1
-1.240500e-09,4.125000e-03
-1.236500e-09,4.734375e-03
-1.232500e-09,4.515625e-03
-1.228500e-09,5.312500e-03
-1.224500e-09,5.703125e-03
-1.220500e-09,6.078125e-03
-1.216500e-09,5.031250e-03
-1.212500e-09,6.000000e-03
-1.208500e-09,5.343750e-03
-1.204500e-09,6.687500e-03
-1.200500e-09,6.609375e-03
-1.196500e-09,6.531250e-03
-1.192500e-09,6.046875e-03
-1.188500e-09,6.546875e-03
-1.184500e-09,6.234375e-03
-1.180500e-09,6.312500e-03
-1.176500e-09,6.796875e-03
-1.172500e-09,7.078125e-03
-1.168500e-09,6.937500e-03
-1.164500e-09,6.578125e-03
-1.160500e-09,6.625000e-03
-1.156500e-09,7.078125e-03
-1.152500e-09,6.718750e-03
-1.148500e-09,7.359375e-03
-1.144500e-09,7.593750e-03
-1.140500e-09,7.828125e-03
-1.136500e-09,6.656250e-03
-1.132500e-09,7.500000e-03
-1.128500e-09,6.718750e-03
-1.124500e-09,7.968750e-03
-1.120500e-09,7.812500e-03
-1.116500e-09,7.656250e-03
-1.112500e-09,7.093750e-03
-1.108500e-09,7.546875e-03
-1.104500e-09,7.203125e-03
-1.100500e-09,7.265625e-03
-1.096500e-09,7.734375e-03
-1.092500e-09,8.015625e-03
-1.088500e-09,7.890625e-03
-1.084500e-09,7.578125e-03
-1.080500e-09,7.671875e-03
-1.076500e-09,8.171875e-03
-1.072500e-09,7.875000e-03
-1.068500e-09,8.593750e-03
-1.064500e-09,8.921875e-03
-1.060500e-09,9.250000e-03
-1.056500e-09,8.156250e-03
-1.052500e-09,9.093750e-03
-1.048500e-09,8.406250e-03
-1.044500e-09,9.765625e-03
-1.040500e-09,9.687500e-03
-1.036500e-09,9.625000e-03
-1.032500e-09,9.156250e-03
-1.028500e-09,9.687500e-03
-1.024500e-09,9.406250e-03
-1.020500e-09,9.515625e-03
-1.016500e-09,1.004688e-02
-1.012500e-09,1.035938e-02
-1.008500e-09,1.025000e-02
-1.004500e-09,9.937500e-03
-1.000500e-09,1.003125e-02
-9.965000e-10,1.050000e-02
-9.925000e-10,1.015625e-02
-9.885000e-10,1.081250e-02
-9.845000e-10,1.104688e-02
-9.805000e-10,1.128125e-02
-9.765000e-10,1.006250e-02
-9.725000e-10,1.087500e-02
-9.685000e-10,1.004688e-02
-9.645000e-10,1.120313e-02
-9.605000e-10,1.095313e-02
-9.565000e-10,1.068750e-02
-9.525000e-10,1.000000e-02
-9.485000e-10,1.031250e-02
-9.445000e-10,9.812500e-03
-9.405000e-10,9.687500e-03
-9.365000e-10,9.953125e-03
-9.325000e-10,1.001563e-02
-9.285000e-10,9.671875e-03
-9.245000e-10,9.093750e-03
-9.205000e-10,8.937500e-03
-9.165000e-10,9.156250e-03
-9.125000e-10,8.578125e-03
-9.085000e-10,9.000000e-03
-9.045000e-10,9.000000e-03
-9.005000e-10,9.015625e-03
-8.965000e-10,7.640625e-03
-8.925000e-10,8.250000e-03
-8.885000e-10,7.265625e-03
-8.845000e-10,8.234375e-03
-8.805000e-10,7.875000e-03
-8.765000e-10,7.515625e-03
-8.725000e-10,6.765625e-03
-8.685000e-10,7.031250e-03
-8.645000e-10,6.500000e-03
-8.605000e-10,6.390625e-03
-8.565000e-10,6.687500e-03
-8.525000e-10,6.796875e-03
-8.485000e-10,6.531250e-03
-8.445000e-10,6.062500e-03
-8.405000e-10,6.031250e-03
-8.365000e-10,6.406250e-03
-8.325000e-10,5.984375e-03
-8.285000e-10,6.609375e-03
-8.245000e-10,6.828125e-03
-8.205000e-10,7.078125e-03
-8.165000e-10,5.968750e-03
-8.125000e-10,6.843750e-03
-8.085000e-10,6.125000e-03
-8.045000e-10,7.312500e-03
-8.005000e-10,7.265625e-03
-7.965000e-10,7.203125e-03
-7.925000e-10,6.765625e-03
-7.885000e-10,7.296875e-03
-7.845000e-10,7.031250e-03
-7.805000e-10,7.234375e-03
-7.765000e-10,7.781250e-03
-7.725000e-10,8.125000e-03
-7.685000e-10,8.140625e-03
-7.645000e-10,7.890625e-03
-7.605000e-10,8.031250e-03
-7.565000e-10,8.578125e-03
-7.525000e-10,8.312500e-03
-7.485000e-10,9.046875e-03
-7.445000e-10,9.375000e-03
-7.405000e-10,9.671875e-03
-7.365000e-10,8.609375e-03
-7.325000e-10,9.500000e-03
-7.285000e-10,8.781250e-03
-7.245000e-10,9.875000e-03
-7.205000e-10,9.750000e-03
-7.165000e-10,9.593750e-03
-7.125000e-10,9.031250e-03
-7.085000e-10,9.359375e-03
-7.045000e-10,8.875000e-03
-7.005000e-10,8.875000e-03
-6.965000e-10,9.156250e-03
-6.925000e-10,9.203125e-03
-6.885000e-10,9.000000e-03
-6.845000e-10,8.406250e-03
-6.805000e-10,8.218750e-03
-6.765000e-10,8.406250e-03
-6.725000e-10,7.828125e-03
-6.685000e-10,8.171875e-03
-6.645000e-10,8.156250e-03
-6.605000e-10,8.093750e-03
-6.565000e-10,6.640625e-03
-6.525000e-10,7.187500e-03
-6.485000e-10,6.187500e-03
-6.445000e-10,6.937500e-03
-6.405000e-10,6.531250e-03
-6.365000e-10,6.078125e-03
-6.325000e-10,5.265625e-03
-6.285000e-10,5.343750e-03
-6.245000e-10,4.609375e-03
-6.205000e-10,4.437500e-03
-6.165000e-10,4.578125e-03
-6.125000e-10,4.468750e-03
-6.085000e-10,4.218750e-03
-6.045000e-10,3.593750e-03
-6.005000e-10,3.375000e-03
-5.965000e-10,3.578125e-03
-5.925000e-10,3.078125e-03
-5.885000e-10,3.515625e-03
-5.845000e-10,3.625000e-03
-5.805000e-10,3.687500e-03
-5.765000e-10,2.421875e-03
-5.725000e-10,3.203125e-03
-5.685000e-10,2.500000e-03
-5.645000e-10,3.515625e-03
-5.605000e-10,3.468750e-03
-5.565000e-10,3.343750e-03
-5.525000e-10,2.875000e-03
-5.485000e-10,3.312500e-03
-5.445000e-10,2.968750e-03
-5.405000e-10,3.187500e-03
-5.365000e-10,3.750000e-03
-5.325000e-10,4.031250e-03
-5.285000e-10,4.156250e-03
-5.245000e-10,3.937500e-03
-5.205000e-10,4.140625e-03
-5.165000e-10,4.750000e-03
-5.125000e-10,4.609375e-03
-5.085000e-10,5.453125e-03
-5.045000e-10,5.843750e-03
-5.005000e-10,6.250000e-03
-4.965000e-10,5.250000e-03
-4.925000e-10,6.250000e-03
-4.885000e-10,5.796875e-03
-4.845000e-10,7.031250e-03
-4.805000e-10,7.171875e-03
-4.765000e-10,7.140625e-03
-4.725000e-10,6.750000e-03
-4.685000e-10,7.250000e-03
-4.645000e-10,6.984375e-03
-4.605000e-10,7.125000e-03
-4.565000e-10,7.656250e-03
-4.525000e-10,7.843750e-03
-4.485000e-10,7.796875e-03
-4.445000e-10,7.437500e-03
-4.405000e-10,7.500000e-03
-4.365000e-10,7.921875e-03
-4.325000e-10,7.500000e-03
-4.285000e-10,8.109375e-03
-4.245000e-10,8.218750e-03
-4.205000e-10,8.328125e-03
-4.165000e-10,7.046875e-03
-4.125000e-10,7.656250e-03
-4.085000e-10,6.906250e-03
-4.045000e-10,7.812500e-03
-4.005000e-10,7.640625e-03
-3.965000e-10,7.265625e-03
-3.925000e-10,6.578125e-03
-3.885000e-10,6.781250e-03
-3.845000e-10,6.296875e-03
-3.805000e-10,6.109375e-03
-3.765000e-10,6.406250e-03
-3.725000e-10,6.390625e-03
-3.685000e-10,6.093750e-03
-3.645000e-10,5.609375e-03
-3.605000e-10,5.578125e-03
-3.565000e-10,5.937500e-03
-3.525000e-10,5.437500e-03
-3.485000e-10,6.015625e-03
-3.445000e-10,6.187500e-03
-3.405000e-10,6.343750e-03
-3.365000e-10,5.203125e-03
-3.325000e-10,5.921875e-03
-3.285000e-10,5.312500e-03
-3.245000e-10,6.453125e-03
-3.205000e-10,6.500000e-03
-3.165000e-10,6.390625e-03
-3.125000e-10,6.031250e-03
-3.085000e-10,6.578125e-03
-3.045000e-10,6.453125e-03
-3.005000e-10,6.593750e-03
-2.965000e-10,7.265625e-03
-2.925000e-10,7.640625e-03
-2.885000e-10,7.687500e-03
-2.845000e-10,7.625000e-03
-2.805000e-10,7.968750e-03
-2.765000e-10,8.703125e-03
-2.725000e-10,8.578125e-03
-2.685000e-10,9.453125e-03
-2.645000e-10,9.984375e-03
-2.605000e-10,1.042188e-02
-2.565000e-10,9.578125e-03
-2.525000e-10,1.050000e-02
-2.485000e-10,1.004688e-02
-2.445000e-10,1.135938e-02
-2.405000e-10,1.145313e-02
-2.365000e-10,1.140625e-02
-2.325000e-10,1.107813e-02
-2.285000e-10,1.156250e-02
-2.245000e-10,1.129688e-02
-2.205000e-10,1.129688e-02
-2.165000e-10,1.168750e-02
-2.125000e-10,1.178125e-02
-2.085000e-10,1.150000e-02
-2.045000e-10,1.109375e-02
-2.005000e-10,1.095313e-02
-1.965000e-10,1.115625e-02
-1.925000e-10,1.051563e-02
-1.885000e-10,1.081250e-02
-1.845000e-10,1.073438e-02
-1.805000e-10,1.054688e-02
-1.765000e-10,9.062500e-03
-1.725000e-10,9.312500e-03
-1.685000e-10,8.109375e-03
-1.645000e-10,8.765625e-03
-1.605000e-10,8.109375e-03
-1.565000e-10,7.390625e-03
-1.525000e-10,6.421875e-03
-1.485000e-10,6.281250e-03
-1.445000e-10,5.406250e-03
-1.405000e-10,4.875000e-03
-1.365000e-10,4.734375e-03
-1.325000e-10,4.406250e-03
-1.285000e-10,3.750000e-03
-1.245000e-10,3.062500e-03
-1.205000e-10,2.718750e-03
-1.165000e-10,2.750000e-03
-1.125000e-10,2.125000e-03
-1.085000e-10,2.531250e-03
-1.045000e-10,2.640625e-03
-1.005000e-10,2.828125e-03
-9.650000e-11,1.859375e-03
-9.250000e-11,2.718750e-03
-8.850000e-11,2.234375e-03
-8.450000e-11,3.796875e-03
-8.050000e-11,4.125000e-03
-7.650000e-11,4.609375e-03
-7.250000e-11,4.953125e-03
-6.850000e-11,6.296875e-03
-6.450000e-11,7.031250e-03
-6.050000e-11,8.281250e-03
-5.650000e-11,1.006250e-02
-5.250000e-11,1.181250e-02
-4.850000e-11,1.331250e-02
-4.450000e-11,1.495313e-02
-4.050000e-11,1.701563e-02
-3.650000e-11,1.954688e-02
-3.250000e-11,2.159375e-02
-2.850000e-11,2.476563e-02
-2.450000e-11,2.771875e-02
-2.050000e-11,3.089063e-02
-1.650000e-11,3.295313e-02
-1.250000e-11,3.689063e-02
-8.500000e-12,3.950000e-02
-4.500000e-12,4.425000e-02
-5.000000e-13,4.771875e-02
3.500000e-12,5.143750e-02
7.500000e-12,5.495313e-02
1.150000e-11,5.946875e-02
1.550000e-11,6.337500e-02
1.950000e-11,6.773438e-02
2.350000e-11,7.257813e-02
2.750000e-11,7.740625e-02
3.150000e-11,8.178125e-02
3.550000e-11,8.625000e-02
3.950000e-11,9.104688e-02
4.350000e-11,9.617188e-02
4.750000e-11,1.007188e-01
5.150000e-11,1.062656e-01
5.550000e-11,1.113906e-01
5.950000e-11,1.166563e-01
6.350000e-11,1.205938e-01
6.750000e-11,1.262656e-01
7.150000e-11,1.304063e-01
7.550000e-11,1.365000e-01
7.950000e-11,1.410781e-01
8.350000e-11,1.457969e-01
8.750000e-11,1.500625e-01
9.150000e-11,1.550781e-01
9.550000e-11,1.593438e-01
9.950000e-11,1.638125e-01
1.035000e-10,1.685938e-01
1.075000e-10,1.731875e-01
1.115000e-10,1.770313e-01
1.155000e-10,1.807813e-01
1.195000e-10,1.846719e-01
1.235000e-10,1.886875e-01
1.275000e-10,1.919844e-01
1.315000e-10,1.960156e-01
1.355000e-10,1.994375e-01
1.395000e-10,2.028750e-01
1.435000e-10,2.047656e-01
1.475000e-10,2.082656e-01
1.515000e-10,2.100781e-01
1.555000e-10,2.136563e-01
1.595000e-10,2.155625e-01
1.635000e-10,2.175313e-01
1.675000e-10,2.188750e-01
1.715000e-10,2.208594e-01
1.755000e-10,2.220469e-01
1.795000e-10,2.233281e-01
1.835000e-10,2.247969e-01
1.875000e-10,2.260781e-01
1.915000e-10,2.264688e-01
1.955000e-10,2.267031e-01
1.995000e-10,2.270938e-01
2.035000e-10,2.275625e-01
2.075000e-10,2.272813e-01
2.115000e-10,2.276875e-01
2.155000e-10,2.274531e-01
2.195000e-10,2.272813e-01
2.235000e-10,2.255156e-01
2.275000e-10,2.254531e-01
2.315000e-10,2.237031e-01
2.355000e-10,2.236719e-01
2.395000e-10,2.220625e-01
2.435000e-10,2.205313e-01
2.475000e-10,2.184063e-01
2.515000e-10,2.170156e-01
2.555000e-10,2.148906e-01
2.595000e-10,2.129219e-01
2.635000e-10,2.111406e-01
2.675000e-10,2.092813e-01
2.715000e-10,2.066094e-01
2.755000e-10,2.038281e-01
2.795000e-10,2.013125e-01
2.835000e-10,1.989844e-01
2.875000e-10,1.959375e-01
2.915000e-10,1.936563e-01
2.955000e-10,1.908438e-01
2.995000e-10,1.881875e-01
3.035000e-10,1.839844e-01
3.075000e-10,1.816563e-01
3.115000e-10,1.777344e-01
3.155000e-10,1.755625e-01
3.195000e-10,1.719531e-01
3.235000e-10,1.684844e-01
3.275000e-10,1.645156e-01
3.315000e-10,1.614375e-01
3.355000e-10,1.577344e-01
3.395000e-10,1.542500e-01
3.435000e-10,1.510625e-01
3.475000e-10,1.478594e-01
3.515000e-10,1.440156e-01
3.555000e-10,1.401406e-01
3.595000e-10,1.366094e-01
3.635000e-10,1.334219e-01
3.675000e-10,1.295469e-01
3.715000e-10,1.265781e-01
3.755000e-10,1.232031e-01
3.795000e-10,1.200625e-01
3.835000e-10,1.154688e-01
3.875000e-10,1.129063e-01
3.915000e-10,1.088594e-01
3.955000e-10,1.066094e-01
3.995000e-10,1.030625e-01
4.035000e-10,9.975000e-02
4.075000e-10,9.603125e-02
4.115000e-10,9.331250e-02
4.155000e-10,9.007813e-02
4.195000e-10,8.715625e-02
4.235000e-10,8.457813e-02
4.275000e-10,8.209375e-02
4.315000e-10,7.914063e-02
4.355000e-10,7.618750e-02
4.395000e-10,7.365625e-02
4.435000e-10,7.157813e-02
4.475000e-10,6.885938e-02
4.515000e-10,6.707813e-02
4.555000e-10,6.504688e-02
4.595000e-10,6.325000e-02
4.635000e-10,6.009375e-02
4.675000e-10,5.901563e-02
4.715000e-10,5.653125e-02
4.755000e-10,5.585938e-02
4.795000e-10,5.400000e-02
4.835000e-10,5.229688e-02
4.875000e-10,5.029688e-02
4.915000e-10,4.928125e-02
4.955000e-10,4.773438e-02
4.995000e-10,4.656250e-02
5.035000e-10,4.571875e-02
5.075000e-10,4.493750e-02
5.115000e-10,4.376563e-02
5.155000e-10,4.251563e-02
5.195000e-10,4.168750e-02
5.235000e-10,4.128125e-02
5.275000e-10,4.018750e-02
5.315000e-10,3.996875e-02
5.355000e-10,3.951563e-02
5.395000e-10,3.917188e-02
5.435000e-10,3.748438e-02
5.475000e-10,3.776563e-02
5.515000e-10,3.660938e-02
5.555000e-10,3.720313e-02
5.595000e-10,3.657813e-02
5.635000e-10,3.593750e-02
5.675000e-10,3.500000e-02
5.715000e-10,3.496875e-02
5.755000e-10,3.423438e-02
5.795000e-10,3.384375e-02
5.835000e-10,3.371875e-02
5.875000e-10,3.357813e-02
5.915000e-10,3.300000e-02
5.955000e-10,3.221875e-02
5.995000e-10,3.181250e-02
6.035000e-10,3.170313e-02
6.075000e-10,3.085938e-02
6.115000e-10,3.082813e-02
6.155000e-10,3.051563e-02
6.195000e-10,3.015625e-02
6.235000e-10,2.846875e-02
6.275000e-10,2.865625e-02
6.315000e-10,2.739063e-02
6.355000e-10,2.782813e-02
6.395000e-10,2.700000e-02
6.435000e-10,2.609375e-02
6.475000e-10,2.482813e-02
6.515000e-10,2.454688e-02
6.555000e-10,2.342188e-02
6.595000e-10,2.262500e-02
6.635000e-10,2.217188e-02
6.675000e-10,2.165625e-02
6.715000e-10,2.073438e-02
6.755000e-10,1.954688e-02
6.795000e-10,1.884375e-02
6.835000e-10,1.837500e-02
6.875000e-10,1.721875e-02
6.915000e-10,1.692188e-02
6.955000e-10,1.639063e-02
6.995000e-10,1.573438e-02
7.035000e-10,1.390625e-02
7.075000e-10,1.389063e-02
7.115000e-10,1.254688e-02
7.155000e-10,1.296875e-02
7.195000e-10,1.214063e-02
7.235000e-10,1.129688e-02
7.275000e-10,1.009375e-02
7.315000e-10,9.984375e-03
7.355000e-10,9.031250e-03
7.395000e-10,8.468750e-03
7.435000e-10,8.343750e-03
7.475000e-10,8.171875e-03
7.515000e-10,7.671875e-03
7.555000e-10,6.906250e-03
7.595000e-10,6.687500e-03
7.635000e-10,6.750000e-03
7.675000e-10,6.171875e-03
7.715000e-10,6.531250e-03
7.755000e-10,6.656250e-03
7.795000e-10,6.640625e-03
7.835000e-10,5.531250e-03
7.875000e-10,6.187500e-03
7.915000e-10,5.546875e-03
7.955000e-10,6.765625e-03
7.995000e-10,6.703125e-03
8.035000e-10,6.656250e-03
8.075000e-10,6.187500e-03
8.115000e-10,6.796875e-03
8.155000e-10,6.578125e-03
8.195000e-10,6.765625e-03
8.235000e-10,7.390625e-03
8.275000e-10,7.843750e-03
8.315000e-10,8.015625e-03
8.355000e-10,7.890625e-03
8.395000e-10,8.234375e-03
8.435000e-10,8.906250e-03
8.475000e-10,8.875000e-03
8.515000e-10,9.750000e-03
8.555000e-10,1.029688e-02
8.595000e-10,1.068750e-02
8.635000e-10,9.953125e-03
8.675000e-10,1.090625e-02
8.715000e-10,1.048438e-02
8.755000e-10,1.196875e-02
8.795000e-10,1.209375e-02
8.835000e-10,1.217188e-02
8.875000e-10,1.179688e-02
8.915000e-10,1.240625e-02
8.955000e-10,1.221875e-02
8.995000e-10,1.239063e-02
9.035000e-10,1.295313e-02
9.075000e-10,1.320313e-02
9.115000e-10,1.323438e-02
9.155000e-10,1.292188e-02
9.195000e-10,1.298438e-02
9.235000e-10,1.346875e-02
9.275000e-10,1.318750e-02
9.315000e-10,1.376563e-02
9.355000e-10,1.398438e-02
9.395000e-10,1.404688e-02
9.435000e-10,1.300000e-02
9.475000e-10,1.360938e-02
9.515000e-10,1.279688e-02
9.555000e-10,1.393750e-02
9.595000e-10,1.370313e-02
9.635000e-10,1.340625e-02
9.675000e-10,1.271875e-02
9.715000e-10,1.296875e-02
9.755000e-10,1.245313e-02
9.795000e-10,1.234375e-02
9.835000e-10,1.262500e-02
9.875000e-10,1.253125e-02
9.915000e-10,1.228125e-02
9.955000e-10,1.175000e-02
9.995000e-10,1.153125e-02
1.003500e-09,1.184375e-02
1.007500e-09,1.137500e-02
1.011500e-09,1.176563e-02
1.015500e-09,1.179688e-02
1.019500e-09,1.175000e-02
1.023500e-09,1.062500e-02
1.027500e-09,1.118750e-02
1.031500e-09,1.026563e-02
1.035500e-09,1.134375e-02
1.039500e-09,1.106250e-02
1.043500e-09,1.075000e-02
1.047500e-09,1.006250e-02
1.051500e-09,1.032813e-02
1.055500e-09,9.859375e-03
1.059500e-09,9.781250e-03
1.063500e-09,1.012500e-02
1.067500e-09,1.009375e-02
1.071500e-09,9.875000e-03
1.075500e-09,9.406250e-03
1.079500e-09,9.250000e-03
1.083500e-09,9.625000e-03
1.087500e-09,9.203125e-03
1.091500e-09,9.656250e-03
1.095500e-09,9.765625e-03
1.099500e-09,9.796875e-03
1.103500e-09,8.718750e-03
1.107500e-09,9.375000e-03
1.111500e-09,8.500000e-03
1.115500e-09,9.578125e-03
1.119500e-09,9.312500e-03
1.123500e-09,9.031250e-03
1.127500e-09,8.343750e-03
1.131500e-09,8.640625e-03
1.135500e-09,8.156250e-03
1.139500e-09,8.062500e-03
1.143500e-09,8.390625e-03
1.147500e-09,8.375000e-03
1.151500e-09,8.109375e-03
1.155500e-09,7.609375e-03
1.159500e-09,7.437500e-03
1.163500e-09,7.750000e-03
1.167500e-09,7.265625e-03
1.171500e-09,7.687500e-03
1.175500e-09,7.765625e-03
1.179500e-09,7.781250e-03
1.183500e-09,6.625000e-03
1.187500e-09,7.296875e-03
1.191500e-09,6.390625e-03
1.195500e-09,7.453125e-03
1.199500e-09,7.171875e-03
1.203500e-09,6.875000e-03
1.207500e-09,6.187500e-03
1.211500e-09,6.515625e-03
1.215500e-09,6.062500e-03
1.219500e-09,6.000000e-03
1.223500e-09,6.359375e-03
1.227500e-09,6.468750e-03
1.231500e-09,6.250000e-03
1.235500e-09,5.843750e-03
1.239500e-09,5.781250e-03
1.243500e-09,6.203125e-03
1.247500e-09,5.843750e-03
1.251500e-09,6.421875e-03
1.255500e-09,6.656250e-03
1.259500e-09,6.859375e-03
1.263500e-09,5.843750e-03
1.267500e-09,6.703125e-03
1.271500e-09,5.968750e-03
1.275500e-09,7.250000e-03
1.279500e-09,7.156250e-03
1.283500e-09,7.062500e-03
1.287500e-09,6.578125e-03
1.291500e-09,7.109375e-03
1.295500e-09,6.843750e-03
1.299500e-09,6.984375e-03
1.303500e-09,7.531250e-03
1.307500e-09,7.859375e-03
1.311500e-09,7.812500e-03
1.315500e-09,7.578125e-03
1.319500e-09,7.703125e-03
1.323500e-09,8.265625e-03
1.327500e-09,8.031250e-03
1.331500e-09,8.765625e-03
1.335500e-09,9.109375e-03
1.339500e-09,9.437500e-03
1.343500e-09,8.437500e-03
1.347500e-09,9.359375e-03
1.351500e-09,8.687500e-03
1.355500e-09,1.000000e-02
1.359500e-09,9.906250e-03
1.363500e-09,9.812500e-03
1.367500e-09,9.296875e-03
1.371500e-09,9.781250e-03
1.375500e-09,9.453125e-03
1.379500e-09,9.515625e-03
1.383500e-09,9.984375e-03
1.387500e-09,1.020313e-02
1.391500e-09,1.004688e-02
1.395500e-09,9.656250e-03
1.399500e-09,9.671875e-03
1.403500e-09,1.007813e-02
1.407500e-09,9.671875e-03
1.411500e-09,1.025000e-02
1.415500e-09,1.042188e-02
1.419500e-09,1.059375e-02
1.423500e-09,9.375000e-03
1.427500e-09,1.014063e-02
1.431500e-09,9.296875e-03
1.435500e-09,1.043750e-02
1.439500e-09,1.018750e-02
1.443500e-09,9.937500e-03
1.447500e-09,9.281250e-03
1.451500e-09,9.625000e-03
1.455500e-09,9.171875e-03
1.459500e-09,9.109375e-03
1.463500e-09,9.468750e-03
1.467500e-09,9.609375e-03
1.471500e-09,9.375000e-03
1.475500e-09,8.937500e-03
1.479500e-09,8.890625e-03
1.483500e-09,9.265625e-03
1.487500e-09,8.859375e-03
1.491500e-09,9.437500e-03
1.495500e-09,9.625000e-03
1.499500e-09,9.828125e-03
1.503500e-09,8.640625e-03
1.507500e-09,9.468750e-03
1.511500e-09,8.687500e-03
1.515500e-09,9.921875e-03
1.519500e-09,9.750000e-03
1.523500e-09,9.593750e-03
1.527500e-09,9.031250e-03
1.531500e-09,9.500000e-03
1.535500e-09,9.156250e-03
1.539500e-09,9.203125e-03
1.543500e-09,9.671875e-03
1.547500e-09,9.937500e-03
1.551500e-09,9.812500e-03
1.555500e-09,9.468750e-03
1.559500e-09,9.531250e-03
1.563500e-09,1.000000e-02
1.567500e-09,9.656250e-03
1.571500e-09,1.031250e-02
1.575500e-09,1.057813e-02
1.579500e-09,1.081250e-02
1.583500e-09,9.656250e-03
1.587500e-09,1.048438e-02
1.591500e-09,9.703125e-03
1.595500e-09,1.092188e-02
1.599500e-09,1.071875e-02
1.603500e-09,1.050000e-02
1.607500e-09,9.859375e-03
1.611500e-09,1.021875e-02
1.615500e-09,9.765625e-03
1.619500e-09,9.703125e-03
1.623500e-09,1.003125e-02
1.627500e-09,1.012500e-02
1.631500e-09,9.828125e-03
1.635500e-09,9.296875e-03
1.639500e-09,9.156250e-03
1.643500e-09,9.421875e-03
1.647500e-09,8.843750e-03
1.651500e-09,9.281250e-03
1.655500e-09,9.296875e-03
1.659500e-09,9.312500e-03
1.663500e-09,7.906250e-03
1.667500e-09,8.484375e-03
1.671500e-09,7.468750e-03
1.675500e-09,8.453125e-03
1.679500e-09,8.031250e-03
1.683500e-09,7.593750e-03
1.687500e-09,6.750000e-03
1.691500e-09,6.921875e-03
1.695500e-09,6.296875e-03
1.699500e-09,6.062500e-03
1.703500e-09,6.234375e-03
1.707500e-09,6.218750e-03
1.711500e-09,5.812500e-03
1.715500e-09,5.203125e-03
1.719500e-09,5.000000e-03
1.723500e-09,5.234375e-03
1.727500e-09,4.656250e-03
1.731500e-09,5.109375e-03
1.735500e-09,5.156250e-03
1.739500e-09,5.234375e-03
1.743500e-09,3.921875e-03
1.747500e-09,4.625000e-03
1.751500e-09,3.734375e-03
1.755500e-09,4.890625e-03
1.759500e-09,4.640625e-03
