Measurements-streak-laser/Photodiode-on-Tek-12bit-4GHz/Tek000_ch1_20190613132949841.csv

Model,MSO64
Waveform Type,ANALOG
Horizontal Units,s
Sample Interval,4.000000e-12
Record Length,1000
Zero Index,310.656250
Vertical Units,V

TIME,CH1
-1.242625e-09,5.218750e-03
-1.238625e-09,5.062500e-03
-1.234625e-09,4.921875e-03
-1.230625e-09,4.375000e-03
-1.226625e-09,4.859375e-03
-1.222625e-09,4.531250e-03
-1.218625e-09,4.625000e-03
-1.214625e-09,5.125000e-03
-1.210625e-09,5.437500e-03
-1.206625e-09,5.328125e-03
-1.202625e-09,5.031250e-03
-1.198625e-09,5.140625e-03
-1.194625e-09,5.656250e-03
-1.190625e-09,5.375000e-03
-1.186625e-09,6.093750e-03
-1.182625e-09,6.406250e-03
-1.178625e-09,6.718750e-03
-1.174625e-09,5.593750e-03
-1.170625e-09,6.500000e-03
-1.166625e-09,5.781250e-03
-1.162625e-09,7.078125e-03
-1.158625e-09,6.953125e-03
-1.154625e-09,6.812500e-03
-1.150625e-09,6.250000e-03
-1.146625e-09,6.703125e-03
-1.142625e-09,6.328125e-03
-1.138625e-09,6.343750e-03
-1.134625e-09,6.750000e-03
-1.130625e-09,6.937500e-03
-1.126625e-09,6.703125e-03
-1.122625e-09,6.250000e-03
-1.118625e-09,6.187500e-03
-1.114625e-09,6.531250e-03
-1.110625e-09,6.031250e-03
-1.106625e-09,6.531250e-03
-1.102625e-09,6.609375e-03
-1.098625e-09,6.687500e-03
-1.094625e-09,5.312500e-03
-1.090625e-09,5.968750e-03
-1.086625e-09,4.968750e-03
-1.082625e-09,5.984375e-03
-1.078625e-09,5.578125e-03
-1.074625e-09,5.156250e-03
-1.070625e-09,4.328125e-03
-1.066625e-09,4.500000e-03
-1.062625e-09,3.859375e-03
-1.058625e-09,3.609375e-03
-1.054625e-09,3.765625e-03
-1.050625e-09,3.718750e-03
-1.046625e-09,3.250000e-03
-1.042625e-09,2.593750e-03
-1.038625e-09,2.343750e-03
-1.034625e-09,2.484375e-03
-1.030625e-09,1.828125e-03
-1.026625e-09,2.203125e-03
-1.022625e-09,2.156250e-03
-1.018625e-09,2.140625e-03
-1.014625e-09,7.031250e-04
-1.010625e-09,1.312500e-03
-1.006625e-09,2.968750e-04
-1.002625e-09,1.328125e-03
-9.986250e-10,9.531250e-04
-9.946250e-10,6.093750e-04
-9.906250e-10,-1.406250e-04
-9.866250e-10,1.562500e-04
-9.826250e-10,-3.593750e-04
-9.786250e-10,-4.375000e-04
-9.746250e-10,-9.375000e-05
-9.706250e-10,6.250000e-05
-9.666250e-10,-1.562500e-04
-9.626250e-10,-5.781250e-04
-9.586250e-10,-5.625000e-04
-9.546250e-10,-1.250000e-04
-9.506250e-10,-4.843750e-04
-9.466250e-10,1.875000e-04
-9.426250e-10,4.843750e-04
-9.386250e-10,7.968750e-04
-9.346250e-10,-2.968750e-04
-9.306250e-10,6.562500e-04
-9.266250e-10,5.551115e-17
-9.226250e-10,1.343750e-03
-9.186250e-10,1.328125e-03
-9.146250e-10,1.312500e-03
-9.106250e-10,9.062500e-04
-9.066250e-10,1.531250e-03
-9.026250e-10,1.343750e-03
-8.986250e-10,1.562500e-03
-8.946250e-10,2.203125e-03
-8.906250e-10,2.640625e-03
-8.866250e-10,2.687500e-03
-8.826250e-10,2.531250e-03
-8.786250e-10,2.765625e-03
-8.746250e-10,3.406250e-03
-8.706250e-10,3.250000e-03
-8.666250e-10,4.093750e-03
-8.626250e-10,4.531250e-03
-8.586250e-10,4.968750e-03
-8.546250e-10,4.000000e-03
-8.506250e-10,5.031250e-03
-8.466250e-10,4.421875e-03
-8.426250e-10,5.734375e-03
-8.386250e-10,5.765625e-03
-8.346250e-10,5.734375e-03
-8.306250e-10,5.328125e-03
-8.266250e-10,5.890625e-03
-8.226250e-10,5.625000e-03
-8.186250e-10,5.796875e-03
-8.146250e-10,6.328125e-03
-8.106250e-10,6.656250e-03
-8.066250e-10,6.593750e-03
-8.026250e-10,6.265625e-03
-7.986250e-10,6.343750e-03
-7.946250e-10,6.828125e-03
-7.906250e-10,6.468750e-03
-7.866250e-10,7.140625e-03
-7.826250e-10,7.375000e-03
-7.786250e-10,7.609375e-03
-7.746250e-10,6.468750e-03
-7.706250e-10,7.281250e-03
-7.666250e-10,6.484375e-03
-7.626250e-10,7.515625e-03
-7.586250e-10,7.359375e-03
-7.546250e-10,7.140625e-03
-7.506250e-10,6.578125e-03
-7.466250e-10,6.906250e-03
-7.426250e-10,6.421875e-03
-7.386250e-10,6.453125e-03
-7.346250e-10,6.765625e-03
-7.306250e-10,6.875000e-03
-7.266250e-10,6.734375e-03
-7.226250e-10,6.218750e-03
-7.186250e-10,6.125000e-03
-7.146250e-10,6.421875e-03
-7.106250e-10,5.937500e-03
-7.066250e-10,6.437500e-03
-7.026250e-10,6.562500e-03
-6.986250e-10,6.640625e-03
-6.946250e-10,5.375000e-03
-6.906250e-10,6.093750e-03
-6.866250e-10,5.234375e-03
-6.826250e-10,6.125000e-03
-6.786250e-10,5.890625e-03
-6.746250e-10,5.625000e-03
-6.706250e-10,4.984375e-03
-6.666250e-10,5.218750e-03
-6.626250e-10,4.625000e-03
-6.586250e-10,4.625000e-03
-6.546250e-10,4.875000e-03
-6.506250e-10,4.890625e-03
-6.466250e-10,4.781250e-03
-6.426250e-10,4.218750e-03
-6.386250e-10,4.062500e-03
-6.346250e-10,4.312500e-03
-6.306250e-10,3.859375e-03
-6.266250e-10,4.312500e-03
-6.226250e-10,4.421875e-03
-6.186250e-10,4.468750e-03
-6.146250e-10,3.156250e-03
-6.106250e-10,3.875000e-03
-6.066250e-10,3.093750e-03
-6.026250e-10,3.953125e-03
-5.986250e-10,3.781250e-03
-5.946250e-10,3.531250e-03
-5.906250e-10,2.921875e-03
-5.866250e-10,3.171875e-03
-5.826250e-10,2.609375e-03
-5.786250e-10,2.656250e-03
-5.746250e-10,3.000000e-03
-5.706250e-10,3.031250e-03
-5.666250e-10,3.015625e-03
-5.626250e-10,2.531250e-03
-5.586250e-10,2.468750e-03
-5.546250e-10,2.812500e-03
-5.506250e-10,2.468750e-03
-5.466250e-10,3.046875e-03
-5.426250e-10,3.234375e-03
-5.386250e-10,3.390625e-03
-5.346250e-10,2.171875e-03
-5.306250e-10,3.000000e-03
-5.266250e-10,2.390625e-03
-5.226250e-10,3.375000e-03
-5.186250e-10,3.390625e-03
-5.146250e-10,3.250000e-03
-5.106250e-10,2.750000e-03
-5.066250e-10,3.125000e-03
-5.026250e-10,2.718750e-03
-4.986250e-10,2.859375e-03
-4.946250e-10,3.343750e-03
-4.906250e-10,3.468750e-03
-4.866250e-10,3.500000e-03
-4.826250e-10,3.125000e-03
-4.786250e-10,3.203125e-03
-4.746250e-10,3.671875e-03
-4.706250e-10,3.328125e-03
-4.666250e-10,4.015625e-03
-4.626250e-10,4.203125e-03
-4.586250e-10,4.390625e-03
-4.546250e-10,3.187500e-03
-4.506250e-10,3.937500e-03
-4.466250e-10,3.328125e-03
-4.426250e-10,4.296875e-03
-4.386250e-10,4.281250e-03
-4.346250e-10,4.015625e-03
-4.306250e-10,3.437500e-03
-4.266250e-10,3.718750e-03
-4.226250e-10,3.281250e-03
-4.186250e-10,3.203125e-03
-4.146250e-10,3.562500e-03
-4.106250e-10,3.546875e-03
-4.066250e-10,3.328125e-03
-4.026250e-10,2.812500e-03
-3.986250e-10,2.765625e-03
-3.946250e-10,3.078125e-03
-3.906250e-10,2.500000e-03
-3.866250e-10,3.015625e-03
-3.826250e-10,3.046875e-03
-3.786250e-10,3.046875e-03
-3.746250e-10,1.718750e-03
-3.706250e-10,2.250000e-03
-3.666250e-10,1.484375e-03
-3.626250e-10,2.343750e-03
-3.586250e-10,2.218750e-03
-3.546250e-10,1.812500e-03
-3.506250e-10,1.187500e-03
-3.466250e-10,1.437500e-03
-3.426250e-10,1.046875e-03
-3.386250e-10,8.906250e-04
-3.346250e-10,1.281250e-03
-3.306250e-10,1.343750e-03
-3.266250e-10,1.140625e-03
-3.226250e-10,7.968750e-04
-3.186250e-10,9.218750e-04
-3.146250e-10,1.437500e-03
-3.106250e-10,1.062500e-03
-3.066250e-10,1.781250e-03
-3.026250e-10,2.171875e-03
-2.986250e-10,2.484375e-03
-2.946250e-10,1.546875e-03
-2.906250e-10,2.390625e-03
-2.866250e-10,2.000000e-03
-2.826250e-10,3.296875e-03
-2.786250e-10,3.546875e-03
-2.746250e-10,3.625000e-03
-2.706250e-10,3.515625e-03
-2.666250e-10,4.234375e-03
-2.626250e-10,4.296875e-03
-2.586250e-10,4.609375e-03
-2.546250e-10,5.437500e-03
-2.506250e-10,5.953125e-03
-2.466250e-10,6.156250e-03
-2.426250e-10,6.296875e-03
-2.386250e-10,6.781250e-03
-2.346250e-10,7.656250e-03
-2.306250e-10,7.656250e-03
-2.266250e-10,8.625000e-03
-2.226250e-10,9.296875e-03
-2.186250e-10,9.812500e-03
-2.146250e-10,9.078125e-03
-2.106250e-10,1.004688e-02
-2.066250e-10,9.656250e-03
-2.026250e-10,1.100000e-02
-1.986250e-10,1.114063e-02
-1.946250e-10,1.112500e-02
-1.906250e-10,1.085938e-02
-1.866250e-10,1.134375e-02
-1.826250e-10,1.109375e-02
-1.786250e-10,1.109375e-02
-1.746250e-10,1.145313e-02
-1.706250e-10,1.153125e-02
-1.666250e-10,1.120313e-02
-1.626250e-10,1.082813e-02
-1.586250e-10,1.067188e-02
-1.546250e-10,1.082813e-02
-1.506250e-10,1.018750e-02
-1.466250e-10,1.046875e-02
-1.426250e-10,1.039063e-02
-1.386250e-10,1.021875e-02
-1.346250e-10,8.828125e-03
-1.306250e-10,9.093750e-03
-1.266250e-10,7.968750e-03
-1.226250e-10,8.718750e-03
-1.186250e-10,8.171875e-03
-1.146250e-10,7.625000e-03
-1.106250e-10,6.890625e-03
-1.066250e-10,6.984375e-03
-1.026250e-10,6.390625e-03
-9.862500e-11,6.187500e-03
-9.462500e-11,6.406250e-03
-9.062500e-11,6.515625e-03
-8.662500e-11,6.312500e-03
-8.262500e-11,6.218750e-03
-7.862500e-11,6.468750e-03
-7.462500e-11,7.125000e-03
-7.062500e-11,7.234375e-03
-6.662500e-11,8.453125e-03
-6.262500e-11,9.437500e-03
-5.862500e-11,1.060938e-02
-5.462500e-11,1.075000e-02
-5.062500e-11,1.268750e-02
-4.662500e-11,1.339063e-02
-4.262500e-11,1.625000e-02
-3.862500e-11,1.792188e-02
-3.462500e-11,1.987500e-02
-3.062500e-11,2.179688e-02
-2.662500e-11,2.476563e-02
-2.262500e-11,2.723438e-02
-1.862500e-11,3.026563e-02
-1.462500e-11,3.390625e-02
-1.062500e-11,3.764063e-02
-6.625000e-12,4.112500e-02
-2.625000e-12,4.490625e-02
1.375000e-12,4.914063e-02
5.375000e-12,5.384375e-02
9.375000e-12,5.818750e-02
1.337500e-11,6.371875e-02
1.737500e-11,6.904688e-02
2.137500e-11,7.471875e-02
2.537500e-11,7.931250e-02
2.937500e-11,8.573438e-02
3.337500e-11,9.087500e-02
3.737500e-11,9.818750e-02
4.137500e-11,1.041875e-01
4.537500e-11,1.105156e-01
4.937500e-11,1.166563e-01
5.337500e-11,1.236875e-01
5.737500e-11,1.301563e-01
6.137500e-11,1.370000e-01
6.537500e-11,1.443125e-01
6.937500e-11,1.516094e-01
7.337500e-11,1.582969e-01
7.737500e-11,1.651094e-01
8.137500e-11,1.721250e-01
8.537500e-11,1.793438e-01
8.937500e-11,1.860000e-01
9.337500e-11,1.934844e-01
9.737500e-11,2.004375e-01
1.013750e-10,2.075000e-01
1.053750e-10,2.131094e-01
1.093750e-10,2.202656e-01
1.133750e-10,2.257813e-01
1.173750e-10,2.330938e-01
1.213750e-10,2.387031e-01
1.253750e-10,2.444375e-01
1.293750e-10,2.495000e-01
1.333750e-10,2.551250e-01
1.373750e-10,2.599063e-01
1.413750e-10,2.647188e-01
1.453750e-10,2.696406e-01
1.493750e-10,2.743125e-01
1.533750e-10,2.779375e-01
1.573750e-10,2.813906e-01
1.613750e-10,2.848125e-01
1.653750e-10,2.881719e-01
1.693750e-10,2.907344e-01
1.733750e-10,2.938125e-01
1.773750e-10,2.960938e-01
1.813750e-10,2.983594e-01
1.853750e-10,2.989063e-01
1.893750e-10,3.009219e-01
1.933750e-10,3.011250e-01
1.973750e-10,3.029219e-01
2.013750e-10,3.029219e-01
2.053750e-10,3.029531e-01
2.093750e-10,3.022500e-01
2.133750e-10,3.020469e-01
2.173750e-10,3.010313e-01
2.213750e-10,3.000156e-01
2.253750e-10,2.990781e-01
2.293750e-10,2.979688e-01
2.333750e-10,2.958281e-01
2.373750e-10,2.935469e-01
2.413750e-10,2.914063e-01
2.453750e-10,2.892813e-01
2.493750e-10,2.864531e-01
2.533750e-10,2.842344e-01
2.573750e-10,2.813750e-01
2.613750e-10,2.786875e-01
2.653750e-10,2.743750e-01
2.693750e-10,2.717969e-01
2.733750e-10,2.676094e-01
2.773750e-10,2.650781e-01
2.813750e-10,2.610313e-01
2.853750e-10,2.571875e-01
2.893750e-10,2.527969e-01
2.933750e-10,2.491875e-01
2.973750e-10,2.449844e-01
3.013750e-10,2.409688e-01
3.053750e-10,2.371719e-01
3.093750e-10,2.334531e-01
3.133750e-10,2.289375e-01
3.173750e-10,2.244375e-01
3.213750e-10,2.202969e-01
3.253750e-10,2.164063e-01
3.293750e-10,2.119063e-01
3.333750e-10,2.082344e-01
3.373750e-10,2.041094e-01
3.413750e-10,2.003281e-01
3.453750e-10,1.950156e-01
3.493750e-10,1.916875e-01
3.533750e-10,1.868906e-01
3.573750e-10,1.838125e-01
3.613750e-10,1.794063e-01
3.653750e-10,1.752813e-01
3.693750e-10,1.707031e-01
3.733750e-10,1.670781e-01
3.773750e-10,1.629531e-01
3.813750e-10,1.590625e-01
3.853750e-10,1.554688e-01
3.893750e-10,1.520000e-01
3.933750e-10,1.479219e-01
3.973750e-10,1.438594e-01
4.013750e-10,1.401719e-01
4.053750e-10,1.368438e-01
4.093750e-10,1.329063e-01
4.133750e-10,1.298281e-01
4.173750e-10,1.264219e-01
4.213750e-10,1.233125e-01
4.253750e-10,1.187344e-01
4.293750e-10,1.162188e-01
4.333750e-10,1.122656e-01
4.373750e-10,1.100156e-01
4.413750e-10,1.065313e-01
4.453750e-10,1.032969e-01
4.493750e-10,9.965625e-02
4.533750e-10,9.700000e-02
4.573750e-10,9.385938e-02
4.613750e-10,9.103125e-02
4.653750e-10,8.845313e-02
4.693750e-10,8.603125e-02
4.733750e-10,8.314063e-02
4.773750e-10,8.023438e-02
4.813750e-10,7.771875e-02
4.853750e-10,7.564063e-02
4.893750e-10,7.293750e-02
4.933750e-10,7.107813e-02
4.973750e-10,6.901563e-02
5.013750e-10,6.718750e-02
5.053750e-10,6.398438e-02
5.093750e-10,6.284375e-02
5.133750e-10,6.031250e-02
5.173750e-10,5.950000e-02
5.213750e-10,5.756250e-02
5.253750e-10,5.571875e-02
5.293750e-10,5.362500e-02
5.333750e-10,5.248438e-02
5.373750e-10,5.079688e-02
5.413750e-10,4.946875e-02
5.453750e-10,4.840625e-02
5.493750e-10,4.748438e-02
5.533750e-10,4.615625e-02
5.573750e-10,4.475000e-02
5.613750e-10,4.376563e-02
5.653750e-10,4.314063e-02
5.693750e-10,4.187500e-02
5.733750e-10,4.140625e-02
5.773750e-10,4.076563e-02
5.813750e-10,4.020313e-02
5.853750e-10,3.834375e-02
5.893750e-10,3.839063e-02
5.933750e-10,3.709375e-02
5.973750e-10,3.745313e-02
6.013750e-10,3.664063e-02
6.053750e-10,3.575000e-02
6.093750e-10,3.460938e-02
6.133750e-10,3.440625e-02
6.173750e-10,3.345313e-02
6.213750e-10,3.282813e-02
6.253750e-10,3.246875e-02
6.293750e-10,3.212500e-02
6.333750e-10,3.137500e-02
6.373750e-10,3.039063e-02
6.413750e-10,2.982813e-02
6.453750e-10,2.948438e-02
6.493750e-10,2.845313e-02
6.533750e-10,2.820313e-02
6.573750e-10,2.771875e-02
6.613750e-10,2.715625e-02
6.653750e-10,2.534375e-02
6.693750e-10,2.529688e-02
6.733750e-10,2.393750e-02
6.773750e-10,2.420313e-02
6.813750e-10,2.325000e-02
6.853750e-10,2.218750e-02
6.893750e-10,2.078125e-02
6.933750e-10,2.040625e-02
6.973750e-10,1.917188e-02
7.013750e-10,1.825000e-02
7.053750e-10,1.768750e-02
7.093750e-10,1.712500e-02
7.133750e-10,1.617188e-02
7.173750e-10,1.493750e-02
7.213750e-10,1.423438e-02
7.253750e-10,1.371875e-02
7.293750e-10,1.259375e-02
7.333750e-10,1.229688e-02
7.373750e-10,1.184375e-02
7.413750e-10,1.118750e-02
7.453750e-10,9.484375e-03
7.493750e-10,9.531250e-03
7.533750e-10,8.328125e-03
7.573750e-10,8.875000e-03
7.613750e-10,8.203125e-03
7.653750e-10,7.546875e-03
7.693750e-10,6.515625e-03
7.733750e-10,6.609375e-03
7.773750e-10,5.843750e-03
7.813750e-10,5.484375e-03
7.853750e-10,5.593750e-03
7.893750e-10,5.671875e-03
7.933750e-10,5.453125e-03
7.973750e-10,4.953125e-03
8.013750e-10,5.015625e-03
8.053750e-10,5.375000e-03
8.093750e-10,5.093750e-03
8.133750e-10,5.734375e-03
8.173750e-10,6.171875e-03
8.213750e-10,6.390625e-03
8.253750e-10,5.640625e-03
8.293750e-10,6.531250e-03
8.333750e-10,6.187500e-03
8.373750e-10,7.687500e-03
8.413750e-10,7.906250e-03
8.453750e-10,8.125000e-03
8.493750e-10,7.906250e-03
8.533750e-10,8.718750e-03
8.573750e-10,8.718750e-03
8.613750e-10,9.093750e-03
8.653750e-10,9.906250e-03
8.693750e-10,1.045313e-02
8.733750e-10,1.081250e-02
8.773750e-10,1.078125e-02
8.813750e-10,1.118750e-02
8.853750e-10,1.195313e-02
8.893750e-10,1.200000e-02
8.933750e-10,1.285938e-02
8.973750e-10,1.340625e-02
9.013750e-10,1.370313e-02
9.053750e-10,1.298438e-02
9.093750e-10,1.381250e-02
9.133750e-10,1.326563e-02
9.173750e-10,1.464063e-02
9.213750e-10,1.462500e-02
9.253750e-10,1.453125e-02
9.293750e-10,1.398438e-02
9.333750e-10,1.435938e-02
9.373750e-10,1.395313e-02
9.413750e-10,1.389063e-02
9.453750e-10,1.421875e-02
9.493750e-10,1.412500e-02
9.533750e-10,1.390625e-02
9.573750e-10,1.332813e-02
9.613750e-10,1.306250e-02
9.653750e-10,1.328125e-02
9.693750e-10,1.273438e-02
9.733750e-10,1.300000e-02
9.773750e-10,1.290625e-02
9.813750e-10,1.265625e-02
9.853750e-10,1.140625e-02
9.893750e-10,1.173438e-02
9.933750e-10,1.065625e-02
9.973750e-10,1.154688e-02
1.001375e-09,1.110938e-02
1.005375e-09,1.060938e-02
1.009375e-09,9.750000e-03
1.013375e-09,9.812500e-03
1.017375e-09,9.187500e-03
1.021375e-09,8.953125e-03
1.025375e-09,9.156250e-03
1.029375e-09,8.953125e-03
1.033375e-09,8.671875e-03
1.037375e-09,8.140625e-03
1.041375e-09,7.906250e-03
1.045375e-09,8.265625e-03
1.049375e-09,7.875000e-03
1.053375e-09,8.312500e-03
1.057375e-09,8.468750e-03
1.061375e-09,8.531250e-03
1.065375e-09,7.640625e-03
1.069375e-09,8.390625e-03
1.073375e-09,7.687500e-03
1.077375e-09,8.968750e-03
1.081375e-09,8.937500e-03
1.085375e-09,8.890625e-03
1.089375e-09,8.500000e-03
1.093375e-09,9.062500e-03
1.097375e-09,8.906250e-03
1.101375e-09,9.156250e-03
1.105375e-09,9.828125e-03
1.109375e-09,1.010938e-02
1.113375e-09,1.023438e-02
1.117375e-09,1.010938e-02
1.121375e-09,1.028125e-02
1.125375e-09,1.098438e-02
1.129375e-09,1.090625e-02
1.133375e-09,1.167188e-02
1.137375e-09,1.210938e-02
1.141375e-09,1.243750e-02
1.145375e-09,1.168750e-02
1.149375e-09,1.264063e-02
1.153375e-09,1.203125e-02
1.157375e-09,1.335938e-02
1.161375e-09,1.332813e-02
1.165375e-09,1.325000e-02
1.169375e-09,1.276563e-02
1.173375e-09,1.323438e-02
1.177375e-09,1.290625e-02
1.181375e-09,1.295313e-02
1.185375e-09,1.337500e-02
1.189375e-09,1.343750e-02
1.193375e-09,1.323438e-02
1.197375e-09,1.278125e-02
1.201375e-09,1.260938e-02
1.205375e-09,1.292188e-02
1.209375e-09,1.240625e-02
1.213375e-09,1.279688e-02
1.217375e-09,1.279688e-02
1.221375e-09,1.271875e-02
1.225375e-09,1.146875e-02
1.229375e-09,1.200000e-02
1.233375e-09,1.095313e-02
1.237375e-09,1.184375e-02
1.241375e-09,1.137500e-02
1.245375e-09,1.090625e-02
1.249375e-09,1.001563e-02
1.253375e-09,1.010938e-02
1.257375e-09,9.437500e-03
1.261375e-09,9.156250e-03
1.265375e-09,9.265625e-03
1.269375e-09,9.125000e-03
1.273375e-09,8.656250e-03
1.277375e-09,8.000000e-03
1.281375e-09,7.687500e-03
1.285375e-09,7.859375e-03
1.289375e-09,7.250000e-03
1.293375e-09,7.593750e-03
1.297375e-09,7.578125e-03
1.301375e-09,7.531250e-03
1.305375e-09,6.281250e-03
1.309375e-09,6.921875e-03
1.313375e-09,5.968750e-03
1.317375e-09,7.031250e-03
1.321375e-09,6.750000e-03
1.325375e-09,6.453125e-03
1.329375e-09,5.796875e-03
1.333375e-09,6.156250e-03
1.337375e-09,5.734375e-03
1.341375e-09,5.734375e-03
1.345375e-09,6.156250e-03
1.349375e-09,6.359375e-03
1.353375e-09,6.203125e-03
1.357375e-09,5.859375e-03
1.361375e-09,5.921875e-03
1.365375e-09,6.406250e-03
1.369375e-09,6.109375e-03
1.373375e-09,6.796875e-03
1.377375e-09,7.109375e-03
1.381375e-09,7.406250e-03
1.385375e-09,6.390625e-03
1.389375e-09,7.312500e-03
1.393375e-09,6.640625e-03
1.397375e-09,7.968750e-03
1.401375e-09,7.906250e-03
1.405375e-09,7.828125e-03
1.409375e-09,7.359375e-03
1.413375e-09,7.875000e-03
1.417375e-09,7.609375e-03
1.421375e-09,7.718750e-03
1.425375e-09,8.234375e-03
1.429375e-09,8.515625e-03
1.433375e-09,8.421875e-03
1.437375e-09,8.109375e-03
1.441375e-09,8.171875e-03
1.445375e-09,8.656250e-03
1.449375e-09,8.312500e-03
1.453375e-09,8.953125e-03
1.457375e-09,9.203125e-03
1.461375e-09,9.421875e-03
1.465375e-09,8.265625e-03
1.469375e-09,9.078125e-03
1.473375e-09,8.281250e-03
1.477375e-09,9.468750e-03
1.481375e-09,9.265625e-03
1.485375e-09,9.031250e-03
1.489375e-09,8.406250e-03
1.493375e-09,8.765625e-03
1.497375e-09,8.312500e-03
1.501375e-09,8.265625e-03
1.505375e-09,8.609375e-03
1.509375e-09,8.750000e-03
1.513375e-09,8.484375e-03
1.517375e-09,8.015625e-03
1.521375e-09,7.921875e-03
1.525375e-09,8.250000e-03
1.529375e-09,7.765625e-03
1.533375e-09,8.281250e-03
1.537375e-09,8.406250e-03
1.541375e-09,8.500000e-03
1.545375e-09,7.218750e-03
1.549375e-09,7.937500e-03
1.553375e-09,7.031250e-03
1.557375e-09,8.140625e-03
1.561375e-09,7.843750e-03
1.565375e-09,7.562500e-03
1.569375e-09,6.859375e-03
1.573375e-09,7.156250e-03
1.577375e-09,6.656250e-03
1.581375e-09,6.562500e-03
1.585375e-09,6.859375e-03
1.589375e-09,6.953125e-03
1.593375e-09,6.656250e-03
1.597375e-09,6.156250e-03
1.601375e-09,6.046875e-03
1.605375e-09,6.343750e-03
1.609375e-09,5.843750e-03
1.613375e-09,6.328125e-03
1.617375e-09,6.437500e-03
1.621375e-09,6.515625e-03
1.625375e-09,5.203125e-03
1.629375e-09,5.906250e-03
1.633375e-09,4.984375e-03
1.637375e-09,6.078125e-03
1.641375e-09,5.765625e-03
1.645375e-09,5.453125e-03
1.649375e-09,4.734375e-03
1.653375e-09,5.015625e-03
1.657375e-09,4.500000e-03
1.661375e-09,4.390625e-03
1.665375e-09,4.687500e-03
1.669375e-09,4.765625e-03
1.673375e-09,4.468750e-03
1.677375e-09,3.953125e-03
1.681375e-09,3.859375e-03
1.685375e-09,4.156250e-03
1.689375e-09,3.671875e-03
1.693375e-09,4.187500e-03
1.697375e-09,4.296875e-03
1.701375e-09,4.437500e-03
1.705375e-09,3.156250e-03
1.709375e-09,3.906250e-03
1.713375e-09,3.046875e-03
1.717375e-09,4.218750e-03
1.721375e-09,3.984375e-03
1.725375e-09,3.765625e-03
1.729375e-09,3.140625e-03
1.733375e-09,3.546875e-03
1.737375e-09,3.156250e-03
1.741375e-09,3.171875e-03
1.745375e-09,3.609375e-03
1.749375e-09,3.859375e-03
1.753375e-09,3.718750e-03
1.757375e-09,3.375000e-03
