Measurements-streak-laser/Photodiode-on-Tek-12bit-4GHz/Tek000_ch1_20190613132954355.csv

Model,MSO64
Waveform Type,ANALOG
Horizontal Units,s
Sample Interval,4.000000e-12
Record Length,1000
Zero Index,310.796875
Vertical Units,V

TIME,CH1
-1.243187e-09,8.921875e-03
-1.239187e-09,9.156250e-03
-1.235187e-09,9.375000e-03
-1.231187e-09,8.156250e-03
-1.227188e-09,8.968750e-03
-1.223188e-09,8.140625e-03
-1.219188e-09,9.312500e-03
-1.215188e-09,9.078125e-03
-1.211188e-09,8.812500e-03
-1.207188e-09,8.140625e-03
-1.203187e-09,8.468750e-03
-1.199187e-09,7.968750e-03
-1.195187e-09,7.875000e-03
-1.191187e-09,8.171875e-03
-1.187187e-09,8.265625e-03
-1.183187e-09,7.937500e-03
-1.179187e-09,7.406250e-03
-1.175187e-09,7.281250e-03
-1.171187e-09,7.546875e-03
-1.167188e-09,7.000000e-03
-1.163188e-09,7.468750e-03
-1.159188e-09,7.515625e-03
-1.155188e-09,7.578125e-03
-1.151188e-09,6.203125e-03
-1.147188e-09,6.875000e-03
-1.143187e-09,5.921875e-03
-1.139187e-09,7.000000e-03
-1.135187e-09,6.656250e-03
-1.131187e-09,6.328125e-03
-1.127187e-09,5.593750e-03
-1.123187e-09,5.875000e-03
-1.119187e-09,5.359375e-03
-1.115187e-09,5.250000e-03
-1.111187e-09,5.562500e-03
-1.107188e-09,5.671875e-03
-1.103188e-09,5.390625e-03
-1.099188e-09,4.921875e-03
-1.095188e-09,4.859375e-03
-1.091188e-09,5.218750e-03
-1.087188e-09,4.781250e-03
-1.083187e-09,5.359375e-03
-1.079187e-09,5.546875e-03
-1.075187e-09,5.750000e-03
-1.071187e-09,4.546875e-03
-1.067187e-09,5.375000e-03
-1.063187e-09,4.593750e-03
-1.059187e-09,5.843750e-03
-1.055187e-09,5.687500e-03
-1.051187e-09,5.546875e-03
-1.047188e-09,5.000000e-03
-1.043188e-09,5.484375e-03
-1.039188e-09,5.171875e-03
-1.035188e-09,5.250000e-03
-1.031188e-09,5.750000e-03
-1.027188e-09,6.046875e-03
-1.023187e-09,5.937500e-03
-1.019187e-09,5.640625e-03
-1.015187e-09,5.750000e-03
-1.011187e-09,6.265625e-03
-1.007187e-09,5.953125e-03
-1.003187e-09,6.671875e-03
-9.991875e-10,6.968750e-03
-9.951875e-10,7.265625e-03
-9.911875e-10,6.140625e-03
-9.871875e-10,7.031250e-03
-9.831875e-10,6.312500e-03
-9.791875e-10,7.578125e-03
-9.751875e-10,7.437500e-03
-9.711875e-10,7.296875e-03
-9.671875e-10,6.718750e-03
-9.631875e-10,7.156250e-03
-9.591875e-10,6.781250e-03
-9.551875e-10,6.781250e-03
-9.511875e-10,7.171875e-03
-9.471875e-10,7.359375e-03
-9.431875e-10,7.125000e-03
-9.391875e-10,6.671875e-03
-9.351875e-10,6.609375e-03
-9.311875e-10,6.937500e-03
-9.271875e-10,6.437500e-03
-9.231875e-10,6.937500e-03
-9.191875e-10,7.031250e-03
-9.151875e-10,7.093750e-03
-9.111875e-10,5.750000e-03
-9.071875e-10,6.390625e-03
-9.031875e-10,5.421875e-03
-8.991875e-10,6.406250e-03
-8.951875e-10,6.015625e-03
-8.911875e-10,5.609375e-03
-8.871875e-10,4.812500e-03
-8.831875e-10,5.000000e-03
-8.791875e-10,4.375000e-03
-8.751875e-10,4.171875e-03
-8.711875e-10,4.343750e-03
-8.671875e-10,4.312500e-03
-8.631875e-10,3.890625e-03
-8.591875e-10,3.250000e-03
-8.551875e-10,3.031250e-03
-8.511875e-10,3.218750e-03
-8.471875e-10,2.593750e-03
-8.431875e-10,2.984375e-03
-8.391875e-10,2.984375e-03
-8.351875e-10,3.000000e-03
-8.311875e-10,1.640625e-03
-8.271875e-10,2.281250e-03
-8.231875e-10,1.312500e-03
-8.191875e-10,2.265625e-03
-8.151875e-10,1.968750e-03
-8.111875e-10,1.656250e-03
-8.071875e-10,1.000000e-03
-8.031875e-10,1.312500e-03
-7.991875e-10,8.437500e-04
-7.951875e-10,8.437500e-04
-7.911875e-10,1.218750e-03
-7.871875e-10,1.406250e-03
-7.831875e-10,1.281250e-03
-7.791875e-10,9.062500e-04
-7.751875e-10,9.531250e-04
-7.711875e-10,1.421875e-03
-7.671875e-10,1.125000e-03
-7.631875e-10,1.828125e-03
-7.591875e-10,2.171875e-03
-7.551875e-10,2.515625e-03
-7.511875e-10,1.531250e-03
-7.471875e-10,2.515625e-03
-7.431875e-10,1.921875e-03
-7.391875e-10,3.156250e-03
-7.351875e-10,3.250000e-03
-7.311875e-10,3.281250e-03
-7.271875e-10,2.984375e-03
-7.231875e-10,3.593750e-03
-7.191875e-10,3.406250e-03
-7.151875e-10,3.750000e-03
-7.111875e-10,4.375000e-03
-7.071875e-10,4.796875e-03
-7.031875e-10,4.984375e-03
-6.991875e-10,4.812500e-03
-6.951875e-10,5.031250e-03
-6.911875e-10,5.640625e-03
-6.871875e-10,5.500000e-03
-6.831875e-10,6.312500e-03
-6.791875e-10,6.734375e-03
-6.751875e-10,7.109375e-03
-6.711875e-10,6.140625e-03
-6.671875e-10,7.140625e-03
-6.631875e-10,6.562500e-03
-6.591875e-10,7.687500e-03
-6.551875e-10,7.718750e-03
-6.511875e-10,7.671875e-03
-6.471875e-10,7.234375e-03
-6.431875e-10,7.656250e-03
-6.391875e-10,7.234375e-03
-6.351875e-10,7.390625e-03
-6.311875e-10,7.796875e-03
-6.271875e-10,7.937500e-03
-6.231875e-10,7.937500e-03
-6.191875e-10,7.468750e-03
-6.151875e-10,7.390625e-03
-6.111875e-10,7.703125e-03
-6.071875e-10,7.296875e-03
-6.031875e-10,7.781250e-03
-5.991875e-10,7.906250e-03
-5.951875e-10,7.953125e-03
-5.911875e-10,6.625000e-03
-5.871875e-10,7.328125e-03
-5.831875e-10,6.531250e-03
-5.791875e-10,7.375000e-03
-5.751875e-10,7.156250e-03
-5.711875e-10,6.859375e-03
-5.671875e-10,6.187500e-03
-5.631875e-10,6.375000e-03
-5.591875e-10,5.765625e-03
-5.551875e-10,5.750000e-03
-5.511875e-10,6.031250e-03
-5.471875e-10,6.000000e-03
-5.431875e-10,5.906250e-03
-5.391875e-10,5.375000e-03
-5.351875e-10,5.281250e-03
-5.311875e-10,5.593750e-03
-5.271875e-10,5.187500e-03
-5.231875e-10,5.750000e-03
-5.191875e-10,5.890625e-03
-5.151875e-10,6.031250e-03
-5.111875e-10,4.796875e-03
-5.071875e-10,5.593750e-03
-5.031875e-10,4.984375e-03
-4.991875e-10,6.000000e-03
-4.951875e-10,6.031250e-03
-4.911875e-10,5.906250e-03
-4.871875e-10,5.437500e-03
-4.831875e-10,5.859375e-03
-4.791875e-10,5.531250e-03
-4.751875e-10,5.687500e-03
-4.711875e-10,6.250000e-03
-4.671875e-10,6.453125e-03
-4.631875e-10,6.531250e-03
-4.591875e-10,6.250000e-03
-4.551875e-10,6.421875e-03
-4.511875e-10,6.984375e-03
-4.471875e-10,6.734375e-03
-4.431875e-10,7.531250e-03
-4.391875e-10,7.812500e-03
-4.351875e-10,8.109375e-03
-4.311875e-10,7.031250e-03
-4.271875e-10,7.875000e-03
-4.231875e-10,7.359375e-03
-4.191875e-10,8.453125e-03
-4.151875e-10,8.531250e-03
-4.111875e-10,8.359375e-03
-4.071875e-10,7.875000e-03
-4.031875e-10,8.265625e-03
-3.991875e-10,7.937500e-03
-3.951875e-10,7.921875e-03
-3.911875e-10,8.359375e-03
-3.871875e-10,8.421875e-03
-3.831875e-10,8.234375e-03
-3.791875e-10,7.781250e-03
-3.751875e-10,7.781250e-03
-3.711875e-10,8.140625e-03
-3.671875e-10,7.593750e-03
-3.631875e-10,8.109375e-03
-3.591875e-10,8.156250e-03
-3.551875e-10,8.156250e-03
-3.511875e-10,6.812500e-03
-3.471875e-10,7.296875e-03
-3.431875e-10,6.468750e-03
-3.391875e-10,7.281250e-03
-3.351875e-10,7.062500e-03
-3.311875e-10,6.578125e-03
-3.271875e-10,5.859375e-03
-3.231875e-10,5.984375e-03
-3.191875e-10,5.468750e-03
-3.151875e-10,5.156250e-03
-3.111875e-10,5.375000e-03
-3.071875e-10,5.265625e-03
-3.031875e-10,4.843750e-03
-2.991875e-10,4.312500e-03
-2.951875e-10,4.187500e-03
-2.911875e-10,4.468750e-03
-2.871875e-10,3.843750e-03
-2.831875e-10,4.281250e-03
-2.791875e-10,4.375000e-03
-2.751875e-10,4.375000e-03
-2.711875e-10,3.125000e-03
-2.671875e-10,3.656250e-03
-2.631875e-10,2.890625e-03
-2.591875e-10,3.843750e-03
-2.551875e-10,3.718750e-03
-2.511875e-10,3.421875e-03
-2.471875e-10,2.921875e-03
-2.431875e-10,3.250000e-03
-2.391875e-10,2.921875e-03
-2.351875e-10,2.828125e-03
-2.311875e-10,3.234375e-03
-2.271875e-10,3.343750e-03
-2.231875e-10,3.125000e-03
-2.191875e-10,2.859375e-03
-2.151875e-10,2.921875e-03
-2.111875e-10,3.375000e-03
-2.071875e-10,2.984375e-03
-2.031875e-10,3.562500e-03
-1.991875e-10,3.828125e-03
-1.951875e-10,4.000000e-03
-1.911875e-10,2.921875e-03
-1.871875e-10,3.562500e-03
-1.831875e-10,2.843750e-03
-1.791875e-10,3.906250e-03
-1.751875e-10,3.765625e-03
-1.711875e-10,3.515625e-03
-1.671875e-10,3.046875e-03
-1.631875e-10,3.375000e-03
-1.591875e-10,2.984375e-03
-1.551875e-10,2.890625e-03
-1.511875e-10,3.187500e-03
-1.471875e-10,3.250000e-03
-1.431875e-10,2.968750e-03
-1.391875e-10,2.656250e-03
-1.351875e-10,2.625000e-03
-1.311875e-10,2.921875e-03
-1.271875e-10,2.515625e-03
-1.231875e-10,3.078125e-03
-1.191875e-10,3.312500e-03
-1.151875e-10,3.546875e-03
-1.111875e-10,2.593750e-03
-1.071875e-10,3.359375e-03
-1.031875e-10,2.765625e-03
-9.918750e-11,4.125000e-03
-9.518750e-11,4.218750e-03
-9.118750e-11,4.390625e-03
-8.718750e-11,4.406250e-03
-8.318750e-11,5.312500e-03
-7.918750e-11,5.578125e-03
-7.518750e-11,6.296875e-03
-7.118750e-11,7.468750e-03
-6.718750e-11,8.562500e-03
-6.318750e-11,9.390625e-03
-5.918750e-11,1.035938e-02
-5.518750e-11,1.170313e-02
-5.118750e-11,1.345313e-02
-4.718750e-11,1.471875e-02
-4.318750e-11,1.710938e-02
-3.918750e-11,1.926563e-02
-3.518750e-11,2.164063e-02
-3.118750e-11,2.295313e-02
-2.718750e-11,2.610938e-02
-2.318750e-11,2.800000e-02
-1.918750e-11,3.204688e-02
-1.518750e-11,3.485938e-02
-1.118750e-11,3.796875e-02
-7.187500e-12,4.100000e-02
-3.187500e-12,4.503125e-02
8.125000e-13,4.853125e-02
4.812500e-12,5.257813e-02
8.812500e-12,5.717188e-02
1.281250e-11,6.182813e-02
1.681250e-11,6.615625e-02
2.081250e-11,7.070313e-02
2.481250e-11,7.565625e-02
2.881250e-11,8.101563e-02
3.281250e-11,8.595313e-02
3.681250e-11,9.196875e-02
4.081250e-11,9.771875e-02
4.481250e-11,1.037344e-01
4.881250e-11,1.085625e-01
5.281250e-11,1.151719e-01
5.681250e-11,1.203906e-01
6.081250e-11,1.277031e-01
6.481250e-11,1.335781e-01
6.881250e-11,1.397500e-01
7.281250e-11,1.455781e-01
7.681250e-11,1.522344e-01
8.081250e-11,1.582500e-01
8.481250e-11,1.645469e-01
8.881250e-11,1.712344e-01
9.281250e-11,1.778438e-01
9.681250e-11,1.837344e-01
1.008125e-10,1.896563e-01
1.048125e-10,1.957344e-01
1.088125e-10,2.019688e-01
1.128125e-10,2.075469e-01
1.168125e-10,2.139063e-01
1.208125e-10,2.196563e-01
1.248125e-10,2.254688e-01
1.288125e-10,2.297656e-01
1.328125e-10,2.356094e-01
1.368125e-10,2.397656e-01
1.408125e-10,2.456719e-01
1.448125e-10,2.498594e-01
1.488125e-10,2.541406e-01
1.528125e-10,2.577187e-01
1.568125e-10,2.618750e-01
1.608125e-10,2.651875e-01
1.648125e-10,2.685156e-01
1.688125e-10,2.719688e-01
1.728125e-10,2.751875e-01
1.768125e-10,2.773594e-01
1.808125e-10,2.793750e-01
1.848125e-10,2.814063e-01
1.888125e-10,2.834063e-01
1.928125e-10,2.846094e-01
1.968125e-10,2.863750e-01
2.008125e-10,2.873750e-01
2.048125e-10,2.884063e-01
2.088125e-10,2.877344e-01
2.128125e-10,2.886094e-01
2.168125e-10,2.877188e-01
2.208125e-10,2.884375e-01
2.248125e-10,2.874375e-01
2.288125e-10,2.865000e-01
2.328125e-10,2.848594e-01
2.368125e-10,2.837969e-01
2.408125e-10,2.819688e-01
2.448125e-10,2.801875e-01
2.488125e-10,2.785156e-01
2.528125e-10,2.767188e-01
2.568125e-10,2.739531e-01
2.608125e-10,2.710625e-01
2.648125e-10,2.683594e-01
2.688125e-10,2.657344e-01
2.728125e-10,2.624063e-01
2.768125e-10,2.597500e-01
2.808125e-10,2.564688e-01
2.848125e-10,2.533906e-01
2.888125e-10,2.487031e-01
2.928125e-10,2.458125e-01
2.968125e-10,2.413125e-01
3.008125e-10,2.385000e-01
3.048125e-10,2.341875e-01
3.088125e-10,2.300781e-01
3.128125e-10,2.254375e-01
3.168125e-10,2.216094e-01
3.208125e-10,2.172031e-01
3.248125e-10,2.129844e-01
3.288125e-10,2.090000e-01
3.328125e-10,2.050625e-01
3.368125e-10,2.004063e-01
3.408125e-10,1.957344e-01
3.448125e-10,1.914219e-01
3.488125e-10,1.873906e-01
3.528125e-10,1.827344e-01
3.568125e-10,1.789063e-01
3.608125e-10,1.746719e-01
3.648125e-10,1.707500e-01
3.688125e-10,1.653281e-01
3.728125e-10,1.618906e-01
3.768125e-10,1.570156e-01
3.808125e-10,1.538594e-01
3.848125e-10,1.494063e-01
3.888125e-10,1.452188e-01
3.928125e-10,1.406250e-01
3.968125e-10,1.369844e-01
4.008125e-10,1.328750e-01
4.048125e-10,1.290313e-01
4.088125e-10,1.255000e-01
4.128125e-10,1.220938e-01
4.168125e-10,1.181563e-01
4.208125e-10,1.142344e-01
4.248125e-10,1.107188e-01
4.288125e-10,1.076406e-01
4.328125e-10,1.039219e-01
4.368125e-10,1.011094e-01
4.408125e-10,9.803125e-02
4.448125e-10,9.525000e-02
4.488125e-10,9.106250e-02
4.528125e-10,8.895313e-02
4.568125e-10,8.545313e-02
4.608125e-10,8.368750e-02
4.648125e-10,8.076563e-02
4.688125e-10,7.804688e-02
4.728125e-10,7.500000e-02
4.768125e-10,7.296875e-02
4.808125e-10,7.045313e-02
4.848125e-10,6.828125e-02
4.888125e-10,6.640625e-02
4.928125e-10,6.468750e-02
4.968125e-10,6.254688e-02
5.008125e-10,6.040625e-02
5.048125e-10,5.865625e-02
5.088125e-10,5.735938e-02
5.128125e-10,5.542188e-02
5.168125e-10,5.435938e-02
5.208125e-10,5.310938e-02
5.248125e-10,5.204688e-02
5.288125e-10,4.965625e-02
5.328125e-10,4.928125e-02
5.368125e-10,4.751563e-02
5.408125e-10,4.748438e-02
5.448125e-10,4.628125e-02
5.488125e-10,4.515625e-02
5.528125e-10,4.375000e-02
5.568125e-10,4.329688e-02
5.608125e-10,4.221875e-02
5.648125e-10,4.151563e-02
5.688125e-10,4.104688e-02
5.728125e-10,4.067188e-02
5.768125e-10,3.987500e-02
5.808125e-10,3.895313e-02
5.848125e-10,3.840625e-02
5.888125e-10,3.820313e-02
5.928125e-10,3.729688e-02
5.968125e-10,3.718750e-02
6.008125e-10,3.685938e-02
6.048125e-10,3.654688e-02
6.088125e-10,3.492188e-02
6.128125e-10,3.515625e-02
6.168125e-10,3.401563e-02
6.208125e-10,3.453125e-02
6.248125e-10,3.382813e-02
6.288125e-10,3.303125e-02
6.328125e-10,3.192188e-02
6.368125e-10,3.175000e-02
6.408125e-10,3.079688e-02
6.448125e-10,3.015625e-02
6.488125e-10,2.978125e-02
6.528125e-10,2.942188e-02
6.568125e-10,2.862500e-02
6.608125e-10,2.756250e-02
6.648125e-10,2.696875e-02
6.688125e-10,2.656250e-02
6.728125e-10,2.548438e-02
6.768125e-10,2.520313e-02
6.808125e-10,2.468750e-02
6.848125e-10,2.406250e-02
6.888125e-10,2.223438e-02
6.928125e-10,2.217188e-02
6.968125e-10,2.081250e-02
7.008125e-10,2.112500e-02
7.048125e-10,2.020313e-02
7.088125e-10,1.921875e-02
7.128125e-10,1.787500e-02
7.168125e-10,1.760938e-02
7.208125e-10,1.645313e-02
7.248125e-10,1.567188e-02
7.288125e-10,1.529688e-02
7.328125e-10,1.489063e-02
7.368125e-10,1.414063e-02
7.408125e-10,1.310938e-02
7.448125e-10,1.262500e-02
7.488125e-10,1.235938e-02
7.528125e-10,1.146875e-02
7.568125e-10,1.146875e-02
7.608125e-10,1.128125e-02
7.648125e-10,1.090625e-02
7.688125e-10,9.500000e-03
7.728125e-10,9.796875e-03
7.768125e-10,8.875000e-03
7.808125e-10,9.734375e-03
7.848125e-10,9.343750e-03
7.888125e-10,8.968750e-03
7.928125e-10,8.187500e-03
7.968125e-10,8.515625e-03
8.008125e-10,7.984375e-03
8.048125e-10,7.859375e-03
8.088125e-10,8.187500e-03
8.128125e-10,8.390625e-03
8.168125e-10,8.343750e-03
8.208125e-10,7.968750e-03
8.248125e-10,8.109375e-03
8.288125e-10,8.562500e-03
8.328125e-10,8.343750e-03
8.368125e-10,9.000000e-03
8.408125e-10,9.421875e-03
8.448125e-10,9.609375e-03
8.488125e-10,8.781250e-03
8.528125e-10,9.562500e-03
8.568125e-10,9.078125e-03
8.608125e-10,1.043750e-02
8.648125e-10,1.048438e-02
8.688125e-10,1.048438e-02
8.728125e-10,1.003125e-02
8.768125e-10,1.059375e-02
8.808125e-10,1.032813e-02
8.848125e-10,1.042188e-02
8.888125e-10,1.093750e-02
8.928125e-10,1.114063e-02
8.968125e-10,1.115625e-02
9.008125e-10,1.079688e-02
9.048125e-10,1.082813e-02
9.088125e-10,1.126563e-02
9.128125e-10,1.095313e-02
9.168125e-10,1.148438e-02
9.208125e-10,1.165625e-02
9.248125e-10,1.164063e-02
9.288125e-10,1.059375e-02
9.328125e-10,1.110938e-02
9.368125e-10,1.026563e-02
9.408125e-10,1.135938e-02
9.448125e-10,1.106250e-02
9.488125e-10,1.073438e-02
9.528125e-10,9.968750e-03
9.568125e-10,1.014063e-02
9.608125e-10,9.562500e-03
9.648125e-10,9.359375e-03
9.688125e-10,9.578125e-03
9.728125e-10,9.375000e-03
9.768125e-10,9.093750e-03
9.808125e-10,8.468750e-03
9.848125e-10,8.187500e-03
9.888125e-10,8.437500e-03
9.928125e-10,7.921875e-03
9.968125e-10,8.234375e-03
1.000812e-09,8.218750e-03
1.004812e-09,8.093750e-03
1.008812e-09,6.968750e-03
1.012812e-09,7.468750e-03
1.016812e-09,6.531250e-03
1.020812e-09,7.609375e-03
1.024813e-09,7.343750e-03
1.028813e-09,7.046875e-03
1.032813e-09,6.390625e-03
1.036813e-09,6.687500e-03
1.040813e-09,6.265625e-03
1.044813e-09,6.265625e-03
1.048812e-09,6.687500e-03
1.052812e-09,6.687500e-03
1.056812e-09,6.609375e-03
1.060812e-09,6.265625e-03
1.064812e-09,6.234375e-03
1.068812e-09,6.750000e-03
1.072812e-09,6.515625e-03
1.076812e-09,7.125000e-03
1.080812e-09,7.406250e-03
1.084813e-09,7.593750e-03
1.088813e-09,6.765625e-03
1.092813e-09,7.593750e-03
1.096813e-09,6.937500e-03
1.100813e-09,8.250000e-03
1.104813e-09,8.218750e-03
1.108812e-09,8.156250e-03
1.112812e-09,7.718750e-03
1.116812e-09,8.250000e-03
1.120812e-09,8.000000e-03
1.124812e-09,8.156250e-03
1.128812e-09,8.703125e-03
1.132812e-09,8.875000e-03
1.136812e-09,8.843750e-03
1.140812e-09,8.562500e-03
1.144813e-09,8.578125e-03
1.148813e-09,9.093750e-03
1.152813e-09,8.812500e-03
1.156813e-09,9.390625e-03
1.160813e-09,9.625000e-03
1.164813e-09,9.765625e-03
1.168812e-09,8.796875e-03
1.172812e-09,9.562500e-03
1.176812e-09,8.750000e-03
1.180812e-09,9.906250e-03
1.184812e-09,9.687500e-03
1.188812e-09,9.453125e-03
1.192812e-09,8.812500e-03
1.196812e-09,9.156250e-03
1.200812e-09,8.703125e-03
1.204813e-09,8.640625e-03
1.208813e-09,8.984375e-03
1.212813e-09,9.015625e-03
1.216813e-09,8.750000e-03
1.220813e-09,8.281250e-03
1.224813e-09,8.125000e-03
1.228812e-09,8.468750e-03
1.232812e-09,8.000000e-03
1.236812e-09,8.468750e-03
1.240812e-09,8.578125e-03
1.244812e-09,8.640625e-03
1.248812e-09,7.531250e-03
1.252812e-09,8.234375e-03
1.256812e-09,7.375000e-03
1.260812e-09,8.500000e-03
1.264813e-09,8.265625e-03
1.268813e-09,8.031250e-03
1.272813e-09,7.406250e-03
1.276813e-09,7.796875e-03
1.280813e-09,7.406250e-03
1.284813e-09,7.421875e-03
1.288812e-09,7.859375e-03
1.292812e-09,8.046875e-03
1.296812e-09,7.906250e-03
1.300812e-09,7.562500e-03
1.304812e-09,7.593750e-03
1.308812e-09,8.093750e-03
1.312812e-09,7.781250e-03
1.316812e-09,8.453125e-03
1.320812e-09,8.765625e-03
1.324813e-09,9.031250e-03
1.328813e-09,8.046875e-03
1.332813e-09,8.953125e-03
1.336813e-09,8.281250e-03
1.340813e-09,9.593750e-03
1.344813e-09,9.531250e-03
1.348812e-09,9.453125e-03
1.352812e-09,9.000000e-03
1.356812e-09,9.515625e-03
1.360812e-09,9.250000e-03
1.364812e-09,9.375000e-03
1.368812e-09,9.906250e-03
1.372812e-09,1.020313e-02
1.376812e-09,1.012500e-02
1.380812e-09,9.828125e-03
1.384813e-09,9.906250e-03
1.388813e-09,1.039063e-02
1.392813e-09,1.007813e-02
1.396813e-09,1.073438e-02
1.400813e-09,1.100000e-02
1.404813e-09,1.123438e-02
1.408812e-09,1.010938e-02
1.412812e-09,1.093750e-02
1.416812e-09,1.015625e-02
1.420812e-09,1.135938e-02
1.424812e-09,1.115625e-02
1.428812e-09,1.093750e-02
1.432812e-09,1.031250e-02
1.436812e-09,1.068750e-02
1.440812e-09,1.023438e-02
1.444813e-09,1.018750e-02
1.448813e-09,1.053125e-02
1.452813e-09,1.065625e-02
1.456813e-09,1.039063e-02
1.460813e-09,9.906250e-03
1.464813e-09,9.812500e-03
1.468812e-09,1.014063e-02
1.472812e-09,9.656250e-03
1.476812e-09,1.015625e-02
1.480812e-09,1.025000e-02
1.484812e-09,1.035938e-02
1.488812e-09,9.078125e-03
1.492812e-09,9.781250e-03
1.496812e-09,8.875000e-03
1.500812e-09,1.000000e-02
1.504813e-09,9.703125e-03
1.508813e-09,9.406250e-03
1.512813e-09,8.718750e-03
1.516813e-09,9.031250e-03
1.520813e-09,8.562500e-03
1.524813e-09,8.484375e-03
1.528812e-09,8.812500e-03
1.532812e-09,8.953125e-03
1.536812e-09,8.687500e-03
1.540812e-09,8.218750e-03
1.544812e-09,8.171875e-03
1.548812e-09,8.531250e-03
1.552812e-09,8.078125e-03
1.556812e-09,8.640625e-03
1.560812e-09,8.796875e-03
1.564813e-09,8.968750e-03
1.568813e-09,7.734375e-03
1.572813e-09,8.515625e-03
1.576813e-09,7.671875e-03
1.580813e-09,8.859375e-03
1.584813e-09,8.625000e-03
1.588812e-09,8.390625e-03
1.592812e-09,7.765625e-03
1.596812e-09,8.140625e-03
1.600812e-09,7.703125e-03
1.604812e-09,7.671875e-03
1.608812e-09,8.031250e-03
1.612812e-09,8.203125e-03
1.616812e-09,7.953125e-03
1.620812e-09,7.515625e-03
1.624813e-09,7.468750e-03
1.628813e-09,7.812500e-03
1.632813e-09,7.343750e-03
1.636813e-09,7.890625e-03
1.640813e-09,8.031250e-03
1.644813e-09,8.156250e-03
1.648812e-09,6.890625e-03
1.652812e-09,7.609375e-03
1.656812e-09,6.718750e-03
1.660812e-09,7.843750e-03
1.664812e-09,7.562500e-03
1.668812e-09,7.265625e-03
1.672812e-09,6.562500e-03
1.676812e-09,6.875000e-03
1.680812e-09,6.375000e-03
1.684813e-09,6.265625e-03
1.688813e-09,6.578125e-03
1.692813e-09,6.687500e-03
1.696813e-09,6.375000e-03
1.700813e-09,5.875000e-03
1.704813e-09,5.781250e-03
1.708812e-09,6.093750e-03
1.712812e-09,5.609375e-03
1.716812e-09,6.125000e-03
1.720812e-09,6.250000e-03
1.724812e-09,6.375000e-03
1.728812e-09,5.093750e-03
1.732812e-09,5.843750e-03
1.736812e-09,4.968750e-03
1.740812e-09,6.125000e-03
1.744812e-09,5.890625e-03
1.748813e-09,5.640625e-03
1.752813e-09,5.000000e-03
1.756813e-09,5.375000e-03
