Measurements-streak-laser/Photodiode-on-Tek-12bit-4GHz/Tek000_ch1_20190613132936804.csv

Model,MSO64
Waveform Type,ANALOG
Horizontal Units,s
Sample Interval,4.000000e-12
Record Length,1000
Zero Index,310.156250
Vertical Units,V

TIME,CH1
-1.240625e-09,2.484375e-03
-1.236625e-09,2.796875e-03
-1.232625e-09,2.328125e-03
-1.228625e-09,2.296875e-03
-1.224625e-09,2.703125e-03
-1.220625e-09,2.937500e-03
-1.216625e-09,2.796875e-03
-1.212625e-09,2.468750e-03
-1.208625e-09,2.593750e-03
-1.204625e-09,3.140625e-03
-1.200625e-09,2.906250e-03
-1.196625e-09,3.687500e-03
-1.192625e-09,4.109375e-03
-1.188625e-09,4.546875e-03
-1.184625e-09,3.578125e-03
-1.180625e-09,4.640625e-03
-1.176625e-09,4.109375e-03
-1.172625e-09,5.609375e-03
-1.168625e-09,5.687500e-03
-1.164625e-09,5.781250e-03
-1.160625e-09,5.468750e-03
-1.156625e-09,6.171875e-03
-1.152625e-09,6.062500e-03
-1.148625e-09,6.343750e-03
-1.144625e-09,7.015625e-03
-1.140625e-09,7.484375e-03
-1.136625e-09,7.531250e-03
-1.132625e-09,7.359375e-03
-1.128625e-09,7.578125e-03
-1.124625e-09,8.171875e-03
-1.120625e-09,7.953125e-03
-1.116625e-09,8.703125e-03
-1.112625e-09,9.031250e-03
-1.108625e-09,9.343750e-03
-1.104625e-09,8.203125e-03
-1.100625e-09,9.062500e-03
-1.096625e-09,8.265625e-03
-1.092625e-09,9.468750e-03
-1.088625e-09,9.234375e-03
-1.084625e-09,8.984375e-03
-1.080625e-09,8.281250e-03
-1.076625e-09,8.562500e-03
-1.072625e-09,8.015625e-03
-1.068625e-09,7.859375e-03
-1.064625e-09,8.078125e-03
-1.060625e-09,8.078125e-03
-1.056625e-09,7.640625e-03
-1.052625e-09,6.984375e-03
-1.048625e-09,6.734375e-03
-1.044625e-09,6.859375e-03
-1.040625e-09,6.171875e-03
-1.036625e-09,6.484375e-03
-1.032625e-09,6.375000e-03
-1.028625e-09,6.265625e-03
-1.024625e-09,4.750000e-03
-1.020625e-09,5.250000e-03
-1.016625e-09,4.125000e-03
-1.012625e-09,5.031250e-03
-1.008625e-09,4.546875e-03
-1.004625e-09,4.046875e-03
-1.000625e-09,3.171875e-03
-9.966250e-10,3.312500e-03
-9.926250e-10,2.656250e-03
-9.886250e-10,2.437500e-03
-9.846250e-10,2.625000e-03
-9.806250e-10,2.640625e-03
-9.766250e-10,2.265625e-03
-9.726250e-10,1.718750e-03
-9.686250e-10,1.593750e-03
-9.646250e-10,1.890625e-03
-9.606250e-10,1.421875e-03
-9.566250e-10,1.968750e-03
-9.526250e-10,2.140625e-03
-9.486250e-10,2.343750e-03
-9.446250e-10,1.156250e-03
-9.406250e-10,2.000000e-03
-9.366250e-10,1.265625e-03
-9.326250e-10,2.531250e-03
-9.286250e-10,2.437500e-03
-9.246250e-10,2.375000e-03
-9.206250e-10,1.906250e-03
-9.166250e-10,2.484375e-03
-9.126250e-10,2.250000e-03
-9.086250e-10,2.453125e-03
-9.046250e-10,3.062500e-03
-9.006250e-10,3.468750e-03
-8.966250e-10,3.500000e-03
-8.926250e-10,3.328125e-03
-8.886250e-10,3.562500e-03
-8.846250e-10,4.203125e-03
-8.806250e-10,4.031250e-03
-8.766250e-10,4.875000e-03
-8.726250e-10,5.312500e-03
-8.686250e-10,5.734375e-03
-8.646250e-10,4.765625e-03
-8.606250e-10,5.796875e-03
-8.566250e-10,5.187500e-03
-8.526250e-10,6.515625e-03
-8.486250e-10,6.531250e-03
-8.446250e-10,6.484375e-03
-8.406250e-10,6.062500e-03
-8.366250e-10,6.593750e-03
-8.326250e-10,6.312500e-03
-8.286250e-10,6.437500e-03
-8.246250e-10,6.937500e-03
-8.206250e-10,7.203125e-03
-8.166250e-10,7.093750e-03
-8.126250e-10,6.718750e-03
-8.086250e-10,6.734375e-03
-8.046250e-10,7.140625e-03
-8.006250e-10,6.718750e-03
-7.966250e-10,7.296875e-03
-7.926250e-10,7.453125e-03
-7.886250e-10,7.578125e-03
-7.846250e-10,6.343750e-03
-7.806250e-10,7.062500e-03
-7.766250e-10,6.156250e-03
-7.726250e-10,7.125000e-03
-7.686250e-10,6.843750e-03
-7.646250e-10,6.515625e-03
-7.606250e-10,5.812500e-03
-7.566250e-10,6.046875e-03
-7.526250e-10,5.453125e-03
-7.486250e-10,5.343750e-03
-7.446250e-10,5.562500e-03
-7.406250e-10,5.578125e-03
-7.366250e-10,5.281250e-03
-7.326250e-10,4.687500e-03
-7.286250e-10,4.500000e-03
-7.246250e-10,4.718750e-03
-7.206250e-10,4.140625e-03
-7.166250e-10,4.562500e-03
-7.126250e-10,4.609375e-03
-7.086250e-10,4.625000e-03
-7.046250e-10,3.296875e-03
-7.006250e-10,3.953125e-03
-6.966250e-10,3.046875e-03
-6.926250e-10,3.953125e-03
-6.886250e-10,3.687500e-03
-6.846250e-10,3.390625e-03
-6.806250e-10,2.718750e-03
-6.766250e-10,2.968750e-03
-6.726250e-10,2.421875e-03
-6.686250e-10,2.406250e-03
-6.646250e-10,2.703125e-03
-6.606250e-10,2.781250e-03
-6.566250e-10,2.656250e-03
-6.526250e-10,2.171875e-03
-6.486250e-10,2.093750e-03
-6.446250e-10,2.437500e-03
-6.406250e-10,2.031250e-03
-6.366250e-10,2.593750e-03
-6.326250e-10,2.781250e-03
-6.286250e-10,2.953125e-03
-6.246250e-10,1.750000e-03
-6.206250e-10,2.578125e-03
-6.166250e-10,1.875000e-03
-6.126250e-10,2.937500e-03
-6.086250e-10,2.843750e-03
-6.046250e-10,2.718750e-03
-6.006250e-10,2.218750e-03
-5.966250e-10,2.609375e-03
-5.926250e-10,2.218750e-03
-5.886250e-10,2.359375e-03
-5.846250e-10,2.828125e-03
-5.806250e-10,3.031250e-03
-5.766250e-10,3.078125e-03
-5.726250e-10,2.734375e-03
-5.686250e-10,2.812500e-03
-5.646250e-10,3.296875e-03
-5.606250e-10,3.046875e-03
-5.566250e-10,3.750000e-03
-5.526250e-10,4.046875e-03
-5.486250e-10,4.328125e-03
-5.446250e-10,3.234375e-03
-5.406250e-10,4.156250e-03
-5.366250e-10,3.593750e-03
-5.326250e-10,4.750000e-03
-5.286250e-10,4.796875e-03
-5.246250e-10,4.734375e-03
-5.206250e-10,4.296875e-03
-5.166250e-10,4.781250e-03
-5.126250e-10,4.468750e-03
-5.086250e-10,4.640625e-03
-5.046250e-10,5.187500e-03
-5.006250e-10,5.421875e-03
-4.966250e-10,5.453125e-03
-4.926250e-10,5.140625e-03
-4.886250e-10,5.265625e-03
-4.846250e-10,5.781250e-03
-4.806250e-10,5.484375e-03
-4.766250e-10,6.203125e-03
-4.726250e-10,6.468750e-03
-4.686250e-10,6.703125e-03
-4.646250e-10,5.562500e-03
-4.606250e-10,6.375000e-03
-4.566250e-10,5.765625e-03
-4.526250e-10,6.843750e-03
-4.486250e-10,6.828125e-03
-4.446250e-10,6.625000e-03
-4.406250e-10,6.062500e-03
-4.366250e-10,6.421875e-03
-4.326250e-10,6.031250e-03
-4.286250e-10,6.015625e-03
-4.246250e-10,6.421875e-03
-4.206250e-10,6.500000e-03
-4.166250e-10,6.312500e-03
-4.126250e-10,5.859375e-03
-4.086250e-10,5.843750e-03
-4.046250e-10,6.218750e-03
-4.006250e-10,5.718750e-03
-3.966250e-10,6.265625e-03
-3.926250e-10,6.375000e-03
-3.886250e-10,6.453125e-03
-3.846250e-10,5.171875e-03
-3.806250e-10,5.781250e-03
-3.766250e-10,5.031250e-03
-3.726250e-10,6.000000e-03
-3.686250e-10,5.843750e-03
-3.646250e-10,5.500000e-03
-3.606250e-10,4.890625e-03
-3.566250e-10,5.171875e-03
-3.526250e-10,4.765625e-03
-3.486250e-10,4.640625e-03
-3.446250e-10,5.031250e-03
-3.406250e-10,5.109375e-03
-3.366250e-10,4.875000e-03
-3.326250e-10,4.484375e-03
-3.286250e-10,4.546875e-03
-3.246250e-10,4.984375e-03
-3.206250e-10,4.578125e-03
-3.166250e-10,5.218750e-03
-3.126250e-10,5.484375e-03
-3.086250e-10,5.703125e-03
-3.046250e-10,4.625000e-03
-3.006250e-10,5.406250e-03
-2.966250e-10,4.812500e-03
-2.926250e-10,6.000000e-03
-2.886250e-10,6.046875e-03
-2.846250e-10,5.953125e-03
-2.806250e-10,5.593750e-03
-2.766250e-10,6.125000e-03
-2.726250e-10,5.953125e-03
-2.686250e-10,6.078125e-03
-2.646250e-10,6.671875e-03
-2.606250e-10,6.984375e-03
-2.566250e-10,6.953125e-03
-2.526250e-10,6.812500e-03
-2.486250e-10,7.031250e-03
-2.446250e-10,7.625000e-03
-2.406250e-10,7.390625e-03
-2.366250e-10,8.140625e-03
-2.326250e-10,8.531250e-03
-2.286250e-10,8.828125e-03
-2.246250e-10,7.843750e-03
-2.206250e-10,8.640625e-03
-2.166250e-10,8.000000e-03
-2.126250e-10,9.187500e-03
-2.086250e-10,9.109375e-03
-2.046250e-10,8.921875e-03
-2.006250e-10,8.468750e-03
-1.966250e-10,8.828125e-03
-1.926250e-10,8.437500e-03
-1.886250e-10,8.359375e-03
-1.846250e-10,8.656250e-03
-1.806250e-10,8.703125e-03
-1.766250e-10,8.359375e-03
-1.726250e-10,7.937500e-03
-1.686250e-10,7.796875e-03
-1.646250e-10,8.000000e-03
-1.606250e-10,7.421875e-03
-1.566250e-10,7.796875e-03
-1.526250e-10,7.828125e-03
-1.486250e-10,7.796875e-03
-1.446250e-10,6.500000e-03
-1.406250e-10,6.984375e-03
-1.366250e-10,6.031250e-03
-1.326250e-10,7.000000e-03
-1.286250e-10,6.656250e-03
-1.246250e-10,6.328125e-03
-1.206250e-10,5.750000e-03
-1.166250e-10,6.078125e-03
-1.126250e-10,5.687500e-03
-1.086250e-10,5.718750e-03
-1.046250e-10,6.171875e-03
-1.006250e-10,6.484375e-03
-9.662500e-11,6.468750e-03
-9.262500e-11,6.500000e-03
-8.862500e-11,6.875000e-03
-8.462500e-11,7.671875e-03
-8.062500e-11,7.859375e-03
-7.662500e-11,9.125000e-03
-7.262500e-11,1.009375e-02
-6.862500e-11,1.121875e-02
-6.462500e-11,1.117188e-02
-6.062500e-11,1.300000e-02
-5.662500e-11,1.348438e-02
-5.262500e-11,1.607813e-02
-4.862500e-11,1.740625e-02
-4.462500e-11,1.892188e-02
-4.062500e-11,2.028125e-02
-3.662500e-11,2.267188e-02
-3.262500e-11,2.445313e-02
-2.862500e-11,2.675000e-02
-2.462500e-11,2.956250e-02
-2.062500e-11,3.237500e-02
-1.662500e-11,3.487500e-02
-1.262500e-11,3.750000e-02
-8.625000e-12,4.054688e-02
-4.625000e-12,4.403125e-02
-6.250000e-13,4.698438e-02
3.375000e-12,5.106250e-02
7.375000e-12,5.485938e-02
1.137500e-11,5.885938e-02
1.537500e-11,6.167188e-02
1.937500e-11,6.634375e-02
2.337500e-11,6.960938e-02
2.737500e-11,7.498438e-02
3.137500e-11,7.898438e-02
3.537500e-11,8.321875e-02
3.937500e-11,8.714063e-02
4.337500e-11,9.200000e-02
4.737500e-11,9.620313e-02
5.137500e-11,1.007656e-01
5.537500e-11,1.057656e-01
5.937500e-11,1.106875e-01
6.337500e-11,1.150313e-01
6.737500e-11,1.194063e-01
7.137500e-11,1.240313e-01
7.537500e-11,1.289063e-01
7.937500e-11,1.331406e-01
8.337500e-11,1.382500e-01
8.737500e-11,1.428750e-01
9.137500e-11,1.475781e-01
9.537500e-11,1.508281e-01
9.937500e-11,1.557813e-01
1.033750e-10,1.591094e-01
1.073750e-10,1.642969e-01
1.113750e-10,1.678906e-01
1.153750e-10,1.715781e-01
1.193750e-10,1.747031e-01
1.233750e-10,1.785156e-01
1.273750e-10,1.815313e-01
1.313750e-10,1.846875e-01
1.353750e-10,1.880781e-01
1.393750e-10,1.912500e-01
1.433750e-10,1.935938e-01
1.473750e-10,1.957813e-01
1.513750e-10,1.980781e-01
1.553750e-10,2.004844e-01
1.593750e-10,2.021094e-01
1.633750e-10,2.044375e-01
1.673750e-10,2.060938e-01
1.713750e-10,2.077813e-01
1.753750e-10,2.078438e-01
1.793750e-10,2.095625e-01
1.833750e-10,2.095625e-01
1.873750e-10,2.112969e-01
1.913750e-10,2.113906e-01
1.953750e-10,2.115156e-01
1.993750e-10,2.110156e-01
2.033750e-10,2.111875e-01
2.073750e-10,2.105625e-01
2.113750e-10,2.100625e-01
2.153750e-10,2.097500e-01
2.193750e-10,2.092813e-01
2.233750e-10,2.079688e-01
2.273750e-10,2.065000e-01
2.313750e-10,2.052500e-01
2.353750e-10,2.041406e-01
2.393750e-10,2.022969e-01
2.433750e-10,2.011719e-01
2.473750e-10,1.994688e-01
2.513750e-10,1.978906e-01
2.553750e-10,1.947344e-01
2.593750e-10,1.933750e-01
2.633750e-10,1.904063e-01
2.673750e-10,1.891875e-01
2.713750e-10,1.864688e-01
2.753750e-10,1.838594e-01
2.793750e-10,1.807344e-01
2.833750e-10,1.784375e-01
2.873750e-10,1.754688e-01
2.913750e-10,1.727188e-01
2.953750e-10,1.702344e-01
2.993750e-10,1.677031e-01
3.033750e-10,1.644844e-01
3.073750e-10,1.612031e-01
3.113750e-10,1.582500e-01
3.153750e-10,1.555781e-01
3.193750e-10,1.522188e-01
3.233750e-10,1.497188e-01
3.273750e-10,1.467656e-01
3.313750e-10,1.440156e-01
3.353750e-10,1.397813e-01
3.393750e-10,1.375000e-01
3.433750e-10,1.337031e-01
3.473750e-10,1.317031e-01
3.513750e-10,1.283438e-01
3.553750e-10,1.251563e-01
3.593750e-10,1.215313e-01
3.633750e-10,1.188594e-01
3.673750e-10,1.156094e-01
3.713750e-10,1.126563e-01
3.753750e-10,1.100000e-01
3.793750e-10,1.073906e-01
3.833750e-10,1.042344e-01
3.873750e-10,1.010313e-01
3.913750e-10,9.821875e-02
3.953750e-10,9.581250e-02
3.993750e-10,9.271875e-02
4.033750e-10,9.056250e-02
4.073750e-10,8.806250e-02
4.113750e-10,8.578125e-02
4.153750e-10,8.207813e-02
4.193750e-10,8.042188e-02
4.233750e-10,7.731250e-02
4.273750e-10,7.601563e-02
4.313750e-10,7.346875e-02
4.353750e-10,7.109375e-02
4.393750e-10,6.834375e-02
4.433750e-10,6.659375e-02
4.473750e-10,6.429688e-02
4.513750e-10,6.234375e-02
4.553750e-10,6.073438e-02
4.593750e-10,5.917188e-02
4.633750e-10,5.718750e-02
4.673750e-10,5.514063e-02
4.713750e-10,5.350000e-02
4.753750e-10,5.231250e-02
4.793750e-10,5.045313e-02
4.833750e-10,4.950000e-02
4.873750e-10,4.828125e-02
4.913750e-10,4.725000e-02
4.953750e-10,4.482813e-02
4.993750e-10,4.446875e-02
5.033750e-10,4.264063e-02
5.073750e-10,4.262500e-02
5.113750e-10,4.140625e-02
5.153750e-10,4.025000e-02
5.193750e-10,3.878125e-02
5.233750e-10,3.826563e-02
5.273750e-10,3.714063e-02
5.313750e-10,3.635938e-02
5.353750e-10,3.589063e-02
5.393750e-10,3.543750e-02
5.433750e-10,3.456250e-02
5.473750e-10,3.356250e-02
5.513750e-10,3.295313e-02
5.553750e-10,3.270313e-02
5.593750e-10,3.173438e-02
5.633750e-10,3.162500e-02
5.673750e-10,3.125000e-02
5.713750e-10,3.090625e-02
5.753750e-10,2.921875e-02
5.793750e-10,2.945313e-02
5.833750e-10,2.823438e-02
5.873750e-10,2.876563e-02
5.913750e-10,2.804688e-02
5.953750e-10,2.725000e-02
5.993750e-10,2.614063e-02
6.033750e-10,2.596875e-02
6.073750e-10,2.503125e-02
6.113750e-10,2.443750e-02
6.153750e-10,2.412500e-02
6.193750e-10,2.376563e-02
6.233750e-10,2.298438e-02
6.273750e-10,2.198438e-02
6.313750e-10,2.140625e-02
6.353750e-10,2.109375e-02
6.393750e-10,2.004688e-02
6.433750e-10,1.987500e-02
6.473750e-10,1.940625e-02
6.513750e-10,1.889063e-02
6.553750e-10,1.707813e-02
6.593750e-10,1.712500e-02
6.633750e-10,1.578125e-02
6.673750e-10,1.620313e-02
6.713750e-10,1.534375e-02
6.753750e-10,1.443750e-02
6.793750e-10,1.318750e-02
6.833750e-10,1.296875e-02
6.873750e-10,1.192188e-02
6.913750e-10,1.125000e-02
6.953750e-10,1.095313e-02
6.993750e-10,1.062500e-02
7.033750e-10,9.921875e-03
7.073750e-10,8.968750e-03
7.113750e-10,8.546875e-03
7.153750e-10,8.390625e-03
7.193750e-10,7.562500e-03
7.233750e-10,7.656250e-03
7.273750e-10,7.531250e-03
7.313750e-10,7.281250e-03
7.353750e-10,5.890625e-03
7.393750e-10,6.328125e-03
7.433750e-10,5.437500e-03
7.473750e-10,6.375000e-03
7.513750e-10,6.046875e-03
7.553750e-10,5.734375e-03
7.593750e-10,5.046875e-03
7.633750e-10,5.453125e-03
7.673750e-10,5.015625e-03
7.713750e-10,5.000000e-03
7.753750e-10,5.421875e-03
7.793750e-10,5.734375e-03
7.833750e-10,5.734375e-03
7.873750e-10,5.468750e-03
7.913750e-10,5.703125e-03
7.953750e-10,6.265625e-03
7.993750e-10,6.125000e-03
8.033750e-10,6.921875e-03
8.073750e-10,7.437500e-03
8.113750e-10,7.781250e-03
8.153750e-10,7.000000e-03
8.193750e-10,7.968750e-03
8.233750e-10,7.562500e-03
8.273750e-10,9.046875e-03
8.313750e-10,9.187500e-03
8.353750e-10,9.296875e-03
8.393750e-10,8.968750e-03
8.433750e-10,9.656250e-03
8.473750e-10,9.500000e-03
8.513750e-10,9.718750e-03
8.553750e-10,1.034375e-02
8.593750e-10,1.070313e-02
8.633750e-10,1.078125e-02
8.673750e-10,1.053125e-02
8.713750e-10,1.068750e-02
8.753750e-10,1.121875e-02
8.793750e-10,1.096875e-02
8.833750e-10,1.159375e-02
8.873750e-10,1.185938e-02
8.913750e-10,1.195313e-02
8.953750e-10,1.090625e-02
8.993750e-10,1.153125e-02
9.033750e-10,1.073438e-02
9.073750e-10,1.187500e-02
9.113750e-10,1.160938e-02
9.153750e-10,1.129688e-02
9.193750e-10,1.054688e-02
9.233750e-10,1.075000e-02
9.273750e-10,1.017188e-02
9.313750e-10,9.968750e-03
9.353750e-10,1.017188e-02
9.393750e-10,1.003125e-02
9.433750e-10,9.687500e-03
9.473750e-10,9.046875e-03
9.513750e-10,8.750000e-03
9.553750e-10,8.953125e-03
9.593750e-10,8.375000e-03
9.633750e-10,8.671875e-03
9.673750e-10,8.625000e-03
9.713750e-10,8.500000e-03
9.753750e-10,7.265625e-03
9.793750e-10,7.734375e-03
9.833750e-10,6.765625e-03
9.873750e-10,7.812500e-03
9.913750e-10,7.500000e-03
9.953750e-10,7.171875e-03
9.993750e-10,6.484375e-03
1.003375e-09,6.765625e-03
1.007375e-09,6.328125e-03
1.011375e-09,6.312500e-03
1.015375e-09,6.734375e-03
1.019375e-09,6.812500e-03
1.023375e-09,6.718750e-03
1.027375e-09,6.406250e-03
1.031375e-09,6.437500e-03
1.035375e-09,7.015625e-03
1.039375e-09,6.828125e-03
1.043375e-09,7.546875e-03
1.047375e-09,7.937500e-03
1.051375e-09,8.265625e-03
1.055375e-09,7.500000e-03
1.059375e-09,8.484375e-03
1.063375e-09,7.968750e-03
1.067375e-09,9.453125e-03
1.071375e-09,9.593750e-03
1.075375e-09,9.734375e-03
1.079375e-09,9.484375e-03
1.083375e-09,1.021875e-02
1.087375e-09,1.018750e-02
1.091375e-09,1.056250e-02
1.095375e-09,1.134375e-02
1.099375e-09,1.178125e-02
1.103375e-09,1.198438e-02
1.107375e-09,1.195313e-02
1.111375e-09,1.221875e-02
1.115375e-09,1.298438e-02
1.119375e-09,1.295313e-02
1.123375e-09,1.379688e-02
1.127375e-09,1.428125e-02
1.131375e-09,1.467188e-02
1.135375e-09,1.389063e-02
1.139375e-09,1.489063e-02
1.143375e-09,1.429688e-02
1.147375e-09,1.565625e-02
1.151375e-09,1.562500e-02
1.155375e-09,1.556250e-02
1.159375e-09,1.507813e-02
1.163375e-09,1.556250e-02
1.167375e-09,1.523438e-02
1.171375e-09,1.526563e-02
1.175375e-09,1.568750e-02
1.179375e-09,1.579688e-02
1.183375e-09,1.557813e-02
1.187375e-09,1.510938e-02
1.191375e-09,1.496875e-02
1.195375e-09,1.526563e-02
1.199375e-09,1.475000e-02
1.203375e-09,1.514063e-02
1.207375e-09,1.514063e-02
1.211375e-09,1.507813e-02
1.215375e-09,1.378125e-02
1.219375e-09,1.432813e-02
1.223375e-09,1.326563e-02
1.227375e-09,1.417188e-02
1.231375e-09,1.370313e-02
1.235375e-09,1.320313e-02
1.239375e-09,1.231250e-02
1.243375e-09,1.240625e-02
1.247375e-09,1.170313e-02
1.251375e-09,1.140625e-02
1.255375e-09,1.150000e-02
1.259375e-09,1.134375e-02
1.263375e-09,1.084375e-02
1.267375e-09,1.014063e-02
1.271375e-09,9.812500e-03
1.275375e-09,9.937500e-03
1.279375e-09,9.265625e-03
1.283375e-09,9.578125e-03
1.287375e-09,9.500000e-03
1.291375e-09,9.437500e-03
1.295375e-09,8.078125e-03
1.299375e-09,8.656250e-03
1.303375e-09,7.640625e-03
1.307375e-09,8.640625e-03
1.311375e-09,8.265625e-03
1.315375e-09,7.906250e-03
1.319375e-09,7.171875e-03
1.323375e-09,7.437500e-03
1.327375e-09,6.953125e-03
1.331375e-09,6.875000e-03
1.335375e-09,7.218750e-03
1.339375e-09,7.343750e-03
1.343375e-09,7.125000e-03
1.347375e-09,6.703125e-03
1.351375e-09,6.703125e-03
1.355375e-09,7.125000e-03
1.359375e-09,6.781250e-03
1.363375e-09,7.421875e-03
1.367375e-09,7.687500e-03
1.371375e-09,7.968750e-03
1.375375e-09,6.906250e-03
1.379375e-09,7.812500e-03
1.383375e-09,7.125000e-03
1.387375e-09,8.468750e-03
1.391375e-09,8.406250e-03
1.395375e-09,8.359375e-03
1.399375e-09,7.921875e-03
1.403375e-09,8.484375e-03
1.407375e-09,8.265625e-03
1.411375e-09,8.437500e-03
1.415375e-09,9.031250e-03
1.419375e-09,9.406250e-03
1.423375e-09,9.406250e-03
1.427375e-09,9.187500e-03
1.431375e-09,9.359375e-03
1.435375e-09,9.953125e-03
1.439375e-09,9.734375e-03
1.443375e-09,1.050000e-02
1.447375e-09,1.087500e-02
1.451375e-09,1.125000e-02
1.455375e-09,1.021875e-02
1.459375e-09,1.117188e-02
1.463375e-09,1.051563e-02
1.467375e-09,1.184375e-02
1.471375e-09,1.176563e-02
1.475375e-09,1.168750e-02
1.479375e-09,1.118750e-02
1.483375e-09,1.167188e-02
1.487375e-09,1.134375e-02
1.491375e-09,1.140625e-02
1.495375e-09,1.185938e-02
1.499375e-09,1.209375e-02
1.503375e-09,1.190625e-02
1.507375e-09,1.151563e-02
1.511375e-09,1.148438e-02
1.515375e-09,1.185938e-02
1.519375e-09,1.142188e-02
1.523375e-09,1.195313e-02
1.527375e-09,1.207813e-02
1.531375e-09,1.218750e-02
1.535375e-09,1.087500e-02
1.539375e-09,1.156250e-02
1.543375e-09,1.060938e-02
1.547375e-09,1.165625e-02
1.551375e-09,1.129688e-02
1.555375e-09,1.090625e-02
1.559375e-09,1.010938e-02
1.563375e-09,1.029688e-02
1.567375e-09,9.671875e-03
1.571375e-09,9.437500e-03
1.575375e-09,9.593750e-03
1.579375e-09,9.546875e-03
1.583375e-09,9.078125e-03
1.587375e-09,8.406250e-03
1.591375e-09,8.125000e-03
1.595375e-09,8.250000e-03
1.599375e-09,7.562500e-03
1.603375e-09,7.875000e-03
1.607375e-09,7.781250e-03
1.611375e-09,7.703125e-03
1.615375e-09,6.203125e-03
1.619375e-09,6.718750e-03
1.623375e-09,5.625000e-03
1.627375e-09,6.546875e-03
1.631375e-09,6.078125e-03
1.635375e-09,5.593750e-03
1.639375e-09,4.734375e-03
1.643375e-09,4.875000e-03
1.647375e-09,4.234375e-03
1.651375e-09,4.000000e-03
1.655375e-09,4.171875e-03
1.659375e-09,4.171875e-03
1.663375e-09,3.781250e-03
1.667375e-09,3.187500e-03
1.671375e-09,3.031250e-03
1.675375e-09,3.281250e-03
1.679375e-09,2.734375e-03
1.683375e-09,3.234375e-03
1.687375e-09,3.328125e-03
1.691375e-09,3.453125e-03
1.695375e-09,2.171875e-03
1.699375e-09,2.921875e-03
1.703375e-09,2.093750e-03
1.707375e-09,3.296875e-03
1.711375e-09,3.093750e-03
1.715375e-09,2.921875e-03
1.719375e-09,2.343750e-03
1.723375e-09,2.812500e-03
1.727375e-09,2.468750e-03
1.731375e-09,2.546875e-03
1.735375e-09,3.046875e-03
1.739375e-09,3.359375e-03
1.743375e-09,3.281250e-03
1.747375e-09,3.015625e-03
1.751375e-09,3.156250e-03
1.755375e-09,3.703125e-03
1.759375e-09,3.468750e-03
