Measurements-streak-laser/Photodiode-on-Tek-12bit-4GHz/Tek000_ch1_20190613133011303.csv

Model,MSO64
Waveform Type,ANALOG
Horizontal Units,s
Sample Interval,4.000000e-12
Record Length,1000
Zero Index,310.078125
Vertical Units,V

TIME,CH1
-1.240313e-09,7.828125e-03
-1.236313e-09,7.703125e-03
-1.232313e-09,7.359375e-03
-1.228313e-09,7.437500e-03
-1.224313e-09,7.890625e-03
-1.220313e-09,7.546875e-03
-1.216312e-09,8.203125e-03
-1.212312e-09,8.453125e-03
-1.208312e-09,8.703125e-03
-1.204312e-09,7.515625e-03
-1.200312e-09,8.359375e-03
-1.196312e-09,7.578125e-03
-1.192312e-09,8.796875e-03
-1.188312e-09,8.609375e-03
-1.184312e-09,8.406250e-03
-1.180313e-09,7.796875e-03
-1.176313e-09,8.187500e-03
-1.172313e-09,7.765625e-03
-1.168313e-09,7.750000e-03
-1.164313e-09,8.125000e-03
-1.160313e-09,8.281250e-03
-1.156312e-09,8.031250e-03
-1.152312e-09,7.562500e-03
-1.148312e-09,7.500000e-03
-1.144312e-09,7.828125e-03
-1.140312e-09,7.343750e-03
-1.136312e-09,7.875000e-03
-1.132312e-09,7.968750e-03
-1.128312e-09,8.062500e-03
-1.124312e-09,6.734375e-03
-1.120313e-09,7.421875e-03
-1.116313e-09,6.484375e-03
-1.112313e-09,7.562500e-03
-1.108313e-09,7.218750e-03
-1.104313e-09,6.859375e-03
-1.100313e-09,6.093750e-03
-1.096312e-09,6.343750e-03
-1.092312e-09,5.765625e-03
-1.088312e-09,5.593750e-03
-1.084312e-09,5.828125e-03
-1.080312e-09,5.843750e-03
-1.076312e-09,5.468750e-03
-1.072312e-09,4.859375e-03
-1.068312e-09,4.687500e-03
-1.064312e-09,4.906250e-03
-1.060313e-09,4.296875e-03
-1.056313e-09,4.718750e-03
-1.052313e-09,4.734375e-03
-1.048313e-09,4.750000e-03
-1.044313e-09,3.343750e-03
-1.040313e-09,3.968750e-03
-1.036312e-09,2.968750e-03
-1.032312e-09,4.015625e-03
-1.028312e-09,3.640625e-03
-1.024312e-09,3.265625e-03
-1.020312e-09,2.484375e-03
-1.016312e-09,2.734375e-03
-1.012312e-09,2.187500e-03
-1.008312e-09,2.046875e-03
-1.004312e-09,2.312500e-03
-1.000313e-09,2.390625e-03
-9.963125e-10,2.078125e-03
-9.923125e-10,1.562500e-03
-9.883125e-10,1.453125e-03
-9.843125e-10,1.765625e-03
-9.803125e-10,1.281250e-03
-9.763125e-10,1.812500e-03
-9.723125e-10,1.953125e-03
-9.683125e-10,2.093750e-03
-9.643125e-10,8.281250e-04
-9.603125e-10,1.609375e-03
-9.563125e-10,7.656250e-04
-9.523125e-10,1.937500e-03
-9.483125e-10,1.718750e-03
-9.443125e-10,1.515625e-03
-9.403125e-10,9.062500e-04
-9.363125e-10,1.312500e-03
-9.323125e-10,9.218750e-04
-9.283125e-10,9.375000e-04
-9.243125e-10,1.359375e-03
-9.203125e-10,1.578125e-03
-9.163125e-10,1.421875e-03
-9.123125e-10,1.046875e-03
-9.083125e-10,1.062500e-03
-9.043125e-10,1.515625e-03
-9.003125e-10,1.140625e-03
-8.963125e-10,1.781250e-03
-8.923125e-10,2.015625e-03
-8.883125e-10,2.250000e-03
-8.843125e-10,1.078125e-03
-8.803125e-10,1.921875e-03
-8.763125e-10,1.125000e-03
-8.723125e-10,2.312500e-03
-8.683125e-10,2.140625e-03
-8.643125e-10,1.953125e-03
-8.603125e-10,1.375000e-03
-8.563125e-10,1.781250e-03
-8.523125e-10,1.375000e-03
-8.483125e-10,1.390625e-03
-8.443125e-10,1.781250e-03
-8.403125e-10,1.968750e-03
-8.363125e-10,1.765625e-03
-8.323125e-10,1.328125e-03
-8.283125e-10,1.296875e-03
-8.243125e-10,1.671875e-03
-8.203125e-10,1.234375e-03
-8.163125e-10,1.796875e-03
-8.123125e-10,1.953125e-03
-8.083125e-10,2.109375e-03
-8.043125e-10,8.906250e-04
-8.003125e-10,1.656250e-03
-7.963125e-10,7.968750e-04
-7.923125e-10,1.843750e-03
-7.883125e-10,1.640625e-03
-7.843125e-10,1.390625e-03
-7.803125e-10,7.812500e-04
-7.763125e-10,1.125000e-03
-7.723125e-10,6.718750e-04
-7.683125e-10,6.718750e-04
-7.643125e-10,1.031250e-03
-7.603125e-10,1.203125e-03
-7.563125e-10,1.046875e-03
-7.523125e-10,6.250000e-04
-7.483125e-10,6.093750e-04
-7.443125e-10,1.000000e-03
-7.403125e-10,6.250000e-04
-7.363125e-10,1.250000e-03
-7.323125e-10,1.484375e-03
-7.283125e-10,1.718750e-03
-7.243125e-10,6.093750e-04
-7.203125e-10,1.484375e-03
-7.163125e-10,7.812500e-04
-7.123125e-10,1.953125e-03
-7.083125e-10,1.906250e-03
-7.043125e-10,1.843750e-03
-7.003125e-10,1.421875e-03
-6.963125e-10,1.937500e-03
-6.923125e-10,1.640625e-03
-6.883125e-10,1.875000e-03
-6.843125e-10,2.437500e-03
-6.803125e-10,2.781250e-03
-6.763125e-10,2.906250e-03
-6.723125e-10,2.687500e-03
-6.683125e-10,2.875000e-03
-6.643125e-10,3.484375e-03
-6.603125e-10,3.343750e-03
-6.563125e-10,4.171875e-03
-6.523125e-10,4.625000e-03
-6.483125e-10,5.062500e-03
-6.443125e-10,4.125000e-03
-6.403125e-10,5.203125e-03
-6.363125e-10,4.734375e-03
-6.323125e-10,6.046875e-03
-6.283125e-10,6.203125e-03
-6.243125e-10,6.312500e-03
-6.203125e-10,6.031250e-03
-6.163125e-10,6.640625e-03
-6.123125e-10,6.453125e-03
-6.083125e-10,6.796875e-03
-6.043125e-10,7.453125e-03
-6.003125e-10,7.843750e-03
-5.963125e-10,8.046875e-03
-5.923125e-10,7.859375e-03
-5.883125e-10,8.078125e-03
-5.843125e-10,8.687500e-03
-5.803125e-10,8.562500e-03
-5.763125e-10,9.359375e-03
-5.723125e-10,9.765625e-03
-5.683125e-10,1.012500e-02
-5.643125e-10,9.078125e-03
-5.603125e-10,1.004688e-02
-5.563125e-10,9.500000e-03
-5.523125e-10,1.068750e-02
-5.483125e-10,1.071875e-02
-5.443125e-10,1.064063e-02
-5.403125e-10,1.018750e-02
-5.363125e-10,1.060938e-02
-5.323125e-10,1.023438e-02
-5.283125e-10,1.034375e-02
-5.243125e-10,1.079688e-02
-5.203125e-10,1.093750e-02
-5.163125e-10,1.085938e-02
-5.123125e-10,1.042188e-02
-5.083125e-10,1.040625e-02
-5.043125e-10,1.076563e-02
-5.003125e-10,1.034375e-02
-4.963125e-10,1.089063e-02
-4.923125e-10,1.098438e-02
-4.883125e-10,1.104688e-02
-4.843125e-10,9.718750e-03
-4.803125e-10,1.035938e-02
-4.763125e-10,9.546875e-03
-4.723125e-10,1.043750e-02
-4.683125e-10,1.021875e-02
-4.643125e-10,9.812500e-03
-4.603125e-10,9.062500e-03
-4.563125e-10,9.218750e-03
-4.523125e-10,8.609375e-03
-4.483125e-10,8.406250e-03
-4.443125e-10,8.609375e-03
-4.403125e-10,8.500000e-03
-4.363125e-10,8.125000e-03
-4.323125e-10,7.468750e-03
-4.283125e-10,7.265625e-03
-4.243125e-10,7.437500e-03
-4.203125e-10,6.765625e-03
-4.163125e-10,7.140625e-03
-4.123125e-10,7.062500e-03
-4.083125e-10,6.968750e-03
-4.043125e-10,5.531250e-03
-4.003125e-10,5.984375e-03
-3.963125e-10,5.062500e-03
-3.923125e-10,5.875000e-03
-3.883125e-10,5.578125e-03
-3.843125e-10,5.093750e-03
-3.803125e-10,4.312500e-03
-3.763125e-10,4.468750e-03
-3.723125e-10,3.906250e-03
-3.683125e-10,3.671875e-03
-3.643125e-10,3.921875e-03
-3.603125e-10,3.875000e-03
-3.563125e-10,3.515625e-03
-3.523125e-10,3.000000e-03
-3.483125e-10,2.921875e-03
-3.443125e-10,3.250000e-03
-3.403125e-10,2.718750e-03
-3.363125e-10,3.250000e-03
-3.323125e-10,3.390625e-03
-3.283125e-10,3.515625e-03
-3.243125e-10,2.312500e-03
-3.203125e-10,3.000000e-03
-3.163125e-10,2.312500e-03
-3.123125e-10,3.406250e-03
-3.083125e-10,3.343750e-03
-3.043125e-10,3.156250e-03
-3.003125e-10,2.718750e-03
-2.963125e-10,3.171875e-03
-2.923125e-10,2.937500e-03
-2.883125e-10,2.984375e-03
-2.843125e-10,3.531250e-03
-2.803125e-10,3.796875e-03
-2.763125e-10,3.734375e-03
-2.723125e-10,3.562500e-03
-2.683125e-10,3.765625e-03
-2.643125e-10,4.359375e-03
-2.603125e-10,4.109375e-03
-2.563125e-10,4.875000e-03
-2.523125e-10,5.296875e-03
-2.483125e-10,5.640625e-03
-2.443125e-10,4.687500e-03
-2.403125e-10,5.562500e-03
-2.363125e-10,5.000000e-03
-2.323125e-10,6.281250e-03
-2.283125e-10,6.312500e-03
-2.243125e-10,6.250000e-03
-2.203125e-10,5.906250e-03
-2.163125e-10,6.406250e-03
-2.123125e-10,6.187500e-03
-2.083125e-10,6.250000e-03
-2.043125e-10,6.734375e-03
-2.003125e-10,6.953125e-03
-1.963125e-10,6.796875e-03
-1.923125e-10,6.562500e-03
-1.883125e-10,6.609375e-03
-1.843125e-10,7.031250e-03
-1.803125e-10,6.640625e-03
-1.763125e-10,7.218750e-03
-1.723125e-10,7.437500e-03
-1.683125e-10,7.578125e-03
-1.643125e-10,6.453125e-03
-1.603125e-10,7.109375e-03
-1.563125e-10,6.312500e-03
-1.523125e-10,7.406250e-03
-1.483125e-10,7.203125e-03
-1.443125e-10,6.968750e-03
-1.403125e-10,6.468750e-03
-1.363125e-10,6.843750e-03
-1.323125e-10,6.468750e-03
-1.283125e-10,6.500000e-03
-1.243125e-10,6.906250e-03
-1.203125e-10,7.156250e-03
-1.163125e-10,7.046875e-03
-1.123125e-10,6.921875e-03
-1.083125e-10,7.125000e-03
-1.043125e-10,7.718750e-03
-1.003125e-10,7.640625e-03
-9.631250e-11,8.609375e-03
-9.231250e-11,9.250000e-03
-8.831250e-11,9.968750e-03
-8.431250e-11,9.484375e-03
-8.031250e-11,1.085938e-02
-7.631250e-11,1.082813e-02
-7.231250e-11,1.285938e-02
-6.831250e-11,1.359375e-02
-6.431250e-11,1.446875e-02
-6.031250e-11,1.517188e-02
-5.631250e-11,1.684375e-02
-5.231250e-11,1.787500e-02
-4.831250e-11,1.940625e-02
-4.431250e-11,2.140625e-02
-4.031250e-11,2.339063e-02
-3.631250e-11,2.504688e-02
-3.231250e-11,2.679688e-02
-2.831250e-11,2.895313e-02
-2.431250e-11,3.154688e-02
-2.031250e-11,3.359375e-02
-1.631250e-11,3.675000e-02
-1.231250e-11,3.962500e-02
-8.312500e-12,4.270313e-02
-4.312500e-12,4.459375e-02
-3.125000e-13,4.837500e-02
3.687500e-12,5.078125e-02
7.687500e-12,5.529688e-02
1.168750e-11,5.846875e-02
1.568750e-11,6.187500e-02
1.968750e-11,6.503125e-02
2.368750e-11,6.917188e-02
2.768750e-11,7.267188e-02
3.168750e-11,7.659375e-02
3.568750e-11,8.098438e-02
3.968750e-11,8.532813e-02
4.368750e-11,8.918750e-02
4.768750e-11,9.310938e-02
5.168750e-11,9.735938e-02
5.568750e-11,1.019063e-01
5.968750e-11,1.058594e-01
6.368750e-11,1.107813e-01
6.768750e-11,1.152813e-01
7.168750e-11,1.199063e-01
7.568750e-11,1.231563e-01
7.968750e-11,1.281563e-01
8.368750e-11,1.316094e-01
8.768750e-11,1.370156e-01
9.168750e-11,1.408750e-01
9.568750e-11,1.448750e-01
9.968750e-11,1.483750e-01
1.036875e-10,1.526406e-01
1.076875e-10,1.561406e-01
1.116875e-10,1.598594e-01
1.156875e-10,1.638594e-01
1.196875e-10,1.676719e-01
1.236875e-10,1.707344e-01
1.276875e-10,1.736563e-01
1.316875e-10,1.767500e-01
1.356875e-10,1.799688e-01
1.396875e-10,1.824375e-01
1.436875e-10,1.856563e-01
1.476875e-10,1.882344e-01
1.516875e-10,1.908125e-01
1.556875e-10,1.918281e-01
1.596875e-10,1.945000e-01
1.636875e-10,1.954531e-01
1.676875e-10,1.981563e-01
1.716875e-10,1.992188e-01
1.756875e-10,2.002969e-01
1.796875e-10,2.007344e-01
1.836875e-10,2.018438e-01
1.876875e-10,2.021406e-01
1.916875e-10,2.025469e-01
1.956875e-10,2.031406e-01
1.996875e-10,2.035156e-01
2.036875e-10,2.030469e-01
2.076875e-10,2.023906e-01
2.116875e-10,2.019063e-01
2.156875e-10,2.015469e-01
2.196875e-10,2.004063e-01
2.236875e-10,1.999688e-01
2.276875e-10,1.989063e-01
2.316875e-10,1.979063e-01
2.356875e-10,1.953125e-01
2.396875e-10,1.944844e-01
2.436875e-10,1.919844e-01
2.476875e-10,1.912344e-01
2.516875e-10,1.889219e-01
2.556875e-10,1.866875e-01
2.596875e-10,1.839063e-01
2.636875e-10,1.819063e-01
2.676875e-10,1.791875e-01
2.716875e-10,1.766719e-01
2.756875e-10,1.744063e-01
2.796875e-10,1.720469e-01
2.836875e-10,1.689688e-01
2.876875e-10,1.657813e-01
2.916875e-10,1.629375e-01
2.956875e-10,1.603281e-01
2.996875e-10,1.570156e-01
3.036875e-10,1.545625e-01
3.076875e-10,1.516094e-01
3.116875e-10,1.488594e-01
3.156875e-10,1.445938e-01
3.196875e-10,1.422813e-01
3.236875e-10,1.384375e-01
3.276875e-10,1.363906e-01
3.316875e-10,1.329688e-01
3.356875e-10,1.297188e-01
3.396875e-10,1.260313e-01
3.436875e-10,1.232813e-01
3.476875e-10,1.199531e-01
3.516875e-10,1.169063e-01
3.556875e-10,1.142031e-01
3.596875e-10,1.115000e-01
3.636875e-10,1.082656e-01
3.676875e-10,1.049844e-01
3.716875e-10,1.021250e-01
3.756875e-10,9.964063e-02
3.796875e-10,9.648438e-02
3.836875e-10,9.426563e-02
3.876875e-10,9.170313e-02
3.916875e-10,8.937500e-02
3.956875e-10,8.562500e-02
3.996875e-10,8.392188e-02
4.036875e-10,8.075000e-02
4.076875e-10,7.942188e-02
4.116875e-10,7.681250e-02
4.156875e-10,7.439063e-02
4.196875e-10,7.159375e-02
4.236875e-10,6.982813e-02
4.276875e-10,6.748438e-02
4.316875e-10,6.548438e-02
4.356875e-10,6.382813e-02
4.396875e-10,6.221875e-02
4.436875e-10,6.018750e-02
4.476875e-10,5.809375e-02
4.516875e-10,5.640625e-02
4.556875e-10,5.515625e-02
4.596875e-10,5.323438e-02
4.636875e-10,5.223438e-02
4.676875e-10,5.096875e-02
4.716875e-10,4.985938e-02
4.756875e-10,4.737500e-02
4.796875e-10,4.693750e-02
4.836875e-10,4.504688e-02
4.876875e-10,4.496875e-02
4.916875e-10,4.364063e-02
4.956875e-10,4.242188e-02
4.996875e-10,4.085938e-02
5.036875e-10,4.028125e-02
5.076875e-10,3.906250e-02
5.116875e-10,3.821875e-02
5.156875e-10,3.765625e-02
5.196875e-10,3.712500e-02
5.236875e-10,3.617188e-02
5.276875e-10,3.509375e-02
5.316875e-10,3.439063e-02
5.356875e-10,3.407813e-02
5.396875e-10,3.304688e-02
5.436875e-10,3.289063e-02
5.476875e-10,3.245313e-02
5.516875e-10,3.206250e-02
5.556875e-10,3.031250e-02
5.596875e-10,3.053125e-02
5.636875e-10,2.926563e-02
5.676875e-10,2.978125e-02
5.716875e-10,2.901563e-02
5.756875e-10,2.823438e-02
5.796875e-10,2.712500e-02
5.836875e-10,2.693750e-02
5.876875e-10,2.601563e-02
5.916875e-10,2.545313e-02
5.956875e-10,2.517188e-02
5.996875e-10,2.484375e-02
6.036875e-10,2.410938e-02
6.076875e-10,2.315625e-02
6.116875e-10,2.260938e-02
6.156875e-10,2.235938e-02
6.196875e-10,2.139063e-02
6.236875e-10,2.126563e-02
6.276875e-10,2.087500e-02
6.316875e-10,2.043750e-02
6.356875e-10,1.868750e-02
6.396875e-10,1.882813e-02
6.436875e-10,1.756250e-02
6.476875e-10,1.806250e-02
6.516875e-10,1.728125e-02
6.556875e-10,1.643750e-02
6.596875e-10,1.526563e-02
6.636875e-10,1.510938e-02
6.676875e-10,1.414063e-02
6.716875e-10,1.353125e-02
6.756875e-10,1.331250e-02
6.796875e-10,1.303125e-02
6.836875e-10,1.235938e-02
6.876875e-10,1.146875e-02
6.916875e-10,1.107813e-02
6.956875e-10,1.095313e-02
6.996875e-10,1.015625e-02
7.036875e-10,1.026563e-02
7.076875e-10,1.014063e-02
7.116875e-10,9.921875e-03
7.156875e-10,8.515625e-03
7.196875e-10,8.953125e-03
7.236875e-10,8.046875e-03
7.276875e-10,8.968750e-03
7.316875e-10,8.625000e-03
7.356875e-10,8.265625e-03
7.396875e-10,7.546875e-03
7.436875e-10,7.906250e-03
7.476875e-10,7.437500e-03
7.516875e-10,7.359375e-03
7.556875e-10,7.734375e-03
7.596875e-10,8.015625e-03
7.636875e-10,7.953125e-03
7.676875e-10,7.625000e-03
7.716875e-10,7.812500e-03
7.756875e-10,8.312500e-03
7.796875e-10,8.109375e-03
7.836875e-10,8.843750e-03
7.876875e-10,9.296875e-03
7.916875e-10,9.609375e-03
7.956875e-10,8.765625e-03
7.996875e-10,9.687500e-03
8.036875e-10,9.250000e-03
8.076875e-10,1.068750e-02
8.116875e-10,1.078125e-02
8.156875e-10,1.085938e-02
8.196875e-10,1.048438e-02
8.236875e-10,1.115625e-02
8.276875e-10,1.096875e-02
8.316875e-10,1.115625e-02
8.356875e-10,1.175000e-02
8.396875e-10,1.212500e-02
8.436875e-10,1.218750e-02
8.476875e-10,1.192188e-02
8.516875e-10,1.207813e-02
8.556875e-10,1.257813e-02
8.596875e-10,1.231250e-02
8.636875e-10,1.293750e-02
8.676875e-10,1.320313e-02
8.716875e-10,1.329688e-02
8.756875e-10,1.221875e-02
8.796875e-10,1.285938e-02
8.836875e-10,1.203125e-02
8.876875e-10,1.315625e-02
8.916875e-10,1.285938e-02
8.956875e-10,1.251563e-02
8.996875e-10,1.173438e-02
9.036875e-10,1.190625e-02
9.076875e-10,1.128125e-02
9.116875e-10,1.101563e-02
9.156875e-10,1.115625e-02
9.196875e-10,1.095313e-02
9.236875e-10,1.053125e-02
9.276875e-10,9.796875e-03
9.316875e-10,9.421875e-03
9.356875e-10,9.515625e-03
9.396875e-10,8.812500e-03
9.436875e-10,9.000000e-03
9.476875e-10,8.828125e-03
9.516875e-10,8.546875e-03
9.556875e-10,7.140625e-03
9.596875e-10,7.468750e-03
9.636875e-10,6.328125e-03
9.676875e-10,7.187500e-03
9.716875e-10,6.703125e-03
9.756875e-10,6.171875e-03
9.796875e-10,5.281250e-03
9.836875e-10,5.343750e-03
9.876875e-10,4.687500e-03
9.916875e-10,4.453125e-03
9.956875e-10,4.640625e-03
9.996875e-10,4.484375e-03
1.003687e-09,4.171875e-03
1.007687e-09,3.609375e-03
1.011688e-09,3.406250e-03
1.015688e-09,3.750000e-03
1.019688e-09,3.312500e-03
1.023688e-09,3.796875e-03
1.027688e-09,3.937500e-03
1.031688e-09,4.031250e-03
1.035687e-09,3.015625e-03
1.039687e-09,3.781250e-03
1.043687e-09,3.031250e-03
1.047687e-09,4.312500e-03
1.051687e-09,4.234375e-03
1.055687e-09,4.156250e-03
1.059687e-09,3.718750e-03
1.063687e-09,4.250000e-03
1.067687e-09,4.031250e-03
1.071688e-09,4.234375e-03
1.075688e-09,4.843750e-03
1.079688e-09,5.125000e-03
1.083688e-09,5.187500e-03
1.087688e-09,5.015625e-03
1.091688e-09,5.171875e-03
1.095687e-09,5.828125e-03
1.099687e-09,5.687500e-03
1.103687e-09,6.453125e-03
1.107687e-09,6.859375e-03
1.111687e-09,7.187500e-03
1.115687e-09,6.359375e-03
1.119687e-09,7.312500e-03
1.123687e-09,6.687500e-03
1.127687e-09,8.046875e-03
1.131688e-09,8.015625e-03
1.135688e-09,7.968750e-03
1.139688e-09,7.515625e-03
1.143688e-09,8.031250e-03
1.147688e-09,7.750000e-03
1.151688e-09,7.859375e-03
1.155687e-09,8.359375e-03
1.159687e-09,8.546875e-03
1.163687e-09,8.437500e-03
1.167687e-09,8.093750e-03
1.171687e-09,8.078125e-03
1.175687e-09,8.515625e-03
1.179687e-09,8.140625e-03
1.183687e-09,8.703125e-03
1.187687e-09,8.875000e-03
1.191688e-09,9.000000e-03
1.195688e-09,7.906250e-03
1.199688e-09,8.656250e-03
1.203688e-09,7.812500e-03
1.207688e-09,8.937500e-03
1.211688e-09,8.703125e-03
1.215687e-09,8.453125e-03
1.219687e-09,7.812500e-03
1.223687e-09,8.156250e-03
1.227687e-09,7.718750e-03
1.231687e-09,7.687500e-03
1.235687e-09,8.062500e-03
1.239687e-09,8.203125e-03
1.243687e-09,7.984375e-03
1.247687e-09,7.578125e-03
1.251687e-09,7.546875e-03
1.255688e-09,7.953125e-03
1.259688e-09,7.578125e-03
1.263688e-09,8.187500e-03
1.267688e-09,8.406250e-03
1.271688e-09,8.609375e-03
1.275687e-09,7.546875e-03
1.279687e-09,8.406250e-03
1.283687e-09,7.656250e-03
1.287687e-09,8.937500e-03
1.291687e-09,8.812500e-03
1.295687e-09,8.703125e-03
1.299687e-09,8.203125e-03
1.303687e-09,8.718750e-03
1.307687e-09,8.421875e-03
1.311687e-09,8.546875e-03
1.315688e-09,9.062500e-03
1.319688e-09,9.359375e-03
1.323688e-09,9.296875e-03
1.327688e-09,9.000000e-03
1.331688e-09,9.109375e-03
1.335687e-09,9.640625e-03
1.339687e-09,9.343750e-03
1.343687e-09,1.004688e-02
1.347687e-09,1.034375e-02
1.351687e-09,1.062500e-02
1.355687e-09,9.531250e-03
1.359687e-09,1.040625e-02
1.363687e-09,9.656250e-03
1.367687e-09,1.090625e-02
1.371687e-09,1.075000e-02
1.375688e-09,1.056250e-02
1.379688e-09,9.968750e-03
1.383688e-09,1.035938e-02
1.387688e-09,9.937500e-03
1.391688e-09,9.906250e-03
1.395687e-09,1.026563e-02
1.399687e-09,1.039063e-02
1.403687e-09,1.010938e-02
1.407687e-09,9.593750e-03
1.411687e-09,9.484375e-03
1.415687e-09,9.765625e-03
1.419687e-09,9.234375e-03
1.423687e-09,9.687500e-03
1.427687e-09,9.718750e-03
1.431687e-09,9.734375e-03
1.435688e-09,8.375000e-03
1.439688e-09,8.984375e-03
1.443688e-09,7.984375e-03
1.447688e-09,8.968750e-03
1.451688e-09,8.562500e-03
1.455687e-09,8.140625e-03
1.459687e-09,7.312500e-03
1.463687e-09,7.484375e-03
1.467687e-09,6.859375e-03
1.471687e-09,6.640625e-03
1.475687e-09,6.812500e-03
1.479687e-09,6.781250e-03
1.483687e-09,6.359375e-03
1.487687e-09,5.734375e-03
1.491687e-09,5.515625e-03
1.495688e-09,5.718750e-03
1.499688e-09,5.125000e-03
1.503688e-09,5.515625e-03
1.507688e-09,5.531250e-03
1.511688e-09,5.546875e-03
1.515687e-09,4.171875e-03
1.519687e-09,4.812500e-03
1.523687e-09,3.843750e-03
1.527687e-09,4.906250e-03
1.531687e-09,4.562500e-03
1.535687e-09,4.218750e-03
1.539687e-09,3.500000e-03
1.543687e-09,3.781250e-03
1.547687e-09,3.265625e-03
1.551687e-09,3.156250e-03
1.555688e-09,3.453125e-03
1.559688e-09,3.562500e-03
1.563688e-09,3.265625e-03
1.567688e-09,2.781250e-03
1.571688e-09,2.687500e-03
1.575687e-09,3.015625e-03
1.579687e-09,2.546875e-03
1.583687e-09,3.062500e-03
1.587687e-09,3.203125e-03
1.591687e-09,3.328125e-03
1.595687e-09,2.046875e-03
1.599687e-09,2.781250e-03
1.603687e-09,1.890625e-03
1.607687e-09,3.031250e-03
1.611687e-09,2.750000e-03
1.615688e-09,2.453125e-03
1.619688e-09,1.765625e-03
1.623688e-09,2.093750e-03
1.627688e-09,1.593750e-03
1.631688e-09,1.515625e-03
1.635687e-09,1.828125e-03
1.639687e-09,1.937500e-03
1.643687e-09,1.640625e-03
1.647687e-09,1.140625e-03
1.651687e-09,1.046875e-03
1.655687e-09,1.359375e-03
1.659687e-09,8.593750e-04
1.663687e-09,1.375000e-03
1.667687e-09,1.500000e-03
1.671687e-09,1.609375e-03
1.675688e-09,3.281250e-04
1.679688e-09,1.062500e-03
1.683688e-09,1.875000e-04
1.687688e-09,1.343750e-03
1.691688e-09,1.093750e-03
1.695687e-09,8.437500e-04
1.699687e-09,2.187500e-04
1.703687e-09,6.093750e-04
1.707687e-09,1.875000e-04
1.711687e-09,2.031250e-04
1.715687e-09,6.406250e-04
1.719687e-09,8.750000e-04
1.723687e-09,7.187500e-04
1.727687e-09,3.906250e-04
1.731687e-09,4.687500e-04
1.735688e-09,9.843750e-04
1.739688e-09,7.031250e-04
1.743688e-09,1.437500e-03
1.747688e-09,1.796875e-03
1.751688e-09,2.156250e-03
1.755687e-09,1.140625e-03
1.759687e-09,2.156250e-03
