Measurements-streak-laser/Photodiode-on-Tek-12bit-4GHz/Tek000_ch1_20190613133051417.csv

Model,MSO64
Waveform Type,ANALOG
Horizontal Units,s
Sample Interval,4.000000e-12
Record Length,1000
Zero Index,310.921875
Vertical Units,V

TIME,CH1
-1.243687e-09,6.531250e-03
-1.239687e-09,6.109375e-03
-1.235687e-09,6.687500e-03
-1.231687e-09,6.859375e-03
-1.227687e-09,7.031250e-03
-1.223687e-09,5.781250e-03
-1.219687e-09,6.546875e-03
-1.215687e-09,5.687500e-03
-1.211688e-09,6.859375e-03
-1.207688e-09,6.609375e-03
-1.203688e-09,6.343750e-03
-1.199688e-09,5.687500e-03
-1.195688e-09,6.031250e-03
-1.191688e-09,5.578125e-03
-1.187687e-09,5.515625e-03
-1.183687e-09,5.859375e-03
-1.179687e-09,6.015625e-03
-1.175687e-09,5.750000e-03
-1.171687e-09,5.296875e-03
-1.167687e-09,5.234375e-03
-1.163687e-09,5.593750e-03
-1.159687e-09,5.140625e-03
-1.155687e-09,5.703125e-03
-1.151688e-09,5.875000e-03
-1.147688e-09,6.046875e-03
-1.143688e-09,4.796875e-03
-1.139688e-09,5.578125e-03
-1.135688e-09,4.750000e-03
-1.131688e-09,5.953125e-03
-1.127687e-09,5.750000e-03
-1.123687e-09,5.546875e-03
-1.119687e-09,4.953125e-03
-1.115687e-09,5.375000e-03
-1.111687e-09,5.000000e-03
-1.107687e-09,5.031250e-03
-1.103687e-09,5.484375e-03
-1.099687e-09,5.734375e-03
-1.095687e-09,5.593750e-03
-1.091688e-09,5.250000e-03
-1.087688e-09,5.328125e-03
-1.083688e-09,5.812500e-03
-1.079688e-09,5.484375e-03
-1.075688e-09,6.187500e-03
-1.071688e-09,6.484375e-03
-1.067687e-09,6.796875e-03
-1.063687e-09,5.687500e-03
-1.059687e-09,6.609375e-03
-1.055687e-09,5.906250e-03
-1.051687e-09,7.234375e-03
-1.047687e-09,7.156250e-03
-1.043687e-09,7.062500e-03
-1.039687e-09,6.578125e-03
-1.035687e-09,7.093750e-03
-1.031688e-09,6.796875e-03
-1.027688e-09,6.906250e-03
-1.023688e-09,7.421875e-03
-1.019688e-09,7.718750e-03
-1.015688e-09,7.609375e-03
-1.011688e-09,7.296875e-03
-1.007687e-09,7.359375e-03
-1.003687e-09,7.843750e-03
-9.996875e-10,7.500000e-03
-9.956875e-10,8.156250e-03
-9.916875e-10,8.390625e-03
-9.876875e-10,8.625000e-03
-9.836875e-10,7.421875e-03
-9.796875e-10,8.234375e-03
-9.756875e-10,7.406250e-03
-9.716875e-10,8.593750e-03
-9.676875e-10,8.343750e-03
-9.636875e-10,8.093750e-03
-9.596875e-10,7.421875e-03
-9.556875e-10,7.750000e-03
-9.516875e-10,7.265625e-03
-9.476875e-10,7.156250e-03
-9.436875e-10,7.453125e-03
-9.396875e-10,7.531250e-03
-9.356875e-10,7.187500e-03
-9.316875e-10,6.625000e-03
-9.276875e-10,6.468750e-03
-9.236875e-10,6.718750e-03
-9.196875e-10,6.140625e-03
-9.156875e-10,6.562500e-03
-9.116875e-10,6.578125e-03
-9.076875e-10,6.593750e-03
-9.036875e-10,5.187500e-03
-8.996875e-10,5.796875e-03
-8.956875e-10,4.796875e-03
-8.916875e-10,5.750000e-03
-8.876875e-10,5.359375e-03
-8.836875e-10,4.968750e-03
-8.796875e-10,4.171875e-03
-8.756875e-10,4.390625e-03
-8.716875e-10,3.796875e-03
-8.676875e-10,3.640625e-03
-8.636875e-10,3.875000e-03
-8.596875e-10,3.921875e-03
-8.556875e-10,3.578125e-03
-8.516875e-10,3.031250e-03
-8.476875e-10,2.906250e-03
-8.436875e-10,3.187500e-03
-8.396875e-10,2.687500e-03
-8.356875e-10,3.187500e-03
-8.316875e-10,3.312500e-03
-8.276875e-10,3.453125e-03
-8.236875e-10,2.234375e-03
-8.196875e-10,3.000000e-03
-8.156875e-10,2.156250e-03
-8.116875e-10,3.234375e-03
-8.076875e-10,3.078125e-03
-8.036875e-10,2.890625e-03
-7.996875e-10,2.343750e-03
-7.956875e-10,2.781250e-03
-7.916875e-10,2.406250e-03
-7.876875e-10,2.515625e-03
-7.836875e-10,2.968750e-03
-7.796875e-10,3.218750e-03
-7.756875e-10,3.156250e-03
-7.716875e-10,2.828125e-03
-7.676875e-10,2.906250e-03
-7.636875e-10,3.390625e-03
-7.596875e-10,3.078125e-03
-7.556875e-10,3.765625e-03
-7.516875e-10,4.078125e-03
-7.476875e-10,4.359375e-03
-7.436875e-10,3.296875e-03
-7.396875e-10,4.187500e-03
-7.356875e-10,3.484375e-03
-7.316875e-10,4.593750e-03
-7.276875e-10,4.531250e-03
-7.236875e-10,4.406250e-03
-7.196875e-10,3.921875e-03
-7.156875e-10,4.328125e-03
-7.116875e-10,3.921875e-03
-7.076875e-10,4.031250e-03
-7.036875e-10,4.421875e-03
-6.996875e-10,4.593750e-03
-6.956875e-10,4.531250e-03
-6.916875e-10,4.078125e-03
-6.876875e-10,4.015625e-03
-6.836875e-10,4.359375e-03
-6.796875e-10,3.937500e-03
-6.756875e-10,4.453125e-03
-6.716875e-10,4.609375e-03
-6.676875e-10,4.703125e-03
-6.636875e-10,3.437500e-03
-6.596875e-10,4.171875e-03
-6.556875e-10,3.343750e-03
-6.516875e-10,4.234375e-03
-6.476875e-10,4.015625e-03
-6.436875e-10,3.765625e-03
-6.396875e-10,3.125000e-03
-6.356875e-10,3.359375e-03
-6.316875e-10,2.781250e-03
-6.276875e-10,2.796875e-03
-6.236875e-10,3.078125e-03
-6.196875e-10,3.109375e-03
-6.156875e-10,3.031250e-03
-6.116875e-10,2.515625e-03
-6.076875e-10,2.421875e-03
-6.036875e-10,2.734375e-03
-5.996875e-10,2.359375e-03
-5.956875e-10,2.906250e-03
-5.916875e-10,3.109375e-03
-5.876875e-10,3.265625e-03
-5.836875e-10,2.062500e-03
-5.796875e-10,2.921875e-03
-5.756875e-10,2.296875e-03
-5.716875e-10,3.328125e-03
-5.676875e-10,3.343750e-03
-5.636875e-10,3.281250e-03
-5.596875e-10,2.859375e-03
-5.556875e-10,3.312500e-03
-5.516875e-10,2.984375e-03
-5.476875e-10,3.250000e-03
-5.436875e-10,3.828125e-03
-5.396875e-10,4.109375e-03
-5.356875e-10,4.312500e-03
-5.316875e-10,4.093750e-03
-5.276875e-10,4.296875e-03
-5.236875e-10,4.921875e-03
-5.196875e-10,4.812500e-03
-5.156875e-10,5.656250e-03
-5.116875e-10,6.062500e-03
-5.076875e-10,6.468750e-03
-5.036875e-10,5.484375e-03
-4.996875e-10,6.500000e-03
-4.956875e-10,6.093750e-03
-4.916875e-10,7.312500e-03
-4.876875e-10,7.500000e-03
-4.836875e-10,7.500000e-03
-4.796875e-10,7.156250e-03
-4.756875e-10,7.656250e-03
-4.716875e-10,7.390625e-03
-4.676875e-10,7.593750e-03
-4.636875e-10,8.156250e-03
-4.596875e-10,8.343750e-03
-4.556875e-10,8.359375e-03
-4.516875e-10,8.015625e-03
-4.476875e-10,8.078125e-03
-4.436875e-10,8.531250e-03
-4.396875e-10,8.125000e-03
-4.356875e-10,8.734375e-03
-4.316875e-10,8.843750e-03
-4.276875e-10,8.921875e-03
-4.236875e-10,7.609375e-03
-4.196875e-10,8.187500e-03
-4.156875e-10,7.421875e-03
-4.116875e-10,8.250000e-03
-4.076875e-10,8.062500e-03
-4.036875e-10,7.593750e-03
-3.996875e-10,6.828125e-03
-3.956875e-10,6.921875e-03
-3.916875e-10,6.312500e-03
-3.876875e-10,6.015625e-03
-3.836875e-10,6.187500e-03
-3.796875e-10,5.984375e-03
-3.756875e-10,5.546875e-03
-3.716875e-10,4.859375e-03
-3.676875e-10,4.640625e-03
-3.636875e-10,4.812500e-03
-3.596875e-10,4.078125e-03
-3.556875e-10,4.421875e-03
-3.516875e-10,4.359375e-03
-3.476875e-10,4.250000e-03
-3.436875e-10,2.843750e-03
-3.396875e-10,3.281250e-03
-3.356875e-10,2.437500e-03
-3.316875e-10,3.265625e-03
-3.276875e-10,3.078125e-03
-3.236875e-10,2.671875e-03
-3.196875e-10,2.046875e-03
-3.156875e-10,2.312500e-03
-3.116875e-10,1.937500e-03
-3.076875e-10,1.812500e-03
-3.036875e-10,2.234375e-03
-2.996875e-10,2.359375e-03
-2.956875e-10,2.187500e-03
-2.916875e-10,1.937500e-03
-2.876875e-10,2.109375e-03
-2.836875e-10,2.687500e-03
-2.796875e-10,2.375000e-03
-2.756875e-10,3.140625e-03
-2.716875e-10,3.578125e-03
-2.676875e-10,3.921875e-03
-2.636875e-10,3.031250e-03
-2.596875e-10,3.890625e-03
-2.556875e-10,3.468750e-03
-2.516875e-10,4.765625e-03
-2.476875e-10,4.953125e-03
-2.436875e-10,4.968750e-03
-2.396875e-10,4.781250e-03
-2.356875e-10,5.390625e-03
-2.316875e-10,5.312500e-03
-2.276875e-10,5.484375e-03
-2.236875e-10,6.093750e-03
-2.196875e-10,6.406250e-03
-2.156875e-10,6.375000e-03
-2.116875e-10,6.265625e-03
-2.076875e-10,6.437500e-03
-2.036875e-10,6.968750e-03
-1.996875e-10,6.640625e-03
-1.956875e-10,7.250000e-03
-1.916875e-10,7.531250e-03
-1.876875e-10,7.671875e-03
-1.836875e-10,6.546875e-03
-1.796875e-10,7.109375e-03
-1.756875e-10,6.281250e-03
-1.716875e-10,7.234375e-03
-1.676875e-10,6.921875e-03
-1.636875e-10,6.515625e-03
-1.596875e-10,5.859375e-03
-1.556875e-10,5.984375e-03
-1.516875e-10,5.375000e-03
-1.476875e-10,5.062500e-03
-1.436875e-10,5.125000e-03
-1.396875e-10,4.953125e-03
-1.356875e-10,4.437500e-03
-1.316875e-10,3.890625e-03
-1.276875e-10,3.625000e-03
-1.236875e-10,3.687500e-03
-1.196875e-10,3.078125e-03
-1.156875e-10,3.437500e-03
-1.116875e-10,3.484375e-03
-1.076875e-10,3.546875e-03
-1.036875e-10,2.468750e-03
-9.968750e-11,3.125000e-03
-9.568750e-11,2.421875e-03
-9.168750e-11,3.734375e-03
-8.768750e-11,3.781250e-03
-8.368750e-11,3.953125e-03
-7.968750e-11,4.000000e-03
-7.568750e-11,4.984375e-03
-7.168750e-11,5.343750e-03
-6.768750e-11,6.203125e-03
-6.368750e-11,7.546875e-03
-5.968750e-11,8.875000e-03
-5.568750e-11,9.937500e-03
-5.168750e-11,1.118750e-02
-4.768750e-11,1.284375e-02
-4.368750e-11,1.493750e-02
-3.968750e-11,1.657813e-02
-3.568750e-11,1.935938e-02
-3.168750e-11,2.195313e-02
-2.768750e-11,2.478125e-02
-2.368750e-11,2.657813e-02
-1.968750e-11,3.021875e-02
-1.568750e-11,3.262500e-02
-1.168750e-11,3.718750e-02
-7.687500e-12,4.053125e-02
-3.687500e-12,4.417188e-02
3.125000e-13,4.773438e-02
4.312500e-12,5.229688e-02
8.312500e-12,5.631250e-02
1.231250e-11,6.085938e-02
1.631250e-11,6.596875e-02
2.031250e-11,7.110938e-02
2.431250e-11,7.589063e-02
2.831250e-11,8.087500e-02
3.231250e-11,8.625000e-02
3.631250e-11,9.198438e-02
4.031250e-11,9.725000e-02
4.431250e-11,1.035938e-01
4.831250e-11,1.096094e-01
5.231250e-11,1.158438e-01
5.631250e-11,1.208594e-01
6.031250e-11,1.276094e-01
6.431250e-11,1.329219e-01
6.831250e-11,1.402656e-01
7.231250e-11,1.461406e-01
7.631250e-11,1.522656e-01
8.031250e-11,1.579844e-01
8.431250e-11,1.644844e-01
8.831250e-11,1.702969e-01
9.231250e-11,1.763438e-01
9.631250e-11,1.827344e-01
1.003125e-10,1.890000e-01
1.043125e-10,1.945000e-01
1.083125e-10,1.999844e-01
1.123125e-10,2.055938e-01
1.163125e-10,2.113125e-01
1.203125e-10,2.163594e-01
1.243125e-10,2.221406e-01
1.283125e-10,2.272656e-01
1.323125e-10,2.324688e-01
1.363125e-10,2.360938e-01
1.403125e-10,2.412500e-01
1.443125e-10,2.447188e-01
1.483125e-10,2.499063e-01
1.523125e-10,2.533750e-01
1.563125e-10,2.569219e-01
1.603125e-10,2.597813e-01
1.643125e-10,2.631875e-01
1.683125e-10,2.657813e-01
1.723125e-10,2.683906e-01
1.763125e-10,2.711250e-01
1.803125e-10,2.736563e-01
1.843125e-10,2.751406e-01
1.883125e-10,2.764844e-01
1.923125e-10,2.778906e-01
1.963125e-10,2.792813e-01
2.003125e-10,2.798906e-01
2.043125e-10,2.810938e-01
2.083125e-10,2.815625e-01
2.123125e-10,2.820781e-01
2.163125e-10,2.809375e-01
2.203125e-10,2.813750e-01
2.243125e-10,2.800781e-01
2.283125e-10,2.804375e-01
2.323125e-10,2.791094e-01
2.363125e-10,2.778594e-01
2.403125e-10,2.759688e-01
2.443125e-10,2.746875e-01
2.483125e-10,2.726719e-01
2.523125e-10,2.707344e-01
2.563125e-10,2.689375e-01
2.603125e-10,2.670625e-01
2.643125e-10,2.642344e-01
2.683125e-10,2.613125e-01
2.723125e-10,2.586094e-01
2.763125e-10,2.560313e-01
2.803125e-10,2.527500e-01
2.843125e-10,2.501719e-01
2.883125e-10,2.470000e-01
2.923125e-10,2.440469e-01
2.963125e-10,2.394844e-01
3.003125e-10,2.367500e-01
3.043125e-10,2.324375e-01
3.083125e-10,2.297969e-01
3.123125e-10,2.256875e-01
3.163125e-10,2.217813e-01
3.203125e-10,2.173594e-01
3.243125e-10,2.137500e-01
3.283125e-10,2.095781e-01
3.323125e-10,2.055781e-01
3.363125e-10,2.018281e-01
3.403125e-10,1.981250e-01
3.443125e-10,1.936875e-01
3.483125e-10,1.892500e-01
3.523125e-10,1.851406e-01
3.563125e-10,1.813281e-01
3.603125e-10,1.768906e-01
3.643125e-10,1.732656e-01
3.683125e-10,1.692344e-01
3.723125e-10,1.655000e-01
3.763125e-10,1.602500e-01
3.803125e-10,1.570000e-01
3.843125e-10,1.522656e-01
3.883125e-10,1.492813e-01
3.923125e-10,1.449688e-01
3.963125e-10,1.409219e-01
4.003125e-10,1.364531e-01
4.043125e-10,1.329375e-01
4.083125e-10,1.289219e-01
4.123125e-10,1.252031e-01
4.163125e-10,1.217500e-01
4.203125e-10,1.184375e-01
4.243125e-10,1.145781e-01
4.283125e-10,1.107344e-01
4.323125e-10,1.072813e-01
4.363125e-10,1.042500e-01
4.403125e-10,1.005938e-01
4.443125e-10,9.782813e-02
4.483125e-10,9.479688e-02
4.523125e-10,9.204688e-02
4.563125e-10,8.789063e-02
4.603125e-10,8.582813e-02
4.643125e-10,8.234375e-02
4.683125e-10,8.062500e-02
4.723125e-10,7.771875e-02
4.763125e-10,7.503125e-02
4.803125e-10,7.201563e-02
4.843125e-10,7.000000e-02
4.883125e-10,6.750000e-02
4.923125e-10,6.535938e-02
4.963125e-10,6.351563e-02
5.003125e-10,6.181250e-02
5.043125e-10,5.971875e-02
5.083125e-10,5.759375e-02
5.123125e-10,5.587500e-02
5.163125e-10,5.462500e-02
5.203125e-10,5.271875e-02
5.243125e-10,5.170313e-02
5.283125e-10,5.048438e-02
5.323125e-10,4.946875e-02
5.363125e-10,4.712500e-02
5.403125e-10,4.679688e-02
5.443125e-10,4.509375e-02
5.483125e-10,4.512500e-02
5.523125e-10,4.401563e-02
5.563125e-10,4.293750e-02
5.603125e-10,4.162500e-02
5.643125e-10,4.123438e-02
5.683125e-10,4.025000e-02
5.723125e-10,3.962500e-02
5.763125e-10,3.926563e-02
5.803125e-10,3.898438e-02
5.843125e-10,3.829688e-02
5.883125e-10,3.746875e-02
5.923125e-10,3.706250e-02
5.963125e-10,3.696875e-02
6.003125e-10,3.618750e-02
6.043125e-10,3.621875e-02
6.083125e-10,3.603125e-02
6.123125e-10,3.585938e-02
6.163125e-10,3.437500e-02
6.203125e-10,3.475000e-02
6.243125e-10,3.376563e-02
6.283125e-10,3.443750e-02
6.323125e-10,3.389063e-02
6.363125e-10,3.326563e-02
6.403125e-10,3.231250e-02
6.443125e-10,3.232813e-02
6.483125e-10,3.153125e-02
6.523125e-10,3.104688e-02
6.563125e-10,3.085938e-02
6.603125e-10,3.065625e-02
6.643125e-10,3.003125e-02
6.683125e-10,2.914063e-02
6.723125e-10,2.870313e-02
6.763125e-10,2.845313e-02
6.803125e-10,2.751563e-02
6.843125e-10,2.739063e-02
6.883125e-10,2.703125e-02
6.923125e-10,2.653125e-02
6.963125e-10,2.481250e-02
7.003125e-10,2.487500e-02
7.043125e-10,2.362500e-02
7.083125e-10,2.403125e-02
7.123125e-10,2.318750e-02
7.163125e-10,2.228125e-02
7.203125e-10,2.100000e-02
7.243125e-10,2.076563e-02
7.283125e-10,1.965625e-02
7.323125e-10,1.889063e-02
7.363125e-10,1.851563e-02
7.403125e-10,1.809375e-02
7.443125e-10,1.731250e-02
7.483125e-10,1.623438e-02
7.523125e-10,1.567188e-02
7.563125e-10,1.534375e-02
7.603125e-10,1.437500e-02
7.643125e-10,1.425000e-02
7.683125e-10,1.393750e-02
7.723125e-10,1.340625e-02
7.763125e-10,1.182813e-02
7.803125e-10,1.196875e-02
7.843125e-10,1.084375e-02
7.883125e-10,1.148438e-02
7.923125e-10,1.087500e-02
7.963125e-10,1.026563e-02
8.003125e-10,9.234375e-03
8.043125e-10,9.296875e-03
8.083125e-10,8.515625e-03
8.123125e-10,8.109375e-03
8.163125e-10,8.156250e-03
8.203125e-10,8.078125e-03
8.243125e-10,7.734375e-03
8.283125e-10,7.062500e-03
8.323125e-10,6.890625e-03
8.363125e-10,7.046875e-03
8.403125e-10,6.531250e-03
8.443125e-10,6.906250e-03
8.483125e-10,7.015625e-03
8.523125e-10,6.921875e-03
8.563125e-10,5.796875e-03
8.603125e-10,6.328125e-03
8.643125e-10,5.562500e-03
8.683125e-10,6.671875e-03
8.723125e-10,6.468750e-03
8.763125e-10,6.234375e-03
8.803125e-10,5.578125e-03
8.843125e-10,5.921875e-03
8.883125e-10,5.484375e-03
8.923125e-10,5.406250e-03
8.963125e-10,5.781250e-03
9.003125e-10,5.843750e-03
9.043125e-10,5.750000e-03
9.083125e-10,5.296875e-03
9.123125e-10,5.250000e-03
9.163125e-10,5.640625e-03
9.203125e-10,5.296875e-03
9.243125e-10,5.796875e-03
9.283125e-10,5.984375e-03
9.323125e-10,5.984375e-03
9.363125e-10,4.984375e-03
9.403125e-10,5.562500e-03
9.443125e-10,4.796875e-03
9.483125e-10,5.984375e-03
9.523125e-10,5.812500e-03
9.563125e-10,5.593750e-03
9.603125e-10,4.984375e-03
9.643125e-10,5.312500e-03
9.683125e-10,4.906250e-03
9.723125e-10,4.906250e-03
9.763125e-10,5.312500e-03
9.803125e-10,5.312500e-03
9.843125e-10,5.234375e-03
9.883125e-10,4.843750e-03
9.923125e-10,4.781250e-03
9.963125e-10,5.250000e-03
1.000313e-09,4.968750e-03
1.004312e-09,5.515625e-03
1.008312e-09,5.750000e-03
1.012312e-09,5.859375e-03
1.016312e-09,4.968750e-03
1.020312e-09,5.703125e-03
1.024312e-09,5.015625e-03
1.028312e-09,6.296875e-03
1.032312e-09,6.265625e-03
1.036312e-09,6.171875e-03
1.040313e-09,5.734375e-03
1.044313e-09,6.218750e-03
1.048313e-09,6.000000e-03
1.052313e-09,6.171875e-03
1.056313e-09,6.765625e-03
1.060313e-09,6.937500e-03
1.064312e-09,7.015625e-03
1.068312e-09,6.812500e-03
1.072312e-09,6.906250e-03
1.076312e-09,7.546875e-03
1.080312e-09,7.421875e-03
1.084312e-09,8.125000e-03
1.088312e-09,8.500000e-03
1.092312e-09,8.765625e-03
1.096312e-09,8.000000e-03
1.100313e-09,8.906250e-03
1.104313e-09,8.281250e-03
1.108313e-09,9.625000e-03
1.112313e-09,9.640625e-03
1.116313e-09,9.593750e-03
1.120313e-09,9.171875e-03
1.124312e-09,9.703125e-03
1.128312e-09,9.453125e-03
1.132312e-09,9.593750e-03
1.136312e-09,1.012500e-02
1.140312e-09,1.028125e-02
1.144312e-09,1.023438e-02
1.148312e-09,9.921875e-03
1.152312e-09,9.890625e-03
1.156312e-09,1.037500e-02
1.160313e-09,1.006250e-02
1.164313e-09,1.059375e-02
1.168313e-09,1.078125e-02
1.172313e-09,1.087500e-02
1.176313e-09,9.859375e-03
1.180313e-09,1.057813e-02
1.184312e-09,9.718750e-03
1.188312e-09,1.081250e-02
1.192312e-09,1.056250e-02
1.196312e-09,1.026563e-02
1.200312e-09,9.578125e-03
1.204312e-09,9.875000e-03
1.208312e-09,9.375000e-03
1.212312e-09,9.265625e-03
1.216312e-09,9.562500e-03
1.220313e-09,9.546875e-03
1.224313e-09,9.234375e-03
1.228313e-09,8.718750e-03
1.232313e-09,8.531250e-03
1.236313e-09,8.828125e-03
1.240313e-09,8.328125e-03
1.244312e-09,8.750000e-03
1.248312e-09,8.828125e-03
1.252312e-09,8.859375e-03
1.256312e-09,7.703125e-03
1.260312e-09,8.390625e-03
1.264312e-09,7.500000e-03
1.268312e-09,8.593750e-03
1.272312e-09,8.343750e-03
1.276312e-09,8.093750e-03
1.280313e-09,7.453125e-03
1.284313e-09,7.812500e-03
1.288313e-09,7.406250e-03
1.292313e-09,7.421875e-03
1.296313e-09,7.843750e-03
1.300313e-09,8.031250e-03
1.304312e-09,7.890625e-03
1.308312e-09,7.546875e-03
1.312312e-09,7.593750e-03
1.316312e-09,8.093750e-03
1.320312e-09,7.812500e-03
1.324312e-09,8.500000e-03
1.328312e-09,8.828125e-03
1.332312e-09,9.125000e-03
1.336312e-09,8.156250e-03
1.340313e-09,9.109375e-03
1.344313e-09,8.484375e-03
1.348313e-09,9.843750e-03
1.352313e-09,9.828125e-03
1.356313e-09,9.828125e-03
1.360313e-09,9.421875e-03
1.364312e-09,1.001563e-02
1.368312e-09,9.812500e-03
1.372312e-09,1.001563e-02
1.376312e-09,1.064063e-02
1.380312e-09,1.101563e-02
1.384312e-09,1.101563e-02
1.388312e-09,1.081250e-02
1.392312e-09,1.098438e-02
1.396312e-09,1.159375e-02
1.400313e-09,1.137500e-02
1.404313e-09,1.214063e-02
1.408313e-09,1.250000e-02
1.412313e-09,1.284375e-02
1.416313e-09,1.182813e-02
1.420313e-09,1.275000e-02
1.424312e-09,1.206250e-02
1.428312e-09,1.337500e-02
1.432312e-09,1.326563e-02
1.436312e-09,1.314063e-02
1.440312e-09,1.259375e-02
1.444312e-09,1.304688e-02
1.448312e-09,1.267188e-02
1.452312e-09,1.268750e-02
1.456312e-09,1.309375e-02
1.460313e-09,1.326563e-02
1.464313e-09,1.303125e-02
1.468313e-09,1.259375e-02
1.472313e-09,1.251563e-02
1.476313e-09,1.284375e-02
1.480312e-09,1.235938e-02
1.484312e-09,1.284375e-02
1.488312e-09,1.292188e-02
1.492312e-09,1.298438e-02
1.496312e-09,1.164063e-02
1.500312e-09,1.228125e-02
1.504312e-09,1.129688e-02
1.508312e-09,1.232813e-02
1.512312e-09,1.192188e-02
1.516312e-09,1.151563e-02
1.520313e-09,1.070313e-02
1.524313e-09,1.087500e-02
1.528313e-09,1.025000e-02
1.532313e-09,1.001563e-02
1.536313e-09,1.017188e-02
1.540312e-09,1.012500e-02
1.544312e-09,9.671875e-03
1.548312e-09,9.015625e-03
1.552312e-09,8.765625e-03
1.556312e-09,8.921875e-03
1.560312e-09,8.265625e-03
1.564312e-09,8.609375e-03
1.568312e-09,8.562500e-03
1.572312e-09,8.500000e-03
1.576312e-09,7.062500e-03
1.580313e-09,7.640625e-03
1.584313e-09,6.593750e-03
1.588313e-09,7.578125e-03
1.592313e-09,7.156250e-03
1.596313e-09,6.734375e-03
1.600312e-09,5.937500e-03
1.604312e-09,6.140625e-03
1.608312e-09,5.562500e-03
1.612312e-09,5.390625e-03
1.616312e-09,5.625000e-03
1.620312e-09,5.671875e-03
1.624312e-09,5.343750e-03
1.628312e-09,4.812500e-03
1.632312e-09,4.687500e-03
1.636312e-09,5.000000e-03
1.640313e-09,4.500000e-03
1.644313e-09,5.031250e-03
1.648313e-09,5.171875e-03
1.652313e-09,5.312500e-03
1.656313e-09,4.078125e-03
1.660312e-09,4.859375e-03
1.664312e-09,4.046875e-03
1.668312e-09,5.250000e-03
1.672312e-09,5.062500e-03
1.676312e-09,4.890625e-03
1.680312e-09,4.312500e-03
1.684312e-09,4.781250e-03
1.688312e-09,4.421875e-03
1.692312e-09,4.500000e-03
1.696312e-09,4.968750e-03
1.700313e-09,5.265625e-03
1.704313e-09,5.156250e-03
1.708313e-09,4.843750e-03
1.712313e-09,4.953125e-03
1.716313e-09,5.468750e-03
1.720312e-09,5.187500e-03
1.724312e-09,5.906250e-03
1.728312e-09,6.218750e-03
1.732312e-09,6.546875e-03
1.736312e-09,5.453125e-03
1.740312e-09,6.390625e-03
1.744312e-09,5.703125e-03
1.748312e-09,7.015625e-03
1.752312e-09,6.937500e-03
1.756312e-09,6.843750e-03
