Measurements-streak-laser/Photodiode-on-Tek-12bit-4GHz/Tek000_ch1_20190613133038781.csv

Model,MSO64
Waveform Type,ANALOG
Horizontal Units,s
Sample Interval,4.000000e-12
Record Length,1000
Zero Index,310.265625
Vertical Units,V

TIME,CH1
-1.241063e-09,7.546875e-03
-1.237063e-09,7.281250e-03
-1.233063e-09,7.000000e-03
-1.229063e-09,6.296875e-03
-1.225062e-09,6.625000e-03
-1.221062e-09,6.125000e-03
-1.217062e-09,6.031250e-03
-1.213062e-09,6.343750e-03
-1.209062e-09,6.437500e-03
-1.205062e-09,6.140625e-03
-1.201062e-09,5.625000e-03
-1.197062e-09,5.515625e-03
-1.193062e-09,5.812500e-03
-1.189062e-09,5.296875e-03
-1.185063e-09,5.796875e-03
-1.181063e-09,5.875000e-03
-1.177063e-09,5.968750e-03
-1.173063e-09,4.640625e-03
-1.169063e-09,5.328125e-03
-1.165062e-09,4.406250e-03
-1.161062e-09,5.500000e-03
-1.157062e-09,5.171875e-03
-1.153062e-09,4.859375e-03
-1.149062e-09,4.140625e-03
-1.145062e-09,4.421875e-03
-1.141062e-09,3.906250e-03
-1.137062e-09,3.796875e-03
-1.133062e-09,4.093750e-03
-1.129062e-09,4.187500e-03
-1.125063e-09,3.890625e-03
-1.121063e-09,3.375000e-03
-1.117063e-09,3.281250e-03
-1.113063e-09,3.609375e-03
-1.109063e-09,3.109375e-03
-1.105063e-09,3.640625e-03
-1.101062e-09,3.765625e-03
-1.097062e-09,3.906250e-03
-1.093062e-09,2.625000e-03
-1.089062e-09,3.375000e-03
-1.085062e-09,2.515625e-03
-1.081062e-09,3.687500e-03
-1.077062e-09,3.437500e-03
-1.073062e-09,3.203125e-03
-1.069062e-09,2.578125e-03
-1.065063e-09,2.968750e-03
-1.061063e-09,2.562500e-03
-1.057063e-09,2.562500e-03
-1.053063e-09,2.968750e-03
-1.049063e-09,3.187500e-03
-1.045063e-09,3.000000e-03
-1.041062e-09,2.640625e-03
-1.037062e-09,2.671875e-03
-1.033062e-09,3.125000e-03
-1.029062e-09,2.765625e-03
-1.025062e-09,3.437500e-03
-1.021062e-09,3.703125e-03
-1.017062e-09,3.984375e-03
-1.013062e-09,2.859375e-03
-1.009062e-09,3.750000e-03
-1.005063e-09,3.031250e-03
-1.001063e-09,4.328125e-03
-9.970625e-10,4.234375e-03
-9.930625e-10,4.140625e-03
-9.890625e-10,3.640625e-03
-9.850625e-10,4.156250e-03
-9.810625e-10,3.859375e-03
-9.770625e-10,3.984375e-03
-9.730625e-10,4.500000e-03
-9.690625e-10,4.828125e-03
-9.650625e-10,4.750000e-03
-9.610625e-10,4.468750e-03
-9.570625e-10,4.578125e-03
-9.530625e-10,5.109375e-03
-9.490625e-10,4.828125e-03
-9.450625e-10,5.546875e-03
-9.410625e-10,5.859375e-03
-9.370625e-10,6.187500e-03
-9.330625e-10,5.093750e-03
-9.290625e-10,6.000000e-03
-9.250625e-10,5.296875e-03
-9.210625e-10,6.578125e-03
-9.170625e-10,6.484375e-03
-9.130625e-10,6.375000e-03
-9.090625e-10,5.859375e-03
-9.050625e-10,6.343750e-03
-9.010625e-10,6.031250e-03
-8.970625e-10,6.109375e-03
-8.930625e-10,6.593750e-03
-8.890625e-10,6.859375e-03
-8.850625e-10,6.734375e-03
-8.810625e-10,6.390625e-03
-8.770625e-10,6.437500e-03
-8.730625e-10,6.906250e-03
-8.690625e-10,6.546875e-03
-8.650625e-10,7.203125e-03
-8.610625e-10,7.453125e-03
-8.570625e-10,7.703125e-03
-8.530625e-10,6.562500e-03
-8.490625e-10,7.406250e-03
-8.450625e-10,6.640625e-03
-8.410625e-10,7.812500e-03
-8.370625e-10,7.671875e-03
-8.330625e-10,7.515625e-03
-8.290625e-10,6.968750e-03
-8.250625e-10,7.406250e-03
-8.210625e-10,7.031250e-03
-8.170625e-10,7.093750e-03
-8.130625e-10,7.531250e-03
-8.090625e-10,7.765625e-03
-8.050625e-10,7.640625e-03
-8.010625e-10,7.265625e-03
-7.970625e-10,7.296875e-03
-7.930625e-10,7.734375e-03
-7.890625e-10,7.375000e-03
-7.850625e-10,8.031250e-03
-7.810625e-10,8.281250e-03
-7.770625e-10,8.515625e-03
-7.730625e-10,7.390625e-03
-7.690625e-10,8.250000e-03
-7.650625e-10,7.484375e-03
-7.610625e-10,8.640625e-03
-7.570625e-10,8.515625e-03
-7.530625e-10,8.375000e-03
-7.490625e-10,7.843750e-03
-7.450625e-10,8.265625e-03
-7.410625e-10,7.875000e-03
-7.370625e-10,7.968750e-03
-7.330625e-10,8.390625e-03
-7.290625e-10,8.593750e-03
-7.250625e-10,8.500000e-03
-7.210625e-10,8.093750e-03
-7.170625e-10,8.093750e-03
-7.130625e-10,8.500000e-03
-7.090625e-10,8.109375e-03
-7.050625e-10,8.703125e-03
-7.010625e-10,8.906250e-03
-6.970625e-10,9.078125e-03
-6.930625e-10,7.875000e-03
-6.890625e-10,8.671875e-03
-6.850625e-10,7.875000e-03
-6.810625e-10,8.921875e-03
-6.770625e-10,8.734375e-03
-6.730625e-10,8.500000e-03
-6.690625e-10,7.890625e-03
-6.650625e-10,8.203125e-03
-6.610625e-10,7.687500e-03
-6.570625e-10,7.687500e-03
-6.530625e-10,8.000000e-03
-6.490625e-10,8.093750e-03
-6.450625e-10,7.921875e-03
-6.410625e-10,7.421875e-03
-6.370625e-10,7.312500e-03
-6.330625e-10,7.609375e-03
-6.290625e-10,7.156250e-03
-6.250625e-10,7.656250e-03
-6.210625e-10,7.765625e-03
-6.170625e-10,7.859375e-03
-6.130625e-10,6.562500e-03
-6.090625e-10,7.296875e-03
-6.050625e-10,6.484375e-03
-6.010625e-10,7.484375e-03
-5.970625e-10,7.281250e-03
-5.930625e-10,7.031250e-03
-5.890625e-10,6.390625e-03
-5.850625e-10,6.687500e-03
-5.810625e-10,6.187500e-03
-5.770625e-10,6.203125e-03
-5.730625e-10,6.562500e-03
-5.690625e-10,6.671875e-03
-5.650625e-10,6.546875e-03
-5.610625e-10,6.109375e-03
-5.570625e-10,6.078125e-03
-5.530625e-10,6.468750e-03
-5.490625e-10,6.093750e-03
-5.450625e-10,6.703125e-03
-5.410625e-10,6.906250e-03
-5.370625e-10,7.093750e-03
-5.330625e-10,5.875000e-03
-5.290625e-10,6.703125e-03
-5.250625e-10,6.015625e-03
-5.210625e-10,7.125000e-03
-5.170625e-10,7.046875e-03
-5.130625e-10,6.875000e-03
-5.090625e-10,6.328125e-03
-5.050625e-10,6.718750e-03
-5.010625e-10,6.328125e-03
-4.970625e-10,6.375000e-03
-4.930625e-10,6.812500e-03
-4.890625e-10,6.968750e-03
-4.850625e-10,6.843750e-03
-4.810625e-10,6.437500e-03
-4.770625e-10,6.453125e-03
-4.730625e-10,6.859375e-03
-4.690625e-10,6.421875e-03
-4.650625e-10,7.015625e-03
-4.610625e-10,7.156250e-03
-4.570625e-10,7.281250e-03
-4.530625e-10,6.000000e-03
-4.490625e-10,6.671875e-03
-4.450625e-10,5.875000e-03
-4.410625e-10,6.859375e-03
-4.370625e-10,6.656250e-03
-4.330625e-10,6.296875e-03
-4.290625e-10,5.578125e-03
-4.250625e-10,5.796875e-03
-4.210625e-10,5.250000e-03
-4.170625e-10,5.046875e-03
-4.130625e-10,5.296875e-03
-4.090625e-10,5.234375e-03
-4.050625e-10,4.843750e-03
-4.010625e-10,4.234375e-03
-3.970625e-10,4.062500e-03
-3.930625e-10,4.265625e-03
-3.890625e-10,3.593750e-03
-3.850625e-10,3.984375e-03
-3.810625e-10,3.953125e-03
-3.770625e-10,3.875000e-03
-3.730625e-10,2.468750e-03
-3.690625e-10,2.953125e-03
-3.650625e-10,2.015625e-03
-3.610625e-10,2.890625e-03
-3.570625e-10,2.593750e-03
-3.530625e-10,2.140625e-03
-3.490625e-10,1.406250e-03
-3.450625e-10,1.593750e-03
-3.410625e-10,1.093750e-03
-3.370625e-10,8.906250e-04
-3.330625e-10,1.171875e-03
-3.290625e-10,1.203125e-03
-3.250625e-10,8.906250e-04
-3.210625e-10,4.531250e-04
-3.170625e-10,4.375000e-04
-3.130625e-10,8.281250e-04
-3.090625e-10,3.750000e-04
-3.050625e-10,9.687500e-04
-3.010625e-10,1.218750e-03
-2.970625e-10,1.437500e-03
-2.930625e-10,3.437500e-04
-2.890625e-10,1.125000e-03
-2.850625e-10,5.000000e-04
-2.810625e-10,1.734375e-03
-2.770625e-10,1.750000e-03
-2.730625e-10,1.671875e-03
-2.690625e-10,1.328125e-03
-2.650625e-10,1.890625e-03
-2.610625e-10,1.734375e-03
-2.570625e-10,1.890625e-03
-2.530625e-10,2.500000e-03
-2.490625e-10,2.875000e-03
-2.450625e-10,2.890625e-03
-2.410625e-10,2.781250e-03
-2.370625e-10,3.046875e-03
-2.330625e-10,3.687500e-03
-2.290625e-10,3.500000e-03
-2.250625e-10,4.312500e-03
-2.210625e-10,4.765625e-03
-2.170625e-10,5.156250e-03
-2.130625e-10,4.218750e-03
-2.090625e-10,5.125000e-03
-2.050625e-10,4.562500e-03
-2.010625e-10,5.875000e-03
-1.970625e-10,5.875000e-03
-1.930625e-10,5.828125e-03
-1.890625e-10,5.453125e-03
-1.850625e-10,5.968750e-03
-1.810625e-10,5.703125e-03
-1.770625e-10,5.796875e-03
-1.730625e-10,6.265625e-03
-1.690625e-10,6.515625e-03
-1.650625e-10,6.375000e-03
-1.610625e-10,6.125000e-03
-1.570625e-10,6.203125e-03
-1.530625e-10,6.625000e-03
-1.490625e-10,6.312500e-03
-1.450625e-10,6.968750e-03
-1.410625e-10,7.265625e-03
-1.370625e-10,7.531250e-03
-1.330625e-10,6.531250e-03
-1.290625e-10,7.375000e-03
-1.250625e-10,6.734375e-03
-1.210625e-10,8.078125e-03
-1.170625e-10,8.078125e-03
-1.130625e-10,8.125000e-03
-1.090625e-10,7.906250e-03
-1.050625e-10,8.640625e-03
-1.010625e-10,8.640625e-03
-9.706250e-11,9.093750e-03
-9.306250e-11,9.968750e-03
-8.906250e-11,1.071875e-02
-8.506250e-11,1.112500e-02
-8.106250e-11,1.154688e-02
-7.706250e-11,1.234375e-02
-7.306250e-11,1.354688e-02
-6.906250e-11,1.414063e-02
-6.506250e-11,1.579688e-02
-6.106250e-11,1.715625e-02
-5.706250e-11,1.864063e-02
-5.306250e-11,1.892188e-02
-4.906250e-11,2.110938e-02
-4.506250e-11,2.187500e-02
-4.106250e-11,2.476563e-02
-3.706250e-11,2.632813e-02
-3.306250e-11,2.806250e-02
-2.906250e-11,2.957813e-02
-2.506250e-11,3.210938e-02
-2.106250e-11,3.398438e-02
-1.706250e-11,3.632813e-02
-1.306250e-11,3.917188e-02
-9.062500e-12,4.196875e-02
-5.062500e-12,4.439063e-02
-1.062500e-12,4.685938e-02
2.937500e-12,4.971875e-02
6.937500e-12,5.300000e-02
1.093750e-11,5.565625e-02
1.493750e-11,5.939063e-02
1.893750e-11,6.278125e-02
2.293750e-11,6.631250e-02
2.693750e-11,6.856250e-02
3.093750e-11,7.268750e-02
3.493750e-11,7.532813e-02
3.893750e-11,8.001563e-02
4.293750e-11,8.326563e-02
4.693750e-11,8.668750e-02
5.093750e-11,8.971875e-02
5.493750e-11,9.365625e-02
5.893750e-11,9.687500e-02
6.293750e-11,1.004219e-01
6.693750e-11,1.043594e-01
7.093750e-11,1.081563e-01
7.493750e-11,1.113594e-01
7.893750e-11,1.144844e-01
8.293750e-11,1.178750e-01
8.693750e-11,1.215156e-01
9.093750e-11,1.244219e-01
9.493750e-11,1.282188e-01
9.893750e-11,1.314688e-01
1.029375e-10,1.347656e-01
1.069375e-10,1.365781e-01
1.109375e-10,1.401250e-01
1.149375e-10,1.420156e-01
1.189375e-10,1.457813e-01
1.229375e-10,1.479375e-01
1.269375e-10,1.501563e-01
1.309375e-10,1.517813e-01
1.349375e-10,1.541719e-01
1.389375e-10,1.557344e-01
1.429375e-10,1.574844e-01
1.469375e-10,1.594688e-01
1.509375e-10,1.612344e-01
1.549375e-10,1.622188e-01
1.589375e-10,1.630313e-01
1.629375e-10,1.640156e-01
1.669375e-10,1.651719e-01
1.709375e-10,1.655313e-01
1.749375e-10,1.666250e-01
1.789375e-10,1.671094e-01
1.829375e-10,1.676094e-01
1.869375e-10,1.665313e-01
1.909375e-10,1.672188e-01
1.949375e-10,1.661875e-01
1.989375e-10,1.669531e-01
2.029375e-10,1.661250e-01
2.069375e-10,1.653281e-01
2.109375e-10,1.639531e-01
2.149375e-10,1.633438e-01
2.189375e-10,1.619531e-01
2.229375e-10,1.607656e-01
2.269375e-10,1.598125e-01
2.309375e-10,1.586875e-01
2.349375e-10,1.568438e-01
2.389375e-10,1.548438e-01
2.429375e-10,1.531250e-01
2.469375e-10,1.516250e-01
2.509375e-10,1.493750e-01
2.549375e-10,1.479219e-01
2.589375e-10,1.459531e-01
2.629375e-10,1.441094e-01
2.669375e-10,1.407188e-01
2.709375e-10,1.392188e-01
2.749375e-10,1.361250e-01
2.789375e-10,1.348438e-01
2.829375e-10,1.321094e-01
2.869375e-10,1.294844e-01
2.909375e-10,1.263906e-01
2.949375e-10,1.241875e-01
2.989375e-10,1.213125e-01
3.029375e-10,1.187188e-01
3.069375e-10,1.164375e-01
3.109375e-10,1.140938e-01
3.149375e-10,1.111563e-01
3.189375e-10,1.081406e-01
3.229375e-10,1.055156e-01
3.269375e-10,1.032188e-01
3.309375e-10,1.002188e-01
3.349375e-10,9.814063e-02
3.389375e-10,9.565625e-02
3.429375e-10,9.334375e-02
3.469375e-10,8.959375e-02
3.509375e-10,8.784375e-02
3.549375e-10,8.459375e-02
3.589375e-10,8.320313e-02
3.629375e-10,8.046875e-02
3.669375e-10,7.790625e-02
3.709375e-10,7.492188e-02
3.749375e-10,7.296875e-02
3.789375e-10,7.037500e-02
3.829375e-10,6.815625e-02
3.869375e-10,6.626563e-02
3.909375e-10,6.439063e-02
3.949375e-10,6.206250e-02
3.989375e-10,5.965625e-02
4.029375e-10,5.767188e-02
4.069375e-10,5.612500e-02
4.109375e-10,5.387500e-02
4.149375e-10,5.260938e-02
4.189375e-10,5.103125e-02
4.229375e-10,4.962500e-02
4.269375e-10,4.681250e-02
4.309375e-10,4.609375e-02
4.349375e-10,4.387500e-02
4.389375e-10,4.356250e-02
4.429375e-10,4.196875e-02
4.469375e-10,4.051563e-02
4.509375e-10,3.870313e-02
4.549375e-10,3.792188e-02
4.589375e-10,3.651563e-02
4.629375e-10,3.551563e-02
4.669375e-10,3.484375e-02
4.709375e-10,3.420313e-02
4.749375e-10,3.314063e-02
4.789375e-10,3.200000e-02
4.829375e-10,3.126563e-02
4.869375e-10,3.096875e-02
4.909375e-10,2.996875e-02
4.949375e-10,2.989063e-02
4.989375e-10,2.954688e-02
5.029375e-10,2.931250e-02
5.069375e-10,2.768750e-02
5.109375e-10,2.810938e-02
5.149375e-10,2.703125e-02
5.189375e-10,2.779688e-02
5.229375e-10,2.729688e-02
5.269375e-10,2.682813e-02
5.309375e-10,2.601563e-02
5.349375e-10,2.617188e-02
5.389375e-10,2.562500e-02
5.429375e-10,2.543750e-02
5.469375e-10,2.556250e-02
5.509375e-10,2.564063e-02
5.549375e-10,2.529688e-02
5.589375e-10,2.478125e-02
5.629375e-10,2.464063e-02
5.669375e-10,2.484375e-02
5.709375e-10,2.429688e-02
5.749375e-10,2.462500e-02
5.789375e-10,2.464063e-02
5.829375e-10,2.464063e-02
5.869375e-10,2.326563e-02
5.909375e-10,2.381250e-02
5.949375e-10,2.285938e-02
5.989375e-10,2.371875e-02
6.029375e-10,2.325000e-02
6.069375e-10,2.270313e-02
6.109375e-10,2.179688e-02
6.149375e-10,2.184375e-02
6.189375e-10,2.107813e-02
6.229375e-10,2.065625e-02
6.269375e-10,2.056250e-02
6.309375e-10,2.035938e-02
6.349375e-10,1.971875e-02
6.389375e-10,1.884375e-02
6.429375e-10,1.837500e-02
6.469375e-10,1.820313e-02
6.509375e-10,1.728125e-02
6.549375e-10,1.723438e-02
6.589375e-10,1.687500e-02
6.629375e-10,1.643750e-02
6.669375e-10,1.471875e-02
6.709375e-10,1.485938e-02
6.749375e-10,1.356250e-02
6.789375e-10,1.407813e-02
6.829375e-10,1.329688e-02
6.869375e-10,1.246875e-02
6.909375e-10,1.125000e-02
6.949375e-10,1.109375e-02
6.989375e-10,1.009375e-02
7.029375e-10,9.468750e-03
7.069375e-10,9.250000e-03
7.109375e-10,8.937500e-03
7.149375e-10,8.250000e-03
7.189375e-10,7.328125e-03
7.229375e-10,6.906250e-03
7.269375e-10,6.781250e-03
7.309375e-10,5.968750e-03
7.349375e-10,6.093750e-03
7.389375e-10,5.953125e-03
7.429375e-10,5.718750e-03
7.469375e-10,4.281250e-03
7.509375e-10,4.703125e-03
7.549375e-10,3.734375e-03
7.589375e-10,4.671875e-03
7.629375e-10,4.296875e-03
7.669375e-10,3.937500e-03
7.709375e-10,3.187500e-03
7.749375e-10,3.515625e-03
7.789375e-10,3.015625e-03
7.829375e-10,2.921875e-03
7.869375e-10,3.281250e-03
7.909375e-10,3.500000e-03
7.949375e-10,3.390625e-03
7.989375e-10,3.015625e-03
8.029375e-10,3.125000e-03
8.069375e-10,3.609375e-03
8.109375e-10,3.343750e-03
8.149375e-10,4.046875e-03
8.189375e-10,4.437500e-03
8.229375e-10,4.703125e-03
8.269375e-10,3.781250e-03
8.309375e-10,4.656250e-03
8.349375e-10,4.109375e-03
8.389375e-10,5.500000e-03
8.429375e-10,5.531250e-03
8.469375e-10,5.546875e-03
8.509375e-10,5.125000e-03
8.549375e-10,5.718750e-03
8.589375e-10,5.500000e-03
8.629375e-10,5.656250e-03
8.669375e-10,6.234375e-03
8.709375e-10,6.531250e-03
8.749375e-10,6.562500e-03
8.789375e-10,6.296875e-03
8.829375e-10,6.406250e-03
8.869375e-10,6.937500e-03
8.909375e-10,6.687500e-03
8.949375e-10,7.343750e-03
8.989375e-10,7.625000e-03
9.029375e-10,7.796875e-03
9.069375e-10,6.765625e-03
9.109375e-10,7.500000e-03
9.149375e-10,6.734375e-03
9.189375e-10,7.953125e-03
9.229375e-10,7.781250e-03
9.269375e-10,7.578125e-03
9.309375e-10,6.937500e-03
9.349375e-10,7.265625e-03
9.389375e-10,6.828125e-03
9.429375e-10,6.765625e-03
9.469375e-10,7.109375e-03
9.509375e-10,7.125000e-03
9.549375e-10,6.921875e-03
9.589375e-10,6.437500e-03
9.629375e-10,6.312500e-03
9.669375e-10,6.656250e-03
9.709375e-10,6.218750e-03
9.749375e-10,6.687500e-03
9.789375e-10,6.781250e-03
9.829375e-10,6.828125e-03
9.869375e-10,5.671875e-03
9.909375e-10,6.328125e-03
9.949375e-10,5.468750e-03
9.989375e-10,6.609375e-03
1.002937e-09,6.390625e-03
1.006938e-09,6.140625e-03
1.010938e-09,5.515625e-03
1.014938e-09,5.859375e-03
1.018938e-09,5.468750e-03
1.022938e-09,5.468750e-03
1.026938e-09,5.890625e-03
1.030937e-09,5.984375e-03
1.034937e-09,5.859375e-03
1.038937e-09,5.500000e-03
1.042937e-09,5.484375e-03
1.046937e-09,5.968750e-03
1.050937e-09,5.671875e-03
1.054937e-09,6.281250e-03
1.058937e-09,6.546875e-03
1.062937e-09,6.750000e-03
1.066938e-09,5.765625e-03
1.070938e-09,6.609375e-03
1.074938e-09,5.890625e-03
1.078938e-09,7.171875e-03
1.082938e-09,7.078125e-03
1.086938e-09,6.968750e-03
1.090937e-09,6.468750e-03
1.094937e-09,6.937500e-03
1.098937e-09,6.640625e-03
1.102937e-09,6.718750e-03
1.106937e-09,7.218750e-03
1.110937e-09,7.406250e-03
1.114937e-09,7.312500e-03
1.118937e-09,6.968750e-03
1.122937e-09,6.984375e-03
1.126938e-09,7.453125e-03
1.130938e-09,7.109375e-03
1.134938e-09,7.703125e-03
1.138938e-09,7.906250e-03
1.142938e-09,8.062500e-03
1.146938e-09,6.968750e-03
1.150937e-09,7.750000e-03
1.154937e-09,6.921875e-03
1.158937e-09,8.078125e-03
1.162937e-09,7.843750e-03
1.166937e-09,7.593750e-03
1.170937e-09,6.937500e-03
1.174937e-09,7.281250e-03
1.178937e-09,6.812500e-03
1.182937e-09,6.750000e-03
1.186938e-09,7.093750e-03
1.190938e-09,7.156250e-03
1.194938e-09,6.890625e-03
1.198938e-09,6.406250e-03
1.202938e-09,6.296875e-03
1.206938e-09,6.625000e-03
1.210937e-09,6.140625e-03
1.214937e-09,6.640625e-03
1.218937e-09,6.765625e-03
1.222937e-09,6.859375e-03
1.226937e-09,5.671875e-03
1.230937e-09,6.406250e-03
1.234937e-09,5.546875e-03
1.238937e-09,6.687500e-03
1.242937e-09,6.453125e-03
1.246938e-09,6.234375e-03
1.250938e-09,5.609375e-03
1.254938e-09,6.000000e-03
1.258938e-09,5.609375e-03
1.262938e-09,5.640625e-03
1.266937e-09,6.078125e-03
1.270937e-09,6.296875e-03
1.274937e-09,6.171875e-03
1.278937e-09,5.843750e-03
1.282937e-09,5.906250e-03
1.286937e-09,6.421875e-03
1.290937e-09,6.125000e-03
1.294937e-09,6.843750e-03
1.298937e-09,7.187500e-03
1.302937e-09,7.515625e-03
1.306938e-09,6.515625e-03
1.310938e-09,7.484375e-03
1.314938e-09,6.859375e-03
1.318938e-09,8.250000e-03
1.322938e-09,8.234375e-03
1.326937e-09,8.234375e-03
1.330937e-09,7.843750e-03
1.334937e-09,8.437500e-03
1.338937e-09,8.250000e-03
1.342937e-09,8.468750e-03
1.346937e-09,9.093750e-03
1.350937e-09,9.500000e-03
1.354937e-09,9.500000e-03
1.358937e-09,9.312500e-03
1.362937e-09,9.500000e-03
1.366938e-09,1.010938e-02
1.370938e-09,9.906250e-03
1.374938e-09,1.068750e-02
1.378938e-09,1.104688e-02
1.382938e-09,1.140625e-02
1.386937e-09,1.037500e-02
1.390937e-09,1.131250e-02
1.394937e-09,1.062500e-02
1.398937e-09,1.193750e-02
1.402937e-09,1.184375e-02
1.406937e-09,1.171875e-02
1.410937e-09,1.117188e-02
1.414937e-09,1.160938e-02
1.418937e-09,1.123438e-02
1.422937e-09,1.125000e-02
1.426938e-09,1.165625e-02
1.430938e-09,1.181250e-02
1.434938e-09,1.156250e-02
1.438938e-09,1.110938e-02
1.442938e-09,1.101563e-02
1.446937e-09,1.132813e-02
1.450937e-09,1.081250e-02
1.454937e-09,1.128125e-02
1.458937e-09,1.132813e-02
1.462937e-09,1.135938e-02
1.466937e-09,9.984375e-03
1.470937e-09,1.059375e-02
1.474937e-09,9.578125e-03
1.478937e-09,1.057813e-02
1.482937e-09,1.014063e-02
1.486938e-09,9.703125e-03
1.490938e-09,8.843750e-03
1.494938e-09,8.984375e-03
1.498938e-09,8.312500e-03
1.502938e-09,8.046875e-03
1.506937e-09,8.187500e-03
1.510937e-09,8.109375e-03
1.514937e-09,7.625000e-03
1.518937e-09,6.937500e-03
1.522937e-09,6.656250e-03
1.526937e-09,6.781250e-03
1.530937e-09,6.109375e-03
1.534937e-09,6.437500e-03
1.538937e-09,6.375000e-03
1.542937e-09,6.312500e-03
1.546938e-09,4.859375e-03
1.550938e-09,5.437500e-03
1.554938e-09,4.390625e-03
1.558938e-09,5.390625e-03
1.562938e-09,4.968750e-03
1.566937e-09,4.578125e-03
1.570937e-09,3.781250e-03
1.574937e-09,4.031250e-03
1.578937e-09,3.468750e-03
1.582937e-09,3.328125e-03
1.586937e-09,3.609375e-03
1.590937e-09,3.703125e-03
1.594937e-09,3.421875e-03
1.598937e-09,2.937500e-03
1.602937e-09,2.875000e-03
1.606938e-09,3.250000e-03
1.610938e-09,2.812500e-03
1.614938e-09,3.406250e-03
1.618938e-09,3.625000e-03
1.622938e-09,3.843750e-03
1.626937e-09,2.671875e-03
1.630937e-09,3.531250e-03
1.634937e-09,2.796875e-03
1.638937e-09,4.093750e-03
1.642937e-09,3.984375e-03
1.646937e-09,3.875000e-03
1.650937e-09,3.390625e-03
1.654937e-09,3.921875e-03
1.658937e-09,3.656250e-03
1.662937e-09,3.781250e-03
1.666938e-09,4.343750e-03
1.670938e-09,4.703125e-03
1.674938e-09,4.656250e-03
1.678938e-09,4.421875e-03
1.682938e-09,4.578125e-03
1.686937e-09,5.156250e-03
1.690937e-09,4.921875e-03
1.694937e-09,5.687500e-03
1.698937e-09,6.062500e-03
1.702937e-09,6.421875e-03
1.706937e-09,5.359375e-03
1.710937e-09,6.328125e-03
1.714937e-09,5.656250e-03
1.718937e-09,7.000000e-03
1.722937e-09,6.937500e-03
1.726938e-09,6.859375e-03
1.730938e-09,6.359375e-03
1.734938e-09,6.859375e-03
1.738938e-09,6.546875e-03
1.742938e-09,6.609375e-03
1.746937e-09,7.078125e-03
1.750937e-09,7.328125e-03
1.754937e-09,7.171875e-03
1.758937e-09,6.781250e-03
