Measurements-streak-laser/Photodiode-on-Tek-12bit-4GHz/Tek000_ch1_20190613133037077.csv

Model,MSO64
Waveform Type,ANALOG
Horizontal Units,s
Sample Interval,4.000000e-12
Record Length,1000
Zero Index,310.890625
Vertical Units,V

TIME,CH1
-1.243562e-09,5.421875e-03
-1.239562e-09,5.343750e-03
-1.235562e-09,5.671875e-03
-1.231563e-09,5.187500e-03
-1.227563e-09,5.718750e-03
-1.223563e-09,5.828125e-03
-1.219563e-09,5.968750e-03
-1.215563e-09,4.671875e-03
-1.211563e-09,5.406250e-03
-1.207562e-09,4.531250e-03
-1.203562e-09,5.671875e-03
-1.199562e-09,5.406250e-03
-1.195562e-09,5.140625e-03
-1.191562e-09,4.468750e-03
-1.187562e-09,4.828125e-03
-1.183562e-09,4.375000e-03
-1.179562e-09,4.328125e-03
-1.175562e-09,4.703125e-03
-1.171563e-09,4.875000e-03
-1.167563e-09,4.640625e-03
-1.163563e-09,4.203125e-03
-1.159563e-09,4.187500e-03
-1.155563e-09,4.593750e-03
-1.151563e-09,4.171875e-03
-1.147562e-09,4.781250e-03
-1.143562e-09,4.984375e-03
-1.139562e-09,5.203125e-03
-1.135562e-09,4.000000e-03
-1.131562e-09,4.828125e-03
-1.127562e-09,4.031250e-03
-1.123562e-09,5.281250e-03
-1.119562e-09,5.093750e-03
-1.115562e-09,4.921875e-03
-1.111563e-09,4.359375e-03
-1.107563e-09,4.796875e-03
-1.103563e-09,4.421875e-03
-1.099563e-09,4.453125e-03
-1.095563e-09,4.890625e-03
-1.091563e-09,5.125000e-03
-1.087562e-09,4.953125e-03
-1.083562e-09,4.578125e-03
-1.079562e-09,4.609375e-03
-1.075562e-09,5.031250e-03
-1.071562e-09,4.640625e-03
-1.067562e-09,5.265625e-03
-1.063562e-09,5.468750e-03
-1.059562e-09,5.687500e-03
-1.055562e-09,4.468750e-03
-1.051563e-09,5.265625e-03
-1.047563e-09,4.437500e-03
-1.043563e-09,5.625000e-03
-1.039563e-09,5.406250e-03
-1.035563e-09,5.156250e-03
-1.031563e-09,4.515625e-03
-1.027562e-09,4.875000e-03
-1.023562e-09,4.421875e-03
-1.019562e-09,4.359375e-03
-1.015562e-09,4.703125e-03
-1.011562e-09,4.828125e-03
-1.007562e-09,4.562500e-03
-1.003562e-09,4.078125e-03
-9.995625e-10,4.000000e-03
-9.955625e-10,4.312500e-03
-9.915625e-10,3.812500e-03
-9.875625e-10,4.328125e-03
-9.835625e-10,4.453125e-03
-9.795625e-10,4.562500e-03
-9.755625e-10,3.265625e-03
-9.715625e-10,3.984375e-03
-9.675625e-10,3.093750e-03
-9.635625e-10,4.203125e-03
-9.595625e-10,3.921875e-03
-9.555625e-10,3.640625e-03
-9.515625e-10,2.968750e-03
-9.475625e-10,3.312500e-03
-9.435625e-10,2.843750e-03
-9.395625e-10,2.796875e-03
-9.355625e-10,3.156250e-03
-9.315625e-10,3.328125e-03
-9.275625e-10,3.109375e-03
-9.235625e-10,2.687500e-03
-9.195625e-10,2.671875e-03
-9.155625e-10,3.078125e-03
-9.115625e-10,2.687500e-03
-9.075625e-10,3.312500e-03
-9.035625e-10,3.546875e-03
-8.995625e-10,3.781250e-03
-8.955625e-10,2.640625e-03
-8.915625e-10,3.500000e-03
-8.875625e-10,2.765625e-03
-8.835625e-10,4.000000e-03
-8.795625e-10,3.906250e-03
-8.755625e-10,3.796875e-03
-8.715625e-10,3.296875e-03
-8.675625e-10,3.812500e-03
-8.635625e-10,3.515625e-03
-8.595625e-10,3.640625e-03
-8.555625e-10,4.156250e-03
-8.515625e-10,4.484375e-03
-8.475625e-10,4.437500e-03
-8.435625e-10,4.156250e-03
-8.395625e-10,4.281250e-03
-8.355625e-10,4.812500e-03
-8.315625e-10,4.531250e-03
-8.275625e-10,5.281250e-03
-8.235625e-10,5.609375e-03
-8.195625e-10,5.921875e-03
-8.155625e-10,4.859375e-03
-8.115625e-10,5.781250e-03
-8.075625e-10,5.093750e-03
-8.035625e-10,6.328125e-03
-7.995625e-10,6.250000e-03
-7.955625e-10,6.156250e-03
-7.915625e-10,5.656250e-03
-7.875625e-10,6.125000e-03
-7.835625e-10,5.781250e-03
-7.795625e-10,5.890625e-03
-7.755625e-10,6.343750e-03
-7.715625e-10,6.578125e-03
-7.675625e-10,6.484375e-03
-7.635625e-10,6.093750e-03
-7.595625e-10,6.125000e-03
-7.555625e-10,6.546875e-03
-7.515625e-10,6.156250e-03
-7.475625e-10,6.781250e-03
-7.435625e-10,6.984375e-03
-7.395625e-10,7.187500e-03
-7.355625e-10,6.000000e-03
-7.315625e-10,6.812500e-03
-7.275625e-10,6.015625e-03
-7.235625e-10,7.109375e-03
-7.195625e-10,6.937500e-03
-7.155625e-10,6.750000e-03
-7.115625e-10,6.187500e-03
-7.075625e-10,6.546875e-03
-7.035625e-10,6.109375e-03
-6.995625e-10,6.156250e-03
-6.955625e-10,6.546875e-03
-6.915625e-10,6.718750e-03
-6.875625e-10,6.625000e-03
-6.835625e-10,6.218750e-03
-6.795625e-10,6.218750e-03
-6.755625e-10,6.625000e-03
-6.715625e-10,6.281250e-03
-6.675625e-10,6.890625e-03
-6.635625e-10,7.140625e-03
-6.595625e-10,7.375000e-03
-6.555625e-10,6.218750e-03
-6.515625e-10,7.093750e-03
-6.475625e-10,6.406250e-03
-6.435625e-10,7.546875e-03
-6.395625e-10,7.484375e-03
-6.355625e-10,7.375000e-03
-6.315625e-10,6.906250e-03
-6.275625e-10,7.343750e-03
-6.235625e-10,6.984375e-03
-6.195625e-10,7.140625e-03
-6.155625e-10,7.625000e-03
-6.115625e-10,7.843750e-03
-6.075625e-10,7.859375e-03
-6.035625e-10,7.531250e-03
-5.995625e-10,7.593750e-03
-5.955625e-10,8.062500e-03
-5.915625e-10,7.765625e-03
-5.875625e-10,8.437500e-03
-5.835625e-10,8.703125e-03
-5.795625e-10,8.921875e-03
-5.755625e-10,7.750000e-03
-5.715625e-10,8.609375e-03
-5.675625e-10,7.921875e-03
-5.635625e-10,9.015625e-03
-5.595625e-10,8.906250e-03
-5.555625e-10,8.718750e-03
-5.515625e-10,8.140625e-03
-5.475625e-10,8.468750e-03
-5.435625e-10,7.984375e-03
-5.395625e-10,7.984375e-03
-5.355625e-10,8.328125e-03
-5.315625e-10,8.375000e-03
-5.275625e-10,8.187500e-03
-5.235625e-10,7.656250e-03
-5.195625e-10,7.546875e-03
-5.155625e-10,7.812500e-03
-5.115625e-10,7.281250e-03
-5.075625e-10,7.750000e-03
-5.035625e-10,7.750000e-03
-4.995625e-10,7.750000e-03
-4.955625e-10,6.343750e-03
-4.915625e-10,6.921875e-03
-4.875625e-10,6.015625e-03
-4.835625e-10,6.875000e-03
-4.795625e-10,6.562500e-03
-4.755625e-10,6.125000e-03
-4.715625e-10,5.312500e-03
-4.675625e-10,5.453125e-03
-4.635625e-10,4.812500e-03
-4.595625e-10,4.593750e-03
-4.555625e-10,4.796875e-03
-4.515625e-10,4.687500e-03
-4.475625e-10,4.328125e-03
-4.435625e-10,3.703125e-03
-4.395625e-10,3.515625e-03
-4.355625e-10,3.734375e-03
-4.315625e-10,3.125000e-03
-4.275625e-10,3.562500e-03
-4.235625e-10,3.562500e-03
-4.195625e-10,3.578125e-03
-4.155625e-10,2.218750e-03
-4.115625e-10,2.812500e-03
-4.075625e-10,2.000000e-03
-4.035625e-10,2.968750e-03
-3.995625e-10,2.781250e-03
-3.955625e-10,2.468750e-03
-3.915625e-10,1.843750e-03
-3.875625e-10,2.156250e-03
-3.835625e-10,1.765625e-03
-3.795625e-10,1.718750e-03
-3.755625e-10,2.140625e-03
-3.715625e-10,2.296875e-03
-3.675625e-10,2.140625e-03
-3.635625e-10,1.796875e-03
-3.595625e-10,1.906250e-03
-3.555625e-10,2.421875e-03
-3.515625e-10,2.062500e-03
-3.475625e-10,2.781250e-03
-3.435625e-10,3.109375e-03
-3.395625e-10,3.390625e-03
-3.355625e-10,2.343750e-03
-3.315625e-10,3.203125e-03
-3.275625e-10,2.640625e-03
-3.235625e-10,3.890625e-03
-3.195625e-10,3.937500e-03
-3.155625e-10,3.875000e-03
-3.115625e-10,3.500000e-03
-3.075625e-10,4.046875e-03
-3.035625e-10,3.859375e-03
-2.995625e-10,3.984375e-03
-2.955625e-10,4.562500e-03
-2.915625e-10,4.859375e-03
-2.875625e-10,4.812500e-03
-2.835625e-10,4.609375e-03
-2.795625e-10,4.796875e-03
-2.755625e-10,5.359375e-03
-2.715625e-10,5.078125e-03
-2.675625e-10,5.781250e-03
-2.635625e-10,6.140625e-03
-2.595625e-10,6.406250e-03
-2.555625e-10,5.359375e-03
-2.515625e-10,6.140625e-03
-2.475625e-10,5.484375e-03
-2.435625e-10,6.656250e-03
-2.395625e-10,6.578125e-03
-2.355625e-10,6.406250e-03
-2.315625e-10,5.921875e-03
-2.275625e-10,6.312500e-03
-2.235625e-10,5.968750e-03
-2.195625e-10,5.921875e-03
-2.155625e-10,6.312500e-03
-2.115625e-10,6.437500e-03
-2.075625e-10,6.187500e-03
-2.035625e-10,5.843750e-03
-1.995625e-10,5.812500e-03
-1.955625e-10,6.171875e-03
-1.915625e-10,5.718750e-03
-1.875625e-10,6.250000e-03
-1.835625e-10,6.437500e-03
-1.795625e-10,6.578125e-03
-1.755625e-10,5.406250e-03
-1.715625e-10,6.093750e-03
-1.675625e-10,5.296875e-03
-1.635625e-10,6.437500e-03
-1.595625e-10,6.265625e-03
-1.555625e-10,6.078125e-03
-1.515625e-10,5.625000e-03
-1.475625e-10,6.062500e-03
-1.435625e-10,5.765625e-03
-1.395625e-10,5.875000e-03
-1.355625e-10,6.375000e-03
-1.315625e-10,6.718750e-03
-1.275625e-10,6.703125e-03
-1.235625e-10,6.640625e-03
-1.195625e-10,6.937500e-03
-1.155625e-10,7.609375e-03
-1.115625e-10,7.609375e-03
-1.075625e-10,8.625000e-03
-1.035625e-10,9.312500e-03
-9.956250e-11,1.004688e-02
-9.556250e-11,9.546875e-03
-9.156250e-11,1.092188e-02
-8.756250e-11,1.085938e-02
-8.356250e-11,1.282813e-02
-7.956250e-11,1.348438e-02
-7.556250e-11,1.423438e-02
-7.156250e-11,1.475000e-02
-6.756250e-11,1.625000e-02
-6.356250e-11,1.704688e-02
-5.956250e-11,1.831250e-02
-5.556250e-11,2.003125e-02
-5.156250e-11,2.165625e-02
-4.756250e-11,2.293750e-02
-4.356250e-11,2.425000e-02
-3.956250e-11,2.593750e-02
-3.556250e-11,2.804688e-02
-3.156250e-11,2.953125e-02
-2.756250e-11,3.210938e-02
-2.356250e-11,3.435938e-02
-1.956250e-11,3.675000e-02
-1.556250e-11,3.792188e-02
-1.156250e-11,4.096875e-02
-7.562500e-12,4.259375e-02
-3.562500e-12,4.629688e-02
4.375000e-13,4.864063e-02
4.437500e-12,5.117188e-02
8.437500e-12,5.340625e-02
1.243750e-11,5.662500e-02
1.643750e-11,5.917188e-02
2.043750e-11,6.214063e-02
2.443750e-11,6.557813e-02
2.843750e-11,6.893750e-02
3.243750e-11,7.182813e-02
3.643750e-11,7.475000e-02
4.043750e-11,7.800000e-02
4.443750e-11,8.160938e-02
4.843750e-11,8.459375e-02
5.243750e-11,8.856250e-02
5.643750e-11,9.212500e-02
6.043750e-11,9.581250e-02
6.443750e-11,9.815625e-02
6.843750e-11,1.023125e-01
7.243750e-11,1.049375e-01
7.643750e-11,1.095313e-01
8.043750e-11,1.126563e-01
8.443750e-11,1.159063e-01
8.843750e-11,1.187188e-01
9.243750e-11,1.223750e-01
9.643750e-11,1.252813e-01
1.004375e-10,1.284531e-01
1.044375e-10,1.319688e-01
1.084375e-10,1.353281e-01
1.124375e-10,1.380000e-01
1.164375e-10,1.405938e-01
1.204375e-10,1.433906e-01
1.244375e-10,1.464219e-01
1.284375e-10,1.486875e-01
1.324375e-10,1.517813e-01
1.364375e-10,1.542969e-01
1.404375e-10,1.568438e-01
1.444375e-10,1.578750e-01
1.484375e-10,1.606250e-01
1.524375e-10,1.617031e-01
1.564375e-10,1.645938e-01
1.604375e-10,1.658750e-01
1.644375e-10,1.671875e-01
1.684375e-10,1.679219e-01
1.724375e-10,1.693906e-01
1.764375e-10,1.700313e-01
1.804375e-10,1.708438e-01
1.844375e-10,1.718594e-01
1.884375e-10,1.726719e-01
1.924375e-10,1.726875e-01
1.964375e-10,1.725313e-01
2.004375e-10,1.725625e-01
2.044375e-10,1.727500e-01
2.084375e-10,1.721406e-01
2.124375e-10,1.722656e-01
2.164375e-10,1.717969e-01
2.204375e-10,1.713594e-01
2.244375e-10,1.693438e-01
2.284375e-10,1.691094e-01
2.324375e-10,1.671875e-01
2.364375e-10,1.670313e-01
2.404375e-10,1.653125e-01
2.444375e-10,1.636563e-01
2.484375e-10,1.614531e-01
2.524375e-10,1.600313e-01
2.564375e-10,1.578594e-01
2.604375e-10,1.559063e-01
2.644375e-10,1.541875e-01
2.684375e-10,1.523594e-01
2.724375e-10,1.498281e-01
2.764375e-10,1.471719e-01
2.804375e-10,1.448125e-01
2.844375e-10,1.427344e-01
2.884375e-10,1.399219e-01
2.924375e-10,1.379375e-01
2.964375e-10,1.354844e-01
3.004375e-10,1.331875e-01
3.044375e-10,1.293906e-01
3.084375e-10,1.275313e-01
3.124375e-10,1.241250e-01
3.164375e-10,1.225313e-01
3.204375e-10,1.195625e-01
3.244375e-10,1.167188e-01
3.284375e-10,1.134531e-01
3.324375e-10,1.111406e-01
3.364375e-10,1.081875e-01
3.404375e-10,1.055625e-01
3.444375e-10,1.032656e-01
3.484375e-10,1.009531e-01
3.524375e-10,9.812500e-02
3.564375e-10,9.521875e-02
3.604375e-10,9.273438e-02
3.644375e-10,9.064063e-02
3.684375e-10,8.785938e-02
3.724375e-10,8.601563e-02
3.764375e-10,8.384375e-02
3.804375e-10,8.185938e-02
3.844375e-10,7.845313e-02
3.884375e-10,7.709375e-02
3.924375e-10,7.425000e-02
3.964375e-10,7.326563e-02
4.004375e-10,7.098438e-02
4.044375e-10,6.887500e-02
4.084375e-10,6.637500e-02
4.124375e-10,6.490625e-02
4.164375e-10,6.281250e-02
4.204375e-10,6.109375e-02
4.244375e-10,5.971875e-02
4.284375e-10,5.834375e-02
4.324375e-10,5.653125e-02
4.364375e-10,5.464063e-02
4.404375e-10,5.315625e-02
4.444375e-10,5.210938e-02
4.484375e-10,5.034375e-02
4.524375e-10,4.953125e-02
4.564375e-10,4.840625e-02
4.604375e-10,4.743750e-02
4.644375e-10,4.506250e-02
4.684375e-10,4.471875e-02
4.724375e-10,4.290625e-02
4.764375e-10,4.292188e-02
4.804375e-10,4.167188e-02
4.844375e-10,4.050000e-02
4.884375e-10,3.898438e-02
4.924375e-10,3.843750e-02
4.964375e-10,3.725000e-02
5.004375e-10,3.640625e-02
5.044375e-10,3.590625e-02
5.084375e-10,3.537500e-02
5.124375e-10,3.442188e-02
5.164375e-10,3.334375e-02
5.204375e-10,3.267188e-02
5.244375e-10,3.237500e-02
5.284375e-10,3.135938e-02
5.324375e-10,3.125000e-02
5.364375e-10,3.082813e-02
5.404375e-10,3.048438e-02
5.444375e-10,2.878125e-02
5.484375e-10,2.904688e-02
5.524375e-10,2.784375e-02
5.564375e-10,2.845313e-02
5.604375e-10,2.779688e-02
5.644375e-10,2.712500e-02
5.684375e-10,2.612500e-02
5.724375e-10,2.609375e-02
5.764375e-10,2.532813e-02
5.804375e-10,2.493750e-02
5.844375e-10,2.485938e-02
5.884375e-10,2.473438e-02
5.924375e-10,2.420313e-02
5.964375e-10,2.346875e-02
6.004375e-10,2.317188e-02
6.044375e-10,2.320313e-02
6.084375e-10,2.250000e-02
6.124375e-10,2.267188e-02
6.164375e-10,2.256250e-02
6.204375e-10,2.243750e-02
6.244375e-10,2.098438e-02
6.284375e-10,2.143750e-02
6.324375e-10,2.045313e-02
6.364375e-10,2.126563e-02
6.404375e-10,2.079688e-02
6.444375e-10,2.026563e-02
6.484375e-10,1.939063e-02
6.524375e-10,1.950000e-02
6.564375e-10,1.881250e-02
6.604375e-10,1.846875e-02
6.644375e-10,1.850000e-02
6.684375e-10,1.843750e-02
6.724375e-10,1.796875e-02
6.764375e-10,1.726563e-02
6.804375e-10,1.700000e-02
6.844375e-10,1.703125e-02
6.884375e-10,1.632813e-02
6.924375e-10,1.653125e-02
6.964375e-10,1.643750e-02
7.004375e-10,1.625000e-02
7.044375e-10,1.479688e-02
7.084375e-10,1.520313e-02
7.124375e-10,1.418750e-02
7.164375e-10,1.500000e-02
7.204375e-10,1.448438e-02
7.244375e-10,1.395313e-02
7.284375e-10,1.301563e-02
7.324375e-10,1.312500e-02
7.364375e-10,1.237500e-02
7.404375e-10,1.200000e-02
7.444375e-10,1.203125e-02
7.484375e-10,1.193750e-02
7.524375e-10,1.146875e-02
7.564375e-10,1.075000e-02
7.604375e-10,1.050000e-02
7.644375e-10,1.054688e-02
7.684375e-10,9.890625e-03
7.724375e-10,1.014063e-02
7.764375e-10,1.010938e-02
7.804375e-10,9.953125e-03
7.844375e-10,8.593750e-03
7.884375e-10,9.062500e-03
7.924375e-10,8.109375e-03
7.964375e-10,9.062500e-03
8.004375e-10,8.671875e-03
8.044375e-10,8.296875e-03
8.084375e-10,7.484375e-03
8.124375e-10,7.718750e-03
8.164375e-10,7.140625e-03
8.204375e-10,6.953125e-03
8.244375e-10,7.187500e-03
8.284375e-10,7.234375e-03
8.324375e-10,7.000000e-03
8.364375e-10,6.468750e-03
8.404375e-10,6.390625e-03
8.444375e-10,6.687500e-03
8.484375e-10,6.265625e-03
8.524375e-10,6.750000e-03
8.564375e-10,6.937500e-03
8.604375e-10,6.984375e-03
8.644375e-10,5.875000e-03
8.684375e-10,6.546875e-03
8.724375e-10,5.796875e-03
8.764375e-10,6.984375e-03
8.804375e-10,6.828125e-03
8.844375e-10,6.656250e-03
8.884375e-10,6.062500e-03
8.924375e-10,6.468750e-03
8.964375e-10,6.093750e-03
9.004375e-10,6.109375e-03
9.044375e-10,6.531250e-03
9.084375e-10,6.687500e-03
9.124375e-10,6.593750e-03
9.164375e-10,6.234375e-03
9.204375e-10,6.234375e-03
9.244375e-10,6.703125e-03
9.284375e-10,6.390625e-03
9.324375e-10,6.984375e-03
9.364375e-10,7.218750e-03
9.404375e-10,7.359375e-03
9.444375e-10,6.328125e-03
9.484375e-10,7.062500e-03
9.524375e-10,6.312500e-03
9.564375e-10,7.562500e-03
9.604375e-10,7.421875e-03
9.644375e-10,7.250000e-03
9.684375e-10,6.687500e-03
9.724375e-10,7.078125e-03
9.764375e-10,6.703125e-03
9.804375e-10,6.734375e-03
9.844375e-10,7.171875e-03
9.884375e-10,7.265625e-03
9.924375e-10,7.140625e-03
9.964375e-10,6.765625e-03
1.000437e-09,6.718750e-03
1.004437e-09,7.171875e-03
1.008437e-09,6.843750e-03
1.012437e-09,7.406250e-03
1.016437e-09,7.609375e-03
1.020438e-09,7.750000e-03
1.024438e-09,6.703125e-03
1.028438e-09,7.453125e-03
1.032438e-09,6.687500e-03
1.036438e-09,7.921875e-03
1.040438e-09,7.781250e-03
1.044437e-09,7.609375e-03
1.048437e-09,7.062500e-03
1.052437e-09,7.484375e-03
1.056437e-09,7.156250e-03
1.060437e-09,7.218750e-03
1.064437e-09,7.703125e-03
1.068437e-09,7.859375e-03
1.072437e-09,7.781250e-03
1.076437e-09,7.468750e-03
1.080438e-09,7.500000e-03
1.084438e-09,8.015625e-03
1.088438e-09,7.750000e-03
1.092438e-09,8.406250e-03
1.096438e-09,8.703125e-03
1.100438e-09,8.937500e-03
1.104437e-09,8.000000e-03
1.108437e-09,8.875000e-03
1.112437e-09,8.203125e-03
1.116437e-09,9.515625e-03
1.120437e-09,9.453125e-03
1.124437e-09,9.390625e-03
1.128437e-09,8.937500e-03
1.132437e-09,9.468750e-03
1.136437e-09,9.218750e-03
1.140438e-09,9.359375e-03
1.144438e-09,9.921875e-03
1.148438e-09,1.018750e-02
1.152438e-09,1.015625e-02
1.156438e-09,9.890625e-03
1.160438e-09,9.984375e-03
1.164437e-09,1.053125e-02
1.168437e-09,1.028125e-02
1.172437e-09,1.096875e-02
1.176437e-09,1.129688e-02
1.180437e-09,1.156250e-02
1.184437e-09,1.057813e-02
1.188437e-09,1.145313e-02
1.192437e-09,1.075000e-02
1.196437e-09,1.201563e-02
1.200438e-09,1.190625e-02
1.204438e-09,1.178125e-02
1.208438e-09,1.125000e-02
1.212438e-09,1.168750e-02
1.216438e-09,1.134375e-02
1.220438e-09,1.137500e-02
1.224437e-09,1.182813e-02
1.228437e-09,1.200000e-02
1.232437e-09,1.181250e-02
1.236437e-09,1.142188e-02
1.240437e-09,1.137500e-02
1.244437e-09,1.176563e-02
1.248437e-09,1.134375e-02
1.252437e-09,1.189063e-02
1.256437e-09,1.203125e-02
1.260438e-09,1.214063e-02
1.264438e-09,1.095313e-02
1.268438e-09,1.167188e-02
1.272438e-09,1.076563e-02
1.276438e-09,1.187500e-02
1.280438e-09,1.156250e-02
1.284437e-09,1.125000e-02
1.288437e-09,1.053125e-02
1.292437e-09,1.079688e-02
1.296437e-09,1.028125e-02
1.300437e-09,1.014063e-02
1.304437e-09,1.040625e-02
1.308437e-09,1.043750e-02
1.312437e-09,1.007813e-02
1.316437e-09,9.531250e-03
1.320438e-09,9.343750e-03
1.324438e-09,9.593750e-03
1.328438e-09,9.031250e-03
1.332438e-09,9.453125e-03
1.336438e-09,9.484375e-03
1.340438e-09,9.500000e-03
1.344437e-09,8.171875e-03
1.348437e-09,8.796875e-03
1.352437e-09,7.812500e-03
1.356437e-09,8.859375e-03
1.360437e-09,8.484375e-03
1.364437e-09,8.125000e-03
1.368437e-09,7.359375e-03
1.372437e-09,7.593750e-03
1.376437e-09,7.046875e-03
1.380438e-09,6.906250e-03
1.384438e-09,7.156250e-03
1.388438e-09,7.218750e-03
1.392438e-09,6.875000e-03
1.396438e-09,6.359375e-03
1.400438e-09,6.218750e-03
1.404437e-09,6.515625e-03
1.408437e-09,6.015625e-03
1.412437e-09,6.515625e-03
1.416437e-09,6.609375e-03
1.420437e-09,6.734375e-03
1.424437e-09,5.468750e-03
1.428437e-09,6.203125e-03
1.432437e-09,5.343750e-03
1.436437e-09,6.484375e-03
1.440438e-09,6.250000e-03
1.444438e-09,6.000000e-03
1.448438e-09,5.375000e-03
1.452438e-09,5.765625e-03
1.456438e-09,5.359375e-03
1.460438e-09,5.359375e-03
1.464437e-09,5.765625e-03
1.468437e-09,5.968750e-03
1.472437e-09,5.796875e-03
1.476437e-09,5.421875e-03
1.480437e-09,5.453125e-03
1.484437e-09,5.906250e-03
1.488437e-09,5.546875e-03
1.492437e-09,6.203125e-03
1.496437e-09,6.453125e-03
1.500438e-09,6.718750e-03
1.504438e-09,5.593750e-03
1.508438e-09,6.468750e-03
1.512438e-09,5.734375e-03
1.516438e-09,7.031250e-03
1.520438e-09,6.906250e-03
1.524437e-09,6.781250e-03
1.528437e-09,6.265625e-03
1.532437e-09,6.750000e-03
1.536437e-09,6.421875e-03
1.540437e-09,6.515625e-03
1.544437e-09,7.000000e-03
1.548437e-09,7.281250e-03
1.552437e-09,7.156250e-03
1.556437e-09,6.828125e-03
1.560437e-09,6.890625e-03
1.564438e-09,7.375000e-03
1.568438e-09,7.031250e-03
1.572438e-09,7.687500e-03
1.576438e-09,7.953125e-03
1.580438e-09,8.203125e-03
1.584437e-09,7.031250e-03
1.588437e-09,7.890625e-03
1.592437e-09,7.109375e-03
1.596437e-09,8.343750e-03
1.600437e-09,8.171875e-03
1.604437e-09,7.984375e-03
1.608437e-09,7.390625e-03
1.612437e-09,7.796875e-03
1.616437e-09,7.390625e-03
1.620437e-09,7.375000e-03
1.624438e-09,7.765625e-03
1.628438e-09,7.953125e-03
1.632438e-09,7.734375e-03
1.636438e-09,7.296875e-03
1.640438e-09,7.265625e-03
1.644437e-09,7.625000e-03
1.648437e-09,7.187500e-03
1.652437e-09,7.750000e-03
1.656437e-09,7.890625e-03
1.660437e-09,8.046875e-03
1.664437e-09,6.781250e-03
1.668437e-09,7.546875e-03
1.672437e-09,6.687500e-03
1.676437e-09,7.843750e-03
1.680437e-09,7.593750e-03
1.684438e-09,7.328125e-03
1.688438e-09,6.671875e-03
1.692438e-09,7.031250e-03
1.696438e-09,6.562500e-03
1.700438e-09,6.515625e-03
1.704437e-09,6.875000e-03
1.708437e-09,7.046875e-03
1.712437e-09,6.796875e-03
1.716437e-09,6.359375e-03
1.720437e-09,6.328125e-03
1.724437e-09,6.703125e-03
1.728437e-09,6.281250e-03
1.732437e-09,6.859375e-03
1.736437e-09,7.046875e-03
1.740437e-09,7.234375e-03
1.744438e-09,6.015625e-03
1.748438e-09,6.812500e-03
1.752438e-09,6.000000e-03
1.756438e-09,7.203125e-03
