Measurements-streak-laser/Photodiode-on-Tek-12bit-4GHz/Tek000_ch1_20190613133050115.csv

Model,MSO64
Waveform Type,ANALOG
Horizontal Units,s
Sample Interval,4.000000e-12
Record Length,1000
Zero Index,310.578125
Vertical Units,V

TIME,CH1
-1.242312e-09,3.296875e-03
-1.238313e-09,2.890625e-03
-1.234313e-09,2.484375e-03
-1.230313e-09,1.703125e-03
-1.226313e-09,1.921875e-03
-1.222313e-09,1.359375e-03
-1.218313e-09,1.203125e-03
-1.214312e-09,1.468750e-03
-1.210312e-09,1.531250e-03
-1.206312e-09,1.218750e-03
-1.202312e-09,7.031250e-04
-1.198312e-09,6.250000e-04
-1.194312e-09,9.531250e-04
-1.190312e-09,4.843750e-04
-1.186312e-09,1.046875e-03
-1.182312e-09,1.218750e-03
-1.178313e-09,1.406250e-03
-1.174313e-09,2.031250e-04
-1.170313e-09,1.031250e-03
-1.166313e-09,2.500000e-04
-1.162313e-09,1.515625e-03
-1.158313e-09,1.375000e-03
-1.154312e-09,1.265625e-03
-1.150312e-09,7.500000e-04
-1.146312e-09,1.281250e-03
-1.142312e-09,1.000000e-03
-1.138312e-09,1.140625e-03
-1.134312e-09,1.703125e-03
-1.130312e-09,2.078125e-03
-1.126312e-09,2.062500e-03
-1.122312e-09,1.843750e-03
-1.118313e-09,2.062500e-03
-1.114313e-09,2.687500e-03
-1.110313e-09,2.500000e-03
-1.106313e-09,3.343750e-03
-1.102313e-09,3.796875e-03
-1.098313e-09,4.250000e-03
-1.094312e-09,3.296875e-03
-1.090312e-09,4.375000e-03
-1.086312e-09,3.828125e-03
-1.082312e-09,5.312500e-03
-1.078312e-09,5.390625e-03
-1.074312e-09,5.468750e-03
-1.070312e-09,5.125000e-03
-1.066312e-09,5.812500e-03
-1.062312e-09,5.671875e-03
-1.058313e-09,5.937500e-03
-1.054313e-09,6.593750e-03
-1.050313e-09,7.062500e-03
-1.046313e-09,7.093750e-03
-1.042313e-09,6.937500e-03
-1.038313e-09,7.156250e-03
-1.034312e-09,7.781250e-03
-1.030312e-09,7.593750e-03
-1.026312e-09,8.390625e-03
-1.022312e-09,8.765625e-03
-1.018312e-09,9.140625e-03
-1.014312e-09,8.078125e-03
-1.010312e-09,9.031250e-03
-1.006312e-09,8.343750e-03
-1.002312e-09,9.656250e-03
-9.983125e-10,9.546875e-03
-9.943125e-10,9.421875e-03
-9.903125e-10,8.875000e-03
-9.863125e-10,9.312500e-03
-9.823125e-10,8.937500e-03
-9.783125e-10,8.953125e-03
-9.743125e-10,9.343750e-03
-9.703125e-10,9.531250e-03
-9.663125e-10,9.296875e-03
-9.623125e-10,8.828125e-03
-9.583125e-10,8.765625e-03
-9.543125e-10,9.093750e-03
-9.503125e-10,8.593750e-03
-9.463125e-10,9.109375e-03
-9.423125e-10,9.187500e-03
-9.383125e-10,9.265625e-03
-9.343125e-10,7.937500e-03
-9.303125e-10,8.593750e-03
-9.263125e-10,7.640625e-03
-9.223125e-10,8.671875e-03
-9.183125e-10,8.312500e-03
-9.143125e-10,7.953125e-03
-9.103125e-10,7.187500e-03
-9.063125e-10,7.421875e-03
-9.023125e-10,6.843750e-03
-8.983125e-10,6.687500e-03
-8.943125e-10,6.921875e-03
-8.903125e-10,6.968750e-03
-8.863125e-10,6.609375e-03
-8.823125e-10,6.046875e-03
-8.783125e-10,5.906250e-03
-8.743125e-10,6.171875e-03
-8.703125e-10,5.625000e-03
-8.663125e-10,6.109375e-03
-8.623125e-10,6.187500e-03
-8.583125e-10,6.281250e-03
-8.543125e-10,5.000000e-03
-8.503125e-10,5.718750e-03
-8.463125e-10,4.828125e-03
-8.423125e-10,5.906250e-03
-8.383125e-10,5.671875e-03
-8.343125e-10,5.421875e-03
-8.303125e-10,4.796875e-03
-8.263125e-10,5.171875e-03
-8.223125e-10,4.750000e-03
-8.183125e-10,4.765625e-03
-8.143125e-10,5.171875e-03
-8.103125e-10,5.390625e-03
-8.063125e-10,5.250000e-03
-8.023125e-10,4.859375e-03
-7.983125e-10,4.906250e-03
-7.943125e-10,5.343750e-03
-7.903125e-10,5.000000e-03
-7.863125e-10,5.671875e-03
-7.823125e-10,5.937500e-03
-7.783125e-10,6.203125e-03
-7.743125e-10,5.093750e-03
-7.703125e-10,5.984375e-03
-7.663125e-10,5.281250e-03
-7.623125e-10,6.468750e-03
-7.583125e-10,6.390625e-03
-7.543125e-10,6.281250e-03
-7.503125e-10,5.796875e-03
-7.463125e-10,6.265625e-03
-7.423125e-10,5.921875e-03
-7.383125e-10,6.031250e-03
-7.343125e-10,6.500000e-03
-7.303125e-10,6.750000e-03
-7.263125e-10,6.687500e-03
-7.223125e-10,6.328125e-03
-7.183125e-10,6.375000e-03
-7.143125e-10,6.812500e-03
-7.103125e-10,6.468750e-03
-7.063125e-10,7.093750e-03
-7.023125e-10,7.343750e-03
-6.983125e-10,7.546875e-03
-6.943125e-10,6.375000e-03
-6.903125e-10,7.203125e-03
-6.863125e-10,6.421875e-03
-6.823125e-10,7.515625e-03
-6.783125e-10,7.343750e-03
-6.743125e-10,7.156250e-03
-6.703125e-10,6.562500e-03
-6.663125e-10,6.890625e-03
-6.623125e-10,6.421875e-03
-6.583125e-10,6.437500e-03
-6.543125e-10,6.765625e-03
-6.503125e-10,6.875000e-03
-6.463125e-10,6.718750e-03
-6.423125e-10,6.234375e-03
-6.383125e-10,6.140625e-03
-6.343125e-10,6.453125e-03
-6.303125e-10,6.000000e-03
-6.263125e-10,6.500000e-03
-6.223125e-10,6.625000e-03
-6.183125e-10,6.703125e-03
-6.143125e-10,5.406250e-03
-6.103125e-10,6.125000e-03
-6.063125e-10,5.281250e-03
-6.023125e-10,6.281250e-03
-5.983125e-10,6.046875e-03
-5.943125e-10,5.765625e-03
-5.903125e-10,5.093750e-03
-5.863125e-10,5.343750e-03
-5.823125e-10,4.812500e-03
-5.783125e-10,4.765625e-03
-5.743125e-10,5.062500e-03
-5.703125e-10,5.093750e-03
-5.663125e-10,4.906250e-03
-5.623125e-10,4.375000e-03
-5.583125e-10,4.265625e-03
-5.543125e-10,4.562500e-03
-5.503125e-10,4.093750e-03
-5.463125e-10,4.593750e-03
-5.423125e-10,4.687500e-03
-5.383125e-10,4.765625e-03
-5.343125e-10,3.453125e-03
-5.303125e-10,4.156250e-03
-5.263125e-10,3.343750e-03
-5.223125e-10,4.343750e-03
-5.183125e-10,4.140625e-03
-5.143125e-10,3.843750e-03
-5.103125e-10,3.187500e-03
-5.063125e-10,3.468750e-03
-5.023125e-10,2.968750e-03
-4.983125e-10,2.906250e-03
-4.943125e-10,3.250000e-03
-4.903125e-10,3.312500e-03
-4.863125e-10,3.125000e-03
-4.823125e-10,2.640625e-03
-4.783125e-10,2.593750e-03
-4.743125e-10,2.937500e-03
-4.703125e-10,2.484375e-03
-4.663125e-10,3.062500e-03
-4.623125e-10,3.203125e-03
-4.583125e-10,3.328125e-03
-4.543125e-10,2.078125e-03
-4.503125e-10,2.812500e-03
-4.463125e-10,2.093750e-03
-4.423125e-10,3.171875e-03
-4.383125e-10,3.062500e-03
-4.343125e-10,2.828125e-03
-4.303125e-10,2.265625e-03
-4.263125e-10,2.656250e-03
-4.223125e-10,2.281250e-03
-4.183125e-10,2.296875e-03
-4.143125e-10,2.765625e-03
-4.103125e-10,2.953125e-03
-4.063125e-10,2.828125e-03
-4.023125e-10,2.500000e-03
-3.983125e-10,2.609375e-03
-3.943125e-10,3.109375e-03
-3.903125e-10,2.765625e-03
-3.863125e-10,3.484375e-03
-3.823125e-10,3.781250e-03
-3.783125e-10,4.062500e-03
-3.743125e-10,3.000000e-03
-3.703125e-10,3.843750e-03
-3.663125e-10,3.265625e-03
-3.623125e-10,4.500000e-03
-3.583125e-10,4.546875e-03
-3.543125e-10,4.453125e-03
-3.503125e-10,4.046875e-03
-3.463125e-10,4.578125e-03
-3.423125e-10,4.375000e-03
-3.383125e-10,4.484375e-03
-3.343125e-10,5.062500e-03
-3.303125e-10,5.359375e-03
-3.263125e-10,5.312500e-03
-3.223125e-10,5.093750e-03
-3.183125e-10,5.281250e-03
-3.143125e-10,5.859375e-03
-3.103125e-10,5.562500e-03
-3.063125e-10,6.312500e-03
-3.023125e-10,6.656250e-03
-2.983125e-10,6.953125e-03
-2.943125e-10,5.890625e-03
-2.903125e-10,6.718750e-03
-2.863125e-10,6.078125e-03
-2.823125e-10,7.281250e-03
-2.783125e-10,7.218750e-03
-2.743125e-10,7.062500e-03
-2.703125e-10,6.593750e-03
-2.663125e-10,7.000000e-03
-2.623125e-10,6.671875e-03
-2.583125e-10,6.656250e-03
-2.543125e-10,7.062500e-03
-2.503125e-10,7.203125e-03
-2.463125e-10,6.968750e-03
-2.423125e-10,6.593750e-03
-2.383125e-10,6.593750e-03
-2.343125e-10,6.953125e-03
-2.303125e-10,6.484375e-03
-2.263125e-10,7.000000e-03
-2.223125e-10,7.156250e-03
-2.183125e-10,7.250000e-03
-2.143125e-10,6.015625e-03
-2.103125e-10,6.640625e-03
-2.063125e-10,5.796875e-03
-2.023125e-10,6.859375e-03
-1.983125e-10,6.593750e-03
-1.943125e-10,6.296875e-03
-1.903125e-10,5.718750e-03
-1.863125e-10,6.031250e-03
-1.823125e-10,5.593750e-03
-1.783125e-10,5.515625e-03
-1.743125e-10,5.859375e-03
-1.703125e-10,6.000000e-03
-1.663125e-10,5.781250e-03
-1.623125e-10,5.468750e-03
-1.583125e-10,5.515625e-03
-1.543125e-10,5.953125e-03
-1.503125e-10,5.656250e-03
-1.463125e-10,6.359375e-03
-1.423125e-10,6.734375e-03
-1.383125e-10,7.125000e-03
-1.343125e-10,6.234375e-03
-1.303125e-10,7.218750e-03
-1.263125e-10,6.750000e-03
-1.223125e-10,8.265625e-03
-1.183125e-10,8.468750e-03
-1.143125e-10,8.734375e-03
-1.103125e-10,8.734375e-03
-1.063125e-10,9.687500e-03
-1.023125e-10,9.906250e-03
-9.831250e-11,1.057813e-02
-9.431250e-11,1.168750e-02
-9.031250e-11,1.265625e-02
-8.631250e-11,1.328125e-02
-8.231250e-11,1.387500e-02
-7.831250e-11,1.485938e-02
-7.431250e-11,1.623438e-02
-7.031250e-11,1.695313e-02
-6.631250e-11,1.873438e-02
-6.231250e-11,2.017188e-02
-5.831250e-11,2.171875e-02
-5.431250e-11,2.200000e-02
-5.031250e-11,2.418750e-02
-4.631250e-11,2.490625e-02
-4.231250e-11,2.768750e-02
-3.831250e-11,2.912500e-02
-3.431250e-11,3.068750e-02
-3.031250e-11,3.196875e-02
-2.631250e-11,3.423438e-02
-2.231250e-11,3.579688e-02
-1.831250e-11,3.779688e-02
-1.431250e-11,4.025000e-02
-1.031250e-11,4.260938e-02
-6.312500e-12,4.454688e-02
-2.312500e-12,4.650000e-02
1.687500e-12,4.881250e-02
5.687500e-12,5.148438e-02
9.687500e-12,5.353125e-02
1.368750e-11,5.662500e-02
1.768750e-11,5.932813e-02
2.168750e-11,6.215625e-02
2.568750e-11,6.367188e-02
2.968750e-11,6.706250e-02
3.368750e-11,6.895313e-02
3.768750e-11,7.287500e-02
4.168750e-11,7.537500e-02
4.568750e-11,7.803125e-02
4.968750e-11,8.031250e-02
5.368750e-11,8.350000e-02
5.768750e-11,8.598438e-02
6.168750e-11,8.882813e-02
6.568750e-11,9.207813e-02
6.968750e-11,9.520313e-02
7.368750e-11,9.778125e-02
7.768750e-11,1.003125e-01
8.168750e-11,1.031406e-01
8.568750e-11,1.062656e-01
8.968750e-11,1.087031e-01
9.368750e-11,1.120469e-01
9.768750e-11,1.149375e-01
1.016875e-10,1.179063e-01
1.056875e-10,1.194375e-01
1.096875e-10,1.227813e-01
1.136875e-10,1.245156e-01
1.176875e-10,1.281563e-01
1.216875e-10,1.302813e-01
1.256875e-10,1.325000e-01
1.296875e-10,1.342031e-01
1.336875e-10,1.367188e-01
1.376875e-10,1.384531e-01
1.416875e-10,1.404219e-01
1.456875e-10,1.426875e-01
1.496875e-10,1.447813e-01
1.536875e-10,1.461563e-01
1.576875e-10,1.473750e-01
1.616875e-10,1.488125e-01
1.656875e-10,1.504688e-01
1.696875e-10,1.513438e-01
1.736875e-10,1.529844e-01
1.776875e-10,1.540625e-01
1.816875e-10,1.551719e-01
1.856875e-10,1.547031e-01
1.896875e-10,1.560156e-01
1.936875e-10,1.556250e-01
1.976875e-10,1.570313e-01
2.016875e-10,1.568438e-01
2.056875e-10,1.566875e-01
2.096875e-10,1.559375e-01
2.136875e-10,1.559531e-01
2.176875e-10,1.551563e-01
2.216875e-10,1.545625e-01
2.256875e-10,1.541563e-01
2.296875e-10,1.535781e-01
2.336875e-10,1.522500e-01
2.376875e-10,1.507188e-01
2.416875e-10,1.494375e-01
2.456875e-10,1.483594e-01
2.496875e-10,1.464844e-01
2.536875e-10,1.453906e-01
2.576875e-10,1.437188e-01
2.616875e-10,1.421250e-01
2.656875e-10,1.389531e-01
2.696875e-10,1.376563e-01
2.736875e-10,1.347031e-01
2.776875e-10,1.335625e-01
2.816875e-10,1.309063e-01
2.856875e-10,1.283281e-01
2.896875e-10,1.252344e-01
2.936875e-10,1.230156e-01
2.976875e-10,1.200938e-01
3.016875e-10,1.174219e-01
3.056875e-10,1.150469e-01
3.096875e-10,1.125938e-01
3.136875e-10,1.095469e-01
3.176875e-10,1.063750e-01
3.216875e-10,1.035781e-01
3.256875e-10,1.011250e-01
3.296875e-10,9.795313e-02
3.336875e-10,9.570313e-02
3.376875e-10,9.304688e-02
3.416875e-10,9.056250e-02
3.456875e-10,8.662500e-02
3.496875e-10,8.473438e-02
3.536875e-10,8.132813e-02
3.576875e-10,7.981250e-02
3.616875e-10,7.696875e-02
3.656875e-10,7.429688e-02
3.696875e-10,7.125000e-02
3.736875e-10,6.921875e-02
3.776875e-10,6.657813e-02
3.816875e-10,6.432813e-02
3.856875e-10,6.245313e-02
3.896875e-10,6.060938e-02
3.936875e-10,5.831250e-02
3.976875e-10,5.598438e-02
4.016875e-10,5.409375e-02
4.056875e-10,5.267188e-02
4.096875e-10,5.056250e-02
4.136875e-10,4.943750e-02
4.176875e-10,4.803125e-02
4.216875e-10,4.681250e-02
4.256875e-10,4.420313e-02
4.296875e-10,4.368750e-02
4.336875e-10,4.168750e-02
4.376875e-10,4.160938e-02
4.416875e-10,4.025000e-02
4.456875e-10,3.903125e-02
4.496875e-10,3.745313e-02
4.536875e-10,3.690625e-02
4.576875e-10,3.573438e-02
4.616875e-10,3.493750e-02
4.656875e-10,3.450000e-02
4.696875e-10,3.403125e-02
4.736875e-10,3.315625e-02
4.776875e-10,3.217188e-02
4.816875e-10,3.157813e-02
4.856875e-10,3.142188e-02
4.896875e-10,3.050000e-02
4.936875e-10,3.053125e-02
4.976875e-10,3.023438e-02
5.016875e-10,3.001563e-02
5.056875e-10,2.839063e-02
5.096875e-10,2.876563e-02
5.136875e-10,2.762500e-02
5.176875e-10,2.832813e-02
5.216875e-10,2.771875e-02
5.256875e-10,2.710938e-02
5.296875e-10,2.612500e-02
5.336875e-10,2.609375e-02
5.376875e-10,2.534375e-02
5.416875e-10,2.492188e-02
5.456875e-10,2.481250e-02
5.496875e-10,2.460938e-02
5.536875e-10,2.396875e-02
5.576875e-10,2.314063e-02
5.616875e-10,2.270313e-02
5.656875e-10,2.259375e-02
5.696875e-10,2.171875e-02
5.736875e-10,2.171875e-02
5.776875e-10,2.140625e-02
5.816875e-10,2.107813e-02
5.856875e-10,1.937500e-02
5.896875e-10,1.962500e-02
5.936875e-10,1.835938e-02
5.976875e-10,1.892188e-02
6.016875e-10,1.818750e-02
6.056875e-10,1.739063e-02
6.096875e-10,1.625000e-02
6.136875e-10,1.609375e-02
6.176875e-10,1.514063e-02
6.216875e-10,1.456250e-02
6.256875e-10,1.432813e-02
6.296875e-10,1.401563e-02
6.336875e-10,1.331250e-02
6.376875e-10,1.239063e-02
6.416875e-10,1.192188e-02
6.456875e-10,1.176563e-02
6.496875e-10,1.090625e-02
6.536875e-10,1.095313e-02
6.576875e-10,1.071875e-02
6.616875e-10,1.043750e-02
6.656875e-10,8.875000e-03
6.696875e-10,9.234375e-03
6.736875e-10,8.171875e-03
6.776875e-10,8.953125e-03
6.816875e-10,8.453125e-03
6.856875e-10,7.937500e-03
6.896875e-10,7.062500e-03
6.936875e-10,7.234375e-03
6.976875e-10,6.593750e-03
7.016875e-10,6.343750e-03
7.056875e-10,6.515625e-03
7.096875e-10,6.593750e-03
7.136875e-10,6.296875e-03
7.176875e-10,5.781250e-03
7.216875e-10,5.734375e-03
7.256875e-10,6.015625e-03
7.296875e-10,5.578125e-03
7.336875e-10,6.093750e-03
7.376875e-10,6.312500e-03
7.416875e-10,6.437500e-03
7.456875e-10,5.328125e-03
7.496875e-10,6.078125e-03
7.536875e-10,5.406250e-03
7.576875e-10,6.625000e-03
7.616875e-10,6.500000e-03
7.656875e-10,6.375000e-03
7.696875e-10,5.828125e-03
7.736875e-10,6.328125e-03
7.776875e-10,5.984375e-03
7.816875e-10,6.031250e-03
7.856875e-10,6.484375e-03
7.896875e-10,6.765625e-03
7.936875e-10,6.703125e-03
7.976875e-10,6.359375e-03
8.016875e-10,6.468750e-03
8.056875e-10,6.906250e-03
8.096875e-10,6.593750e-03
8.136875e-10,7.218750e-03
8.176875e-10,7.500000e-03
8.216875e-10,7.656250e-03
8.256875e-10,6.593750e-03
8.296875e-10,7.328125e-03
8.336875e-10,6.609375e-03
8.376875e-10,7.828125e-03
8.416875e-10,7.656250e-03
8.456875e-10,7.484375e-03
8.496875e-10,6.859375e-03
8.536875e-10,7.250000e-03
8.576875e-10,6.812500e-03
8.616875e-10,6.765625e-03
8.656875e-10,7.140625e-03
8.696875e-10,7.250000e-03
8.736875e-10,7.093750e-03
8.776875e-10,6.640625e-03
8.816875e-10,6.578125e-03
8.856875e-10,6.953125e-03
8.896875e-10,6.546875e-03
8.936875e-10,7.078125e-03
8.976875e-10,7.250000e-03
9.016875e-10,7.328125e-03
9.056875e-10,6.203125e-03
9.096875e-10,6.890625e-03
9.136875e-10,6.093750e-03
9.176875e-10,7.281250e-03
9.216875e-10,7.109375e-03
9.256875e-10,6.921875e-03
9.296875e-10,6.328125e-03
9.336875e-10,6.718750e-03
9.376875e-10,6.343750e-03
9.416875e-10,6.390625e-03
9.456875e-10,6.843750e-03
9.496875e-10,7.000000e-03
9.536875e-10,6.937500e-03
9.576875e-10,6.609375e-03
9.616875e-10,6.656250e-03
9.656875e-10,7.187500e-03
9.696875e-10,6.937500e-03
9.736875e-10,7.625000e-03
9.776875e-10,7.937500e-03
9.816875e-10,8.203125e-03
9.856875e-10,7.265625e-03
9.896875e-10,8.140625e-03
9.936875e-10,7.500000e-03
9.976875e-10,8.875000e-03
1.001687e-09,8.875000e-03
1.005687e-09,8.843750e-03
1.009687e-09,8.437500e-03
1.013688e-09,8.984375e-03
1.017688e-09,8.781250e-03
1.021688e-09,8.968750e-03
1.025688e-09,9.578125e-03
1.029688e-09,9.843750e-03
1.033688e-09,9.875000e-03
1.037687e-09,9.656250e-03
1.041687e-09,9.765625e-03
1.045687e-09,1.035938e-02
1.049687e-09,1.014063e-02
1.053687e-09,1.084375e-02
1.057687e-09,1.117188e-02
1.061687e-09,1.143750e-02
1.065687e-09,1.046875e-02
1.069687e-09,1.132813e-02
1.073688e-09,1.060938e-02
1.077688e-09,1.187500e-02
1.081688e-09,1.175000e-02
1.085688e-09,1.160938e-02
1.089688e-09,1.104688e-02
1.093688e-09,1.145313e-02
1.097687e-09,1.106250e-02
1.101687e-09,1.107813e-02
1.105687e-09,1.146875e-02
1.109687e-09,1.154688e-02
1.113687e-09,1.132813e-02
1.117687e-09,1.087500e-02
1.121687e-09,1.075000e-02
1.125687e-09,1.107813e-02
1.129687e-09,1.059375e-02
1.133688e-09,1.104688e-02
1.137688e-09,1.110938e-02
1.141688e-09,1.112500e-02
1.145688e-09,9.875000e-03
1.149688e-09,1.051563e-02
1.153688e-09,9.546875e-03
1.157687e-09,1.056250e-02
1.161687e-09,1.018750e-02
1.165687e-09,9.812500e-03
1.169687e-09,9.031250e-03
1.173687e-09,9.234375e-03
1.177687e-09,8.656250e-03
1.181687e-09,8.468750e-03
1.185687e-09,8.687500e-03
1.189687e-09,8.671875e-03
1.193688e-09,8.296875e-03
1.197688e-09,7.718750e-03
1.201688e-09,7.515625e-03
1.205688e-09,7.765625e-03
1.209688e-09,7.218750e-03
1.213688e-09,7.640625e-03
1.217687e-09,7.687500e-03
1.221687e-09,7.718750e-03
1.225687e-09,6.453125e-03
1.229687e-09,7.125000e-03
1.233687e-09,6.218750e-03
1.237687e-09,7.296875e-03
1.241687e-09,7.015625e-03
1.245687e-09,6.718750e-03
1.249687e-09,6.046875e-03
1.253688e-09,6.390625e-03
1.257688e-09,5.937500e-03
1.261688e-09,5.906250e-03
1.265688e-09,6.281250e-03
1.269688e-09,6.437500e-03
1.273688e-09,6.218750e-03
1.277687e-09,5.812500e-03
1.281687e-09,5.796875e-03
1.285687e-09,6.218750e-03
1.289687e-09,5.843750e-03
1.293687e-09,6.453125e-03
1.297687e-09,6.687500e-03
1.301687e-09,6.906250e-03
1.305687e-09,5.781250e-03
1.309687e-09,6.609375e-03
1.313688e-09,5.843750e-03
1.317688e-09,7.093750e-03
1.321688e-09,6.937500e-03
1.325688e-09,6.781250e-03
1.329688e-09,6.218750e-03
1.333688e-09,6.671875e-03
1.337687e-09,6.312500e-03
1.341687e-09,6.343750e-03
1.345687e-09,6.796875e-03
1.349687e-09,7.015625e-03
1.353687e-09,6.843750e-03
1.357687e-09,6.468750e-03
1.361687e-09,6.484375e-03
1.365687e-09,6.906250e-03
1.369687e-09,6.515625e-03
1.373688e-09,7.125000e-03
1.377688e-09,7.312500e-03
1.381688e-09,7.515625e-03
1.385688e-09,6.312500e-03
1.389688e-09,7.109375e-03
1.393688e-09,6.281250e-03
1.397687e-09,7.453125e-03
1.401687e-09,7.234375e-03
1.405687e-09,7.000000e-03
1.409687e-09,6.359375e-03
1.413687e-09,6.718750e-03
1.417687e-09,6.281250e-03
1.421687e-09,6.234375e-03
1.425687e-09,6.593750e-03
1.429687e-09,6.734375e-03
1.433688e-09,6.484375e-03
1.437688e-09,6.046875e-03
1.441688e-09,6.000000e-03
1.445688e-09,6.343750e-03
1.449688e-09,5.906250e-03
1.453688e-09,6.453125e-03
1.457687e-09,6.625000e-03
1.461687e-09,6.781250e-03
1.465687e-09,5.546875e-03
1.469687e-09,6.328125e-03
1.473687e-09,5.500000e-03
1.477687e-09,6.687500e-03
1.481687e-09,6.468750e-03
1.485687e-09,6.250000e-03
1.489687e-09,5.640625e-03
1.493688e-09,6.046875e-03
1.497688e-09,5.640625e-03
1.501688e-09,5.656250e-03
1.505688e-09,6.062500e-03
1.509688e-09,6.296875e-03
1.513688e-09,6.109375e-03
1.517687e-09,5.734375e-03
1.521687e-09,5.765625e-03
1.525687e-09,6.218750e-03
1.529687e-09,5.843750e-03
1.533687e-09,6.500000e-03
1.537687e-09,6.750000e-03
1.541687e-09,7.000000e-03
1.545687e-09,5.843750e-03
1.549687e-09,6.703125e-03
1.553688e-09,5.953125e-03
1.557688e-09,7.203125e-03
1.561688e-09,7.062500e-03
1.565688e-09,6.906250e-03
1.569688e-09,6.359375e-03
1.573688e-09,6.812500e-03
1.577687e-09,6.453125e-03
1.581687e-09,6.500000e-03
1.585687e-09,6.937500e-03
1.589687e-09,7.171875e-03
1.593687e-09,7.015625e-03
1.597687e-09,6.640625e-03
1.601687e-09,6.671875e-03
1.605687e-09,7.093750e-03
1.609687e-09,6.703125e-03
1.613688e-09,7.312500e-03
1.617688e-09,7.531250e-03
1.621688e-09,7.734375e-03
1.625688e-09,6.515625e-03
1.629688e-09,7.328125e-03
1.633688e-09,6.500000e-03
1.637687e-09,7.703125e-03
1.641687e-09,7.484375e-03
1.645687e-09,7.265625e-03
1.649687e-09,6.640625e-03
1.653687e-09,7.031250e-03
1.657687e-09,6.593750e-03
1.661687e-09,6.578125e-03
1.665687e-09,6.953125e-03
1.669687e-09,7.140625e-03
1.673688e-09,6.921875e-03
1.677688e-09,6.500000e-03
1.681688e-09,6.484375e-03
1.685688e-09,6.875000e-03
1.689688e-09,6.468750e-03
1.693687e-09,7.078125e-03
1.697687e-09,7.281250e-03
1.701687e-09,7.500000e-03
1.705687e-09,6.312500e-03
1.709687e-09,7.140625e-03
1.713687e-09,6.375000e-03
1.717687e-09,7.625000e-03
1.721687e-09,7.468750e-03
1.725687e-09,7.343750e-03
1.729687e-09,6.812500e-03
1.733688e-09,7.296875e-03
1.737688e-09,6.984375e-03
1.741688e-09,7.078125e-03
1.745688e-09,7.593750e-03
1.749688e-09,7.921875e-03
1.753687e-09,7.859375e-03
1.757687e-09,7.593750e-03
