Measurements-streak-laser/Photodiode-on-Tek-12bit-4GHz/Tek000_ch1_20190613133050715.csv

Model,MSO64
Waveform Type,ANALOG
Horizontal Units,s
Sample Interval,4.000000e-12
Record Length,1000
Zero Index,310.343750
Vertical Units,V

TIME,CH1
-1.241375e-09,3.875000e-03
-1.237375e-09,3.859375e-03
-1.233375e-09,4.250000e-03
-1.229375e-09,3.828125e-03
-1.225375e-09,4.437500e-03
-1.221375e-09,4.640625e-03
-1.217375e-09,4.859375e-03
-1.213375e-09,3.656250e-03
-1.209375e-09,4.484375e-03
-1.205375e-09,3.703125e-03
-1.201375e-09,4.937500e-03
-1.197375e-09,4.781250e-03
-1.193375e-09,4.625000e-03
-1.189375e-09,4.062500e-03
-1.185375e-09,4.531250e-03
-1.181375e-09,4.187500e-03
-1.177375e-09,4.250000e-03
-1.173375e-09,4.734375e-03
-1.169375e-09,5.031250e-03
-1.165375e-09,4.906250e-03
-1.161375e-09,4.593750e-03
-1.157375e-09,4.703125e-03
-1.153375e-09,5.203125e-03
-1.149375e-09,4.906250e-03
-1.145375e-09,5.625000e-03
-1.141375e-09,5.953125e-03
-1.137375e-09,6.265625e-03
-1.133375e-09,5.187500e-03
-1.129375e-09,6.109375e-03
-1.125375e-09,5.421875e-03
-1.121375e-09,6.765625e-03
-1.117375e-09,6.687500e-03
-1.113375e-09,6.625000e-03
-1.109375e-09,6.140625e-03
-1.105375e-09,6.671875e-03
-1.101375e-09,6.390625e-03
-1.097375e-09,6.515625e-03
-1.093375e-09,7.046875e-03
-1.089375e-09,7.359375e-03
-1.085375e-09,7.281250e-03
-1.081375e-09,6.984375e-03
-1.077375e-09,7.093750e-03
-1.073375e-09,7.593750e-03
-1.069375e-09,7.296875e-03
-1.065375e-09,8.000000e-03
-1.061375e-09,8.281250e-03
-1.057375e-09,8.562500e-03
-1.053375e-09,7.421875e-03
-1.049375e-09,8.296875e-03
-1.045375e-09,7.562500e-03
-1.041375e-09,8.828125e-03
-1.037375e-09,8.671875e-03
-1.033375e-09,8.515625e-03
-1.029375e-09,7.937500e-03
-1.025375e-09,8.375000e-03
-1.021375e-09,7.984375e-03
-1.017375e-09,8.000000e-03
-1.013375e-09,8.421875e-03
-1.009375e-09,8.625000e-03
-1.005375e-09,8.421875e-03
-1.001375e-09,8.000000e-03
-9.973750e-10,7.984375e-03
-9.933750e-10,8.359375e-03
-9.893750e-10,7.937500e-03
-9.853750e-10,8.500000e-03
-9.813750e-10,8.671875e-03
-9.773750e-10,8.812500e-03
-9.733750e-10,7.562500e-03
-9.693750e-10,8.312500e-03
-9.653750e-10,7.453125e-03
-9.613750e-10,8.578125e-03
-9.573750e-10,8.312500e-03
-9.533750e-10,8.046875e-03
-9.493750e-10,7.359375e-03
-9.453750e-10,7.687500e-03
-9.413750e-10,7.203125e-03
-9.373750e-10,7.125000e-03
-9.333750e-10,7.453125e-03
-9.293750e-10,7.562500e-03
-9.253750e-10,7.281250e-03
-9.213750e-10,6.796875e-03
-9.173750e-10,6.703125e-03
-9.133750e-10,7.031250e-03
-9.093750e-10,6.531250e-03
-9.053750e-10,7.062500e-03
-9.013750e-10,7.171875e-03
-8.973750e-10,7.281250e-03
-8.933750e-10,6.000000e-03
-8.893750e-10,6.718750e-03
-8.853750e-10,5.843750e-03
-8.813750e-10,6.921875e-03
-8.773750e-10,6.656250e-03
-8.733750e-10,6.375000e-03
-8.693750e-10,5.703125e-03
-8.653750e-10,6.031250e-03
-8.613750e-10,5.562500e-03
-8.573750e-10,5.500000e-03
-8.533750e-10,5.843750e-03
-8.493750e-10,5.968750e-03
-8.453750e-10,5.734375e-03
-8.413750e-10,5.265625e-03
-8.373750e-10,5.203125e-03
-8.333750e-10,5.562500e-03
-8.293750e-10,5.109375e-03
-8.253750e-10,5.671875e-03
-8.213750e-10,5.843750e-03
-8.173750e-10,6.000000e-03
-8.133750e-10,4.796875e-03
-8.093750e-10,5.578125e-03
-8.053750e-10,4.750000e-03
-8.013750e-10,5.859375e-03
-7.973750e-10,5.687500e-03
-7.933750e-10,5.468750e-03
-7.893750e-10,4.906250e-03
-7.853750e-10,5.296875e-03
-7.813750e-10,4.890625e-03
-7.773750e-10,4.937500e-03
-7.733750e-10,5.343750e-03
-7.693750e-10,5.546875e-03
-7.653750e-10,5.437500e-03
-7.613750e-10,5.046875e-03
-7.573750e-10,5.078125e-03
-7.533750e-10,5.515625e-03
-7.493750e-10,5.156250e-03
-7.453750e-10,5.796875e-03
-7.413750e-10,6.062500e-03
-7.373750e-10,6.312500e-03
-7.333750e-10,5.187500e-03
-7.293750e-10,6.062500e-03
-7.253750e-10,5.343750e-03
-7.213750e-10,6.515625e-03
-7.173750e-10,6.437500e-03
-7.133750e-10,6.328125e-03
-7.093750e-10,5.843750e-03
-7.053750e-10,6.296875e-03
-7.013750e-10,5.937500e-03
-6.973750e-10,6.078125e-03
-6.933750e-10,6.546875e-03
-6.893750e-10,6.796875e-03
-6.853750e-10,6.781250e-03
-6.813750e-10,6.437500e-03
-6.773750e-10,6.500000e-03
-6.733750e-10,6.968750e-03
-6.693750e-10,6.671875e-03
-6.653750e-10,7.328125e-03
-6.613750e-10,7.625000e-03
-6.573750e-10,7.875000e-03
-6.533750e-10,6.734375e-03
-6.493750e-10,7.625000e-03
-6.453750e-10,6.921875e-03
-6.413750e-10,8.078125e-03
-6.373750e-10,7.984375e-03
-6.333750e-10,7.843750e-03
-6.293750e-10,7.328125e-03
-6.253750e-10,7.734375e-03
-6.213750e-10,7.312500e-03
-6.173750e-10,7.406250e-03
-6.133750e-10,7.812500e-03
-6.093750e-10,7.984375e-03
-6.053750e-10,7.906250e-03
-6.013750e-10,7.484375e-03
-5.973750e-10,7.468750e-03
-5.933750e-10,7.843750e-03
-5.893750e-10,7.468750e-03
-5.853750e-10,8.031250e-03
-5.813750e-10,8.203125e-03
-5.773750e-10,8.343750e-03
-5.733750e-10,7.093750e-03
-5.693750e-10,7.859375e-03
-5.653750e-10,7.078125e-03
-5.613750e-10,8.109375e-03
-5.573750e-10,7.937500e-03
-5.533750e-10,7.671875e-03
-5.493750e-10,7.031250e-03
-5.453750e-10,7.328125e-03
-5.413750e-10,6.812500e-03
-5.373750e-10,6.781250e-03
-5.333750e-10,7.109375e-03
-5.293750e-10,7.171875e-03
-5.253750e-10,6.968750e-03
-5.213750e-10,6.453125e-03
-5.173750e-10,6.375000e-03
-5.133750e-10,6.687500e-03
-5.093750e-10,6.218750e-03
-5.053750e-10,6.734375e-03
-5.013750e-10,6.828125e-03
-4.973750e-10,6.921875e-03
-4.933750e-10,5.625000e-03
-4.893750e-10,6.312500e-03
-4.853750e-10,5.515625e-03
-4.813750e-10,6.531250e-03
-4.773750e-10,6.359375e-03
-4.733750e-10,6.062500e-03
-4.693750e-10,5.421875e-03
-4.653750e-10,5.734375e-03
-4.613750e-10,5.281250e-03
-4.573750e-10,5.234375e-03
-4.533750e-10,5.625000e-03
-4.493750e-10,5.718750e-03
-4.453750e-10,5.531250e-03
-4.413750e-10,5.109375e-03
-4.373750e-10,5.125000e-03
-4.333750e-10,5.546875e-03
-4.293750e-10,5.125000e-03
-4.253750e-10,5.765625e-03
-4.213750e-10,5.968750e-03
-4.173750e-10,6.187500e-03
-4.133750e-10,5.031250e-03
-4.093750e-10,5.812500e-03
-4.053750e-10,5.156250e-03
-4.013750e-10,6.328125e-03
-3.973750e-10,6.312500e-03
-3.933750e-10,6.156250e-03
-3.893750e-10,5.703125e-03
-3.853750e-10,6.187500e-03
-3.813750e-10,5.937500e-03
-3.773750e-10,6.031250e-03
-3.733750e-10,6.593750e-03
-3.693750e-10,6.890625e-03
-3.653750e-10,6.843750e-03
-3.613750e-10,6.625000e-03
-3.573750e-10,6.843750e-03
-3.533750e-10,7.453125e-03
-3.493750e-10,7.203125e-03
-3.453750e-10,8.000000e-03
-3.413750e-10,8.421875e-03
-3.373750e-10,8.796875e-03
-3.333750e-10,7.828125e-03
-3.293750e-10,8.750000e-03
-3.253750e-10,8.250000e-03
-3.213750e-10,9.578125e-03
-3.173750e-10,9.656250e-03
-3.133750e-10,9.656250e-03
-3.093750e-10,9.328125e-03
-3.053750e-10,9.906250e-03
-3.013750e-10,9.750000e-03
-2.973750e-10,9.906250e-03
-2.933750e-10,1.050000e-02
-2.893750e-10,1.084375e-02
-2.853750e-10,1.079688e-02
-2.813750e-10,1.060938e-02
-2.773750e-10,1.078125e-02
-2.733750e-10,1.134375e-02
-2.693750e-10,1.104688e-02
-2.653750e-10,1.175000e-02
-2.613750e-10,1.206250e-02
-2.573750e-10,1.231250e-02
-2.533750e-10,1.121875e-02
-2.493750e-10,1.198438e-02
-2.453750e-10,1.125000e-02
-2.413750e-10,1.237500e-02
-2.373750e-10,1.220313e-02
-2.333750e-10,1.195313e-02
-2.293750e-10,1.137500e-02
-2.253750e-10,1.167188e-02
-2.213750e-10,1.120313e-02
-2.173750e-10,1.104688e-02
-2.133750e-10,1.129688e-02
-2.093750e-10,1.128125e-02
-2.053750e-10,1.089063e-02
-2.013750e-10,1.035938e-02
-1.973750e-10,1.015625e-02
-1.933750e-10,1.032813e-02
-1.893750e-10,9.703125e-03
-1.853750e-10,1.003125e-02
-1.813750e-10,1.000000e-02
-1.773750e-10,9.921875e-03
-1.733750e-10,8.531250e-03
-1.693750e-10,9.000000e-03
-1.653750e-10,7.953125e-03
-1.613750e-10,8.875000e-03
-1.573750e-10,8.437500e-03
-1.533750e-10,8.015625e-03
-1.493750e-10,7.296875e-03
-1.453750e-10,7.515625e-03
-1.413750e-10,6.984375e-03
-1.373750e-10,6.843750e-03
-1.333750e-10,7.125000e-03
-1.293750e-10,7.250000e-03
-1.253750e-10,7.031250e-03
-1.213750e-10,6.750000e-03
-1.173750e-10,6.843750e-03
-1.133750e-10,7.343750e-03
-1.093750e-10,7.156250e-03
-1.053750e-10,8.031250e-03
-1.013750e-10,8.578125e-03
-9.737500e-11,9.203125e-03
-9.337500e-11,8.593750e-03
-8.937500e-11,9.906250e-03
-8.537500e-11,9.765625e-03
-8.137500e-11,1.170313e-02
-7.737500e-11,1.232813e-02
-7.337500e-11,1.309375e-02
-6.937500e-11,1.360938e-02
-6.537500e-11,1.514063e-02
-6.137500e-11,1.600000e-02
-5.737500e-11,1.734375e-02
-5.337500e-11,1.915625e-02
-4.937500e-11,2.092188e-02
-4.537500e-11,2.232813e-02
-4.137500e-11,2.376563e-02
-3.737500e-11,2.562500e-02
-3.337500e-11,2.790625e-02
-2.937500e-11,2.957813e-02
-2.537500e-11,3.234375e-02
-2.137500e-11,3.479688e-02
-1.737500e-11,3.739063e-02
-1.337500e-11,3.873438e-02
-9.375000e-12,4.200000e-02
-5.375000e-12,4.381250e-02
-1.375000e-12,4.768750e-02
2.625000e-12,5.021875e-02
6.625000e-12,5.290625e-02
1.062500e-11,5.528125e-02
1.462500e-11,5.862500e-02
1.862500e-11,6.126563e-02
2.262500e-11,6.431250e-02
2.662500e-11,6.779688e-02
3.062500e-11,7.117188e-02
3.462500e-11,7.406250e-02
3.862500e-11,7.692188e-02
4.262500e-11,8.009375e-02
4.662500e-11,8.359375e-02
5.062500e-11,8.640625e-02
5.462500e-11,9.015625e-02
5.862500e-11,9.348438e-02
6.262500e-11,9.685938e-02
6.662500e-11,9.884375e-02
7.062500e-11,1.026250e-01
7.462500e-11,1.048125e-01
7.862500e-11,1.089375e-01
8.262500e-11,1.115313e-01
8.662500e-11,1.142031e-01
9.062500e-11,1.163750e-01
9.462500e-11,1.193594e-01
9.862500e-11,1.215469e-01
1.026250e-10,1.240000e-01
1.066250e-10,1.267188e-01
1.106250e-10,1.292500e-01
1.146250e-10,1.310938e-01
1.186250e-10,1.327813e-01
1.226250e-10,1.346875e-01
1.266250e-10,1.367813e-01
1.306250e-10,1.380938e-01
1.346250e-10,1.402031e-01
1.386250e-10,1.417500e-01
1.426250e-10,1.432969e-01
1.466250e-10,1.433125e-01
1.506250e-10,1.450781e-01
1.546250e-10,1.451563e-01
1.586250e-10,1.470625e-01
1.626250e-10,1.473906e-01
1.666250e-10,1.477344e-01
1.706250e-10,1.475156e-01
1.746250e-10,1.480625e-01
1.786250e-10,1.478125e-01
1.826250e-10,1.477656e-01
1.866250e-10,1.479688e-01
1.906250e-10,1.479688e-01
1.946250e-10,1.472813e-01
1.986250e-10,1.463906e-01
2.026250e-10,1.457813e-01
2.066250e-10,1.453750e-01
2.106250e-10,1.441875e-01
2.146250e-10,1.438281e-01
2.186250e-10,1.429219e-01
2.226250e-10,1.420781e-01
2.266250e-10,1.397031e-01
2.306250e-10,1.391875e-01
2.346250e-10,1.370469e-01
2.386250e-10,1.367344e-01
2.426250e-10,1.349375e-01
2.466250e-10,1.332031e-01
2.506250e-10,1.309844e-01
2.546250e-10,1.296406e-01
2.586250e-10,1.275625e-01
2.626250e-10,1.257656e-01
2.666250e-10,1.242656e-01
2.706250e-10,1.226719e-01
2.746250e-10,1.204531e-01
2.786250e-10,1.181250e-01
2.826250e-10,1.161563e-01
2.866250e-10,1.145000e-01
2.906250e-10,1.121094e-01
2.946250e-10,1.106250e-01
2.986250e-10,1.086875e-01
3.026250e-10,1.069063e-01
3.066250e-10,1.036406e-01
3.106250e-10,1.023438e-01
3.146250e-10,9.950000e-02
3.186250e-10,9.853125e-02
3.226250e-10,9.615625e-02
3.266250e-10,9.392188e-02
3.306250e-10,9.125000e-02
3.346250e-10,8.954688e-02
3.386250e-10,8.718750e-02
3.426250e-10,8.514063e-02
3.466250e-10,8.343750e-02
3.506250e-10,8.168750e-02
3.546250e-10,7.943750e-02
3.586250e-10,7.707813e-02
3.626250e-10,7.512500e-02
3.666250e-10,7.354688e-02
3.706250e-10,7.126563e-02
3.746250e-10,6.992188e-02
3.786250e-10,6.820313e-02
3.826250e-10,6.664063e-02
3.866250e-10,6.364063e-02
3.906250e-10,6.268750e-02
3.946250e-10,6.020313e-02
3.986250e-10,5.959375e-02
4.026250e-10,5.765625e-02
4.066250e-10,5.585938e-02
4.106250e-10,5.364063e-02
4.146250e-10,5.243750e-02
4.186250e-10,5.059375e-02
4.226250e-10,4.910938e-02
4.266250e-10,4.795313e-02
4.306250e-10,4.678125e-02
4.346250e-10,4.517188e-02
4.386250e-10,4.345313e-02
4.426250e-10,4.212500e-02
4.466250e-10,4.125000e-02
4.506250e-10,3.962500e-02
4.546250e-10,3.893750e-02
4.586250e-10,3.795313e-02
4.626250e-10,3.707813e-02
4.666250e-10,3.481250e-02
4.706250e-10,3.457813e-02
4.746250e-10,3.284375e-02
4.786250e-10,3.298438e-02
4.826250e-10,3.182813e-02
4.866250e-10,3.073438e-02
4.906250e-10,2.929688e-02
4.946250e-10,2.884375e-02
4.986250e-10,2.771875e-02
5.026250e-10,2.696875e-02
5.066250e-10,2.654688e-02
5.106250e-10,2.607813e-02
5.146250e-10,2.521875e-02
5.186250e-10,2.420313e-02
5.226250e-10,2.359375e-02
5.266250e-10,2.337500e-02
5.306250e-10,2.242188e-02
5.346250e-10,2.237500e-02
5.386250e-10,2.204688e-02
5.426250e-10,2.175000e-02
5.466250e-10,2.007813e-02
5.506250e-10,2.039063e-02
5.546250e-10,1.920313e-02
5.586250e-10,1.987500e-02
5.626250e-10,1.925000e-02
5.666250e-10,1.859375e-02
5.706250e-10,1.760938e-02
5.746250e-10,1.759375e-02
5.786250e-10,1.681250e-02
5.826250e-10,1.640625e-02
5.866250e-10,1.634375e-02
5.906250e-10,1.618750e-02
5.946250e-10,1.562500e-02
5.986250e-10,1.485938e-02
6.026250e-10,1.450000e-02
6.066250e-10,1.448438e-02
6.106250e-10,1.371875e-02
6.146250e-10,1.385938e-02
6.186250e-10,1.368750e-02
6.226250e-10,1.346875e-02
6.266250e-10,1.193750e-02
6.306250e-10,1.232813e-02
6.346250e-10,1.123438e-02
6.386250e-10,1.200000e-02
6.426250e-10,1.143750e-02
6.466250e-10,1.082813e-02
6.506250e-10,9.875000e-03
6.546250e-10,9.921875e-03
6.586250e-10,9.140625e-03
6.626250e-10,8.750000e-03
6.666250e-10,8.734375e-03
6.706250e-10,8.625000e-03
6.746250e-10,8.109375e-03
6.786250e-10,7.375000e-03
6.826250e-10,7.093750e-03
6.866250e-10,7.125000e-03
6.906250e-10,6.437500e-03
6.946250e-10,6.671875e-03
6.986250e-10,6.625000e-03
7.026250e-10,6.500000e-03
7.066250e-10,5.125000e-03
7.106250e-10,5.625000e-03
7.146250e-10,4.687500e-03
7.186250e-10,5.656250e-03
7.226250e-10,5.281250e-03
7.266250e-10,4.921875e-03
7.306250e-10,4.156250e-03
7.346250e-10,4.468750e-03
7.386250e-10,3.937500e-03
7.426250e-10,3.812500e-03
7.466250e-10,4.109375e-03
7.506250e-10,4.281250e-03
7.546250e-10,4.109375e-03
7.586250e-10,3.687500e-03
7.626250e-10,3.734375e-03
7.666250e-10,4.125000e-03
7.706250e-10,3.796875e-03
7.746250e-10,4.421875e-03
7.786250e-10,4.750000e-03
7.826250e-10,4.968750e-03
7.866250e-10,3.968750e-03
7.906250e-10,4.828125e-03
7.946250e-10,4.234375e-03
7.986250e-10,5.593750e-03
8.026250e-10,5.578125e-03
8.066250e-10,5.578125e-03
8.106250e-10,5.156250e-03
8.146250e-10,5.765625e-03
8.186250e-10,5.546875e-03
8.226250e-10,5.734375e-03
8.266250e-10,6.343750e-03
8.306250e-10,6.734375e-03
8.346250e-10,6.812500e-03
8.386250e-10,6.609375e-03
8.426250e-10,6.843750e-03
8.466250e-10,7.453125e-03
8.506250e-10,7.296875e-03
8.546250e-10,8.078125e-03
8.586250e-10,8.500000e-03
8.626250e-10,8.812500e-03
8.666250e-10,7.906250e-03
8.706250e-10,8.796875e-03
8.746250e-10,8.203125e-03
8.786250e-10,9.593750e-03
8.826250e-10,9.578125e-03
8.866250e-10,9.531250e-03
8.906250e-10,9.062500e-03
8.946250e-10,9.578125e-03
8.986250e-10,9.281250e-03
9.026250e-10,9.375000e-03
9.066250e-10,9.875000e-03
9.106250e-10,1.007813e-02
9.146250e-10,1.001563e-02
9.186250e-10,9.656250e-03
9.226250e-10,9.671875e-03
9.266250e-10,1.012500e-02
9.306250e-10,9.796875e-03
9.346250e-10,1.037500e-02
9.386250e-10,1.057813e-02
9.426250e-10,1.068750e-02
9.466250e-10,9.593750e-03
9.506250e-10,1.028125e-02
9.546250e-10,9.468750e-03
9.586250e-10,1.064063e-02
9.626250e-10,1.042188e-02
9.666250e-10,1.017188e-02
9.706250e-10,9.531250e-03
9.746250e-10,9.843750e-03
9.786250e-10,9.390625e-03
9.826250e-10,9.328125e-03
9.866250e-10,9.687500e-03
9.906250e-10,9.703125e-03
9.946250e-10,9.484375e-03
9.986250e-10,9.015625e-03
1.002625e-09,8.890625e-03
1.006625e-09,9.250000e-03
1.010625e-09,8.812500e-03
1.014625e-09,9.296875e-03
1.018625e-09,9.406250e-03
1.022625e-09,9.453125e-03
1.026625e-09,8.296875e-03
1.030625e-09,8.968750e-03
1.034625e-09,8.093750e-03
1.038625e-09,9.218750e-03
1.042625e-09,8.968750e-03
1.046625e-09,8.687500e-03
1.050625e-09,8.031250e-03
1.054625e-09,8.343750e-03
1.058625e-09,7.875000e-03
1.062625e-09,7.828125e-03
1.066625e-09,8.171875e-03
1.070625e-09,8.218750e-03
1.074625e-09,8.000000e-03
1.078625e-09,7.531250e-03
1.082625e-09,7.421875e-03
1.086625e-09,7.781250e-03
1.090625e-09,7.343750e-03
1.094625e-09,7.843750e-03
1.098625e-09,7.968750e-03
1.102625e-09,8.046875e-03
1.106625e-09,6.890625e-03
1.110625e-09,7.609375e-03
1.114625e-09,6.734375e-03
1.118625e-09,7.843750e-03
1.122625e-09,7.593750e-03
1.126625e-09,7.328125e-03
1.130625e-09,6.656250e-03
1.134625e-09,6.984375e-03
1.138625e-09,6.531250e-03
1.142625e-09,6.468750e-03
1.146625e-09,6.828125e-03
1.150625e-09,6.906250e-03
1.154625e-09,6.671875e-03
1.158625e-09,6.218750e-03
1.162625e-09,6.125000e-03
1.166625e-09,6.484375e-03
1.170625e-09,6.046875e-03
1.174625e-09,6.578125e-03
1.178625e-09,6.734375e-03
1.182625e-09,6.859375e-03
1.186625e-09,5.703125e-03
1.190625e-09,6.468750e-03
1.194625e-09,5.625000e-03
1.198625e-09,6.796875e-03
1.202625e-09,6.593750e-03
1.206625e-09,6.375000e-03
1.210625e-09,5.781250e-03
1.214625e-09,6.171875e-03
1.218625e-09,5.796875e-03
1.222625e-09,5.812500e-03
1.226625e-09,6.250000e-03
1.230625e-09,6.453125e-03
1.234625e-09,6.296875e-03
1.238625e-09,5.953125e-03
1.242625e-09,5.968750e-03
1.246625e-09,6.437500e-03
1.250625e-09,6.125000e-03
1.254625e-09,6.765625e-03
1.258625e-09,7.046875e-03
1.262625e-09,7.312500e-03
1.266625e-09,6.234375e-03
1.270625e-09,7.125000e-03
1.274625e-09,6.406250e-03
1.278625e-09,7.703125e-03
1.282625e-09,7.593750e-03
1.286625e-09,7.500000e-03
1.290625e-09,7.000000e-03
1.294625e-09,7.500000e-03
1.298625e-09,7.187500e-03
1.302625e-09,7.296875e-03
1.306625e-09,7.796875e-03
1.310625e-09,8.062500e-03
1.314625e-09,7.968750e-03
1.318625e-09,7.640625e-03
1.322625e-09,7.703125e-03
1.326625e-09,8.187500e-03
1.330625e-09,7.859375e-03
1.334625e-09,8.515625e-03
1.338625e-09,8.765625e-03
1.342625e-09,9.000000e-03
1.346625e-09,7.843750e-03
1.350625e-09,8.671875e-03
1.354625e-09,7.875000e-03
1.358625e-09,9.093750e-03
1.362625e-09,8.875000e-03
1.366625e-09,8.656250e-03
1.370625e-09,8.031250e-03
1.374625e-09,8.390625e-03
1.378625e-09,7.937500e-03
1.382625e-09,7.890625e-03
1.386625e-09,8.218750e-03
1.390625e-09,8.328125e-03
1.394625e-09,8.046875e-03
1.398625e-09,7.546875e-03
1.402625e-09,7.437500e-03
1.406625e-09,7.734375e-03
1.410625e-09,7.203125e-03
1.414625e-09,7.687500e-03
1.418625e-09,7.750000e-03
1.422625e-09,7.812500e-03
1.426625e-09,6.468750e-03
1.430625e-09,7.140625e-03
1.434625e-09,6.187500e-03
1.438625e-09,7.250000e-03
1.442625e-09,6.906250e-03
1.446625e-09,6.562500e-03
1.450625e-09,5.812500e-03
1.454625e-09,6.078125e-03
1.458625e-09,5.546875e-03
1.462625e-09,5.421875e-03
1.466625e-09,5.703125e-03
1.470625e-09,5.781250e-03
1.474625e-09,5.484375e-03
1.478625e-09,4.984375e-03
1.482625e-09,4.906250e-03
1.486625e-09,5.218750e-03
1.490625e-09,4.750000e-03
1.494625e-09,5.312500e-03
1.498625e-09,5.468750e-03
1.502625e-09,5.640625e-03
1.506625e-09,4.421875e-03
1.510625e-09,5.234375e-03
1.514625e-09,4.437500e-03
1.518625e-09,5.671875e-03
1.522625e-09,5.515625e-03
1.526625e-09,5.375000e-03
1.530625e-09,4.828125e-03
1.534625e-09,5.312500e-03
1.538625e-09,5.000000e-03
1.542625e-09,5.093750e-03
1.546625e-09,5.609375e-03
1.550625e-09,5.937500e-03
1.554625e-09,5.859375e-03
1.558625e-09,5.593750e-03
1.562625e-09,5.750000e-03
1.566625e-09,6.296875e-03
1.570625e-09,6.062500e-03
1.574625e-09,6.828125e-03
1.578625e-09,7.187500e-03
1.582625e-09,7.562500e-03
1.586625e-09,6.515625e-03
1.590625e-09,7.500000e-03
1.594625e-09,6.859375e-03
1.598625e-09,8.234375e-03
1.602625e-09,8.187500e-03
1.606625e-09,8.140625e-03
1.610625e-09,7.671875e-03
1.614625e-09,8.218750e-03
1.618625e-09,7.937500e-03
1.622625e-09,8.062500e-03
1.626625e-09,8.578125e-03
1.630625e-09,8.875000e-03
1.634625e-09,8.765625e-03
1.638625e-09,8.421875e-03
1.642625e-09,8.484375e-03
1.646625e-09,8.937500e-03
1.650625e-09,8.562500e-03
1.654625e-09,9.187500e-03
1.658625e-09,9.375000e-03
1.662625e-09,9.562500e-03
1.666625e-09,8.312500e-03
1.670625e-09,9.078125e-03
1.674625e-09,8.203125e-03
1.678625e-09,9.328125e-03
1.682625e-09,9.031250e-03
1.686625e-09,8.718750e-03
1.690625e-09,7.984375e-03
1.694625e-09,8.250000e-03
1.698625e-09,7.703125e-03
1.702625e-09,7.531250e-03
1.706625e-09,7.765625e-03
1.710625e-09,7.781250e-03
1.714625e-09,7.375000e-03
1.718625e-09,6.781250e-03
1.722625e-09,6.562500e-03
1.726625e-09,6.765625e-03
1.730625e-09,6.125000e-03
1.734625e-09,6.515625e-03
1.738625e-09,6.484375e-03
1.742625e-09,6.468750e-03
1.746625e-09,5.031250e-03
1.750625e-09,5.609375e-03
1.754625e-09,4.578125e-03
1.758625e-09,5.578125e-03
