Measurements-streak-laser/Photodiode-on-Tek-12bit-4GHz/Tek000_ch1_20190613132945528.csv

Model,MSO64
Waveform Type,ANALOG
Horizontal Units,s
Sample Interval,4.000000e-12
Record Length,1000
Zero Index,310.609375
Vertical Units,V

TIME,CH1
-1.242437e-09,6.062500e-03
-1.238437e-09,6.921875e-03
-1.234437e-09,6.156250e-03
-1.230437e-09,7.406250e-03
-1.226437e-09,7.250000e-03
-1.222437e-09,7.109375e-03
-1.218438e-09,6.562500e-03
-1.214438e-09,7.015625e-03
-1.210438e-09,6.687500e-03
-1.206438e-09,6.750000e-03
-1.202438e-09,7.218750e-03
-1.198437e-09,7.484375e-03
-1.194437e-09,7.343750e-03
-1.190437e-09,7.015625e-03
-1.186437e-09,7.078125e-03
-1.182437e-09,7.546875e-03
-1.178437e-09,7.218750e-03
-1.174437e-09,7.890625e-03
-1.170437e-09,8.156250e-03
-1.166437e-09,8.437500e-03
-1.162437e-09,7.281250e-03
-1.158438e-09,8.140625e-03
-1.154438e-09,7.390625e-03
-1.150438e-09,8.656250e-03
-1.146438e-09,8.500000e-03
-1.142438e-09,8.343750e-03
-1.138437e-09,7.781250e-03
-1.134437e-09,8.218750e-03
-1.130437e-09,7.843750e-03
-1.126437e-09,7.875000e-03
-1.122437e-09,8.296875e-03
-1.118437e-09,8.500000e-03
-1.114437e-09,8.312500e-03
-1.110437e-09,7.906250e-03
-1.106437e-09,7.906250e-03
-1.102437e-09,8.296875e-03
-1.098438e-09,7.859375e-03
-1.094438e-09,8.453125e-03
-1.090438e-09,8.625000e-03
-1.086438e-09,8.781250e-03
-1.082438e-09,7.531250e-03
-1.078437e-09,8.296875e-03
-1.074437e-09,7.437500e-03
-1.070437e-09,8.593750e-03
-1.066437e-09,8.328125e-03
-1.062437e-09,8.062500e-03
-1.058437e-09,7.390625e-03
-1.054437e-09,7.734375e-03
-1.050437e-09,7.265625e-03
-1.046437e-09,7.187500e-03
-1.042437e-09,7.531250e-03
-1.038438e-09,7.656250e-03
-1.034438e-09,7.390625e-03
-1.030438e-09,6.906250e-03
-1.026438e-09,6.843750e-03
-1.022438e-09,7.187500e-03
-1.018438e-09,6.718750e-03
-1.014437e-09,7.265625e-03
-1.010437e-09,7.406250e-03
-1.006437e-09,7.562500e-03
-1.002437e-09,6.296875e-03
-9.984375e-10,7.078125e-03
-9.944375e-10,6.234375e-03
-9.904375e-10,7.406250e-03
-9.864375e-10,7.171875e-03
-9.824375e-10,6.953125e-03
-9.784375e-10,6.328125e-03
-9.744375e-10,6.734375e-03
-9.704375e-10,6.328125e-03
-9.664375e-10,6.328125e-03
-9.624375e-10,6.734375e-03
-9.584375e-10,6.953125e-03
-9.544375e-10,6.765625e-03
-9.504375e-10,6.375000e-03
-9.464375e-10,6.406250e-03
-9.424375e-10,6.828125e-03
-9.384375e-10,6.453125e-03
-9.344375e-10,7.093750e-03
-9.304375e-10,7.328125e-03
-9.264375e-10,7.562500e-03
-9.224375e-10,6.390625e-03
-9.184375e-10,7.234375e-03
-9.144375e-10,6.453125e-03
-9.104375e-10,7.640625e-03
-9.064375e-10,7.468750e-03
-9.024375e-10,7.281250e-03
-8.984375e-10,6.703125e-03
-8.944375e-10,7.125000e-03
-8.904375e-10,6.718750e-03
-8.864375e-10,6.734375e-03
-8.824375e-10,7.125000e-03
-8.784375e-10,7.328125e-03
-8.744375e-10,7.109375e-03
-8.704375e-10,6.671875e-03
-8.664375e-10,6.640625e-03
-8.624375e-10,7.000000e-03
-8.584375e-10,6.562500e-03
-8.544375e-10,7.109375e-03
-8.504375e-10,7.250000e-03
-8.464375e-10,7.375000e-03
-8.424375e-10,6.140625e-03
-8.384375e-10,6.859375e-03
-8.344375e-10,5.968750e-03
-8.304375e-10,6.921875e-03
-8.264375e-10,6.671875e-03
-8.224375e-10,6.359375e-03
-8.184375e-10,5.687500e-03
-8.144375e-10,5.984375e-03
-8.104375e-10,5.453125e-03
-8.064375e-10,5.390625e-03
-8.024375e-10,5.671875e-03
-7.984375e-10,5.750000e-03
-7.944375e-10,5.500000e-03
-7.904375e-10,4.968750e-03
-7.864375e-10,4.859375e-03
-7.824375e-10,5.156250e-03
-7.784375e-10,4.640625e-03
-7.744375e-10,5.156250e-03
-7.704375e-10,5.265625e-03
-7.664375e-10,5.375000e-03
-7.624375e-10,4.203125e-03
-7.584375e-10,4.937500e-03
-7.544375e-10,4.078125e-03
-7.504375e-10,4.953125e-03
-7.464375e-10,4.828125e-03
-7.424375e-10,4.609375e-03
-7.384375e-10,4.093750e-03
-7.344375e-10,4.437500e-03
-7.304375e-10,3.984375e-03
-7.264375e-10,4.109375e-03
-7.224375e-10,4.500000e-03
-7.184375e-10,4.671875e-03
-7.144375e-10,4.687500e-03
-7.104375e-10,4.296875e-03
-7.064375e-10,4.296875e-03
-7.024375e-10,4.718750e-03
-6.984375e-10,4.406250e-03
-6.944375e-10,5.031250e-03
-6.904375e-10,5.328125e-03
-6.864375e-10,5.562500e-03
-6.824375e-10,4.515625e-03
-6.784375e-10,5.421875e-03
-6.744375e-10,4.765625e-03
-6.704375e-10,5.671875e-03
-6.664375e-10,5.687500e-03
-6.624375e-10,5.625000e-03
-6.584375e-10,5.234375e-03
-6.544375e-10,5.593750e-03
-6.504375e-10,5.156250e-03
-6.464375e-10,5.390625e-03
-6.424375e-10,5.781250e-03
-6.384375e-10,5.921875e-03
-6.344375e-10,6.093750e-03
-6.304375e-10,5.656250e-03
-6.264375e-10,5.609375e-03
-6.224375e-10,5.953125e-03
-6.184375e-10,5.640625e-03
-6.144375e-10,6.171875e-03
-6.104375e-10,6.390625e-03
-6.064375e-10,6.484375e-03
-6.024375e-10,5.265625e-03
-5.984375e-10,6.062500e-03
-5.944375e-10,5.406250e-03
-5.904375e-10,6.140625e-03
-5.864375e-10,6.062500e-03
-5.824375e-10,5.875000e-03
-5.784375e-10,5.328125e-03
-5.744375e-10,5.515625e-03
-5.704375e-10,4.875000e-03
-5.664375e-10,5.000000e-03
-5.624375e-10,5.281250e-03
-5.584375e-10,5.218750e-03
-5.544375e-10,5.312500e-03
-5.504375e-10,4.750000e-03
-5.464375e-10,4.609375e-03
-5.424375e-10,4.875000e-03
-5.384375e-10,4.515625e-03
-5.344375e-10,5.000000e-03
-5.304375e-10,5.109375e-03
-5.264375e-10,5.156250e-03
-5.224375e-10,3.859375e-03
-5.184375e-10,4.593750e-03
-5.144375e-10,4.031250e-03
-5.104375e-10,4.765625e-03
-5.064375e-10,4.812500e-03
-5.024375e-10,4.593750e-03
-4.984375e-10,4.093750e-03
-4.944375e-10,4.328125e-03
-4.904375e-10,3.828125e-03
-4.864375e-10,3.953125e-03
-4.824375e-10,4.390625e-03
-4.784375e-10,4.390625e-03
-4.744375e-10,4.500000e-03
-4.704375e-10,4.062500e-03
-4.664375e-10,4.093750e-03
-4.624375e-10,4.515625e-03
-4.584375e-10,4.187500e-03
-4.544375e-10,4.859375e-03
-4.504375e-10,5.000000e-03
-4.464375e-10,5.125000e-03
-4.424375e-10,3.921875e-03
-4.384375e-10,4.625000e-03
-4.344375e-10,4.140625e-03
-4.304375e-10,4.937500e-03
-4.264375e-10,5.078125e-03
-4.224375e-10,4.796875e-03
-4.184375e-10,4.265625e-03
-4.144375e-10,4.500000e-03
-4.104375e-10,4.078125e-03
-4.064375e-10,4.031250e-03
-4.024375e-10,4.421875e-03
-3.984375e-10,4.328125e-03
-3.944375e-10,4.187500e-03
-3.904375e-10,3.687500e-03
-3.864375e-10,3.687500e-03
-3.824375e-10,4.031250e-03
-3.784375e-10,3.437500e-03
-3.744375e-10,3.968750e-03
-3.704375e-10,3.984375e-03
-3.664375e-10,3.937500e-03
-3.624375e-10,2.625000e-03
-3.584375e-10,3.031250e-03
-3.544375e-10,2.406250e-03
-3.504375e-10,3.078125e-03
-3.464375e-10,3.062500e-03
-3.424375e-10,2.609375e-03
-3.384375e-10,2.000000e-03
-3.344375e-10,2.156250e-03
-3.304375e-10,1.781250e-03
-3.264375e-10,1.531250e-03
-3.224375e-10,1.906250e-03
-3.184375e-10,1.828125e-03
-3.144375e-10,1.593750e-03
-3.104375e-10,1.218750e-03
-3.064375e-10,1.343750e-03
-3.024375e-10,1.843750e-03
-2.984375e-10,1.375000e-03
-2.944375e-10,2.046875e-03
-2.904375e-10,2.375000e-03
-2.864375e-10,2.562500e-03
-2.824375e-10,1.609375e-03
-2.784375e-10,2.281250e-03
-2.744375e-10,1.953125e-03
-2.704375e-10,3.031250e-03
-2.664375e-10,3.343750e-03
-2.624375e-10,3.312500e-03
-2.584375e-10,3.218750e-03
-2.544375e-10,3.828125e-03
-2.504375e-10,3.906250e-03
-2.464375e-10,4.093750e-03
-2.424375e-10,4.859375e-03
-2.384375e-10,5.234375e-03
-2.344375e-10,5.375000e-03
-2.304375e-10,5.515625e-03
-2.264375e-10,5.968750e-03
-2.224375e-10,6.796875e-03
-2.184375e-10,6.718750e-03
-2.144375e-10,7.578125e-03
-2.104375e-10,8.203125e-03
-2.064375e-10,8.593750e-03
-2.024375e-10,7.875000e-03
-1.984375e-10,8.625000e-03
-1.944375e-10,8.218750e-03
-1.904375e-10,9.328125e-03
-1.864375e-10,9.453125e-03
-1.824375e-10,9.296875e-03
-1.784375e-10,9.046875e-03
-1.744375e-10,9.375000e-03
-1.704375e-10,9.046875e-03
-1.664375e-10,8.859375e-03
-1.624375e-10,9.062500e-03
-1.584375e-10,8.906250e-03
-1.544375e-10,8.406250e-03
-1.504375e-10,7.968750e-03
-1.464375e-10,7.671875e-03
-1.424375e-10,7.640625e-03
-1.384375e-10,6.828125e-03
-1.344375e-10,6.906250e-03
-1.304375e-10,6.671875e-03
-1.264375e-10,6.296875e-03
-1.224375e-10,4.843750e-03
-1.184375e-10,4.828125e-03
-1.144375e-10,3.593750e-03
-1.104375e-10,4.109375e-03
-1.064375e-10,3.468750e-03
-1.024375e-10,2.812500e-03
-9.843750e-11,2.109375e-03
-9.443750e-11,2.125000e-03
-9.043750e-11,1.531250e-03
-8.643750e-11,1.312500e-03
-8.243750e-11,1.531250e-03
-7.843750e-11,1.640625e-03
-7.443750e-11,1.546875e-03
-7.043750e-11,1.734375e-03
-6.643750e-11,2.203125e-03
-6.243750e-11,3.062500e-03
-5.843750e-11,3.546875e-03
-5.443750e-11,5.156250e-03
-5.043750e-11,6.625000e-03
-4.643750e-11,8.359375e-03
-4.243750e-11,9.296875e-03
-3.843750e-11,1.185938e-02
-3.443750e-11,1.342188e-02
-3.043750e-11,1.717188e-02
-2.643750e-11,1.985938e-02
-2.243750e-11,2.298438e-02
-1.843750e-11,2.629688e-02
-1.443750e-11,3.064063e-02
-1.043750e-11,3.462500e-02
-6.437500e-12,3.928125e-02
-2.437500e-12,4.462500e-02
1.562500e-12,5.021875e-02
5.562500e-12,5.567188e-02
9.562500e-12,6.171875e-02
1.356250e-11,6.821875e-02
1.756250e-11,7.523438e-02
2.156250e-11,8.214063e-02
2.556250e-11,9.032813e-02
2.956250e-11,9.846875e-02
3.356250e-11,1.071250e-01
3.756250e-11,1.149688e-01
4.156250e-11,1.244844e-01
4.556250e-11,1.329688e-01
4.956250e-11,1.437031e-01
5.356250e-11,1.532188e-01
5.756250e-11,1.633125e-01
6.156250e-11,1.733594e-01
6.556250e-11,1.842813e-01
6.956250e-11,1.947813e-01
7.356250e-11,2.057188e-01
7.756250e-11,2.171875e-01
8.156250e-11,2.287813e-01
8.556250e-11,2.397188e-01
8.956250e-11,2.510313e-01
9.356250e-11,2.624531e-01
9.756250e-11,2.740156e-01
1.015625e-10,2.852188e-01
1.055625e-10,2.972188e-01
1.095625e-10,3.086719e-01
1.135625e-10,3.203594e-01
1.175625e-10,3.306406e-01
1.215625e-10,3.422031e-01
1.255625e-10,3.522031e-01
1.295625e-10,3.639063e-01
1.335625e-10,3.738281e-01
1.375625e-10,3.839844e-01
1.415625e-10,3.933906e-01
1.455625e-10,4.031094e-01
1.495625e-10,4.120313e-01
1.535625e-10,4.207969e-01
1.575625e-10,4.295469e-01
1.615625e-10,4.380625e-01
1.655625e-10,4.451719e-01
1.695625e-10,4.522031e-01
1.735625e-10,4.589531e-01
1.775625e-10,4.653594e-01
1.815625e-10,4.710156e-01
1.855625e-10,4.769219e-01
1.895625e-10,4.817969e-01
1.935625e-10,4.866563e-01
1.975625e-10,4.896406e-01
2.015625e-10,4.937188e-01
2.055625e-10,4.958906e-01
2.095625e-10,4.993594e-01
2.135625e-10,5.008125e-01
2.175625e-10,5.023281e-01
2.215625e-10,5.028438e-01
2.255625e-10,5.035312e-01
2.295625e-10,5.033750e-01
2.335625e-10,5.029375e-01
2.375625e-10,5.023438e-01
2.415625e-10,5.015781e-01
2.455625e-10,4.993125e-01
2.495625e-10,4.969375e-01
2.535625e-10,4.944531e-01
2.575625e-10,4.917031e-01
2.615625e-10,4.882813e-01
2.655625e-10,4.851719e-01
2.695625e-10,4.811719e-01
2.735625e-10,4.774375e-01
2.775625e-10,4.718906e-01
2.815625e-10,4.678125e-01
2.855625e-10,4.620781e-01
2.895625e-10,4.577344e-01
2.935625e-10,4.517188e-01
2.975625e-10,4.460000e-01
3.015625e-10,4.395938e-01
3.055625e-10,4.337188e-01
3.095625e-10,4.273906e-01
3.135625e-10,4.210156e-01
3.175625e-10,4.147188e-01
3.215625e-10,4.086250e-01
3.255625e-10,4.014063e-01
3.295625e-10,3.943281e-01
3.335625e-10,3.875156e-01
3.375625e-10,3.808125e-01
3.415625e-10,3.736094e-01
3.455625e-10,3.670625e-01
3.495625e-10,3.600000e-01
3.535625e-10,3.534531e-01
3.575625e-10,3.453125e-01
3.615625e-10,3.390625e-01
3.655625e-10,3.314219e-01
3.695625e-10,3.252813e-01
3.735625e-10,3.178281e-01
3.775625e-10,3.108438e-01
3.815625e-10,3.033750e-01
3.855625e-10,2.967500e-01
3.895625e-10,2.898594e-01
3.935625e-10,2.830781e-01
3.975625e-10,2.764844e-01
4.015625e-10,2.702344e-01
4.055625e-10,2.631875e-01
4.095625e-10,2.563281e-01
4.135625e-10,2.498125e-01
4.175625e-10,2.436406e-01
4.215625e-10,2.369375e-01
4.255625e-10,2.310313e-01
4.295625e-10,2.248125e-01
4.335625e-10,2.190781e-01
4.375625e-10,2.118594e-01
4.415625e-10,2.066875e-01
4.455625e-10,2.002031e-01
4.495625e-10,1.952031e-01
4.535625e-10,1.890781e-01
4.575625e-10,1.833750e-01
4.615625e-10,1.772500e-01
4.655625e-10,1.720938e-01
4.695625e-10,1.666719e-01
4.735625e-10,1.614531e-01
4.775625e-10,1.564063e-01
4.815625e-10,1.517500e-01
4.855625e-10,1.465469e-01
4.895625e-10,1.414844e-01
4.935625e-10,1.367813e-01
4.975625e-10,1.325313e-01
5.015625e-10,1.277656e-01
5.055625e-10,1.237656e-01
5.095625e-10,1.196719e-01
5.135625e-10,1.159688e-01
5.175625e-10,1.109375e-01
5.215625e-10,1.079844e-01
5.255625e-10,1.038125e-01
5.295625e-10,1.011563e-01
5.335625e-10,9.753125e-02
5.375625e-10,9.415625e-02
5.415625e-10,9.059375e-02
5.455625e-10,8.795313e-02
5.495625e-10,8.500000e-02
5.535625e-10,8.240625e-02
5.575625e-10,7.996875e-02
5.615625e-10,7.792188e-02
5.655625e-10,7.550000e-02
5.695625e-10,7.312500e-02
5.735625e-10,7.117188e-02
5.775625e-10,6.962500e-02
5.815625e-10,6.756250e-02
5.855625e-10,6.620313e-02
5.895625e-10,6.482813e-02
5.935625e-10,6.367188e-02
5.975625e-10,6.131250e-02
6.015625e-10,6.082813e-02
6.055625e-10,5.920313e-02
6.095625e-10,5.901563e-02
6.135625e-10,5.787500e-02
6.175625e-10,5.668750e-02
6.215625e-10,5.535938e-02
6.255625e-10,5.492188e-02
6.295625e-10,5.387500e-02
6.335625e-10,5.312500e-02
6.375625e-10,5.254688e-02
6.415625e-10,5.220313e-02
6.455625e-10,5.143750e-02
6.495625e-10,5.050000e-02
6.535625e-10,4.998438e-02
6.575625e-10,4.959375e-02
6.615625e-10,4.862500e-02
6.655625e-10,4.828125e-02
6.695625e-10,4.784375e-02
6.735625e-10,4.728125e-02
6.775625e-10,4.559375e-02
6.815625e-10,4.551563e-02
6.855625e-10,4.429688e-02
6.895625e-10,4.445313e-02
6.935625e-10,4.350000e-02
6.975625e-10,4.237500e-02
7.015625e-10,4.093750e-02
7.055625e-10,4.048438e-02
7.095625e-10,3.914063e-02
7.135625e-10,3.803125e-02
7.175625e-10,3.720313e-02
7.215625e-10,3.650000e-02
7.255625e-10,3.535938e-02
7.295625e-10,3.387500e-02
7.335625e-10,3.295313e-02
7.375625e-10,3.203125e-02
7.415625e-10,3.057813e-02
7.455625e-10,2.981250e-02
7.495625e-10,2.898438e-02
7.535625e-10,2.782813e-02
7.575625e-10,2.578125e-02
7.615625e-10,2.525000e-02
7.655625e-10,2.371875e-02
7.695625e-10,2.368750e-02
7.735625e-10,2.251563e-02
7.775625e-10,2.134375e-02
7.815625e-10,1.976563e-02
7.855625e-10,1.935938e-02
7.895625e-10,1.804688e-02
7.935625e-10,1.710938e-02
7.975625e-10,1.662500e-02
8.015625e-10,1.621875e-02
8.055625e-10,1.557813e-02
8.095625e-10,1.456250e-02
8.135625e-10,1.423438e-02
8.175625e-10,1.406250e-02
8.215625e-10,1.342188e-02
8.255625e-10,1.357813e-02
8.295625e-10,1.371875e-02
8.335625e-10,1.348438e-02
8.375625e-10,1.257813e-02
8.415625e-10,1.307813e-02
8.455625e-10,1.264063e-02
8.495625e-10,1.392188e-02
8.535625e-10,1.403125e-02
8.575625e-10,1.415625e-02
8.615625e-10,1.385938e-02
8.655625e-10,1.467188e-02
8.695625e-10,1.467188e-02
8.735625e-10,1.504688e-02
8.775625e-10,1.592188e-02
8.815625e-10,1.656250e-02
8.855625e-10,1.715625e-02
8.895625e-10,1.731250e-02
8.935625e-10,1.795313e-02
8.975625e-10,1.893750e-02
9.015625e-10,1.929688e-02
9.055625e-10,2.040625e-02
9.095625e-10,2.126563e-02
9.135625e-10,2.176563e-02
9.175625e-10,2.154688e-02
9.215625e-10,2.256250e-02
9.255625e-10,2.243750e-02
9.295625e-10,2.415625e-02
9.335625e-10,2.453125e-02
9.375625e-10,2.479688e-02
9.415625e-10,2.457813e-02
9.455625e-10,2.525000e-02
9.495625e-10,2.514063e-02
9.535625e-10,2.534375e-02
9.575625e-10,2.593750e-02
9.615625e-10,2.596875e-02
9.655625e-10,2.606250e-02
9.695625e-10,2.564063e-02
9.735625e-10,2.550000e-02
9.775625e-10,2.585938e-02
9.815625e-10,2.545313e-02
9.855625e-10,2.570313e-02
9.895625e-10,2.559375e-02
9.935625e-10,2.520313e-02
9.975625e-10,2.406250e-02
1.001562e-09,2.414063e-02
1.005562e-09,2.295313e-02
1.009562e-09,2.367188e-02
1.013562e-09,2.304688e-02
1.017562e-09,2.231250e-02
1.021562e-09,2.117188e-02
1.025562e-09,2.089063e-02
1.029562e-09,1.993750e-02
1.033563e-09,1.935938e-02
1.037563e-09,1.918750e-02
1.041563e-09,1.840625e-02
1.045563e-09,1.778125e-02
1.049563e-09,1.681250e-02
1.053563e-09,1.604688e-02
1.057562e-09,1.598438e-02
1.061562e-09,1.518750e-02
1.065562e-09,1.507813e-02
1.069562e-09,1.473438e-02
1.073562e-09,1.421875e-02
1.077562e-09,1.306250e-02
1.081562e-09,1.325000e-02
1.085562e-09,1.212500e-02
1.089562e-09,1.295313e-02
1.093563e-09,1.256250e-02
1.097563e-09,1.212500e-02
1.101563e-09,1.139063e-02
1.105563e-09,1.159375e-02
1.109563e-09,1.115625e-02
1.113562e-09,1.114063e-02
1.117562e-09,1.157813e-02
1.121562e-09,1.150000e-02
1.125562e-09,1.150000e-02
1.129562e-09,1.125000e-02
1.133562e-09,1.123438e-02
1.137562e-09,1.189063e-02
1.141562e-09,1.181250e-02
1.145562e-09,1.246875e-02
1.149562e-09,1.289063e-02
1.153563e-09,1.317188e-02
1.157563e-09,1.268750e-02
1.161563e-09,1.365625e-02
1.165563e-09,1.317188e-02
1.169563e-09,1.457813e-02
1.173562e-09,1.473438e-02
1.177562e-09,1.482813e-02
1.181562e-09,1.454688e-02
1.185562e-09,1.518750e-02
1.189562e-09,1.509375e-02
1.193562e-09,1.535938e-02
1.197562e-09,1.600000e-02
1.201562e-09,1.618750e-02
1.205562e-09,1.623438e-02
1.209562e-09,1.600000e-02
1.213563e-09,1.598438e-02
1.217563e-09,1.650000e-02
1.221563e-09,1.620313e-02
1.225563e-09,1.668750e-02
1.229563e-09,1.681250e-02
1.233562e-09,1.679688e-02
1.237562e-09,1.581250e-02
1.241562e-09,1.639063e-02
1.245562e-09,1.540625e-02
1.249562e-09,1.629688e-02
1.253562e-09,1.584375e-02
1.257562e-09,1.534375e-02
1.261562e-09,1.442188e-02
1.265562e-09,1.443750e-02
1.269562e-09,1.367188e-02
1.273563e-09,1.326563e-02
1.277563e-09,1.323438e-02
1.281563e-09,1.287500e-02
1.285563e-09,1.223438e-02
1.289563e-09,1.135938e-02
1.293562e-09,1.079688e-02
1.297562e-09,1.071875e-02
1.301562e-09,9.859375e-03
1.305562e-09,9.890625e-03
1.309562e-09,9.578125e-03
1.313562e-09,9.218750e-03
1.317562e-09,7.781250e-03
1.321562e-09,8.093750e-03
1.325562e-09,6.859375e-03
1.329562e-09,7.593750e-03
1.333563e-09,7.031250e-03
1.337563e-09,6.468750e-03
1.341563e-09,5.562500e-03
1.345563e-09,5.671875e-03
1.349563e-09,5.031250e-03
1.353562e-09,4.828125e-03
1.357562e-09,5.062500e-03
1.361562e-09,5.078125e-03
1.365562e-09,4.812500e-03
1.369562e-09,4.375000e-03
1.373562e-09,4.343750e-03
1.377562e-09,4.796875e-03
1.381562e-09,4.500000e-03
1.385562e-09,5.187500e-03
1.389562e-09,5.562500e-03
1.393563e-09,5.937500e-03
1.397563e-09,5.125000e-03
1.401563e-09,6.187500e-03
1.405563e-09,5.718750e-03
1.409563e-09,7.265625e-03
1.413562e-09,7.468750e-03
1.417562e-09,7.687500e-03
1.421562e-09,7.546875e-03
1.425562e-09,8.421875e-03
1.429562e-09,8.531250e-03
1.433562e-09,9.046875e-03
1.437562e-09,9.984375e-03
1.441562e-09,1.068750e-02
1.445562e-09,1.104688e-02
1.449562e-09,1.121875e-02
1.453563e-09,1.175000e-02
1.457563e-09,1.270313e-02
1.461563e-09,1.285938e-02
1.465563e-09,1.398438e-02
1.469563e-09,1.470313e-02
1.473562e-09,1.540625e-02
1.477562e-09,1.476563e-02
1.481562e-09,1.603125e-02
1.485562e-09,1.568750e-02
1.489562e-09,1.729688e-02
1.493562e-09,1.750000e-02
1.497562e-09,1.767188e-02
1.501562e-09,1.740625e-02
1.505562e-09,1.810938e-02
1.509562e-09,1.798438e-02
1.513563e-09,1.821875e-02
1.517563e-09,1.881250e-02
1.521563e-09,1.917188e-02
1.525563e-09,1.909375e-02
1.529563e-09,1.878125e-02
1.533562e-09,1.881250e-02
1.537562e-09,1.923438e-02
1.541562e-09,1.881250e-02
1.545562e-09,1.934375e-02
1.549562e-09,1.943750e-02
1.553562e-09,1.948438e-02
1.557562e-09,1.814063e-02
1.561562e-09,1.875000e-02
1.565562e-09,1.771875e-02
1.569562e-09,1.865625e-02
1.573563e-09,1.815625e-02
1.577563e-09,1.765625e-02
1.581563e-09,1.671875e-02
1.585563e-09,1.675000e-02
1.589563e-09,1.596875e-02
1.593562e-09,1.557813e-02
1.597562e-09,1.557813e-02
1.601562e-09,1.535938e-02
1.605562e-09,1.471875e-02
1.609562e-09,1.387500e-02
1.613562e-09,1.343750e-02
1.617562e-09,1.339063e-02
1.621562e-09,1.254688e-02
1.625562e-09,1.268750e-02
1.629562e-09,1.243750e-02
1.633563e-09,1.218750e-02
1.637563e-09,1.057813e-02
1.641563e-09,1.095313e-02
1.645563e-09,9.734375e-03
1.649563e-09,1.053125e-02
1.653562e-09,9.937500e-03
1.657562e-09,9.359375e-03
1.661562e-09,8.390625e-03
1.665562e-09,8.437500e-03
1.669562e-09,7.718750e-03
1.673562e-09,7.406250e-03
1.677562e-09,7.515625e-03
1.681562e-09,7.437500e-03
1.685562e-09,6.984375e-03
1.689562e-09,6.343750e-03
1.693563e-09,6.140625e-03
1.697563e-09,6.359375e-03
1.701563e-09,5.781250e-03
1.705563e-09,6.234375e-03
1.709563e-09,6.296875e-03
1.713562e-09,6.375000e-03
1.717562e-09,5.093750e-03
1.721562e-09,5.812500e-03
1.725562e-09,4.968750e-03
1.729562e-09,6.125000e-03
1.733562e-09,5.906250e-03
1.737562e-09,5.703125e-03
1.741562e-09,5.109375e-03
1.745562e-09,5.531250e-03
1.749562e-09,5.187500e-03
1.753563e-09,5.234375e-03
1.757563e-09,5.687500e-03
