Measurements-streak-laser/Photodiode-on-Tek-12bit-4GHz/Tek000_ch1_20190613133004483.csv

Model,MSO64
Waveform Type,ANALOG
Horizontal Units,s
Sample Interval,4.000000e-12
Record Length,1000
Zero Index,310.531250
Vertical Units,V

TIME,CH1
-1.242125e-09,7.453125e-03
-1.238125e-09,8.421875e-03
-1.234125e-09,7.750000e-03
-1.230125e-09,9.078125e-03
-1.226125e-09,8.984375e-03
-1.222125e-09,8.875000e-03
-1.218125e-09,8.328125e-03
-1.214125e-09,8.781250e-03
-1.210125e-09,8.406250e-03
-1.206125e-09,8.421875e-03
-1.202125e-09,8.812500e-03
-1.198125e-09,8.984375e-03
-1.194125e-09,8.718750e-03
-1.190125e-09,8.234375e-03
-1.186125e-09,8.140625e-03
-1.182125e-09,8.421875e-03
-1.178125e-09,7.875000e-03
-1.174125e-09,8.312500e-03
-1.170125e-09,8.328125e-03
-1.166125e-09,8.328125e-03
-1.162125e-09,6.875000e-03
-1.158125e-09,7.453125e-03
-1.154125e-09,6.390625e-03
-1.150125e-09,7.328125e-03
-1.146125e-09,6.843750e-03
-1.142125e-09,6.343750e-03
-1.138125e-09,5.421875e-03
-1.134125e-09,5.515625e-03
-1.130125e-09,4.796875e-03
-1.126125e-09,4.468750e-03
-1.122125e-09,4.546875e-03
-1.118125e-09,4.421875e-03
-1.114125e-09,3.906250e-03
-1.110125e-09,3.171875e-03
-1.106125e-09,2.859375e-03
-1.102125e-09,2.968750e-03
-1.098125e-09,2.265625e-03
-1.094125e-09,2.578125e-03
-1.090125e-09,2.515625e-03
-1.086125e-09,2.453125e-03
-1.082125e-09,1.000000e-03
-1.078125e-09,1.578125e-03
-1.074125e-09,5.625000e-04
-1.070125e-09,1.593750e-03
-1.066125e-09,1.218750e-03
-1.062125e-09,8.750000e-04
-1.058125e-09,1.406250e-04
-1.054125e-09,4.375000e-04
-1.050125e-09,-4.687500e-05
-1.046125e-09,-1.093750e-04
-1.042125e-09,2.656250e-04
-1.038125e-09,4.375000e-04
-1.034125e-09,2.500000e-04
-1.030125e-09,-1.250000e-04
-1.026125e-09,-9.375000e-05
-1.022125e-09,3.906250e-04
-1.018125e-09,6.250000e-05
-1.014125e-09,7.656250e-04
-1.010125e-09,1.078125e-03
-1.006125e-09,1.421875e-03
-1.002125e-09,3.437500e-04
-9.981250e-10,1.296875e-03
-9.941250e-10,6.562500e-04
-9.901250e-10,2.031250e-03
-9.861250e-10,2.015625e-03
-9.821250e-10,1.984375e-03
-9.781250e-10,1.562500e-03
-9.741250e-10,2.156250e-03
-9.701250e-10,1.937500e-03
-9.661250e-10,2.125000e-03
-9.621250e-10,2.703125e-03
-9.581250e-10,3.078125e-03
-9.541250e-10,3.062500e-03
-9.501250e-10,2.812500e-03
-9.461250e-10,2.968750e-03
-9.421250e-10,3.531250e-03
-9.381250e-10,3.250000e-03
-9.341250e-10,3.984375e-03
-9.301250e-10,4.312500e-03
-9.261250e-10,4.609375e-03
-9.221250e-10,3.484375e-03
-9.181250e-10,4.375000e-03
-9.141250e-10,3.625000e-03
-9.101250e-10,4.843750e-03
-9.061250e-10,4.687500e-03
-9.021250e-10,4.515625e-03
-8.981250e-10,3.921875e-03
-8.941250e-10,4.343750e-03
-8.901250e-10,3.921875e-03
-8.861250e-10,3.906250e-03
-8.821250e-10,4.296875e-03
-8.781250e-10,4.468750e-03
-8.741250e-10,4.234375e-03
-8.701250e-10,3.781250e-03
-8.661250e-10,3.734375e-03
-8.621250e-10,4.078125e-03
-8.581250e-10,3.625000e-03
-8.541250e-10,4.171875e-03
-8.501250e-10,4.328125e-03
-8.461250e-10,4.468750e-03
-8.421250e-10,3.265625e-03
-8.381250e-10,4.031250e-03
-8.341250e-10,3.187500e-03
-8.301250e-10,4.250000e-03
-8.261250e-10,4.062500e-03
-8.221250e-10,3.843750e-03
-8.181250e-10,3.296875e-03
-8.141250e-10,3.703125e-03
-8.101250e-10,3.312500e-03
-8.061250e-10,3.390625e-03
-8.021250e-10,3.843750e-03
-7.981250e-10,4.093750e-03
-7.941250e-10,4.031250e-03
-7.901250e-10,3.703125e-03
-7.861250e-10,3.796875e-03
-7.821250e-10,4.312500e-03
-7.781250e-10,4.046875e-03
-7.741250e-10,4.781250e-03
-7.701250e-10,5.140625e-03
-7.661250e-10,5.500000e-03
-7.621250e-10,4.546875e-03
-7.581250e-10,5.531250e-03
-7.541250e-10,4.921875e-03
-7.501250e-10,6.125000e-03
-7.461250e-10,6.203125e-03
-7.421250e-10,6.218750e-03
-7.381250e-10,5.906250e-03
-7.341250e-10,6.484375e-03
-7.301250e-10,6.250000e-03
-7.261250e-10,6.531250e-03
-7.221250e-10,7.125000e-03
-7.181250e-10,7.484375e-03
-7.141250e-10,7.609375e-03
-7.101250e-10,7.359375e-03
-7.061250e-10,7.500000e-03
-7.021250e-10,8.031250e-03
-6.981250e-10,7.796875e-03
-6.941250e-10,8.515625e-03
-6.901250e-10,8.859375e-03
-6.861250e-10,9.140625e-03
-6.821250e-10,8.062500e-03
-6.781250e-10,8.953125e-03
-6.741250e-10,8.265625e-03
-6.701250e-10,9.265625e-03
-6.661250e-10,9.171875e-03
-6.621250e-10,9.015625e-03
-6.581250e-10,8.484375e-03
-6.541250e-10,8.781250e-03
-6.501250e-10,8.250000e-03
-6.461250e-10,8.312500e-03
-6.421250e-10,8.593750e-03
-6.381250e-10,8.609375e-03
-6.341250e-10,8.531250e-03
-6.301250e-10,7.953125e-03
-6.261250e-10,7.765625e-03
-6.221250e-10,7.968750e-03
-6.181250e-10,7.468750e-03
-6.141250e-10,7.859375e-03
-6.101250e-10,7.906250e-03
-6.061250e-10,7.859375e-03
-6.021250e-10,6.468750e-03
-5.981250e-10,7.109375e-03
-5.941250e-10,6.250000e-03
-5.901250e-10,6.984375e-03
-5.861250e-10,6.734375e-03
-5.821250e-10,6.406250e-03
-5.781250e-10,5.703125e-03
-5.741250e-10,5.843750e-03
-5.701250e-10,5.187500e-03
-5.661250e-10,5.156250e-03
-5.621250e-10,5.406250e-03
-5.581250e-10,5.359375e-03
-5.541250e-10,5.296875e-03
-5.501250e-10,4.734375e-03
-5.461250e-10,4.609375e-03
-5.421250e-10,4.921875e-03
-5.381250e-10,4.531250e-03
-5.341250e-10,5.078125e-03
-5.301250e-10,5.218750e-03
-5.261250e-10,5.343750e-03
-5.221250e-10,4.109375e-03
-5.181250e-10,4.906250e-03
-5.141250e-10,4.328125e-03
-5.101250e-10,5.281250e-03
-5.061250e-10,5.328125e-03
-5.021250e-10,5.171875e-03
-4.981250e-10,4.718750e-03
-4.941250e-10,5.093750e-03
-4.901250e-10,4.718750e-03
-4.861250e-10,4.875000e-03
-4.821250e-10,5.390625e-03
-4.781250e-10,5.531250e-03
-4.741250e-10,5.609375e-03
-4.701250e-10,5.265625e-03
-4.661250e-10,5.359375e-03
-4.621250e-10,5.859375e-03
-4.581250e-10,5.546875e-03
-4.541250e-10,6.265625e-03
-4.501250e-10,6.453125e-03
-4.461250e-10,6.656250e-03
-4.421250e-10,5.468750e-03
-4.381250e-10,6.218750e-03
-4.341250e-10,5.640625e-03
-4.301250e-10,6.562500e-03
-4.261250e-10,6.593750e-03
-4.221250e-10,6.296875e-03
-4.181250e-10,5.718750e-03
-4.141250e-10,5.968750e-03
-4.101250e-10,5.531250e-03
-4.061250e-10,5.421875e-03
-4.021250e-10,5.765625e-03
-3.981250e-10,5.703125e-03
-3.941250e-10,5.453125e-03
-3.901250e-10,4.906250e-03
-3.861250e-10,4.828125e-03
-3.821250e-10,5.109375e-03
-3.781250e-10,4.484375e-03
-3.741250e-10,4.953125e-03
-3.701250e-10,4.953125e-03
-3.661250e-10,4.906250e-03
-3.621250e-10,3.562500e-03
-3.581250e-10,4.015625e-03
-3.541250e-10,3.250000e-03
-3.501250e-10,4.046875e-03
-3.461250e-10,3.906250e-03
-3.421250e-10,3.484375e-03
-3.381250e-10,2.843750e-03
-3.341250e-10,3.046875e-03
-3.301250e-10,2.640625e-03
-3.261250e-10,2.468750e-03
-3.221250e-10,2.843750e-03
-3.181250e-10,2.875000e-03
-3.141250e-10,2.656250e-03
-3.101250e-10,2.312500e-03
-3.061250e-10,2.437500e-03
-3.021250e-10,2.953125e-03
-2.981250e-10,2.562500e-03
-2.941250e-10,3.265625e-03
-2.901250e-10,3.640625e-03
-2.861250e-10,3.921875e-03
-2.821250e-10,2.968750e-03
-2.781250e-10,3.781250e-03
-2.741250e-10,3.375000e-03
-2.701250e-10,4.609375e-03
-2.661250e-10,4.843750e-03
-2.621250e-10,4.859375e-03
-2.581250e-10,4.718750e-03
-2.541250e-10,5.359375e-03
-2.501250e-10,5.375000e-03
-2.461250e-10,5.593750e-03
-2.421250e-10,6.312500e-03
-2.381250e-10,6.718750e-03
-2.341250e-10,6.796875e-03
-2.301250e-10,6.843750e-03
-2.261250e-10,7.187500e-03
-2.221250e-10,7.890625e-03
-2.181250e-10,7.734375e-03
-2.141250e-10,8.531250e-03
-2.101250e-10,9.015625e-03
-2.061250e-10,9.328125e-03
-2.021250e-10,8.421875e-03
-1.981250e-10,9.140625e-03
-1.941250e-10,8.531250e-03
-1.901250e-10,9.625000e-03
-1.861250e-10,9.546875e-03
-1.821250e-10,9.281250e-03
-1.781250e-10,8.812500e-03
-1.741250e-10,9.046875e-03
-1.701250e-10,8.562500e-03
-1.661250e-10,8.328125e-03
-1.621250e-10,8.437500e-03
-1.581250e-10,8.281250e-03
-1.541250e-10,7.734375e-03
-1.501250e-10,7.171875e-03
-1.461250e-10,6.828125e-03
-1.421250e-10,6.796875e-03
-1.381250e-10,6.000000e-03
-1.341250e-10,6.140625e-03
-1.301250e-10,5.953125e-03
-1.261250e-10,5.687500e-03
-1.221250e-10,4.265625e-03
-1.181250e-10,4.468750e-03
-1.141250e-10,3.343750e-03
-1.101250e-10,4.125000e-03
-1.061250e-10,3.656250e-03
-1.021250e-10,3.218750e-03
-9.812500e-11,2.640625e-03
-9.412500e-11,2.937500e-03
-9.012500e-11,2.578125e-03
-8.612500e-11,2.656250e-03
-8.212500e-11,3.171875e-03
-7.812500e-11,3.640625e-03
-7.412500e-11,3.843750e-03
-7.012500e-11,4.218750e-03
-6.612500e-11,4.968750e-03
-6.212500e-11,6.140625e-03
-5.812500e-11,6.843750e-03
-5.412500e-11,8.671875e-03
-5.012500e-11,1.034375e-02
-4.612500e-11,1.223438e-02
-4.212500e-11,1.314063e-02
-3.812500e-11,1.585938e-02
-3.412500e-11,1.739063e-02
-3.012500e-11,2.110938e-02
-2.612500e-11,2.365625e-02
-2.212500e-11,2.656250e-02
-1.812500e-11,2.946875e-02
-1.412500e-11,3.340625e-02
-1.012500e-11,3.687500e-02
-6.125000e-12,4.092188e-02
-2.125000e-12,4.559375e-02
1.875000e-12,5.039063e-02
5.875000e-12,5.492188e-02
9.875000e-12,5.979688e-02
1.387500e-11,6.510938e-02
1.787500e-11,7.085938e-02
2.187500e-11,7.628125e-02
2.587500e-11,8.287500e-02
2.987500e-11,8.925000e-02
3.387500e-11,9.596875e-02
3.787500e-11,1.016250e-01
4.187500e-11,1.090313e-01
4.587500e-11,1.151719e-01
4.987500e-11,1.234375e-01
5.387500e-11,1.303594e-01
5.787500e-11,1.376250e-01
6.187500e-11,1.446563e-01
6.587500e-11,1.525313e-01
6.987500e-11,1.598125e-01
7.387500e-11,1.674375e-01
7.787500e-11,1.754844e-01
8.187500e-11,1.834844e-01
8.587500e-11,1.908125e-01
8.987500e-11,1.982500e-01
9.387500e-11,2.058438e-01
9.787500e-11,2.135625e-01
1.018750e-10,2.207188e-01
1.058750e-10,2.286406e-01
1.098750e-10,2.359844e-01
1.138750e-10,2.434219e-01
1.178750e-10,2.493750e-01
1.218750e-10,2.567813e-01
1.258750e-10,2.625156e-01
1.298750e-10,2.700156e-01
1.338750e-10,2.757656e-01
1.378750e-10,2.816250e-01
1.418750e-10,2.867813e-01
1.458750e-10,2.924063e-01
1.498750e-10,2.972188e-01
1.538750e-10,3.020000e-01
1.578750e-10,3.068438e-01
1.618750e-10,3.114531e-01
1.658750e-10,3.149375e-01
1.698750e-10,3.182500e-01
1.738750e-10,3.215313e-01
1.778750e-10,3.246719e-01
1.818750e-10,3.270313e-01
1.858750e-10,3.298906e-01
1.898750e-10,3.318906e-01
1.938750e-10,3.339219e-01
1.978750e-10,3.342188e-01
2.018750e-10,3.359219e-01
2.058750e-10,3.358438e-01
2.098750e-10,3.373125e-01
2.138750e-10,3.369844e-01
2.178750e-10,3.367188e-01
2.218750e-10,3.356875e-01
2.258750e-10,3.351406e-01
2.298750e-10,3.338281e-01
2.338750e-10,3.324844e-01
2.378750e-10,3.312031e-01
2.418750e-10,3.297969e-01
2.458750e-10,3.272969e-01
2.498750e-10,3.247031e-01
2.538750e-10,3.222500e-01
2.578750e-10,3.197969e-01
2.618750e-10,3.166563e-01
2.658750e-10,3.141250e-01
2.698750e-10,3.109375e-01
2.738750e-10,3.079688e-01
2.778750e-10,3.033906e-01
2.818750e-10,3.005156e-01
2.858750e-10,2.960469e-01
2.898750e-10,2.932188e-01
2.938750e-10,2.888750e-01
2.978750e-10,2.847656e-01
3.018750e-10,2.801250e-01
3.058750e-10,2.762188e-01
3.098750e-10,2.717969e-01
3.138750e-10,2.675000e-01
3.178750e-10,2.634375e-01
3.218750e-10,2.594844e-01
3.258750e-10,2.547031e-01
3.298750e-10,2.499531e-01
3.338750e-10,2.455469e-01
3.378750e-10,2.413906e-01
3.418750e-10,2.366406e-01
3.458750e-10,2.326875e-01
3.498750e-10,2.282813e-01
3.538750e-10,2.242500e-01
3.578750e-10,2.186875e-01
3.618750e-10,2.150781e-01
3.658750e-10,2.100000e-01
3.698750e-10,2.066094e-01
3.738750e-10,2.018906e-01
3.778750e-10,1.974688e-01
3.818750e-10,1.925938e-01
3.858750e-10,1.886250e-01
3.898750e-10,1.842031e-01
3.938750e-10,1.800000e-01
3.978750e-10,1.760313e-01
4.018750e-10,1.722188e-01
4.058750e-10,1.677500e-01
4.098750e-10,1.633281e-01
4.138750e-10,1.592500e-01
4.178750e-10,1.555313e-01
4.218750e-10,1.511875e-01
4.258750e-10,1.476719e-01
4.298750e-10,1.438281e-01
4.338750e-10,1.402813e-01
4.378750e-10,1.352656e-01
4.418750e-10,1.322969e-01
4.458750e-10,1.278906e-01
4.498750e-10,1.251406e-01
4.538750e-10,1.211719e-01
4.578750e-10,1.174375e-01
4.618750e-10,1.133125e-01
4.658750e-10,1.101406e-01
4.698750e-10,1.065156e-01
4.738750e-10,1.031719e-01
4.778750e-10,1.000625e-01
4.818750e-10,9.712500e-02
4.858750e-10,9.371875e-02
4.898750e-10,9.031250e-02
4.938750e-10,8.726563e-02
4.978750e-10,8.467188e-02
5.018750e-10,8.145313e-02
5.058750e-10,7.906250e-02
5.098750e-10,7.650000e-02
5.138750e-10,7.418750e-02
5.178750e-10,7.051563e-02
5.218750e-10,6.890625e-02
5.258750e-10,6.593750e-02
5.298750e-10,6.465625e-02
5.338750e-10,6.228125e-02
5.378750e-10,6.003125e-02
5.418750e-10,5.754688e-02
5.458750e-10,5.603125e-02
5.498750e-10,5.400000e-02
5.538750e-10,5.234375e-02
5.578750e-10,5.096875e-02
5.618750e-10,4.975000e-02
5.658750e-10,4.818750e-02
5.698750e-10,4.654688e-02
5.738750e-10,4.535938e-02
5.778750e-10,4.456250e-02
5.818750e-10,4.314063e-02
5.858750e-10,4.253125e-02
5.898750e-10,4.178125e-02
5.938750e-10,4.117188e-02
5.978750e-10,3.928125e-02
6.018750e-10,3.931250e-02
6.058750e-10,3.806250e-02
6.098750e-10,3.843750e-02
6.138750e-10,3.770313e-02
6.178750e-10,3.692188e-02
6.218750e-10,3.590625e-02
6.258750e-10,3.584375e-02
6.298750e-10,3.507813e-02
6.338750e-10,3.462500e-02
6.378750e-10,3.446875e-02
6.418750e-10,3.437500e-02
6.458750e-10,3.385938e-02
6.498750e-10,3.314063e-02
6.538750e-10,3.285938e-02
6.578750e-10,3.278125e-02
6.618750e-10,3.204688e-02
6.658750e-10,3.206250e-02
6.698750e-10,3.189063e-02
6.738750e-10,3.159375e-02
6.778750e-10,3.009375e-02
6.818750e-10,3.032813e-02
6.858750e-10,2.928125e-02
6.898750e-10,2.979688e-02
6.938750e-10,2.910938e-02
6.978750e-10,2.831250e-02
7.018750e-10,2.714063e-02
7.058750e-10,2.698438e-02
7.098750e-10,2.593750e-02
7.138750e-10,2.518750e-02
7.178750e-10,2.475000e-02
7.218750e-10,2.432813e-02
7.258750e-10,2.348438e-02
7.298750e-10,2.232813e-02
7.338750e-10,2.167188e-02
7.378750e-10,2.115625e-02
7.418750e-10,2.001563e-02
7.458750e-10,1.967188e-02
7.498750e-10,1.914063e-02
7.538750e-10,1.835938e-02
7.578750e-10,1.653125e-02
7.618750e-10,1.637500e-02
7.658750e-10,1.500000e-02
7.698750e-10,1.529688e-02
7.738750e-10,1.437500e-02
7.778750e-10,1.343750e-02
7.818750e-10,1.207813e-02
7.858750e-10,1.182813e-02
7.898750e-10,1.070313e-02
7.938750e-10,9.968750e-03
7.978750e-10,9.656250e-03
8.018750e-10,9.312500e-03
8.058750e-10,8.687500e-03
8.098750e-10,7.734375e-03
8.138750e-10,7.343750e-03
8.178750e-10,7.234375e-03
8.218750e-10,6.500000e-03
8.258750e-10,6.656250e-03
8.298750e-10,6.625000e-03
8.338750e-10,6.359375e-03
8.378750e-10,5.171875e-03
8.418750e-10,5.578125e-03
8.458750e-10,4.812500e-03
8.498750e-10,5.890625e-03
8.538750e-10,5.718750e-03
8.578750e-10,5.531250e-03
8.618750e-10,4.937500e-03
8.658750e-10,5.406250e-03
8.698750e-10,5.078125e-03
8.738750e-10,5.156250e-03
8.778750e-10,5.687500e-03
8.818750e-10,5.968750e-03
8.858750e-10,6.125000e-03
8.898750e-10,5.906250e-03
8.938750e-10,6.156250e-03
8.978750e-10,6.796875e-03
9.018750e-10,6.750000e-03
9.058750e-10,7.546875e-03
9.098750e-10,8.046875e-03
9.138750e-10,8.328125e-03
9.178750e-10,7.671875e-03
9.218750e-10,8.515625e-03
9.258750e-10,8.078125e-03
9.298750e-10,9.562500e-03
9.338750e-10,9.687500e-03
9.378750e-10,9.765625e-03
9.418750e-10,9.406250e-03
9.458750e-10,9.984375e-03
9.498750e-10,9.796875e-03
9.538750e-10,9.968750e-03
9.578750e-10,1.054688e-02
9.618750e-10,1.068750e-02
9.658750e-10,1.078125e-02
9.698750e-10,1.048438e-02
9.738750e-10,1.050000e-02
9.778750e-10,1.101563e-02
9.818750e-10,1.076563e-02
9.858750e-10,1.129688e-02
9.898750e-10,1.150000e-02
9.938750e-10,1.150000e-02
9.978750e-10,1.057813e-02
1.001875e-09,1.114063e-02
1.005875e-09,1.032813e-02
1.009875e-09,1.146875e-02
1.013875e-09,1.125000e-02
1.017875e-09,1.096875e-02
1.021875e-09,1.031250e-02
1.025875e-09,1.056250e-02
1.029875e-09,1.009375e-02
1.033875e-09,1.001563e-02
1.037875e-09,1.034375e-02
1.041875e-09,1.021875e-02
1.045875e-09,1.004688e-02
1.049875e-09,9.562500e-03
1.053875e-09,9.375000e-03
1.057875e-09,9.765625e-03
1.061875e-09,9.390625e-03
1.065875e-09,9.828125e-03
1.069875e-09,9.953125e-03
1.073875e-09,9.968750e-03
1.077875e-09,9.062500e-03
1.081875e-09,9.718750e-03
1.085875e-09,8.953125e-03
1.089875e-09,1.014063e-02
1.093875e-09,1.003125e-02
1.097875e-09,9.890625e-03
1.101875e-09,9.390625e-03
1.105875e-09,9.843750e-03
1.109875e-09,9.578125e-03
1.113875e-09,9.718750e-03
1.117875e-09,1.028125e-02
1.121875e-09,1.043750e-02
1.125875e-09,1.048438e-02
1.129875e-09,1.026563e-02
1.133875e-09,1.034375e-02
1.137875e-09,1.098438e-02
1.141875e-09,1.084375e-02
1.145875e-09,1.154688e-02
1.149875e-09,1.193750e-02
1.153875e-09,1.221875e-02
1.157875e-09,1.150000e-02
1.161875e-09,1.243750e-02
1.165875e-09,1.184375e-02
1.169875e-09,1.320313e-02
1.173875e-09,1.323438e-02
1.177875e-09,1.321875e-02
1.181875e-09,1.282813e-02
1.185875e-09,1.339063e-02
1.189875e-09,1.318750e-02
1.193875e-09,1.335938e-02
1.197875e-09,1.393750e-02
1.201875e-09,1.415625e-02
1.205875e-09,1.412500e-02
1.209875e-09,1.385938e-02
1.213875e-09,1.389063e-02
1.217875e-09,1.440625e-02
1.221875e-09,1.412500e-02
1.225875e-09,1.471875e-02
1.229875e-09,1.493750e-02
1.233875e-09,1.509375e-02
1.237875e-09,1.412500e-02
1.241875e-09,1.489063e-02
1.245875e-09,1.407813e-02
1.249875e-09,1.521875e-02
1.253875e-09,1.500000e-02
1.257875e-09,1.475000e-02
1.261875e-09,1.410938e-02
1.265875e-09,1.443750e-02
1.269875e-09,1.396875e-02
1.273875e-09,1.390625e-02
1.277875e-09,1.421875e-02
1.281875e-09,1.426563e-02
1.285875e-09,1.398438e-02
1.289875e-09,1.348438e-02
1.293875e-09,1.332813e-02
1.297875e-09,1.362500e-02
1.301875e-09,1.314063e-02
1.305875e-09,1.359375e-02
1.309875e-09,1.365625e-02
1.313875e-09,1.370313e-02
1.317875e-09,1.251563e-02
1.321875e-09,1.318750e-02
1.325875e-09,1.226563e-02
1.329875e-09,1.332813e-02
1.333875e-09,1.303125e-02
1.337875e-09,1.273438e-02
1.341875e-09,1.203125e-02
1.345875e-09,1.231250e-02
1.349875e-09,1.182813e-02
1.353875e-09,1.175000e-02
1.357875e-09,1.206250e-02
1.361875e-09,1.214063e-02
1.365875e-09,1.187500e-02
1.369875e-09,1.139063e-02
1.373875e-09,1.128125e-02
1.377875e-09,1.162500e-02
1.381875e-09,1.115625e-02
1.385875e-09,1.165625e-02
1.389875e-09,1.178125e-02
1.393875e-09,1.187500e-02
1.397875e-09,1.067188e-02
1.401875e-09,1.139063e-02
1.405875e-09,1.051563e-02
1.409875e-09,1.162500e-02
1.413875e-09,1.134375e-02
1.417875e-09,1.106250e-02
1.421875e-09,1.037500e-02
1.425875e-09,1.068750e-02
1.429875e-09,1.018750e-02
1.433875e-09,1.010938e-02
1.437875e-09,1.040625e-02
1.441875e-09,1.048438e-02
1.445875e-09,1.018750e-02
1.449875e-09,9.687500e-03
1.453875e-09,9.562500e-03
1.457875e-09,9.843750e-03
1.461875e-09,9.343750e-03
1.465875e-09,9.812500e-03
1.469875e-09,9.875000e-03
1.473875e-09,9.953125e-03
1.477875e-09,8.656250e-03
1.481875e-09,9.328125e-03
1.485875e-09,8.406250e-03
1.489875e-09,9.468750e-03
1.493875e-09,9.156250e-03
1.497875e-09,8.828125e-03
1.501875e-09,8.093750e-03
1.505875e-09,8.375000e-03
1.509875e-09,7.875000e-03
1.513875e-09,7.765625e-03
1.517875e-09,8.062500e-03
1.521875e-09,8.140625e-03
1.525875e-09,7.843750e-03
1.529875e-09,7.359375e-03
1.533875e-09,7.265625e-03
1.537875e-09,7.593750e-03
1.541875e-09,7.125000e-03
1.545875e-09,7.656250e-03
1.549875e-09,7.796875e-03
1.553875e-09,7.953125e-03
1.557875e-09,6.718750e-03
1.561875e-09,7.500000e-03
1.565875e-09,6.671875e-03
1.569875e-09,7.843750e-03
1.573875e-09,7.640625e-03
1.577875e-09,7.437500e-03
1.581875e-09,6.828125e-03
1.585875e-09,7.250000e-03
1.589875e-09,6.859375e-03
1.593875e-09,6.875000e-03
1.597875e-09,7.296875e-03
1.601875e-09,7.515625e-03
1.605875e-09,7.343750e-03
1.609875e-09,6.968750e-03
1.613875e-09,7.000000e-03
1.617875e-09,7.421875e-03
1.621875e-09,7.046875e-03
1.625875e-09,7.671875e-03
1.629875e-09,7.906250e-03
1.633875e-09,8.109375e-03
1.637875e-09,6.937500e-03
1.641875e-09,7.750000e-03
1.645875e-09,6.953125e-03
1.649875e-09,8.156250e-03
1.653875e-09,7.937500e-03
1.657875e-09,7.718750e-03
1.661875e-09,7.093750e-03
1.665875e-09,7.453125e-03
1.669875e-09,7.015625e-03
1.673875e-09,6.953125e-03
1.677875e-09,7.296875e-03
1.681875e-09,7.421875e-03
1.685875e-09,7.156250e-03
1.689875e-09,6.656250e-03
1.693875e-09,6.562500e-03
1.697875e-09,6.859375e-03
1.701875e-09,6.343750e-03
1.705875e-09,6.812500e-03
1.709875e-09,6.890625e-03
1.713875e-09,6.953125e-03
1.717875e-09,5.609375e-03
1.721875e-09,6.281250e-03
1.725875e-09,5.328125e-03
1.729875e-09,6.390625e-03
1.733875e-09,6.031250e-03
1.737875e-09,5.687500e-03
1.741875e-09,4.937500e-03
1.745875e-09,5.187500e-03
1.749875e-09,4.640625e-03
1.753875e-09,4.500000e-03
1.757875e-09,4.781250e-03
