Measurements-streak-laser/Photodiode-on-Tek-12bit-4GHz/Tek000_ch1_20190613132959769.csv

Model,MSO64
Waveform Type,ANALOG
Horizontal Units,s
Sample Interval,4.000000e-12
Record Length,1000
Zero Index,310.546875
Vertical Units,V

TIME,CH1
-1.242188e-09,2.812500e-03
-1.238188e-09,3.328125e-03
-1.234187e-09,3.015625e-03
-1.230187e-09,3.125000e-03
-1.226187e-09,3.640625e-03
-1.222187e-09,3.953125e-03
-1.218187e-09,3.843750e-03
-1.214187e-09,3.546875e-03
-1.210187e-09,3.640625e-03
-1.206187e-09,4.140625e-03
-1.202187e-09,3.812500e-03
-1.198188e-09,4.500000e-03
-1.194188e-09,4.765625e-03
-1.190188e-09,5.015625e-03
-1.186188e-09,3.843750e-03
-1.182188e-09,4.687500e-03
-1.178188e-09,3.890625e-03
-1.174187e-09,5.109375e-03
-1.170187e-09,4.906250e-03
-1.166187e-09,4.687500e-03
-1.162187e-09,4.031250e-03
-1.158187e-09,4.390625e-03
-1.154187e-09,3.921875e-03
-1.150187e-09,3.843750e-03
-1.146187e-09,4.171875e-03
-1.142187e-09,4.265625e-03
-1.138188e-09,3.968750e-03
-1.134188e-09,3.437500e-03
-1.130188e-09,3.312500e-03
-1.126188e-09,3.593750e-03
-1.122188e-09,3.046875e-03
-1.118188e-09,3.515625e-03
-1.114187e-09,3.578125e-03
-1.110187e-09,3.640625e-03
-1.106187e-09,2.281250e-03
-1.102187e-09,2.953125e-03
-1.098187e-09,2.015625e-03
-1.094187e-09,3.109375e-03
-1.090187e-09,2.796875e-03
-1.086187e-09,2.484375e-03
-1.082187e-09,1.781250e-03
-1.078188e-09,2.109375e-03
-1.074188e-09,1.640625e-03
-1.070188e-09,1.593750e-03
-1.066188e-09,1.968750e-03
-1.062188e-09,2.171875e-03
-1.058188e-09,1.968750e-03
-1.054187e-09,1.609375e-03
-1.050187e-09,1.656250e-03
-1.046187e-09,2.140625e-03
-1.042187e-09,1.843750e-03
-1.038187e-09,2.562500e-03
-1.034187e-09,2.921875e-03
-1.030187e-09,3.296875e-03
-1.026187e-09,2.265625e-03
-1.022187e-09,3.296875e-03
-1.018188e-09,2.718750e-03
-1.014188e-09,4.187500e-03
-1.010188e-09,4.250000e-03
-1.006188e-09,4.343750e-03
-1.002188e-09,4.031250e-03
-9.981875e-10,4.750000e-03
-9.941875e-10,4.671875e-03
-9.901875e-10,5.000000e-03
-9.861875e-10,5.750000e-03
-9.821875e-10,6.312500e-03
-9.781875e-10,6.453125e-03
-9.741875e-10,6.390625e-03
-9.701875e-10,6.734375e-03
-9.661875e-10,7.468750e-03
-9.621875e-10,7.406250e-03
-9.581875e-10,8.328125e-03
-9.541875e-10,8.828125e-03
-9.501875e-10,9.328125e-03
-9.461875e-10,8.375000e-03
-9.421875e-10,9.437500e-03
-9.381875e-10,8.843750e-03
-9.341875e-10,1.023438e-02
-9.301875e-10,1.020313e-02
-9.261875e-10,1.014063e-02
-9.221875e-10,9.656250e-03
-9.181875e-10,1.014063e-02
-9.141875e-10,9.781250e-03
-9.101875e-10,9.796875e-03
-9.061875e-10,1.018750e-02
-9.021875e-10,1.034375e-02
-8.981875e-10,1.006250e-02
-8.941875e-10,9.531250e-03
-8.901875e-10,9.390625e-03
-8.861875e-10,9.609375e-03
-8.821875e-10,9.000000e-03
-8.781875e-10,9.359375e-03
-8.741875e-10,9.296875e-03
-8.701875e-10,9.203125e-03
-8.661875e-10,7.703125e-03
-8.621875e-10,8.171875e-03
-8.581875e-10,7.000000e-03
-8.541875e-10,7.718750e-03
-8.501875e-10,7.156250e-03
-8.461875e-10,6.546875e-03
-8.421875e-10,5.546875e-03
-8.381875e-10,5.531250e-03
-8.341875e-10,4.718750e-03
-8.301875e-10,4.328125e-03
-8.261875e-10,4.312500e-03
-8.221875e-10,4.109375e-03
-8.181875e-10,3.531250e-03
-8.141875e-10,2.734375e-03
-8.101875e-10,2.359375e-03
-8.061875e-10,2.421875e-03
-8.021875e-10,1.687500e-03
-7.981875e-10,1.984375e-03
-7.941875e-10,1.906250e-03
-7.901875e-10,1.843750e-03
-7.861875e-10,4.843750e-04
-7.821875e-10,1.093750e-03
-7.781875e-10,1.250000e-04
-7.741875e-10,9.843750e-04
-7.701875e-10,7.656250e-04
-7.661875e-10,5.000000e-04
-7.621875e-10,-4.687500e-05
-7.581875e-10,3.281250e-04
-7.541875e-10,-6.250000e-05
-7.501875e-10,7.812500e-05
-7.461875e-10,5.625000e-04
-7.421875e-10,8.593750e-04
-7.381875e-10,9.375000e-04
-7.341875e-10,6.875000e-04
-7.301875e-10,8.750000e-04
-7.261875e-10,1.468750e-03
-7.221875e-10,1.328125e-03
-7.181875e-10,2.171875e-03
-7.141875e-10,2.656250e-03
-7.101875e-10,3.125000e-03
-7.061875e-10,2.281250e-03
-7.021875e-10,3.406250e-03
-6.981875e-10,2.937500e-03
-6.941875e-10,4.156250e-03
-6.901875e-10,4.359375e-03
-6.861875e-10,4.484375e-03
-6.821875e-10,4.250000e-03
-6.781875e-10,4.843750e-03
-6.741875e-10,4.609375e-03
-6.701875e-10,4.984375e-03
-6.661875e-10,5.546875e-03
-6.621875e-10,5.843750e-03
-6.581875e-10,6.062500e-03
-6.541875e-10,5.734375e-03
-6.501875e-10,5.781250e-03
-6.461875e-10,6.203125e-03
-6.421875e-10,5.906250e-03
-6.381875e-10,6.468750e-03
-6.341875e-10,6.671875e-03
-6.301875e-10,6.781250e-03
-6.261875e-10,5.500000e-03
-6.221875e-10,6.218750e-03
-6.181875e-10,5.406250e-03
-6.141875e-10,6.125000e-03
-6.101875e-10,5.859375e-03
-6.061875e-10,5.515625e-03
-6.021875e-10,4.765625e-03
-5.981875e-10,4.796875e-03
-5.941875e-10,3.984375e-03
-5.901875e-10,3.859375e-03
-5.861875e-10,3.921875e-03
-5.821875e-10,3.656250e-03
-5.781875e-10,3.453125e-03
-5.741875e-10,2.656250e-03
-5.701875e-10,2.265625e-03
-5.661875e-10,2.296875e-03
-5.621875e-10,1.671875e-03
-5.581875e-10,1.921875e-03
-5.541875e-10,1.812500e-03
-5.501875e-10,1.656250e-03
-5.461875e-10,1.562500e-04
-5.421875e-10,7.187500e-04
-5.381875e-10,-9.375000e-05
-5.341875e-10,5.781250e-04
-5.301875e-10,4.062500e-04
-5.261875e-10,9.375000e-05
-5.221875e-10,-5.312500e-04
-5.181875e-10,-3.281250e-04
-5.141875e-10,-8.750000e-04
-5.101875e-10,-7.656250e-04
-5.061875e-10,-3.281250e-04
-5.021875e-10,-2.500000e-04
-4.981875e-10,-9.375000e-05
-4.941875e-10,-4.218750e-04
-4.901875e-10,-2.812500e-04
-4.861875e-10,3.125000e-04
-4.821875e-10,1.718750e-04
-4.781875e-10,1.031250e-03
-4.741875e-10,1.453125e-03
-4.701875e-10,1.875000e-03
-4.661875e-10,9.531250e-04
-4.621875e-10,2.015625e-03
-4.581875e-10,1.812500e-03
-4.541875e-10,3.046875e-03
-4.501875e-10,3.484375e-03
-4.461875e-10,3.609375e-03
-4.421875e-10,3.453125e-03
-4.381875e-10,4.125000e-03
-4.341875e-10,4.093750e-03
-4.301875e-10,4.468750e-03
-4.261875e-10,5.281250e-03
-4.221875e-10,5.656250e-03
-4.181875e-10,5.890625e-03
-4.141875e-10,5.781250e-03
-4.101875e-10,6.140625e-03
-4.061875e-10,6.843750e-03
-4.021875e-10,6.625000e-03
-3.981875e-10,7.500000e-03
-3.941875e-10,7.812500e-03
-3.901875e-10,8.078125e-03
-3.861875e-10,7.000000e-03
-3.821875e-10,7.718750e-03
-3.781875e-10,7.203125e-03
-3.741875e-10,8.125000e-03
-3.701875e-10,8.187500e-03
-3.661875e-10,7.843750e-03
-3.621875e-10,7.250000e-03
-3.581875e-10,7.453125e-03
-3.541875e-10,7.015625e-03
-3.501875e-10,6.750000e-03
-3.461875e-10,7.031250e-03
-3.421875e-10,6.859375e-03
-3.381875e-10,6.453125e-03
-3.341875e-10,5.843750e-03
-3.301875e-10,5.718750e-03
-3.261875e-10,5.921875e-03
-3.221875e-10,5.171875e-03
-3.181875e-10,5.531250e-03
-3.141875e-10,5.484375e-03
-3.101875e-10,5.328125e-03
-3.061875e-10,3.937500e-03
-3.021875e-10,4.250000e-03
-2.981875e-10,3.437500e-03
-2.941875e-10,4.156250e-03
-2.901875e-10,3.984375e-03
-2.861875e-10,3.500000e-03
-2.821875e-10,2.906250e-03
-2.781875e-10,3.109375e-03
-2.741875e-10,2.718750e-03
-2.701875e-10,2.500000e-03
-2.661875e-10,2.875000e-03
-2.621875e-10,2.906250e-03
-2.581875e-10,2.687500e-03
-2.541875e-10,2.437500e-03
-2.501875e-10,2.578125e-03
-2.461875e-10,3.125000e-03
-2.421875e-10,2.781250e-03
-2.381875e-10,3.468750e-03
-2.341875e-10,3.906250e-03
-2.301875e-10,4.187500e-03
-2.261875e-10,3.328125e-03
-2.221875e-10,4.078125e-03
-2.181875e-10,3.656250e-03
-2.141875e-10,4.859375e-03
-2.101875e-10,5.046875e-03
-2.061875e-10,5.015625e-03
-2.021875e-10,4.875000e-03
-1.981875e-10,5.437500e-03
-1.941875e-10,5.328125e-03
-1.901875e-10,5.437500e-03
-1.861875e-10,5.984375e-03
-1.821875e-10,6.218750e-03
-1.781875e-10,6.109375e-03
-1.741875e-10,6.000000e-03
-1.701875e-10,6.109375e-03
-1.661875e-10,6.546875e-03
-1.621875e-10,6.171875e-03
-1.581875e-10,6.703125e-03
-1.541875e-10,6.921875e-03
-1.501875e-10,6.984375e-03
-1.461875e-10,5.890625e-03
-1.421875e-10,6.328125e-03
-1.381875e-10,5.453125e-03
-1.341875e-10,6.343750e-03
-1.301875e-10,6.000000e-03
-1.261875e-10,5.593750e-03
-1.221875e-10,5.015625e-03
-1.181875e-10,5.171875e-03
-1.141875e-10,4.625000e-03
-1.101875e-10,4.406250e-03
-1.061875e-10,4.562500e-03
-1.021875e-10,4.515625e-03
-9.818750e-11,4.171875e-03
-9.418750e-11,3.953125e-03
-9.018750e-11,3.968750e-03
-8.618750e-11,4.312500e-03
-8.218750e-11,4.125000e-03
-7.818750e-11,4.953125e-03
-7.418750e-11,5.531250e-03
-7.018750e-11,6.234375e-03
-6.618750e-11,5.937500e-03
-6.218750e-11,7.312500e-03
-5.818750e-11,7.484375e-03
-5.418750e-11,9.750000e-03
-5.018750e-11,1.082813e-02
-4.618750e-11,1.218750e-02
-4.218750e-11,1.356250e-02
-3.818750e-11,1.590625e-02
-3.418750e-11,1.778125e-02
-3.018750e-11,2.023438e-02
-2.618750e-11,2.326563e-02
-2.218750e-11,2.642188e-02
-1.818750e-11,2.939063e-02
-1.418750e-11,3.276563e-02
-1.018750e-11,3.657813e-02
-6.187500e-12,4.089063e-02
-2.187500e-12,4.493750e-02
1.812500e-12,5.023438e-02
5.812500e-12,5.542188e-02
9.812500e-12,6.103125e-02
1.381250e-11,6.576563e-02
1.781250e-11,7.226563e-02
2.181250e-11,7.767188e-02
2.581250e-11,8.534375e-02
2.981250e-11,9.181250e-02
3.381250e-11,9.878125e-02
3.781250e-11,1.057344e-01
4.181250e-11,1.136719e-01
4.581250e-11,1.211719e-01
4.981250e-11,1.291875e-01
5.381250e-11,1.378125e-01
5.781250e-11,1.465625e-01
6.181250e-11,1.548281e-01
6.581250e-11,1.634531e-01
6.981250e-11,1.723750e-01
7.381250e-11,1.815625e-01
7.781250e-11,1.904063e-01
8.181250e-11,2.002031e-01
8.581250e-11,2.096094e-01
8.981250e-11,2.192969e-01
9.381250e-11,2.276875e-01
9.781250e-11,2.376094e-01
1.018125e-10,2.460469e-01
1.058125e-10,2.563906e-01
1.098125e-10,2.651250e-01
1.138125e-10,2.741094e-01
1.178125e-10,2.825313e-01
1.218125e-10,2.915156e-01
1.258125e-10,2.997344e-01
1.298125e-10,3.080000e-01
1.338125e-10,3.164375e-01
1.378125e-10,3.246875e-01
1.418125e-10,3.318125e-01
1.458125e-10,3.388906e-01
1.498125e-10,3.458594e-01
1.538125e-10,3.526719e-01
1.578125e-10,3.587500e-01
1.618125e-10,3.652969e-01
1.658125e-10,3.709531e-01
1.698125e-10,3.766094e-01
1.738125e-10,3.804844e-01
1.778125e-10,3.856250e-01
1.818125e-10,3.889063e-01
1.858125e-10,3.936563e-01
1.898125e-10,3.964844e-01
1.938125e-10,3.993125e-01
1.978125e-10,4.012500e-01
2.018125e-10,4.034688e-01
2.058125e-10,4.048281e-01
2.098125e-10,4.059688e-01
2.138125e-10,4.070313e-01
2.178125e-10,4.078594e-01
2.218125e-10,4.073438e-01
2.258125e-10,4.066406e-01
2.298125e-10,4.058594e-01
2.338125e-10,4.048750e-01
2.378125e-10,4.031094e-01
2.418125e-10,4.017344e-01
2.458125e-10,3.995000e-01
2.498125e-10,3.973750e-01
2.538125e-10,3.934531e-01
2.578125e-10,3.910313e-01
2.618125e-10,3.868594e-01
2.658125e-10,3.841563e-01
2.698125e-10,3.797500e-01
2.738125e-10,3.755000e-01
2.778125e-10,3.705625e-01
2.818125e-10,3.661563e-01
2.858125e-10,3.611406e-01
2.898125e-10,3.561250e-01
2.938125e-10,3.512031e-01
2.978125e-10,3.463438e-01
3.018125e-10,3.404219e-01
3.058125e-10,3.345313e-01
3.098125e-10,3.288906e-01
3.138125e-10,3.233594e-01
3.178125e-10,3.172344e-01
3.218125e-10,3.117969e-01
3.258125e-10,3.058125e-01
3.298125e-10,3.002344e-01
3.338125e-10,2.930781e-01
3.378125e-10,2.877813e-01
3.418125e-10,2.810469e-01
3.458125e-10,2.759063e-01
3.498125e-10,2.694219e-01
3.538125e-10,2.632969e-01
3.578125e-10,2.567031e-01
3.618125e-10,2.509844e-01
3.658125e-10,2.448750e-01
3.698125e-10,2.389531e-01
3.738125e-10,2.332813e-01
3.778125e-10,2.278438e-01
3.818125e-10,2.216875e-01
3.858125e-10,2.156406e-01
3.898125e-10,2.100000e-01
3.938125e-10,2.047031e-01
3.978125e-10,1.988594e-01
4.018125e-10,1.938594e-01
4.058125e-10,1.885469e-01
4.098125e-10,1.836563e-01
4.138125e-10,1.772969e-01
4.178125e-10,1.730000e-01
4.218125e-10,1.673438e-01
4.258125e-10,1.633125e-01
4.298125e-10,1.581094e-01
4.338125e-10,1.532500e-01
4.378125e-10,1.480156e-01
4.418125e-10,1.437500e-01
4.458125e-10,1.391563e-01
4.498125e-10,1.347969e-01
4.538125e-10,1.306875e-01
4.578125e-10,1.268438e-01
4.618125e-10,1.225000e-01
4.658125e-10,1.182344e-01
4.698125e-10,1.143438e-01
4.738125e-10,1.109219e-01
4.778125e-10,1.069219e-01
4.818125e-10,1.037500e-01
4.858125e-10,1.004219e-01
4.898125e-10,9.743750e-02
4.938125e-10,9.307813e-02
4.978125e-10,9.081250e-02
5.018125e-10,8.721875e-02
5.058125e-10,8.526563e-02
5.098125e-10,8.225000e-02
5.138125e-10,7.945313e-02
5.178125e-10,7.639063e-02
5.218125e-10,7.429688e-02
5.258125e-10,7.179688e-02
5.298125e-10,6.965625e-02
5.338125e-10,6.773438e-02
5.378125e-10,6.606250e-02
5.418125e-10,6.403125e-02
5.458125e-10,6.198438e-02
5.498125e-10,6.034375e-02
5.538125e-10,5.915625e-02
5.578125e-10,5.735938e-02
5.618125e-10,5.634375e-02
5.658125e-10,5.523438e-02
5.698125e-10,5.431250e-02
5.738125e-10,5.214063e-02
5.778125e-10,5.190625e-02
5.818125e-10,5.040625e-02
5.858125e-10,5.048438e-02
5.898125e-10,4.950000e-02
5.938125e-10,4.851563e-02
5.978125e-10,4.734375e-02
6.018125e-10,4.707813e-02
6.058125e-10,4.618750e-02
6.098125e-10,4.562500e-02
6.138125e-10,4.529688e-02
6.178125e-10,4.509375e-02
6.218125e-10,4.450000e-02
6.258125e-10,4.373438e-02
6.298125e-10,4.339063e-02
6.338125e-10,4.325000e-02
6.378125e-10,4.246875e-02
6.418125e-10,4.240625e-02
6.458125e-10,4.218750e-02
6.498125e-10,4.190625e-02
6.538125e-10,4.039063e-02
6.578125e-10,4.060938e-02
6.618125e-10,3.959375e-02
6.658125e-10,4.006250e-02
6.698125e-10,3.935938e-02
6.738125e-10,3.851563e-02
6.778125e-10,3.737500e-02
6.818125e-10,3.718750e-02
6.858125e-10,3.612500e-02
6.898125e-10,3.534375e-02
6.938125e-10,3.484375e-02
6.978125e-10,3.437500e-02
7.018125e-10,3.348438e-02
7.058125e-10,3.228125e-02
7.098125e-10,3.157813e-02
7.138125e-10,3.093750e-02
7.178125e-10,2.970313e-02
7.218125e-10,2.920313e-02
7.258125e-10,2.854688e-02
7.298125e-10,2.764063e-02
7.338125e-10,2.568750e-02
7.378125e-10,2.535938e-02
7.418125e-10,2.389063e-02
7.458125e-10,2.396875e-02
7.498125e-10,2.287500e-02
7.538125e-10,2.171875e-02
7.578125e-10,2.017188e-02
7.618125e-10,1.975000e-02
7.658125e-10,1.842188e-02
7.698125e-10,1.743750e-02
7.738125e-10,1.689063e-02
7.778125e-10,1.637500e-02
7.818125e-10,1.554688e-02
7.858125e-10,1.439063e-02
7.898125e-10,1.384375e-02
7.938125e-10,1.348438e-02
7.978125e-10,1.256250e-02
8.018125e-10,1.250000e-02
8.058125e-10,1.234375e-02
8.098125e-10,1.187500e-02
8.138125e-10,1.056250e-02
8.178125e-10,1.082813e-02
8.218125e-10,1.000000e-02
8.258125e-10,1.093750e-02
8.298125e-10,1.067188e-02
8.338125e-10,1.042188e-02
8.378125e-10,9.765625e-03
8.418125e-10,1.021875e-02
8.458125e-10,9.859375e-03
8.498125e-10,9.890625e-03
8.538125e-10,1.040625e-02
8.578125e-10,1.076563e-02
8.618125e-10,1.098438e-02
8.658125e-10,1.082813e-02
8.698125e-10,1.118750e-02
8.738125e-10,1.189063e-02
8.778125e-10,1.195313e-02
8.818125e-10,1.284375e-02
8.858125e-10,1.351563e-02
8.898125e-10,1.389063e-02
8.938125e-10,1.340625e-02
8.978125e-10,1.437500e-02
9.018125e-10,1.412500e-02
9.058125e-10,1.576563e-02
9.098125e-10,1.606250e-02
9.138125e-10,1.631250e-02
9.178125e-10,1.609375e-02
9.218125e-10,1.682813e-02
9.258125e-10,1.678125e-02
9.298125e-10,1.707813e-02
9.338125e-10,1.778125e-02
9.378125e-10,1.804688e-02
9.418125e-10,1.826563e-02
9.458125e-10,1.804688e-02
9.498125e-10,1.814063e-02
9.538125e-10,1.871875e-02
9.578125e-10,1.853125e-02
9.618125e-10,1.907813e-02
9.658125e-10,1.926563e-02
9.698125e-10,1.923438e-02
9.738125e-10,1.829688e-02
9.778125e-10,1.873438e-02
9.818125e-10,1.784375e-02
9.858125e-10,1.889063e-02
9.898125e-10,1.856250e-02
9.938125e-10,1.814063e-02
9.978125e-10,1.729688e-02
1.001813e-09,1.732813e-02
1.005813e-09,1.664063e-02
1.009813e-09,1.632813e-02
1.013813e-09,1.640625e-02
1.017812e-09,1.595313e-02
1.021812e-09,1.551563e-02
1.025812e-09,1.473438e-02
1.029812e-09,1.420313e-02
1.033812e-09,1.428125e-02
1.037812e-09,1.360938e-02
1.041812e-09,1.367188e-02
1.045812e-09,1.342188e-02
1.049812e-09,1.304688e-02
1.053813e-09,1.182813e-02
1.057813e-09,1.207813e-02
1.061813e-09,1.093750e-02
1.065813e-09,1.178125e-02
1.069813e-09,1.132813e-02
1.073813e-09,1.082813e-02
1.077812e-09,1.001563e-02
1.081812e-09,1.012500e-02
1.085812e-09,9.546875e-03
1.089812e-09,9.390625e-03
1.093812e-09,9.671875e-03
1.097812e-09,9.484375e-03
1.101812e-09,9.296875e-03
1.105812e-09,8.859375e-03
1.109812e-09,8.687500e-03
1.113813e-09,9.140625e-03
1.117813e-09,8.843750e-03
1.121813e-09,9.343750e-03
1.125813e-09,9.578125e-03
1.129813e-09,9.703125e-03
1.133813e-09,8.953125e-03
1.137812e-09,9.781250e-03
1.141812e-09,9.125000e-03
1.145812e-09,1.042188e-02
1.149812e-09,1.043750e-02
1.153812e-09,1.042188e-02
1.157812e-09,1.006250e-02
1.161812e-09,1.064063e-02
1.165812e-09,1.048438e-02
1.169812e-09,1.073438e-02
1.173813e-09,1.139063e-02
1.177813e-09,1.164063e-02
1.181813e-09,1.173438e-02
1.185813e-09,1.157813e-02
1.189813e-09,1.168750e-02
1.193813e-09,1.234375e-02
1.197812e-09,1.220313e-02
1.201812e-09,1.290625e-02
1.205812e-09,1.326563e-02
1.209812e-09,1.353125e-02
1.213812e-09,1.276563e-02
1.217812e-09,1.365625e-02
1.221812e-09,1.298438e-02
1.225812e-09,1.423438e-02
1.229812e-09,1.415625e-02
1.233813e-09,1.403125e-02
1.237813e-09,1.351563e-02
1.241813e-09,1.395313e-02
1.245813e-09,1.360938e-02
1.249813e-09,1.364063e-02
1.253813e-09,1.406250e-02
1.257812e-09,1.417188e-02
1.261812e-09,1.398438e-02
1.265812e-09,1.356250e-02
1.269812e-09,1.345313e-02
1.273812e-09,1.382813e-02
1.277812e-09,1.339063e-02
1.281812e-09,1.385938e-02
1.285812e-09,1.396875e-02
1.289812e-09,1.401563e-02
1.293813e-09,1.290625e-02
1.297813e-09,1.359375e-02
1.301813e-09,1.268750e-02
1.305813e-09,1.375000e-02
1.309813e-09,1.345313e-02
1.313813e-09,1.315625e-02
1.317812e-09,1.246875e-02
1.321812e-09,1.275000e-02
1.325812e-09,1.226563e-02
1.329812e-09,1.217188e-02
1.333812e-09,1.248438e-02
1.337812e-09,1.256250e-02
1.341812e-09,1.228125e-02
1.345812e-09,1.181250e-02
1.349812e-09,1.170313e-02
1.353813e-09,1.204688e-02
1.357813e-09,1.160938e-02
1.361813e-09,1.212500e-02
1.365813e-09,1.226563e-02
1.369813e-09,1.237500e-02
1.373813e-09,1.123438e-02
1.377812e-09,1.198438e-02
1.381812e-09,1.115625e-02
1.385812e-09,1.229688e-02
1.389812e-09,1.207813e-02
1.393812e-09,1.184375e-02
1.397812e-09,1.123438e-02
1.401812e-09,1.159375e-02
1.405812e-09,1.118750e-02
1.409812e-09,1.117188e-02
1.413813e-09,1.156250e-02
1.417813e-09,1.170313e-02
1.421813e-09,1.150000e-02
1.425813e-09,1.106250e-02
1.429813e-09,1.103125e-02
1.433813e-09,1.140625e-02
1.437812e-09,1.098438e-02
1.441812e-09,1.153125e-02
1.445812e-09,1.168750e-02
1.449812e-09,1.182813e-02
1.453812e-09,1.064063e-02
1.457812e-09,1.137500e-02
1.461812e-09,1.051563e-02
1.465812e-09,1.165625e-02
1.469812e-09,1.139063e-02
1.473812e-09,1.112500e-02
1.477813e-09,1.043750e-02
1.481813e-09,1.076563e-02
1.485813e-09,1.029688e-02
1.489813e-09,1.020313e-02
1.493813e-09,1.053125e-02
1.497812e-09,1.062500e-02
1.501812e-09,1.034375e-02
1.505812e-09,9.843750e-03
1.509812e-09,9.734375e-03
1.513812e-09,1.004688e-02
1.517812e-09,9.562500e-03
1.521812e-09,1.006250e-02
1.525812e-09,1.015625e-02
1.529812e-09,1.025000e-02
1.533812e-09,8.984375e-03
1.537813e-09,9.703125e-03
1.541813e-09,8.812500e-03
1.545813e-09,9.921875e-03
1.549813e-09,9.640625e-03
1.553813e-09,9.359375e-03
1.557812e-09,8.671875e-03
1.561812e-09,9.000000e-03
1.565812e-09,8.531250e-03
1.569812e-09,8.453125e-03
1.573812e-09,8.781250e-03
1.577812e-09,8.921875e-03
1.581812e-09,8.656250e-03
1.585812e-09,8.203125e-03
1.589812e-09,8.140625e-03
1.593812e-09,8.484375e-03
1.597813e-09,8.031250e-03
1.601813e-09,8.578125e-03
1.605813e-09,8.718750e-03
1.609813e-09,8.859375e-03
1.613813e-09,7.625000e-03
1.617812e-09,8.375000e-03
1.621812e-09,7.515625e-03
1.625812e-09,8.656250e-03
1.629812e-09,8.406250e-03
1.633812e-09,8.140625e-03
1.637812e-09,7.468750e-03
1.641812e-09,7.796875e-03
1.645812e-09,7.328125e-03
1.649812e-09,7.250000e-03
1.653812e-09,7.562500e-03
1.657813e-09,7.671875e-03
1.661813e-09,7.375000e-03
1.665813e-09,6.875000e-03
1.669813e-09,6.781250e-03
1.673813e-09,7.062500e-03
1.677812e-09,6.562500e-03
1.681812e-09,7.031250e-03
1.685812e-09,7.109375e-03
1.689812e-09,7.171875e-03
1.693812e-09,5.843750e-03
1.697812e-09,6.515625e-03
1.701812e-09,5.562500e-03
1.705812e-09,6.625000e-03
1.709812e-09,6.281250e-03
1.713812e-09,5.937500e-03
1.717813e-09,5.187500e-03
1.721813e-09,5.437500e-03
1.725813e-09,4.890625e-03
1.729813e-09,4.750000e-03
1.733813e-09,5.000000e-03
1.737812e-09,5.062500e-03
1.741812e-09,4.734375e-03
1.745812e-09,4.203125e-03
1.749812e-09,4.078125e-03
1.753812e-09,4.359375e-03
1.757812e-09,3.859375e-03
