Measurements-streak-laser/Photodiode-on-Tek-12bit-4GHz/Tek000_ch1_20190613132924167.csv

Model,MSO64
Waveform Type,ANALOG
Horizontal Units,s
Sample Interval,4.000000e-12
Record Length,1000
Zero Index,310.531250
Vertical Units,V

TIME,CH1
-1.242125e-09,6.968750e-03
-1.238125e-09,7.890625e-03
-1.234125e-09,7.187500e-03
-1.230125e-09,8.500000e-03
-1.226125e-09,8.406250e-03
-1.222125e-09,8.296875e-03
-1.218125e-09,7.781250e-03
-1.214125e-09,8.265625e-03
-1.210125e-09,7.937500e-03
-1.206125e-09,7.984375e-03
-1.202125e-09,8.437500e-03
-1.198125e-09,8.687500e-03
-1.194125e-09,8.500000e-03
-1.190125e-09,8.109375e-03
-1.186125e-09,8.109375e-03
-1.182125e-09,8.484375e-03
-1.178125e-09,8.062500e-03
-1.174125e-09,8.625000e-03
-1.170125e-09,8.750000e-03
-1.166125e-09,8.875000e-03
-1.162125e-09,7.562500e-03
-1.158125e-09,8.265625e-03
-1.154125e-09,7.343750e-03
-1.150125e-09,8.406250e-03
-1.146125e-09,8.062500e-03
-1.142125e-09,7.703125e-03
-1.138125e-09,6.906250e-03
-1.134125e-09,7.125000e-03
-1.130125e-09,6.531250e-03
-1.126125e-09,6.312500e-03
-1.122125e-09,6.515625e-03
-1.118125e-09,6.484375e-03
-1.114125e-09,6.046875e-03
-1.110125e-09,5.406250e-03
-1.106125e-09,5.171875e-03
-1.102125e-09,5.343750e-03
-1.098125e-09,4.687500e-03
-1.094125e-09,5.046875e-03
-1.090125e-09,5.015625e-03
-1.086125e-09,4.968750e-03
-1.082125e-09,3.531250e-03
-1.078125e-09,4.109375e-03
-1.074125e-09,3.078125e-03
-1.070125e-09,4.078125e-03
-1.066125e-09,3.671875e-03
-1.062125e-09,3.265625e-03
-1.058125e-09,2.484375e-03
-1.054125e-09,2.703125e-03
-1.050125e-09,2.140625e-03
-1.046125e-09,2.000000e-03
-1.042125e-09,2.281250e-03
-1.038125e-09,2.359375e-03
-1.034125e-09,2.062500e-03
-1.030125e-09,1.578125e-03
-1.026125e-09,1.500000e-03
-1.022125e-09,1.859375e-03
-1.018125e-09,1.421875e-03
-1.014125e-09,2.000000e-03
-1.010125e-09,2.203125e-03
-1.006125e-09,2.421875e-03
-1.002125e-09,1.234375e-03
-9.981250e-10,2.093750e-03
-9.941250e-10,1.343750e-03
-9.901250e-10,2.609375e-03
-9.861250e-10,2.500000e-03
-9.821250e-10,2.390625e-03
-9.781250e-10,1.890625e-03
-9.741250e-10,2.421875e-03
-9.701250e-10,2.140625e-03
-9.661250e-10,2.281250e-03
-9.621250e-10,2.828125e-03
-9.581250e-10,3.187500e-03
-9.541250e-10,3.140625e-03
-9.501250e-10,2.890625e-03
-9.461250e-10,3.062500e-03
-9.421250e-10,3.625000e-03
-9.381250e-10,3.375000e-03
-9.341250e-10,4.156250e-03
-9.301250e-10,4.515625e-03
-9.261250e-10,4.875000e-03
-9.221250e-10,3.828125e-03
-9.181250e-10,4.781250e-03
-9.141250e-10,4.125000e-03
-9.101250e-10,5.437500e-03
-9.061250e-10,5.375000e-03
-9.021250e-10,5.296875e-03
-8.981250e-10,4.812500e-03
-8.941250e-10,5.312500e-03
-8.901250e-10,5.000000e-03
-8.861250e-10,5.093750e-03
-8.821250e-10,5.578125e-03
-8.781250e-10,5.843750e-03
-8.741250e-10,5.718750e-03
-8.701250e-10,5.359375e-03
-8.661250e-10,5.390625e-03
-8.621250e-10,5.828125e-03
-8.581250e-10,5.437500e-03
-8.541250e-10,6.062500e-03
-8.501250e-10,6.265625e-03
-8.461250e-10,6.453125e-03
-8.421250e-10,5.265625e-03
-8.381250e-10,6.046875e-03
-8.341250e-10,5.218750e-03
-8.301250e-10,6.281250e-03
-8.261250e-10,6.078125e-03
-8.221250e-10,5.828125e-03
-8.181250e-10,5.218750e-03
-8.141250e-10,5.562500e-03
-8.101250e-10,5.109375e-03
-8.061250e-10,5.093750e-03
-8.021250e-10,5.437500e-03
-7.981250e-10,5.578125e-03
-7.941250e-10,5.375000e-03
-7.901250e-10,4.906250e-03
-7.861250e-10,4.859375e-03
-7.821250e-10,5.218750e-03
-7.781250e-10,4.781250e-03
-7.741250e-10,5.343750e-03
-7.701250e-10,5.515625e-03
-7.661250e-10,5.687500e-03
-7.621250e-10,4.515625e-03
-7.581250e-10,5.296875e-03
-7.541250e-10,4.500000e-03
-7.501250e-10,5.531250e-03
-7.461250e-10,5.406250e-03
-7.421250e-10,5.218750e-03
-7.381250e-10,4.687500e-03
-7.341250e-10,5.078125e-03
-7.301250e-10,4.656250e-03
-7.261250e-10,4.750000e-03
-7.221250e-10,5.156250e-03
-7.181250e-10,5.375000e-03
-7.141250e-10,5.328125e-03
-7.101250e-10,4.937500e-03
-7.061250e-10,4.953125e-03
-7.021250e-10,5.375000e-03
-6.981250e-10,5.031250e-03
-6.941250e-10,5.671875e-03
-6.901250e-10,5.937500e-03
-6.861250e-10,6.156250e-03
-6.821250e-10,5.031250e-03
-6.781250e-10,5.890625e-03
-6.741250e-10,5.187500e-03
-6.701250e-10,6.234375e-03
-6.661250e-10,6.156250e-03
-6.621250e-10,6.031250e-03
-6.581250e-10,5.531250e-03
-6.541250e-10,5.921875e-03
-6.501250e-10,5.484375e-03
-6.461250e-10,5.609375e-03
-6.421250e-10,6.015625e-03
-6.381250e-10,6.156250e-03
-6.341250e-10,6.171875e-03
-6.301250e-10,5.750000e-03
-6.261250e-10,5.718750e-03
-6.221250e-10,6.093750e-03
-6.181250e-10,5.765625e-03
-6.141250e-10,6.328125e-03
-6.101250e-10,6.546875e-03
-6.061250e-10,6.718750e-03
-6.021250e-10,5.500000e-03
-5.981250e-10,6.328125e-03
-5.941250e-10,5.625000e-03
-5.901250e-10,6.609375e-03
-5.861250e-10,6.531250e-03
-5.821250e-10,6.359375e-03
-5.781250e-10,5.843750e-03
-5.741250e-10,6.171875e-03
-5.701250e-10,5.687500e-03
-5.661250e-10,5.812500e-03
-5.621250e-10,6.218750e-03
-5.581250e-10,6.328125e-03
-5.541250e-10,6.359375e-03
-5.501250e-10,5.953125e-03
-5.461250e-10,5.953125e-03
-5.421250e-10,6.359375e-03
-5.381250e-10,6.062500e-03
-5.341250e-10,6.703125e-03
-5.301250e-10,6.937500e-03
-5.261250e-10,7.140625e-03
-5.221250e-10,5.968750e-03
-5.181250e-10,6.828125e-03
-5.141250e-10,6.250000e-03
-5.101250e-10,7.296875e-03
-5.061250e-10,7.328125e-03
-5.021250e-10,7.203125e-03
-4.981250e-10,6.734375e-03
-4.941250e-10,7.140625e-03
-4.901250e-10,6.765625e-03
-4.861250e-10,6.906250e-03
-4.821250e-10,7.406250e-03
-4.781250e-10,7.578125e-03
-4.741250e-10,7.593750e-03
-4.701250e-10,7.234375e-03
-4.661250e-10,7.328125e-03
-4.621250e-10,7.796875e-03
-4.581250e-10,7.468750e-03
-4.541250e-10,8.156250e-03
-4.501250e-10,8.359375e-03
-4.461250e-10,8.562500e-03
-4.421250e-10,7.375000e-03
-4.381250e-10,8.125000e-03
-4.341250e-10,7.515625e-03
-4.301250e-10,8.515625e-03
-4.261250e-10,8.500000e-03
-4.221250e-10,8.250000e-03
-4.181250e-10,7.687500e-03
-4.141250e-10,8.000000e-03
-4.101250e-10,7.593750e-03
-4.061250e-10,7.531250e-03
-4.021250e-10,7.937500e-03
-3.981250e-10,7.968750e-03
-3.941250e-10,7.750000e-03
-3.901250e-10,7.296875e-03
-3.861250e-10,7.281250e-03
-3.821250e-10,7.656250e-03
-3.781250e-10,7.125000e-03
-3.741250e-10,7.687500e-03
-3.701250e-10,7.781250e-03
-3.661250e-10,7.859375e-03
-3.621250e-10,6.593750e-03
-3.581250e-10,7.187500e-03
-3.541250e-10,6.484375e-03
-3.501250e-10,7.421875e-03
-3.461250e-10,7.343750e-03
-3.421250e-10,7.015625e-03
-3.381250e-10,6.453125e-03
-3.341250e-10,6.765625e-03
-3.301250e-10,6.421875e-03
-3.261250e-10,6.343750e-03
-3.221250e-10,6.765625e-03
-3.181250e-10,6.890625e-03
-3.141250e-10,6.703125e-03
-3.101250e-10,6.390625e-03
-3.061250e-10,6.531250e-03
-3.021250e-10,7.046875e-03
-2.981250e-10,6.687500e-03
-2.941250e-10,7.375000e-03
-2.901250e-10,7.734375e-03
-2.861250e-10,8.000000e-03
-2.821250e-10,7.015625e-03
-2.781250e-10,7.796875e-03
-2.741250e-10,7.312500e-03
-2.701250e-10,8.515625e-03
-2.661250e-10,8.625000e-03
-2.621250e-10,8.578125e-03
-2.581250e-10,8.296875e-03
-2.541250e-10,8.859375e-03
-2.501250e-10,8.734375e-03
-2.461250e-10,8.859375e-03
-2.421250e-10,9.468750e-03
-2.381250e-10,9.765625e-03
-2.341250e-10,9.734375e-03
-2.301250e-10,9.609375e-03
-2.261250e-10,9.828125e-03
-2.221250e-10,1.040625e-02
-2.181250e-10,1.012500e-02
-2.141250e-10,1.082813e-02
-2.101250e-10,1.118750e-02
-2.061250e-10,1.142188e-02
-2.021250e-10,1.039063e-02
-1.981250e-10,1.107813e-02
-1.941250e-10,1.039063e-02
-1.901250e-10,1.145313e-02
-1.861250e-10,1.129688e-02
-1.821250e-10,1.103125e-02
-1.781250e-10,1.051563e-02
-1.741250e-10,1.078125e-02
-1.701250e-10,1.029688e-02
-1.661250e-10,1.010938e-02
-1.621250e-10,1.031250e-02
-1.581250e-10,1.025000e-02
-1.541250e-10,9.812500e-03
-1.501250e-10,9.343750e-03
-1.461250e-10,9.125000e-03
-1.421250e-10,9.250000e-03
-1.381250e-10,8.625000e-03
-1.341250e-10,8.953125e-03
-1.301250e-10,8.953125e-03
-1.261250e-10,8.921875e-03
-1.221250e-10,7.671875e-03
-1.181250e-10,8.156250e-03
-1.141250e-10,7.250000e-03
-1.101250e-10,8.281250e-03
-1.061250e-10,8.031250e-03
-1.021250e-10,7.843750e-03
-9.812500e-11,7.468750e-03
-9.412500e-11,7.984375e-03
-9.012500e-11,7.812500e-03
-8.612500e-11,8.093750e-03
-8.212500e-11,8.812500e-03
-7.812500e-11,9.453125e-03
-7.412500e-11,9.796875e-03
-7.012500e-11,1.025000e-02
-6.612500e-11,1.106250e-02
-6.212500e-11,1.229688e-02
-5.812500e-11,1.300000e-02
-5.412500e-11,1.479688e-02
-5.012500e-11,1.635938e-02
-4.612500e-11,1.812500e-02
-4.212500e-11,1.879688e-02
-3.812500e-11,2.131250e-02
-3.412500e-11,2.254688e-02
-3.012500e-11,2.590625e-02
-2.612500e-11,2.804688e-02
-2.212500e-11,3.045313e-02
-1.812500e-11,3.276563e-02
-1.412500e-11,3.607813e-02
-1.012500e-11,3.884375e-02
-6.125000e-12,4.215625e-02
-2.125000e-12,4.600000e-02
1.875000e-12,4.989063e-02
5.875000e-12,5.346875e-02
9.875000e-12,5.728125e-02
1.387500e-11,6.148438e-02
1.787500e-11,6.609375e-02
2.187500e-11,7.028125e-02
2.587500e-11,7.557813e-02
2.987500e-11,8.059375e-02
3.387500e-11,8.589063e-02
3.787500e-11,9.003125e-02
4.187500e-11,9.595313e-02
4.587500e-11,1.005156e-01
4.987500e-11,1.071875e-01
5.387500e-11,1.124844e-01
5.787500e-11,1.180469e-01
6.187500e-11,1.233281e-01
6.587500e-11,1.294844e-01
6.987500e-11,1.350156e-01
7.387500e-11,1.408906e-01
7.787500e-11,1.471719e-01
8.187500e-11,1.534063e-01
8.587500e-11,1.590000e-01
8.987500e-11,1.646563e-01
9.387500e-11,1.705313e-01
9.787500e-11,1.765938e-01
1.018750e-10,1.820469e-01
1.058750e-10,1.883438e-01
1.098750e-10,1.940938e-01
1.138750e-10,1.999531e-01
1.178750e-10,2.043438e-01
1.218750e-10,2.103438e-01
1.258750e-10,2.147031e-01
1.298750e-10,2.208906e-01
1.338750e-10,2.254063e-01
1.378750e-10,2.300469e-01
1.418750e-10,2.340781e-01
1.458750e-10,2.387188e-01
1.498750e-10,2.425469e-01
1.538750e-10,2.464688e-01
1.578750e-10,2.505469e-01
1.618750e-10,2.544219e-01
1.658750e-10,2.573281e-01
1.698750e-10,2.601094e-01
1.738750e-10,2.629375e-01
1.778750e-10,2.657656e-01
1.818750e-10,2.678281e-01
1.858750e-10,2.704844e-01
1.898750e-10,2.724219e-01
1.938750e-10,2.743750e-01
1.978750e-10,2.746719e-01
2.018750e-10,2.765000e-01
2.058750e-10,2.765938e-01
2.098750e-10,2.783125e-01
2.138750e-10,2.783125e-01
2.178750e-10,2.783750e-01
2.218750e-10,2.777344e-01
2.258750e-10,2.776563e-01
2.298750e-10,2.767969e-01
2.338750e-10,2.759844e-01
2.378750e-10,2.752656e-01
2.418750e-10,2.743906e-01
2.458750e-10,2.725313e-01
2.498750e-10,2.705313e-01
2.538750e-10,2.686719e-01
2.578750e-10,2.668750e-01
2.618750e-10,2.643281e-01
2.658750e-10,2.624375e-01
2.698750e-10,2.598750e-01
2.738750e-10,2.574688e-01
2.778750e-10,2.534219e-01
2.818750e-10,2.511094e-01
2.858750e-10,2.471719e-01
2.898750e-10,2.448750e-01
2.938750e-10,2.410469e-01
2.978750e-10,2.373594e-01
3.018750e-10,2.331094e-01
3.058750e-10,2.296094e-01
3.098750e-10,2.254844e-01
3.138750e-10,2.215156e-01
3.178750e-10,2.177500e-01
3.218750e-10,2.140000e-01
3.258750e-10,2.094688e-01
3.298750e-10,2.048906e-01
3.338750e-10,2.006406e-01
3.378750e-10,1.966250e-01
3.418750e-10,1.919688e-01
3.458750e-10,1.881250e-01
3.498750e-10,1.838125e-01
3.538750e-10,1.797813e-01
3.578750e-10,1.742500e-01
3.618750e-10,1.706719e-01
3.658750e-10,1.656250e-01
3.698750e-10,1.623125e-01
3.738750e-10,1.576563e-01
3.778750e-10,1.532656e-01
3.818750e-10,1.484531e-01
3.858750e-10,1.445938e-01
3.898750e-10,1.402344e-01
3.938750e-10,1.361719e-01
3.978750e-10,1.323906e-01
4.018750e-10,1.287500e-01
4.058750e-10,1.245781e-01
4.098750e-10,1.204063e-01
4.138750e-10,1.166719e-01
4.178750e-10,1.133594e-01
4.218750e-10,1.094219e-01
4.258750e-10,1.064219e-01
4.298750e-10,1.031563e-01
4.338750e-10,1.001719e-01
4.378750e-10,9.581250e-02
4.418750e-10,9.354688e-02
4.458750e-10,8.987500e-02
4.498750e-10,8.800000e-02
4.538750e-10,8.493750e-02
4.578750e-10,8.212500e-02
4.618750e-10,7.898438e-02
4.658750e-10,7.685938e-02
4.698750e-10,7.428125e-02
4.738750e-10,7.206250e-02
4.778750e-10,7.015625e-02
4.818750e-10,6.840625e-02
4.858750e-10,6.625000e-02
4.898750e-10,6.407813e-02
4.938750e-10,6.234375e-02
4.978750e-10,6.106250e-02
5.018750e-10,5.915625e-02
5.058750e-10,5.814063e-02
5.098750e-10,5.692188e-02
5.138750e-10,5.592188e-02
5.178750e-10,5.357813e-02
5.218750e-10,5.326563e-02
5.258750e-10,5.154688e-02
5.298750e-10,5.157813e-02
5.338750e-10,5.045313e-02
5.378750e-10,4.940625e-02
5.418750e-10,4.807813e-02
5.458750e-10,4.767188e-02
5.498750e-10,4.668750e-02
5.538750e-10,4.603125e-02
5.578750e-10,4.564063e-02
5.618750e-10,4.531250e-02
5.658750e-10,4.457813e-02
5.698750e-10,4.370313e-02
5.738750e-10,4.320313e-02
5.778750e-10,4.303125e-02
5.818750e-10,4.215625e-02
5.858750e-10,4.207813e-02
5.898750e-10,4.176563e-02
5.938750e-10,4.146875e-02
5.978750e-10,3.984375e-02
6.018750e-10,4.009375e-02
6.058750e-10,3.892188e-02
6.098750e-10,3.940625e-02
6.138750e-10,3.867188e-02
6.178750e-10,3.784375e-02
6.218750e-10,3.670313e-02
6.258750e-10,3.646875e-02
6.298750e-10,3.545313e-02
6.338750e-10,3.475000e-02
6.378750e-10,3.431250e-02
6.418750e-10,3.385938e-02
6.458750e-10,3.296875e-02
6.498750e-10,3.182813e-02
6.538750e-10,3.110938e-02
6.578750e-10,3.060938e-02
6.618750e-10,2.942188e-02
6.658750e-10,2.901563e-02
6.698750e-10,2.837500e-02
6.738750e-10,2.762500e-02
6.778750e-10,2.565625e-02
6.818750e-10,2.548438e-02
6.858750e-10,2.396875e-02
6.898750e-10,2.414063e-02
6.938750e-10,2.307813e-02
6.978750e-10,2.193750e-02
7.018750e-10,2.046875e-02
7.058750e-10,2.004688e-02
7.098750e-10,1.876563e-02
7.138750e-10,1.785938e-02
7.178750e-10,1.732813e-02
7.218750e-10,1.679688e-02
7.258750e-10,1.589063e-02
7.298750e-10,1.473438e-02
7.338750e-10,1.412500e-02
7.378750e-10,1.373438e-02
7.418750e-10,1.273438e-02
7.458750e-10,1.260938e-02
7.498750e-10,1.231250e-02
7.538750e-10,1.184375e-02
7.578750e-10,1.031250e-02
7.618750e-10,1.054688e-02
7.658750e-10,9.531250e-03
7.698750e-10,1.029688e-02
7.738750e-10,9.843750e-03
7.778750e-10,9.375000e-03
7.818750e-10,8.546875e-03
7.858750e-10,8.828125e-03
7.898750e-10,8.250000e-03
7.938750e-10,8.093750e-03
7.978750e-10,8.375000e-03
8.018750e-10,8.578125e-03
8.058750e-10,8.500000e-03
8.098750e-10,8.125000e-03
8.138750e-10,8.265625e-03
8.178750e-10,8.703125e-03
8.218750e-10,8.500000e-03
8.258750e-10,9.171875e-03
8.298750e-10,9.609375e-03
8.338750e-10,9.828125e-03
8.378750e-10,9.015625e-03
8.418750e-10,9.859375e-03
8.458750e-10,9.406250e-03
8.498750e-10,1.081250e-02
8.538750e-10,1.087500e-02
8.578750e-10,1.093750e-02
8.618750e-10,1.053125e-02
8.658750e-10,1.114063e-02
8.698750e-10,1.092188e-02
8.738750e-10,1.106250e-02
8.778750e-10,1.160938e-02
8.818750e-10,1.189063e-02
8.858750e-10,1.193750e-02
8.898750e-10,1.162500e-02
8.938750e-10,1.171875e-02
8.978750e-10,1.218750e-02
9.018750e-10,1.189063e-02
9.058750e-10,1.245313e-02
9.098750e-10,1.267188e-02
9.138750e-10,1.267188e-02
9.178750e-10,1.162500e-02
9.218750e-10,1.215625e-02
9.258750e-10,1.132813e-02
9.298750e-10,1.242188e-02
9.338750e-10,1.212500e-02
9.378750e-10,1.178125e-02
9.418750e-10,1.100000e-02
9.458750e-10,1.115625e-02
9.498750e-10,1.054688e-02
9.538750e-10,1.031250e-02
9.578750e-10,1.048438e-02
9.618750e-10,1.026563e-02
9.658750e-10,9.937500e-03
9.698750e-10,9.265625e-03
9.738750e-10,8.937500e-03
9.778750e-10,9.125000e-03
9.818750e-10,8.562500e-03
9.858750e-10,8.828125e-03
9.898750e-10,8.750000e-03
9.938750e-10,8.562500e-03
9.978750e-10,7.375000e-03
1.001875e-09,7.796875e-03
1.005875e-09,6.828125e-03
1.009875e-09,7.843750e-03
1.013875e-09,7.531250e-03
1.017875e-09,7.171875e-03
1.021875e-09,6.484375e-03
1.025875e-09,6.718750e-03
1.029875e-09,6.265625e-03
1.033875e-09,6.218750e-03
1.037875e-09,6.609375e-03
1.041875e-09,6.593750e-03
1.045875e-09,6.500000e-03
1.049875e-09,6.140625e-03
1.053875e-09,6.093750e-03
1.057875e-09,6.609375e-03
1.061875e-09,6.375000e-03
1.065875e-09,7.000000e-03
1.069875e-09,7.296875e-03
1.073875e-09,7.515625e-03
1.077875e-09,6.703125e-03
1.081875e-09,7.578125e-03
1.085875e-09,6.953125e-03
1.089875e-09,8.312500e-03
1.093875e-09,8.343750e-03
1.097875e-09,8.328125e-03
1.101875e-09,7.968750e-03
1.105875e-09,8.531250e-03
1.109875e-09,8.359375e-03
1.113875e-09,8.578125e-03
1.117875e-09,9.203125e-03
1.121875e-09,9.437500e-03
1.125875e-09,9.484375e-03
1.129875e-09,9.281250e-03
1.133875e-09,9.343750e-03
1.137875e-09,9.937500e-03
1.141875e-09,9.718750e-03
1.145875e-09,1.037500e-02
1.149875e-09,1.065625e-02
1.153875e-09,1.084375e-02
1.157875e-09,9.937500e-03
1.161875e-09,1.073438e-02
1.165875e-09,9.968750e-03
1.169875e-09,1.114063e-02
1.173875e-09,1.096875e-02
1.177875e-09,1.075000e-02
1.181875e-09,1.012500e-02
1.185875e-09,1.046875e-02
1.189875e-09,1.001563e-02
1.193875e-09,9.953125e-03
1.197875e-09,1.028125e-02
1.201875e-09,1.028125e-02
1.205875e-09,1.000000e-02
1.209875e-09,9.484375e-03
1.213875e-09,9.296875e-03
1.217875e-09,9.593750e-03
1.221875e-09,9.078125e-03
1.225875e-09,9.500000e-03
1.229875e-09,9.546875e-03
1.233875e-09,9.546875e-03
1.237875e-09,8.375000e-03
1.241875e-09,9.031250e-03
1.245875e-09,8.109375e-03
1.249875e-09,9.156250e-03
1.253875e-09,8.875000e-03
1.257875e-09,8.593750e-03
1.261875e-09,7.921875e-03
1.265875e-09,8.250000e-03
1.269875e-09,7.812500e-03
1.273875e-09,7.796875e-03
1.277875e-09,8.203125e-03
1.281875e-09,8.359375e-03
1.285875e-09,8.218750e-03
1.289875e-09,7.859375e-03
1.293875e-09,7.906250e-03
1.297875e-09,8.406250e-03
1.301875e-09,8.125000e-03
1.305875e-09,8.828125e-03
1.309875e-09,9.171875e-03
1.313875e-09,9.500000e-03
1.317875e-09,8.578125e-03
1.321875e-09,9.562500e-03
1.325875e-09,8.984375e-03
1.329875e-09,1.039063e-02
1.333875e-09,1.043750e-02
1.337875e-09,1.048438e-02
1.341875e-09,1.015625e-02
1.345875e-09,1.081250e-02
1.349875e-09,1.068750e-02
1.353875e-09,1.096875e-02
1.357875e-09,1.165625e-02
1.361875e-09,1.210938e-02
1.365875e-09,1.220313e-02
1.369875e-09,1.207813e-02
1.373875e-09,1.232813e-02
1.377875e-09,1.300000e-02
1.381875e-09,1.287500e-02
1.385875e-09,1.370313e-02
1.389875e-09,1.414063e-02
1.393875e-09,1.454688e-02
1.397875e-09,1.359375e-02
1.401875e-09,1.457813e-02
1.405875e-09,1.393750e-02
1.409875e-09,1.529688e-02
1.413875e-09,1.523438e-02
1.417875e-09,1.514063e-02
1.421875e-09,1.462500e-02
1.425875e-09,1.509375e-02
1.429875e-09,1.475000e-02
1.433875e-09,1.478125e-02
1.437875e-09,1.518750e-02
1.441875e-09,1.535938e-02
1.445875e-09,1.512500e-02
1.449875e-09,1.465625e-02
1.453875e-09,1.456250e-02
1.457875e-09,1.487500e-02
1.461875e-09,1.435938e-02
1.465875e-09,1.481250e-02
1.469875e-09,1.485938e-02
1.473875e-09,1.487500e-02
1.477875e-09,1.351563e-02
1.481875e-09,1.412500e-02
1.485875e-09,1.310938e-02
1.489875e-09,1.409375e-02
1.493875e-09,1.365625e-02
1.497875e-09,1.321875e-02
1.501875e-09,1.237500e-02
1.505875e-09,1.253125e-02
1.509875e-09,1.187500e-02
1.513875e-09,1.162500e-02
1.517875e-09,1.176563e-02
1.521875e-09,1.171875e-02
1.525875e-09,1.126563e-02
1.529875e-09,1.060938e-02
1.533875e-09,1.035938e-02
1.537875e-09,1.053125e-02
1.541875e-09,9.906250e-03
1.545875e-09,1.028125e-02
1.549875e-09,1.026563e-02
1.553875e-09,1.025000e-02
1.557875e-09,8.859375e-03
1.561875e-09,9.484375e-03
1.565875e-09,8.500000e-03
1.569875e-09,9.546875e-03
1.573875e-09,9.187500e-03
1.577875e-09,8.843750e-03
1.581875e-09,8.109375e-03
1.585875e-09,8.390625e-03
1.589875e-09,7.875000e-03
1.593875e-09,7.765625e-03
1.597875e-09,8.078125e-03
1.601875e-09,8.203125e-03
1.605875e-09,7.921875e-03
1.609875e-09,7.468750e-03
1.613875e-09,7.406250e-03
1.617875e-09,7.765625e-03
1.621875e-09,7.312500e-03
1.625875e-09,7.875000e-03
1.629875e-09,8.046875e-03
1.633875e-09,8.218750e-03
1.637875e-09,7.000000e-03
1.641875e-09,7.781250e-03
1.645875e-09,6.953125e-03
1.649875e-09,8.140625e-03
1.653875e-09,7.921875e-03
1.657875e-09,7.703125e-03
1.661875e-09,7.093750e-03
1.665875e-09,7.468750e-03
1.669875e-09,7.062500e-03
1.673875e-09,7.046875e-03
1.677875e-09,7.421875e-03
1.681875e-09,7.593750e-03
1.685875e-09,7.375000e-03
1.689875e-09,6.937500e-03
1.693875e-09,6.906250e-03
1.697875e-09,7.281250e-03
1.701875e-09,6.843750e-03
1.705875e-09,7.406250e-03
1.709875e-09,7.578125e-03
1.713875e-09,7.734375e-03
1.717875e-09,6.484375e-03
1.721875e-09,7.250000e-03
1.725875e-09,6.390625e-03
1.729875e-09,7.546875e-03
1.733875e-09,7.296875e-03
1.737875e-09,7.046875e-03
1.741875e-09,6.406250e-03
1.745875e-09,6.750000e-03
1.749875e-09,6.312500e-03
1.753875e-09,6.265625e-03
1.757875e-09,6.625000e-03
