Measurements-streak-laser/Photodiode-on-Tek-12bit-4GHz/Tek000_ch1_20190613132945031.csv

Model,MSO64
Waveform Type,ANALOG
Horizontal Units,s
Sample Interval,4.000000e-12
Record Length,1000
Zero Index,310.265625
Vertical Units,V

TIME,CH1
-1.241063e-09,6.859375e-03
-1.237063e-09,6.906250e-03
-1.233063e-09,7.359375e-03
-1.229063e-09,7.015625e-03
-1.225062e-09,7.687500e-03
-1.221062e-09,7.953125e-03
-1.217062e-09,8.218750e-03
-1.213062e-09,7.062500e-03
-1.209062e-09,7.937500e-03
-1.205062e-09,7.187500e-03
-1.201062e-09,8.468750e-03
-1.197062e-09,8.328125e-03
-1.193062e-09,8.187500e-03
-1.189062e-09,7.625000e-03
-1.185063e-09,8.093750e-03
-1.181063e-09,7.734375e-03
-1.177063e-09,7.781250e-03
-1.173063e-09,8.218750e-03
-1.169063e-09,8.453125e-03
-1.165062e-09,8.281250e-03
-1.161062e-09,7.890625e-03
-1.157062e-09,7.906250e-03
-1.153062e-09,8.312500e-03
-1.149062e-09,7.906250e-03
-1.145062e-09,8.515625e-03
-1.141062e-09,8.703125e-03
-1.137062e-09,8.875000e-03
-1.133062e-09,7.625000e-03
-1.129062e-09,8.406250e-03
-1.125063e-09,7.546875e-03
-1.121063e-09,8.718750e-03
-1.117063e-09,8.453125e-03
-1.113063e-09,8.187500e-03
-1.109063e-09,7.515625e-03
-1.105063e-09,7.843750e-03
-1.101062e-09,7.359375e-03
-1.097062e-09,7.281250e-03
-1.093062e-09,7.593750e-03
-1.089062e-09,7.703125e-03
-1.085062e-09,7.406250e-03
-1.081062e-09,6.906250e-03
-1.077062e-09,6.812500e-03
-1.073062e-09,7.125000e-03
-1.069062e-09,6.625000e-03
-1.065063e-09,7.140625e-03
-1.061063e-09,7.250000e-03
-1.057063e-09,7.359375e-03
-1.053063e-09,6.062500e-03
-1.049063e-09,6.781250e-03
-1.045063e-09,5.890625e-03
-1.041062e-09,7.031250e-03
-1.037062e-09,6.750000e-03
-1.033062e-09,6.484375e-03
-1.029062e-09,5.812500e-03
-1.025062e-09,6.156250e-03
-1.021062e-09,5.703125e-03
-1.017062e-09,5.656250e-03
-1.013062e-09,6.015625e-03
-1.009062e-09,6.171875e-03
-1.005063e-09,5.937500e-03
-1.001063e-09,5.515625e-03
-9.970625e-10,5.484375e-03
-9.930625e-10,5.875000e-03
-9.890625e-10,5.453125e-03
-9.850625e-10,6.046875e-03
-9.810625e-10,6.250000e-03
-9.770625e-10,6.437500e-03
-9.730625e-10,5.218750e-03
-9.690625e-10,6.031250e-03
-9.650625e-10,5.234375e-03
-9.610625e-10,6.437500e-03
-9.570625e-10,6.234375e-03
-9.530625e-10,6.031250e-03
-9.490625e-10,5.421875e-03
-9.450625e-10,5.828125e-03
-9.410625e-10,5.421875e-03
-9.370625e-10,5.421875e-03
-9.330625e-10,5.828125e-03
-9.290625e-10,6.015625e-03
-9.250625e-10,5.796875e-03
-9.210625e-10,5.390625e-03
-9.170625e-10,5.359375e-03
-9.130625e-10,5.750000e-03
-9.090625e-10,5.312500e-03
-9.050625e-10,5.890625e-03
-9.010625e-10,6.062500e-03
-8.970625e-10,6.218750e-03
-8.930625e-10,4.984375e-03
-8.890625e-10,5.750000e-03
-8.850625e-10,4.890625e-03
-8.810625e-10,5.968750e-03
-8.770625e-10,5.734375e-03
-8.730625e-10,5.468750e-03
-8.690625e-10,4.812500e-03
-8.650625e-10,5.156250e-03
-8.610625e-10,4.703125e-03
-8.570625e-10,4.656250e-03
-8.530625e-10,4.984375e-03
-8.490625e-10,5.125000e-03
-8.450625e-10,4.890625e-03
-8.410625e-10,4.421875e-03
-8.370625e-10,4.375000e-03
-8.330625e-10,4.718750e-03
-8.290625e-10,4.281250e-03
-8.250625e-10,4.843750e-03
-8.210625e-10,5.015625e-03
-8.170625e-10,5.187500e-03
-8.130625e-10,4.000000e-03
-8.090625e-10,4.812500e-03
-8.050625e-10,3.984375e-03
-8.010625e-10,5.046875e-03
-7.970625e-10,4.921875e-03
-7.930625e-10,4.734375e-03
-7.890625e-10,4.218750e-03
-7.850625e-10,4.640625e-03
-7.810625e-10,4.265625e-03
-7.770625e-10,4.375000e-03
-7.730625e-10,4.828125e-03
-7.690625e-10,5.093750e-03
-7.650625e-10,5.046875e-03
-7.610625e-10,4.718750e-03
-7.570625e-10,4.796875e-03
-7.530625e-10,5.281250e-03
-7.490625e-10,4.984375e-03
-7.450625e-10,5.687500e-03
-7.410625e-10,6.015625e-03
-7.370625e-10,6.312500e-03
-7.330625e-10,5.281250e-03
-7.290625e-10,6.218750e-03
-7.250625e-10,5.546875e-03
-7.210625e-10,6.656250e-03
-7.170625e-10,6.656250e-03
-7.130625e-10,6.593750e-03
-7.090625e-10,6.171875e-03
-7.050625e-10,6.625000e-03
-7.010625e-10,6.265625e-03
-6.970625e-10,6.453125e-03
-6.930625e-10,6.890625e-03
-6.890625e-10,7.109375e-03
-6.850625e-10,7.140625e-03
-6.810625e-10,6.750000e-03
-6.770625e-10,6.750000e-03
-6.730625e-10,7.140625e-03
-6.690625e-10,6.781250e-03
-6.650625e-10,7.343750e-03
-6.610625e-10,7.562500e-03
-6.570625e-10,7.687500e-03
-6.530625e-10,6.453125e-03
-6.490625e-10,7.234375e-03
-6.450625e-10,6.437500e-03
-6.410625e-10,7.312500e-03
-6.370625e-10,7.125000e-03
-6.330625e-10,6.859375e-03
-6.290625e-10,6.218750e-03
-6.250625e-10,6.406250e-03
-6.210625e-10,5.781250e-03
-6.170625e-10,5.750000e-03
-6.130625e-10,5.968750e-03
-6.090625e-10,5.921875e-03
-6.050625e-10,5.781250e-03
-6.010625e-10,5.156250e-03
-5.970625e-10,4.937500e-03
-5.930625e-10,5.125000e-03
-5.890625e-10,4.625000e-03
-5.850625e-10,5.000000e-03
-5.810625e-10,5.031250e-03
-5.770625e-10,5.000000e-03
-5.730625e-10,3.609375e-03
-5.690625e-10,4.265625e-03
-5.650625e-10,3.468750e-03
-5.610625e-10,4.265625e-03
-5.570625e-10,4.062500e-03
-5.530625e-10,3.781250e-03
-5.490625e-10,3.125000e-03
-5.450625e-10,3.328125e-03
-5.410625e-10,2.750000e-03
-5.370625e-10,2.781250e-03
-5.330625e-10,3.125000e-03
-5.290625e-10,3.156250e-03
-5.250625e-10,3.125000e-03
-5.210625e-10,2.671875e-03
-5.170625e-10,2.640625e-03
-5.130625e-10,3.046875e-03
-5.090625e-10,2.718750e-03
-5.050625e-10,3.375000e-03
-5.010625e-10,3.578125e-03
-4.970625e-10,3.781250e-03
-4.930625e-10,2.625000e-03
-4.890625e-10,3.484375e-03
-4.850625e-10,2.968750e-03
-4.810625e-10,4.015625e-03
-4.770625e-10,4.125000e-03
-4.730625e-10,4.015625e-03
-4.690625e-10,3.593750e-03
-4.650625e-10,4.031250e-03
-4.610625e-10,3.734375e-03
-4.570625e-10,3.890625e-03
-4.530625e-10,4.453125e-03
-4.490625e-10,4.640625e-03
-4.450625e-10,4.687500e-03
-4.410625e-10,4.375000e-03
-4.370625e-10,4.531250e-03
-4.330625e-10,5.062500e-03
-4.290625e-10,4.718750e-03
-4.250625e-10,5.453125e-03
-4.210625e-10,5.687500e-03
-4.170625e-10,5.890625e-03
-4.130625e-10,4.734375e-03
-4.090625e-10,5.453125e-03
-4.050625e-10,4.875000e-03
-4.010625e-10,5.843750e-03
-3.970625e-10,5.859375e-03
-3.930625e-10,5.578125e-03
-3.890625e-10,5.000000e-03
-3.850625e-10,5.296875e-03
-3.810625e-10,4.906250e-03
-3.770625e-10,4.781250e-03
-3.730625e-10,5.156250e-03
-3.690625e-10,5.125000e-03
-3.650625e-10,4.875000e-03
-3.610625e-10,4.375000e-03
-3.570625e-10,4.359375e-03
-3.530625e-10,4.703125e-03
-3.490625e-10,4.109375e-03
-3.450625e-10,4.625000e-03
-3.410625e-10,4.703125e-03
-3.370625e-10,4.718750e-03
-3.330625e-10,3.437500e-03
-3.290625e-10,3.953125e-03
-3.250625e-10,3.218750e-03
-3.210625e-10,4.109375e-03
-3.170625e-10,4.000000e-03
-3.130625e-10,3.625000e-03
-3.090625e-10,3.062500e-03
-3.050625e-10,3.343750e-03
-3.010625e-10,2.984375e-03
-2.970625e-10,2.828125e-03
-2.930625e-10,3.234375e-03
-2.890625e-10,3.296875e-03
-2.850625e-10,3.078125e-03
-2.810625e-10,2.765625e-03
-2.770625e-10,2.859375e-03
-2.730625e-10,3.359375e-03
-2.690625e-10,2.953125e-03
-2.650625e-10,3.593750e-03
-2.610625e-10,3.921875e-03
-2.570625e-10,4.125000e-03
-2.530625e-10,3.109375e-03
-2.490625e-10,3.812500e-03
-2.450625e-10,3.250000e-03
-2.410625e-10,4.375000e-03
-2.370625e-10,4.406250e-03
-2.330625e-10,4.250000e-03
-2.290625e-10,3.921875e-03
-2.250625e-10,4.375000e-03
-2.210625e-10,4.125000e-03
-2.170625e-10,4.125000e-03
-2.130625e-10,4.578125e-03
-2.090625e-10,4.718750e-03
-2.050625e-10,4.515625e-03
-2.010625e-10,4.265625e-03
-1.970625e-10,4.281250e-03
-1.930625e-10,4.656250e-03
-1.890625e-10,4.203125e-03
-1.850625e-10,4.687500e-03
-1.810625e-10,4.843750e-03
-1.770625e-10,4.859375e-03
-1.730625e-10,3.656250e-03
-1.690625e-10,4.109375e-03
-1.650625e-10,3.187500e-03
-1.610625e-10,4.046875e-03
-1.570625e-10,3.687500e-03
-1.530625e-10,3.218750e-03
-1.490625e-10,2.546875e-03
-1.450625e-10,2.640625e-03
-1.410625e-10,2.000000e-03
-1.370625e-10,1.703125e-03
-1.330625e-10,1.765625e-03
-1.290625e-10,1.609375e-03
-1.250625e-10,1.125000e-03
-1.210625e-10,6.562500e-04
-1.170625e-10,4.531250e-04
-1.130625e-10,5.937500e-04
-1.090625e-10,7.812500e-05
-1.050625e-10,5.625000e-04
-1.010625e-10,7.500000e-04
-9.706250e-11,1.000000e-03
-9.306250e-11,1.093750e-04
-8.906250e-11,9.531250e-04
-8.506250e-11,5.000000e-04
-8.106250e-11,2.062500e-03
-7.706250e-11,2.375000e-03
-7.306250e-11,2.859375e-03
-6.906250e-11,3.250000e-03
-6.506250e-11,4.609375e-03
-6.106250e-11,5.359375e-03
-5.706250e-11,6.640625e-03
-5.306250e-11,8.437500e-03
-4.906250e-11,1.025000e-02
-4.506250e-11,1.184375e-02
-4.106250e-11,1.365625e-02
-3.706250e-11,1.589063e-02
-3.306250e-11,1.859375e-02
-2.906250e-11,2.090625e-02
-2.506250e-11,2.439063e-02
-2.106250e-11,2.771875e-02
-1.706250e-11,3.132813e-02
-1.306250e-11,3.396875e-02
-9.062500e-12,3.845313e-02
-5.062500e-12,4.171875e-02
-1.062500e-12,4.721875e-02
2.937500e-12,5.150000e-02
6.937500e-12,5.615625e-02
1.093750e-11,6.076563e-02
1.493750e-11,6.639063e-02
1.893750e-11,7.151563e-02
2.293750e-11,7.717188e-02
2.693750e-11,8.342188e-02
3.093750e-11,8.976563e-02
3.493750e-11,9.571875e-02
3.893750e-11,1.019531e-01
4.293750e-11,1.085313e-01
4.693750e-11,1.155000e-01
5.093750e-11,1.220313e-01
5.493750e-11,1.296250e-01
5.893750e-11,1.368906e-01
6.293750e-11,1.444063e-01
6.693750e-11,1.507031e-01
7.093750e-11,1.586719e-01
7.493750e-11,1.652188e-01
7.893750e-11,1.737656e-01
8.293750e-11,1.808125e-01
8.693750e-11,1.880938e-01
9.093750e-11,1.949531e-01
9.493750e-11,2.025156e-01
9.893750e-11,2.093750e-01
1.029375e-10,2.164219e-01
1.069375e-10,2.237500e-01
1.109375e-10,2.309063e-01
1.149375e-10,2.372031e-01
1.189375e-10,2.434688e-01
1.229375e-10,2.497656e-01
1.269375e-10,2.560781e-01
1.309375e-10,2.616875e-01
1.349375e-10,2.679219e-01
1.389375e-10,2.734219e-01
1.429375e-10,2.789219e-01
1.469375e-10,2.827813e-01
1.509375e-10,2.880625e-01
1.549375e-10,2.915625e-01
1.589375e-10,2.967031e-01
1.629375e-10,3.000156e-01
1.669375e-10,3.033438e-01
1.709375e-10,3.058906e-01
1.749375e-10,3.088750e-01
1.789375e-10,3.109844e-01
1.829375e-10,3.130313e-01
1.869375e-10,3.151094e-01
1.909375e-10,3.169063e-01
1.949375e-10,3.175625e-01
1.989375e-10,3.180156e-01
2.029375e-10,3.184688e-01
2.069375e-10,3.188125e-01
2.109375e-10,3.183594e-01
2.149375e-10,3.184063e-01
2.189375e-10,3.176563e-01
2.229375e-10,3.169531e-01
2.269375e-10,3.145156e-01
2.309375e-10,3.136406e-01
2.349375e-10,3.110156e-01
2.389375e-10,3.099688e-01
2.429375e-10,3.072188e-01
2.469375e-10,3.045938e-01
2.509375e-10,3.012813e-01
2.549375e-10,2.985781e-01
2.589375e-10,2.951875e-01
2.629375e-10,2.918438e-01
2.669375e-10,2.886563e-01
2.709375e-10,2.854375e-01
2.749375e-10,2.812656e-01
2.789375e-10,2.770469e-01
2.829375e-10,2.730938e-01
2.869375e-10,2.692969e-01
2.909375e-10,2.648438e-01
2.949375e-10,2.611250e-01
2.989375e-10,2.568750e-01
3.029375e-10,2.529219e-01
3.069375e-10,2.474063e-01
3.109375e-10,2.437813e-01
3.149375e-10,2.386406e-01
3.189375e-10,2.352188e-01
3.229375e-10,2.303906e-01
3.269375e-10,2.258438e-01
3.309375e-10,2.208438e-01
3.349375e-10,2.167344e-01
3.389375e-10,2.121250e-01
3.429375e-10,2.077500e-01
3.469375e-10,2.036563e-01
3.509375e-10,1.996875e-01
3.549375e-10,1.950469e-01
3.589375e-10,1.904531e-01
3.629375e-10,1.862500e-01
3.669375e-10,1.823750e-01
3.709375e-10,1.779063e-01
3.749375e-10,1.743125e-01
3.789375e-10,1.703438e-01
3.829375e-10,1.667188e-01
3.869375e-10,1.615938e-01
3.909375e-10,1.585000e-01
3.949375e-10,1.539688e-01
3.989375e-10,1.511406e-01
4.029375e-10,1.470313e-01
4.069375e-10,1.432188e-01
4.109375e-10,1.389531e-01
4.149375e-10,1.356563e-01
4.189375e-10,1.318906e-01
4.229375e-10,1.283750e-01
4.269375e-10,1.251250e-01
4.309375e-10,1.219844e-01
4.349375e-10,1.183125e-01
4.389375e-10,1.146406e-01
4.429375e-10,1.113125e-01
4.469375e-10,1.084063e-01
4.509375e-10,1.048281e-01
4.549375e-10,1.021250e-01
4.589375e-10,9.912500e-02
4.629375e-10,9.639063e-02
4.669375e-10,9.221875e-02
4.709375e-10,9.010938e-02
4.749375e-10,8.657813e-02
4.789375e-10,8.471875e-02
4.829375e-10,8.168750e-02
4.869375e-10,7.884375e-02
4.909375e-10,7.565625e-02
4.949375e-10,7.343750e-02
4.989375e-10,7.071875e-02
5.029375e-10,6.834375e-02
5.069375e-10,6.620313e-02
5.109375e-10,6.421875e-02
5.149375e-10,6.182813e-02
5.189375e-10,5.940625e-02
5.229375e-10,5.737500e-02
5.269375e-10,5.579688e-02
5.309375e-10,5.357813e-02
5.349375e-10,5.220313e-02
5.389375e-10,5.065625e-02
5.429375e-10,4.931250e-02
5.469375e-10,4.665625e-02
5.509375e-10,4.601563e-02
5.549375e-10,4.403125e-02
5.589375e-10,4.375000e-02
5.629375e-10,4.235938e-02
5.669375e-10,4.101563e-02
5.709375e-10,3.946875e-02
5.749375e-10,3.885938e-02
5.789375e-10,3.765625e-02
5.829375e-10,3.684375e-02
5.869375e-10,3.629688e-02
5.909375e-10,3.587500e-02
5.949375e-10,3.507813e-02
5.989375e-10,3.415625e-02
6.029375e-10,3.367188e-02
6.069375e-10,3.350000e-02
6.109375e-10,3.268750e-02
6.149375e-10,3.267188e-02
6.189375e-10,3.248438e-02
6.229375e-10,3.232813e-02
6.269375e-10,3.089063e-02
6.309375e-10,3.131250e-02
6.349375e-10,3.042188e-02
6.389375e-10,3.115625e-02
6.429375e-10,3.070313e-02
6.469375e-10,3.017188e-02
6.509375e-10,2.934375e-02
6.549375e-10,2.946875e-02
6.589375e-10,2.878125e-02
6.629375e-10,2.842188e-02
6.669375e-10,2.834375e-02
6.709375e-10,2.828125e-02
6.749375e-10,2.778125e-02
6.789375e-10,2.701563e-02
6.829375e-10,2.671875e-02
6.869375e-10,2.656250e-02
6.909375e-10,2.575000e-02
6.949375e-10,2.571875e-02
6.989375e-10,2.545313e-02
7.029375e-10,2.503125e-02
7.069375e-10,2.342188e-02
7.109375e-10,2.353125e-02
7.149375e-10,2.237500e-02
7.189375e-10,2.284375e-02
7.229375e-10,2.206250e-02
7.269375e-10,2.120313e-02
7.309375e-10,1.995313e-02
7.349375e-10,1.978125e-02
7.389375e-10,1.868750e-02
7.429375e-10,1.793750e-02
7.469375e-10,1.757813e-02
7.509375e-10,1.720313e-02
7.549375e-10,1.646875e-02
7.589375e-10,1.540625e-02
7.629375e-10,1.490625e-02
7.669375e-10,1.459375e-02
7.709375e-10,1.367188e-02
7.749375e-10,1.360938e-02
7.789375e-10,1.337500e-02
7.829375e-10,1.290625e-02
7.869375e-10,1.145313e-02
7.909375e-10,1.165625e-02
7.949375e-10,1.067188e-02
7.989375e-10,1.146875e-02
8.029375e-10,1.103125e-02
8.069375e-10,1.059375e-02
8.109375e-10,9.765625e-03
8.149375e-10,1.004688e-02
8.189375e-10,9.484375e-03
8.229375e-10,9.343750e-03
8.269375e-10,9.656250e-03
8.309375e-10,9.859375e-03
8.349375e-10,9.843750e-03
8.389375e-10,9.500000e-03
8.429375e-10,9.687500e-03
8.469375e-10,1.020313e-02
8.509375e-10,1.007813e-02
8.549375e-10,1.084375e-02
8.589375e-10,1.135938e-02
8.629375e-10,1.167188e-02
8.669375e-10,1.100000e-02
8.709375e-10,1.193750e-02
8.749375e-10,1.159375e-02
8.789375e-10,1.317188e-02
8.829375e-10,1.340625e-02
8.869375e-10,1.360938e-02
8.909375e-10,1.339063e-02
8.949375e-10,1.414063e-02
8.989375e-10,1.412500e-02
9.029375e-10,1.445313e-02
9.069375e-10,1.520313e-02
9.109375e-10,1.560938e-02
9.149375e-10,1.585938e-02
9.189375e-10,1.573438e-02
9.229375e-10,1.598438e-02
9.269375e-10,1.665625e-02
9.309375e-10,1.656250e-02
9.349375e-10,1.728125e-02
9.389375e-10,1.762500e-02
9.429375e-10,1.776563e-02
9.469375e-10,1.690625e-02
9.509375e-10,1.754688e-02
9.549375e-10,1.681250e-02
9.589375e-10,1.801563e-02
9.629375e-10,1.781250e-02
9.669375e-10,1.754688e-02
9.709375e-10,1.682813e-02
9.749375e-10,1.701563e-02
9.789375e-10,1.645313e-02
9.829375e-10,1.625000e-02
9.869375e-10,1.642188e-02
9.909375e-10,1.614063e-02
9.949375e-10,1.578125e-02
9.989375e-10,1.506250e-02
1.002937e-09,1.465625e-02
1.006938e-09,1.476563e-02
1.010938e-09,1.410938e-02
1.014938e-09,1.423438e-02
1.018938e-09,1.403125e-02
1.022938e-09,1.370313e-02
1.026938e-09,1.240625e-02
1.030937e-09,1.268750e-02
1.034937e-09,1.153125e-02
1.038937e-09,1.235938e-02
1.042937e-09,1.185938e-02
1.046937e-09,1.132813e-02
1.050937e-09,1.045313e-02
1.054937e-09,1.051563e-02
1.058937e-09,9.875000e-03
1.062937e-09,9.656250e-03
1.066938e-09,9.859375e-03
1.070938e-09,9.656250e-03
1.074938e-09,9.375000e-03
1.078938e-09,8.859375e-03
1.082938e-09,8.625000e-03
1.086938e-09,9.000000e-03
1.090937e-09,8.640625e-03
1.094937e-09,9.093750e-03
1.098937e-09,9.281250e-03
1.102937e-09,9.375000e-03
1.106937e-09,8.515625e-03
1.110937e-09,9.312500e-03
1.114937e-09,8.625000e-03
1.118937e-09,9.921875e-03
1.122937e-09,9.906250e-03
1.126938e-09,9.875000e-03
1.130938e-09,9.500000e-03
1.134938e-09,1.007813e-02
1.138938e-09,9.921875e-03
1.142938e-09,1.017188e-02
1.146938e-09,1.084375e-02
1.150937e-09,1.114063e-02
1.154937e-09,1.125000e-02
1.158937e-09,1.112500e-02
1.162937e-09,1.129688e-02
1.166937e-09,1.198438e-02
1.170937e-09,1.187500e-02
1.174937e-09,1.264063e-02
1.178937e-09,1.304688e-02
1.182937e-09,1.335938e-02
1.186938e-09,1.259375e-02
1.190938e-09,1.353125e-02
1.194938e-09,1.290625e-02
1.198938e-09,1.420313e-02
1.202938e-09,1.415625e-02
1.206938e-09,1.406250e-02
1.210937e-09,1.356250e-02
1.214937e-09,1.403125e-02
1.218937e-09,1.368750e-02
1.222937e-09,1.373438e-02
1.226937e-09,1.415625e-02
1.230937e-09,1.425000e-02
1.234937e-09,1.404688e-02
1.238937e-09,1.360938e-02
1.242937e-09,1.348438e-02
1.246938e-09,1.381250e-02
1.250938e-09,1.332813e-02
1.254938e-09,1.376563e-02
1.258938e-09,1.381250e-02
1.262938e-09,1.381250e-02
1.266937e-09,1.260938e-02
1.270937e-09,1.321875e-02
1.274937e-09,1.225000e-02
1.278937e-09,1.323438e-02
1.282937e-09,1.285938e-02
1.286937e-09,1.246875e-02
1.290937e-09,1.168750e-02
1.294937e-09,1.190625e-02
1.298937e-09,1.132813e-02
1.302937e-09,1.117188e-02
1.306938e-09,1.140625e-02
1.310938e-09,1.140625e-02
1.314938e-09,1.107813e-02
1.318938e-09,1.054688e-02
1.322938e-09,1.039063e-02
1.326937e-09,1.070313e-02
1.330937e-09,1.021875e-02
1.334937e-09,1.070313e-02
1.338937e-09,1.084375e-02
1.342937e-09,1.095313e-02
1.346937e-09,9.812500e-03
1.350937e-09,1.059375e-02
1.354937e-09,9.796875e-03
1.358937e-09,1.100000e-02
1.362937e-09,1.082813e-02
1.366938e-09,1.067188e-02
1.370938e-09,1.014063e-02
1.374938e-09,1.060938e-02
1.378938e-09,1.029688e-02
1.382938e-09,1.040625e-02
1.386937e-09,1.092188e-02
1.390937e-09,1.121875e-02
1.394937e-09,1.114063e-02
1.398937e-09,1.087500e-02
1.402937e-09,1.100000e-02
1.406937e-09,1.154688e-02
1.410937e-09,1.129688e-02
1.414937e-09,1.201563e-02
1.418937e-09,1.235938e-02
1.422937e-09,1.268750e-02
1.426938e-09,1.165625e-02
1.430938e-09,1.257813e-02
1.434938e-09,1.189063e-02
1.438938e-09,1.320313e-02
1.442938e-09,1.310938e-02
1.446937e-09,1.298438e-02
1.450937e-09,1.246875e-02
1.454937e-09,1.292188e-02
1.458937e-09,1.257813e-02
1.462937e-09,1.260938e-02
1.466937e-09,1.303125e-02
1.470937e-09,1.323438e-02
1.474937e-09,1.301563e-02
1.478937e-09,1.259375e-02
1.482937e-09,1.254688e-02
1.486938e-09,1.289063e-02
1.490938e-09,1.240625e-02
1.494938e-09,1.292188e-02
1.498938e-09,1.300000e-02
1.502938e-09,1.307813e-02
1.506937e-09,1.175000e-02
1.510937e-09,1.240625e-02
1.514937e-09,1.143750e-02
1.518937e-09,1.246875e-02
1.522937e-09,1.207813e-02
1.526937e-09,1.167188e-02
1.530937e-09,1.085938e-02
1.534937e-09,1.104688e-02
1.538937e-09,1.042188e-02
1.542937e-09,1.020313e-02
1.546938e-09,1.035938e-02
1.550938e-09,1.032813e-02
1.554938e-09,9.890625e-03
1.558938e-09,9.250000e-03
1.562938e-09,9.000000e-03
1.566937e-09,9.156250e-03
1.570937e-09,8.515625e-03
1.574937e-09,8.875000e-03
1.578937e-09,8.843750e-03
1.582937e-09,8.812500e-03
1.586937e-09,7.390625e-03
1.590937e-09,7.984375e-03
1.594937e-09,6.968750e-03
1.598937e-09,7.953125e-03
1.602937e-09,7.562500e-03
1.606938e-09,7.156250e-03
1.610938e-09,6.375000e-03
1.614938e-09,6.593750e-03
1.618938e-09,6.031250e-03
1.622938e-09,5.875000e-03
1.626937e-09,6.125000e-03
1.630937e-09,6.187500e-03
1.634937e-09,5.843750e-03
1.638937e-09,5.328125e-03
1.642937e-09,5.203125e-03
1.646937e-09,5.500000e-03
1.650937e-09,5.000000e-03
1.654937e-09,5.500000e-03
1.658937e-09,5.609375e-03
1.662937e-09,5.718750e-03
1.666938e-09,4.453125e-03
1.670938e-09,5.187500e-03
1.674938e-09,4.312500e-03
1.678938e-09,5.468750e-03
1.682938e-09,5.203125e-03
1.686937e-09,4.953125e-03
1.690937e-09,4.312500e-03
1.694937e-09,4.671875e-03
1.698937e-09,4.218750e-03
1.702937e-09,4.187500e-03
1.706937e-09,4.562500e-03
1.710937e-09,4.718750e-03
1.714937e-09,4.500000e-03
1.718937e-09,4.078125e-03
1.722937e-09,4.046875e-03
1.726938e-09,4.437500e-03
1.730938e-09,4.015625e-03
1.734938e-09,4.609375e-03
1.738938e-09,4.796875e-03
1.742938e-09,4.984375e-03
1.746937e-09,3.765625e-03
1.750937e-09,4.578125e-03
1.754937e-09,3.765625e-03
1.758937e-09,4.984375e-03
