Measurements-streak-laser/Photodiode-on-Tek-12bit-4GHz/Tek000_ch1_20190613133038581.csv

Model,MSO64
Waveform Type,ANALOG
Horizontal Units,s
Sample Interval,4.000000e-12
Record Length,1000
Zero Index,310.953125
Vertical Units,V

TIME,CH1
-1.243813e-09,2.937500e-03
-1.239813e-09,4.125000e-03
-1.235813e-09,3.859375e-03
-1.231812e-09,3.609375e-03
-1.227812e-09,2.937500e-03
-1.223812e-09,3.281250e-03
-1.219812e-09,2.796875e-03
-1.215812e-09,2.718750e-03
-1.211812e-09,3.046875e-03
-1.207812e-09,3.156250e-03
-1.203812e-09,2.875000e-03
-1.199812e-09,2.375000e-03
-1.195813e-09,2.281250e-03
-1.191813e-09,2.593750e-03
-1.187813e-09,2.093750e-03
-1.183813e-09,2.609375e-03
-1.179813e-09,2.734375e-03
-1.175813e-09,2.843750e-03
-1.171812e-09,1.546875e-03
-1.167812e-09,2.281250e-03
-1.163812e-09,1.406250e-03
-1.159812e-09,2.562500e-03
-1.155812e-09,2.296875e-03
-1.151812e-09,2.062500e-03
-1.147812e-09,1.421875e-03
-1.143812e-09,1.796875e-03
-1.139812e-09,1.390625e-03
-1.135813e-09,1.406250e-03
-1.131813e-09,1.828125e-03
-1.127813e-09,2.078125e-03
-1.123813e-09,1.921875e-03
-1.119813e-09,1.593750e-03
-1.115813e-09,1.671875e-03
-1.111812e-09,2.187500e-03
-1.107812e-09,1.906250e-03
-1.103812e-09,2.656250e-03
-1.099812e-09,3.015625e-03
-1.095812e-09,3.390625e-03
-1.091812e-09,2.375000e-03
-1.087812e-09,3.390625e-03
-1.083812e-09,2.796875e-03
-1.079812e-09,4.250000e-03
-1.075813e-09,4.296875e-03
-1.071813e-09,4.359375e-03
-1.067813e-09,4.031250e-03
-1.063813e-09,4.718750e-03
-1.059813e-09,4.609375e-03
-1.055813e-09,4.906250e-03
-1.051812e-09,5.625000e-03
-1.047812e-09,6.125000e-03
-1.043812e-09,6.234375e-03
-1.039812e-09,6.140625e-03
-1.035812e-09,6.453125e-03
-1.031812e-09,7.156250e-03
-1.027812e-09,7.046875e-03
-1.023812e-09,7.953125e-03
-1.019812e-09,8.437500e-03
-1.015813e-09,8.906250e-03
-1.011813e-09,7.953125e-03
-1.007813e-09,9.000000e-03
-1.003813e-09,8.406250e-03
-9.998125e-10,9.828125e-03
-9.958125e-10,9.812500e-03
-9.918125e-10,9.781250e-03
-9.878125e-10,9.312500e-03
-9.838125e-10,9.843750e-03
-9.798125e-10,9.531250e-03
-9.758125e-10,9.609375e-03
-9.718125e-10,1.006250e-02
-9.678125e-10,1.029688e-02
-9.638125e-10,1.009375e-02
-9.598125e-10,9.656250e-03
-9.558125e-10,9.593750e-03
-9.518125e-10,9.921875e-03
-9.478125e-10,9.406250e-03
-9.438125e-10,9.890625e-03
-9.398125e-10,9.937500e-03
-9.358125e-10,9.968750e-03
-9.318125e-10,8.546875e-03
-9.278125e-10,9.140625e-03
-9.238125e-10,8.093750e-03
-9.198125e-10,9.031250e-03
-9.158125e-10,8.562500e-03
-9.118125e-10,8.078125e-03
-9.078125e-10,7.171875e-03
-9.038125e-10,7.265625e-03
-8.998125e-10,6.546875e-03
-8.958125e-10,6.234375e-03
-8.918125e-10,6.312500e-03
-8.878125e-10,6.187500e-03
-8.838125e-10,5.656250e-03
-8.798125e-10,4.921875e-03
-8.758125e-10,4.593750e-03
-8.718125e-10,4.687500e-03
-8.678125e-10,3.968750e-03
-8.638125e-10,4.265625e-03
-8.598125e-10,4.187500e-03
-8.558125e-10,4.109375e-03
-8.518125e-10,2.656250e-03
-8.478125e-10,3.218750e-03
-8.438125e-10,2.171875e-03
-8.398125e-10,3.109375e-03
-8.358125e-10,2.734375e-03
-8.318125e-10,2.359375e-03
-8.278125e-10,1.625000e-03
-8.238125e-10,1.890625e-03
-8.198125e-10,1.359375e-03
-8.158125e-10,1.296875e-03
-8.118125e-10,1.625000e-03
-8.078125e-10,1.765625e-03
-8.038125e-10,1.562500e-03
-7.998125e-10,1.140625e-03
-7.958125e-10,1.140625e-03
-7.918125e-10,1.562500e-03
-7.878125e-10,1.203125e-03
-7.838125e-10,1.859375e-03
-7.798125e-10,2.140625e-03
-7.758125e-10,2.421875e-03
-7.718125e-10,1.328125e-03
-7.678125e-10,2.234375e-03
-7.638125e-10,1.546875e-03
-7.598125e-10,2.796875e-03
-7.558125e-10,2.750000e-03
-7.518125e-10,2.687500e-03
-7.478125e-10,2.234375e-03
-7.438125e-10,2.734375e-03
-7.398125e-10,2.437500e-03
-7.358125e-10,2.593750e-03
-7.318125e-10,3.093750e-03
-7.278125e-10,3.375000e-03
-7.238125e-10,3.343750e-03
-7.198125e-10,3.015625e-03
-7.158125e-10,3.078125e-03
-7.118125e-10,3.531250e-03
-7.078125e-10,3.187500e-03
-7.038125e-10,3.812500e-03
-6.998125e-10,4.031250e-03
-6.958125e-10,4.234375e-03
-6.918125e-10,3.000000e-03
-6.878125e-10,3.796875e-03
-6.838125e-10,2.968750e-03
-6.798125e-10,4.031250e-03
-6.758125e-10,3.796875e-03
-6.718125e-10,3.515625e-03
-6.678125e-10,2.843750e-03
-6.638125e-10,3.093750e-03
-6.598125e-10,2.515625e-03
-6.558125e-10,2.421875e-03
-6.518125e-10,2.656250e-03
-6.478125e-10,2.656250e-03
-6.438125e-10,2.375000e-03
-6.398125e-10,1.765625e-03
-6.358125e-10,1.562500e-03
-6.318125e-10,1.765625e-03
-6.278125e-10,1.203125e-03
-6.238125e-10,1.609375e-03
-6.198125e-10,1.609375e-03
-6.158125e-10,1.609375e-03
-6.118125e-10,2.031250e-04
-6.078125e-10,8.437500e-04
-6.038125e-10,-7.812500e-05
-5.998125e-10,8.750000e-04
-5.958125e-10,5.937500e-04
-5.918125e-10,2.500000e-04
-5.878125e-10,-4.375000e-04
-5.838125e-10,-1.718750e-04
-5.798125e-10,-7.031250e-04
-5.758125e-10,-7.343750e-04
-5.718125e-10,-3.906250e-04
-5.678125e-10,-2.812500e-04
-5.638125e-10,-4.062500e-04
-5.598125e-10,-8.281250e-04
-5.558125e-10,-8.125000e-04
-5.518125e-10,-3.750000e-04
-5.478125e-10,-6.875000e-04
-5.438125e-10,5.551115e-17
-5.398125e-10,2.812500e-04
-5.358125e-10,5.781250e-04
-5.318125e-10,-5.000000e-04
-5.278125e-10,4.375000e-04
-5.238125e-10,-1.250000e-04
-5.198125e-10,1.171875e-03
-5.158125e-10,1.250000e-03
-5.118125e-10,1.250000e-03
-5.078125e-10,8.906250e-04
-5.038125e-10,1.500000e-03
-4.998125e-10,1.328125e-03
-4.958125e-10,1.578125e-03
-4.918125e-10,2.250000e-03
-4.878125e-10,2.656250e-03
-4.838125e-10,2.750000e-03
-4.798125e-10,2.609375e-03
-4.758125e-10,2.890625e-03
-4.718125e-10,3.562500e-03
-4.678125e-10,3.390625e-03
-4.638125e-10,4.265625e-03
-4.598125e-10,4.687500e-03
-4.558125e-10,5.109375e-03
-4.518125e-10,4.125000e-03
-4.478125e-10,5.093750e-03
-4.438125e-10,4.562500e-03
-4.398125e-10,5.875000e-03
-4.358125e-10,5.937500e-03
-4.318125e-10,5.859375e-03
-4.278125e-10,5.437500e-03
-4.238125e-10,5.953125e-03
-4.198125e-10,5.687500e-03
-4.158125e-10,5.765625e-03
-4.118125e-10,6.281250e-03
-4.078125e-10,6.515625e-03
-4.038125e-10,6.375000e-03
-3.998125e-10,6.031250e-03
-3.958125e-10,6.109375e-03
-3.918125e-10,6.562500e-03
-3.878125e-10,6.140625e-03
-3.838125e-10,6.765625e-03
-3.798125e-10,6.953125e-03
-3.758125e-10,7.109375e-03
-3.718125e-10,5.906250e-03
-3.678125e-10,6.609375e-03
-3.638125e-10,5.828125e-03
-3.598125e-10,6.921875e-03
-3.558125e-10,6.734375e-03
-3.518125e-10,6.453125e-03
-3.478125e-10,5.843750e-03
-3.438125e-10,6.171875e-03
-3.398125e-10,5.765625e-03
-3.358125e-10,5.671875e-03
-3.318125e-10,6.046875e-03
-3.278125e-10,6.156250e-03
-3.238125e-10,5.906250e-03
-3.198125e-10,5.500000e-03
-3.158125e-10,5.500000e-03
-3.118125e-10,5.906250e-03
-3.078125e-10,5.468750e-03
-3.038125e-10,6.062500e-03
-2.998125e-10,6.281250e-03
-2.958125e-10,6.468750e-03
-2.918125e-10,5.312500e-03
-2.878125e-10,6.062500e-03
-2.838125e-10,5.328125e-03
-2.798125e-10,6.515625e-03
-2.758125e-10,6.390625e-03
-2.718125e-10,6.218750e-03
-2.678125e-10,5.750000e-03
-2.638125e-10,6.187500e-03
-2.598125e-10,5.875000e-03
-2.558125e-10,5.906250e-03
-2.518125e-10,6.375000e-03
-2.478125e-10,6.593750e-03
-2.438125e-10,6.453125e-03
-2.398125e-10,6.187500e-03
-2.358125e-10,6.265625e-03
-2.318125e-10,6.734375e-03
-2.278125e-10,6.406250e-03
-2.238125e-10,7.062500e-03
-2.198125e-10,7.359375e-03
-2.158125e-10,7.609375e-03
-2.118125e-10,6.515625e-03
-2.078125e-10,7.312500e-03
-2.038125e-10,6.593750e-03
-1.998125e-10,7.812500e-03
-1.958125e-10,7.687500e-03
-1.918125e-10,7.531250e-03
-1.878125e-10,7.062500e-03
-1.838125e-10,7.500000e-03
-1.798125e-10,7.171875e-03
-1.758125e-10,7.218750e-03
-1.718125e-10,7.671875e-03
-1.678125e-10,7.906250e-03
-1.638125e-10,7.765625e-03
-1.598125e-10,7.515625e-03
-1.558125e-10,7.609375e-03
-1.518125e-10,8.078125e-03
-1.478125e-10,7.812500e-03
-1.438125e-10,8.546875e-03
-1.398125e-10,8.906250e-03
-1.358125e-10,9.296875e-03
-1.318125e-10,8.375000e-03
-1.278125e-10,9.359375e-03
-1.238125e-10,8.828125e-03
-1.198125e-10,1.032813e-02
-1.158125e-10,1.046875e-02
-1.118125e-10,1.067188e-02
-1.078125e-10,1.057813e-02
-1.038125e-10,1.146875e-02
-9.981250e-11,1.162500e-02
-9.581250e-11,1.221875e-02
-9.181250e-11,1.325000e-02
-8.781250e-11,1.415625e-02
-8.381250e-11,1.470313e-02
-7.981250e-11,1.521875e-02
-7.581250e-11,1.610938e-02
-7.181250e-11,1.743750e-02
-6.781250e-11,1.809375e-02
-6.381250e-11,1.982813e-02
-5.981250e-11,2.121875e-02
-5.581250e-11,2.271875e-02
-5.181250e-11,2.296875e-02
-4.781250e-11,2.515625e-02
-4.381250e-11,2.585938e-02
-3.981250e-11,2.865625e-02
-3.581250e-11,3.009375e-02
-3.181250e-11,3.167188e-02
-2.781250e-11,3.296875e-02
-2.381250e-11,3.528125e-02
-1.981250e-11,3.689063e-02
-1.581250e-11,3.893750e-02
-1.181250e-11,4.145313e-02
-7.812500e-12,4.389063e-02
-3.812500e-12,4.590625e-02
1.875000e-13,4.789063e-02
4.187500e-12,5.028125e-02
8.187500e-12,5.304688e-02
1.218750e-11,5.515625e-02
1.618750e-11,5.828125e-02
2.018750e-11,6.104688e-02
2.418750e-11,6.390625e-02
2.818750e-11,6.543750e-02
3.218750e-11,6.885938e-02
3.618750e-11,7.073438e-02
4.018750e-11,7.464063e-02
4.418750e-11,7.709375e-02
4.818750e-11,7.965625e-02
5.218750e-11,8.181250e-02
5.618750e-11,8.487500e-02
6.018750e-11,8.718750e-02
6.418750e-11,8.982813e-02
6.818750e-11,9.284375e-02
7.218750e-11,9.570313e-02
7.618750e-11,9.796875e-02
8.018750e-11,1.001250e-01
8.418750e-11,1.025625e-01
8.818750e-11,1.052656e-01
9.218750e-11,1.072188e-01
9.618750e-11,1.100469e-01
1.001875e-10,1.123594e-01
1.041875e-10,1.147031e-01
1.081875e-10,1.155469e-01
1.121875e-10,1.182031e-01
1.161875e-10,1.191875e-01
1.201875e-10,1.220625e-01
1.241875e-10,1.233594e-01
1.281875e-10,1.246875e-01
1.321875e-10,1.254688e-01
1.361875e-10,1.270469e-01
1.401875e-10,1.277969e-01
1.441875e-10,1.287813e-01
1.481875e-10,1.300156e-01
1.521875e-10,1.310313e-01
1.561875e-10,1.313438e-01
1.601875e-10,1.314531e-01
1.641875e-10,1.317969e-01
1.681875e-10,1.323594e-01
1.721875e-10,1.320938e-01
1.761875e-10,1.326250e-01
1.801875e-10,1.325781e-01
1.841875e-10,1.325469e-01
1.881875e-10,1.309531e-01
1.921875e-10,1.311875e-01
1.961875e-10,1.297188e-01
2.001875e-10,1.300938e-01
2.041875e-10,1.289063e-01
2.081875e-10,1.277188e-01
2.121875e-10,1.260000e-01
2.161875e-10,1.251094e-01
2.201875e-10,1.234375e-01
2.241875e-10,1.220000e-01
2.281875e-10,1.208125e-01
2.321875e-10,1.194844e-01
2.361875e-10,1.174844e-01
2.401875e-10,1.153125e-01
2.441875e-10,1.134688e-01
2.481875e-10,1.119063e-01
2.521875e-10,1.095469e-01
2.561875e-10,1.080781e-01
2.601875e-10,1.061094e-01
2.641875e-10,1.042344e-01
2.681875e-10,1.008594e-01
2.721875e-10,9.945313e-02
2.761875e-10,9.643750e-02
2.801875e-10,9.529688e-02
2.841875e-10,9.273438e-02
2.881875e-10,9.028125e-02
2.921875e-10,8.737500e-02
2.961875e-10,8.543750e-02
3.001875e-10,8.279688e-02
3.041875e-10,8.050000e-02
3.081875e-10,7.856250e-02
3.121875e-10,7.656250e-02
3.161875e-10,7.406250e-02
3.201875e-10,7.146875e-02
3.241875e-10,6.928125e-02
3.281875e-10,6.750000e-02
3.321875e-10,6.501563e-02
3.361875e-10,6.350000e-02
3.401875e-10,6.162500e-02
3.441875e-10,5.992188e-02
3.481875e-10,5.678125e-02
3.521875e-10,5.573438e-02
3.561875e-10,5.315625e-02
3.601875e-10,5.253125e-02
3.641875e-10,5.057813e-02
3.681875e-10,4.876563e-02
3.721875e-10,4.657813e-02
3.761875e-10,4.543750e-02
3.801875e-10,4.367188e-02
3.841875e-10,4.228125e-02
3.881875e-10,4.128125e-02
3.921875e-10,4.025000e-02
3.961875e-10,3.881250e-02
4.001875e-10,3.729688e-02
4.041875e-10,3.620313e-02
4.081875e-10,3.554688e-02
4.121875e-10,3.418750e-02
4.161875e-10,3.379688e-02
4.201875e-10,3.309375e-02
4.241875e-10,3.251563e-02
4.281875e-10,3.054688e-02
4.321875e-10,3.062500e-02
4.361875e-10,2.920313e-02
4.401875e-10,2.967188e-02
4.441875e-10,2.884375e-02
4.481875e-10,2.807813e-02
4.521875e-10,2.695313e-02
4.561875e-10,2.681250e-02
4.601875e-10,2.598438e-02
4.641875e-10,2.553125e-02
4.681875e-10,2.540625e-02
4.721875e-10,2.521875e-02
4.761875e-10,2.460938e-02
4.801875e-10,2.382813e-02
4.841875e-10,2.343750e-02
4.881875e-10,2.343750e-02
4.921875e-10,2.265625e-02
4.961875e-10,2.281250e-02
5.001875e-10,2.260938e-02
5.041875e-10,2.243750e-02
5.081875e-10,2.085938e-02
5.121875e-10,2.128125e-02
5.161875e-10,2.012500e-02
5.201875e-10,2.084375e-02
5.241875e-10,2.023438e-02
5.281875e-10,1.957813e-02
5.321875e-10,1.856250e-02
5.361875e-10,1.848438e-02
5.401875e-10,1.765625e-02
5.441875e-10,1.717188e-02
5.481875e-10,1.700000e-02
5.521875e-10,1.673438e-02
5.561875e-10,1.603125e-02
5.601875e-10,1.512500e-02
5.641875e-10,1.460938e-02
5.681875e-10,1.443750e-02
5.721875e-10,1.350000e-02
5.761875e-10,1.348438e-02
5.801875e-10,1.312500e-02
5.841875e-10,1.275000e-02
5.881875e-10,1.101563e-02
5.921875e-10,1.123438e-02
5.961875e-10,9.937500e-03
6.001875e-10,1.053125e-02
6.041875e-10,9.796875e-03
6.081875e-10,9.031250e-03
6.121875e-10,7.921875e-03
6.161875e-10,7.812500e-03
6.201875e-10,6.921875e-03
6.241875e-10,6.406250e-03
6.281875e-10,6.296875e-03
6.321875e-10,6.078125e-03
6.361875e-10,5.500000e-03
6.401875e-10,4.687500e-03
6.441875e-10,4.375000e-03
6.481875e-10,4.375000e-03
6.521875e-10,3.671875e-03
6.561875e-10,3.921875e-03
6.601875e-10,3.890625e-03
6.641875e-10,3.812500e-03
6.681875e-10,2.468750e-03
6.721875e-10,3.062500e-03
6.761875e-10,2.203125e-03
6.801875e-10,3.265625e-03
6.841875e-10,3.000000e-03
6.881875e-10,2.750000e-03
6.921875e-10,2.125000e-03
6.961875e-10,2.578125e-03
7.001875e-10,2.203125e-03
7.041875e-10,2.218750e-03
7.081875e-10,2.687500e-03
7.121875e-10,3.031250e-03
7.161875e-10,3.000000e-03
7.201875e-10,2.750000e-03
7.241875e-10,2.968750e-03
7.281875e-10,3.515625e-03
7.321875e-10,3.343750e-03
7.361875e-10,4.125000e-03
7.401875e-10,4.578125e-03
7.441875e-10,4.937500e-03
7.481875e-10,4.046875e-03
7.521875e-10,5.015625e-03
7.561875e-10,4.515625e-03
7.601875e-10,5.953125e-03
7.641875e-10,6.000000e-03
7.681875e-10,6.046875e-03
7.721875e-10,5.625000e-03
7.761875e-10,6.265625e-03
7.801875e-10,6.031250e-03
7.841875e-10,6.187500e-03
7.881875e-10,6.734375e-03
7.921875e-10,7.078125e-03
7.961875e-10,7.046875e-03
8.001875e-10,6.734375e-03
8.041875e-10,6.843750e-03
8.081875e-10,7.296875e-03
8.121875e-10,6.968750e-03
8.161875e-10,7.562500e-03
8.201875e-10,7.781250e-03
8.241875e-10,7.875000e-03
8.281875e-10,6.718750e-03
8.321875e-10,7.375000e-03
8.361875e-10,6.515625e-03
8.401875e-10,7.625000e-03
8.441875e-10,7.328125e-03
8.481875e-10,6.984375e-03
8.521875e-10,6.218750e-03
8.561875e-10,6.437500e-03
8.601875e-10,5.828125e-03
8.641875e-10,5.625000e-03
8.681875e-10,5.812500e-03
8.721875e-10,5.734375e-03
8.761875e-10,5.375000e-03
8.801875e-10,4.718750e-03
8.841875e-10,4.468750e-03
8.881875e-10,4.656250e-03
8.921875e-10,4.062500e-03
8.961875e-10,4.406250e-03
9.001875e-10,4.390625e-03
9.041875e-10,4.312500e-03
9.081875e-10,3.000000e-03
9.121875e-10,3.531250e-03
9.161875e-10,2.562500e-03
9.201875e-10,3.625000e-03
9.241875e-10,3.296875e-03
9.281875e-10,2.968750e-03
9.321875e-10,2.265625e-03
9.361875e-10,2.562500e-03
9.401875e-10,2.093750e-03
9.441875e-10,2.062500e-03
9.481875e-10,2.453125e-03
9.521875e-10,2.562500e-03
9.561875e-10,2.437500e-03
9.601875e-10,2.078125e-03
9.641875e-10,2.109375e-03
9.681875e-10,2.625000e-03
9.721875e-10,2.359375e-03
9.761875e-10,3.062500e-03
9.801875e-10,3.406250e-03
9.841875e-10,3.718750e-03
9.881875e-10,2.796875e-03
9.921875e-10,3.750000e-03
9.961875e-10,3.156250e-03
1.000188e-09,4.593750e-03
1.004188e-09,4.656250e-03
1.008188e-09,4.687500e-03
1.012188e-09,4.359375e-03
1.016188e-09,5.000000e-03
1.020187e-09,4.875000e-03
1.024187e-09,5.140625e-03
1.028187e-09,5.828125e-03
1.032187e-09,6.203125e-03
1.036187e-09,6.296875e-03
1.040187e-09,6.156250e-03
1.044187e-09,6.343750e-03
1.048187e-09,7.000000e-03
1.052187e-09,6.843750e-03
1.056188e-09,7.625000e-03
1.060188e-09,8.000000e-03
1.064188e-09,8.328125e-03
1.068188e-09,7.375000e-03
1.072188e-09,8.281250e-03
1.076188e-09,7.593750e-03
1.080187e-09,8.875000e-03
1.084187e-09,8.765625e-03
1.088187e-09,8.609375e-03
1.092187e-09,8.031250e-03
1.096187e-09,8.437500e-03
1.100187e-09,8.031250e-03
1.104187e-09,8.000000e-03
1.108187e-09,8.343750e-03
1.112187e-09,8.421875e-03
1.116187e-09,8.125000e-03
1.120188e-09,7.625000e-03
1.124188e-09,7.437500e-03
1.128188e-09,7.718750e-03
1.132188e-09,7.156250e-03
1.136188e-09,7.546875e-03
1.140187e-09,7.546875e-03
1.144187e-09,7.500000e-03
1.148187e-09,6.156250e-03
1.152187e-09,6.734375e-03
1.156187e-09,5.687500e-03
1.160187e-09,6.656250e-03
1.164187e-09,6.218750e-03
1.168187e-09,5.781250e-03
1.172187e-09,4.937500e-03
1.176187e-09,5.109375e-03
1.180188e-09,4.484375e-03
1.184188e-09,4.265625e-03
1.188188e-09,4.468750e-03
1.192188e-09,4.437500e-03
1.196188e-09,4.046875e-03
1.200187e-09,3.468750e-03
1.204187e-09,3.281250e-03
1.208187e-09,3.546875e-03
1.212187e-09,3.015625e-03
1.216187e-09,3.500000e-03
1.220187e-09,3.593750e-03
1.224187e-09,3.703125e-03
1.228187e-09,2.484375e-03
1.232187e-09,3.234375e-03
1.236187e-09,2.406250e-03
1.240188e-09,3.593750e-03
1.244188e-09,3.406250e-03
1.248188e-09,3.234375e-03
1.252188e-09,2.687500e-03
1.256188e-09,3.156250e-03
1.260187e-09,2.828125e-03
1.264187e-09,2.937500e-03
1.268187e-09,3.453125e-03
1.272187e-09,3.765625e-03
1.276187e-09,3.703125e-03
1.280187e-09,3.453125e-03
1.284187e-09,3.593750e-03
1.288187e-09,4.171875e-03
1.292187e-09,3.953125e-03
1.296187e-09,4.734375e-03
1.300188e-09,5.125000e-03
1.304188e-09,5.500000e-03
1.308188e-09,4.515625e-03
1.312188e-09,5.500000e-03
1.316188e-09,4.875000e-03
1.320187e-09,6.281250e-03
1.324187e-09,6.250000e-03
1.328187e-09,6.234375e-03
1.332187e-09,5.796875e-03
1.336187e-09,6.359375e-03
1.340187e-09,6.109375e-03
1.344187e-09,6.265625e-03
1.348187e-09,6.796875e-03
1.352187e-09,7.125000e-03
1.356187e-09,7.031250e-03
1.360188e-09,6.718750e-03
1.364188e-09,6.796875e-03
1.368188e-09,7.281250e-03
1.372188e-09,6.937500e-03
1.376188e-09,7.593750e-03
1.380187e-09,7.828125e-03
1.384187e-09,8.046875e-03
1.388187e-09,6.843750e-03
1.392187e-09,7.656250e-03
1.396187e-09,6.828125e-03
1.400187e-09,8.015625e-03
1.404187e-09,7.765625e-03
1.408187e-09,7.515625e-03
1.412187e-09,6.843750e-03
1.416187e-09,7.187500e-03
1.420188e-09,6.703125e-03
1.424188e-09,6.625000e-03
1.428188e-09,6.937500e-03
1.432188e-09,7.046875e-03
1.436188e-09,6.750000e-03
1.440187e-09,6.250000e-03
1.444187e-09,6.140625e-03
1.448187e-09,6.437500e-03
1.452187e-09,5.937500e-03
1.456187e-09,6.437500e-03
1.460187e-09,6.531250e-03
1.464187e-09,6.640625e-03
1.468187e-09,5.328125e-03
1.472187e-09,6.046875e-03
1.476187e-09,5.156250e-03
1.480188e-09,6.281250e-03
1.484188e-09,6.000000e-03
1.488188e-09,5.718750e-03
1.492188e-09,5.046875e-03
1.496188e-09,5.406250e-03
1.500187e-09,4.937500e-03
1.504187e-09,4.906250e-03
1.508187e-09,5.265625e-03
1.512187e-09,5.437500e-03
1.516187e-09,5.218750e-03
1.520187e-09,4.796875e-03
1.524187e-09,4.781250e-03
1.528187e-09,5.187500e-03
1.532187e-09,4.796875e-03
1.536187e-09,5.406250e-03
1.540188e-09,5.625000e-03
1.544188e-09,5.859375e-03
1.548188e-09,4.671875e-03
1.552188e-09,5.515625e-03
1.556188e-09,4.750000e-03
1.560187e-09,6.000000e-03
1.564187e-09,5.843750e-03
1.568187e-09,5.671875e-03
1.572187e-09,5.125000e-03
1.576187e-09,5.562500e-03
1.580187e-09,5.218750e-03
1.584187e-09,5.265625e-03
1.588187e-09,5.718750e-03
1.592187e-09,5.968750e-03
1.596187e-09,5.812500e-03
1.600188e-09,5.453125e-03
1.604188e-09,5.500000e-03
1.608188e-09,5.937500e-03
1.612188e-09,5.578125e-03
1.616188e-09,6.218750e-03
1.620187e-09,6.453125e-03
1.624187e-09,6.687500e-03
1.628187e-09,5.484375e-03
1.632187e-09,6.328125e-03
1.636187e-09,5.531250e-03
1.640187e-09,6.765625e-03
1.644187e-09,6.578125e-03
1.648187e-09,6.375000e-03
1.652187e-09,5.781250e-03
1.656187e-09,6.187500e-03
1.660188e-09,5.781250e-03
1.664188e-09,5.765625e-03
1.668188e-09,6.171875e-03
1.672188e-09,6.359375e-03
1.676188e-09,6.156250e-03
1.680187e-09,5.734375e-03
1.684187e-09,5.718750e-03
1.688187e-09,6.109375e-03
1.692187e-09,5.687500e-03
1.696187e-09,6.265625e-03
1.700187e-09,6.453125e-03
1.704187e-09,6.625000e-03
1.708187e-09,5.390625e-03
1.712187e-09,6.171875e-03
1.716187e-09,5.343750e-03
1.720188e-09,6.531250e-03
1.724188e-09,6.296875e-03
1.728188e-09,6.062500e-03
1.732188e-09,5.437500e-03
1.736188e-09,5.812500e-03
1.740187e-09,5.375000e-03
1.744187e-09,5.343750e-03
1.748187e-09,5.718750e-03
1.752187e-09,5.890625e-03
1.756187e-09,5.656250e-03
