Measurements-streak-laser/Photodiode-on-Tek-12bit-4GHz/Tek000_ch1_20190613133002577.csv

Model,MSO64
Waveform Type,ANALOG
Horizontal Units,s
Sample Interval,4.000000e-12
Record Length,1000
Zero Index,310.218750
Vertical Units,V

TIME,CH1
-1.240875e-09,7.000000e-03
-1.236875e-09,6.140625e-03
-1.232875e-09,6.312500e-03
-1.228875e-09,5.687500e-03
-1.224875e-09,5.484375e-03
-1.220875e-09,5.687500e-03
-1.216875e-09,5.718750e-03
-1.212875e-09,5.343750e-03
-1.208875e-09,4.781250e-03
-1.204875e-09,4.656250e-03
-1.200875e-09,4.953125e-03
-1.196875e-09,4.437500e-03
-1.192875e-09,4.968750e-03
-1.188875e-09,5.093750e-03
-1.184875e-09,5.250000e-03
-1.180875e-09,4.015625e-03
-1.176875e-09,4.796875e-03
-1.172875e-09,3.984375e-03
-1.168875e-09,5.203125e-03
-1.164875e-09,5.031250e-03
-1.160875e-09,4.875000e-03
-1.156875e-09,4.312500e-03
-1.152875e-09,4.765625e-03
-1.148875e-09,4.437500e-03
-1.144875e-09,4.515625e-03
-1.140875e-09,5.000000e-03
-1.136875e-09,5.296875e-03
-1.132875e-09,5.187500e-03
-1.128875e-09,4.875000e-03
-1.124875e-09,4.968750e-03
-1.120875e-09,5.468750e-03
-1.116875e-09,5.171875e-03
-1.112875e-09,5.875000e-03
-1.108875e-09,6.156250e-03
-1.104875e-09,6.453125e-03
-1.100875e-09,5.328125e-03
-1.096875e-09,6.218750e-03
-1.092875e-09,5.484375e-03
-1.088875e-09,6.750000e-03
-1.084875e-09,6.609375e-03
-1.080875e-09,6.453125e-03
-1.076875e-09,5.890625e-03
-1.072875e-09,6.328125e-03
-1.068875e-09,5.953125e-03
-1.064875e-09,5.953125e-03
-1.060875e-09,6.359375e-03
-1.056875e-09,6.562500e-03
-1.052875e-09,6.343750e-03
-1.048875e-09,5.921875e-03
-1.044875e-09,5.890625e-03
-1.040875e-09,6.250000e-03
-1.036875e-09,5.796875e-03
-1.032875e-09,6.359375e-03
-1.028875e-09,6.500000e-03
-1.024875e-09,6.640625e-03
-1.020875e-09,5.359375e-03
-1.016875e-09,6.109375e-03
-1.012875e-09,5.218750e-03
-1.008875e-09,6.359375e-03
-1.004875e-09,6.093750e-03
-1.000875e-09,5.828125e-03
-9.968750e-10,5.156250e-03
-9.928750e-10,5.500000e-03
-9.888750e-10,5.031250e-03
-9.848750e-10,4.984375e-03
-9.808750e-10,5.328125e-03
-9.768750e-10,5.500000e-03
-9.728750e-10,5.265625e-03
-9.688750e-10,4.843750e-03
-9.648750e-10,4.828125e-03
-9.608750e-10,5.218750e-03
-9.568750e-10,4.828125e-03
-9.528750e-10,5.437500e-03
-9.488750e-10,5.671875e-03
-9.448750e-10,5.906250e-03
-9.408750e-10,4.750000e-03
-9.368750e-10,5.609375e-03
-9.328750e-10,4.875000e-03
-9.288750e-10,6.125000e-03
-9.248750e-10,6.015625e-03
-9.208750e-10,5.906250e-03
-9.168750e-10,5.406250e-03
-9.128750e-10,5.921875e-03
-9.088750e-10,5.625000e-03
-9.048750e-10,5.750000e-03
-9.008750e-10,6.281250e-03
-8.968750e-10,6.625000e-03
-8.928750e-10,6.562500e-03
-8.888750e-10,6.296875e-03
-8.848750e-10,6.437500e-03
-8.808750e-10,6.968750e-03
-8.768750e-10,6.703125e-03
-8.728750e-10,7.453125e-03
-8.688750e-10,7.781250e-03
-8.648750e-10,8.109375e-03
-8.608750e-10,7.062500e-03
-8.568750e-10,7.984375e-03
-8.528750e-10,7.281250e-03
-8.488750e-10,8.515625e-03
-8.448750e-10,8.437500e-03
-8.408750e-10,8.328125e-03
-8.368750e-10,7.828125e-03
-8.328750e-10,8.296875e-03
-8.288750e-10,7.937500e-03
-8.248750e-10,8.015625e-03
-8.208750e-10,8.453125e-03
-8.168750e-10,8.671875e-03
-8.128750e-10,8.515625e-03
-8.088750e-10,8.109375e-03
-8.048750e-10,8.109375e-03
-8.008750e-10,8.484375e-03
-7.968750e-10,8.046875e-03
-7.928750e-10,8.625000e-03
-7.888750e-10,8.781250e-03
-7.848750e-10,8.921875e-03
-7.808750e-10,7.703125e-03
-7.768750e-10,8.437500e-03
-7.728750e-10,7.562500e-03
-7.688750e-10,8.546875e-03
-7.648750e-10,8.312500e-03
-7.608750e-10,8.031250e-03
-7.568750e-10,7.390625e-03
-7.528750e-10,7.671875e-03
-7.488750e-10,7.156250e-03
-7.448750e-10,7.109375e-03
-7.408750e-10,7.406250e-03
-7.368750e-10,7.500000e-03
-7.328750e-10,7.296875e-03
-7.288750e-10,6.781250e-03
-7.248750e-10,6.687500e-03
-7.208750e-10,7.000000e-03
-7.168750e-10,6.531250e-03
-7.128750e-10,7.062500e-03
-7.088750e-10,7.218750e-03
-7.048750e-10,7.343750e-03
-7.008750e-10,6.125000e-03
-6.968750e-10,6.921875e-03
-6.928750e-10,6.125000e-03
-6.888750e-10,7.140625e-03
-6.848750e-10,7.000000e-03
-6.808750e-10,6.828125e-03
-6.768750e-10,6.312500e-03
-6.728750e-10,6.687500e-03
-6.688750e-10,6.250000e-03
-6.648750e-10,6.375000e-03
-6.608750e-10,6.812500e-03
-6.568750e-10,7.000000e-03
-6.528750e-10,7.031250e-03
-6.488750e-10,6.671875e-03
-6.448750e-10,6.703125e-03
-6.408750e-10,7.156250e-03
-6.368750e-10,6.890625e-03
-6.328750e-10,7.546875e-03
-6.288750e-10,7.859375e-03
-6.248750e-10,8.109375e-03
-6.208750e-10,7.015625e-03
-6.168750e-10,7.921875e-03
-6.128750e-10,7.312500e-03
-6.088750e-10,8.421875e-03
-6.048750e-10,8.406250e-03
-6.008750e-10,8.343750e-03
-5.968750e-10,7.890625e-03
-5.928750e-10,8.296875e-03
-5.888750e-10,7.921875e-03
-5.848750e-10,8.093750e-03
-5.808750e-10,8.546875e-03
-5.768750e-10,8.718750e-03
-5.728750e-10,8.765625e-03
-5.688750e-10,8.375000e-03
-5.648750e-10,8.390625e-03
-5.608750e-10,8.812500e-03
-5.568750e-10,8.500000e-03
-5.528750e-10,9.093750e-03
-5.488750e-10,9.296875e-03
-5.448750e-10,9.453125e-03
-5.408750e-10,8.218750e-03
-5.368750e-10,9.000000e-03
-5.328750e-10,8.312500e-03
-5.288750e-10,9.281250e-03
-5.248750e-10,9.171875e-03
-5.208750e-10,8.921875e-03
-5.168750e-10,8.312500e-03
-5.128750e-10,8.562500e-03
-5.088750e-10,8.046875e-03
-5.048750e-10,8.031250e-03
-5.008750e-10,8.343750e-03
-4.968750e-10,8.343750e-03
-4.928750e-10,8.187500e-03
-4.888750e-10,7.656250e-03
-4.848750e-10,7.546875e-03
-4.808750e-10,7.843750e-03
-4.768750e-10,7.328125e-03
-4.728750e-10,7.843750e-03
-4.688750e-10,7.875000e-03
-4.648750e-10,7.906250e-03
-4.608750e-10,6.562500e-03
-4.568750e-10,7.187500e-03
-4.528750e-10,6.406250e-03
-4.488750e-10,7.281250e-03
-4.448750e-10,7.125000e-03
-4.408750e-10,6.765625e-03
-4.368750e-10,6.078125e-03
-4.328750e-10,6.312500e-03
-4.288750e-10,5.812500e-03
-4.248750e-10,5.687500e-03
-4.208750e-10,6.015625e-03
-4.168750e-10,6.015625e-03
-4.128750e-10,5.781250e-03
-4.088750e-10,5.296875e-03
-4.048750e-10,5.265625e-03
-4.008750e-10,5.625000e-03
-3.968750e-10,5.125000e-03
-3.928750e-10,5.687500e-03
-3.888750e-10,5.828125e-03
-3.848750e-10,5.937500e-03
-3.808750e-10,4.718750e-03
-3.768750e-10,5.375000e-03
-3.728750e-10,4.718750e-03
-3.688750e-10,5.734375e-03
-3.648750e-10,5.703125e-03
-3.608750e-10,5.453125e-03
-3.568750e-10,4.937500e-03
-3.528750e-10,5.328125e-03
-3.488750e-10,5.031250e-03
-3.448750e-10,5.015625e-03
-3.408750e-10,5.500000e-03
-3.368750e-10,5.671875e-03
-3.328750e-10,5.546875e-03
-3.288750e-10,5.265625e-03
-3.248750e-10,5.421875e-03
-3.208750e-10,5.968750e-03
-3.168750e-10,5.609375e-03
-3.128750e-10,6.312500e-03
-3.088750e-10,6.656250e-03
-3.048750e-10,6.921875e-03
-3.008750e-10,5.890625e-03
-2.968750e-10,6.656250e-03
-2.928750e-10,6.093750e-03
-2.888750e-10,7.265625e-03
-2.848750e-10,7.312500e-03
-2.808750e-10,7.171875e-03
-2.768750e-10,6.781250e-03
-2.728750e-10,7.250000e-03
-2.688750e-10,7.015625e-03
-2.648750e-10,7.031250e-03
-2.608750e-10,7.515625e-03
-2.568750e-10,7.703125e-03
-2.528750e-10,7.531250e-03
-2.488750e-10,7.265625e-03
-2.448750e-10,7.343750e-03
-2.408750e-10,7.781250e-03
-2.368750e-10,7.359375e-03
-2.328750e-10,7.906250e-03
-2.288750e-10,8.125000e-03
-2.248750e-10,8.203125e-03
-2.208750e-10,7.031250e-03
-2.168750e-10,7.593750e-03
-2.128750e-10,6.750000e-03
-2.088750e-10,7.703125e-03
-2.048750e-10,7.437500e-03
-2.008750e-10,7.031250e-03
-1.968750e-10,6.375000e-03
-1.928750e-10,6.531250e-03
-1.888750e-10,5.953125e-03
-1.848750e-10,5.671875e-03
-1.808750e-10,5.781250e-03
-1.768750e-10,5.640625e-03
-1.728750e-10,5.140625e-03
-1.688750e-10,4.562500e-03
-1.648750e-10,4.281250e-03
-1.608750e-10,4.359375e-03
-1.568750e-10,3.671875e-03
-1.528750e-10,3.937500e-03
-1.488750e-10,3.875000e-03
-1.448750e-10,3.765625e-03
-1.408750e-10,2.437500e-03
-1.368750e-10,2.859375e-03
-1.328750e-10,1.890625e-03
-1.288750e-10,2.843750e-03
-1.248750e-10,2.515625e-03
-1.208750e-10,2.203125e-03
-1.168750e-10,1.703125e-03
-1.128750e-10,2.078125e-03
-1.088750e-10,1.781250e-03
-1.048750e-10,1.890625e-03
-1.008750e-10,2.453125e-03
-9.687500e-11,2.875000e-03
-9.287500e-11,3.015625e-03
-8.887500e-11,3.203125e-03
-8.487500e-11,3.750000e-03
-8.087500e-11,4.718750e-03
-7.687500e-11,5.093750e-03
-7.287500e-11,6.562500e-03
-6.887500e-11,7.750000e-03
-6.487500e-11,9.093750e-03
-6.087500e-11,9.312500e-03
-5.687500e-11,1.139063e-02
-5.287500e-11,1.212500e-02
-4.887500e-11,1.498438e-02
-4.487500e-11,1.659375e-02
-4.087500e-11,1.840625e-02
-3.687500e-11,2.009375e-02
-3.287500e-11,2.279688e-02
-2.887500e-11,2.489063e-02
-2.487500e-11,2.751563e-02
-2.087500e-11,3.067188e-02
-1.687500e-11,3.382813e-02
-1.287500e-11,3.667188e-02
-8.875000e-12,3.970313e-02
-4.875000e-12,4.312500e-02
-8.750000e-13,4.698438e-02
3.125000e-12,5.034375e-02
7.125000e-12,5.484375e-02
1.112500e-11,5.904688e-02
1.512500e-11,6.350000e-02
1.912500e-11,6.679688e-02
2.312500e-11,7.192188e-02
2.712500e-11,7.567188e-02
3.112500e-11,8.153125e-02
3.512500e-11,8.604688e-02
3.912500e-11,9.081250e-02
4.312500e-11,9.529688e-02
4.712500e-11,1.007188e-01
5.112500e-11,1.055000e-01
5.512500e-11,1.106563e-01
5.912500e-11,1.162656e-01
6.312500e-11,1.218125e-01
6.712500e-11,1.267813e-01
7.112500e-11,1.318125e-01
7.512500e-11,1.371094e-01
7.912500e-11,1.426563e-01
8.312500e-11,1.475938e-01
8.712500e-11,1.534219e-01
9.112500e-11,1.587500e-01
9.512500e-11,1.642031e-01
9.912500e-11,1.682188e-01
1.031250e-10,1.739063e-01
1.071250e-10,1.779844e-01
1.111250e-10,1.839375e-01
1.151250e-10,1.882813e-01
1.191250e-10,1.927500e-01
1.231250e-10,1.966406e-01
1.271250e-10,2.012031e-01
1.311250e-10,2.049688e-01
1.351250e-10,2.088750e-01
1.391250e-10,2.130000e-01
1.431250e-10,2.169219e-01
1.471250e-10,2.199375e-01
1.511250e-10,2.228281e-01
1.551250e-10,2.258125e-01
1.591250e-10,2.288594e-01
1.631250e-10,2.311250e-01
1.671250e-10,2.340313e-01
1.711250e-10,2.362656e-01
1.751250e-10,2.385000e-01
1.791250e-10,2.391094e-01
1.831250e-10,2.412969e-01
1.871250e-10,2.417344e-01
1.911250e-10,2.438750e-01
1.951250e-10,2.442969e-01
1.991250e-10,2.447656e-01
2.031250e-10,2.445625e-01
2.071250e-10,2.449531e-01
2.111250e-10,2.445469e-01
2.151250e-10,2.442031e-01
2.191250e-10,2.440000e-01
2.231250e-10,2.436094e-01
2.271250e-10,2.422813e-01
2.311250e-10,2.407969e-01
2.351250e-10,2.394688e-01
2.391250e-10,2.382344e-01
2.431250e-10,2.362500e-01
2.471250e-10,2.349219e-01
2.511250e-10,2.329531e-01
2.551250e-10,2.310938e-01
2.591250e-10,2.276406e-01
2.631250e-10,2.259219e-01
2.671250e-10,2.225625e-01
2.711250e-10,2.208906e-01
2.751250e-10,2.176875e-01
2.791250e-10,2.146094e-01
2.831250e-10,2.109844e-01
2.871250e-10,2.081250e-01
2.911250e-10,2.045938e-01
2.951250e-10,2.012656e-01
2.991250e-10,1.981719e-01
3.031250e-10,1.950469e-01
3.071250e-10,1.911719e-01
3.111250e-10,1.872344e-01
3.151250e-10,1.836250e-01
3.191250e-10,1.802813e-01
3.231250e-10,1.762656e-01
3.271250e-10,1.730938e-01
3.311250e-10,1.694375e-01
3.351250e-10,1.660469e-01
3.391250e-10,1.611406e-01
3.431250e-10,1.582188e-01
3.471250e-10,1.537656e-01
3.511250e-10,1.510938e-01
3.551250e-10,1.470781e-01
3.591250e-10,1.432813e-01
3.631250e-10,1.390469e-01
3.671250e-10,1.357656e-01
3.711250e-10,1.319375e-01
3.751250e-10,1.284063e-01
3.791250e-10,1.251875e-01
3.831250e-10,1.220313e-01
3.871250e-10,1.183281e-01
3.911250e-10,1.146250e-01
3.951250e-10,1.113125e-01
3.991250e-10,1.083906e-01
4.031250e-10,1.048438e-01
4.071250e-10,1.022031e-01
4.111250e-10,9.925000e-02
4.151250e-10,9.656250e-02
4.191250e-10,9.243750e-02
4.231250e-10,9.039063e-02
4.271250e-10,8.689063e-02
4.311250e-10,8.518750e-02
4.351250e-10,8.225000e-02
4.391250e-10,7.953125e-02
4.431250e-10,7.643750e-02
4.471250e-10,7.435938e-02
4.511250e-10,7.175000e-02
4.551250e-10,6.948438e-02
4.591250e-10,6.754688e-02
4.631250e-10,6.568750e-02
4.671250e-10,6.340625e-02
4.711250e-10,6.109375e-02
4.751250e-10,5.918750e-02
4.791250e-10,5.771875e-02
4.831250e-10,5.560938e-02
4.871250e-10,5.439063e-02
4.911250e-10,5.293750e-02
4.951250e-10,5.168750e-02
4.991250e-10,4.906250e-02
5.031250e-10,4.850000e-02
5.071250e-10,4.650000e-02
5.111250e-10,4.629688e-02
5.151250e-10,4.489063e-02
5.191250e-10,4.359375e-02
5.231250e-10,4.198438e-02
5.271250e-10,4.134375e-02
5.311250e-10,4.012500e-02
5.351250e-10,3.926563e-02
5.391250e-10,3.870313e-02
5.431250e-10,3.820313e-02
5.471250e-10,3.729688e-02
5.511250e-10,3.628125e-02
5.551250e-10,3.567188e-02
5.591250e-10,3.545313e-02
5.631250e-10,3.453125e-02
5.671250e-10,3.445313e-02
5.711250e-10,3.415625e-02
5.751250e-10,3.392188e-02
5.791250e-10,3.235938e-02
5.831250e-10,3.273438e-02
5.871250e-10,3.168750e-02
5.911250e-10,3.239063e-02
5.951250e-10,3.184375e-02
5.991250e-10,3.126563e-02
6.031250e-10,3.039063e-02
6.071250e-10,3.045313e-02
6.111250e-10,2.975000e-02
6.151250e-10,2.940625e-02
6.191250e-10,2.934375e-02
6.231250e-10,2.926563e-02
6.271250e-10,2.876563e-02
6.311250e-10,2.803125e-02
6.351250e-10,2.773438e-02
6.391250e-10,2.768750e-02
6.431250e-10,2.690625e-02
6.471250e-10,2.696875e-02
6.511250e-10,2.675000e-02
6.551250e-10,2.645313e-02
6.591250e-10,2.487500e-02
6.631250e-10,2.510938e-02
6.671250e-10,2.396875e-02
6.711250e-10,2.451563e-02
6.751250e-10,2.379688e-02
6.791250e-10,2.298438e-02
6.831250e-10,2.181250e-02
6.871250e-10,2.164063e-02
6.911250e-10,2.059375e-02
6.951250e-10,1.989063e-02
6.991250e-10,1.953125e-02
7.031250e-10,1.910938e-02
7.071250e-10,1.828125e-02
7.111250e-10,1.717188e-02
7.151250e-10,1.654688e-02
7.191250e-10,1.614063e-02
7.231250e-10,1.504688e-02
7.271250e-10,1.481250e-02
7.311250e-10,1.434375e-02
7.351250e-10,1.370313e-02
7.391250e-10,1.192188e-02
7.431250e-10,1.189063e-02
7.471250e-10,1.056250e-02
7.511250e-10,1.098438e-02
7.551250e-10,1.015625e-02
7.591250e-10,9.296875e-03
7.631250e-10,8.031250e-03
7.671250e-10,7.875000e-03
7.711250e-10,6.859375e-03
7.751250e-10,6.218750e-03
7.791250e-10,6.031250e-03
7.831250e-10,5.750000e-03
7.871250e-10,5.156250e-03
7.911250e-10,4.281250e-03
7.951250e-10,3.953125e-03
7.991250e-10,3.906250e-03
8.031250e-10,3.218750e-03
8.071250e-10,3.453125e-03
8.111250e-10,3.453125e-03
8.151250e-10,3.281250e-03
8.191250e-10,2.062500e-03
8.231250e-10,2.578125e-03
8.271250e-10,1.796875e-03
8.311250e-10,2.906250e-03
8.351250e-10,2.718750e-03
8.391250e-10,2.546875e-03
8.431250e-10,1.984375e-03
8.471250e-10,2.468750e-03
8.511250e-10,2.156250e-03
8.551250e-10,2.265625e-03
8.591250e-10,2.812500e-03
8.631250e-10,3.156250e-03
8.671250e-10,3.296875e-03
8.711250e-10,3.109375e-03
8.751250e-10,3.390625e-03
8.791250e-10,4.062500e-03
8.831250e-10,4.031250e-03
8.871250e-10,4.890625e-03
8.911250e-10,5.453125e-03
8.951250e-10,5.843750e-03
8.991250e-10,5.156250e-03
9.031250e-10,6.156250e-03
9.071250e-10,5.750000e-03
9.111250e-10,7.312500e-03
9.151250e-10,7.515625e-03
9.191250e-10,7.671875e-03
9.231250e-10,7.390625e-03
9.271250e-10,8.078125e-03
9.311250e-10,7.984375e-03
9.351250e-10,8.281250e-03
9.391250e-10,8.953125e-03
9.431250e-10,9.265625e-03
9.471250e-10,9.421875e-03
9.511250e-10,9.234375e-03
9.551250e-10,9.375000e-03
9.591250e-10,9.984375e-03
9.631250e-10,9.812500e-03
9.671250e-10,1.048438e-02
9.711250e-10,1.078125e-02
9.751250e-10,1.093750e-02
9.791250e-10,1.000000e-02
9.831250e-10,1.070313e-02
9.871250e-10,9.937500e-03
9.911250e-10,1.114063e-02
9.951250e-10,1.096875e-02
9.991250e-10,1.071875e-02
1.003125e-09,1.007813e-02
1.007125e-09,1.035938e-02
1.011125e-09,9.875000e-03
1.015125e-09,9.796875e-03
1.019125e-09,1.010938e-02
1.023125e-09,1.000000e-02
1.027125e-09,9.750000e-03
1.031125e-09,9.218750e-03
1.035125e-09,9.000000e-03
1.039125e-09,9.296875e-03
1.043125e-09,8.812500e-03
1.047125e-09,9.187500e-03
1.051125e-09,9.218750e-03
1.055125e-09,9.171875e-03
1.059125e-09,8.046875e-03
1.063125e-09,8.625000e-03
1.067125e-09,7.718750e-03
1.071125e-09,8.796875e-03
1.075125e-09,8.546875e-03
1.079125e-09,8.265625e-03
1.083125e-09,7.625000e-03
1.087125e-09,7.953125e-03
1.091125e-09,7.546875e-03
1.095125e-09,7.562500e-03
1.099125e-09,8.000000e-03
1.103125e-09,8.093750e-03
1.107125e-09,8.000000e-03
1.111125e-09,7.671875e-03
1.115125e-09,7.687500e-03
1.119125e-09,8.234375e-03
1.123125e-09,8.000000e-03
1.127125e-09,8.671875e-03
1.131125e-09,9.015625e-03
1.135125e-09,9.296875e-03
1.139125e-09,8.468750e-03
1.143125e-09,9.421875e-03
1.147125e-09,8.828125e-03
1.151125e-09,1.020313e-02
1.155125e-09,1.025000e-02
1.159125e-09,1.028125e-02
1.163125e-09,9.921875e-03
1.167125e-09,1.054688e-02
1.171125e-09,1.039063e-02
1.175125e-09,1.064063e-02
1.179125e-09,1.128125e-02
1.183125e-09,1.162500e-02
1.187125e-09,1.167188e-02
1.191125e-09,1.148438e-02
1.195125e-09,1.162500e-02
1.199125e-09,1.223438e-02
1.203125e-09,1.203125e-02
1.207125e-09,1.273438e-02
1.211125e-09,1.306250e-02
1.215125e-09,1.332813e-02
1.219125e-09,1.235938e-02
1.223125e-09,1.321875e-02
1.227125e-09,1.246875e-02
1.231125e-09,1.367188e-02
1.235125e-09,1.346875e-02
1.239125e-09,1.326563e-02
1.243125e-09,1.262500e-02
1.247125e-09,1.295313e-02
1.251125e-09,1.246875e-02
1.255125e-09,1.235938e-02
1.259125e-09,1.262500e-02
1.263125e-09,1.262500e-02
1.267125e-09,1.225000e-02
1.271125e-09,1.165625e-02
1.275125e-09,1.140625e-02
1.279125e-09,1.157813e-02
1.283125e-09,1.093750e-02
1.287125e-09,1.123438e-02
1.291125e-09,1.115625e-02
1.295125e-09,1.101563e-02
1.299125e-09,9.593750e-03
1.303125e-09,1.006250e-02
1.307125e-09,8.937500e-03
1.311125e-09,9.796875e-03
1.315125e-09,9.265625e-03
1.319125e-09,8.718750e-03
1.323125e-09,7.781250e-03
1.327125e-09,7.843750e-03
1.331125e-09,7.125000e-03
1.335125e-09,6.812500e-03
1.339125e-09,6.890625e-03
1.343125e-09,6.765625e-03
1.347125e-09,6.265625e-03
1.351125e-09,5.578125e-03
1.355125e-09,5.296875e-03
1.359125e-09,5.453125e-03
1.363125e-09,4.812500e-03
1.367125e-09,5.171875e-03
1.371125e-09,5.156250e-03
1.375125e-09,5.156250e-03
1.379125e-09,3.828125e-03
1.383125e-09,4.468750e-03
1.387125e-09,3.531250e-03
1.391125e-09,4.609375e-03
1.395125e-09,4.312500e-03
1.399125e-09,4.031250e-03
1.403125e-09,3.375000e-03
1.407125e-09,3.718750e-03
1.411125e-09,3.296875e-03
1.415125e-09,3.296875e-03
1.419125e-09,3.703125e-03
1.423125e-09,3.906250e-03
1.427125e-09,3.750000e-03
1.431125e-09,3.406250e-03
1.435125e-09,3.453125e-03
1.439125e-09,3.921875e-03
1.443125e-09,3.609375e-03
1.447125e-09,4.281250e-03
1.451125e-09,4.578125e-03
1.455125e-09,4.875000e-03
1.459125e-09,3.812500e-03
1.463125e-09,4.718750e-03
1.467125e-09,4.015625e-03
1.471125e-09,5.343750e-03
1.475125e-09,5.250000e-03
1.479125e-09,5.171875e-03
1.483125e-09,4.671875e-03
1.487125e-09,5.187500e-03
1.491125e-09,4.906250e-03
1.495125e-09,5.015625e-03
1.499125e-09,5.515625e-03
1.503125e-09,5.812500e-03
1.507125e-09,5.703125e-03
1.511125e-09,5.390625e-03
1.515125e-09,5.468750e-03
1.519125e-09,5.953125e-03
1.523125e-09,5.625000e-03
1.527125e-09,6.296875e-03
1.531125e-09,6.562500e-03
1.535125e-09,6.828125e-03
1.539125e-09,5.703125e-03
1.543125e-09,6.562500e-03
1.547125e-09,5.812500e-03
1.551125e-09,7.078125e-03
1.555125e-09,6.921875e-03
1.559125e-09,6.781250e-03
1.563125e-09,6.218750e-03
1.567125e-09,6.687500e-03
1.571125e-09,6.328125e-03
1.575125e-09,6.390625e-03
1.579125e-09,6.859375e-03
1.583125e-09,7.125000e-03
1.587125e-09,7.000000e-03
1.591125e-09,6.671875e-03
1.595125e-09,6.750000e-03
1.599125e-09,7.234375e-03
1.603125e-09,6.921875e-03
1.607125e-09,7.625000e-03
1.611125e-09,7.937500e-03
1.615125e-09,8.234375e-03
1.619125e-09,7.156250e-03
1.623125e-09,8.093750e-03
1.627125e-09,7.421875e-03
1.631125e-09,8.765625e-03
1.635125e-09,8.718750e-03
1.639125e-09,8.656250e-03
1.643125e-09,8.218750e-03
1.647125e-09,8.781250e-03
1.651125e-09,8.531250e-03
1.655125e-09,8.703125e-03
1.659125e-09,9.281250e-03
1.663125e-09,9.656250e-03
1.667125e-09,9.625000e-03
1.671125e-09,9.390625e-03
1.675125e-09,9.546875e-03
1.679125e-09,1.012500e-02
1.683125e-09,9.875000e-03
1.687125e-09,1.064063e-02
1.691125e-09,1.098438e-02
1.695125e-09,1.132813e-02
1.699125e-09,1.025000e-02
1.703125e-09,1.118750e-02
1.707125e-09,1.048438e-02
1.711125e-09,1.179688e-02
1.715125e-09,1.168750e-02
1.719125e-09,1.156250e-02
1.723125e-09,1.101563e-02
1.727125e-09,1.145313e-02
1.731125e-09,1.109375e-02
1.735125e-09,1.109375e-02
1.739125e-09,1.150000e-02
1.743125e-09,1.168750e-02
1.747125e-09,1.145313e-02
1.751125e-09,1.100000e-02
1.755125e-09,1.093750e-02
1.759125e-09,1.126563e-02
