Measurements-streak-laser/Photodiode-on-Tek-12bit-4GHz/Tek000_ch1_20190613132954956.csv

Model,MSO64
Waveform Type,ANALOG
Horizontal Units,s
Sample Interval,4.000000e-12
Record Length,1000
Zero Index,310.000000
Vertical Units,V

TIME,CH1
-1.240000e-09,4.265625e-03
-1.236000e-09,4.125000e-03
-1.232000e-09,3.781250e-03
-1.228000e-09,3.843750e-03
-1.224000e-09,4.328125e-03
-1.220000e-09,4.000000e-03
-1.216000e-09,4.703125e-03
-1.212000e-09,4.984375e-03
-1.208000e-09,5.281250e-03
-1.204000e-09,4.156250e-03
-1.200000e-09,5.046875e-03
-1.196000e-09,4.328125e-03
-1.192000e-09,5.609375e-03
-1.188000e-09,5.484375e-03
-1.184000e-09,5.343750e-03
-1.180000e-09,4.812500e-03
-1.176000e-09,5.265625e-03
-1.172000e-09,4.921875e-03
-1.168000e-09,4.953125e-03
-1.164000e-09,5.390625e-03
-1.160000e-09,5.625000e-03
-1.156000e-09,5.437500e-03
-1.152000e-09,5.031250e-03
-1.148000e-09,5.031250e-03
-1.144000e-09,5.437500e-03
-1.140000e-09,5.000000e-03
-1.136000e-09,5.578125e-03
-1.132000e-09,5.750000e-03
-1.128000e-09,5.906250e-03
-1.124000e-09,4.656250e-03
-1.120000e-09,5.406250e-03
-1.116000e-09,4.531250e-03
-1.112000e-09,5.687500e-03
-1.108000e-09,5.406250e-03
-1.104000e-09,5.140625e-03
-1.100000e-09,4.453125e-03
-1.096000e-09,4.781250e-03
-1.092000e-09,4.296875e-03
-1.088000e-09,4.218750e-03
-1.084000e-09,4.531250e-03
-1.080000e-09,4.656250e-03
-1.076000e-09,4.375000e-03
-1.072000e-09,3.906250e-03
-1.068000e-09,3.828125e-03
-1.064000e-09,4.171875e-03
-1.060000e-09,3.703125e-03
-1.056000e-09,4.250000e-03
-1.052000e-09,4.390625e-03
-1.048000e-09,4.546875e-03
-1.044000e-09,3.296875e-03
-1.040000e-09,4.078125e-03
-1.036000e-09,3.234375e-03
-1.032000e-09,4.421875e-03
-1.028000e-09,4.218750e-03
-1.024000e-09,4.000000e-03
-1.020000e-09,3.390625e-03
-1.016000e-09,3.812500e-03
-1.012000e-09,3.406250e-03
-1.008000e-09,3.437500e-03
-1.004000e-09,3.859375e-03
-1.000000e-09,4.093750e-03
-9.960000e-10,3.937500e-03
-9.920000e-10,3.578125e-03
-9.880000e-10,3.625000e-03
-9.840000e-10,4.078125e-03
-9.800000e-10,3.718750e-03
-9.760000e-10,4.390625e-03
-9.720000e-10,4.640625e-03
-9.680000e-10,4.906250e-03
-9.640000e-10,3.750000e-03
-9.600000e-10,4.625000e-03
-9.560000e-10,3.875000e-03
-9.520000e-10,5.140625e-03
-9.480000e-10,5.000000e-03
-9.440000e-10,4.843750e-03
-9.400000e-10,4.296875e-03
-9.360000e-10,4.765625e-03
-9.320000e-10,4.406250e-03
-9.280000e-10,4.453125e-03
-9.240000e-10,4.906250e-03
-9.200000e-10,5.140625e-03
-9.160000e-10,4.984375e-03
-9.120000e-10,4.609375e-03
-9.080000e-10,4.640625e-03
-9.040000e-10,5.078125e-03
-9.000000e-10,4.687500e-03
-8.960000e-10,5.312500e-03
-8.920000e-10,5.531250e-03
-8.880000e-10,5.750000e-03
-8.840000e-10,4.562500e-03
-8.800000e-10,5.375000e-03
-8.760000e-10,4.578125e-03
-8.720000e-10,5.734375e-03
-8.680000e-10,5.562500e-03
-8.640000e-10,5.359375e-03
-8.600000e-10,4.765625e-03
-8.560000e-10,5.171875e-03
-8.520000e-10,4.765625e-03
-8.480000e-10,4.781250e-03
-8.440000e-10,5.187500e-03
-8.400000e-10,5.406250e-03
-8.360000e-10,5.234375e-03
-8.320000e-10,4.843750e-03
-8.280000e-10,4.843750e-03
-8.240000e-10,5.281250e-03
-8.200000e-10,4.890625e-03
-8.160000e-10,5.531250e-03
-8.120000e-10,5.765625e-03
-8.080000e-10,6.000000e-03
-8.040000e-10,4.875000e-03
-8.000000e-10,5.718750e-03
-7.960000e-10,4.968750e-03
-7.920000e-10,6.140625e-03
-7.880000e-10,6.046875e-03
-7.840000e-10,5.906250e-03
-7.800000e-10,5.406250e-03
-7.760000e-10,5.875000e-03
-7.720000e-10,5.531250e-03
-7.680000e-10,5.656250e-03
-7.640000e-10,6.125000e-03
-7.600000e-10,6.390625e-03
-7.560000e-10,6.343750e-03
-7.520000e-10,6.000000e-03
-7.480000e-10,6.078125e-03
-7.440000e-10,6.546875e-03
-7.400000e-10,6.234375e-03
-7.360000e-10,6.906250e-03
-7.320000e-10,7.187500e-03
-7.280000e-10,7.453125e-03
-7.240000e-10,6.343750e-03
-7.200000e-10,7.203125e-03
-7.160000e-10,6.484375e-03
-7.120000e-10,7.593750e-03
-7.080000e-10,7.484375e-03
-7.040000e-10,7.343750e-03
-7.000000e-10,6.812500e-03
-6.960000e-10,7.187500e-03
-6.920000e-10,6.734375e-03
-6.880000e-10,6.796875e-03
-6.840000e-10,7.171875e-03
-6.800000e-10,7.296875e-03
-6.760000e-10,7.171875e-03
-6.720000e-10,6.687500e-03
-6.680000e-10,6.609375e-03
-6.640000e-10,6.906250e-03
-6.600000e-10,6.453125e-03
-6.560000e-10,6.953125e-03
-6.520000e-10,7.046875e-03
-6.480000e-10,7.109375e-03
-6.440000e-10,5.796875e-03
-6.400000e-10,6.484375e-03
-6.360000e-10,5.593750e-03
-6.320000e-10,6.500000e-03
-6.280000e-10,6.218750e-03
-6.240000e-10,5.890625e-03
-6.200000e-10,5.171875e-03
-6.160000e-10,5.359375e-03
-6.120000e-10,4.750000e-03
-6.080000e-10,4.656250e-03
-6.040000e-10,4.875000e-03
-6.000000e-10,4.843750e-03
-5.960000e-10,4.609375e-03
-5.920000e-10,4.015625e-03
-5.880000e-10,3.828125e-03
-5.840000e-10,4.062500e-03
-5.800000e-10,3.546875e-03
-5.760000e-10,4.000000e-03
-5.720000e-10,4.046875e-03
-5.680000e-10,4.093750e-03
-5.640000e-10,2.750000e-03
-5.600000e-10,3.453125e-03
-5.560000e-10,2.640625e-03
-5.520000e-10,3.593750e-03
-5.480000e-10,3.421875e-03
-5.440000e-10,3.156250e-03
-5.400000e-10,2.546875e-03
-5.360000e-10,2.859375e-03
-5.320000e-10,2.390625e-03
-5.280000e-10,2.421875e-03
-5.240000e-10,2.828125e-03
-5.200000e-10,2.953125e-03
-5.160000e-10,2.890625e-03
-5.120000e-10,2.515625e-03
-5.080000e-10,2.562500e-03
-5.040000e-10,3.015625e-03
-5.000000e-10,2.703125e-03
-4.960000e-10,3.406250e-03
-4.920000e-10,3.671875e-03
-4.880000e-10,3.937500e-03
-4.840000e-10,2.828125e-03
-4.800000e-10,3.718750e-03
-4.760000e-10,3.171875e-03
-4.720000e-10,4.359375e-03
-4.680000e-10,4.421875e-03
-4.640000e-10,4.343750e-03
-4.600000e-10,3.937500e-03
-4.560000e-10,4.453125e-03
-4.520000e-10,4.218750e-03
-4.480000e-10,4.375000e-03
-4.440000e-10,4.984375e-03
-4.400000e-10,5.265625e-03
-4.360000e-10,5.296875e-03
-4.320000e-10,5.062500e-03
-4.280000e-10,5.265625e-03
-4.240000e-10,5.859375e-03
-4.200000e-10,5.609375e-03
-4.160000e-10,6.406250e-03
-4.120000e-10,6.765625e-03
-4.080000e-10,7.093750e-03
-4.040000e-10,6.062500e-03
-4.000000e-10,6.937500e-03
-3.960000e-10,6.406250e-03
-3.920000e-10,7.640625e-03
-3.880000e-10,7.718750e-03
-3.840000e-10,7.609375e-03
-3.800000e-10,7.203125e-03
-3.760000e-10,7.703125e-03
-3.720000e-10,7.468750e-03
-3.680000e-10,7.562500e-03
-3.640000e-10,8.125000e-03
-3.600000e-10,8.375000e-03
-3.560000e-10,8.296875e-03
-3.520000e-10,8.031250e-03
-3.480000e-10,8.187500e-03
-3.440000e-10,8.718750e-03
-3.400000e-10,8.375000e-03
-3.360000e-10,9.093750e-03
-3.320000e-10,9.390625e-03
-3.280000e-10,9.625000e-03
-3.240000e-10,8.531250e-03
-3.200000e-10,9.312500e-03
-3.160000e-10,8.671875e-03
-3.120000e-10,9.812500e-03
-3.080000e-10,9.765625e-03
-3.040000e-10,9.578125e-03
-3.000000e-10,9.093750e-03
-2.960000e-10,9.484375e-03
-2.920000e-10,9.156250e-03
-2.880000e-10,9.109375e-03
-2.840000e-10,9.531250e-03
-2.800000e-10,9.656250e-03
-2.760000e-10,9.421875e-03
-2.720000e-10,9.062500e-03
-2.680000e-10,9.062500e-03
-2.640000e-10,9.437500e-03
-2.600000e-10,8.953125e-03
-2.560000e-10,9.468750e-03
-2.520000e-10,9.609375e-03
-2.480000e-10,9.671875e-03
-2.440000e-10,8.421875e-03
-2.400000e-10,9.000000e-03
-2.360000e-10,8.125000e-03
-2.320000e-10,9.093750e-03
-2.280000e-10,8.796875e-03
-2.240000e-10,8.390625e-03
-2.200000e-10,7.718750e-03
-2.160000e-10,7.890625e-03
-2.120000e-10,7.328125e-03
-2.080000e-10,7.078125e-03
-2.040000e-10,7.234375e-03
-2.000000e-10,7.140625e-03
-1.960000e-10,6.687500e-03
-1.920000e-10,6.125000e-03
-1.880000e-10,5.906250e-03
-1.840000e-10,6.046875e-03
-1.800000e-10,5.406250e-03
-1.760000e-10,5.734375e-03
-1.720000e-10,5.734375e-03
-1.680000e-10,5.671875e-03
-1.640000e-10,4.359375e-03
-1.600000e-10,4.859375e-03
-1.560000e-10,3.906250e-03
-1.520000e-10,4.890625e-03
-1.480000e-10,4.578125e-03
-1.440000e-10,4.250000e-03
-1.400000e-10,3.687500e-03
-1.360000e-10,4.046875e-03
-1.320000e-10,3.671875e-03
-1.280000e-10,3.703125e-03
-1.240000e-10,4.156250e-03
-1.200000e-10,4.468750e-03
-1.160000e-10,4.437500e-03
-1.120000e-10,4.390625e-03
-1.080000e-10,4.703125e-03
-1.040000e-10,5.437500e-03
-1.000000e-10,5.500000e-03
-9.600000e-11,6.625000e-03
-9.200000e-11,7.437500e-03
-8.800000e-11,8.328125e-03
-8.400000e-11,8.031250e-03
-8.000000e-11,9.593750e-03
-7.600000e-11,9.765625e-03
-7.200000e-11,1.198438e-02
-6.800000e-11,1.292188e-02
-6.400000e-11,1.400000e-02
-6.000000e-11,1.485938e-02
-5.600000e-11,1.671875e-02
-5.200000e-11,1.792188e-02
-4.800000e-11,1.959375e-02
-4.400000e-11,2.175000e-02
-4.000000e-11,2.384375e-02
-3.600000e-11,2.559375e-02
-3.200000e-11,2.742188e-02
-2.800000e-11,2.964063e-02
-2.400000e-11,3.226563e-02
-2.000000e-11,3.432813e-02
-1.600000e-11,3.746875e-02
-1.200000e-11,4.029688e-02
-8.000000e-12,4.329688e-02
-4.000000e-12,4.507813e-02
0.000000e+00,4.871875e-02
4.000000e-12,5.095313e-02
8.000000e-12,5.526563e-02
1.200000e-11,5.821875e-02
1.600000e-11,6.135938e-02
2.000000e-11,6.421875e-02
2.400000e-11,6.803125e-02
2.800000e-11,7.117188e-02
3.200000e-11,7.471875e-02
3.600000e-11,7.870313e-02
4.000000e-11,8.260938e-02
4.400000e-11,8.603125e-02
4.800000e-11,8.946875e-02
5.200000e-11,9.321875e-02
5.600000e-11,9.728125e-02
6.000000e-11,1.007031e-01
6.400000e-11,1.050938e-01
6.800000e-11,1.090313e-01
7.200000e-11,1.130938e-01
7.600000e-11,1.157813e-01
8.000000e-11,1.202344e-01
8.400000e-11,1.231250e-01
8.800000e-11,1.279688e-01
9.200000e-11,1.312969e-01
9.600000e-11,1.347344e-01
1.000000e-10,1.377031e-01
1.040000e-10,1.414688e-01
1.080000e-10,1.444688e-01
1.120000e-10,1.477188e-01
1.160000e-10,1.512656e-01
1.200000e-10,1.546250e-01
1.240000e-10,1.572813e-01
1.280000e-10,1.598281e-01
1.320000e-10,1.625625e-01
1.360000e-10,1.654688e-01
1.400000e-10,1.676406e-01
1.440000e-10,1.705781e-01
1.480000e-10,1.729375e-01
1.520000e-10,1.753281e-01
1.560000e-10,1.761719e-01
1.600000e-10,1.787188e-01
1.640000e-10,1.795781e-01
1.680000e-10,1.822188e-01
1.720000e-10,1.832656e-01
1.760000e-10,1.843438e-01
1.800000e-10,1.848281e-01
1.840000e-10,1.860156e-01
1.880000e-10,1.864063e-01
1.920000e-10,1.869375e-01
1.960000e-10,1.876875e-01
2.000000e-10,1.882500e-01
2.040000e-10,1.879844e-01
2.080000e-10,1.875625e-01
2.120000e-10,1.873281e-01
2.160000e-10,1.872500e-01
2.200000e-10,1.863906e-01
2.240000e-10,1.862656e-01
2.280000e-10,1.855313e-01
2.320000e-10,1.848750e-01
2.360000e-10,1.826250e-01
2.400000e-10,1.821563e-01
2.440000e-10,1.800156e-01
2.480000e-10,1.796406e-01
2.520000e-10,1.777031e-01
2.560000e-10,1.758438e-01
2.600000e-10,1.734375e-01
2.640000e-10,1.718125e-01
2.680000e-10,1.694688e-01
2.720000e-10,1.673281e-01
2.760000e-10,1.654219e-01
2.800000e-10,1.634375e-01
2.840000e-10,1.607188e-01
2.880000e-10,1.578906e-01
2.920000e-10,1.553906e-01
2.960000e-10,1.531250e-01
3.000000e-10,1.501406e-01
3.040000e-10,1.480000e-01
3.080000e-10,1.453906e-01
3.120000e-10,1.429219e-01
3.160000e-10,1.389688e-01
3.200000e-10,1.369375e-01
3.240000e-10,1.333750e-01
3.280000e-10,1.316094e-01
3.320000e-10,1.284375e-01
3.360000e-10,1.254531e-01
3.400000e-10,1.220000e-01
3.440000e-10,1.195000e-01
3.480000e-10,1.163750e-01
3.520000e-10,1.135625e-01
3.560000e-10,1.110625e-01
3.600000e-10,1.085625e-01
3.640000e-10,1.055313e-01
3.680000e-10,1.024375e-01
3.720000e-10,9.975000e-02
3.760000e-10,9.745313e-02
3.800000e-10,9.446875e-02
3.840000e-10,9.242188e-02
3.880000e-10,9.003125e-02
3.920000e-10,8.784375e-02
3.960000e-10,8.421875e-02
4.000000e-10,8.265625e-02
4.040000e-10,7.960938e-02
4.080000e-10,7.840625e-02
4.120000e-10,7.590625e-02
4.160000e-10,7.359375e-02
4.200000e-10,7.089063e-02
4.240000e-10,6.920313e-02
4.280000e-10,6.692188e-02
4.320000e-10,6.500000e-02
4.360000e-10,6.340625e-02
4.400000e-10,6.184375e-02
4.440000e-10,5.984375e-02
4.480000e-10,5.776563e-02
4.520000e-10,5.609375e-02
4.560000e-10,5.485938e-02
4.600000e-10,5.292188e-02
4.640000e-10,5.190625e-02
4.680000e-10,5.060938e-02
4.720000e-10,4.946875e-02
4.760000e-10,4.692188e-02
4.800000e-10,4.642188e-02
4.840000e-10,4.443750e-02
4.880000e-10,4.428125e-02
4.920000e-10,4.287500e-02
4.960000e-10,4.154688e-02
5.000000e-10,3.987500e-02
5.040000e-10,3.917188e-02
5.080000e-10,3.782813e-02
5.120000e-10,3.685938e-02
5.160000e-10,3.617188e-02
5.200000e-10,3.550000e-02
5.240000e-10,3.440625e-02
5.280000e-10,3.318750e-02
5.320000e-10,3.234375e-02
5.360000e-10,3.190625e-02
5.400000e-10,3.073438e-02
5.440000e-10,3.045313e-02
5.480000e-10,2.989063e-02
5.520000e-10,2.939063e-02
5.560000e-10,2.754688e-02
5.600000e-10,2.765625e-02
5.640000e-10,2.629688e-02
5.680000e-10,2.675000e-02
5.720000e-10,2.593750e-02
5.760000e-10,2.510938e-02
5.800000e-10,2.396875e-02
5.840000e-10,2.378125e-02
5.880000e-10,2.287500e-02
5.920000e-10,2.232813e-02
5.960000e-10,2.210938e-02
6.000000e-10,2.184375e-02
6.040000e-10,2.118750e-02
6.080000e-10,2.032813e-02
6.120000e-10,1.990625e-02
6.160000e-10,1.979688e-02
6.200000e-10,1.898438e-02
6.240000e-10,1.904688e-02
6.280000e-10,1.884375e-02
6.320000e-10,1.860938e-02
6.360000e-10,1.709375e-02
6.400000e-10,1.746875e-02
6.440000e-10,1.642188e-02
6.480000e-10,1.718750e-02
6.520000e-10,1.665625e-02
6.560000e-10,1.610938e-02
6.600000e-10,1.520313e-02
6.640000e-10,1.532813e-02
6.680000e-10,1.462500e-02
6.720000e-10,1.429688e-02
6.760000e-10,1.434375e-02
6.800000e-10,1.432813e-02
6.840000e-10,1.392188e-02
6.880000e-10,1.328125e-02
6.920000e-10,1.310938e-02
6.960000e-10,1.320313e-02
7.000000e-10,1.260938e-02
7.040000e-10,1.292188e-02
7.080000e-10,1.295313e-02
7.120000e-10,1.289063e-02
7.160000e-10,1.159375e-02
7.200000e-10,1.214063e-02
7.240000e-10,1.129688e-02
7.280000e-10,1.228125e-02
7.320000e-10,1.195313e-02
7.360000e-10,1.159375e-02
7.400000e-10,1.084375e-02
7.440000e-10,1.115625e-02
7.480000e-10,1.059375e-02
7.520000e-10,1.042188e-02
7.560000e-10,1.065625e-02
7.600000e-10,1.076563e-02
7.640000e-10,1.051563e-02
7.680000e-10,1.000000e-02
7.720000e-10,9.953125e-03
7.760000e-10,1.020313e-02
7.800000e-10,9.734375e-03
7.840000e-10,1.018750e-02
7.880000e-10,1.034375e-02
7.920000e-10,1.035938e-02
7.960000e-10,9.187500e-03
8.000000e-10,9.812500e-03
8.040000e-10,9.031250e-03
8.080000e-10,1.015625e-02
8.120000e-10,9.906250e-03
8.160000e-10,9.671875e-03
8.200000e-10,9.000000e-03
8.240000e-10,9.359375e-03
8.280000e-10,8.875000e-03
8.320000e-10,8.796875e-03
8.360000e-10,9.125000e-03
8.400000e-10,9.265625e-03
8.440000e-10,9.093750e-03
8.480000e-10,8.640625e-03
8.520000e-10,8.625000e-03
8.560000e-10,8.984375e-03
8.600000e-10,8.593750e-03
8.640000e-10,9.125000e-03
8.680000e-10,9.343750e-03
8.720000e-10,9.406250e-03
8.760000e-10,8.328125e-03
8.800000e-10,9.000000e-03
8.840000e-10,8.250000e-03
8.880000e-10,9.453125e-03
8.920000e-10,9.296875e-03
8.960000e-10,9.109375e-03
9.000000e-10,8.515625e-03
9.040000e-10,8.906250e-03
9.080000e-10,8.531250e-03
9.120000e-10,8.531250e-03
9.160000e-10,8.968750e-03
9.200000e-10,9.093750e-03
9.240000e-10,9.000000e-03
9.280000e-10,8.625000e-03
9.320000e-10,8.625000e-03
9.360000e-10,9.078125e-03
9.400000e-10,8.765625e-03
9.440000e-10,9.359375e-03
9.480000e-10,9.593750e-03
9.520000e-10,9.734375e-03
9.560000e-10,8.718750e-03
9.600000e-10,9.453125e-03
9.640000e-10,8.718750e-03
9.680000e-10,9.968750e-03
9.720000e-10,9.843750e-03
9.760000e-10,9.687500e-03
9.800000e-10,9.140625e-03
9.840000e-10,9.546875e-03
9.880000e-10,9.203125e-03
9.920000e-10,9.250000e-03
9.960000e-10,9.703125e-03
1.000000e-09,9.796875e-03
1.004000e-09,9.703125e-03
1.008000e-09,9.328125e-03
1.012000e-09,9.296875e-03
1.016000e-09,9.750000e-03
1.020000e-09,9.421875e-03
1.024000e-09,9.984375e-03
1.028000e-09,1.017188e-02
1.032000e-09,1.029688e-02
1.036000e-09,9.250000e-03
1.040000e-09,9.968750e-03
1.044000e-09,9.171875e-03
1.048000e-09,1.035938e-02
1.052000e-09,1.017188e-02
1.056000e-09,9.953125e-03
1.060000e-09,9.343750e-03
1.064000e-09,9.687500e-03
1.068000e-09,9.281250e-03
1.072000e-09,9.265625e-03
1.076000e-09,9.640625e-03
1.080000e-09,9.687500e-03
1.084000e-09,9.500000e-03
1.088000e-09,9.062500e-03
1.092000e-09,8.953125e-03
1.096000e-09,9.328125e-03
1.100000e-09,8.921875e-03
1.104000e-09,9.421875e-03
1.108000e-09,9.546875e-03
1.112000e-09,9.609375e-03
1.116000e-09,8.515625e-03
1.120000e-09,9.203125e-03
1.124000e-09,8.343750e-03
1.128000e-09,9.468750e-03
1.132000e-09,9.218750e-03
1.136000e-09,8.968750e-03
1.140000e-09,8.312500e-03
1.144000e-09,8.656250e-03
1.148000e-09,8.218750e-03
1.152000e-09,8.171875e-03
1.156000e-09,8.546875e-03
1.160000e-09,8.625000e-03
1.164000e-09,8.421875e-03
1.168000e-09,7.984375e-03
1.172000e-09,7.906250e-03
1.176000e-09,8.312500e-03
1.180000e-09,7.906250e-03
1.184000e-09,8.453125e-03
1.188000e-09,8.625000e-03
1.192000e-09,8.765625e-03
1.196000e-09,7.687500e-03
1.200000e-09,8.468750e-03
1.204000e-09,7.671875e-03
1.208000e-09,8.859375e-03
1.212000e-09,8.671875e-03
1.216000e-09,8.484375e-03
1.220000e-09,7.921875e-03
1.224000e-09,8.343750e-03
1.228000e-09,7.984375e-03
1.232000e-09,8.015625e-03
1.236000e-09,8.468750e-03
1.240000e-09,8.671875e-03
1.244000e-09,8.531250e-03
1.248000e-09,8.187500e-03
1.252000e-09,8.203125e-03
1.256000e-09,8.671875e-03
1.260000e-09,8.328125e-03
1.264000e-09,8.968750e-03
1.268000e-09,9.218750e-03
1.272000e-09,9.437500e-03
1.276000e-09,8.375000e-03
1.280000e-09,9.218750e-03
1.284000e-09,8.468750e-03
1.288000e-09,9.703125e-03
1.292000e-09,9.546875e-03
1.296000e-09,9.390625e-03
1.300000e-09,8.828125e-03
1.304000e-09,9.265625e-03
1.308000e-09,8.906250e-03
1.312000e-09,8.937500e-03
1.316000e-09,9.359375e-03
1.320000e-09,9.546875e-03
1.324000e-09,9.375000e-03
1.328000e-09,8.968750e-03
1.332000e-09,8.953125e-03
1.336000e-09,9.359375e-03
1.340000e-09,8.937500e-03
1.344000e-09,9.515625e-03
1.348000e-09,9.687500e-03
1.352000e-09,9.828125e-03
1.356000e-09,8.625000e-03
1.360000e-09,9.390625e-03
1.364000e-09,8.531250e-03
1.368000e-09,9.656250e-03
1.372000e-09,9.390625e-03
1.376000e-09,9.125000e-03
1.380000e-09,8.453125e-03
1.384000e-09,8.765625e-03
1.388000e-09,8.281250e-03
1.392000e-09,8.203125e-03
1.396000e-09,8.515625e-03
1.400000e-09,8.625000e-03
1.404000e-09,8.343750e-03
1.408000e-09,7.843750e-03
1.412000e-09,7.750000e-03
1.416000e-09,8.062500e-03
1.420000e-09,7.578125e-03
1.424000e-09,8.093750e-03
1.428000e-09,8.203125e-03
1.432000e-09,8.328125e-03
1.436000e-09,7.062500e-03
1.440000e-09,7.812500e-03
1.444000e-09,6.937500e-03
1.448000e-09,8.093750e-03
1.452000e-09,7.843750e-03
1.456000e-09,7.593750e-03
1.460000e-09,6.968750e-03
1.464000e-09,7.343750e-03
1.468000e-09,6.937500e-03
1.472000e-09,6.937500e-03
1.476000e-09,7.343750e-03
1.480000e-09,7.562500e-03
1.484000e-09,7.390625e-03
1.488000e-09,7.031250e-03
1.492000e-09,7.062500e-03
1.496000e-09,7.531250e-03
1.500000e-09,7.187500e-03
1.504000e-09,7.859375e-03
1.508000e-09,8.156250e-03
1.512000e-09,8.437500e-03
1.516000e-09,7.343750e-03
1.520000e-09,8.250000e-03
1.524000e-09,7.562500e-03
1.528000e-09,8.875000e-03
1.532000e-09,8.796875e-03
1.536000e-09,8.718750e-03
1.540000e-09,8.234375e-03
1.544000e-09,8.765625e-03
1.548000e-09,8.484375e-03
1.552000e-09,8.609375e-03
1.556000e-09,9.140625e-03
1.560000e-09,9.453125e-03
1.564000e-09,9.375000e-03
1.568000e-09,9.078125e-03
1.572000e-09,9.187500e-03
1.576000e-09,9.671875e-03
1.580000e-09,9.359375e-03
1.584000e-09,1.004688e-02
1.588000e-09,1.031250e-02
1.592000e-09,1.056250e-02
1.596000e-09,9.390625e-03
1.600000e-09,1.023438e-02
1.604000e-09,9.437500e-03
1.608000e-09,1.065625e-02
1.612000e-09,1.043750e-02
1.616000e-09,1.021875e-02
1.620000e-09,9.562500e-03
1.624000e-09,9.906250e-03
1.628000e-09,9.437500e-03
1.632000e-09,9.343750e-03
1.636000e-09,9.656250e-03
1.640000e-09,9.734375e-03
1.644000e-09,9.406250e-03
1.648000e-09,8.875000e-03
1.652000e-09,8.718750e-03
1.656000e-09,8.953125e-03
1.660000e-09,8.390625e-03
1.664000e-09,8.812500e-03
1.668000e-09,8.828125e-03
1.672000e-09,8.828125e-03
1.676000e-09,7.421875e-03
1.680000e-09,8.015625e-03
1.684000e-09,7.015625e-03
1.688000e-09,8.015625e-03
1.692000e-09,7.609375e-03
1.696000e-09,7.203125e-03
1.700000e-09,6.406250e-03
1.704000e-09,6.609375e-03
1.708000e-09,6.015625e-03
1.712000e-09,5.828125e-03
1.716000e-09,6.062500e-03
1.720000e-09,6.093750e-03
1.724000e-09,5.750000e-03
1.728000e-09,5.203125e-03
1.732000e-09,5.078125e-03
1.736000e-09,5.375000e-03
1.740000e-09,4.875000e-03
1.744000e-09,5.406250e-03
1.748000e-09,5.546875e-03
1.752000e-09,5.687500e-03
1.756000e-09,4.453125e-03
1.760000e-09,5.250000e-03
