Measurements-streak-laser/Photodiode-on-Tek-12bit-4GHz/Tek000_ch1_20190613132923466.csv

Model,MSO64
Waveform Type,ANALOG
Horizontal Units,s
Sample Interval,4.000000e-12
Record Length,1000
Zero Index,310.796875
Vertical Units,V

TIME,CH1
-1.243187e-09,1.562500e-04
-1.239187e-09,-3.437500e-04
-1.235187e-09,-4.218750e-04
-1.231187e-09,-6.250000e-05
-1.227188e-09,9.375000e-05
-1.223188e-09,-1.250000e-04
-1.219188e-09,-5.156250e-04
-1.215188e-09,-5.000000e-04
-1.211188e-09,-4.687500e-05
-1.207188e-09,-4.062500e-04
-1.203187e-09,2.812500e-04
-1.199187e-09,5.781250e-04
-1.195187e-09,8.906250e-04
-1.191187e-09,-2.031250e-04
-1.187187e-09,7.500000e-04
-1.183187e-09,9.375000e-05
-1.179187e-09,1.468750e-03
-1.175187e-09,1.437500e-03
-1.171187e-09,1.421875e-03
-1.167188e-09,1.000000e-03
-1.163188e-09,1.609375e-03
-1.159188e-09,1.406250e-03
-1.155188e-09,1.609375e-03
-1.151188e-09,2.234375e-03
-1.147188e-09,2.640625e-03
-1.143187e-09,2.656250e-03
-1.139187e-09,2.468750e-03
-1.135187e-09,2.687500e-03
-1.131187e-09,3.296875e-03
-1.127187e-09,3.109375e-03
-1.123187e-09,3.921875e-03
-1.119187e-09,4.328125e-03
-1.115187e-09,4.734375e-03
-1.111187e-09,3.703125e-03
-1.107188e-09,4.703125e-03
-1.103188e-09,4.062500e-03
-1.099188e-09,5.453125e-03
-1.095188e-09,5.406250e-03
-1.091188e-09,5.359375e-03
-1.087188e-09,4.906250e-03
-1.083187e-09,5.437500e-03
-1.079187e-09,5.156250e-03
-1.075187e-09,5.281250e-03
-1.071187e-09,5.796875e-03
-1.067187e-09,6.093750e-03
-1.063187e-09,5.984375e-03
-1.059187e-09,5.656250e-03
-1.055187e-09,5.718750e-03
-1.051187e-09,6.187500e-03
-1.047188e-09,5.828125e-03
-1.043188e-09,6.484375e-03
-1.039188e-09,6.718750e-03
-1.035188e-09,6.953125e-03
-1.031188e-09,5.765625e-03
-1.027188e-09,6.593750e-03
-1.023187e-09,5.781250e-03
-1.019187e-09,7.000000e-03
-1.015187e-09,6.796875e-03
-1.011187e-09,6.593750e-03
-1.007187e-09,5.984375e-03
-1.003187e-09,6.375000e-03
-9.991875e-10,5.937500e-03
-9.951875e-10,5.937500e-03
-9.911875e-10,6.312500e-03
-9.871875e-10,6.500000e-03
-9.831875e-10,6.281250e-03
-9.791875e-10,5.843750e-03
-9.751875e-10,5.828125e-03
-9.711875e-10,6.203125e-03
-9.671875e-10,5.781250e-03
-9.631875e-10,6.375000e-03
-9.591875e-10,6.546875e-03
-9.551875e-10,6.734375e-03
-9.511875e-10,5.515625e-03
-9.471875e-10,6.312500e-03
-9.431875e-10,5.500000e-03
-9.391875e-10,6.687500e-03
-9.351875e-10,6.484375e-03
-9.311875e-10,6.281250e-03
-9.271875e-10,5.687500e-03
-9.231875e-10,6.109375e-03
-9.191875e-10,5.718750e-03
-9.151875e-10,5.734375e-03
-9.111875e-10,6.171875e-03
-9.071875e-10,6.406250e-03
-9.031875e-10,6.250000e-03
-8.991875e-10,5.875000e-03
-8.951875e-10,5.937500e-03
-8.911875e-10,6.375000e-03
-8.871875e-10,6.031250e-03
-8.831875e-10,6.703125e-03
-8.791875e-10,6.968750e-03
-8.751875e-10,7.234375e-03
-8.711875e-10,6.109375e-03
-8.671875e-10,7.000000e-03
-8.631875e-10,6.265625e-03
-8.591875e-10,7.484375e-03
-8.551875e-10,7.390625e-03
-8.511875e-10,7.265625e-03
-8.471875e-10,6.765625e-03
-8.431875e-10,7.250000e-03
-8.391875e-10,6.937500e-03
-8.351875e-10,7.046875e-03
-8.311875e-10,7.531250e-03
-8.271875e-10,7.828125e-03
-8.231875e-10,7.718750e-03
-8.191875e-10,7.406250e-03
-8.151875e-10,7.468750e-03
-8.111875e-10,7.953125e-03
-8.071875e-10,7.625000e-03
-8.031875e-10,8.296875e-03
-7.991875e-10,8.546875e-03
-7.951875e-10,8.812500e-03
-7.911875e-10,7.687500e-03
-7.871875e-10,8.531250e-03
-7.831875e-10,7.765625e-03
-7.791875e-10,8.843750e-03
-7.751875e-10,8.718750e-03
-7.711875e-10,8.515625e-03
-7.671875e-10,7.953125e-03
-7.631875e-10,8.312500e-03
-7.591875e-10,7.859375e-03
-7.551875e-10,7.875000e-03
-7.511875e-10,8.203125e-03
-7.471875e-10,8.312500e-03
-7.431875e-10,8.109375e-03
-7.391875e-10,7.578125e-03
-7.351875e-10,7.453125e-03
-7.311875e-10,7.718750e-03
-7.271875e-10,7.187500e-03
-7.231875e-10,7.625000e-03
-7.191875e-10,7.671875e-03
-7.151875e-10,7.671875e-03
-7.111875e-10,6.312500e-03
-7.071875e-10,6.921875e-03
-7.031875e-10,5.937500e-03
-6.991875e-10,6.718750e-03
-6.951875e-10,6.359375e-03
-6.911875e-10,5.937500e-03
-6.871875e-10,5.140625e-03
-6.831875e-10,5.234375e-03
-6.791875e-10,4.515625e-03
-6.751875e-10,4.328125e-03
-6.711875e-10,4.421875e-03
-6.671875e-10,4.296875e-03
-6.631875e-10,3.968750e-03
-6.591875e-10,3.250000e-03
-6.551875e-10,2.937500e-03
-6.511875e-10,3.031250e-03
-6.471875e-10,2.390625e-03
-6.431875e-10,2.703125e-03
-6.391875e-10,2.656250e-03
-6.351875e-10,2.562500e-03
-6.311875e-10,1.125000e-03
-6.271875e-10,1.718750e-03
-6.231875e-10,7.812500e-04
-6.191875e-10,1.578125e-03
-6.151875e-10,1.281250e-03
-6.111875e-10,9.375000e-04
-6.071875e-10,2.656250e-04
-6.031875e-10,4.531250e-04
-5.991875e-10,-1.250000e-04
-5.951875e-10,-1.250000e-04
-5.911875e-10,1.875000e-04
-5.871875e-10,2.500000e-04
-5.831875e-10,2.187500e-04
-5.791875e-10,-2.187500e-04
-5.751875e-10,-2.343750e-04
-5.711875e-10,1.718750e-04
-5.671875e-10,-1.093750e-04
-5.631875e-10,5.625000e-04
-5.591875e-10,8.593750e-04
-5.551875e-10,1.140625e-03
-5.511875e-10,6.250000e-05
-5.471875e-10,1.031250e-03
-5.431875e-10,5.625000e-04
-5.391875e-10,1.750000e-03
-5.351875e-10,1.906250e-03
-5.311875e-10,1.953125e-03
-5.271875e-10,1.656250e-03
-5.231875e-10,2.234375e-03
-5.191875e-10,2.046875e-03
-5.151875e-10,2.390625e-03
-5.111875e-10,3.078125e-03
-5.071875e-10,3.453125e-03
-5.031875e-10,3.703125e-03
-4.991875e-10,3.562500e-03
-4.951875e-10,3.843750e-03
-4.911875e-10,4.531250e-03
-4.871875e-10,4.421875e-03
-4.831875e-10,5.312500e-03
-4.791875e-10,5.734375e-03
-4.751875e-10,6.140625e-03
-4.711875e-10,5.156250e-03
-4.671875e-10,6.125000e-03
-4.631875e-10,5.687500e-03
-4.591875e-10,6.875000e-03
-4.551875e-10,7.015625e-03
-4.511875e-10,6.937500e-03
-4.471875e-10,6.515625e-03
-4.431875e-10,6.953125e-03
-4.391875e-10,6.656250e-03
-4.351875e-10,6.718750e-03
-4.311875e-10,7.203125e-03
-4.271875e-10,7.328125e-03
-4.231875e-10,7.203125e-03
-4.191875e-10,6.781250e-03
-4.151875e-10,6.796875e-03
-4.111875e-10,7.171875e-03
-4.071875e-10,6.671875e-03
-4.031875e-10,7.234375e-03
-3.991875e-10,7.296875e-03
-3.951875e-10,7.343750e-03
-3.911875e-10,6.015625e-03
-3.871875e-10,6.562500e-03
-3.831875e-10,5.781250e-03
-3.791875e-10,6.656250e-03
-3.751875e-10,6.468750e-03
-3.711875e-10,6.046875e-03
-3.671875e-10,5.359375e-03
-3.631875e-10,5.546875e-03
-3.591875e-10,5.062500e-03
-3.551875e-10,4.859375e-03
-3.511875e-10,5.156250e-03
-3.471875e-10,5.140625e-03
-3.431875e-10,4.843750e-03
-3.391875e-10,4.375000e-03
-3.351875e-10,4.375000e-03
-3.311875e-10,4.750000e-03
-3.271875e-10,4.265625e-03
-3.231875e-10,4.859375e-03
-3.191875e-10,5.078125e-03
-3.151875e-10,5.250000e-03
-3.111875e-10,4.140625e-03
-3.071875e-10,4.859375e-03
-3.031875e-10,4.296875e-03
-2.991875e-10,5.453125e-03
-2.951875e-10,5.531250e-03
-2.911875e-10,5.437500e-03
-2.871875e-10,5.140625e-03
-2.831875e-10,5.703125e-03
-2.791875e-10,5.609375e-03
-2.751875e-10,5.765625e-03
-2.711875e-10,6.437500e-03
-2.671875e-10,6.812500e-03
-2.631875e-10,6.875000e-03
-2.591875e-10,6.843750e-03
-2.551875e-10,7.203125e-03
-2.511875e-10,7.937500e-03
-2.471875e-10,7.812500e-03
-2.431875e-10,8.671875e-03
-2.391875e-10,9.218750e-03
-2.351875e-10,9.656250e-03
-2.311875e-10,8.828125e-03
-2.271875e-10,9.734375e-03
-2.231875e-10,9.281250e-03
-2.191875e-10,1.057813e-02
-2.151875e-10,1.067188e-02
-2.111875e-10,1.062500e-02
-2.071875e-10,1.032813e-02
-2.031875e-10,1.082813e-02
-1.991875e-10,1.057813e-02
-1.951875e-10,1.059375e-02
-1.911875e-10,1.101563e-02
-1.871875e-10,1.114063e-02
-1.831875e-10,1.087500e-02
-1.791875e-10,1.053125e-02
-1.751875e-10,1.046875e-02
-1.711875e-10,1.071875e-02
-1.671875e-10,1.017188e-02
-1.631875e-10,1.054688e-02
-1.591875e-10,1.056250e-02
-1.551875e-10,1.050000e-02
-1.511875e-10,9.171875e-03
-1.471875e-10,9.562500e-03
-1.431875e-10,8.515625e-03
-1.391875e-10,9.359375e-03
-1.351875e-10,8.890625e-03
-1.311875e-10,8.406250e-03
-1.271875e-10,7.687500e-03
-1.231875e-10,7.812500e-03
-1.191875e-10,7.218750e-03
-1.151875e-10,7.000000e-03
-1.111875e-10,7.187500e-03
-1.071875e-10,7.218750e-03
-1.031875e-10,6.906250e-03
-9.918750e-11,6.656250e-03
-9.518750e-11,6.718750e-03
-9.118750e-11,7.171875e-03
-8.718750e-11,7.015625e-03
-8.318750e-11,7.921875e-03
-7.918750e-11,8.546875e-03
-7.518750e-11,9.296875e-03
-7.118750e-11,8.921875e-03
-6.718750e-11,1.037500e-02
-6.318750e-11,1.048438e-02
-5.918750e-11,1.271875e-02
-5.518750e-11,1.368750e-02
-5.118750e-11,1.487500e-02
-4.718750e-11,1.596875e-02
-4.318750e-11,1.804688e-02
-3.918750e-11,1.954688e-02
-3.518750e-11,2.157813e-02
-3.118750e-11,2.415625e-02
-2.718750e-11,2.675000e-02
-2.318750e-11,2.907813e-02
-1.918750e-11,3.159375e-02
-1.518750e-11,3.454688e-02
-1.118750e-11,3.793750e-02
-7.187500e-12,4.089063e-02
-3.187500e-12,4.498438e-02
8.125000e-13,4.884375e-02
4.812500e-12,5.298438e-02
8.812500e-12,5.601563e-02
1.281250e-11,6.089063e-02
1.681250e-11,6.445313e-02
2.081250e-11,7.015625e-02
2.481250e-11,7.456250e-02
2.881250e-11,7.925000e-02
3.281250e-11,8.373438e-02
3.681250e-11,8.918750e-02
4.081250e-11,9.403125e-02
4.481250e-11,9.931250e-02
4.881250e-11,1.050625e-01
5.281250e-11,1.107969e-01
5.681250e-11,1.160313e-01
6.081250e-11,1.213594e-01
6.481250e-11,1.269844e-01
6.881250e-11,1.328906e-01
7.281250e-11,1.382344e-01
7.681250e-11,1.445000e-01
8.081250e-11,1.503281e-01
8.481250e-11,1.563125e-01
8.881250e-11,1.608906e-01
9.281250e-11,1.671563e-01
9.681250e-11,1.718594e-01
1.008125e-10,1.784688e-01
1.048125e-10,1.834844e-01
1.088125e-10,1.886563e-01
1.128125e-10,1.932813e-01
1.168125e-10,1.986094e-01
1.208125e-10,2.031406e-01
1.248125e-10,2.078438e-01
1.288125e-10,2.127656e-01
1.328125e-10,2.175000e-01
1.368125e-10,2.213594e-01
1.408125e-10,2.250938e-01
1.448125e-10,2.289219e-01
1.488125e-10,2.327969e-01
1.528125e-10,2.359219e-01
1.568125e-10,2.397031e-01
1.608125e-10,2.427969e-01
1.648125e-10,2.458906e-01
1.688125e-10,2.473750e-01
1.728125e-10,2.504063e-01
1.768125e-10,2.516875e-01
1.808125e-10,2.546563e-01
1.848125e-10,2.559063e-01
1.888125e-10,2.572031e-01
1.928125e-10,2.577969e-01
1.968125e-10,2.589688e-01
2.008125e-10,2.593281e-01
2.048125e-10,2.597344e-01
2.088125e-10,2.602656e-01
2.128125e-10,2.605938e-01
2.168125e-10,2.599531e-01
2.208125e-10,2.591563e-01
2.248125e-10,2.584688e-01
2.288125e-10,2.578438e-01
2.328125e-10,2.564531e-01
2.368125e-10,2.556875e-01
2.408125e-10,2.542500e-01
2.448125e-10,2.529219e-01
2.488125e-10,2.499531e-01
2.528125e-10,2.486719e-01
2.568125e-10,2.457344e-01
2.608125e-10,2.444531e-01
2.648125e-10,2.415938e-01
2.688125e-10,2.388438e-01
2.728125e-10,2.355000e-01
2.768125e-10,2.328906e-01
2.808125e-10,2.295938e-01
2.848125e-10,2.264375e-01
2.888125e-10,2.234844e-01
2.928125e-10,2.205000e-01
2.968125e-10,2.166875e-01
3.008125e-10,2.127969e-01
3.048125e-10,2.092188e-01
3.088125e-10,2.058281e-01
3.128125e-10,2.017656e-01
3.168125e-10,1.985000e-01
3.208125e-10,1.947188e-01
3.248125e-10,1.911875e-01
3.288125e-10,1.861094e-01
3.328125e-10,1.829531e-01
3.368125e-10,1.782813e-01
3.408125e-10,1.753281e-01
3.448125e-10,1.710000e-01
3.488125e-10,1.668750e-01
3.528125e-10,1.622969e-01
3.568125e-10,1.586406e-01
3.608125e-10,1.544375e-01
3.648125e-10,1.504844e-01
3.688125e-10,1.468281e-01
3.728125e-10,1.432500e-01
3.768125e-10,1.390625e-01
3.808125e-10,1.348750e-01
3.848125e-10,1.310938e-01
3.888125e-10,1.276719e-01
3.928125e-10,1.236250e-01
3.968125e-10,1.204688e-01
4.008125e-10,1.170000e-01
4.048125e-10,1.138125e-01
4.088125e-10,1.091719e-01
4.128125e-10,1.066094e-01
4.168125e-10,1.026094e-01
4.208125e-10,1.003906e-01
4.248125e-10,9.693750e-02
4.288125e-10,9.373438e-02
4.328125e-10,9.015625e-02
4.368125e-10,8.759375e-02
4.408125e-10,8.454688e-02
4.448125e-10,8.182813e-02
4.488125e-10,7.943750e-02
4.528125e-10,7.717188e-02
4.568125e-10,7.446875e-02
4.608125e-10,7.175000e-02
4.648125e-10,6.946875e-02
4.688125e-10,6.764063e-02
4.728125e-10,6.517188e-02
4.768125e-10,6.360938e-02
4.808125e-10,6.184375e-02
4.848125e-10,6.028125e-02
4.888125e-10,5.737500e-02
4.928125e-10,5.653125e-02
4.968125e-10,5.428125e-02
5.008125e-10,5.379688e-02
5.048125e-10,5.214063e-02
5.088125e-10,5.062500e-02
5.128125e-10,4.879688e-02
5.168125e-10,4.793750e-02
5.208125e-10,4.651563e-02
5.248125e-10,4.545313e-02
5.288125e-10,4.467188e-02
5.328125e-10,4.396875e-02
5.368125e-10,4.285938e-02
5.408125e-10,4.165625e-02
5.448125e-10,4.084375e-02
5.488125e-10,4.040625e-02
5.528125e-10,3.928125e-02
5.568125e-10,3.900000e-02
5.608125e-10,3.846875e-02
5.648125e-10,3.801563e-02
5.688125e-10,3.621875e-02
5.728125e-10,3.635938e-02
5.768125e-10,3.506250e-02
5.808125e-10,3.548438e-02
5.848125e-10,3.467188e-02
5.888125e-10,3.381250e-02
5.928125e-10,3.265625e-02
5.968125e-10,3.240625e-02
6.008125e-10,3.143750e-02
6.048125e-10,3.078125e-02
6.088125e-10,3.039063e-02
6.128125e-10,2.998438e-02
6.168125e-10,2.915625e-02
6.208125e-10,2.810938e-02
6.248125e-10,2.746875e-02
6.288125e-10,2.707813e-02
6.328125e-10,2.598438e-02
6.368125e-10,2.570313e-02
6.408125e-10,2.515625e-02
6.448125e-10,2.456250e-02
6.488125e-10,2.268750e-02
6.528125e-10,2.264063e-02
6.568125e-10,2.121875e-02
6.608125e-10,2.150000e-02
6.648125e-10,2.054688e-02
6.688125e-10,1.950000e-02
6.728125e-10,1.814063e-02
6.768125e-10,1.779688e-02
6.808125e-10,1.660938e-02
6.848125e-10,1.579688e-02
6.888125e-10,1.532813e-02
6.928125e-10,1.485938e-02
6.968125e-10,1.401563e-02
7.008125e-10,1.292188e-02
7.048125e-10,1.234375e-02
7.088125e-10,1.200000e-02
7.128125e-10,1.103125e-02
7.168125e-10,1.092188e-02
7.208125e-10,1.064063e-02
7.248125e-10,1.021875e-02
7.288125e-10,8.687500e-03
7.328125e-10,8.953125e-03
7.368125e-10,7.937500e-03
7.408125e-10,8.718750e-03
7.448125e-10,8.250000e-03
7.488125e-10,7.796875e-03
7.528125e-10,6.968750e-03
7.568125e-10,7.250000e-03
7.608125e-10,6.703125e-03
7.648125e-10,6.546875e-03
7.688125e-10,6.843750e-03
7.728125e-10,7.078125e-03
7.768125e-10,7.000000e-03
7.808125e-10,6.656250e-03
7.848125e-10,6.843750e-03
7.888125e-10,7.296875e-03
7.928125e-10,7.125000e-03
7.968125e-10,7.843750e-03
8.008125e-10,8.328125e-03
8.048125e-10,8.625000e-03
8.088125e-10,7.843750e-03
8.128125e-10,8.765625e-03
8.168125e-10,8.390625e-03
8.208125e-10,9.859375e-03
8.248125e-10,1.000000e-02
8.288125e-10,1.012500e-02
8.328125e-10,9.796875e-03
8.368125e-10,1.051563e-02
8.408125e-10,1.035938e-02
8.448125e-10,1.057813e-02
8.488125e-10,1.121875e-02
8.528125e-10,1.160938e-02
8.568125e-10,1.173438e-02
8.608125e-10,1.150000e-02
8.648125e-10,1.167188e-02
8.688125e-10,1.218750e-02
8.728125e-10,1.196875e-02
8.768125e-10,1.259375e-02
8.808125e-10,1.287500e-02
8.848125e-10,1.292188e-02
8.888125e-10,1.189063e-02
8.928125e-10,1.246875e-02
8.968125e-10,1.167188e-02
9.008125e-10,1.276563e-02
9.048125e-10,1.246875e-02
9.088125e-10,1.212500e-02
9.128125e-10,1.131250e-02
9.168125e-10,1.145313e-02
9.208125e-10,1.079688e-02
9.248125e-10,1.051563e-02
9.288125e-10,1.062500e-02
9.328125e-10,1.035938e-02
9.368125e-10,9.953125e-03
9.408125e-10,9.187500e-03
9.448125e-10,8.796875e-03
9.488125e-10,8.859375e-03
9.528125e-10,8.171875e-03
9.568125e-10,8.343750e-03
9.608125e-10,8.171875e-03
9.648125e-10,7.875000e-03
9.688125e-10,6.531250e-03
9.728125e-10,6.843750e-03
9.768125e-10,5.750000e-03
9.808125e-10,6.656250e-03
9.848125e-10,6.218750e-03
9.888125e-10,5.750000e-03
9.928125e-10,4.921875e-03
9.968125e-10,5.078125e-03
1.000812e-09,4.500000e-03
1.004812e-09,4.359375e-03
1.008812e-09,4.671875e-03
1.012812e-09,4.593750e-03
1.016812e-09,4.437500e-03
1.020812e-09,4.015625e-03
1.024813e-09,3.937500e-03
1.028813e-09,4.437500e-03
1.032813e-09,4.171875e-03
1.036813e-09,4.796875e-03
1.040813e-09,5.109375e-03
1.044813e-09,5.359375e-03
1.048812e-09,4.578125e-03
1.052812e-09,5.484375e-03
1.056812e-09,4.937500e-03
1.060812e-09,6.390625e-03
1.064812e-09,6.515625e-03
1.068812e-09,6.625000e-03
1.072812e-09,6.359375e-03
1.076812e-09,7.062500e-03
1.080812e-09,7.031250e-03
1.084813e-09,7.406250e-03
1.088813e-09,8.187500e-03
1.092813e-09,8.593750e-03
1.096813e-09,8.812500e-03
1.100813e-09,8.781250e-03
1.104813e-09,9.046875e-03
1.108812e-09,9.828125e-03
1.112812e-09,9.812500e-03
1.116812e-09,1.064063e-02
1.120812e-09,1.110938e-02
1.124812e-09,1.148438e-02
1.128812e-09,1.075000e-02
1.132812e-09,1.170313e-02
1.136812e-09,1.110938e-02
1.140812e-09,1.245313e-02
1.144813e-09,1.240625e-02
1.148813e-09,1.232813e-02
1.152813e-09,1.182813e-02
1.156813e-09,1.226563e-02
1.160813e-09,1.190625e-02
1.164813e-09,1.192188e-02
1.168812e-09,1.231250e-02
1.172812e-09,1.234375e-02
1.176812e-09,1.209375e-02
1.180812e-09,1.159375e-02
1.184812e-09,1.137500e-02
1.188812e-09,1.164063e-02
1.192812e-09,1.107813e-02
1.196812e-09,1.140625e-02
1.200812e-09,1.135938e-02
1.204813e-09,1.123438e-02
1.208813e-09,9.921875e-03
1.212813e-09,1.040625e-02
1.216813e-09,9.312500e-03
1.220813e-09,1.017188e-02
1.224813e-09,9.656250e-03
1.228812e-09,9.140625e-03
1.232812e-09,8.218750e-03
1.236812e-09,8.281250e-03
1.240812e-09,7.562500e-03
1.244812e-09,7.265625e-03
1.248812e-09,7.359375e-03
1.252812e-09,7.187500e-03
1.256812e-09,6.718750e-03
1.260812e-09,6.031250e-03
1.264813e-09,5.718750e-03
1.268813e-09,5.890625e-03
1.272813e-09,5.250000e-03
1.276813e-09,5.593750e-03
1.280813e-09,5.593750e-03
1.284813e-09,5.562500e-03
1.288812e-09,4.296875e-03
1.292812e-09,4.937500e-03
1.296812e-09,4.015625e-03
1.300812e-09,5.093750e-03
1.304812e-09,4.812500e-03
1.308812e-09,4.531250e-03
1.312812e-09,3.906250e-03
1.316812e-09,4.265625e-03
1.320812e-09,3.875000e-03
1.324813e-09,3.890625e-03
1.328813e-09,4.328125e-03
1.332813e-09,4.546875e-03
1.336813e-09,4.421875e-03
1.340813e-09,4.109375e-03
1.344813e-09,4.187500e-03
1.348812e-09,4.703125e-03
1.352812e-09,4.421875e-03
1.356812e-09,5.140625e-03
1.360812e-09,5.468750e-03
1.364812e-09,5.812500e-03
1.368812e-09,4.812500e-03
1.372812e-09,5.765625e-03
1.376812e-09,5.125000e-03
1.380812e-09,6.484375e-03
1.384813e-09,6.453125e-03
1.388813e-09,6.421875e-03
1.392813e-09,5.984375e-03
1.396813e-09,6.562500e-03
1.400813e-09,6.328125e-03
1.404813e-09,6.500000e-03
1.408812e-09,7.062500e-03
1.412812e-09,7.406250e-03
1.416812e-09,7.375000e-03
1.420812e-09,7.125000e-03
1.424812e-09,7.265625e-03
1.428812e-09,7.812500e-03
1.432812e-09,7.562500e-03
1.436812e-09,8.281250e-03
1.440812e-09,8.625000e-03
1.444813e-09,8.937500e-03
1.448813e-09,7.890625e-03
1.452813e-09,8.812500e-03
1.456813e-09,8.125000e-03
1.460813e-09,9.437500e-03
1.464813e-09,9.343750e-03
1.468812e-09,9.265625e-03
1.472812e-09,8.765625e-03
1.476812e-09,9.265625e-03
1.480812e-09,8.968750e-03
1.484812e-09,9.078125e-03
1.488812e-09,9.578125e-03
1.492812e-09,9.875000e-03
1.496812e-09,9.781250e-03
1.500812e-09,9.468750e-03
1.504813e-09,9.562500e-03
1.508813e-09,1.006250e-02
1.512813e-09,9.765625e-03
1.516813e-09,1.046875e-02
1.520813e-09,1.076563e-02
1.524813e-09,1.106250e-02
1.528812e-09,9.968750e-03
1.532812e-09,1.085938e-02
1.536812e-09,1.014063e-02
1.540812e-09,1.143750e-02
1.544812e-09,1.132813e-02
1.548812e-09,1.120313e-02
1.552812e-09,1.068750e-02
1.556812e-09,1.115625e-02
1.560812e-09,1.081250e-02
1.564813e-09,1.087500e-02
1.568813e-09,1.132813e-02
1.572813e-09,1.157813e-02
1.576813e-09,1.140625e-02
1.580813e-09,1.103125e-02
1.584813e-09,1.104688e-02
1.588812e-09,1.145313e-02
1.592812e-09,1.104688e-02
1.596812e-09,1.162500e-02
1.600812e-09,1.179688e-02
1.604812e-09,1.195313e-02
1.608812e-09,1.068750e-02
1.612812e-09,1.142188e-02
1.616812e-09,1.053125e-02
1.620812e-09,1.162500e-02
1.624813e-09,1.131250e-02
1.628813e-09,1.098438e-02
1.632813e-09,1.023438e-02
1.636813e-09,1.046875e-02
1.640813e-09,9.906250e-03
1.644813e-09,9.718750e-03
1.648812e-09,9.921875e-03
1.652812e-09,9.921875e-03
1.656812e-09,9.515625e-03
1.660812e-09,8.875000e-03
1.664812e-09,8.640625e-03
1.668812e-09,8.796875e-03
1.672812e-09,8.156250e-03
1.676812e-09,8.500000e-03
1.680812e-09,8.453125e-03
1.684813e-09,8.406250e-03
1.688813e-09,6.937500e-03
1.692813e-09,7.484375e-03
1.696813e-09,6.421875e-03
1.700813e-09,7.390625e-03
1.704813e-09,6.937500e-03
1.708812e-09,6.500000e-03
1.712812e-09,5.671875e-03
1.716812e-09,5.859375e-03
1.720812e-09,5.250000e-03
1.724812e-09,5.046875e-03
1.728812e-09,5.281250e-03
1.732812e-09,5.312500e-03
1.736812e-09,4.968750e-03
1.740812e-09,4.421875e-03
1.744812e-09,4.312500e-03
1.748813e-09,4.625000e-03
1.752813e-09,4.140625e-03
1.756813e-09,4.671875e-03
