Measurements-streak-laser/Photodiode-on-Tek-12bit-4GHz/Tek000_ch1_20190613132959669.csv

Model,MSO64
Waveform Type,ANALOG
Horizontal Units,s
Sample Interval,4.000000e-12
Record Length,1000
Zero Index,310.812500
Vertical Units,V

TIME,CH1
-1.243250e-09,7.750000e-03
-1.239250e-09,7.359375e-03
-1.235250e-09,6.968750e-03
-1.231250e-09,6.187500e-03
-1.227250e-09,6.406250e-03
-1.223250e-09,5.828125e-03
-1.219250e-09,5.656250e-03
-1.215250e-09,5.906250e-03
-1.211250e-09,5.968750e-03
-1.207250e-09,5.625000e-03
-1.203250e-09,5.093750e-03
-1.199250e-09,4.968750e-03
-1.195250e-09,5.265625e-03
-1.191250e-09,4.765625e-03
-1.187250e-09,5.296875e-03
-1.183250e-09,5.421875e-03
-1.179250e-09,5.562500e-03
-1.175250e-09,4.296875e-03
-1.171250e-09,5.062500e-03
-1.167250e-09,4.218750e-03
-1.163250e-09,5.421875e-03
-1.159250e-09,5.203125e-03
-1.155250e-09,5.000000e-03
-1.151250e-09,4.406250e-03
-1.147250e-09,4.812500e-03
-1.143250e-09,4.437500e-03
-1.139250e-09,4.468750e-03
-1.135250e-09,4.906250e-03
-1.131250e-09,5.140625e-03
-1.127250e-09,4.984375e-03
-1.123250e-09,4.625000e-03
-1.119250e-09,4.671875e-03
-1.115250e-09,5.125000e-03
-1.111250e-09,4.765625e-03
-1.107250e-09,5.421875e-03
-1.103250e-09,5.656250e-03
-1.099250e-09,5.906250e-03
-1.095250e-09,4.734375e-03
-1.091250e-09,5.578125e-03
-1.087250e-09,4.796875e-03
-1.083250e-09,6.046875e-03
-1.079250e-09,5.875000e-03
-1.075250e-09,5.687500e-03
-1.071250e-09,5.093750e-03
-1.067250e-09,5.500000e-03
-1.063250e-09,5.109375e-03
-1.059250e-09,5.093750e-03
-1.055250e-09,5.500000e-03
-1.051250e-09,5.687500e-03
-1.047250e-09,5.468750e-03
-1.043250e-09,5.031250e-03
-1.039250e-09,5.000000e-03
-1.035250e-09,5.375000e-03
-1.031250e-09,4.937500e-03
-1.027250e-09,5.500000e-03
-1.023250e-09,5.656250e-03
-1.019250e-09,5.812500e-03
-1.015250e-09,4.562500e-03
-1.011250e-09,5.328125e-03
-1.007250e-09,4.468750e-03
-1.003250e-09,5.625000e-03
-9.992500e-10,5.375000e-03
-9.952500e-10,5.140625e-03
-9.912500e-10,4.484375e-03
-9.872500e-10,4.859375e-03
-9.832500e-10,4.421875e-03
-9.792500e-10,4.390625e-03
-9.752500e-10,4.781250e-03
-9.712500e-10,4.968750e-03
-9.672500e-10,4.750000e-03
-9.632500e-10,4.343750e-03
-9.592500e-10,4.343750e-03
-9.552500e-10,4.750000e-03
-9.512500e-10,4.359375e-03
-9.472500e-10,4.984375e-03
-9.432500e-10,5.218750e-03
-9.392500e-10,5.468750e-03
-9.352500e-10,4.296875e-03
-9.312500e-10,5.156250e-03
-9.272500e-10,4.406250e-03
-9.232500e-10,5.640625e-03
-9.192500e-10,5.515625e-03
-9.152500e-10,5.390625e-03
-9.112500e-10,4.875000e-03
-9.072500e-10,5.359375e-03
-9.032500e-10,5.031250e-03
-8.992500e-10,5.140625e-03
-8.952500e-10,5.640625e-03
-8.912500e-10,5.937500e-03
-8.872500e-10,5.843750e-03
-8.832500e-10,5.531250e-03
-8.792500e-10,5.625000e-03
-8.752500e-10,6.140625e-03
-8.712500e-10,5.828125e-03
-8.672500e-10,6.531250e-03
-8.632500e-10,6.828125e-03
-8.592500e-10,7.125000e-03
-8.552500e-10,6.031250e-03
-8.512500e-10,6.906250e-03
-8.472500e-10,6.187500e-03
-8.432500e-10,7.359375e-03
-8.392500e-10,7.250000e-03
-8.352500e-10,7.093750e-03
-8.312500e-10,6.578125e-03
-8.272500e-10,7.031250e-03
-8.232500e-10,6.656250e-03
-8.192500e-10,6.718750e-03
-8.152500e-10,7.140625e-03
-8.112500e-10,7.359375e-03
-8.072500e-10,7.203125e-03
-8.032500e-10,6.796875e-03
-7.992500e-10,6.781250e-03
-7.952500e-10,7.171875e-03
-7.912500e-10,6.734375e-03
-7.872500e-10,7.312500e-03
-7.832500e-10,7.484375e-03
-7.792500e-10,7.640625e-03
-7.752500e-10,6.453125e-03
-7.712500e-10,7.218750e-03
-7.672500e-10,6.359375e-03
-7.632500e-10,7.328125e-03
-7.592500e-10,7.125000e-03
-7.552500e-10,6.875000e-03
-7.512500e-10,6.265625e-03
-7.472500e-10,6.578125e-03
-7.432500e-10,6.062500e-03
-7.392500e-10,6.062500e-03
-7.352500e-10,6.375000e-03
-7.312500e-10,6.468750e-03
-7.272500e-10,6.312500e-03
-7.232500e-10,5.796875e-03
-7.192500e-10,5.703125e-03
-7.152500e-10,6.000000e-03
-7.112500e-10,5.531250e-03
-7.072500e-10,6.031250e-03
-7.032500e-10,6.171875e-03
-6.992500e-10,6.281250e-03
-6.952500e-10,5.046875e-03
-6.912500e-10,5.796875e-03
-6.872500e-10,4.984375e-03
-6.832500e-10,5.875000e-03
-6.792500e-10,5.703125e-03
-6.752500e-10,5.484375e-03
-6.712500e-10,4.906250e-03
-6.672500e-10,5.187500e-03
-6.632500e-10,4.656250e-03
-6.592500e-10,4.734375e-03
-6.552500e-10,5.046875e-03
-6.512500e-10,5.125000e-03
-6.472500e-10,5.109375e-03
-6.432500e-10,4.609375e-03
-6.392500e-10,4.531250e-03
-6.352500e-10,4.859375e-03
-6.312500e-10,4.484375e-03
-6.272500e-10,5.015625e-03
-6.232500e-10,5.203125e-03
-6.192500e-10,5.328125e-03
-6.152500e-10,4.093750e-03
-6.112500e-10,4.906250e-03
-6.072500e-10,4.218750e-03
-6.032500e-10,5.140625e-03
-5.992500e-10,5.046875e-03
-5.952500e-10,4.890625e-03
-5.912500e-10,4.375000e-03
-5.872500e-10,4.671875e-03
-5.832500e-10,4.187500e-03
-5.792500e-10,4.312500e-03
-5.752500e-10,4.718750e-03
-5.712500e-10,4.812500e-03
-5.672500e-10,4.890625e-03
-5.632500e-10,4.453125e-03
-5.592500e-10,4.453125e-03
-5.552500e-10,4.843750e-03
-5.512500e-10,4.562500e-03
-5.472500e-10,5.187500e-03
-5.432500e-10,5.421875e-03
-5.392500e-10,5.609375e-03
-5.352500e-10,4.421875e-03
-5.312500e-10,5.281250e-03
-5.272500e-10,4.718750e-03
-5.232500e-10,5.703125e-03
-5.192500e-10,5.750000e-03
-5.152500e-10,5.625000e-03
-5.112500e-10,5.156250e-03
-5.072500e-10,5.531250e-03
-5.032500e-10,5.140625e-03
-4.992500e-10,5.281250e-03
-4.952500e-10,5.781250e-03
-4.912500e-10,5.906250e-03
-4.872500e-10,5.953125e-03
-4.832500e-10,5.578125e-03
-4.792500e-10,5.640625e-03
-4.752500e-10,6.093750e-03
-4.712500e-10,5.765625e-03
-4.672500e-10,6.437500e-03
-4.632500e-10,6.625000e-03
-4.592500e-10,6.781250e-03
-4.552500e-10,5.578125e-03
-4.512500e-10,6.312500e-03
-4.472500e-10,5.718750e-03
-4.432500e-10,6.640625e-03
-4.392500e-10,6.640625e-03
-4.352500e-10,6.359375e-03
-4.312500e-10,5.765625e-03
-4.272500e-10,6.015625e-03
-4.232500e-10,5.562500e-03
-4.192500e-10,5.468750e-03
-4.152500e-10,5.812500e-03
-4.112500e-10,5.765625e-03
-4.072500e-10,5.531250e-03
-4.032500e-10,4.984375e-03
-3.992500e-10,4.906250e-03
-3.952500e-10,5.187500e-03
-3.912500e-10,4.578125e-03
-3.872500e-10,5.046875e-03
-3.832500e-10,5.031250e-03
-3.792500e-10,4.984375e-03
-3.752500e-10,3.609375e-03
-3.712500e-10,4.062500e-03
-3.672500e-10,3.250000e-03
-3.632500e-10,4.031250e-03
-3.592500e-10,3.843750e-03
-3.552500e-10,3.359375e-03
-3.512500e-10,2.640625e-03
-3.472500e-10,2.796875e-03
-3.432500e-10,2.296875e-03
-3.392500e-10,2.031250e-03
-3.352500e-10,2.328125e-03
-3.312500e-10,2.250000e-03
-3.272500e-10,1.921875e-03
-3.232500e-10,1.453125e-03
-3.192500e-10,1.437500e-03
-3.152500e-10,1.828125e-03
-3.112500e-10,1.296875e-03
-3.072500e-10,1.859375e-03
-3.032500e-10,2.078125e-03
-2.992500e-10,2.203125e-03
-2.952500e-10,1.109375e-03
-2.912500e-10,1.765625e-03
-2.872500e-10,1.218750e-03
-2.832500e-10,2.312500e-03
-2.792500e-10,2.406250e-03
-2.752500e-10,2.281250e-03
-2.712500e-10,2.000000e-03
-2.672500e-10,2.531250e-03
-2.632500e-10,2.421875e-03
-2.592500e-10,2.546875e-03
-2.552500e-10,3.203125e-03
-2.512500e-10,3.546875e-03
-2.472500e-10,3.578125e-03
-2.432500e-10,3.562500e-03
-2.392500e-10,3.906250e-03
-2.352500e-10,4.625000e-03
-2.312500e-10,4.484375e-03
-2.272500e-10,5.328125e-03
-2.232500e-10,5.875000e-03
-2.192500e-10,6.265625e-03
-2.152500e-10,5.453125e-03
-2.112500e-10,6.312500e-03
-2.072500e-10,5.859375e-03
-2.032500e-10,7.109375e-03
-1.992500e-10,7.218750e-03
-1.952500e-10,7.156250e-03
-1.912500e-10,6.890625e-03
-1.872500e-10,7.359375e-03
-1.832500e-10,7.109375e-03
-1.792500e-10,7.109375e-03
-1.752500e-10,7.500000e-03
-1.712500e-10,7.593750e-03
-1.672500e-10,7.312500e-03
-1.632500e-10,7.015625e-03
-1.592500e-10,6.921875e-03
-1.552500e-10,7.156250e-03
-1.512500e-10,6.609375e-03
-1.472500e-10,6.984375e-03
-1.432500e-10,7.015625e-03
-1.392500e-10,6.937500e-03
-1.352500e-10,5.687500e-03
-1.312500e-10,6.062500e-03
-1.272500e-10,5.062500e-03
-1.232500e-10,5.921875e-03
-1.192500e-10,5.515625e-03
-1.152500e-10,5.093750e-03
-1.112500e-10,4.500000e-03
-1.072500e-10,4.718750e-03
-1.032500e-10,4.250000e-03
-9.925000e-11,4.187500e-03
-9.525000e-11,4.515625e-03
-9.125000e-11,4.718750e-03
-8.725000e-11,4.640625e-03
-8.325000e-11,4.656250e-03
-7.925000e-11,5.000000e-03
-7.525000e-11,5.734375e-03
-7.125000e-11,5.937500e-03
-6.725000e-11,7.218750e-03
-6.325000e-11,8.265625e-03
-5.925000e-11,9.500000e-03
-5.525000e-11,9.687500e-03
-5.125000e-11,1.167188e-02
-4.725000e-11,1.240625e-02
-4.325000e-11,1.529688e-02
-3.925000e-11,1.698438e-02
-3.525000e-11,1.895313e-02
-3.125000e-11,2.090625e-02
-2.725000e-11,2.389063e-02
-2.325000e-11,2.635938e-02
-1.925000e-11,2.940625e-02
-1.525000e-11,3.304688e-02
-1.125000e-11,3.678125e-02
-7.250000e-12,4.028125e-02
-3.250000e-12,4.409375e-02
7.500000e-13,4.835938e-02
4.750000e-12,5.309375e-02
8.750000e-12,5.748438e-02
1.275000e-11,6.307813e-02
1.675000e-11,6.846875e-02
2.075000e-11,7.423438e-02
2.475000e-11,7.895313e-02
2.875000e-11,8.548438e-02
3.275000e-11,9.078125e-02
3.675000e-11,9.826563e-02
4.075000e-11,1.044531e-01
4.475000e-11,1.110156e-01
4.875000e-11,1.174063e-01
5.275000e-11,1.247188e-01
5.675000e-11,1.314844e-01
6.075000e-11,1.386719e-01
6.475000e-11,1.463438e-01
6.875000e-11,1.540469e-01
7.275000e-11,1.611563e-01
7.675000e-11,1.684375e-01
8.075000e-11,1.759375e-01
8.475000e-11,1.836719e-01
8.875000e-11,1.908750e-01
9.275000e-11,1.989375e-01
9.675000e-11,2.065000e-01
1.007500e-10,2.142188e-01
1.047500e-10,2.205156e-01
1.087500e-10,2.283438e-01
1.127500e-10,2.345781e-01
1.167500e-10,2.426250e-01
1.207500e-10,2.490000e-01
1.247500e-10,2.555000e-01
1.287500e-10,2.613750e-01
1.327500e-10,2.677969e-01
1.367500e-10,2.733906e-01
1.407500e-10,2.790156e-01
1.447500e-10,2.847656e-01
1.487500e-10,2.902813e-01
1.527500e-10,2.947188e-01
1.567500e-10,2.990000e-01
1.607500e-10,3.032344e-01
1.647500e-10,3.073906e-01
1.687500e-10,3.107500e-01
1.727500e-10,3.145938e-01
1.767500e-10,3.176250e-01
1.807500e-10,3.206406e-01
1.847500e-10,3.219063e-01
1.887500e-10,3.245781e-01
1.927500e-10,3.254375e-01
1.967500e-10,3.278281e-01
2.007500e-10,3.284063e-01
2.047500e-10,3.290000e-01
2.087500e-10,3.287969e-01
2.127500e-10,3.290313e-01
2.167500e-10,3.284531e-01
2.207500e-10,3.278125e-01
2.247500e-10,3.271875e-01
2.287500e-10,3.263906e-01
2.327500e-10,3.244688e-01
2.367500e-10,3.223750e-01
2.407500e-10,3.203750e-01
2.447500e-10,3.183438e-01
2.487500e-10,3.155625e-01
2.527500e-10,3.133438e-01
2.567500e-10,3.104219e-01
2.607500e-10,3.076563e-01
2.647500e-10,3.032188e-01
2.687500e-10,3.004375e-01
2.727500e-10,2.960313e-01
2.767500e-10,2.932344e-01
2.807500e-10,2.888750e-01
2.847500e-10,2.846875e-01
2.887500e-10,2.799375e-01
2.927500e-10,2.758906e-01
2.967500e-10,2.712813e-01
3.007500e-10,2.667813e-01
3.047500e-10,2.625000e-01
3.087500e-10,2.582656e-01
3.127500e-10,2.532031e-01
3.167500e-10,2.481406e-01
3.207500e-10,2.434375e-01
3.247500e-10,2.389375e-01
3.287500e-10,2.338594e-01
3.327500e-10,2.295625e-01
3.367500e-10,2.248125e-01
3.407500e-10,2.204219e-01
3.447500e-10,2.145000e-01
3.487500e-10,2.105313e-01
3.527500e-10,2.051250e-01
3.567500e-10,2.014063e-01
3.607500e-10,1.963750e-01
3.647500e-10,1.916406e-01
3.687500e-10,1.864688e-01
3.727500e-10,1.822500e-01
3.767500e-10,1.775625e-01
3.807500e-10,1.731094e-01
3.847500e-10,1.689375e-01
3.887500e-10,1.649219e-01
3.927500e-10,1.602969e-01
3.967500e-10,1.557188e-01
4.007500e-10,1.515156e-01
4.047500e-10,1.477031e-01
4.087500e-10,1.432813e-01
4.127500e-10,1.397344e-01
4.167500e-10,1.358750e-01
4.207500e-10,1.323281e-01
4.247500e-10,1.273438e-01
4.287500e-10,1.244063e-01
4.327500e-10,1.200625e-01
4.367500e-10,1.174063e-01
4.407500e-10,1.135469e-01
4.447500e-10,1.099531e-01
4.487500e-10,1.059688e-01
4.527500e-10,1.029688e-01
4.567500e-10,9.953125e-02
4.607500e-10,9.637500e-02
4.647500e-10,9.346875e-02
4.687500e-10,9.075000e-02
4.727500e-10,8.756250e-02
4.767500e-10,8.439063e-02
4.807500e-10,8.159375e-02
4.847500e-10,7.925000e-02
4.887500e-10,7.626563e-02
4.927500e-10,7.414063e-02
4.967500e-10,7.184375e-02
5.007500e-10,6.976563e-02
5.047500e-10,6.634375e-02
5.087500e-10,6.498438e-02
5.127500e-10,6.225000e-02
5.167500e-10,6.121875e-02
5.207500e-10,5.907813e-02
5.247500e-10,5.706250e-02
5.287500e-10,5.478125e-02
5.327500e-10,5.346875e-02
5.367500e-10,5.164063e-02
5.407500e-10,5.017188e-02
5.447500e-10,4.896875e-02
5.487500e-10,4.793750e-02
5.527500e-10,4.650000e-02
5.567500e-10,4.501563e-02
5.607500e-10,4.393750e-02
5.647500e-10,4.326563e-02
5.687500e-10,4.193750e-02
5.727500e-10,4.143750e-02
5.767500e-10,4.078125e-02
5.807500e-10,4.023438e-02
5.847500e-10,3.839063e-02
5.887500e-10,3.848438e-02
5.927500e-10,3.725000e-02
5.967500e-10,3.767188e-02
6.007500e-10,3.693750e-02
6.047500e-10,3.617188e-02
6.087500e-10,3.515625e-02
6.127500e-10,3.507813e-02
6.167500e-10,3.429688e-02
6.207500e-10,3.384375e-02
6.247500e-10,3.365625e-02
6.287500e-10,3.353125e-02
6.327500e-10,3.298438e-02
6.367500e-10,3.223438e-02
6.407500e-10,3.192188e-02
6.447500e-10,3.181250e-02
6.487500e-10,3.103125e-02
6.527500e-10,3.101563e-02
6.567500e-10,3.079688e-02
6.607500e-10,3.050000e-02
6.647500e-10,2.895313e-02
6.687500e-10,2.917188e-02
6.727500e-10,2.809375e-02
6.767500e-10,2.860938e-02
6.807500e-10,2.792188e-02
6.847500e-10,2.710938e-02
6.887500e-10,2.595313e-02
6.927500e-10,2.581250e-02
6.967500e-10,2.478125e-02
7.007500e-10,2.407813e-02
7.047500e-10,2.370313e-02
7.087500e-10,2.331250e-02
7.127500e-10,2.253125e-02
7.167500e-10,2.143750e-02
7.207500e-10,2.087500e-02
7.247500e-10,2.045313e-02
7.287500e-10,1.940625e-02
7.327500e-10,1.917188e-02
7.367500e-10,1.875000e-02
7.407500e-10,1.812500e-02
7.447500e-10,1.642188e-02
7.487500e-10,1.642188e-02
7.527500e-10,1.520313e-02
7.567500e-10,1.565625e-02
7.607500e-10,1.490625e-02
7.647500e-10,1.412500e-02
7.687500e-10,1.295313e-02
7.727500e-10,1.289063e-02
7.767500e-10,1.195313e-02
7.807500e-10,1.140625e-02
7.847500e-10,1.129688e-02
7.887500e-10,1.114063e-02
7.927500e-10,1.070313e-02
7.967500e-10,9.937500e-03
8.007500e-10,9.750000e-03
8.047500e-10,9.812500e-03
8.087500e-10,9.281250e-03
8.127500e-10,9.609375e-03
8.167500e-10,9.765625e-03
8.207500e-10,9.671875e-03
8.247500e-10,8.625000e-03
8.287500e-10,9.218750e-03
8.327500e-10,8.593750e-03
8.367500e-10,9.812500e-03
8.407500e-10,9.734375e-03
8.447500e-10,9.687500e-03
8.487500e-10,9.187500e-03
8.527500e-10,9.750000e-03
8.567500e-10,9.500000e-03
8.607500e-10,9.625000e-03
8.647500e-10,1.020313e-02
8.687500e-10,1.054688e-02
8.727500e-10,1.071875e-02
8.767500e-10,1.051563e-02
8.807500e-10,1.076563e-02
8.847500e-10,1.137500e-02
8.887500e-10,1.129688e-02
8.927500e-10,1.204688e-02
8.967500e-10,1.250000e-02
9.007500e-10,1.271875e-02
9.047500e-10,1.195313e-02
9.087500e-10,1.271875e-02
9.127500e-10,1.215625e-02
9.167500e-10,1.353125e-02
9.207500e-10,1.351563e-02
9.247500e-10,1.345313e-02
9.287500e-10,1.293750e-02
9.327500e-10,1.335938e-02
9.367500e-10,1.300000e-02
9.407500e-10,1.300000e-02
9.447500e-10,1.340625e-02
9.487500e-10,1.337500e-02
9.527500e-10,1.326563e-02
9.567500e-10,1.278125e-02
9.607500e-10,1.260938e-02
9.647500e-10,1.292188e-02
9.687500e-10,1.248438e-02
9.727500e-10,1.284375e-02
9.767500e-10,1.284375e-02
9.807500e-10,1.267188e-02
9.847500e-10,1.153125e-02
9.887500e-10,1.192188e-02
9.927500e-10,1.092188e-02
9.967500e-10,1.190625e-02
1.000750e-09,1.151563e-02
1.004750e-09,1.107813e-02
1.008750e-09,1.026563e-02
1.012750e-09,1.035938e-02
1.016750e-09,9.750000e-03
1.020750e-09,9.546875e-03
1.024750e-09,9.750000e-03
1.028750e-09,9.515625e-03
1.032750e-09,9.218750e-03
1.036750e-09,8.656250e-03
1.040750e-09,8.359375e-03
1.044750e-09,8.671875e-03
1.048750e-09,8.234375e-03
1.052750e-09,8.593750e-03
1.056750e-09,8.656250e-03
1.060750e-09,8.625000e-03
1.064750e-09,7.640625e-03
1.068750e-09,8.265625e-03
1.072750e-09,7.453125e-03
1.076750e-09,8.609375e-03
1.080750e-09,8.468750e-03
1.084750e-09,8.296875e-03
1.088750e-09,7.781250e-03
1.092750e-09,8.203125e-03
1.096750e-09,7.906250e-03
1.100750e-09,8.031250e-03
1.104750e-09,8.578125e-03
1.108750e-09,8.718750e-03
1.112750e-09,8.718750e-03
1.116750e-09,8.484375e-03
1.120750e-09,8.531250e-03
1.124750e-09,9.140625e-03
1.128750e-09,8.968750e-03
1.132750e-09,9.625000e-03
1.136750e-09,9.968750e-03
1.140750e-09,1.020313e-02
1.144750e-09,9.421875e-03
1.148750e-09,1.029688e-02
1.152750e-09,9.640625e-03
1.156750e-09,1.092188e-02
1.160750e-09,1.085938e-02
1.164750e-09,1.076563e-02
1.168750e-09,1.028125e-02
1.172750e-09,1.075000e-02
1.176750e-09,1.043750e-02
1.180750e-09,1.050000e-02
1.184750e-09,1.095313e-02
1.188750e-09,1.104688e-02
1.192750e-09,1.090625e-02
1.196750e-09,1.050000e-02
1.200750e-09,1.039063e-02
1.204750e-09,1.076563e-02
1.208750e-09,1.034375e-02
1.212750e-09,1.079688e-02
1.216750e-09,1.089063e-02
1.220750e-09,1.089063e-02
1.224750e-09,9.765625e-03
1.228750e-09,1.040625e-02
1.232750e-09,9.437500e-03
1.236750e-09,1.043750e-02
1.240750e-09,1.007813e-02
1.244750e-09,9.703125e-03
1.248750e-09,8.921875e-03
1.252750e-09,9.140625e-03
1.256750e-09,8.562500e-03
1.260750e-09,8.375000e-03
1.264750e-09,8.593750e-03
1.268750e-09,8.546875e-03
1.272750e-09,8.187500e-03
1.276750e-09,7.609375e-03
1.280750e-09,7.390625e-03
1.284750e-09,7.656250e-03
1.288750e-09,7.125000e-03
1.292750e-09,7.531250e-03
1.296750e-09,7.609375e-03
1.300750e-09,7.640625e-03
1.304750e-09,6.468750e-03
1.308750e-09,7.171875e-03
1.312750e-09,6.281250e-03
1.316750e-09,7.406250e-03
1.320750e-09,7.171875e-03
1.324750e-09,6.953125e-03
1.328750e-09,6.343750e-03
1.332750e-09,6.750000e-03
1.336750e-09,6.390625e-03
1.340750e-09,6.437500e-03
1.344750e-09,6.906250e-03
1.348750e-09,7.156250e-03
1.352750e-09,7.046875e-03
1.356750e-09,6.765625e-03
1.360750e-09,6.859375e-03
1.364750e-09,7.390625e-03
1.368750e-09,7.140625e-03
1.372750e-09,7.875000e-03
1.376750e-09,8.234375e-03
1.380750e-09,8.578125e-03
1.384750e-09,7.625000e-03
1.388750e-09,8.593750e-03
1.392750e-09,7.968750e-03
1.396750e-09,9.343750e-03
1.400750e-09,9.343750e-03
1.404750e-09,9.312500e-03
1.408750e-09,8.890625e-03
1.412750e-09,9.468750e-03
1.416750e-09,9.250000e-03
1.420750e-09,9.406250e-03
1.424750e-09,9.984375e-03
1.428750e-09,1.031250e-02
1.432750e-09,1.025000e-02
1.436750e-09,9.984375e-03
1.440750e-09,1.009375e-02
1.444750e-09,1.060938e-02
1.448750e-09,1.029688e-02
1.452750e-09,1.098438e-02
1.456750e-09,1.123438e-02
1.460750e-09,1.148438e-02
1.464750e-09,1.034375e-02
1.468750e-09,1.117188e-02
1.472750e-09,1.037500e-02
1.476750e-09,1.157813e-02
1.480750e-09,1.135938e-02
1.484750e-09,1.110938e-02
1.488750e-09,1.045313e-02
1.492750e-09,1.079688e-02
1.496750e-09,1.031250e-02
1.500750e-09,1.021875e-02
1.504750e-09,1.053125e-02
1.508750e-09,1.060938e-02
1.512750e-09,1.028125e-02
1.516750e-09,9.734375e-03
1.520750e-09,9.593750e-03
1.524750e-09,9.843750e-03
1.528750e-09,9.281250e-03
1.532750e-09,9.703125e-03
1.536750e-09,9.734375e-03
1.540750e-09,9.734375e-03
1.544750e-09,8.359375e-03
1.548750e-09,8.984375e-03
1.552750e-09,7.984375e-03
1.556750e-09,9.000000e-03
1.560750e-09,8.593750e-03
1.564750e-09,8.203125e-03
1.568750e-09,7.406250e-03
1.572750e-09,7.609375e-03
1.576750e-09,7.015625e-03
1.580750e-09,6.828125e-03
1.584750e-09,7.046875e-03
1.588750e-09,7.062500e-03
1.592750e-09,6.687500e-03
1.596750e-09,6.093750e-03
1.600750e-09,5.921875e-03
1.604750e-09,6.171875e-03
1.608750e-09,5.609375e-03
1.612750e-09,6.046875e-03
1.616750e-09,6.109375e-03
1.620750e-09,6.171875e-03
1.624750e-09,4.828125e-03
1.628750e-09,5.515625e-03
1.632750e-09,4.593750e-03
1.636750e-09,5.687500e-03
1.640750e-09,5.375000e-03
1.644750e-09,5.062500e-03
1.648750e-09,4.359375e-03
1.652750e-09,4.687500e-03
1.656750e-09,4.203125e-03
1.660750e-09,4.125000e-03
1.664750e-09,4.453125e-03
1.668750e-09,4.593750e-03
1.672750e-09,4.328125e-03
1.676750e-09,3.875000e-03
1.680750e-09,3.828125e-03
1.684750e-09,4.187500e-03
1.688750e-09,3.750000e-03
1.692750e-09,4.312500e-03
1.696750e-09,4.500000e-03
1.700750e-09,4.671875e-03
1.704750e-09,3.437500e-03
1.708750e-09,4.234375e-03
1.712750e-09,3.406250e-03
1.716750e-09,4.609375e-03
1.720750e-09,4.406250e-03
1.724750e-09,4.203125e-03
1.728750e-09,3.593750e-03
1.732750e-09,4.000000e-03
1.736750e-09,3.593750e-03
1.740750e-09,3.609375e-03
1.744750e-09,4.015625e-03
1.748750e-09,4.218750e-03
1.752750e-09,4.031250e-03
1.756750e-09,3.640625e-03
