Measurements-streak-laser/Photodiode-on-Tek-12bit-4GHz/Tek000_ch1_20190613133030558.csv

Model,MSO64
Waveform Type,ANALOG
Horizontal Units,s
Sample Interval,4.000000e-12
Record Length,1000
Zero Index,310.937500
Vertical Units,V

TIME,CH1
-1.243750e-09,8.343750e-03
-1.239750e-09,8.156250e-03
-1.235750e-09,7.765625e-03
-1.231750e-09,7.750000e-03
-1.227750e-09,8.140625e-03
-1.223750e-09,7.687500e-03
-1.219750e-09,8.250000e-03
-1.215750e-09,8.375000e-03
-1.211750e-09,8.500000e-03
-1.207750e-09,7.171875e-03
-1.203750e-09,7.875000e-03
-1.199750e-09,6.937500e-03
-1.195750e-09,8.000000e-03
-1.191750e-09,7.640625e-03
-1.187750e-09,7.265625e-03
-1.183750e-09,6.468750e-03
-1.179750e-09,6.687500e-03
-1.175750e-09,6.078125e-03
-1.171750e-09,5.859375e-03
-1.167750e-09,6.031250e-03
-1.163750e-09,6.015625e-03
-1.159750e-09,5.578125e-03
-1.155750e-09,4.937500e-03
-1.151750e-09,4.687500e-03
-1.147750e-09,4.859375e-03
-1.143750e-09,4.203125e-03
-1.139750e-09,4.578125e-03
-1.135750e-09,4.531250e-03
-1.131750e-09,4.500000e-03
-1.127750e-09,3.062500e-03
-1.123750e-09,3.656250e-03
-1.119750e-09,2.625000e-03
-1.115750e-09,3.640625e-03
-1.111750e-09,3.250000e-03
-1.107750e-09,2.859375e-03
-1.103750e-09,2.078125e-03
-1.099750e-09,2.328125e-03
-1.095750e-09,1.781250e-03
-1.091750e-09,1.656250e-03
-1.087750e-09,1.953125e-03
-1.083750e-09,2.046875e-03
-1.079750e-09,1.765625e-03
-1.075750e-09,1.296875e-03
-1.071750e-09,1.250000e-03
-1.067750e-09,1.609375e-03
-1.063750e-09,1.187500e-03
-1.059750e-09,1.796875e-03
-1.055750e-09,2.000000e-03
-1.051750e-09,2.234375e-03
-1.047750e-09,1.062500e-03
-1.043750e-09,1.921875e-03
-1.039750e-09,1.171875e-03
-1.035750e-09,2.468750e-03
-1.031750e-09,2.359375e-03
-1.027750e-09,2.250000e-03
-1.023750e-09,1.750000e-03
-1.019750e-09,2.265625e-03
-1.015750e-09,1.984375e-03
-1.011750e-09,2.109375e-03
-1.007750e-09,2.656250e-03
-1.003750e-09,3.000000e-03
-9.997500e-10,2.937500e-03
-9.957500e-10,2.671875e-03
-9.917500e-10,2.812500e-03
-9.877500e-10,3.375000e-03
-9.837500e-10,3.093750e-03
-9.797500e-10,3.843750e-03
-9.757500e-10,4.187500e-03
-9.717500e-10,4.531250e-03
-9.677500e-10,3.437500e-03
-9.637500e-10,4.375000e-03
-9.597500e-10,3.671875e-03
-9.557500e-10,4.984375e-03
-9.517500e-10,4.890625e-03
-9.477500e-10,4.781250e-03
-9.437500e-10,4.265625e-03
-9.397500e-10,4.750000e-03
-9.357500e-10,4.421875e-03
-9.317500e-10,4.484375e-03
-9.277500e-10,4.953125e-03
-9.237500e-10,5.203125e-03
-9.197500e-10,5.046875e-03
-9.157500e-10,4.671875e-03
-9.117500e-10,4.703125e-03
-9.077500e-10,5.140625e-03
-9.037500e-10,4.750000e-03
-8.997500e-10,5.359375e-03
-8.957500e-10,5.578125e-03
-8.917500e-10,5.781250e-03
-8.877500e-10,4.578125e-03
-8.837500e-10,5.390625e-03
-8.797500e-10,4.562500e-03
-8.757500e-10,5.718750e-03
-8.717500e-10,5.515625e-03
-8.677500e-10,5.312500e-03
-8.637500e-10,4.718750e-03
-8.597500e-10,5.109375e-03
-8.557500e-10,4.687500e-03
-8.517500e-10,4.703125e-03
-8.477500e-10,5.093750e-03
-8.437500e-10,5.296875e-03
-8.397500e-10,5.125000e-03
-8.357500e-10,4.718750e-03
-8.317500e-10,4.718750e-03
-8.277500e-10,5.140625e-03
-8.237500e-10,4.750000e-03
-8.197500e-10,5.375000e-03
-8.157500e-10,5.609375e-03
-8.117500e-10,5.828125e-03
-8.077500e-10,4.687500e-03
-8.037500e-10,5.531250e-03
-7.997500e-10,4.750000e-03
-7.957500e-10,5.890625e-03
-7.917500e-10,5.781250e-03
-7.877500e-10,5.609375e-03
-7.837500e-10,5.093750e-03
-7.797500e-10,5.515625e-03
-7.757500e-10,5.125000e-03
-7.717500e-10,5.218750e-03
-7.677500e-10,5.640625e-03
-7.637500e-10,5.859375e-03
-7.597500e-10,5.750000e-03
-7.557500e-10,5.343750e-03
-7.517500e-10,5.359375e-03
-7.477500e-10,5.765625e-03
-7.437500e-10,5.375000e-03
-7.397500e-10,5.968750e-03
-7.357500e-10,6.171875e-03
-7.317500e-10,6.343750e-03
-7.277500e-10,5.140625e-03
-7.237500e-10,5.937500e-03
-7.197500e-10,5.109375e-03
-7.157500e-10,6.140625e-03
-7.117500e-10,5.937500e-03
-7.077500e-10,5.687500e-03
-7.037500e-10,5.062500e-03
-6.997500e-10,5.359375e-03
-6.957500e-10,4.828125e-03
-6.917500e-10,4.796875e-03
-6.877500e-10,5.093750e-03
-6.837500e-10,5.140625e-03
-6.797500e-10,4.953125e-03
-6.757500e-10,4.406250e-03
-6.717500e-10,4.281250e-03
-6.677500e-10,4.546875e-03
-6.637500e-10,4.046875e-03
-6.597500e-10,4.515625e-03
-6.557500e-10,4.609375e-03
-6.517500e-10,4.671875e-03
-6.477500e-10,3.359375e-03
-6.437500e-10,4.078125e-03
-6.397500e-10,3.234375e-03
-6.357500e-10,4.203125e-03
-6.317500e-10,3.984375e-03
-6.277500e-10,3.750000e-03
-6.237500e-10,3.125000e-03
-6.197500e-10,3.437500e-03
-6.157500e-10,2.937500e-03
-6.117500e-10,3.000000e-03
-6.077500e-10,3.390625e-03
-6.037500e-10,3.531250e-03
-5.997500e-10,3.500000e-03
-5.957500e-10,3.109375e-03
-5.917500e-10,3.156250e-03
-5.877500e-10,3.609375e-03
-5.837500e-10,3.343750e-03
-5.797500e-10,4.046875e-03
-5.757500e-10,4.375000e-03
-5.717500e-10,4.687500e-03
-5.677500e-10,3.625000e-03
-5.637500e-10,4.609375e-03
-5.597500e-10,4.093750e-03
-5.557500e-10,5.359375e-03
-5.517500e-10,5.468750e-03
-5.477500e-10,5.515625e-03
-5.437500e-10,5.187500e-03
-5.397500e-10,5.765625e-03
-5.357500e-10,5.578125e-03
-5.317500e-10,5.875000e-03
-5.277500e-10,6.546875e-03
-5.237500e-10,6.921875e-03
-5.197500e-10,7.078125e-03
-5.157500e-10,6.906250e-03
-5.117500e-10,7.156250e-03
-5.077500e-10,7.796875e-03
-5.037500e-10,7.640625e-03
-4.997500e-10,8.468750e-03
-4.957500e-10,8.843750e-03
-4.917500e-10,9.203125e-03
-4.877500e-10,8.140625e-03
-4.837500e-10,9.046875e-03
-4.797500e-10,8.484375e-03
-4.757500e-10,9.640625e-03
-4.717500e-10,9.640625e-03
-4.677500e-10,9.468750e-03
-4.637500e-10,8.921875e-03
-4.597500e-10,9.265625e-03
-4.557500e-10,8.843750e-03
-4.517500e-10,8.781250e-03
-4.477500e-10,9.125000e-03
-4.437500e-10,9.125000e-03
-4.397500e-10,8.828125e-03
-4.357500e-10,8.250000e-03
-4.317500e-10,8.093750e-03
-4.277500e-10,8.281250e-03
-4.237500e-10,7.609375e-03
-4.197500e-10,7.968750e-03
-4.157500e-10,7.843750e-03
-4.117500e-10,7.687500e-03
-4.077500e-10,6.156250e-03
-4.037500e-10,6.531250e-03
-3.997500e-10,5.468750e-03
-3.957500e-10,6.156250e-03
-3.917500e-10,5.687500e-03
-3.877500e-10,5.046875e-03
-3.837500e-10,4.078125e-03
-3.797500e-10,4.046875e-03
-3.757500e-10,3.296875e-03
-3.717500e-10,2.843750e-03
-3.677500e-10,2.875000e-03
-3.637500e-10,2.625000e-03
-3.597500e-10,2.062500e-03
-3.557500e-10,1.328125e-03
-3.517500e-10,1.046875e-03
-3.477500e-10,1.156250e-03
-3.437500e-10,4.218750e-04
-3.397500e-10,7.500000e-04
-3.357500e-10,7.343750e-04
-3.317500e-10,6.718750e-04
-3.277500e-10,-6.875000e-04
-3.237500e-10,-1.562500e-04
-3.197500e-10,-9.843750e-04
-3.157500e-10,5.551115e-17
-3.117500e-10,-1.718750e-04
-3.077500e-10,-4.375000e-04
-3.037500e-10,-9.687500e-04
-2.997500e-10,-5.625000e-04
-2.957500e-10,-8.437500e-04
-2.917500e-10,-8.125000e-04
-2.877500e-10,-2.812500e-04
-2.837500e-10,5.551115e-17
-2.797500e-10,-3.125000e-05
-2.757500e-10,-1.718750e-04
-2.717500e-10,7.812500e-05
-2.677500e-10,7.500000e-04
-2.637500e-10,5.781250e-04
-2.597500e-10,1.437500e-03
-2.557500e-10,1.968750e-03
-2.517500e-10,2.421875e-03
-2.477500e-10,1.578125e-03
-2.437500e-10,2.578125e-03
-2.397500e-10,2.156250e-03
-2.357500e-10,3.578125e-03
-2.317500e-10,3.734375e-03
-2.277500e-10,3.812500e-03
-2.237500e-10,3.593750e-03
-2.197500e-10,4.234375e-03
-2.157500e-10,4.125000e-03
-2.117500e-10,4.328125e-03
-2.077500e-10,4.937500e-03
-2.037500e-10,5.265625e-03
-1.997500e-10,5.234375e-03
-1.957500e-10,5.078125e-03
-1.917500e-10,5.218750e-03
-1.877500e-10,5.703125e-03
-1.837500e-10,5.390625e-03
-1.797500e-10,6.031250e-03
-1.757500e-10,6.296875e-03
-1.717500e-10,6.484375e-03
-1.677500e-10,5.375000e-03
-1.637500e-10,6.062500e-03
-1.597500e-10,5.250000e-03
-1.557500e-10,6.359375e-03
-1.517500e-10,6.125000e-03
-1.477500e-10,5.875000e-03
-1.437500e-10,5.312500e-03
-1.397500e-10,5.656250e-03
-1.357500e-10,5.234375e-03
-1.317500e-10,5.203125e-03
-1.277500e-10,5.562500e-03
-1.237500e-10,5.750000e-03
-1.197500e-10,5.578125e-03
-1.157500e-10,5.359375e-03
-1.117500e-10,5.484375e-03
-1.077500e-10,6.000000e-03
-1.037500e-10,5.843750e-03
-9.975000e-11,6.734375e-03
-9.575000e-11,7.296875e-03
-9.175000e-11,7.937500e-03
-8.775000e-11,7.375000e-03
-8.375000e-11,8.687500e-03
-7.975000e-11,8.593750e-03
-7.575000e-11,1.057813e-02
-7.175000e-11,1.125000e-02
-6.775000e-11,1.207813e-02
-6.375000e-11,1.271875e-02
-5.975000e-11,1.435938e-02
-5.575000e-11,1.534375e-02
-5.175000e-11,1.682813e-02
-4.775000e-11,1.882813e-02
-4.375000e-11,2.078125e-02
-3.975000e-11,2.240625e-02
-3.575000e-11,2.414063e-02
-3.175000e-11,2.628125e-02
-2.775000e-11,2.887500e-02
-2.375000e-11,3.090625e-02
-1.975000e-11,3.404688e-02
-1.575000e-11,3.690625e-02
-1.175000e-11,3.996875e-02
-7.750000e-12,4.184375e-02
-3.750000e-12,4.559375e-02
2.500000e-13,4.796875e-02
4.250000e-12,5.245313e-02
8.250000e-12,5.559375e-02
1.225000e-11,5.893750e-02
1.625000e-11,6.203125e-02
2.025000e-11,6.609375e-02
2.425000e-11,6.948438e-02
2.825000e-11,7.331250e-02
3.225000e-11,7.759375e-02
3.625000e-11,8.181250e-02
4.025000e-11,8.553125e-02
4.425000e-11,8.928125e-02
4.825000e-11,9.334375e-02
5.225000e-11,9.771875e-02
5.625000e-11,1.014688e-01
6.025000e-11,1.061563e-01
6.425000e-11,1.104063e-01
6.825000e-11,1.147656e-01
7.225000e-11,1.177188e-01
7.625000e-11,1.224375e-01
8.025000e-11,1.255781e-01
8.425000e-11,1.306563e-01
8.825000e-11,1.341875e-01
9.225000e-11,1.378125e-01
9.625000e-11,1.409375e-01
1.002500e-10,1.448438e-01
1.042500e-10,1.479375e-01
1.082500e-10,1.512656e-01
1.122500e-10,1.548594e-01
1.162500e-10,1.582500e-01
1.202500e-10,1.608906e-01
1.242500e-10,1.633906e-01
1.282500e-10,1.660625e-01
1.322500e-10,1.688750e-01
1.362500e-10,1.709219e-01
1.402500e-10,1.737188e-01
1.442500e-10,1.758906e-01
1.482500e-10,1.780625e-01
1.522500e-10,1.786563e-01
1.562500e-10,1.809531e-01
1.602500e-10,1.815156e-01
1.642500e-10,1.838750e-01
1.682500e-10,1.845781e-01
1.722500e-10,1.853125e-01
1.762500e-10,1.854375e-01
1.802500e-10,1.862500e-01
1.842500e-10,1.862500e-01
1.882500e-10,1.863906e-01
1.922500e-10,1.867344e-01
1.962500e-10,1.868750e-01
2.002500e-10,1.862031e-01
2.042500e-10,1.853438e-01
2.082500e-10,1.847031e-01
2.122500e-10,1.842031e-01
2.162500e-10,1.829219e-01
2.202500e-10,1.823906e-01
2.242500e-10,1.812500e-01
2.282500e-10,1.801875e-01
2.322500e-10,1.775469e-01
2.362500e-10,1.767031e-01
2.402500e-10,1.741875e-01
2.442500e-10,1.734688e-01
2.482500e-10,1.712031e-01
2.522500e-10,1.690156e-01
2.562500e-10,1.662969e-01
2.602500e-10,1.643750e-01
2.642500e-10,1.617500e-01
2.682500e-10,1.593594e-01
2.722500e-10,1.572188e-01
2.762500e-10,1.549844e-01
2.802500e-10,1.520781e-01
2.842500e-10,1.490469e-01
2.882500e-10,1.463594e-01
2.922500e-10,1.439531e-01
2.962500e-10,1.408281e-01
3.002500e-10,1.385625e-01
3.042500e-10,1.358281e-01
3.082500e-10,1.332813e-01
3.122500e-10,1.292344e-01
3.162500e-10,1.271406e-01
3.202500e-10,1.235156e-01
3.242500e-10,1.217188e-01
3.282500e-10,1.185313e-01
3.322500e-10,1.155156e-01
3.362500e-10,1.120625e-01
3.402500e-10,1.095625e-01
3.442500e-10,1.064688e-01
3.482500e-10,1.036719e-01
3.522500e-10,1.012188e-01
3.562500e-10,9.876563e-02
3.602500e-10,9.578125e-02
3.642500e-10,9.276563e-02
3.682500e-10,9.014063e-02
3.722500e-10,8.792188e-02
3.762500e-10,8.503125e-02
3.802500e-10,8.307813e-02
3.842500e-10,8.079688e-02
3.882500e-10,7.871875e-02
3.922500e-10,7.521875e-02
3.962500e-10,7.379688e-02
4.002500e-10,7.087500e-02
4.042500e-10,6.982813e-02
4.082500e-10,6.750000e-02
4.122500e-10,6.535938e-02
4.162500e-10,6.282813e-02
4.202500e-10,6.132813e-02
4.242500e-10,5.925000e-02
4.282500e-10,5.753125e-02
4.322500e-10,5.615625e-02
4.362500e-10,5.481250e-02
4.402500e-10,5.304688e-02
4.442500e-10,5.121875e-02
4.482500e-10,4.978125e-02
4.522500e-10,4.881250e-02
4.562500e-10,4.714063e-02
4.602500e-10,4.640625e-02
4.642500e-10,4.539063e-02
4.682500e-10,4.453125e-02
4.722500e-10,4.228125e-02
4.762500e-10,4.207813e-02
4.802500e-10,4.040625e-02
4.842500e-10,4.056250e-02
4.882500e-10,3.946875e-02
4.922500e-10,3.843750e-02
4.962500e-10,3.707813e-02
5.002500e-10,3.668750e-02
5.042500e-10,3.564063e-02
5.082500e-10,3.496875e-02
5.122500e-10,3.459375e-02
5.162500e-10,3.420313e-02
5.202500e-10,3.340625e-02
5.242500e-10,3.245313e-02
5.282500e-10,3.189063e-02
5.322500e-10,3.170313e-02
5.362500e-10,3.078125e-02
5.402500e-10,3.073438e-02
5.442500e-10,3.039063e-02
5.482500e-10,3.009375e-02
5.522500e-10,2.842188e-02
5.562500e-10,2.870313e-02
5.602500e-10,2.750000e-02
5.642500e-10,2.809375e-02
5.682500e-10,2.739063e-02
5.722500e-10,2.665625e-02
5.762500e-10,2.557813e-02
5.802500e-10,2.545313e-02
5.842500e-10,2.457813e-02
5.882500e-10,2.404688e-02
5.922500e-10,2.382813e-02
5.962500e-10,2.354688e-02
6.002500e-10,2.284375e-02
6.042500e-10,2.192188e-02
6.082500e-10,2.143750e-02
6.122500e-10,2.125000e-02
6.162500e-10,2.032813e-02
6.202500e-10,2.028125e-02
6.242500e-10,1.993750e-02
6.282500e-10,1.956250e-02
6.322500e-10,1.789063e-02
6.362500e-10,1.810938e-02
6.402500e-10,1.689063e-02
6.442500e-10,1.748438e-02
6.482500e-10,1.679688e-02
6.522500e-10,1.604688e-02
6.562500e-10,1.496875e-02
6.602500e-10,1.490625e-02
6.642500e-10,1.401563e-02
6.682500e-10,1.351563e-02
6.722500e-10,1.340625e-02
6.762500e-10,1.321875e-02
6.802500e-10,1.264063e-02
6.842500e-10,1.184375e-02
6.882500e-10,1.153125e-02
6.922500e-10,1.150000e-02
6.962500e-10,1.079688e-02
7.002500e-10,1.098438e-02
7.042500e-10,1.093750e-02
7.082500e-10,1.076563e-02
7.122500e-10,9.406250e-03
7.162500e-10,9.890625e-03
7.202500e-10,8.984375e-03
7.242500e-10,9.921875e-03
7.282500e-10,9.578125e-03
7.322500e-10,9.203125e-03
7.362500e-10,8.437500e-03
7.402500e-10,8.750000e-03
7.442500e-10,8.203125e-03
7.482500e-10,8.046875e-03
7.522500e-10,8.312500e-03
7.562500e-10,8.468750e-03
7.602500e-10,8.250000e-03
7.642500e-10,7.765625e-03
7.682500e-10,7.765625e-03
7.722500e-10,8.062500e-03
7.762500e-10,7.640625e-03
7.802500e-10,8.156250e-03
7.842500e-10,8.359375e-03
7.882500e-10,8.406250e-03
7.922500e-10,7.265625e-03
7.962500e-10,7.921875e-03
8.002500e-10,7.171875e-03
8.042500e-10,8.296875e-03
8.082500e-10,8.062500e-03
8.122500e-10,7.828125e-03
8.162500e-10,7.125000e-03
8.202500e-10,7.468750e-03
8.242500e-10,6.968750e-03
8.282500e-10,6.843750e-03
8.322500e-10,7.125000e-03
8.362500e-10,7.187500e-03
8.402500e-10,6.937500e-03
8.442500e-10,6.390625e-03
8.482500e-10,6.281250e-03
8.522500e-10,6.531250e-03
8.562500e-10,6.031250e-03
8.602500e-10,6.453125e-03
8.642500e-10,6.531250e-03
8.682500e-10,6.468750e-03
8.722500e-10,5.234375e-03
8.762500e-10,5.765625e-03
8.802500e-10,4.859375e-03
8.842500e-10,5.921875e-03
8.882500e-10,5.625000e-03
8.922500e-10,5.281250e-03
8.962500e-10,4.546875e-03
9.002500e-10,4.812500e-03
9.042500e-10,4.281250e-03
9.082500e-10,4.171875e-03
9.122500e-10,4.484375e-03
9.162500e-10,4.500000e-03
9.202500e-10,4.312500e-03
9.242500e-10,3.843750e-03
9.282500e-10,3.765625e-03
9.322500e-10,4.171875e-03
9.362500e-10,3.828125e-03
9.402500e-10,4.375000e-03
9.442500e-10,4.609375e-03
9.482500e-10,4.750000e-03
9.522500e-10,3.750000e-03
9.562500e-10,4.515625e-03
9.602500e-10,3.828125e-03
9.642500e-10,5.140625e-03
9.682500e-10,5.109375e-03
9.722500e-10,5.046875e-03
9.762500e-10,4.609375e-03
9.802500e-10,5.140625e-03
9.842500e-10,4.937500e-03
9.882500e-10,5.125000e-03
9.922500e-10,5.750000e-03
9.962500e-10,6.015625e-03
1.000250e-09,6.093750e-03
1.004250e-09,5.906250e-03
1.008250e-09,6.046875e-03
1.012250e-09,6.703125e-03
1.016250e-09,6.562500e-03
1.020250e-09,7.312500e-03
1.024250e-09,7.703125e-03
1.028250e-09,8.015625e-03
1.032250e-09,7.156250e-03
1.036250e-09,8.062500e-03
1.040250e-09,7.421875e-03
1.044250e-09,8.765625e-03
1.048250e-09,8.734375e-03
1.052250e-09,8.656250e-03
1.056250e-09,8.171875e-03
1.060250e-09,8.640625e-03
1.064250e-09,8.328125e-03
1.068250e-09,8.390625e-03
1.072250e-09,8.859375e-03
1.076250e-09,8.968750e-03
1.080250e-09,8.812500e-03
1.084250e-09,8.406250e-03
1.088250e-09,8.312500e-03
1.092250e-09,8.687500e-03
1.096250e-09,8.250000e-03
1.100250e-09,8.718750e-03
1.104250e-09,8.812500e-03
1.108250e-09,8.828125e-03
1.112250e-09,7.640625e-03
1.116250e-09,8.281250e-03
1.120250e-09,7.328125e-03
1.124250e-09,8.359375e-03
1.128250e-09,8.015625e-03
1.132250e-09,7.656250e-03
1.136250e-09,6.906250e-03
1.140250e-09,7.140625e-03
1.144250e-09,6.593750e-03
1.148250e-09,6.453125e-03
1.152250e-09,6.734375e-03
1.156250e-09,6.718750e-03
1.160250e-09,6.421875e-03
1.164250e-09,5.921875e-03
1.168250e-09,5.781250e-03
1.172250e-09,6.125000e-03
1.176250e-09,5.671875e-03
1.180250e-09,6.187500e-03
1.184250e-09,6.359375e-03
1.188250e-09,6.500000e-03
1.192250e-09,5.421875e-03
1.196250e-09,6.250000e-03
1.200250e-09,5.500000e-03
1.204250e-09,6.750000e-03
1.208250e-09,6.656250e-03
1.212250e-09,6.578125e-03
1.216250e-09,6.125000e-03
1.220250e-09,6.687500e-03
1.224250e-09,6.468750e-03
1.228250e-09,6.671875e-03
1.232250e-09,7.296875e-03
1.236250e-09,7.687500e-03
1.240250e-09,7.750000e-03
1.244250e-09,7.609375e-03
1.248250e-09,7.843750e-03
1.252250e-09,8.531250e-03
1.256250e-09,8.421875e-03
1.260250e-09,9.296875e-03
1.264250e-09,9.781250e-03
1.268250e-09,1.025000e-02
1.272250e-09,9.406250e-03
1.276250e-09,1.046875e-02
1.280250e-09,9.937500e-03
1.284250e-09,1.140625e-02
1.288250e-09,1.145313e-02
1.292250e-09,1.148438e-02
1.296250e-09,1.110938e-02
1.300250e-09,1.170313e-02
1.304250e-09,1.148438e-02
1.308250e-09,1.165625e-02
1.312250e-09,1.220313e-02
1.316250e-09,1.250000e-02
1.320250e-09,1.240625e-02
1.324250e-09,1.206250e-02
1.328250e-09,1.207813e-02
1.332250e-09,1.250000e-02
1.336250e-09,1.209375e-02
1.340250e-09,1.264063e-02
1.344250e-09,1.276563e-02
1.348250e-09,1.285938e-02
1.352250e-09,1.156250e-02
1.356250e-09,1.221875e-02
1.360250e-09,1.123438e-02
1.364250e-09,1.225000e-02
1.368250e-09,1.182813e-02
1.372250e-09,1.139063e-02
1.376250e-09,1.051563e-02
1.380250e-09,1.065625e-02
1.384250e-09,9.968750e-03
1.388250e-09,9.671875e-03
1.392250e-09,9.765625e-03
1.396250e-09,9.625000e-03
1.400250e-09,9.109375e-03
1.404250e-09,8.375000e-03
1.408250e-09,8.046875e-03
1.412250e-09,8.125000e-03
1.416250e-09,7.406250e-03
1.420250e-09,7.687500e-03
1.424250e-09,7.578125e-03
1.428250e-09,7.468750e-03
1.432250e-09,6.000000e-03
1.436250e-09,6.531250e-03
1.440250e-09,5.468750e-03
1.444250e-09,6.437500e-03
1.448250e-09,6.015625e-03
1.452250e-09,5.609375e-03
1.456250e-09,4.828125e-03
1.460250e-09,5.078125e-03
1.464250e-09,4.531250e-03
1.468250e-09,4.421875e-03
1.472250e-09,4.734375e-03
1.476250e-09,4.875000e-03
1.480250e-09,4.625000e-03
1.484250e-09,4.203125e-03
1.488250e-09,4.187500e-03
1.492250e-09,4.625000e-03
1.496250e-09,4.250000e-03
1.500250e-09,4.921875e-03
1.504250e-09,5.187500e-03
1.508250e-09,5.484375e-03
1.512250e-09,4.390625e-03
1.516250e-09,5.312500e-03
1.520250e-09,4.625000e-03
1.524250e-09,5.968750e-03
1.528250e-09,5.921875e-03
1.532250e-09,5.859375e-03
1.536250e-09,5.406250e-03
1.540250e-09,5.968750e-03
1.544250e-09,5.703125e-03
1.548250e-09,5.859375e-03
1.552250e-09,6.406250e-03
1.556250e-09,6.734375e-03
1.560250e-09,6.656250e-03
1.564250e-09,6.375000e-03
1.568250e-09,6.468750e-03
1.572250e-09,6.968750e-03
1.576250e-09,6.640625e-03
1.580250e-09,7.296875e-03
1.584250e-09,7.546875e-03
1.588250e-09,7.781250e-03
1.592250e-09,6.578125e-03
1.596250e-09,7.375000e-03
1.600250e-09,6.531250e-03
1.604250e-09,7.703125e-03
1.608250e-09,7.437500e-03
1.612250e-09,7.156250e-03
1.616250e-09,6.437500e-03
1.620250e-09,6.734375e-03
1.624250e-09,6.187500e-03
1.628250e-09,6.046875e-03
1.632250e-09,6.296875e-03
1.636250e-09,6.312500e-03
1.640250e-09,5.937500e-03
1.644250e-09,5.343750e-03
1.648250e-09,5.140625e-03
1.652250e-09,5.343750e-03
1.656250e-09,4.718750e-03
1.660250e-09,5.109375e-03
1.664250e-09,5.109375e-03
1.668250e-09,5.093750e-03
1.672250e-09,3.671875e-03
1.676250e-09,4.281250e-03
1.680250e-09,3.281250e-03
1.684250e-09,4.296875e-03
1.688250e-09,3.906250e-03
1.692250e-09,3.531250e-03
1.696250e-09,2.781250e-03
1.700250e-09,3.031250e-03
1.704250e-09,2.500000e-03
1.708250e-09,2.375000e-03
1.712250e-09,2.687500e-03
1.716250e-09,2.796875e-03
1.720250e-09,2.546875e-03
1.724250e-09,2.093750e-03
1.728250e-09,2.062500e-03
1.732250e-09,2.453125e-03
1.736250e-09,2.062500e-03
1.740250e-09,2.687500e-03
1.744250e-09,2.937500e-03
1.748250e-09,3.187500e-03
1.752250e-09,2.046875e-03
1.756250e-09,2.953125e-03
