Measurements-streak-laser/Photodiode-on-Tek-12bit-4GHz/Tek000_ch1_20190613133011002.csv

Model,MSO64
Waveform Type,ANALOG
Horizontal Units,s
Sample Interval,4.000000e-12
Record Length,1000
Zero Index,310.343750
Vertical Units,V

TIME,CH1
-1.241375e-09,5.312500e-03
-1.237375e-09,5.343750e-03
-1.233375e-09,5.765625e-03
-1.229375e-09,5.375000e-03
-1.225375e-09,6.015625e-03
-1.221375e-09,6.234375e-03
-1.217375e-09,6.453125e-03
-1.213375e-09,5.250000e-03
-1.209375e-09,6.062500e-03
-1.205375e-09,5.250000e-03
-1.201375e-09,6.468750e-03
-1.197375e-09,6.250000e-03
-1.193375e-09,6.031250e-03
-1.189375e-09,5.390625e-03
-1.185375e-09,5.750000e-03
-1.181375e-09,5.312500e-03
-1.177375e-09,5.265625e-03
-1.173375e-09,5.609375e-03
-1.169375e-09,5.750000e-03
-1.165375e-09,5.484375e-03
-1.161375e-09,4.984375e-03
-1.157375e-09,4.906250e-03
-1.153375e-09,5.218750e-03
-1.149375e-09,4.718750e-03
-1.145375e-09,5.234375e-03
-1.141375e-09,5.328125e-03
-1.137375e-09,5.421875e-03
-1.133375e-09,4.093750e-03
-1.129375e-09,4.796875e-03
-1.125375e-09,3.875000e-03
-1.121375e-09,4.984375e-03
-1.117375e-09,4.671875e-03
-1.113375e-09,4.359375e-03
-1.109375e-09,3.640625e-03
-1.105375e-09,3.953125e-03
-1.101375e-09,3.453125e-03
-1.097375e-09,3.359375e-03
-1.093375e-09,3.687500e-03
-1.089375e-09,3.812500e-03
-1.085375e-09,3.562500e-03
-1.081375e-09,3.093750e-03
-1.077375e-09,3.062500e-03
-1.073375e-09,3.437500e-03
-1.069375e-09,3.000000e-03
-1.065375e-09,3.609375e-03
-1.061375e-09,3.812500e-03
-1.057375e-09,4.031250e-03
-1.053375e-09,2.843750e-03
-1.049375e-09,3.703125e-03
-1.045375e-09,2.937500e-03
-1.041375e-09,4.218750e-03
-1.037375e-09,4.093750e-03
-1.033375e-09,3.984375e-03
-1.029375e-09,3.468750e-03
-1.025375e-09,3.984375e-03
-1.021375e-09,3.703125e-03
-1.017375e-09,3.812500e-03
-1.013375e-09,4.343750e-03
-1.009375e-09,4.687500e-03
-1.005375e-09,4.625000e-03
-1.001375e-09,4.343750e-03
-9.973750e-10,4.484375e-03
-9.933750e-10,5.031250e-03
-9.893750e-10,4.765625e-03
-9.853750e-10,5.500000e-03
-9.813750e-10,5.828125e-03
-9.773750e-10,6.156250e-03
-9.733750e-10,5.046875e-03
-9.693750e-10,5.953125e-03
-9.653750e-10,5.218750e-03
-9.613750e-10,6.500000e-03
-9.573750e-10,6.359375e-03
-9.533750e-10,6.203125e-03
-9.493750e-10,5.625000e-03
-9.453750e-10,6.046875e-03
-9.413750e-10,5.640625e-03
-9.373750e-10,5.609375e-03
-9.333750e-10,5.968750e-03
-9.293750e-10,6.109375e-03
-9.253750e-10,5.843750e-03
-9.213750e-10,5.328125e-03
-9.173750e-10,5.218750e-03
-9.133750e-10,5.484375e-03
-9.093750e-10,4.921875e-03
-9.053750e-10,5.359375e-03
-9.013750e-10,5.375000e-03
-8.973750e-10,5.359375e-03
-8.933750e-10,3.953125e-03
-8.893750e-10,4.531250e-03
-8.853750e-10,3.468750e-03
-8.813750e-10,4.375000e-03
-8.773750e-10,3.937500e-03
-8.733750e-10,3.453125e-03
-8.693750e-10,2.593750e-03
-8.653750e-10,2.718750e-03
-8.613750e-10,2.031250e-03
-8.573750e-10,1.781250e-03
-8.533750e-10,1.906250e-03
-8.493750e-10,1.843750e-03
-8.453750e-10,1.406250e-03
-8.413750e-10,7.500000e-04
-8.373750e-10,5.000000e-04
-8.333750e-10,6.875000e-04
-8.293750e-10,7.812500e-05
-8.253750e-10,4.843750e-04
-8.213750e-10,5.156250e-04
-8.173750e-10,5.625000e-04
-8.133750e-10,-7.500000e-04
-8.093750e-10,-4.687500e-05
-8.053750e-10,-9.531250e-04
-8.013750e-10,9.375000e-05
-7.973750e-10,-1.093750e-04
-7.933750e-10,-3.281250e-04
-7.893750e-10,-8.906250e-04
-7.853750e-10,-4.687500e-04
-7.813750e-10,-8.281250e-04
-7.773750e-10,-7.031250e-04
-7.733750e-10,-2.031250e-04
-7.693750e-10,1.093750e-04
-7.653750e-10,1.250000e-04
-7.613750e-10,-1.250000e-04
-7.573750e-10,6.250000e-05
-7.533750e-10,6.562500e-04
-7.493750e-10,4.843750e-04
-7.453750e-10,1.328125e-03
-7.413750e-10,1.781250e-03
-7.373750e-10,2.234375e-03
-7.333750e-10,1.343750e-03
-7.293750e-10,2.437500e-03
-7.253750e-10,1.937500e-03
-7.213750e-10,3.296875e-03
-7.173750e-10,3.437500e-03
-7.133750e-10,3.546875e-03
-7.093750e-10,3.265625e-03
-7.053750e-10,3.921875e-03
-7.013750e-10,3.750000e-03
-6.973750e-10,4.078125e-03
-6.933750e-10,4.703125e-03
-6.893750e-10,5.109375e-03
-6.853750e-10,5.250000e-03
-6.813750e-10,5.031250e-03
-6.773750e-10,5.187500e-03
-6.733750e-10,5.750000e-03
-6.693750e-10,5.515625e-03
-6.653750e-10,6.234375e-03
-6.613750e-10,6.562500e-03
-6.573750e-10,6.828125e-03
-6.533750e-10,5.703125e-03
-6.493750e-10,6.578125e-03
-6.453750e-10,5.859375e-03
-6.413750e-10,6.937500e-03
-6.373750e-10,6.796875e-03
-6.333750e-10,6.593750e-03
-6.293750e-10,6.000000e-03
-6.253750e-10,6.281250e-03
-6.213750e-10,5.750000e-03
-6.173750e-10,5.750000e-03
-6.133750e-10,6.031250e-03
-6.093750e-10,6.062500e-03
-6.053750e-10,5.890625e-03
-6.013750e-10,5.328125e-03
-5.973750e-10,5.171875e-03
-5.933750e-10,5.421875e-03
-5.893750e-10,4.937500e-03
-5.853750e-10,5.390625e-03
-5.813750e-10,5.453125e-03
-5.773750e-10,5.484375e-03
-5.733750e-10,4.140625e-03
-5.693750e-10,4.843750e-03
-5.653750e-10,4.031250e-03
-5.613750e-10,4.984375e-03
-5.573750e-10,4.796875e-03
-5.533750e-10,4.531250e-03
-5.493750e-10,3.921875e-03
-5.453750e-10,4.218750e-03
-5.413750e-10,3.734375e-03
-5.373750e-10,3.781250e-03
-5.333750e-10,4.203125e-03
-5.293750e-10,4.343750e-03
-5.253750e-10,4.296875e-03
-5.213750e-10,3.937500e-03
-5.173750e-10,4.000000e-03
-5.133750e-10,4.484375e-03
-5.093750e-10,4.203125e-03
-5.053750e-10,4.937500e-03
-5.013750e-10,5.234375e-03
-4.973750e-10,5.531250e-03
-4.933750e-10,4.453125e-03
-4.893750e-10,5.375000e-03
-4.853750e-10,4.843750e-03
-4.813750e-10,6.062500e-03
-4.773750e-10,6.171875e-03
-4.733750e-10,6.109375e-03
-4.693750e-10,5.703125e-03
-4.653750e-10,6.234375e-03
-4.613750e-10,5.984375e-03
-4.573750e-10,6.140625e-03
-4.533750e-10,6.734375e-03
-4.493750e-10,6.984375e-03
-4.453750e-10,6.968750e-03
-4.413750e-10,6.687500e-03
-4.373750e-10,6.812500e-03
-4.333750e-10,7.328125e-03
-4.293750e-10,6.984375e-03
-4.253750e-10,7.671875e-03
-4.213750e-10,7.875000e-03
-4.173750e-10,8.062500e-03
-4.133750e-10,6.859375e-03
-4.093750e-10,7.562500e-03
-4.053750e-10,6.843750e-03
-4.013750e-10,7.859375e-03
-3.973750e-10,7.703125e-03
-3.933750e-10,7.375000e-03
-3.893750e-10,6.687500e-03
-3.853750e-10,6.921875e-03
-3.813750e-10,6.421875e-03
-3.773750e-10,6.218750e-03
-3.733750e-10,6.468750e-03
-3.693750e-10,6.421875e-03
-3.653750e-10,6.031250e-03
-3.613750e-10,5.437500e-03
-3.573750e-10,5.281250e-03
-3.533750e-10,5.500000e-03
-3.493750e-10,4.828125e-03
-3.453750e-10,5.234375e-03
-3.413750e-10,5.218750e-03
-3.373750e-10,5.156250e-03
-3.333750e-10,3.765625e-03
-3.293750e-10,4.250000e-03
-3.253750e-10,3.343750e-03
-3.213750e-10,4.234375e-03
-3.173750e-10,3.968750e-03
-3.133750e-10,3.546875e-03
-3.093750e-10,2.875000e-03
-3.053750e-10,3.093750e-03
-3.013750e-10,2.625000e-03
-2.973750e-10,2.453125e-03
-2.933750e-10,2.781250e-03
-2.893750e-10,2.843750e-03
-2.853750e-10,2.562500e-03
-2.813750e-10,2.171875e-03
-2.773750e-10,2.203125e-03
-2.733750e-10,2.625000e-03
-2.693750e-10,2.218750e-03
-2.653750e-10,2.828125e-03
-2.613750e-10,3.109375e-03
-2.573750e-10,3.328125e-03
-2.533750e-10,2.250000e-03
-2.493750e-10,3.031250e-03
-2.453750e-10,2.390625e-03
-2.413750e-10,3.593750e-03
-2.373750e-10,3.578125e-03
-2.333750e-10,3.468750e-03
-2.293750e-10,3.093750e-03
-2.253750e-10,3.578125e-03
-2.213750e-10,3.343750e-03
-2.173750e-10,3.421875e-03
-2.133750e-10,3.921875e-03
-2.093750e-10,4.171875e-03
-2.053750e-10,4.062500e-03
-2.013750e-10,3.843750e-03
-1.973750e-10,3.953125e-03
-1.933750e-10,4.437500e-03
-1.893750e-10,4.093750e-03
-1.853750e-10,4.734375e-03
-1.813750e-10,5.015625e-03
-1.773750e-10,5.234375e-03
-1.733750e-10,4.156250e-03
-1.693750e-10,4.875000e-03
-1.653750e-10,4.125000e-03
-1.613750e-10,5.281250e-03
-1.573750e-10,5.125000e-03
-1.533750e-10,4.921875e-03
-1.493750e-10,4.453125e-03
-1.453750e-10,4.843750e-03
-1.413750e-10,4.500000e-03
-1.373750e-10,4.515625e-03
-1.333750e-10,4.937500e-03
-1.293750e-10,5.156250e-03
-1.253750e-10,5.015625e-03
-1.213750e-10,4.843750e-03
-1.173750e-10,4.984375e-03
-1.133750e-10,5.515625e-03
-1.093750e-10,5.359375e-03
-1.053750e-10,6.218750e-03
-1.013750e-10,6.750000e-03
-9.737500e-11,7.343750e-03
-9.337500e-11,6.718750e-03
-8.937500e-11,7.953125e-03
-8.537500e-11,7.765625e-03
-8.137500e-11,9.625000e-03
-7.737500e-11,1.018750e-02
-7.337500e-11,1.087500e-02
-6.937500e-11,1.135938e-02
-6.537500e-11,1.284375e-02
-6.137500e-11,1.365625e-02
-5.737500e-11,1.495313e-02
-5.337500e-11,1.673438e-02
-4.937500e-11,1.848438e-02
-4.537500e-11,1.990625e-02
-4.137500e-11,2.140625e-02
-3.737500e-11,2.332813e-02
-3.337500e-11,2.568750e-02
-2.937500e-11,2.748438e-02
-2.537500e-11,3.040625e-02
-2.137500e-11,3.306250e-02
-1.737500e-11,3.590625e-02
-1.337500e-11,3.756250e-02
-9.375000e-12,4.112500e-02
-5.375000e-12,4.331250e-02
-1.375000e-12,4.762500e-02
2.625000e-12,5.060938e-02
6.625000e-12,5.381250e-02
1.062500e-11,5.679688e-02
1.462500e-11,6.076563e-02
1.862500e-11,6.409375e-02
2.262500e-11,6.787500e-02
2.662500e-11,7.214063e-02
3.062500e-11,7.635938e-02
3.462500e-11,8.012500e-02
3.862500e-11,8.393750e-02
4.262500e-11,8.809375e-02
4.662500e-11,9.259375e-02
5.062500e-11,9.650000e-02
5.462500e-11,1.013906e-01
5.862500e-11,1.058750e-01
6.262500e-11,1.104844e-01
6.662500e-11,1.137500e-01
7.062500e-11,1.187813e-01
7.462500e-11,1.222813e-01
7.862500e-11,1.277500e-01
8.262500e-11,1.316875e-01
8.662500e-11,1.357656e-01
9.062500e-11,1.393594e-01
9.462500e-11,1.437656e-01
9.862500e-11,1.473906e-01
1.026250e-10,1.512656e-01
1.066250e-10,1.554375e-01
1.106250e-10,1.594219e-01
1.146250e-10,1.626563e-01
1.186250e-10,1.657813e-01
1.226250e-10,1.690938e-01
1.266250e-10,1.725469e-01
1.306250e-10,1.752500e-01
1.346250e-10,1.787031e-01
1.386250e-10,1.815469e-01
1.426250e-10,1.843906e-01
1.466250e-10,1.856719e-01
1.506250e-10,1.886250e-01
1.546250e-10,1.898594e-01
1.586250e-10,1.928594e-01
1.626250e-10,1.942188e-01
1.666250e-10,1.955938e-01
1.706250e-10,1.963438e-01
1.746250e-10,1.977656e-01
1.786250e-10,1.983594e-01
1.826250e-10,1.990781e-01
1.866250e-10,1.999844e-01
1.906250e-10,2.006719e-01
1.946250e-10,2.005000e-01
1.986250e-10,2.001406e-01
2.026250e-10,1.999688e-01
2.066250e-10,1.999063e-01
2.106250e-10,1.990469e-01
2.146250e-10,1.988906e-01
2.186250e-10,1.981094e-01
2.226250e-10,1.973750e-01
2.266250e-10,1.950313e-01
2.306250e-10,1.944531e-01
2.346250e-10,1.921875e-01
2.386250e-10,1.916563e-01
2.426250e-10,1.895625e-01
2.466250e-10,1.875313e-01
2.506250e-10,1.849375e-01
2.546250e-10,1.830938e-01
2.586250e-10,1.805313e-01
2.626250e-10,1.781563e-01
2.666250e-10,1.760156e-01
2.706250e-10,1.737656e-01
2.746250e-10,1.707813e-01
2.786250e-10,1.676719e-01
2.826250e-10,1.648750e-01
2.866250e-10,1.623125e-01
2.906250e-10,1.590313e-01
2.946250e-10,1.565781e-01
2.986250e-10,1.536250e-01
3.026250e-10,1.508438e-01
3.066250e-10,1.465313e-01
3.106250e-10,1.441719e-01
3.146250e-10,1.402344e-01
3.186250e-10,1.381094e-01
3.226250e-10,1.345781e-01
3.266250e-10,1.312031e-01
3.306250e-10,1.273750e-01
3.346250e-10,1.244844e-01
3.386250e-10,1.209844e-01
3.426250e-10,1.177813e-01
3.466250e-10,1.148906e-01
3.506250e-10,1.120000e-01
3.546250e-10,1.085625e-01
3.586250e-10,1.050625e-01
3.626250e-10,1.019844e-01
3.666250e-10,9.928125e-02
3.706250e-10,9.590625e-02
3.746250e-10,9.345313e-02
3.786250e-10,9.067188e-02
3.826250e-10,8.810938e-02
3.866250e-10,8.410938e-02
3.906250e-10,8.217188e-02
3.946250e-10,7.876563e-02
3.986250e-10,7.720313e-02
4.026250e-10,7.437500e-02
4.066250e-10,7.171875e-02
4.106250e-10,6.871875e-02
4.146250e-10,6.673438e-02
4.186250e-10,6.418750e-02
4.226250e-10,6.200000e-02
4.266250e-10,6.015625e-02
4.306250e-10,5.837500e-02
4.346250e-10,5.617188e-02
4.386250e-10,5.392188e-02
4.426250e-10,5.207813e-02
4.466250e-10,5.071875e-02
4.506250e-10,4.867188e-02
4.546250e-10,4.756250e-02
4.586250e-10,4.621875e-02
4.626250e-10,4.503125e-02
4.666250e-10,4.248438e-02
4.706250e-10,4.200000e-02
4.746250e-10,4.006250e-02
4.786250e-10,3.998438e-02
4.826250e-10,3.865625e-02
4.866250e-10,3.745313e-02
4.906250e-10,3.590625e-02
4.946250e-10,3.535938e-02
4.986250e-10,3.420313e-02
5.026250e-10,3.342188e-02
5.066250e-10,3.296875e-02
5.106250e-10,3.251563e-02
5.146250e-10,3.167188e-02
5.186250e-10,3.070313e-02
5.226250e-10,3.012500e-02
5.266250e-10,2.996875e-02
5.306250e-10,2.907813e-02
5.346250e-10,2.907813e-02
5.386250e-10,2.881250e-02
5.426250e-10,2.860938e-02
5.466250e-10,2.704688e-02
5.506250e-10,2.745313e-02
5.546250e-10,2.637500e-02
5.586250e-10,2.709375e-02
5.626250e-10,2.654688e-02
5.666250e-10,2.598438e-02
5.706250e-10,2.507813e-02
5.746250e-10,2.510938e-02
5.786250e-10,2.440625e-02
5.826250e-10,2.406250e-02
5.866250e-10,2.400000e-02
5.906250e-10,2.389063e-02
5.946250e-10,2.335938e-02
5.986250e-10,2.260938e-02
6.026250e-10,2.228125e-02
6.066250e-10,2.223438e-02
6.106250e-10,2.145313e-02
6.146250e-10,2.153125e-02
6.186250e-10,2.131250e-02
6.226250e-10,2.106250e-02
6.266250e-10,1.948438e-02
6.306250e-10,1.979688e-02
6.346250e-10,1.865625e-02
6.386250e-10,1.929688e-02
6.426250e-10,1.865625e-02
6.466250e-10,1.793750e-02
6.506250e-10,1.687500e-02
6.546250e-10,1.681250e-02
6.586250e-10,1.592188e-02
6.626250e-10,1.540625e-02
6.666250e-10,1.523438e-02
6.706250e-10,1.500000e-02
6.746250e-10,1.435938e-02
6.786250e-10,1.350000e-02
6.826250e-10,1.309375e-02
6.866250e-10,1.296875e-02
6.906250e-10,1.215625e-02
6.946250e-10,1.223438e-02
6.986250e-10,1.206250e-02
7.026250e-10,1.178125e-02
7.066250e-10,1.028125e-02
7.106250e-10,1.064063e-02
7.146250e-10,9.625000e-03
7.186250e-10,1.043750e-02
7.226250e-10,9.968750e-03
7.266250e-10,9.468750e-03
7.306250e-10,8.593750e-03
7.346250e-10,8.812500e-03
7.386250e-10,8.171875e-03
7.426250e-10,7.921875e-03
7.466250e-10,8.093750e-03
7.506250e-10,8.187500e-03
7.546250e-10,7.921875e-03
7.586250e-10,7.406250e-03
7.626250e-10,7.375000e-03
7.666250e-10,7.656250e-03
7.706250e-10,7.250000e-03
7.746250e-10,7.765625e-03
7.786250e-10,8.000000e-03
7.826250e-10,8.093750e-03
7.866250e-10,7.031250e-03
7.906250e-10,7.765625e-03
7.946250e-10,7.109375e-03
7.986250e-10,8.343750e-03
8.026250e-10,8.250000e-03
8.066250e-10,8.140625e-03
8.106250e-10,7.593750e-03
8.146250e-10,8.093750e-03
8.186250e-10,7.750000e-03
8.226250e-10,7.796875e-03
8.266250e-10,8.265625e-03
8.306250e-10,8.515625e-03
8.346250e-10,8.484375e-03
8.386250e-10,8.125000e-03
8.426250e-10,8.203125e-03
8.466250e-10,8.656250e-03
8.506250e-10,8.343750e-03
8.546250e-10,8.953125e-03
8.586250e-10,9.218750e-03
8.626250e-10,9.312500e-03
8.666250e-10,8.265625e-03
8.706250e-10,8.937500e-03
8.746250e-10,8.187500e-03
8.786250e-10,9.390625e-03
8.826250e-10,9.187500e-03
8.866250e-10,8.968750e-03
8.906250e-10,8.312500e-03
8.946250e-10,8.625000e-03
8.986250e-10,8.156250e-03
9.026250e-10,8.062500e-03
9.066250e-10,8.375000e-03
9.106250e-10,8.375000e-03
9.146250e-10,8.156250e-03
9.186250e-10,7.640625e-03
9.226250e-10,7.484375e-03
9.266250e-10,7.796875e-03
9.306250e-10,7.328125e-03
9.346250e-10,7.765625e-03
9.386250e-10,7.828125e-03
9.426250e-10,7.796875e-03
9.466250e-10,6.609375e-03
9.506250e-10,7.171875e-03
9.546250e-10,6.265625e-03
9.586250e-10,7.359375e-03
9.626250e-10,7.078125e-03
9.666250e-10,6.765625e-03
9.706250e-10,6.078125e-03
9.746250e-10,6.343750e-03
9.786250e-10,5.859375e-03
9.826250e-10,5.781250e-03
9.866250e-10,6.125000e-03
9.906250e-10,6.109375e-03
9.946250e-10,5.921875e-03
9.986250e-10,5.468750e-03
1.002625e-09,5.343750e-03
1.006625e-09,5.750000e-03
1.010625e-09,5.375000e-03
1.014625e-09,5.890625e-03
1.018625e-09,6.062500e-03
1.022625e-09,6.156250e-03
1.026625e-09,5.109375e-03
1.030625e-09,5.828125e-03
1.034625e-09,5.031250e-03
1.038625e-09,6.250000e-03
1.042625e-09,6.093750e-03
1.046625e-09,5.906250e-03
1.050625e-09,5.343750e-03
1.054625e-09,5.750000e-03
1.058625e-09,5.390625e-03
1.062625e-09,5.437500e-03
1.066625e-09,5.890625e-03
1.070625e-09,6.000000e-03
1.074625e-09,5.875000e-03
1.078625e-09,5.515625e-03
1.082625e-09,5.484375e-03
1.086625e-09,5.937500e-03
1.090625e-09,5.609375e-03
1.094625e-09,6.171875e-03
1.098625e-09,6.375000e-03
1.102625e-09,6.515625e-03
1.106625e-09,5.500000e-03
1.110625e-09,6.265625e-03
1.114625e-09,5.468750e-03
1.118625e-09,6.640625e-03
1.122625e-09,6.468750e-03
1.126625e-09,6.250000e-03
1.130625e-09,5.656250e-03
1.134625e-09,6.046875e-03
1.138625e-09,5.656250e-03
1.142625e-09,5.656250e-03
1.146625e-09,6.062500e-03
1.150625e-09,6.171875e-03
1.154625e-09,5.984375e-03
1.158625e-09,5.578125e-03
1.162625e-09,5.531250e-03
1.166625e-09,5.937500e-03
1.170625e-09,5.562500e-03
1.174625e-09,6.109375e-03
1.178625e-09,6.312500e-03
1.182625e-09,6.453125e-03
1.186625e-09,5.390625e-03
1.190625e-09,6.187500e-03
1.194625e-09,5.390625e-03
1.198625e-09,6.593750e-03
1.202625e-09,6.421875e-03
1.206625e-09,6.265625e-03
1.210625e-09,5.703125e-03
1.214625e-09,6.140625e-03
1.218625e-09,5.796875e-03
1.222625e-09,5.859375e-03
1.226625e-09,6.328125e-03
1.230625e-09,6.546875e-03
1.234625e-09,6.437500e-03
1.238625e-09,6.125000e-03
1.242625e-09,6.171875e-03
1.246625e-09,6.671875e-03
1.250625e-09,6.375000e-03
1.254625e-09,7.046875e-03
1.258625e-09,7.343750e-03
1.262625e-09,7.609375e-03
1.266625e-09,6.593750e-03
1.270625e-09,7.500000e-03
1.274625e-09,6.796875e-03
1.278625e-09,8.093750e-03
1.282625e-09,8.000000e-03
1.286625e-09,7.890625e-03
1.290625e-09,7.390625e-03
1.294625e-09,7.890625e-03
1.298625e-09,7.593750e-03
1.302625e-09,7.687500e-03
1.306625e-09,8.171875e-03
1.310625e-09,8.437500e-03
1.314625e-09,8.328125e-03
1.318625e-09,8.000000e-03
1.322625e-09,8.046875e-03
1.326625e-09,8.515625e-03
1.330625e-09,8.187500e-03
1.334625e-09,8.828125e-03
1.338625e-09,9.062500e-03
1.342625e-09,9.296875e-03
1.346625e-09,8.156250e-03
1.350625e-09,8.984375e-03
1.354625e-09,8.187500e-03
1.358625e-09,9.406250e-03
1.362625e-09,9.218750e-03
1.366625e-09,9.015625e-03
1.370625e-09,8.406250e-03
1.374625e-09,8.812500e-03
1.378625e-09,8.390625e-03
1.382625e-09,8.390625e-03
1.386625e-09,8.781250e-03
1.390625e-09,8.953125e-03
1.394625e-09,8.734375e-03
1.398625e-09,8.312500e-03
1.402625e-09,8.281250e-03
1.406625e-09,8.671875e-03
1.410625e-09,8.265625e-03
1.414625e-09,8.843750e-03
1.418625e-09,9.031250e-03
1.422625e-09,9.218750e-03
1.426625e-09,8.031250e-03
1.430625e-09,8.828125e-03
1.434625e-09,8.031250e-03
1.438625e-09,9.250000e-03
1.442625e-09,9.062500e-03
1.446625e-09,8.875000e-03
1.450625e-09,8.296875e-03
1.454625e-09,8.718750e-03
1.458625e-09,8.359375e-03
1.462625e-09,8.406250e-03
1.466625e-09,8.859375e-03
1.470625e-09,9.109375e-03
1.474625e-09,8.953125e-03
1.478625e-09,8.609375e-03
1.482625e-09,8.671875e-03
1.486625e-09,9.156250e-03
1.490625e-09,8.812500e-03
1.494625e-09,9.500000e-03
1.498625e-09,9.765625e-03
1.502625e-09,1.004688e-02
1.506625e-09,8.921875e-03
1.510625e-09,9.812500e-03
1.514625e-09,9.078125e-03
1.518625e-09,1.035938e-02
1.522625e-09,1.023438e-02
1.526625e-09,1.009375e-02
1.530625e-09,9.562500e-03
1.534625e-09,1.001563e-02
1.538625e-09,9.671875e-03
1.542625e-09,9.718750e-03
1.546625e-09,1.017188e-02
1.550625e-09,1.040625e-02
1.554625e-09,1.021875e-02
1.558625e-09,9.828125e-03
1.562625e-09,9.843750e-03
1.566625e-09,1.025000e-02
1.570625e-09,9.828125e-03
1.574625e-09,1.040625e-02
1.578625e-09,1.057813e-02
1.582625e-09,1.075000e-02
1.586625e-09,9.484375e-03
1.590625e-09,1.023438e-02
1.594625e-09,9.359375e-03
1.598625e-09,1.048438e-02
1.602625e-09,1.018750e-02
1.606625e-09,9.890625e-03
1.610625e-09,9.171875e-03
1.614625e-09,9.468750e-03
1.618625e-09,8.937500e-03
1.622625e-09,8.812500e-03
1.626625e-09,9.078125e-03
1.630625e-09,9.140625e-03
1.634625e-09,8.796875e-03
1.638625e-09,8.250000e-03
1.642625e-09,8.093750e-03
1.646625e-09,8.343750e-03
1.650625e-09,7.781250e-03
1.654625e-09,8.218750e-03
1.658625e-09,8.265625e-03
1.662625e-09,8.312500e-03
1.666625e-09,6.937500e-03
1.670625e-09,7.593750e-03
1.674625e-09,6.625000e-03
1.678625e-09,7.687500e-03
1.682625e-09,7.343750e-03
1.686625e-09,6.984375e-03
1.690625e-09,6.250000e-03
1.694625e-09,6.500000e-03
1.698625e-09,5.968750e-03
1.702625e-09,5.843750e-03
1.706625e-09,6.125000e-03
1.710625e-09,6.203125e-03
1.714625e-09,5.890625e-03
1.718625e-09,5.375000e-03
1.722625e-09,5.265625e-03
1.726625e-09,5.562500e-03
1.730625e-09,5.062500e-03
1.734625e-09,5.562500e-03
1.738625e-09,5.687500e-03
1.742625e-09,5.796875e-03
1.746625e-09,4.484375e-03
1.750625e-09,5.218750e-03
1.754625e-09,4.328125e-03
1.758625e-09,5.453125e-03
