Measurements-streak-laser/Photodiode-on-Tek-12bit-4GHz/Tek000_ch1_20190613133028752.csv

Model,MSO64
Waveform Type,ANALOG
Horizontal Units,s
Sample Interval,4.000000e-12
Record Length,1000
Zero Index,310.953125
Vertical Units,V

TIME,CH1
-1.243813e-09,4.734375e-03
-1.239813e-09,5.593750e-03
-1.235813e-09,5.031250e-03
-1.231812e-09,4.484375e-03
-1.227812e-09,3.531250e-03
-1.223812e-09,3.609375e-03
-1.219812e-09,2.875000e-03
-1.215812e-09,2.562500e-03
-1.211812e-09,2.656250e-03
-1.207812e-09,2.562500e-03
-1.203812e-09,2.078125e-03
-1.199812e-09,1.406250e-03
-1.195813e-09,1.171875e-03
-1.191813e-09,1.343750e-03
-1.187813e-09,7.187500e-04
-1.183813e-09,1.140625e-03
-1.179813e-09,1.156250e-03
-1.175813e-09,1.218750e-03
-1.171812e-09,-1.406250e-04
-1.167812e-09,5.625000e-04
-1.163812e-09,-3.437500e-04
-1.159812e-09,7.968750e-04
-1.155812e-09,5.468750e-04
-1.151812e-09,3.125000e-04
-1.147812e-09,-2.968750e-04
-1.143812e-09,1.250000e-04
-1.139812e-09,-2.500000e-04
-1.135813e-09,-1.875000e-04
-1.131813e-09,2.812500e-04
-1.127813e-09,5.781250e-04
-1.123813e-09,4.843750e-04
-1.119813e-09,2.031250e-04
-1.115813e-09,3.437500e-04
-1.111812e-09,9.062500e-04
-1.107812e-09,6.718750e-04
-1.103812e-09,1.453125e-03
-1.099812e-09,1.859375e-03
-1.095812e-09,2.281250e-03
-1.091812e-09,1.281250e-03
-1.087812e-09,2.312500e-03
-1.083812e-09,1.750000e-03
-1.079812e-09,3.203125e-03
-1.075813e-09,3.250000e-03
-1.071813e-09,3.296875e-03
-1.067813e-09,2.953125e-03
-1.063813e-09,3.625000e-03
-1.059813e-09,3.484375e-03
-1.055813e-09,3.750000e-03
-1.051812e-09,4.406250e-03
-1.047812e-09,4.875000e-03
-1.043812e-09,4.937500e-03
-1.039812e-09,4.796875e-03
-1.035812e-09,5.046875e-03
-1.031812e-09,5.703125e-03
-1.027812e-09,5.546875e-03
-1.023812e-09,6.390625e-03
-1.019812e-09,6.828125e-03
-1.015813e-09,7.250000e-03
-1.011813e-09,6.265625e-03
-1.007813e-09,7.281250e-03
-1.003813e-09,6.671875e-03
-9.998125e-10,8.078125e-03
-9.958125e-10,8.062500e-03
-9.918125e-10,8.046875e-03
-9.878125e-10,7.609375e-03
-9.838125e-10,8.156250e-03
-9.798125e-10,7.906250e-03
-9.758125e-10,8.031250e-03
-9.718125e-10,8.562500e-03
-9.678125e-10,8.875000e-03
-9.638125e-10,8.781250e-03
-9.598125e-10,8.468750e-03
-9.558125e-10,8.546875e-03
-9.518125e-10,9.015625e-03
-9.478125e-10,8.671875e-03
-9.438125e-10,9.312500e-03
-9.398125e-10,9.546875e-03
-9.358125e-10,9.781250e-03
-9.318125e-10,8.578125e-03
-9.278125e-10,9.390625e-03
-9.238125e-10,8.562500e-03
-9.198125e-10,9.718750e-03
-9.158125e-10,9.484375e-03
-9.118125e-10,9.234375e-03
-9.078125e-10,8.578125e-03
-9.038125e-10,8.921875e-03
-8.998125e-10,8.453125e-03
-8.958125e-10,8.375000e-03
-8.918125e-10,8.687500e-03
-8.878125e-10,8.812500e-03
-8.838125e-10,8.515625e-03
-8.798125e-10,8.000000e-03
-8.758125e-10,7.890625e-03
-8.718125e-10,8.171875e-03
-8.678125e-10,7.656250e-03
-8.638125e-10,8.140625e-03
-8.598125e-10,8.218750e-03
-8.558125e-10,8.296875e-03
-8.518125e-10,7.000000e-03
-8.478125e-10,7.687500e-03
-8.438125e-10,6.765625e-03
-8.398125e-10,7.687500e-03
-8.358125e-10,7.421875e-03
-8.318125e-10,7.093750e-03
-8.278125e-10,6.437500e-03
-8.238125e-10,6.734375e-03
-8.198125e-10,6.234375e-03
-8.158125e-10,6.187500e-03
-8.118125e-10,6.515625e-03
-8.078125e-10,6.656250e-03
-8.038125e-10,6.437500e-03
-7.998125e-10,5.984375e-03
-7.958125e-10,5.953125e-03
-7.918125e-10,6.328125e-03
-7.878125e-10,5.921875e-03
-7.838125e-10,6.531250e-03
-7.798125e-10,6.765625e-03
-7.758125e-10,7.000000e-03
-7.718125e-10,5.953125e-03
-7.678125e-10,6.828125e-03
-7.638125e-10,6.093750e-03
-7.598125e-10,7.093750e-03
-7.558125e-10,7.125000e-03
-7.518125e-10,7.046875e-03
-7.478125e-10,6.687500e-03
-7.438125e-10,7.187500e-03
-7.398125e-10,6.906250e-03
-7.358125e-10,7.187500e-03
-7.318125e-10,7.734375e-03
-7.278125e-10,8.078125e-03
-7.238125e-10,8.234375e-03
-7.198125e-10,7.984375e-03
-7.158125e-10,8.140625e-03
-7.118125e-10,8.703125e-03
-7.078125e-10,8.515625e-03
-7.038125e-10,9.281250e-03
-6.998125e-10,9.687500e-03
-6.958125e-10,1.004688e-02
-6.918125e-10,9.125000e-03
-6.878125e-10,1.012500e-02
-6.838125e-10,9.531250e-03
-6.798125e-10,1.050000e-02
-6.758125e-10,1.059375e-02
-6.718125e-10,1.057813e-02
-6.678125e-10,1.021875e-02
-6.638125e-10,1.060938e-02
-6.598125e-10,1.017188e-02
-6.558125e-10,1.042188e-02
-6.518125e-10,1.079688e-02
-6.478125e-10,1.089063e-02
-6.438125e-10,1.101563e-02
-6.398125e-10,1.051563e-02
-6.358125e-10,1.037500e-02
-6.318125e-10,1.064063e-02
-6.278125e-10,1.021875e-02
-6.238125e-10,1.062500e-02
-6.198125e-10,1.070313e-02
-6.158125e-10,1.065625e-02
-6.118125e-10,9.281250e-03
-6.078125e-10,9.906250e-03
-6.038125e-10,9.062500e-03
-5.998125e-10,9.562500e-03
-5.958125e-10,9.296875e-03
-5.918125e-10,8.906250e-03
-5.878125e-10,8.156250e-03
-5.838125e-10,8.093750e-03
-5.798125e-10,7.234375e-03
-5.758125e-10,7.125000e-03
-5.718125e-10,7.171875e-03
-5.678125e-10,6.859375e-03
-5.638125e-10,6.750000e-03
-5.598125e-10,5.953125e-03
-5.558125e-10,5.562500e-03
-5.518125e-10,5.593750e-03
-5.478125e-10,5.031250e-03
-5.438125e-10,5.281250e-03
-5.398125e-10,5.187500e-03
-5.358125e-10,5.031250e-03
-5.318125e-10,3.546875e-03
-5.278125e-10,4.125000e-03
-5.238125e-10,3.421875e-03
-5.198125e-10,3.968750e-03
-5.158125e-10,3.890625e-03
-5.118125e-10,3.578125e-03
-5.078125e-10,3.000000e-03
-5.038125e-10,3.140625e-03
-4.998125e-10,2.562500e-03
-4.958125e-10,2.671875e-03
-4.918125e-10,3.078125e-03
-4.878125e-10,3.062500e-03
-4.838125e-10,3.218750e-03
-4.798125e-10,2.828125e-03
-4.758125e-10,2.890625e-03
-4.718125e-10,3.375000e-03
-4.678125e-10,3.156250e-03
-4.638125e-10,3.921875e-03
-4.598125e-10,4.171875e-03
-4.558125e-10,4.437500e-03
-4.518125e-10,3.375000e-03
-4.478125e-10,4.250000e-03
-4.438125e-10,3.968750e-03
-4.398125e-10,4.890625e-03
-4.358125e-10,5.250000e-03
-4.318125e-10,5.156250e-03
-4.278125e-10,4.843750e-03
-4.238125e-10,5.265625e-03
-4.198125e-10,5.031250e-03
-4.158125e-10,5.187500e-03
-4.118125e-10,5.796875e-03
-4.078125e-10,5.875000e-03
-4.038125e-10,5.953125e-03
-3.998125e-10,5.609375e-03
-3.958125e-10,5.765625e-03
-3.918125e-10,6.250000e-03
-3.878125e-10,5.812500e-03
-3.838125e-10,6.484375e-03
-3.798125e-10,6.578125e-03
-3.758125e-10,6.625000e-03
-3.718125e-10,5.375000e-03
-3.678125e-10,5.843750e-03
-3.638125e-10,5.265625e-03
-3.598125e-10,5.906250e-03
-3.558125e-10,5.921875e-03
-3.518125e-10,5.421875e-03
-3.478125e-10,4.750000e-03
-3.438125e-10,4.828125e-03
-3.398125e-10,4.359375e-03
-3.358125e-10,4.000000e-03
-3.318125e-10,4.250000e-03
-3.278125e-10,4.015625e-03
-3.238125e-10,3.625000e-03
-3.198125e-10,3.062500e-03
-3.158125e-10,3.000000e-03
-3.118125e-10,3.296875e-03
-3.078125e-10,2.593750e-03
-3.038125e-10,3.046875e-03
-2.998125e-10,3.140625e-03
-2.958125e-10,3.093750e-03
-2.918125e-10,1.906250e-03
-2.878125e-10,2.312500e-03
-2.838125e-10,1.796875e-03
-2.798125e-10,2.609375e-03
-2.758125e-10,2.750000e-03
-2.718125e-10,2.500000e-03
-2.678125e-10,2.234375e-03
-2.638125e-10,2.671875e-03
-2.598125e-10,2.609375e-03
-2.558125e-10,2.640625e-03
-2.518125e-10,3.312500e-03
-2.478125e-10,3.609375e-03
-2.438125e-10,3.687500e-03
-2.398125e-10,3.796875e-03
-2.358125e-10,4.281250e-03
-2.318125e-10,5.140625e-03
-2.278125e-10,5.109375e-03
-2.238125e-10,6.078125e-03
-2.198125e-10,6.828125e-03
-2.158125e-10,7.359375e-03
-2.118125e-10,6.812500e-03
-2.078125e-10,7.734375e-03
-2.038125e-10,7.609375e-03
-1.998125e-10,8.953125e-03
-1.958125e-10,9.406250e-03
-1.918125e-10,9.531250e-03
-1.878125e-10,9.640625e-03
-1.838125e-10,1.031250e-02
-1.798125e-10,1.034375e-02
-1.758125e-10,1.051563e-02
-1.718125e-10,1.110938e-02
-1.678125e-10,1.131250e-02
-1.638125e-10,1.120313e-02
-1.598125e-10,1.115625e-02
-1.558125e-10,1.121875e-02
-1.518125e-10,1.156250e-02
-1.478125e-10,1.110938e-02
-1.438125e-10,1.148438e-02
-1.398125e-10,1.157813e-02
-1.358125e-10,1.143750e-02
-1.318125e-10,1.025000e-02
-1.278125e-10,1.040625e-02
-1.238125e-10,9.343750e-03
-1.198125e-10,9.953125e-03
-1.158125e-10,9.406250e-03
-1.118125e-10,8.750000e-03
-1.078125e-10,8.046875e-03
-1.038125e-10,7.953125e-03
-9.981250e-11,7.218750e-03
-9.581250e-11,6.796875e-03
-9.181250e-11,6.734375e-03
-8.781250e-11,6.500000e-03
-8.381250e-11,6.000000e-03
-7.981250e-11,5.765625e-03
-7.581250e-11,5.718750e-03
-7.181250e-11,6.015625e-03
-6.781250e-11,5.859375e-03
-6.381250e-11,6.765625e-03
-5.981250e-11,7.500000e-03
-5.581250e-11,8.421875e-03
-5.181250e-11,8.531250e-03
-4.781250e-11,1.017188e-02
-4.381250e-11,1.081250e-02
-3.981250e-11,1.357813e-02
-3.581250e-11,1.528125e-02
-3.181250e-11,1.735938e-02
-2.781250e-11,1.967188e-02
-2.381250e-11,2.293750e-02
-1.981250e-11,2.585938e-02
-1.581250e-11,2.945313e-02
-1.181250e-11,3.371875e-02
-7.812500e-12,3.825000e-02
-3.812500e-12,4.268750e-02
1.875000e-13,4.775000e-02
4.187500e-12,5.328125e-02
8.187500e-12,5.934375e-02
1.218750e-11,6.537500e-02
1.618750e-11,7.273438e-02
2.018750e-11,8.010938e-02
2.418750e-11,8.804688e-02
2.818750e-11,9.531250e-02
3.218750e-11,1.042500e-01
3.618750e-11,1.122813e-01
4.018750e-11,1.226406e-01
4.418750e-11,1.318906e-01
4.818750e-11,1.417969e-01
5.218750e-11,1.518125e-01
5.618750e-11,1.627813e-01
6.018750e-11,1.734375e-01
6.418750e-11,1.846406e-01
6.818750e-11,1.964688e-01
7.218750e-11,2.085469e-01
7.618750e-11,2.200781e-01
8.018750e-11,2.321406e-01
8.418750e-11,2.444063e-01
8.818750e-11,2.568906e-01
9.218750e-11,2.691563e-01
9.618750e-11,2.823125e-01
1.001875e-10,2.950469e-01
1.041875e-10,3.081250e-01
1.081875e-10,3.199219e-01
1.121875e-10,3.330156e-01
1.161875e-10,3.446719e-01
1.201875e-10,3.581094e-01
1.241875e-10,3.698438e-01
1.281875e-10,3.818906e-01
1.321875e-10,3.932969e-01
1.361875e-10,4.050156e-01
1.401875e-10,4.160000e-01
1.441875e-10,4.268438e-01
1.481875e-10,4.377344e-01
1.521875e-10,4.484219e-01
1.561875e-10,4.577031e-01
1.601875e-10,4.669531e-01
1.641875e-10,4.758906e-01
1.681875e-10,4.844531e-01
1.721875e-10,4.922969e-01
1.761875e-10,5.003594e-01
1.801875e-10,5.073594e-01
1.841875e-10,5.143438e-01
1.881875e-10,5.194375e-01
1.921875e-10,5.254844e-01
1.961875e-10,5.296094e-01
2.001875e-10,5.349844e-01
2.041875e-10,5.382500e-01
2.081875e-10,5.415625e-01
2.121875e-10,5.437969e-01
2.161875e-10,5.460625e-01
2.201875e-10,5.474688e-01
2.241875e-10,5.484688e-01
2.281875e-10,5.492188e-01
2.321875e-10,5.497656e-01
2.361875e-10,5.486406e-01
2.401875e-10,5.473750e-01
2.441875e-10,5.458906e-01
2.481875e-10,5.440156e-01
2.521875e-10,5.414375e-01
2.561875e-10,5.390313e-01
2.601875e-10,5.356563e-01
2.641875e-10,5.324688e-01
2.681875e-10,5.274219e-01
2.721875e-10,5.236875e-01
2.761875e-10,5.182500e-01
2.801875e-10,5.140938e-01
2.841875e-10,5.081719e-01
2.881875e-10,5.025313e-01
2.921875e-10,4.961406e-01
2.961875e-10,4.901719e-01
3.001875e-10,4.837031e-01
3.041875e-10,4.771250e-01
3.081875e-10,4.705625e-01
3.121875e-10,4.642031e-01
3.161875e-10,4.566094e-01
3.201875e-10,4.491406e-01
3.241875e-10,4.419219e-01
3.281875e-10,4.347188e-01
3.321875e-10,4.270625e-01
3.361875e-10,4.199688e-01
3.401875e-10,4.123438e-01
3.441875e-10,4.052813e-01
3.481875e-10,3.965938e-01
3.521875e-10,3.897188e-01
3.561875e-10,3.815000e-01
3.601875e-10,3.747344e-01
3.641875e-10,3.666406e-01
3.681875e-10,3.590625e-01
3.721875e-10,3.509844e-01
3.761875e-10,3.437344e-01
3.801875e-10,3.362500e-01
3.841875e-10,3.288594e-01
3.881875e-10,3.216563e-01
3.921875e-10,3.148281e-01
3.961875e-10,3.071563e-01
4.001875e-10,2.997188e-01
4.041875e-10,2.926250e-01
4.081875e-10,2.858438e-01
4.121875e-10,2.785938e-01
4.161875e-10,2.720938e-01
4.201875e-10,2.652813e-01
4.241875e-10,2.590313e-01
4.281875e-10,2.512500e-01
4.321875e-10,2.455156e-01
4.361875e-10,2.384844e-01
4.401875e-10,2.329063e-01
4.441875e-10,2.261875e-01
4.481875e-10,2.199531e-01
4.521875e-10,2.132656e-01
4.561875e-10,2.075313e-01
4.601875e-10,2.015781e-01
4.641875e-10,1.957969e-01
4.681875e-10,1.901563e-01
4.721875e-10,1.849375e-01
4.761875e-10,1.791250e-01
4.801875e-10,1.734688e-01
4.841875e-10,1.681563e-01
4.881875e-10,1.632969e-01
4.921875e-10,1.579063e-01
4.961875e-10,1.532813e-01
5.001875e-10,1.485313e-01
5.041875e-10,1.442344e-01
5.081875e-10,1.385781e-01
5.121875e-10,1.349844e-01
5.161875e-10,1.301875e-01
5.201875e-10,1.268281e-01
5.241875e-10,1.225469e-01
5.281875e-10,1.185469e-01
5.321875e-10,1.143438e-01
5.361875e-10,1.110313e-01
5.401875e-10,1.074844e-01
5.441875e-10,1.042500e-01
5.481875e-10,1.011563e-01
5.521875e-10,9.851563e-02
5.561875e-10,9.546875e-02
5.601875e-10,9.251563e-02
5.641875e-10,8.995313e-02
5.681875e-10,8.782813e-02
5.721875e-10,8.520313e-02
5.761875e-10,8.326563e-02
5.801875e-10,8.135938e-02
5.841875e-10,7.971875e-02
5.881875e-10,7.685938e-02
5.921875e-10,7.592188e-02
5.961875e-10,7.384375e-02
6.001875e-10,7.320313e-02
6.041875e-10,7.162500e-02
6.081875e-10,7.006250e-02
6.121875e-10,6.837500e-02
6.161875e-10,6.757813e-02
6.201875e-10,6.621875e-02
6.241875e-10,6.518750e-02
6.281875e-10,6.428125e-02
6.321875e-10,6.368750e-02
6.361875e-10,6.267188e-02
6.401875e-10,6.150000e-02
6.441875e-10,6.078125e-02
6.481875e-10,6.018750e-02
6.521875e-10,5.904688e-02
6.561875e-10,5.850000e-02
6.601875e-10,5.787500e-02
6.641875e-10,5.720313e-02
6.681875e-10,5.537500e-02
6.721875e-10,5.515625e-02
6.761875e-10,5.384375e-02
6.801875e-10,5.384375e-02
6.841875e-10,5.276563e-02
6.881875e-10,5.150000e-02
6.921875e-10,4.996875e-02
6.961875e-10,4.939063e-02
7.001875e-10,4.793750e-02
7.041875e-10,4.670313e-02
7.081875e-10,4.571875e-02
7.121875e-10,4.487500e-02
7.161875e-10,4.357813e-02
7.201875e-10,4.195313e-02
7.241875e-10,4.087500e-02
7.281875e-10,3.975000e-02
7.321875e-10,3.810938e-02
7.361875e-10,3.709375e-02
7.401875e-10,3.604688e-02
7.441875e-10,3.465625e-02
7.481875e-10,3.239063e-02
7.521875e-10,3.159375e-02
7.561875e-10,2.984375e-02
7.601875e-10,2.948438e-02
7.641875e-10,2.803125e-02
7.681875e-10,2.653125e-02
7.721875e-10,2.465625e-02
7.761875e-10,2.395313e-02
7.801875e-10,2.231250e-02
7.841875e-10,2.103125e-02
7.881875e-10,2.017188e-02
7.921875e-10,1.945313e-02
7.961875e-10,1.846875e-02
8.001875e-10,1.712500e-02
8.041875e-10,1.645313e-02
8.081875e-10,1.592188e-02
8.121875e-10,1.493750e-02
8.161875e-10,1.473438e-02
8.201875e-10,1.454688e-02
8.241875e-10,1.396875e-02
8.281875e-10,1.278125e-02
8.321875e-10,1.296875e-02
8.361875e-10,1.226563e-02
8.401875e-10,1.323438e-02
8.441875e-10,1.307813e-02
8.481875e-10,1.296875e-02
8.521875e-10,1.243750e-02
8.561875e-10,1.304688e-02
8.601875e-10,1.282813e-02
8.641875e-10,1.301563e-02
8.681875e-10,1.368750e-02
8.721875e-10,1.421875e-02
8.761875e-10,1.470313e-02
8.801875e-10,1.475000e-02
8.841875e-10,1.532813e-02
8.881875e-10,1.621875e-02
8.921875e-10,1.654688e-02
8.961875e-10,1.760938e-02
9.001875e-10,1.850000e-02
9.041875e-10,1.898438e-02
9.081875e-10,1.882813e-02
9.121875e-10,1.984375e-02
9.161875e-10,1.984375e-02
9.201875e-10,2.162500e-02
9.241875e-10,2.209375e-02
9.281875e-10,2.248438e-02
9.321875e-10,2.239063e-02
9.361875e-10,2.318750e-02
9.401875e-10,2.323438e-02
9.441875e-10,2.357813e-02
9.481875e-10,2.432813e-02
9.521875e-10,2.453125e-02
9.561875e-10,2.481250e-02
9.601875e-10,2.457813e-02
9.641875e-10,2.462500e-02
9.681875e-10,2.515625e-02
9.721875e-10,2.495313e-02
9.761875e-10,2.537500e-02
9.801875e-10,2.546875e-02
9.841875e-10,2.523438e-02
9.881875e-10,2.431250e-02
9.921875e-10,2.453125e-02
9.961875e-10,2.353125e-02
1.000188e-09,2.442188e-02
1.004188e-09,2.398438e-02
1.008188e-09,2.340625e-02
1.012188e-09,2.242188e-02
1.016188e-09,2.228125e-02
1.020187e-09,2.146875e-02
1.024187e-09,2.101563e-02
1.028187e-09,2.095313e-02
1.032187e-09,2.026563e-02
1.036187e-09,1.978125e-02
1.040187e-09,1.889063e-02
1.044187e-09,1.821875e-02
1.048187e-09,1.823438e-02
1.052187e-09,1.753125e-02
1.056188e-09,1.750000e-02
1.060188e-09,1.720313e-02
1.064188e-09,1.671875e-02
1.068188e-09,1.565625e-02
1.072188e-09,1.584375e-02
1.076188e-09,1.478125e-02
1.080187e-09,1.564063e-02
1.084187e-09,1.529688e-02
1.088187e-09,1.489063e-02
1.092187e-09,1.420313e-02
1.096187e-09,1.440625e-02
1.100187e-09,1.400000e-02
1.104187e-09,1.401563e-02
1.108187e-09,1.448438e-02
1.112187e-09,1.439063e-02
1.116187e-09,1.445313e-02
1.120188e-09,1.421875e-02
1.124188e-09,1.421875e-02
1.128188e-09,1.490625e-02
1.132188e-09,1.487500e-02
1.136188e-09,1.556250e-02
1.140187e-09,1.600000e-02
1.144187e-09,1.629688e-02
1.148187e-09,1.590625e-02
1.152187e-09,1.690625e-02
1.156187e-09,1.646875e-02
1.160187e-09,1.793750e-02
1.164187e-09,1.815625e-02
1.168187e-09,1.831250e-02
1.172187e-09,1.810938e-02
1.176187e-09,1.881250e-02
1.180188e-09,1.879688e-02
1.184188e-09,1.915625e-02
1.188188e-09,1.989063e-02
1.192188e-09,2.014063e-02
1.196188e-09,2.028125e-02
1.200187e-09,2.015625e-02
1.204187e-09,2.021875e-02
1.208187e-09,2.084375e-02
1.212187e-09,2.067188e-02
1.216187e-09,2.125000e-02
1.220187e-09,2.148438e-02
1.224187e-09,2.156250e-02
1.228187e-09,2.073438e-02
1.232187e-09,2.140625e-02
1.236187e-09,2.053125e-02
1.240188e-09,2.153125e-02
1.244188e-09,2.120313e-02
1.248188e-09,2.081250e-02
1.252188e-09,2.000000e-02
1.256188e-09,2.012500e-02
1.260187e-09,1.948438e-02
1.264187e-09,1.918750e-02
1.268187e-09,1.926563e-02
1.272187e-09,1.896875e-02
1.276187e-09,1.843750e-02
1.280187e-09,1.765625e-02
1.284187e-09,1.715625e-02
1.288187e-09,1.717188e-02
1.292187e-09,1.639063e-02
1.296187e-09,1.645313e-02
1.300188e-09,1.620313e-02
1.304188e-09,1.585938e-02
1.308188e-09,1.450000e-02
1.312188e-09,1.482813e-02
1.316188e-09,1.360938e-02
1.320187e-09,1.434375e-02
1.324187e-09,1.376563e-02
1.328187e-09,1.318750e-02
1.332187e-09,1.223438e-02
1.336187e-09,1.228125e-02
1.340187e-09,1.159375e-02
1.344187e-09,1.131250e-02
1.348187e-09,1.143750e-02
1.352187e-09,1.132813e-02
1.356187e-09,1.093750e-02
1.360188e-09,1.035938e-02
1.364188e-09,1.015625e-02
1.368188e-09,1.043750e-02
1.372188e-09,9.953125e-03
1.376188e-09,1.042188e-02
1.380187e-09,1.056250e-02
1.384187e-09,1.067188e-02
1.388187e-09,9.625000e-03
1.392187e-09,1.040625e-02
1.396187e-09,9.656250e-03
1.400187e-09,1.087500e-02
1.404187e-09,1.075000e-02
1.408187e-09,1.062500e-02
1.412187e-09,1.014063e-02
1.416187e-09,1.064063e-02
1.420188e-09,1.037500e-02
1.424188e-09,1.050000e-02
1.428188e-09,1.104688e-02
1.432188e-09,1.132813e-02
1.436188e-09,1.128125e-02
1.440187e-09,1.103125e-02
1.444187e-09,1.114063e-02
1.448187e-09,1.167188e-02
1.452187e-09,1.142188e-02
1.456187e-09,1.210938e-02
1.460187e-09,1.240625e-02
1.464187e-09,1.268750e-02
1.468187e-09,1.165625e-02
1.472187e-09,1.251563e-02
1.476187e-09,1.178125e-02
1.480188e-09,1.301563e-02
1.484188e-09,1.284375e-02
1.488188e-09,1.267188e-02
1.492188e-09,1.207813e-02
1.496188e-09,1.246875e-02
1.500187e-09,1.204688e-02
1.504187e-09,1.200000e-02
1.508187e-09,1.235938e-02
1.512187e-09,1.246875e-02
1.516187e-09,1.220313e-02
1.520187e-09,1.171875e-02
1.524187e-09,1.160938e-02
1.528187e-09,1.190625e-02
1.532187e-09,1.140625e-02
1.536187e-09,1.185938e-02
1.540188e-09,1.192188e-02
1.544188e-09,1.196875e-02
1.548188e-09,1.068750e-02
1.552188e-09,1.134375e-02
1.556188e-09,1.040625e-02
1.560187e-09,1.145313e-02
1.564187e-09,1.110938e-02
1.568187e-09,1.078125e-02
1.572187e-09,1.004688e-02
1.576187e-09,1.031250e-02
1.580187e-09,9.796875e-03
1.584187e-09,9.671875e-03
1.588187e-09,9.968750e-03
1.592187e-09,1.006250e-02
1.596187e-09,9.765625e-03
1.600188e-09,9.281250e-03
1.604188e-09,9.187500e-03
1.608188e-09,9.515625e-03
1.612188e-09,9.062500e-03
1.616188e-09,9.593750e-03
1.620187e-09,9.750000e-03
1.624187e-09,9.890625e-03
1.628187e-09,8.687500e-03
1.632187e-09,9.468750e-03
1.636187e-09,8.640625e-03
1.640187e-09,9.828125e-03
1.644187e-09,9.625000e-03
1.648187e-09,9.421875e-03
1.652187e-09,8.828125e-03
1.656187e-09,9.234375e-03
1.660188e-09,8.843750e-03
1.664188e-09,8.843750e-03
1.668188e-09,9.265625e-03
1.672188e-09,9.468750e-03
1.676188e-09,9.296875e-03
1.680187e-09,8.906250e-03
1.684187e-09,8.906250e-03
1.688187e-09,9.328125e-03
1.692187e-09,8.937500e-03
1.696187e-09,9.531250e-03
1.700187e-09,9.734375e-03
1.704187e-09,9.937500e-03
1.708187e-09,8.734375e-03
1.712187e-09,9.531250e-03
1.716187e-09,8.718750e-03
1.720188e-09,9.906250e-03
1.724188e-09,9.687500e-03
1.728188e-09,9.468750e-03
1.732188e-09,8.843750e-03
1.736188e-09,9.218750e-03
1.740187e-09,8.796875e-03
1.744187e-09,8.765625e-03
1.748187e-09,9.140625e-03
1.752187e-09,9.296875e-03
1.756187e-09,9.078125e-03
