Measurements-streak-laser/Photodiode-on-Tek-12bit-4GHz/Tek000_ch1_20190613132939310.csv

Model,MSO64
Waveform Type,ANALOG
Horizontal Units,s
Sample Interval,4.000000e-12
Record Length,1000
Zero Index,310.484375
Vertical Units,V

TIME,CH1
-1.241937e-09,6.234375e-03
-1.237937e-09,6.218750e-03
-1.233938e-09,6.203125e-03
-1.229938e-09,4.765625e-03
-1.225938e-09,5.359375e-03
-1.221938e-09,4.343750e-03
-1.217938e-09,5.343750e-03
-1.213937e-09,4.937500e-03
-1.209937e-09,4.546875e-03
-1.205937e-09,3.750000e-03
-1.201937e-09,3.984375e-03
-1.197937e-09,3.421875e-03
-1.193937e-09,3.265625e-03
-1.189937e-09,3.515625e-03
-1.185937e-09,3.593750e-03
-1.181937e-09,3.281250e-03
-1.177937e-09,2.781250e-03
-1.173938e-09,2.703125e-03
-1.169938e-09,3.031250e-03
-1.165938e-09,2.578125e-03
-1.161938e-09,3.140625e-03
-1.157938e-09,3.328125e-03
-1.153938e-09,3.531250e-03
-1.149937e-09,2.343750e-03
-1.145937e-09,3.187500e-03
-1.141937e-09,2.421875e-03
-1.137937e-09,3.703125e-03
-1.133937e-09,3.593750e-03
-1.129937e-09,3.484375e-03
-1.125937e-09,3.000000e-03
-1.121937e-09,3.531250e-03
-1.117937e-09,3.265625e-03
-1.113938e-09,3.421875e-03
-1.109938e-09,4.000000e-03
-1.105938e-09,4.375000e-03
-1.101938e-09,4.375000e-03
-1.097938e-09,4.156250e-03
-1.093938e-09,4.375000e-03
-1.089937e-09,4.984375e-03
-1.085937e-09,4.796875e-03
-1.081937e-09,5.625000e-03
-1.077937e-09,6.062500e-03
-1.073937e-09,6.484375e-03
-1.069937e-09,5.500000e-03
-1.065937e-09,6.531250e-03
-1.061937e-09,5.937500e-03
-1.057937e-09,7.375000e-03
-1.053938e-09,7.375000e-03
-1.049938e-09,7.390625e-03
-1.045938e-09,6.984375e-03
-1.041938e-09,7.578125e-03
-1.037938e-09,7.343750e-03
-1.033938e-09,7.515625e-03
-1.029937e-09,8.078125e-03
-1.025937e-09,8.437500e-03
-1.021937e-09,8.375000e-03
-1.017937e-09,8.078125e-03
-1.013937e-09,8.187500e-03
-1.009937e-09,8.687500e-03
-1.005937e-09,8.359375e-03
-1.001937e-09,9.031250e-03
-9.979375e-10,9.281250e-03
-9.939375e-10,9.500000e-03
-9.899375e-10,8.312500e-03
-9.859375e-10,9.125000e-03
-9.819375e-10,8.296875e-03
-9.779375e-10,9.468750e-03
-9.739375e-10,9.234375e-03
-9.699375e-10,8.984375e-03
-9.659375e-10,8.312500e-03
-9.619375e-10,8.640625e-03
-9.579375e-10,8.140625e-03
-9.539375e-10,8.046875e-03
-9.499375e-10,8.343750e-03
-9.459375e-10,8.437500e-03
-9.419375e-10,8.109375e-03
-9.379375e-10,7.578125e-03
-9.339375e-10,7.453125e-03
-9.299375e-10,7.718750e-03
-9.259375e-10,7.187500e-03
-9.219375e-10,7.656250e-03
-9.179375e-10,7.718750e-03
-9.139375e-10,7.781250e-03
-9.099375e-10,6.453125e-03
-9.059375e-10,7.125000e-03
-9.019375e-10,6.203125e-03
-8.979375e-10,7.250000e-03
-8.939375e-10,6.953125e-03
-8.899375e-10,6.640625e-03
-8.859375e-10,5.953125e-03
-8.819375e-10,6.265625e-03
-8.779375e-10,5.781250e-03
-8.739375e-10,5.734375e-03
-8.699375e-10,6.078125e-03
-8.659375e-10,6.234375e-03
-8.619375e-10,6.015625e-03
-8.579375e-10,5.593750e-03
-8.539375e-10,5.593750e-03
-8.499375e-10,6.000000e-03
-8.459375e-10,5.609375e-03
-8.419375e-10,6.250000e-03
-8.379375e-10,6.484375e-03
-8.339375e-10,6.734375e-03
-8.299375e-10,5.625000e-03
-8.259375e-10,6.500000e-03
-8.219375e-10,5.781250e-03
-8.179375e-10,7.000000e-03
-8.139375e-10,6.937500e-03
-8.099375e-10,6.843750e-03
-8.059375e-10,6.375000e-03
-8.019375e-10,6.890625e-03
-7.979375e-10,6.593750e-03
-7.939375e-10,6.750000e-03
-7.899375e-10,7.281250e-03
-7.859375e-10,7.609375e-03
-7.819375e-10,7.578125e-03
-7.779375e-10,7.296875e-03
-7.739375e-10,7.421875e-03
-7.699375e-10,7.937500e-03
-7.659375e-10,7.671875e-03
-7.619375e-10,8.390625e-03
-7.579375e-10,8.703125e-03
-7.539375e-10,9.000000e-03
-7.499375e-10,7.921875e-03
-7.459375e-10,8.812500e-03
-7.419375e-10,8.109375e-03
-7.379375e-10,9.281250e-03
-7.339375e-10,9.187500e-03
-7.299375e-10,9.046875e-03
-7.259375e-10,8.515625e-03
-7.219375e-10,8.921875e-03
-7.179375e-10,8.500000e-03
-7.139375e-10,8.562500e-03
-7.099375e-10,8.937500e-03
-7.059375e-10,9.093750e-03
-7.019375e-10,8.953125e-03
-6.979375e-10,8.484375e-03
-6.939375e-10,8.406250e-03
-6.899375e-10,8.734375e-03
-6.859375e-10,8.281250e-03
-6.819375e-10,8.781250e-03
-6.779375e-10,8.890625e-03
-6.739375e-10,8.968750e-03
-6.699375e-10,7.656250e-03
-6.659375e-10,8.359375e-03
-6.619375e-10,7.468750e-03
-6.579375e-10,8.421875e-03
-6.539375e-10,8.140625e-03
-6.499375e-10,7.828125e-03
-6.459375e-10,7.125000e-03
-6.419375e-10,7.343750e-03
-6.379375e-10,6.750000e-03
-6.339375e-10,6.671875e-03
-6.299375e-10,6.921875e-03
-6.259375e-10,6.921875e-03
-6.219375e-10,6.703125e-03
-6.179375e-10,6.140625e-03
-6.139375e-10,5.984375e-03
-6.099375e-10,6.234375e-03
-6.059375e-10,5.750000e-03
-6.019375e-10,6.218750e-03
-5.979375e-10,6.296875e-03
-5.939375e-10,6.375000e-03
-5.899375e-10,5.046875e-03
-5.859375e-10,5.765625e-03
-5.819375e-10,4.953125e-03
-5.779375e-10,5.953125e-03
-5.739375e-10,5.765625e-03
-5.699375e-10,5.515625e-03
-5.659375e-10,4.890625e-03
-5.619375e-10,5.187500e-03
-5.579375e-10,4.718750e-03
-5.539375e-10,4.718750e-03
-5.499375e-10,5.093750e-03
-5.459375e-10,5.203125e-03
-5.419375e-10,5.093750e-03
-5.379375e-10,4.656250e-03
-5.339375e-10,4.640625e-03
-5.299375e-10,5.031250e-03
-5.259375e-10,4.656250e-03
-5.219375e-10,5.265625e-03
-5.179375e-10,5.437500e-03
-5.139375e-10,5.625000e-03
-5.099375e-10,4.406250e-03
-5.059375e-10,5.187500e-03
-5.019375e-10,4.484375e-03
-4.979375e-10,5.562500e-03
-4.939375e-10,5.468750e-03
-4.899375e-10,5.250000e-03
-4.859375e-10,4.656250e-03
-4.819375e-10,5.015625e-03
-4.779375e-10,4.593750e-03
-4.739375e-10,4.593750e-03
-4.699375e-10,4.984375e-03
-4.659375e-10,5.093750e-03
-4.619375e-10,4.921875e-03
-4.579375e-10,4.484375e-03
-4.539375e-10,4.468750e-03
-4.499375e-10,4.843750e-03
-4.459375e-10,4.390625e-03
-4.419375e-10,4.968750e-03
-4.379375e-10,5.093750e-03
-4.339375e-10,5.218750e-03
-4.299375e-10,3.953125e-03
-4.259375e-10,4.640625e-03
-4.219375e-10,3.875000e-03
-4.179375e-10,4.906250e-03
-4.139375e-10,4.750000e-03
-4.099375e-10,4.453125e-03
-4.059375e-10,3.812500e-03
-4.019375e-10,4.140625e-03
-3.979375e-10,3.718750e-03
-3.939375e-10,3.625000e-03
-3.899375e-10,4.000000e-03
-3.859375e-10,4.109375e-03
-3.819375e-10,3.875000e-03
-3.779375e-10,3.453125e-03
-3.739375e-10,3.484375e-03
-3.699375e-10,3.890625e-03
-3.659375e-10,3.453125e-03
-3.619375e-10,4.062500e-03
-3.579375e-10,4.281250e-03
-3.539375e-10,4.468750e-03
-3.499375e-10,3.328125e-03
-3.459375e-10,4.078125e-03
-3.419375e-10,3.406250e-03
-3.379375e-10,4.578125e-03
-3.339375e-10,4.546875e-03
-3.299375e-10,4.390625e-03
-3.259375e-10,3.937500e-03
-3.219375e-10,4.406250e-03
-3.179375e-10,4.171875e-03
-3.139375e-10,4.234375e-03
-3.099375e-10,4.781250e-03
-3.059375e-10,5.062500e-03
-3.019375e-10,5.000000e-03
-2.979375e-10,4.781250e-03
-2.939375e-10,4.984375e-03
-2.899375e-10,5.562500e-03
-2.859375e-10,5.296875e-03
-2.819375e-10,6.062500e-03
-2.779375e-10,6.453125e-03
-2.739375e-10,6.796875e-03
-2.699375e-10,5.812500e-03
-2.659375e-10,6.687500e-03
-2.619375e-10,6.109375e-03
-2.579375e-10,7.406250e-03
-2.539375e-10,7.406250e-03
-2.499375e-10,7.343750e-03
-2.459375e-10,6.968750e-03
-2.419375e-10,7.484375e-03
-2.379375e-10,7.250000e-03
-2.339375e-10,7.343750e-03
-2.299375e-10,7.843750e-03
-2.259375e-10,8.093750e-03
-2.219375e-10,7.968750e-03
-2.179375e-10,7.734375e-03
-2.139375e-10,7.812500e-03
-2.099375e-10,8.281250e-03
-2.059375e-10,7.937500e-03
-2.019375e-10,8.546875e-03
-1.979375e-10,8.812500e-03
-1.939375e-10,9.015625e-03
-1.899375e-10,7.906250e-03
-1.859375e-10,8.640625e-03
-1.819375e-10,7.875000e-03
-1.779375e-10,9.031250e-03
-1.739375e-10,8.859375e-03
-1.699375e-10,8.671875e-03
-1.659375e-10,8.171875e-03
-1.619375e-10,8.578125e-03
-1.579375e-10,8.218750e-03
-1.539375e-10,8.234375e-03
-1.499375e-10,8.656250e-03
-1.459375e-10,8.875000e-03
-1.419375e-10,8.734375e-03
-1.379375e-10,8.515625e-03
-1.339375e-10,8.640625e-03
-1.299375e-10,9.140625e-03
-1.259375e-10,8.937500e-03
-1.219375e-10,9.734375e-03
-1.179375e-10,1.018750e-02
-1.139375e-10,1.068750e-02
-1.099375e-10,9.921875e-03
-1.059375e-10,1.103125e-02
-1.019375e-10,1.067188e-02
-9.793750e-11,1.234375e-02
-9.393750e-11,1.268750e-02
-8.993750e-11,1.310938e-02
-8.593750e-11,1.328125e-02
-8.193750e-11,1.442188e-02
-7.793750e-11,1.485938e-02
-7.393750e-11,1.576563e-02
-6.993750e-11,1.710938e-02
-6.593750e-11,1.835938e-02
-6.193750e-11,1.925000e-02
-5.793750e-11,2.015625e-02
-5.393750e-11,2.145313e-02
-4.993750e-11,2.315625e-02
-4.593750e-11,2.425000e-02
-4.193750e-11,2.642188e-02
-3.793750e-11,2.825000e-02
-3.393750e-11,3.023438e-02
-2.993750e-11,3.098438e-02
-2.593750e-11,3.364063e-02
-2.193750e-11,3.484375e-02
-1.793750e-11,3.815625e-02
-1.393750e-11,4.010938e-02
-9.937500e-12,4.221875e-02
-5.937500e-12,4.407813e-02
-1.937500e-12,4.690625e-02
2.062500e-12,4.907813e-02
6.062500e-12,5.167188e-02
1.006250e-11,5.475000e-02
1.406250e-11,5.773438e-02
1.806250e-11,6.029688e-02
2.206250e-11,6.285938e-02
2.606250e-11,6.579688e-02
3.006250e-11,6.910938e-02
3.406250e-11,7.178125e-02
3.806250e-11,7.545313e-02
4.206250e-11,7.876563e-02
4.606250e-11,8.218750e-02
5.006250e-11,8.426563e-02
5.406250e-11,8.820313e-02
5.806250e-11,9.060938e-02
6.206250e-11,9.503125e-02
6.606250e-11,9.796875e-02
7.006250e-11,1.010625e-01
7.406250e-11,1.037344e-01
7.806250e-11,1.072656e-01
8.206250e-11,1.100625e-01
8.606250e-11,1.131719e-01
9.006250e-11,1.166250e-01
9.406250e-11,1.199375e-01
9.806250e-11,1.226094e-01
1.020625e-10,1.251875e-01
1.060625e-10,1.280313e-01
1.100625e-10,1.310938e-01
1.140625e-10,1.334375e-01
1.180625e-10,1.365938e-01
1.220625e-10,1.392500e-01
1.260625e-10,1.419219e-01
1.300625e-10,1.430781e-01
1.340625e-10,1.460000e-01
1.380625e-10,1.472500e-01
1.420625e-10,1.503438e-01
1.460625e-10,1.518594e-01
1.500625e-10,1.534063e-01
1.540625e-10,1.543750e-01
1.580625e-10,1.560938e-01
1.620625e-10,1.569844e-01
1.660625e-10,1.580781e-01
1.700625e-10,1.593906e-01
1.740625e-10,1.604844e-01
1.780625e-10,1.608125e-01
1.820625e-10,1.609375e-01
1.860625e-10,1.612813e-01
1.900625e-10,1.617656e-01
1.940625e-10,1.614688e-01
1.980625e-10,1.618906e-01
2.020625e-10,1.617188e-01
2.060625e-10,1.615625e-01
2.100625e-10,1.598125e-01
2.140625e-10,1.598594e-01
2.180625e-10,1.581875e-01
2.220625e-10,1.582813e-01
2.260625e-10,1.568125e-01
2.300625e-10,1.553750e-01
2.340625e-10,1.533594e-01
2.380625e-10,1.521094e-01
2.420625e-10,1.500938e-01
2.460625e-10,1.482813e-01
2.500625e-10,1.467031e-01
2.540625e-10,1.449688e-01
2.580625e-10,1.425313e-01
2.620625e-10,1.399375e-01
2.660625e-10,1.376250e-01
2.700625e-10,1.355781e-01
2.740625e-10,1.327500e-01
2.780625e-10,1.307656e-01
2.820625e-10,1.282813e-01
2.860625e-10,1.259219e-01
2.900625e-10,1.220313e-01
2.940625e-10,1.200938e-01
2.980625e-10,1.165625e-01
3.020625e-10,1.148750e-01
3.060625e-10,1.117813e-01
3.100625e-10,1.087969e-01
3.140625e-10,1.053750e-01
3.180625e-10,1.029063e-01
3.220625e-10,9.978125e-02
3.260625e-10,9.698438e-02
3.300625e-10,9.453125e-02
3.340625e-10,9.204688e-02
3.380625e-10,8.906250e-02
3.420625e-10,8.600000e-02
3.460625e-10,8.337500e-02
3.500625e-10,8.114063e-02
3.540625e-10,7.821875e-02
3.580625e-10,7.628125e-02
3.620625e-10,7.401563e-02
3.660625e-10,7.193750e-02
3.700625e-10,6.845313e-02
3.740625e-10,6.706250e-02
3.780625e-10,6.418750e-02
3.820625e-10,6.321875e-02
3.860625e-10,6.096875e-02
3.900625e-10,5.889063e-02
3.940625e-10,5.646875e-02
3.980625e-10,5.510938e-02
4.020625e-10,5.314063e-02
4.060625e-10,5.154688e-02
4.100625e-10,5.035938e-02
4.140625e-10,4.918750e-02
4.180625e-10,4.760938e-02
4.220625e-10,4.596875e-02
4.260625e-10,4.475000e-02
4.300625e-10,4.400000e-02
4.340625e-10,4.254688e-02
4.380625e-10,4.206250e-02
4.420625e-10,4.129688e-02
4.460625e-10,4.068750e-02
4.500625e-10,3.867188e-02
4.540625e-10,3.871875e-02
4.580625e-10,3.728125e-02
4.620625e-10,3.770313e-02
4.660625e-10,3.685938e-02
4.700625e-10,3.609375e-02
4.740625e-10,3.496875e-02
4.780625e-10,3.481250e-02
4.820625e-10,3.400000e-02
4.860625e-10,3.353125e-02
4.900625e-10,3.339063e-02
4.940625e-10,3.320313e-02
4.980625e-10,3.257813e-02
5.020625e-10,3.181250e-02
5.060625e-10,3.139063e-02
5.100625e-10,3.137500e-02
5.140625e-10,3.057813e-02
5.180625e-10,3.067188e-02
5.220625e-10,3.043750e-02
5.260625e-10,3.023438e-02
5.300625e-10,2.862500e-02
5.340625e-10,2.896875e-02
5.380625e-10,2.778125e-02
5.420625e-10,2.840625e-02
5.460625e-10,2.771875e-02
5.500625e-10,2.698438e-02
5.540625e-10,2.587500e-02
5.580625e-10,2.570313e-02
5.620625e-10,2.476563e-02
5.660625e-10,2.417188e-02
5.700625e-10,2.387500e-02
5.740625e-10,2.348438e-02
5.780625e-10,2.265625e-02
5.820625e-10,2.162500e-02
5.860625e-10,2.098438e-02
5.900625e-10,2.065625e-02
5.940625e-10,1.957813e-02
5.980625e-10,1.937500e-02
6.020625e-10,1.885938e-02
6.060625e-10,1.831250e-02
6.100625e-10,1.643750e-02
6.140625e-10,1.648438e-02
6.180625e-10,1.504688e-02
6.220625e-10,1.545313e-02
6.260625e-10,1.456250e-02
6.300625e-10,1.362500e-02
6.340625e-10,1.234375e-02
6.380625e-10,1.207813e-02
6.420625e-10,1.101563e-02
6.460625e-10,1.034375e-02
6.500625e-10,1.004688e-02
6.540625e-10,9.687500e-03
6.580625e-10,8.953125e-03
6.620625e-10,8.000000e-03
6.660625e-10,7.531250e-03
6.700625e-10,7.375000e-03
6.740625e-10,6.546875e-03
6.780625e-10,6.640625e-03
6.820625e-10,6.468750e-03
6.860625e-10,6.250000e-03
6.900625e-10,4.812500e-03
6.940625e-10,5.265625e-03
6.980625e-10,4.312500e-03
7.020625e-10,5.250000e-03
7.060625e-10,4.890625e-03
7.100625e-10,4.546875e-03
7.140625e-10,3.828125e-03
7.180625e-10,4.203125e-03
7.220625e-10,3.750000e-03
7.260625e-10,3.703125e-03
7.300625e-10,4.093750e-03
7.340625e-10,4.375000e-03
7.380625e-10,4.312500e-03
7.420625e-10,4.015625e-03
7.460625e-10,4.203125e-03
7.500625e-10,4.718750e-03
7.540625e-10,4.531250e-03
7.580625e-10,5.281250e-03
7.620625e-10,5.750000e-03
7.660625e-10,6.093750e-03
7.700625e-10,5.234375e-03
7.740625e-10,6.218750e-03
7.780625e-10,5.781250e-03
7.820625e-10,7.234375e-03
7.860625e-10,7.343750e-03
7.900625e-10,7.437500e-03
7.940625e-10,7.109375e-03
7.980625e-10,7.812500e-03
8.020625e-10,7.671875e-03
8.060625e-10,7.906250e-03
8.100625e-10,8.562500e-03
8.140625e-10,9.000000e-03
8.180625e-10,9.109375e-03
8.220625e-10,8.937500e-03
8.260625e-10,9.171875e-03
8.300625e-10,9.765625e-03
8.340625e-10,9.593750e-03
8.380625e-10,1.034375e-02
8.420625e-10,1.071875e-02
8.460625e-10,1.096875e-02
8.500625e-10,1.001563e-02
8.540625e-10,1.082813e-02
8.580625e-10,1.017188e-02
8.620625e-10,1.145313e-02
8.660625e-10,1.134375e-02
8.700625e-10,1.121875e-02
8.740625e-10,1.062500e-02
8.780625e-10,1.103125e-02
8.820625e-10,1.062500e-02
8.860625e-10,1.060938e-02
8.900625e-10,1.098438e-02
8.940625e-10,1.107813e-02
8.980625e-10,1.089063e-02
9.020625e-10,1.042188e-02
9.060625e-10,1.034375e-02
9.100625e-10,1.068750e-02
9.140625e-10,1.025000e-02
9.180625e-10,1.073438e-02
9.220625e-10,1.084375e-02
9.260625e-10,1.085938e-02
9.300625e-10,9.687500e-03
9.340625e-10,1.029688e-02
9.380625e-10,9.421875e-03
9.420625e-10,1.054688e-02
9.460625e-10,1.028125e-02
9.500625e-10,1.000000e-02
9.540625e-10,9.328125e-03
9.580625e-10,9.609375e-03
9.620625e-10,9.156250e-03
9.660625e-10,9.093750e-03
9.700625e-10,9.437500e-03
9.740625e-10,9.468750e-03
9.780625e-10,9.281250e-03
9.820625e-10,8.843750e-03
9.860625e-10,8.765625e-03
9.900625e-10,9.171875e-03
9.940625e-10,8.781250e-03
9.980625e-10,9.328125e-03
1.002062e-09,9.500000e-03
1.006062e-09,9.625000e-03
1.010062e-09,8.562500e-03
1.014062e-09,9.296875e-03
1.018063e-09,8.500000e-03
1.022063e-09,9.718750e-03
1.026063e-09,9.562500e-03
1.030063e-09,9.375000e-03
1.034063e-09,8.812500e-03
1.038063e-09,9.218750e-03
1.042062e-09,8.859375e-03
1.046062e-09,8.890625e-03
1.050062e-09,9.328125e-03
1.054062e-09,9.453125e-03
1.058062e-09,9.312500e-03
1.062062e-09,8.953125e-03
1.066062e-09,8.921875e-03
1.070062e-09,9.359375e-03
1.074062e-09,9.015625e-03
1.078063e-09,9.578125e-03
1.082063e-09,9.765625e-03
1.086063e-09,9.906250e-03
1.090063e-09,8.828125e-03
1.094063e-09,9.578125e-03
1.098063e-09,8.765625e-03
1.102062e-09,9.921875e-03
1.106062e-09,9.718750e-03
1.110062e-09,9.484375e-03
1.114062e-09,8.843750e-03
1.118062e-09,9.203125e-03
1.122062e-09,8.781250e-03
1.126062e-09,8.734375e-03
1.130062e-09,9.093750e-03
1.134062e-09,9.187500e-03
1.138063e-09,8.937500e-03
1.142063e-09,8.484375e-03
1.146063e-09,8.390625e-03
1.150063e-09,8.750000e-03
1.154063e-09,8.296875e-03
1.158063e-09,8.796875e-03
1.162062e-09,8.937500e-03
1.166062e-09,9.031250e-03
1.170062e-09,7.859375e-03
1.174062e-09,8.593750e-03
1.178062e-09,7.718750e-03
1.182062e-09,8.843750e-03
1.186062e-09,8.593750e-03
1.190062e-09,8.343750e-03
1.194062e-09,7.703125e-03
1.198063e-09,8.046875e-03
1.202063e-09,7.609375e-03
1.206063e-09,7.593750e-03
1.210063e-09,7.953125e-03
1.214063e-09,8.093750e-03
1.218063e-09,7.875000e-03
1.222062e-09,7.468750e-03
1.226062e-09,7.421875e-03
1.230062e-09,7.828125e-03
1.234062e-09,7.421875e-03
1.238062e-09,8.000000e-03
1.242062e-09,8.203125e-03
1.246062e-09,8.375000e-03
1.250062e-09,7.250000e-03
1.254062e-09,8.062500e-03
1.258063e-09,7.250000e-03
1.262063e-09,8.468750e-03
1.266063e-09,8.281250e-03
1.270063e-09,8.093750e-03
1.274063e-09,7.515625e-03
1.278063e-09,7.921875e-03
1.282062e-09,7.546875e-03
1.286062e-09,7.562500e-03
1.290062e-09,7.984375e-03
1.294062e-09,8.187500e-03
1.298062e-09,8.015625e-03
1.302062e-09,7.625000e-03
1.306062e-09,7.625000e-03
1.310062e-09,8.046875e-03
1.314062e-09,7.656250e-03
1.318063e-09,8.265625e-03
1.322063e-09,8.468750e-03
1.326063e-09,8.656250e-03
1.330063e-09,7.500000e-03
1.334063e-09,8.296875e-03
1.338062e-09,7.484375e-03
1.342062e-09,8.687500e-03
1.346062e-09,8.484375e-03
1.350062e-09,8.281250e-03
1.354062e-09,7.671875e-03
1.358062e-09,8.062500e-03
1.362062e-09,7.656250e-03
1.366062e-09,7.656250e-03
1.370062e-09,8.062500e-03
1.374062e-09,8.250000e-03
1.378063e-09,8.046875e-03
1.382063e-09,7.640625e-03
1.386063e-09,7.640625e-03
1.390063e-09,8.046875e-03
1.394063e-09,7.656250e-03
1.398062e-09,8.265625e-03
1.402062e-09,8.468750e-03
1.406062e-09,8.687500e-03
1.410062e-09,7.515625e-03
1.414062e-09,8.343750e-03
1.418062e-09,7.562500e-03
1.422062e-09,8.796875e-03
1.426062e-09,8.640625e-03
1.430062e-09,8.468750e-03
1.434062e-09,7.921875e-03
1.438063e-09,8.375000e-03
1.442063e-09,8.015625e-03
1.446063e-09,8.078125e-03
1.450063e-09,8.546875e-03
1.454063e-09,8.812500e-03
1.458062e-09,8.671875e-03
1.462062e-09,8.343750e-03
1.466062e-09,8.406250e-03
1.470062e-09,8.875000e-03
1.474062e-09,8.546875e-03
1.478062e-09,9.218750e-03
1.482062e-09,9.500000e-03
1.486062e-09,9.765625e-03
1.490062e-09,8.640625e-03
1.494062e-09,9.515625e-03
1.498063e-09,8.781250e-03
1.502063e-09,1.004688e-02
1.506063e-09,9.890625e-03
1.510063e-09,9.750000e-03
1.514063e-09,9.187500e-03
1.518062e-09,9.640625e-03
1.522062e-09,9.265625e-03
1.526062e-09,9.296875e-03
1.530062e-09,9.718750e-03
1.534062e-09,9.937500e-03
1.538062e-09,9.734375e-03
1.542062e-09,9.328125e-03
1.546062e-09,9.312500e-03
1.550062e-09,9.687500e-03
1.554062e-09,9.265625e-03
1.558063e-09,9.828125e-03
1.562063e-09,9.968750e-03
1.566063e-09,1.012500e-02
1.570063e-09,8.843750e-03
1.574063e-09,9.578125e-03
1.578062e-09,8.687500e-03
1.582062e-09,9.812500e-03
1.586062e-09,9.515625e-03
1.590062e-09,9.203125e-03
1.594062e-09,8.484375e-03
1.598062e-09,8.781250e-03
1.602062e-09,8.250000e-03
1.606062e-09,8.125000e-03
1.610062e-09,8.406250e-03
1.614062e-09,8.484375e-03
1.618063e-09,8.156250e-03
1.622063e-09,7.609375e-03
1.626063e-09,7.484375e-03
1.630063e-09,7.765625e-03
1.634063e-09,7.234375e-03
1.638062e-09,7.718750e-03
1.642062e-09,7.796875e-03
1.646062e-09,7.875000e-03
1.650062e-09,6.562500e-03
1.654062e-09,7.250000e-03
1.658062e-09,6.359375e-03
1.662062e-09,7.468750e-03
1.666062e-09,7.187500e-03
1.670062e-09,6.890625e-03
1.674062e-09,6.218750e-03
1.678063e-09,6.546875e-03
1.682063e-09,6.093750e-03
1.686063e-09,6.031250e-03
1.690063e-09,6.390625e-03
1.694063e-09,6.562500e-03
1.698062e-09,6.328125e-03
1.702062e-09,5.890625e-03
1.706062e-09,5.875000e-03
1.710062e-09,6.265625e-03
1.714062e-09,5.859375e-03
1.718062e-09,6.453125e-03
1.722062e-09,6.656250e-03
1.726062e-09,6.843750e-03
1.730062e-09,5.640625e-03
1.734062e-09,6.453125e-03
1.738063e-09,5.640625e-03
1.742063e-09,6.859375e-03
1.746063e-09,6.656250e-03
1.750063e-09,6.453125e-03
1.754063e-09,5.843750e-03
1.758062e-09,6.234375e-03
