Measurements-streak-laser/Photodiode-on-Tek-12bit-4GHz/Tek000_ch1_20190613132928881.csv

Model,MSO64
Waveform Type,ANALOG
Horizontal Units,s
Sample Interval,4.000000e-12
Record Length,1000
Zero Index,310.156250
Vertical Units,V

TIME,CH1
-1.240625e-09,4.671875e-03
-1.236625e-09,5.343750e-03
-1.232625e-09,5.171875e-03
-1.228625e-09,5.421875e-03
-1.224625e-09,6.062500e-03
-1.220625e-09,6.484375e-03
-1.216625e-09,6.484375e-03
-1.212625e-09,6.281250e-03
-1.208625e-09,6.468750e-03
-1.204625e-09,7.062500e-03
-1.200625e-09,6.812500e-03
-1.196625e-09,7.578125e-03
-1.192625e-09,7.937500e-03
-1.188625e-09,8.265625e-03
-1.184625e-09,7.171875e-03
-1.180625e-09,8.093750e-03
-1.176625e-09,7.359375e-03
-1.172625e-09,8.671875e-03
-1.168625e-09,8.531250e-03
-1.164625e-09,8.390625e-03
-1.160625e-09,7.828125e-03
-1.156625e-09,8.265625e-03
-1.152625e-09,7.890625e-03
-1.148625e-09,7.906250e-03
-1.144625e-09,8.312500e-03
-1.140625e-09,8.531250e-03
-1.136625e-09,8.312500e-03
-1.132625e-09,7.875000e-03
-1.128625e-09,7.859375e-03
-1.124625e-09,8.218750e-03
-1.120625e-09,7.781250e-03
-1.116625e-09,8.343750e-03
-1.112625e-09,8.500000e-03
-1.108625e-09,8.640625e-03
-1.104625e-09,7.359375e-03
-1.100625e-09,8.109375e-03
-1.096625e-09,7.234375e-03
-1.092625e-09,8.375000e-03
-1.088625e-09,8.109375e-03
-1.084625e-09,7.828125e-03
-1.080625e-09,7.156250e-03
-1.076625e-09,7.484375e-03
-1.072625e-09,7.015625e-03
-1.068625e-09,6.937500e-03
-1.064625e-09,7.281250e-03
-1.060625e-09,7.421875e-03
-1.056625e-09,7.156250e-03
-1.052625e-09,6.687500e-03
-1.048625e-09,6.625000e-03
-1.044625e-09,6.968750e-03
-1.040625e-09,6.515625e-03
-1.036625e-09,7.078125e-03
-1.032625e-09,7.234375e-03
-1.028625e-09,7.406250e-03
-1.024625e-09,6.156250e-03
-1.020625e-09,6.937500e-03
-1.016625e-09,6.093750e-03
-1.012625e-09,7.281250e-03
-1.008625e-09,7.062500e-03
-1.004625e-09,6.843750e-03
-1.000625e-09,6.218750e-03
-9.966250e-10,6.625000e-03
-9.926250e-10,6.218750e-03
-9.886250e-10,6.203125e-03
-9.846250e-10,6.609375e-03
-9.806250e-10,6.812500e-03
-9.766250e-10,6.625000e-03
-9.726250e-10,6.218750e-03
-9.686250e-10,6.218750e-03
-9.646250e-10,6.625000e-03
-9.606250e-10,6.218750e-03
-9.566250e-10,6.843750e-03
-9.526250e-10,7.046875e-03
-9.486250e-10,7.250000e-03
-9.446250e-10,6.015625e-03
-9.406250e-10,6.828125e-03
-9.366250e-10,6.000000e-03
-9.326250e-10,7.171875e-03
-9.286250e-10,6.953125e-03
-9.246250e-10,6.734375e-03
-9.206250e-10,6.093750e-03
-9.166250e-10,6.453125e-03
-9.126250e-10,6.015625e-03
-9.086250e-10,5.968750e-03
-9.046250e-10,6.328125e-03
-9.006250e-10,6.453125e-03
-8.966250e-10,6.187500e-03
-8.926250e-10,5.703125e-03
-8.886250e-10,5.625000e-03
-8.846250e-10,5.937500e-03
-8.806250e-10,5.437500e-03
-8.766250e-10,5.937500e-03
-8.726250e-10,6.031250e-03
-8.686250e-10,6.125000e-03
-8.646250e-10,4.812500e-03
-8.606250e-10,5.500000e-03
-8.566250e-10,4.546875e-03
-8.526250e-10,5.531250e-03
-8.486250e-10,5.218750e-03
-8.446250e-10,4.859375e-03
-8.406250e-10,4.140625e-03
-8.366250e-10,4.390625e-03
-8.326250e-10,3.843750e-03
-8.286250e-10,3.718750e-03
-8.246250e-10,3.968750e-03
-8.206250e-10,4.031250e-03
-8.166250e-10,3.718750e-03
-8.126250e-10,3.156250e-03
-8.086250e-10,3.015625e-03
-8.046250e-10,3.296875e-03
-8.006250e-10,2.765625e-03
-7.966250e-10,3.250000e-03
-7.926250e-10,3.343750e-03
-7.886250e-10,3.437500e-03
-7.846250e-10,2.187500e-03
-7.806250e-10,2.921875e-03
-7.766250e-10,2.031250e-03
-7.726250e-10,3.000000e-03
-7.686250e-10,2.812500e-03
-7.646250e-10,2.562500e-03
-7.606250e-10,2.000000e-03
-7.566250e-10,2.343750e-03
-7.526250e-10,1.906250e-03
-7.486250e-10,1.984375e-03
-7.446250e-10,2.375000e-03
-7.406250e-10,2.562500e-03
-7.366250e-10,2.500000e-03
-7.326250e-10,2.125000e-03
-7.286250e-10,2.140625e-03
-7.246250e-10,2.593750e-03
-7.206250e-10,2.250000e-03
-7.166250e-10,2.921875e-03
-7.126250e-10,3.203125e-03
-7.086250e-10,3.484375e-03
-7.046250e-10,2.406250e-03
-7.006250e-10,3.328125e-03
-6.966250e-10,2.656250e-03
-6.926250e-10,3.734375e-03
-6.886250e-10,3.718750e-03
-6.846250e-10,3.656250e-03
-6.806250e-10,3.218750e-03
-6.766250e-10,3.656250e-03
-6.726250e-10,3.281250e-03
-6.686250e-10,3.484375e-03
-6.646250e-10,3.937500e-03
-6.606250e-10,4.140625e-03
-6.566250e-10,4.218750e-03
-6.526250e-10,3.828125e-03
-6.486250e-10,3.843750e-03
-6.446250e-10,4.250000e-03
-6.406250e-10,3.921875e-03
-6.366250e-10,4.500000e-03
-6.326250e-10,4.734375e-03
-6.286250e-10,4.890625e-03
-6.246250e-10,3.671875e-03
-6.206250e-10,4.484375e-03
-6.166250e-10,3.750000e-03
-6.126250e-10,4.656250e-03
-6.086250e-10,4.500000e-03
-6.046250e-10,4.281250e-03
-6.006250e-10,3.687500e-03
-5.966250e-10,3.906250e-03
-5.926250e-10,3.312500e-03
-5.886250e-10,3.328125e-03
-5.846250e-10,3.593750e-03
-5.806250e-10,3.562500e-03
-5.766250e-10,3.484375e-03
-5.726250e-10,2.906250e-03
-5.686250e-10,2.734375e-03
-5.646250e-10,2.953125e-03
-5.606250e-10,2.500000e-03
-5.566250e-10,2.921875e-03
-5.526250e-10,2.984375e-03
-5.486250e-10,2.984375e-03
-5.446250e-10,1.609375e-03
-5.406250e-10,2.281250e-03
-5.366250e-10,1.531250e-03
-5.326250e-10,2.343750e-03
-5.286250e-10,2.187500e-03
-5.246250e-10,1.890625e-03
-5.206250e-10,1.265625e-03
-5.166250e-10,1.468750e-03
-5.126250e-10,9.218750e-04
-5.086250e-10,9.375000e-04
-5.046250e-10,1.281250e-03
-5.006250e-10,1.296875e-03
-4.966250e-10,1.234375e-03
-4.926250e-10,7.656250e-04
-4.886250e-10,7.500000e-04
-4.846250e-10,1.140625e-03
-4.806250e-10,7.656250e-04
-4.766250e-10,1.406250e-03
-4.726250e-10,1.578125e-03
-4.686250e-10,1.750000e-03
-4.646250e-10,5.625000e-04
-4.606250e-10,1.343750e-03
-4.566250e-10,7.812500e-04
-4.526250e-10,1.796875e-03
-4.486250e-10,1.890625e-03
-4.446250e-10,1.718750e-03
-4.406250e-10,1.250000e-03
-4.366250e-10,1.656250e-03
-4.326250e-10,1.343750e-03
-4.286250e-10,1.421875e-03
-4.246250e-10,1.968750e-03
-4.206250e-10,2.125000e-03
-4.166250e-10,2.109375e-03
-4.126250e-10,1.781250e-03
-4.086250e-10,1.937500e-03
-4.046250e-10,2.468750e-03
-4.006250e-10,2.125000e-03
-3.966250e-10,2.875000e-03
-3.926250e-10,3.125000e-03
-3.886250e-10,3.359375e-03
-3.846250e-10,2.250000e-03
-3.806250e-10,3.000000e-03
-3.766250e-10,2.484375e-03
-3.726250e-10,3.546875e-03
-3.686250e-10,3.640625e-03
-3.646250e-10,3.453125e-03
-3.606250e-10,3.015625e-03
-3.566250e-10,3.453125e-03
-3.526250e-10,3.218750e-03
-3.486250e-10,3.234375e-03
-3.446250e-10,3.781250e-03
-3.406250e-10,3.968750e-03
-3.366250e-10,3.890625e-03
-3.326250e-10,3.640625e-03
-3.286250e-10,3.859375e-03
-3.246250e-10,4.453125e-03
-3.206250e-10,4.125000e-03
-3.166250e-10,4.890625e-03
-3.126250e-10,5.281250e-03
-3.086250e-10,5.578125e-03
-3.046250e-10,4.625000e-03
-3.006250e-10,5.421875e-03
-2.966250e-10,5.000000e-03
-2.926250e-10,6.218750e-03
-2.886250e-10,6.406250e-03
-2.846250e-10,6.375000e-03
-2.806250e-10,6.140625e-03
-2.766250e-10,6.734375e-03
-2.726250e-10,6.687500e-03
-2.686250e-10,6.843750e-03
-2.646250e-10,7.515625e-03
-2.606250e-10,7.875000e-03
-2.566250e-10,7.906250e-03
-2.526250e-10,7.875000e-03
-2.486250e-10,8.187500e-03
-2.446250e-10,8.890625e-03
-2.406250e-10,8.703125e-03
-2.366250e-10,9.500000e-03
-2.326250e-10,1.000000e-02
-2.286250e-10,1.032813e-02
-2.246250e-10,9.437500e-03
-2.206250e-10,1.021875e-02
-2.166250e-10,9.687500e-03
-2.126250e-10,1.084375e-02
-2.086250e-10,1.085938e-02
-2.046250e-10,1.068750e-02
-2.006250e-10,1.031250e-02
-1.966250e-10,1.067188e-02
-1.926250e-10,1.031250e-02
-1.886250e-10,1.018750e-02
-1.846250e-10,1.046875e-02
-1.806250e-10,1.043750e-02
-1.766250e-10,1.003125e-02
-1.726250e-10,9.578125e-03
-1.686250e-10,9.359375e-03
-1.646250e-10,9.468750e-03
-1.606250e-10,8.765625e-03
-1.566250e-10,8.984375e-03
-1.526250e-10,8.859375e-03
-1.486250e-10,8.640625e-03
-1.446250e-10,7.203125e-03
-1.406250e-10,7.406250e-03
-1.366250e-10,6.218750e-03
-1.326250e-10,6.906250e-03
-1.286250e-10,6.312500e-03
-1.246250e-10,5.687500e-03
-1.206250e-10,4.875000e-03
-1.166250e-10,4.875000e-03
-1.126250e-10,4.187500e-03
-1.086250e-10,3.875000e-03
-1.046250e-10,3.953125e-03
-1.006250e-10,3.906250e-03
-9.662500e-11,3.546875e-03
-9.262500e-11,3.281250e-03
-8.862500e-11,3.328125e-03
-8.462500e-11,3.781250e-03
-8.062500e-11,3.656250e-03
-7.662500e-11,4.609375e-03
-7.262500e-11,5.328125e-03
-6.862500e-11,6.203125e-03
-6.462500e-11,6.031250e-03
-6.062500e-11,7.625000e-03
-5.662500e-11,7.984375e-03
-5.262500e-11,1.048438e-02
-4.862500e-11,1.176563e-02
-4.462500e-11,1.331250e-02
-4.062500e-11,1.484375e-02
-3.662500e-11,1.739063e-02
-3.262500e-11,1.942188e-02
-2.862500e-11,2.201563e-02
-2.462500e-11,2.520313e-02
-2.062500e-11,2.848438e-02
-1.662500e-11,3.153125e-02
-1.262500e-11,3.487500e-02
-8.625000e-12,3.867188e-02
-4.625000e-12,4.295313e-02
-6.250000e-13,4.687500e-02
3.375000e-12,5.200000e-02
7.375000e-12,5.695313e-02
1.137500e-11,6.225000e-02
1.537500e-11,6.653125e-02
1.937500e-11,7.264063e-02
2.337500e-11,7.750000e-02
2.737500e-11,8.457813e-02
3.137500e-11,9.035938e-02
3.537500e-11,9.654688e-02
3.937500e-11,1.025625e-01
4.337500e-11,1.095469e-01
4.737500e-11,1.159844e-01
5.137500e-11,1.228594e-01
5.537500e-11,1.302500e-01
5.937500e-11,1.376719e-01
6.337500e-11,1.445625e-01
6.737500e-11,1.516250e-01
7.137500e-11,1.589531e-01
7.537500e-11,1.665313e-01
7.937500e-11,1.735938e-01
8.337500e-11,1.815625e-01
8.737500e-11,1.890781e-01
9.137500e-11,1.967500e-01
9.537500e-11,2.030313e-01
9.937500e-11,2.108906e-01
1.033750e-10,2.171875e-01
1.073750e-10,2.253281e-01
1.113750e-10,2.318281e-01
1.153750e-10,2.385000e-01
1.193750e-10,2.445625e-01
1.233750e-10,2.512031e-01
1.273750e-10,2.570469e-01
1.313750e-10,2.629688e-01
1.353750e-10,2.690313e-01
1.393750e-10,2.748750e-01
1.433750e-10,2.796875e-01
1.473750e-10,2.843906e-01
1.513750e-10,2.890625e-01
1.553750e-10,2.936563e-01
1.593750e-10,2.974844e-01
1.633750e-10,3.018438e-01
1.673750e-10,3.054063e-01
1.713750e-10,3.089688e-01
1.753750e-10,3.107969e-01
1.793750e-10,3.140469e-01
1.833750e-10,3.155000e-01
1.873750e-10,3.185313e-01
1.913750e-10,3.197188e-01
1.953750e-10,3.209531e-01
1.993750e-10,3.214063e-01
2.033750e-10,3.223125e-01
2.073750e-10,3.223750e-01
2.113750e-10,3.224063e-01
2.153750e-10,3.224688e-01
2.193750e-10,3.223438e-01
2.233750e-10,3.210781e-01
2.273750e-10,3.196719e-01
2.313750e-10,3.183281e-01
2.353750e-10,3.169531e-01
2.393750e-10,3.148438e-01
2.433750e-10,3.132813e-01
2.473750e-10,3.110000e-01
2.513750e-10,3.088594e-01
2.553750e-10,3.050313e-01
2.593750e-10,3.028750e-01
2.633750e-10,2.990625e-01
2.673750e-10,2.968438e-01
2.713750e-10,2.930469e-01
2.753750e-10,2.894063e-01
2.793750e-10,2.851875e-01
2.833750e-10,2.816563e-01
2.873750e-10,2.775000e-01
2.913750e-10,2.734844e-01
2.953750e-10,2.696406e-01
2.993750e-10,2.658438e-01
3.033750e-10,2.611719e-01
3.073750e-10,2.565000e-01
3.113750e-10,2.521563e-01
3.153750e-10,2.480000e-01
3.193750e-10,2.432188e-01
3.233750e-10,2.392188e-01
3.273750e-10,2.347344e-01
3.313750e-10,2.305781e-01
3.353750e-10,2.248750e-01
3.393750e-10,2.211094e-01
3.433750e-10,2.158594e-01
3.473750e-10,2.122969e-01
3.513750e-10,2.073906e-01
3.553750e-10,2.027500e-01
3.593750e-10,1.976563e-01
3.633750e-10,1.934844e-01
3.673750e-10,1.888125e-01
3.713750e-10,1.843750e-01
3.753750e-10,1.802031e-01
3.793750e-10,1.761563e-01
3.833750e-10,1.714688e-01
3.873750e-10,1.668125e-01
3.913750e-10,1.625313e-01
3.953750e-10,1.586094e-01
3.993750e-10,1.540469e-01
4.033750e-10,1.503750e-01
4.073750e-10,1.463438e-01
4.113750e-10,1.426250e-01
4.153750e-10,1.374219e-01
4.193750e-10,1.342813e-01
4.233750e-10,1.297188e-01
4.273750e-10,1.268281e-01
4.313750e-10,1.227031e-01
4.353750e-10,1.188594e-01
4.393750e-10,1.145938e-01
4.433750e-10,1.112969e-01
4.473750e-10,1.075625e-01
4.513750e-10,1.040938e-01
4.553750e-10,1.008906e-01
4.593750e-10,9.785938e-02
4.633750e-10,9.432813e-02
4.673750e-10,9.081250e-02
4.713750e-10,8.767188e-02
4.753750e-10,8.498438e-02
4.793750e-10,8.165625e-02
4.833750e-10,7.920313e-02
4.873750e-10,7.654688e-02
4.913750e-10,7.412500e-02
4.953750e-10,7.034375e-02
4.993750e-10,6.864063e-02
5.033750e-10,6.554688e-02
5.073750e-10,6.417188e-02
5.113750e-10,6.167188e-02
5.153750e-10,5.931250e-02
5.193750e-10,5.670313e-02
5.233750e-10,5.504688e-02
5.273750e-10,5.290625e-02
5.313750e-10,5.112500e-02
5.353750e-10,4.960938e-02
5.393750e-10,4.825000e-02
5.433750e-10,4.653125e-02
5.473750e-10,4.475000e-02
5.513750e-10,4.337500e-02
5.553750e-10,4.243750e-02
5.593750e-10,4.085938e-02
5.633750e-10,4.009375e-02
5.673750e-10,3.918750e-02
5.713750e-10,3.842188e-02
5.753750e-10,3.635938e-02
5.793750e-10,3.625000e-02
5.833750e-10,3.479688e-02
5.873750e-10,3.501563e-02
5.913750e-10,3.410938e-02
5.953750e-10,3.318750e-02
5.993750e-10,3.201563e-02
6.033750e-10,3.178125e-02
6.073750e-10,3.087500e-02
6.113750e-10,3.031250e-02
6.153750e-10,3.000000e-02
6.193750e-10,2.976563e-02
6.233750e-10,2.912500e-02
6.273750e-10,2.829688e-02
6.313750e-10,2.789063e-02
6.353750e-10,2.771875e-02
6.393750e-10,2.689063e-02
6.433750e-10,2.682813e-02
6.473750e-10,2.656250e-02
6.513750e-10,2.623438e-02
6.553750e-10,2.465625e-02
6.593750e-10,2.485938e-02
6.633750e-10,2.376563e-02
6.673750e-10,2.426563e-02
6.713750e-10,2.356250e-02
6.753750e-10,2.275000e-02
6.793750e-10,2.160938e-02
6.833750e-10,2.146875e-02
6.873750e-10,2.046875e-02
6.913750e-10,1.978125e-02
6.953750e-10,1.942188e-02
6.993750e-10,1.906250e-02
7.033750e-10,1.829688e-02
7.073750e-10,1.725000e-02
7.113750e-10,1.670313e-02
7.153750e-10,1.631250e-02
7.193750e-10,1.529688e-02
7.233750e-10,1.509375e-02
7.273750e-10,1.471875e-02
7.313750e-10,1.412500e-02
7.353750e-10,1.246875e-02
7.393750e-10,1.251563e-02
7.433750e-10,1.132813e-02
7.473750e-10,1.184375e-02
7.513750e-10,1.112500e-02
7.553750e-10,1.040625e-02
7.593750e-10,9.281250e-03
7.633750e-10,9.281250e-03
7.673750e-10,8.390625e-03
7.713750e-10,7.906250e-03
7.753750e-10,7.859375e-03
7.793750e-10,7.781250e-03
7.833750e-10,7.406250e-03
7.873750e-10,6.718750e-03
7.913750e-10,6.609375e-03
7.953750e-10,6.750000e-03
7.993750e-10,6.281250e-03
8.033750e-10,6.703125e-03
8.073750e-10,6.953125e-03
8.113750e-10,6.953125e-03
8.153750e-10,6.015625e-03
8.193750e-10,6.703125e-03
8.233750e-10,6.203125e-03
8.273750e-10,7.515625e-03
8.313750e-10,7.562500e-03
8.353750e-10,7.625000e-03
8.393750e-10,7.250000e-03
8.433750e-10,7.953125e-03
8.473750e-10,7.828125e-03
8.513750e-10,8.078125e-03
8.553750e-10,8.796875e-03
8.593750e-10,9.296875e-03
8.633750e-10,9.609375e-03
8.673750e-10,9.546875e-03
8.713750e-10,9.953125e-03
8.753750e-10,1.070313e-02
8.793750e-10,1.076563e-02
8.833750e-10,1.167188e-02
8.873750e-10,1.226563e-02
8.913750e-10,1.264063e-02
8.953750e-10,1.200000e-02
8.993750e-10,1.290625e-02
9.033750e-10,1.251563e-02
9.073750e-10,1.400000e-02
9.113750e-10,1.412500e-02
9.153750e-10,1.418750e-02
9.193750e-10,1.378125e-02
9.233750e-10,1.432813e-02
9.273750e-10,1.407813e-02
9.313750e-10,1.417188e-02
9.353750e-10,1.467188e-02
9.393750e-10,1.475000e-02
9.433750e-10,1.470313e-02
9.473750e-10,1.428125e-02
9.513750e-10,1.417188e-02
9.553750e-10,1.454688e-02
9.593750e-10,1.414063e-02
9.633750e-10,1.453125e-02
9.673750e-10,1.454688e-02
9.713750e-10,1.439063e-02
9.753750e-10,1.323438e-02
9.793750e-10,1.360938e-02
9.833750e-10,1.259375e-02
9.873750e-10,1.354688e-02
9.913750e-10,1.312500e-02
9.953750e-10,1.262500e-02
9.993750e-10,1.173438e-02
1.003375e-09,1.176563e-02
1.007375e-09,1.106250e-02
1.011375e-09,1.076563e-02
1.015375e-09,1.085938e-02
1.019375e-09,1.051563e-02
1.023375e-09,1.010938e-02
1.027375e-09,9.390625e-03
1.031375e-09,8.984375e-03
1.035375e-09,9.156250e-03
1.039375e-09,8.546875e-03
1.043375e-09,8.765625e-03
1.047375e-09,8.671875e-03
1.051375e-09,8.468750e-03
1.055375e-09,7.312500e-03
1.059375e-09,7.765625e-03
1.063375e-09,6.781250e-03
1.067375e-09,7.765625e-03
1.071375e-09,7.453125e-03
1.075375e-09,7.109375e-03
1.079375e-09,6.406250e-03
1.083375e-09,6.656250e-03
1.087375e-09,6.203125e-03
1.091375e-09,6.156250e-03
1.095375e-09,6.531250e-03
1.099375e-09,6.484375e-03
1.103375e-09,6.343750e-03
1.107375e-09,5.953125e-03
1.111375e-09,5.843750e-03
1.115375e-09,6.312500e-03
1.119375e-09,6.000000e-03
1.123375e-09,6.531250e-03
1.127375e-09,6.734375e-03
1.131375e-09,6.859375e-03
1.135375e-09,5.968750e-03
1.139375e-09,6.734375e-03
1.143375e-09,5.968750e-03
1.147375e-09,7.156250e-03
1.151375e-09,7.031250e-03
1.155375e-09,6.859375e-03
1.159375e-09,6.312500e-03
1.163375e-09,6.718750e-03
1.167375e-09,6.359375e-03
1.171375e-09,6.375000e-03
1.175375e-09,6.812500e-03
1.179375e-09,6.859375e-03
1.183375e-09,6.703125e-03
1.187375e-09,6.296875e-03
1.191375e-09,6.171875e-03
1.195375e-09,6.562500e-03
1.199375e-09,6.156250e-03
1.203375e-09,6.625000e-03
1.207375e-09,6.734375e-03
1.211375e-09,6.765625e-03
1.215375e-09,5.687500e-03
1.219375e-09,6.359375e-03
1.223375e-09,5.437500e-03
1.227375e-09,6.500000e-03
1.231375e-09,6.203125e-03
1.235375e-09,5.875000e-03
1.239375e-09,5.171875e-03
1.243375e-09,5.453125e-03
1.247375e-09,4.937500e-03
1.251375e-09,4.843750e-03
1.255375e-09,5.140625e-03
1.259375e-09,5.156250e-03
1.263375e-09,4.890625e-03
1.267375e-09,4.406250e-03
1.271375e-09,4.265625e-03
1.275375e-09,4.625000e-03
1.279375e-09,4.171875e-03
1.283375e-09,4.687500e-03
1.287375e-09,4.843750e-03
1.291375e-09,4.953125e-03
1.295375e-09,3.875000e-03
1.299375e-09,4.671875e-03
1.303375e-09,3.875000e-03
1.307375e-09,5.078125e-03
1.311375e-09,4.937500e-03
1.315375e-09,4.796875e-03
1.319375e-09,4.281250e-03
1.323375e-09,4.765625e-03
1.327375e-09,4.468750e-03
1.331375e-09,4.593750e-03
1.335375e-09,5.140625e-03
1.339375e-09,5.453125e-03
1.343375e-09,5.421875e-03
1.347375e-09,5.187500e-03
1.351375e-09,5.343750e-03
1.355375e-09,5.953125e-03
1.359375e-09,5.765625e-03
1.363375e-09,6.546875e-03
1.367375e-09,6.968750e-03
1.371375e-09,7.359375e-03
1.375375e-09,6.453125e-03
1.379375e-09,7.468750e-03
1.383375e-09,6.890625e-03
1.387375e-09,8.312500e-03
1.391375e-09,8.343750e-03
1.395375e-09,8.359375e-03
1.399375e-09,7.984375e-03
1.403375e-09,8.593750e-03
1.407375e-09,8.406250e-03
1.411375e-09,8.625000e-03
1.415375e-09,9.218750e-03
1.419375e-09,9.593750e-03
1.423375e-09,9.578125e-03
1.427375e-09,9.359375e-03
1.431375e-09,9.515625e-03
1.435375e-09,1.006250e-02
1.439375e-09,9.812500e-03
1.443375e-09,1.054688e-02
1.447375e-09,1.085938e-02
1.451375e-09,1.117188e-02
1.455375e-09,1.009375e-02
1.459375e-09,1.098438e-02
1.463375e-09,1.026563e-02
1.467375e-09,1.153125e-02
1.471375e-09,1.139063e-02
1.475375e-09,1.125000e-02
1.479375e-09,1.068750e-02
1.483375e-09,1.112500e-02
1.487375e-09,1.075000e-02
1.491375e-09,1.076563e-02
1.495375e-09,1.118750e-02
1.499375e-09,1.139063e-02
1.503375e-09,1.118750e-02
1.507375e-09,1.078125e-02
1.511375e-09,1.078125e-02
1.515375e-09,1.117188e-02
1.519375e-09,1.076563e-02
1.523375e-09,1.135938e-02
1.527375e-09,1.154688e-02
1.531375e-09,1.171875e-02
1.535375e-09,1.051563e-02
1.539375e-09,1.131250e-02
1.543375e-09,1.050000e-02
1.547375e-09,1.168750e-02
1.551375e-09,1.146875e-02
1.555375e-09,1.126563e-02
1.559375e-09,1.064063e-02
1.563375e-09,1.103125e-02
1.567375e-09,1.062500e-02
1.571375e-09,1.060938e-02
1.575375e-09,1.100000e-02
1.579375e-09,1.120313e-02
1.583375e-09,1.098438e-02
1.587375e-09,1.057813e-02
1.591375e-09,1.056250e-02
1.595375e-09,1.095313e-02
1.599375e-09,1.053125e-02
1.603375e-09,1.110938e-02
1.607375e-09,1.129688e-02
1.611375e-09,1.146875e-02
1.615375e-09,1.023438e-02
1.619375e-09,1.100000e-02
1.623375e-09,1.014063e-02
1.627375e-09,1.129688e-02
1.631375e-09,1.104688e-02
1.635375e-09,1.076563e-02
1.639375e-09,1.009375e-02
1.643375e-09,1.040625e-02
1.647375e-09,9.906250e-03
1.651375e-09,9.796875e-03
1.655375e-09,1.009375e-02
1.659375e-09,1.015625e-02
1.663375e-09,9.828125e-03
1.667375e-09,9.265625e-03
1.671375e-09,9.109375e-03
1.675375e-09,9.343750e-03
1.679375e-09,8.765625e-03
1.683375e-09,9.187500e-03
1.687375e-09,9.171875e-03
1.691375e-09,9.171875e-03
1.695375e-09,7.750000e-03
1.699375e-09,8.328125e-03
1.703375e-09,7.281250e-03
1.707375e-09,8.265625e-03
1.711375e-09,7.812500e-03
1.715375e-09,7.359375e-03
1.719375e-09,6.500000e-03
1.723375e-09,6.656250e-03
1.727375e-09,6.000000e-03
1.731375e-09,5.734375e-03
1.735375e-09,5.890625e-03
1.739375e-09,5.828125e-03
1.743375e-09,5.375000e-03
1.747375e-09,4.734375e-03
1.751375e-09,4.484375e-03
1.755375e-09,4.656250e-03
1.759375e-09,4.031250e-03
