Measurements-streak-laser/Photodiode-on-Tek-12bit-4GHz/Tek000_ch1_20190613132921961.csv

Model,MSO64
Waveform Type,ANALOG
Horizontal Units,s
Sample Interval,4.000000e-12
Record Length,1000
Zero Index,310.890625
Vertical Units,V

TIME,CH1
-1.243562e-09,3.859375e-03
-1.239562e-09,4.046875e-03
-1.235562e-09,4.656250e-03
-1.231563e-09,4.468750e-03
-1.227563e-09,5.281250e-03
-1.223563e-09,5.687500e-03
-1.219563e-09,6.093750e-03
-1.215563e-09,5.093750e-03
-1.211563e-09,6.109375e-03
-1.207562e-09,5.500000e-03
-1.203562e-09,6.921875e-03
-1.199562e-09,6.921875e-03
-1.195562e-09,6.906250e-03
-1.191562e-09,6.500000e-03
-1.187562e-09,7.078125e-03
-1.183562e-09,6.859375e-03
-1.179562e-09,7.031250e-03
-1.175562e-09,7.593750e-03
-1.171563e-09,7.953125e-03
-1.167563e-09,7.890625e-03
-1.163563e-09,7.609375e-03
-1.159563e-09,7.734375e-03
-1.155563e-09,8.250000e-03
-1.151563e-09,7.937500e-03
-1.147562e-09,8.625000e-03
-1.143562e-09,8.890625e-03
-1.139562e-09,9.140625e-03
-1.135562e-09,7.953125e-03
-1.131562e-09,8.781250e-03
-1.127562e-09,7.968750e-03
-1.123562e-09,9.171875e-03
-1.119562e-09,8.937500e-03
-1.115562e-09,8.687500e-03
-1.111563e-09,8.015625e-03
-1.107563e-09,8.328125e-03
-1.103563e-09,7.828125e-03
-1.099563e-09,7.703125e-03
-1.095563e-09,7.984375e-03
-1.091563e-09,8.031250e-03
-1.087562e-09,7.671875e-03
-1.083562e-09,7.078125e-03
-1.079562e-09,6.890625e-03
-1.075562e-09,7.093750e-03
-1.071562e-09,6.484375e-03
-1.067562e-09,6.859375e-03
-1.063562e-09,6.828125e-03
-1.059562e-09,6.796875e-03
-1.055562e-09,5.328125e-03
-1.051563e-09,5.890625e-03
-1.047563e-09,4.812500e-03
-1.043563e-09,5.781250e-03
-1.039563e-09,5.312500e-03
-1.035563e-09,4.843750e-03
-1.031563e-09,3.968750e-03
-1.027562e-09,4.125000e-03
-1.023562e-09,3.468750e-03
-1.019562e-09,3.218750e-03
-1.015562e-09,3.375000e-03
-1.011562e-09,3.343750e-03
-1.007562e-09,2.921875e-03
-1.003562e-09,2.296875e-03
-9.995625e-10,2.093750e-03
-9.955625e-10,2.312500e-03
-9.915625e-10,1.734375e-03
-9.875625e-10,2.187500e-03
-9.835625e-10,2.250000e-03
-9.795625e-10,2.312500e-03
-9.755625e-10,9.843750e-04
-9.715625e-10,1.703125e-03
-9.675625e-10,8.125000e-04
-9.635625e-10,1.953125e-03
-9.595625e-10,1.703125e-03
-9.555625e-10,1.468750e-03
-9.515625e-10,8.593750e-04
-9.475625e-10,1.265625e-03
-9.435625e-10,8.906250e-04
-9.395625e-10,9.218750e-04
-9.355625e-10,1.375000e-03
-9.315625e-10,1.640625e-03
-9.275625e-10,1.515625e-03
-9.235625e-10,1.203125e-03
-9.195625e-10,1.312500e-03
-9.155625e-10,1.828125e-03
-9.115625e-10,1.546875e-03
-9.075625e-10,2.281250e-03
-9.035625e-10,2.625000e-03
-8.995625e-10,2.968750e-03
-8.955625e-10,1.906250e-03
-8.915625e-10,2.875000e-03
-8.875625e-10,2.203125e-03
-8.835625e-10,3.515625e-03
-8.795625e-10,3.484375e-03
-8.755625e-10,3.421875e-03
-8.715625e-10,2.968750e-03
-8.675625e-10,3.500000e-03
-8.635625e-10,3.234375e-03
-8.595625e-10,3.375000e-03
-8.555625e-10,3.890625e-03
-8.515625e-10,4.187500e-03
-8.475625e-10,4.093750e-03
-8.435625e-10,3.765625e-03
-8.395625e-10,3.843750e-03
-8.355625e-10,4.312500e-03
-8.315625e-10,3.937500e-03
-8.275625e-10,4.593750e-03
-8.235625e-10,4.812500e-03
-8.195625e-10,5.031250e-03
-8.155625e-10,3.828125e-03
-8.115625e-10,4.625000e-03
-8.075625e-10,3.781250e-03
-8.035625e-10,4.875000e-03
-7.995625e-10,4.656250e-03
-7.955625e-10,4.390625e-03
-7.915625e-10,3.734375e-03
-7.875625e-10,4.046875e-03
-7.835625e-10,3.531250e-03
-7.795625e-10,3.484375e-03
-7.755625e-10,3.765625e-03
-7.715625e-10,3.843750e-03
-7.675625e-10,3.578125e-03
-7.635625e-10,3.031250e-03
-7.595625e-10,2.906250e-03
-7.555625e-10,3.171875e-03
-7.515625e-10,2.640625e-03
-7.475625e-10,3.125000e-03
-7.435625e-10,3.203125e-03
-7.395625e-10,3.281250e-03
-7.355625e-10,1.984375e-03
-7.315625e-10,2.703125e-03
-7.275625e-10,1.812500e-03
-7.235625e-10,2.812500e-03
-7.195625e-10,2.578125e-03
-7.155625e-10,2.312500e-03
-7.115625e-10,1.703125e-03
-7.075625e-10,2.031250e-03
-7.035625e-10,1.546875e-03
-6.995625e-10,1.593750e-03
-6.955625e-10,1.968750e-03
-6.915625e-10,2.140625e-03
-6.875625e-10,2.078125e-03
-6.835625e-10,1.687500e-03
-6.795625e-10,1.718750e-03
-6.755625e-10,2.156250e-03
-6.715625e-10,1.875000e-03
-6.675625e-10,2.546875e-03
-6.635625e-10,2.875000e-03
-6.595625e-10,3.171875e-03
-6.555625e-10,2.109375e-03
-6.515625e-10,3.078125e-03
-6.475625e-10,2.484375e-03
-6.435625e-10,3.734375e-03
-6.395625e-10,3.781250e-03
-6.355625e-10,3.796875e-03
-6.315625e-10,3.437500e-03
-6.275625e-10,4.015625e-03
-6.235625e-10,3.765625e-03
-6.195625e-10,4.062500e-03
-6.155625e-10,4.687500e-03
-6.115625e-10,5.062500e-03
-6.075625e-10,5.218750e-03
-6.035625e-10,5.015625e-03
-5.995625e-10,5.218750e-03
-5.955625e-10,5.828125e-03
-5.915625e-10,5.687500e-03
-5.875625e-10,6.515625e-03
-5.835625e-10,6.921875e-03
-5.795625e-10,7.296875e-03
-5.755625e-10,6.281250e-03
-5.715625e-10,7.281250e-03
-5.675625e-10,6.734375e-03
-5.635625e-10,7.984375e-03
-5.595625e-10,8.031250e-03
-5.555625e-10,7.984375e-03
-5.515625e-10,7.531250e-03
-5.475625e-10,8.015625e-03
-5.435625e-10,7.671875e-03
-5.395625e-10,7.796875e-03
-5.355625e-10,8.281250e-03
-5.315625e-10,8.484375e-03
-5.275625e-10,8.421875e-03
-5.235625e-10,8.015625e-03
-5.195625e-10,8.031250e-03
-5.155625e-10,8.421875e-03
-5.115625e-10,8.015625e-03
-5.075625e-10,8.593750e-03
-5.035625e-10,8.718750e-03
-4.995625e-10,8.828125e-03
-4.955625e-10,7.515625e-03
-4.915625e-10,8.203125e-03
-4.875625e-10,7.390625e-03
-4.835625e-10,8.359375e-03
-4.795625e-10,8.140625e-03
-4.755625e-10,7.781250e-03
-4.715625e-10,7.046875e-03
-4.675625e-10,7.250000e-03
-4.635625e-10,6.687500e-03
-4.595625e-10,6.515625e-03
-4.555625e-10,6.765625e-03
-4.515625e-10,6.734375e-03
-4.475625e-10,6.390625e-03
-4.435625e-10,5.812500e-03
-4.395625e-10,5.656250e-03
-4.355625e-10,5.906250e-03
-4.315625e-10,5.312500e-03
-4.275625e-10,5.765625e-03
-4.235625e-10,5.781250e-03
-4.195625e-10,5.796875e-03
-4.155625e-10,4.437500e-03
-4.115625e-10,5.031250e-03
-4.075625e-10,4.187500e-03
-4.035625e-10,5.156250e-03
-3.995625e-10,4.953125e-03
-3.955625e-10,4.609375e-03
-3.915625e-10,3.968750e-03
-3.875625e-10,4.250000e-03
-3.835625e-10,3.828125e-03
-3.795625e-10,3.750000e-03
-3.755625e-10,4.140625e-03
-3.715625e-10,4.250000e-03
-3.675625e-10,4.046875e-03
-3.635625e-10,3.671875e-03
-3.595625e-10,3.734375e-03
-3.555625e-10,4.218750e-03
-3.515625e-10,3.812500e-03
-3.475625e-10,4.500000e-03
-3.435625e-10,4.781250e-03
-3.395625e-10,5.031250e-03
-3.355625e-10,3.937500e-03
-3.315625e-10,4.750000e-03
-3.275625e-10,4.140625e-03
-3.235625e-10,5.359375e-03
-3.195625e-10,5.375000e-03
-3.155625e-10,5.250000e-03
-3.115625e-10,4.843750e-03
-3.075625e-10,5.343750e-03
-3.035625e-10,5.125000e-03
-2.995625e-10,5.203125e-03
-2.955625e-10,5.734375e-03
-2.915625e-10,5.984375e-03
-2.875625e-10,5.875000e-03
-2.835625e-10,5.625000e-03
-2.795625e-10,5.750000e-03
-2.755625e-10,6.250000e-03
-2.715625e-10,5.875000e-03
-2.675625e-10,6.515625e-03
-2.635625e-10,6.781250e-03
-2.595625e-10,6.953125e-03
-2.555625e-10,5.781250e-03
-2.515625e-10,6.468750e-03
-2.475625e-10,5.671875e-03
-2.435625e-10,6.718750e-03
-2.395625e-10,6.484375e-03
-2.355625e-10,6.140625e-03
-2.315625e-10,5.500000e-03
-2.275625e-10,5.703125e-03
-2.235625e-10,5.156250e-03
-2.195625e-10,4.921875e-03
-2.155625e-10,5.062500e-03
-2.115625e-10,4.968750e-03
-2.075625e-10,4.484375e-03
-2.035625e-10,3.875000e-03
-1.995625e-10,3.578125e-03
-1.955625e-10,3.656250e-03
-1.915625e-10,2.921875e-03
-1.875625e-10,3.156250e-03
-1.835625e-10,3.031250e-03
-1.795625e-10,2.859375e-03
-1.755625e-10,1.375000e-03
-1.715625e-10,1.750000e-03
-1.675625e-10,6.250000e-04
-1.635625e-10,1.453125e-03
-1.595625e-10,9.531250e-04
-1.555625e-10,4.531250e-04
-1.515625e-10,-3.125000e-04
-1.475625e-10,-1.718750e-04
-1.435625e-10,-7.500000e-04
-1.395625e-10,-9.375000e-04
-1.355625e-10,-6.875000e-04
-1.315625e-10,-6.093750e-04
-1.275625e-10,-8.437500e-04
-1.235625e-10,-1.125000e-03
-1.195625e-10,-1.031250e-03
-1.155625e-10,-5.312500e-04
-1.115625e-10,-6.875000e-04
-1.075625e-10,2.187500e-04
-1.035625e-10,8.125000e-04
-9.956250e-11,1.500000e-03
-9.556250e-11,9.687500e-04
-9.156250e-11,2.359375e-03
-8.756250e-11,2.312500e-03
-8.356250e-11,4.375000e-03
-7.956250e-11,5.125000e-03
-7.556250e-11,6.031250e-03
-7.156250e-11,6.718750e-03
-6.756250e-11,8.421875e-03
-6.356250e-11,9.468750e-03
-5.956250e-11,1.101563e-02
-5.556250e-11,1.304688e-02
-5.156250e-11,1.503125e-02
-4.756250e-11,1.668750e-02
-4.356250e-11,1.840625e-02
-3.956250e-11,2.054688e-02
-3.556250e-11,2.310938e-02
-3.156250e-11,2.509375e-02
-2.756250e-11,2.818750e-02
-2.356250e-11,3.096875e-02
-1.956250e-11,3.392188e-02
-1.556250e-11,3.564063e-02
-1.156250e-11,3.926563e-02
-7.562500e-12,4.146875e-02
-3.562500e-12,4.576563e-02
4.375000e-13,4.870313e-02
4.437500e-12,5.182813e-02
8.437500e-12,5.465625e-02
1.243750e-11,5.845313e-02
1.643750e-11,6.156250e-02
2.043750e-11,6.509375e-02
2.443750e-11,6.906250e-02
2.843750e-11,7.293750e-02
3.243750e-11,7.634375e-02
3.643750e-11,7.971875e-02
4.043750e-11,8.342188e-02
4.443750e-11,8.743750e-02
4.843750e-11,9.079688e-02
5.243750e-11,9.512500e-02
5.643750e-11,9.900000e-02
6.043750e-11,1.029688e-01
6.443750e-11,1.055313e-01
6.843750e-11,1.098750e-01
7.243750e-11,1.126406e-01
7.643750e-11,1.173594e-01
8.043750e-11,1.205469e-01
8.443750e-11,1.238281e-01
8.843750e-11,1.265938e-01
9.243750e-11,1.301875e-01
9.643750e-11,1.329844e-01
1.004375e-10,1.360156e-01
1.044375e-10,1.393594e-01
1.084375e-10,1.425000e-01
1.124375e-10,1.449219e-01
1.164375e-10,1.472031e-01
1.204375e-10,1.497031e-01
1.244375e-10,1.523594e-01
1.284375e-10,1.542656e-01
1.324375e-10,1.569375e-01
1.364375e-10,1.590313e-01
1.404375e-10,1.611406e-01
1.444375e-10,1.616875e-01
1.484375e-10,1.639688e-01
1.524375e-10,1.645625e-01
1.564375e-10,1.669531e-01
1.604375e-10,1.677344e-01
1.644375e-10,1.685469e-01
1.684375e-10,1.687656e-01
1.724375e-10,1.697188e-01
1.764375e-10,1.698594e-01
1.804375e-10,1.701719e-01
1.844375e-10,1.707188e-01
1.884375e-10,1.710469e-01
1.924375e-10,1.706250e-01
1.964375e-10,1.700000e-01
2.004375e-10,1.696094e-01
2.044375e-10,1.693906e-01
2.084375e-10,1.683906e-01
2.124375e-10,1.681563e-01
2.164375e-10,1.673438e-01
2.204375e-10,1.665781e-01
2.244375e-10,1.642344e-01
2.284375e-10,1.637188e-01
2.324375e-10,1.615313e-01
2.364375e-10,1.611406e-01
2.404375e-10,1.592031e-01
2.444375e-10,1.573438e-01
2.484375e-10,1.549375e-01
2.524375e-10,1.533594e-01
2.564375e-10,1.510313e-01
2.604375e-10,1.489375e-01
2.644375e-10,1.471094e-01
2.684375e-10,1.451719e-01
2.724375e-10,1.425469e-01
2.764375e-10,1.397969e-01
2.804375e-10,1.373594e-01
2.844375e-10,1.352031e-01
2.884375e-10,1.323125e-01
2.924375e-10,1.302813e-01
2.964375e-10,1.277656e-01
3.004375e-10,1.254063e-01
3.044375e-10,1.215313e-01
3.084375e-10,1.196094e-01
3.124375e-10,1.161250e-01
3.164375e-10,1.144688e-01
3.204375e-10,1.114063e-01
3.244375e-10,1.084844e-01
3.284375e-10,1.051094e-01
3.324375e-10,1.026875e-01
3.364375e-10,9.962500e-02
3.404375e-10,9.687500e-02
3.444375e-10,9.445313e-02
3.484375e-10,9.201563e-02
3.524375e-10,8.904688e-02
3.564375e-10,8.600000e-02
3.604375e-10,8.334375e-02
3.644375e-10,8.109375e-02
3.684375e-10,7.815625e-02
3.724375e-10,7.615625e-02
3.764375e-10,7.381250e-02
3.804375e-10,7.165625e-02
3.844375e-10,6.807813e-02
3.884375e-10,6.656250e-02
3.924375e-10,6.354688e-02
3.964375e-10,6.242188e-02
4.004375e-10,6.001563e-02
4.044375e-10,5.776563e-02
4.084375e-10,5.515625e-02
4.124375e-10,5.356250e-02
4.164375e-10,5.139063e-02
4.204375e-10,4.959375e-02
4.244375e-10,4.815625e-02
4.284375e-10,4.675000e-02
4.324375e-10,4.492188e-02
4.364375e-10,4.304688e-02
4.404375e-10,4.159375e-02
4.444375e-10,4.059375e-02
4.484375e-10,3.890625e-02
4.524375e-10,3.818750e-02
4.564375e-10,3.720313e-02
4.604375e-10,3.637500e-02
4.644375e-10,3.417188e-02
4.684375e-10,3.404688e-02
4.724375e-10,3.245313e-02
4.764375e-10,3.271875e-02
4.804375e-10,3.175000e-02
4.844375e-10,3.087500e-02
4.884375e-10,2.967188e-02
4.924375e-10,2.945313e-02
4.964375e-10,2.860938e-02
5.004375e-10,2.814063e-02
5.044375e-10,2.801563e-02
5.084375e-10,2.787500e-02
5.124375e-10,2.732813e-02
5.164375e-10,2.665625e-02
5.204375e-10,2.639063e-02
5.244375e-10,2.651563e-02
5.284375e-10,2.590625e-02
5.324375e-10,2.620313e-02
5.364375e-10,2.620313e-02
5.404375e-10,2.626563e-02
5.444375e-10,2.493750e-02
5.484375e-10,2.557813e-02
5.524375e-10,2.473438e-02
5.564375e-10,2.570313e-02
5.604375e-10,2.537500e-02
5.644375e-10,2.500000e-02
5.684375e-10,2.429688e-02
5.724375e-10,2.451563e-02
5.764375e-10,2.398438e-02
5.804375e-10,2.379688e-02
5.844375e-10,2.390625e-02
5.884375e-10,2.393750e-02
5.924375e-10,2.353125e-02
5.964375e-10,2.290625e-02
6.004375e-10,2.267188e-02
6.044375e-10,2.271875e-02
6.084375e-10,2.203125e-02
6.124375e-10,2.220313e-02
6.164375e-10,2.204688e-02
6.204375e-10,2.182813e-02
6.244375e-10,2.028125e-02
6.284375e-10,2.060938e-02
6.324375e-10,1.946875e-02
6.364375e-10,2.012500e-02
6.404375e-10,1.945313e-02
6.444375e-10,1.871875e-02
6.484375e-10,1.760938e-02
6.524375e-10,1.750000e-02
6.564375e-10,1.654688e-02
6.604375e-10,1.595313e-02
6.644375e-10,1.570313e-02
6.684375e-10,1.537500e-02
6.724375e-10,1.464063e-02
6.764375e-10,1.365625e-02
6.804375e-10,1.312500e-02
6.844375e-10,1.287500e-02
6.884375e-10,1.192188e-02
6.924375e-10,1.187500e-02
6.964375e-10,1.156250e-02
7.004375e-10,1.112500e-02
7.044375e-10,9.468750e-03
7.084375e-10,9.671875e-03
7.124375e-10,8.484375e-03
7.164375e-10,9.140625e-03
7.204375e-10,8.484375e-03
7.244375e-10,7.843750e-03
7.284375e-10,6.796875e-03
7.324375e-10,6.843750e-03
7.364375e-10,6.031250e-03
7.404375e-10,5.640625e-03
7.444375e-10,5.671875e-03
7.484375e-10,5.609375e-03
7.524375e-10,5.203125e-03
7.564375e-10,4.531250e-03
7.604375e-10,4.375000e-03
7.644375e-10,4.546875e-03
7.684375e-10,4.015625e-03
7.724375e-10,4.453125e-03
7.764375e-10,4.593750e-03
7.804375e-10,4.625000e-03
7.844375e-10,3.468750e-03
7.884375e-10,4.156250e-03
7.924375e-10,3.437500e-03
7.964375e-10,4.640625e-03
8.004375e-10,4.515625e-03
8.044375e-10,4.390625e-03
8.084375e-10,3.843750e-03
8.124375e-10,4.359375e-03
8.164375e-10,4.062500e-03
8.204375e-10,4.156250e-03
8.244375e-10,4.671875e-03
8.284375e-10,5.000000e-03
8.324375e-10,5.031250e-03
8.364375e-10,4.765625e-03
8.404375e-10,4.953125e-03
8.444375e-10,5.515625e-03
8.484375e-10,5.328125e-03
8.524375e-10,6.078125e-03
8.564375e-10,6.468750e-03
8.604375e-10,6.750000e-03
8.644375e-10,5.828125e-03
8.684375e-10,6.687500e-03
8.724375e-10,6.109375e-03
8.764375e-10,7.484375e-03
8.804375e-10,7.468750e-03
8.844375e-10,7.437500e-03
8.884375e-10,6.953125e-03
8.924375e-10,7.468750e-03
8.964375e-10,7.203125e-03
9.004375e-10,7.296875e-03
9.044375e-10,7.812500e-03
9.084375e-10,8.015625e-03
9.124375e-10,7.984375e-03
9.164375e-10,7.640625e-03
9.204375e-10,7.687500e-03
9.244375e-10,8.171875e-03
9.284375e-10,7.875000e-03
9.324375e-10,8.468750e-03
9.364375e-10,8.703125e-03
9.404375e-10,8.843750e-03
9.444375e-10,7.781250e-03
9.484375e-10,8.500000e-03
9.524375e-10,7.718750e-03
9.564375e-10,8.953125e-03
9.604375e-10,8.781250e-03
9.644375e-10,8.578125e-03
9.684375e-10,7.984375e-03
9.724375e-10,8.343750e-03
9.764375e-10,7.937500e-03
9.804375e-10,7.937500e-03
9.844375e-10,8.343750e-03
9.884375e-10,8.406250e-03
9.924375e-10,8.250000e-03
9.964375e-10,7.843750e-03
1.000437e-09,7.765625e-03
1.004437e-09,8.187500e-03
1.008437e-09,7.828125e-03
1.012437e-09,8.359375e-03
1.016437e-09,8.531250e-03
1.020438e-09,8.656250e-03
1.024438e-09,7.578125e-03
1.028438e-09,8.312500e-03
1.032438e-09,7.500000e-03
1.036438e-09,8.703125e-03
1.040438e-09,8.531250e-03
1.044437e-09,8.312500e-03
1.048437e-09,7.734375e-03
1.052437e-09,8.125000e-03
1.056437e-09,7.734375e-03
1.060437e-09,7.765625e-03
1.064437e-09,8.187500e-03
1.068437e-09,8.296875e-03
1.072437e-09,8.140625e-03
1.076437e-09,7.750000e-03
1.080438e-09,7.703125e-03
1.084438e-09,8.140625e-03
1.088438e-09,7.781250e-03
1.092438e-09,8.343750e-03
1.096438e-09,8.531250e-03
1.100438e-09,8.671875e-03
1.104437e-09,7.593750e-03
1.108437e-09,8.359375e-03
1.112437e-09,7.546875e-03
1.116437e-09,8.734375e-03
1.120437e-09,8.531250e-03
1.124437e-09,8.312500e-03
1.128437e-09,7.703125e-03
1.132437e-09,8.078125e-03
1.136437e-09,7.671875e-03
1.140438e-09,7.656250e-03
1.144438e-09,8.046875e-03
1.148438e-09,8.156250e-03
1.152438e-09,7.953125e-03
1.156438e-09,7.531250e-03
1.160438e-09,7.468750e-03
1.164437e-09,7.859375e-03
1.168437e-09,7.437500e-03
1.172437e-09,7.968750e-03
1.176437e-09,8.140625e-03
1.180437e-09,8.265625e-03
1.184437e-09,7.140625e-03
1.188437e-09,7.890625e-03
1.192437e-09,7.046875e-03
1.196437e-09,8.203125e-03
1.200438e-09,7.984375e-03
1.204438e-09,7.750000e-03
1.208438e-09,7.125000e-03
1.212438e-09,7.500000e-03
1.216438e-09,7.078125e-03
1.220438e-09,7.062500e-03
1.224437e-09,7.453125e-03
1.228437e-09,7.609375e-03
1.232437e-09,7.406250e-03
1.236437e-09,7.000000e-03
1.240437e-09,6.968750e-03
1.244437e-09,7.375000e-03
1.248437e-09,6.984375e-03
1.252437e-09,7.562500e-03
1.256437e-09,7.781250e-03
1.260438e-09,7.953125e-03
1.264438e-09,6.828125e-03
1.268438e-09,7.656250e-03
1.272438e-09,6.859375e-03
1.276438e-09,8.078125e-03
1.280438e-09,7.890625e-03
1.284437e-09,7.718750e-03
1.288437e-09,7.140625e-03
1.292437e-09,7.578125e-03
1.296437e-09,7.203125e-03
1.300437e-09,7.250000e-03
1.304437e-09,7.687500e-03
1.308437e-09,7.906250e-03
1.312437e-09,7.750000e-03
1.316437e-09,7.390625e-03
1.320438e-09,7.421875e-03
1.324438e-09,7.875000e-03
1.328438e-09,7.531250e-03
1.332438e-09,8.171875e-03
1.336438e-09,8.421875e-03
1.340438e-09,8.656250e-03
1.344437e-09,7.531250e-03
1.348437e-09,8.390625e-03
1.352437e-09,7.640625e-03
1.356437e-09,8.890625e-03
1.360437e-09,8.750000e-03
1.364437e-09,8.609375e-03
1.368437e-09,8.062500e-03
1.372437e-09,8.515625e-03
1.376437e-09,8.171875e-03
1.380438e-09,8.234375e-03
1.384438e-09,8.703125e-03
1.388438e-09,8.953125e-03
1.392438e-09,8.812500e-03
1.396438e-09,8.468750e-03
1.400438e-09,8.531250e-03
1.404437e-09,9.000000e-03
1.408437e-09,8.656250e-03
1.412437e-09,9.328125e-03
1.416437e-09,9.578125e-03
1.420437e-09,9.843750e-03
1.424437e-09,8.718750e-03
1.428437e-09,9.578125e-03
1.432437e-09,8.828125e-03
1.436437e-09,1.009375e-02
1.440438e-09,9.953125e-03
1.444438e-09,9.812500e-03
1.448438e-09,9.265625e-03
1.452438e-09,9.718750e-03
1.456438e-09,9.359375e-03
1.460438e-09,9.406250e-03
1.464437e-09,9.859375e-03
1.468437e-09,1.009375e-02
1.472437e-09,9.937500e-03
1.476437e-09,9.562500e-03
1.480437e-09,9.578125e-03
1.484437e-09,1.001563e-02
1.488437e-09,9.625000e-03
1.492437e-09,1.023438e-02
1.496437e-09,1.043750e-02
1.500438e-09,1.064063e-02
1.504438e-09,9.421875e-03
1.508438e-09,1.021875e-02
1.512438e-09,9.390625e-03
1.516438e-09,1.056250e-02
1.520438e-09,1.032813e-02
1.524437e-09,1.007813e-02
1.528437e-09,9.421875e-03
1.532437e-09,9.765625e-03
1.536437e-09,9.281250e-03
1.540437e-09,9.218750e-03
1.544437e-09,9.531250e-03
1.548437e-09,9.640625e-03
1.552437e-09,9.343750e-03
1.556437e-09,8.828125e-03
1.560437e-09,8.718750e-03
1.564438e-09,9.015625e-03
1.568438e-09,8.484375e-03
1.572438e-09,8.968750e-03
1.576438e-09,9.031250e-03
1.580438e-09,9.093750e-03
1.584437e-09,7.750000e-03
1.588437e-09,8.421875e-03
1.592437e-09,7.468750e-03
1.596437e-09,8.531250e-03
1.600437e-09,8.187500e-03
1.604437e-09,7.843750e-03
1.608437e-09,7.093750e-03
1.612437e-09,7.343750e-03
1.616437e-09,6.812500e-03
1.620437e-09,6.671875e-03
1.624438e-09,6.937500e-03
1.628438e-09,7.015625e-03
1.632438e-09,6.687500e-03
1.636438e-09,6.156250e-03
1.640438e-09,6.046875e-03
1.644437e-09,6.343750e-03
1.648437e-09,5.828125e-03
1.652437e-09,6.343750e-03
1.656437e-09,6.453125e-03
1.660437e-09,6.578125e-03
1.664437e-09,5.281250e-03
1.668437e-09,6.031250e-03
1.672437e-09,5.156250e-03
1.676437e-09,6.328125e-03
1.680437e-09,6.078125e-03
1.684438e-09,5.828125e-03
1.688438e-09,5.203125e-03
1.692438e-09,5.578125e-03
1.696438e-09,5.156250e-03
1.700438e-09,5.140625e-03
1.704437e-09,5.531250e-03
1.708437e-09,5.734375e-03
1.712437e-09,5.531250e-03
1.716437e-09,5.125000e-03
1.720437e-09,5.140625e-03
1.724437e-09,5.546875e-03
1.728437e-09,5.140625e-03
1.732437e-09,5.750000e-03
1.736437e-09,5.968750e-03
1.740437e-09,6.171875e-03
1.744438e-09,4.953125e-03
1.748438e-09,5.765625e-03
1.752438e-09,4.953125e-03
1.756438e-09,6.140625e-03
