Measurements-streak-laser/Photodiode-on-Tek-12bit-4GHz/Tek000_ch1_20190613132952148.csv

Model,MSO64
Waveform Type,ANALOG
Horizontal Units,s
Sample Interval,4.000000e-12
Record Length,1000
Zero Index,310.046875
Vertical Units,V

TIME,CH1
-1.240188e-09,2.703125e-03
-1.236187e-09,2.453125e-03
-1.232187e-09,1.812500e-03
-1.228187e-09,2.171875e-03
-1.224187e-09,1.734375e-03
-1.220187e-09,1.718750e-03
-1.216187e-09,2.109375e-03
-1.212187e-09,2.312500e-03
-1.208187e-09,2.125000e-03
-1.204187e-09,1.734375e-03
-1.200187e-09,1.750000e-03
-1.196188e-09,2.187500e-03
-1.192188e-09,1.828125e-03
-1.188188e-09,2.500000e-03
-1.184188e-09,2.765625e-03
-1.180188e-09,3.046875e-03
-1.176187e-09,1.921875e-03
-1.172187e-09,2.828125e-03
-1.168187e-09,2.125000e-03
-1.164187e-09,3.453125e-03
-1.160187e-09,3.375000e-03
-1.156187e-09,3.312500e-03
-1.152187e-09,2.843750e-03
-1.148187e-09,3.406250e-03
-1.144187e-09,3.156250e-03
-1.140187e-09,3.328125e-03
-1.136188e-09,3.906250e-03
-1.132188e-09,4.281250e-03
-1.128188e-09,4.265625e-03
-1.124188e-09,4.046875e-03
-1.120188e-09,4.250000e-03
-1.116187e-09,4.843750e-03
-1.112187e-09,4.640625e-03
-1.108187e-09,5.453125e-03
-1.104187e-09,5.859375e-03
-1.100187e-09,6.250000e-03
-1.096187e-09,5.250000e-03
-1.092187e-09,6.250000e-03
-1.088187e-09,5.640625e-03
-1.084187e-09,7.046875e-03
-1.080187e-09,7.031250e-03
-1.076188e-09,7.015625e-03
-1.072188e-09,6.593750e-03
-1.068188e-09,7.171875e-03
-1.064188e-09,6.937500e-03
-1.060188e-09,7.093750e-03
-1.056188e-09,7.656250e-03
-1.052187e-09,8.015625e-03
-1.048187e-09,7.953125e-03
-1.044187e-09,7.687500e-03
-1.040187e-09,7.812500e-03
-1.036187e-09,8.312500e-03
-1.032187e-09,8.015625e-03
-1.028187e-09,8.718750e-03
-1.024187e-09,9.015625e-03
-1.020187e-09,9.296875e-03
-1.016188e-09,8.140625e-03
-1.012188e-09,9.000000e-03
-1.008188e-09,8.250000e-03
-1.004188e-09,9.500000e-03
-1.000188e-09,9.328125e-03
-9.961875e-10,9.140625e-03
-9.921875e-10,8.546875e-03
-9.881875e-10,8.953125e-03
-9.841875e-10,8.546875e-03
-9.801875e-10,8.531250e-03
-9.761875e-10,8.906250e-03
-9.721875e-10,9.093750e-03
-9.681875e-10,8.859375e-03
-9.641875e-10,8.406250e-03
-9.601875e-10,8.359375e-03
-9.561875e-10,8.718750e-03
-9.521875e-10,8.265625e-03
-9.481875e-10,8.812500e-03
-9.441875e-10,8.953125e-03
-9.401875e-10,9.093750e-03
-9.361875e-10,7.812500e-03
-9.321875e-10,8.562500e-03
-9.281875e-10,7.687500e-03
-9.241875e-10,8.781250e-03
-9.201875e-10,8.515625e-03
-9.161875e-10,8.250000e-03
-9.121875e-10,7.578125e-03
-9.081875e-10,7.906250e-03
-9.041875e-10,7.437500e-03
-9.001875e-10,7.375000e-03
-8.961875e-10,7.734375e-03
-8.921875e-10,7.875000e-03
-8.881875e-10,7.609375e-03
-8.841875e-10,7.156250e-03
-8.801875e-10,7.109375e-03
-8.761875e-10,7.468750e-03
-8.721875e-10,7.031250e-03
-8.681875e-10,7.593750e-03
-8.641875e-10,7.765625e-03
-8.601875e-10,7.937500e-03
-8.561875e-10,6.734375e-03
-8.521875e-10,7.531250e-03
-8.481875e-10,6.703125e-03
-8.441875e-10,7.781250e-03
-8.401875e-10,7.593750e-03
-8.361875e-10,7.390625e-03
-8.321875e-10,6.828125e-03
-8.281875e-10,7.234375e-03
-8.241875e-10,6.828125e-03
-8.201875e-10,6.875000e-03
-8.161875e-10,7.296875e-03
-8.121875e-10,7.515625e-03
-8.081875e-10,7.359375e-03
-8.041875e-10,6.984375e-03
-8.001875e-10,7.000000e-03
-7.961875e-10,7.421875e-03
-7.921875e-10,7.046875e-03
-7.881875e-10,7.671875e-03
-7.841875e-10,7.890625e-03
-7.801875e-10,8.125000e-03
-7.761875e-10,7.031250e-03
-7.721875e-10,7.859375e-03
-7.681875e-10,7.078125e-03
-7.641875e-10,8.078125e-03
-7.601875e-10,7.968750e-03
-7.561875e-10,7.796875e-03
-7.521875e-10,7.296875e-03
-7.481875e-10,7.671875e-03
-7.441875e-10,7.234375e-03
-7.401875e-10,7.328125e-03
-7.361875e-10,7.703125e-03
-7.321875e-10,7.859375e-03
-7.281875e-10,7.765625e-03
-7.241875e-10,7.312500e-03
-7.201875e-10,7.250000e-03
-7.161875e-10,7.593750e-03
-7.121875e-10,7.156250e-03
-7.081875e-10,7.687500e-03
-7.041875e-10,7.843750e-03
-7.001875e-10,7.968750e-03
-6.961875e-10,6.765625e-03
-6.921875e-10,7.500000e-03
-6.881875e-10,6.671875e-03
-6.841875e-10,7.484375e-03
-6.801875e-10,7.296875e-03
-6.761875e-10,7.046875e-03
-6.721875e-10,6.437500e-03
-6.681875e-10,6.656250e-03
-6.641875e-10,6.046875e-03
-6.601875e-10,6.078125e-03
-6.561875e-10,6.312500e-03
-6.521875e-10,6.296875e-03
-6.481875e-10,6.234375e-03
-6.441875e-10,5.640625e-03
-6.401875e-10,5.453125e-03
-6.361875e-10,5.671875e-03
-6.321875e-10,5.203125e-03
-6.281875e-10,5.625000e-03
-6.241875e-10,5.718750e-03
-6.201875e-10,5.734375e-03
-6.161875e-10,4.421875e-03
-6.121875e-10,5.140625e-03
-6.081875e-10,4.375000e-03
-6.041875e-10,5.140625e-03
-6.001875e-10,4.984375e-03
-5.961875e-10,4.765625e-03
-5.921875e-10,4.187500e-03
-5.881875e-10,4.406250e-03
-5.841875e-10,3.828125e-03
-5.801875e-10,3.937500e-03
-5.761875e-10,4.281250e-03
-5.721875e-10,4.312500e-03
-5.681875e-10,4.421875e-03
-5.641875e-10,3.953125e-03
-5.601875e-10,3.921875e-03
-5.561875e-10,4.312500e-03
-5.521875e-10,4.046875e-03
-5.481875e-10,4.671875e-03
-5.441875e-10,4.921875e-03
-5.401875e-10,5.140625e-03
-5.361875e-10,4.000000e-03
-5.321875e-10,4.906250e-03
-5.281875e-10,4.453125e-03
-5.241875e-10,5.437500e-03
-5.201875e-10,5.593750e-03
-5.161875e-10,5.562500e-03
-5.121875e-10,5.218750e-03
-5.081875e-10,5.671875e-03
-5.041875e-10,5.359375e-03
-5.001875e-10,5.640625e-03
-4.961875e-10,6.250000e-03
-4.921875e-10,6.468750e-03
-4.881875e-10,6.703125e-03
-4.841875e-10,6.453125e-03
-4.801875e-10,6.640625e-03
-4.761875e-10,7.218750e-03
-4.721875e-10,7.046875e-03
-4.681875e-10,7.859375e-03
-4.641875e-10,8.156250e-03
-4.601875e-10,8.453125e-03
-4.561875e-10,7.390625e-03
-4.521875e-10,8.250000e-03
-4.481875e-10,7.828125e-03
-4.441875e-10,8.812500e-03
-4.401875e-10,9.000000e-03
-4.361875e-10,8.828125e-03
-4.321875e-10,8.375000e-03
-4.281875e-10,8.718750e-03
-4.241875e-10,8.375000e-03
-4.201875e-10,8.390625e-03
-4.161875e-10,8.859375e-03
-4.121875e-10,8.875000e-03
-4.081875e-10,8.750000e-03
-4.041875e-10,8.281250e-03
-4.001875e-10,8.312500e-03
-3.961875e-10,8.671875e-03
-3.921875e-10,8.109375e-03
-3.881875e-10,8.671875e-03
-3.841875e-10,8.687500e-03
-3.801875e-10,8.671875e-03
-3.761875e-10,7.343750e-03
-3.721875e-10,7.796875e-03
-3.681875e-10,7.093750e-03
-3.641875e-10,7.812500e-03
-3.601875e-10,7.703125e-03
-3.561875e-10,7.218750e-03
-3.521875e-10,6.546875e-03
-3.481875e-10,6.671875e-03
-3.441875e-10,6.203125e-03
-3.401875e-10,5.921875e-03
-3.361875e-10,6.203125e-03
-3.321875e-10,6.093750e-03
-3.281875e-10,5.765625e-03
-3.241875e-10,5.265625e-03
-3.201875e-10,5.265625e-03
-3.161875e-10,5.640625e-03
-3.121875e-10,5.062500e-03
-3.081875e-10,5.593750e-03
-3.041875e-10,5.781250e-03
-3.001875e-10,5.875000e-03
-2.961875e-10,4.750000e-03
-2.921875e-10,5.312500e-03
-2.881875e-10,4.781250e-03
-2.841875e-10,5.765625e-03
-2.801875e-10,5.875000e-03
-2.761875e-10,5.687500e-03
-2.721875e-10,5.375000e-03
-2.681875e-10,5.843750e-03
-2.641875e-10,5.718750e-03
-2.601875e-10,5.765625e-03
-2.561875e-10,6.359375e-03
-2.521875e-10,6.609375e-03
-2.481875e-10,6.593750e-03
-2.441875e-10,6.531250e-03
-2.401875e-10,6.828125e-03
-2.361875e-10,7.500000e-03
-2.321875e-10,7.281250e-03
-2.281875e-10,8.046875e-03
-2.241875e-10,8.531250e-03
-2.201875e-10,8.828125e-03
-2.161875e-10,7.953125e-03
-2.121875e-10,8.671875e-03
-2.081875e-10,8.156250e-03
-2.041875e-10,9.265625e-03
-2.001875e-10,9.296875e-03
-1.961875e-10,9.125000e-03
-1.921875e-10,8.781250e-03
-1.881875e-10,9.109375e-03
-1.841875e-10,8.765625e-03
-1.801875e-10,8.609375e-03
-1.761875e-10,8.843750e-03
-1.721875e-10,8.765625e-03
-1.681875e-10,8.328125e-03
-1.641875e-10,7.890625e-03
-1.601875e-10,7.656250e-03
-1.561875e-10,7.703125e-03
-1.521875e-10,6.984375e-03
-1.481875e-10,7.140625e-03
-1.441875e-10,6.984375e-03
-1.401875e-10,6.703125e-03
-1.361875e-10,5.281250e-03
-1.321875e-10,5.390625e-03
-1.281875e-10,4.187500e-03
-1.241875e-10,4.796875e-03
-1.201875e-10,4.187500e-03
-1.161875e-10,3.531250e-03
-1.121875e-10,2.765625e-03
-1.081875e-10,2.750000e-03
-1.041875e-10,2.078125e-03
-1.001875e-10,1.781250e-03
-9.618750e-11,1.875000e-03
-9.218750e-11,1.843750e-03
-8.818750e-11,1.531250e-03
-8.418750e-11,1.406250e-03
-8.018750e-11,1.578125e-03
-7.618750e-11,2.125000e-03
-7.218750e-11,2.156250e-03
-6.818750e-11,3.296875e-03
-6.418750e-11,4.234375e-03
-6.018750e-11,5.359375e-03
-5.618750e-11,5.546875e-03
-5.218750e-11,7.437500e-03
-4.818750e-11,8.171875e-03
-4.418750e-11,1.106250e-02
-4.018750e-11,1.279688e-02
-3.618750e-11,1.487500e-02
-3.218750e-11,1.701563e-02
-2.818750e-11,2.017188e-02
-2.418750e-11,2.287500e-02
-2.018750e-11,2.618750e-02
-1.618750e-11,3.012500e-02
-1.218750e-11,3.423438e-02
-8.187500e-12,3.815625e-02
-4.187500e-12,4.251563e-02
-1.875000e-13,4.731250e-02
3.812500e-12,5.262500e-02
7.812500e-12,5.768750e-02
1.181250e-11,6.400000e-02
1.581250e-11,7.020313e-02
1.981250e-11,7.682813e-02
2.381250e-11,8.256250e-02
2.781250e-11,9.004688e-02
3.181250e-11,9.640625e-02
3.581250e-11,1.050156e-01
3.981250e-11,1.123906e-01
4.381250e-11,1.202500e-01
4.781250e-11,1.280313e-01
5.181250e-11,1.367656e-01
5.581250e-11,1.450156e-01
5.981250e-11,1.537344e-01
6.381250e-11,1.630000e-01
6.781250e-11,1.723594e-01
7.181250e-11,1.811719e-01
7.581250e-11,1.902813e-01
7.981250e-11,1.995938e-01
8.381250e-11,2.091406e-01
8.781250e-11,2.182813e-01
9.181250e-11,2.283125e-01
9.581250e-11,2.378594e-01
9.981250e-11,2.476250e-01
1.038125e-10,2.560469e-01
1.078125e-10,2.659063e-01
1.118125e-10,2.742344e-01
1.158125e-10,2.843750e-01
1.198125e-10,2.928438e-01
1.238125e-10,3.015156e-01
1.278125e-10,3.095469e-01
1.318125e-10,3.180625e-01
1.358125e-10,3.257813e-01
1.398125e-10,3.334688e-01
1.438125e-10,3.412813e-01
1.478125e-10,3.488438e-01
1.518125e-10,3.552344e-01
1.558125e-10,3.615313e-01
1.598125e-10,3.676719e-01
1.638125e-10,3.736250e-01
1.678125e-10,3.788125e-01
1.718125e-10,3.844063e-01
1.758125e-10,3.890938e-01
1.798125e-10,3.937656e-01
1.838125e-10,3.966250e-01
1.878125e-10,4.007344e-01
1.918125e-10,4.029844e-01
1.958125e-10,4.066719e-01
1.998125e-10,4.084219e-01
2.038125e-10,4.102031e-01
2.078125e-10,4.110781e-01
2.118125e-10,4.122344e-01
2.158125e-10,4.125469e-01
2.198125e-10,4.126719e-01
2.238125e-10,4.127188e-01
2.278125e-10,4.125469e-01
2.318125e-10,4.110625e-01
2.358125e-10,4.093906e-01
2.398125e-10,4.076875e-01
2.438125e-10,4.058125e-01
2.478125e-10,4.032031e-01
2.518125e-10,4.010000e-01
2.558125e-10,3.979688e-01
2.598125e-10,3.951094e-01
2.638125e-10,3.905000e-01
2.678125e-10,3.874063e-01
2.718125e-10,3.826250e-01
2.758125e-10,3.793438e-01
2.798125e-10,3.744063e-01
2.838125e-10,3.696719e-01
2.878125e-10,3.642813e-01
2.918125e-10,3.595000e-01
2.958125e-10,3.541563e-01
2.998125e-10,3.488438e-01
3.038125e-10,3.436563e-01
3.078125e-10,3.385781e-01
3.118125e-10,3.324844e-01
3.158125e-10,3.264688e-01
3.198125e-10,3.207344e-01
3.238125e-10,3.151563e-01
3.278125e-10,3.090313e-01
3.318125e-10,3.036094e-01
3.358125e-10,2.977031e-01
3.398125e-10,2.922188e-01
3.438125e-10,2.851875e-01
3.478125e-10,2.800625e-01
3.518125e-10,2.735156e-01
3.558125e-10,2.685781e-01
3.598125e-10,2.623281e-01
3.638125e-10,2.564688e-01
3.678125e-10,2.501406e-01
3.718125e-10,2.447188e-01
3.758125e-10,2.389375e-01
3.798125e-10,2.333281e-01
3.838125e-10,2.279844e-01
3.878125e-10,2.228750e-01
3.918125e-10,2.170781e-01
3.958125e-10,2.113906e-01
3.998125e-10,2.060938e-01
4.038125e-10,2.011563e-01
4.078125e-10,1.956563e-01
4.118125e-10,1.910000e-01
4.158125e-10,1.860313e-01
4.198125e-10,1.814844e-01
4.238125e-10,1.754531e-01
4.278125e-10,1.714844e-01
4.318125e-10,1.661406e-01
4.358125e-10,1.623906e-01
4.398125e-10,1.574844e-01
4.438125e-10,1.529063e-01
4.478125e-10,1.479063e-01
4.518125e-10,1.438750e-01
4.558125e-10,1.395000e-01
4.598125e-10,1.353594e-01
4.638125e-10,1.314219e-01
4.678125e-10,1.277344e-01
4.718125e-10,1.235469e-01
4.758125e-10,1.194063e-01
4.798125e-10,1.156094e-01
4.838125e-10,1.122813e-01
4.878125e-10,1.083438e-01
4.918125e-10,1.052031e-01
4.958125e-10,1.018906e-01
4.998125e-10,9.889063e-02
5.038125e-10,9.453125e-02
5.078125e-10,9.220313e-02
5.118125e-10,8.856250e-02
5.158125e-10,8.653125e-02
5.198125e-10,8.342188e-02
5.238125e-10,8.048438e-02
5.278125e-10,7.731250e-02
5.318125e-10,7.506250e-02
5.358125e-10,7.239063e-02
5.398125e-10,7.006250e-02
5.438125e-10,6.793750e-02
5.478125e-10,6.606250e-02
5.518125e-10,6.381250e-02
5.558125e-10,6.153125e-02
5.598125e-10,5.965625e-02
5.638125e-10,5.820313e-02
5.678125e-10,5.614063e-02
5.718125e-10,5.485938e-02
5.758125e-10,5.348438e-02
5.798125e-10,5.228125e-02
5.838125e-10,4.981250e-02
5.878125e-10,4.928125e-02
5.918125e-10,4.750000e-02
5.958125e-10,4.729688e-02
5.998125e-10,4.603125e-02
6.038125e-10,4.475000e-02
6.078125e-10,4.329688e-02
6.118125e-10,4.276563e-02
6.158125e-10,4.159375e-02
6.198125e-10,4.076563e-02
6.238125e-10,4.015625e-02
6.278125e-10,3.971875e-02
6.318125e-10,3.889063e-02
6.358125e-10,3.787500e-02
6.398125e-10,3.732813e-02
6.438125e-10,3.696875e-02
6.478125e-10,3.601563e-02
6.518125e-10,3.576563e-02
6.558125e-10,3.537500e-02
6.598125e-10,3.493750e-02
6.638125e-10,3.329688e-02
6.678125e-10,3.340625e-02
6.718125e-10,3.228125e-02
6.758125e-10,3.267188e-02
6.798125e-10,3.190625e-02
6.838125e-10,3.101563e-02
6.878125e-10,2.982813e-02
6.918125e-10,2.964063e-02
6.958125e-10,2.856250e-02
6.998125e-10,2.779688e-02
7.038125e-10,2.732813e-02
7.078125e-10,2.693750e-02
7.118125e-10,2.610938e-02
7.158125e-10,2.498438e-02
7.198125e-10,2.439063e-02
7.238125e-10,2.385938e-02
7.278125e-10,2.275000e-02
7.318125e-10,2.240625e-02
7.358125e-10,2.190625e-02
7.398125e-10,2.115625e-02
7.438125e-10,1.939063e-02
7.478125e-10,1.925000e-02
7.518125e-10,1.796875e-02
7.558125e-10,1.826563e-02
7.598125e-10,1.739063e-02
7.638125e-10,1.646875e-02
7.678125e-10,1.512500e-02
7.718125e-10,1.493750e-02
7.758125e-10,1.384375e-02
7.798125e-10,1.309375e-02
7.838125e-10,1.279688e-02
7.878125e-10,1.250000e-02
7.918125e-10,1.190625e-02
7.958125e-10,1.098438e-02
7.998125e-10,1.067188e-02
8.038125e-10,1.053125e-02
8.078125e-10,9.859375e-03
8.118125e-10,1.001563e-02
8.158125e-10,1.004688e-02
8.198125e-10,9.781250e-03
8.238125e-10,8.687500e-03
8.278125e-10,9.125000e-03
8.318125e-10,8.468750e-03
8.358125e-10,9.578125e-03
8.398125e-10,9.468750e-03
8.438125e-10,9.390625e-03
8.478125e-10,8.859375e-03
8.518125e-10,9.437500e-03
8.558125e-10,9.203125e-03
8.598125e-10,9.343750e-03
8.638125e-10,9.968750e-03
8.678125e-10,1.040625e-02
8.718125e-10,1.070313e-02
8.758125e-10,1.060938e-02
8.798125e-10,1.101563e-02
8.838125e-10,1.178125e-02
8.878125e-10,1.189063e-02
8.918125e-10,1.281250e-02
8.958125e-10,1.350000e-02
8.998125e-10,1.389063e-02
9.038125e-10,1.343750e-02
9.078125e-10,1.437500e-02
9.118125e-10,1.414063e-02
9.158125e-10,1.576563e-02
9.198125e-10,1.606250e-02
9.238125e-10,1.628125e-02
9.278125e-10,1.606250e-02
9.318125e-10,1.676563e-02
9.358125e-10,1.670313e-02
9.398125e-10,1.698438e-02
9.438125e-10,1.767188e-02
9.478125e-10,1.789063e-02
9.518125e-10,1.809375e-02
9.558125e-10,1.784375e-02
9.598125e-10,1.792188e-02
9.638125e-10,1.848438e-02
9.678125e-10,1.828125e-02
9.718125e-10,1.882813e-02
9.758125e-10,1.900000e-02
9.798125e-10,1.895313e-02
9.838125e-10,1.803125e-02
9.878125e-10,1.848438e-02
9.918125e-10,1.759375e-02
9.958125e-10,1.865625e-02
9.998125e-10,1.834375e-02
1.003813e-09,1.793750e-02
1.007813e-09,1.712500e-02
1.011813e-09,1.718750e-02
1.015813e-09,1.653125e-02
1.019812e-09,1.626563e-02
1.023812e-09,1.637500e-02
1.027812e-09,1.595313e-02
1.031812e-09,1.557813e-02
1.035812e-09,1.484375e-02
1.039812e-09,1.435938e-02
1.043812e-09,1.448438e-02
1.047812e-09,1.384375e-02
1.051812e-09,1.396875e-02
1.055813e-09,1.378125e-02
1.059813e-09,1.343750e-02
1.063813e-09,1.226563e-02
1.067813e-09,1.257813e-02
1.071813e-09,1.150000e-02
1.075813e-09,1.235938e-02
1.079812e-09,1.195313e-02
1.083812e-09,1.150000e-02
1.087812e-09,1.070313e-02
1.091812e-09,1.082813e-02
1.095812e-09,1.028125e-02
1.099812e-09,1.014063e-02
1.103812e-09,1.043750e-02
1.107812e-09,1.026563e-02
1.111812e-09,1.006250e-02
1.115813e-09,9.625000e-03
1.119813e-09,9.421875e-03
1.123813e-09,9.859375e-03
1.127813e-09,9.531250e-03
1.131813e-09,1.001563e-02
1.135813e-09,1.020313e-02
1.139812e-09,1.028125e-02
1.143812e-09,9.484375e-03
1.147812e-09,1.025000e-02
1.151812e-09,9.531250e-03
1.155812e-09,1.076563e-02
1.159812e-09,1.070313e-02
1.163812e-09,1.060938e-02
1.167812e-09,1.014063e-02
1.171812e-09,1.064063e-02
1.175813e-09,1.039063e-02
1.179813e-09,1.053125e-02
1.183813e-09,1.109375e-02
1.187813e-09,1.123438e-02
1.191813e-09,1.121875e-02
1.195813e-09,1.095313e-02
1.199812e-09,1.095313e-02
1.203812e-09,1.150000e-02
1.207812e-09,1.123438e-02
1.211812e-09,1.182813e-02
1.215812e-09,1.207813e-02
1.219812e-09,1.223438e-02
1.223812e-09,1.135938e-02
1.227812e-09,1.215625e-02
1.231812e-09,1.137500e-02
1.235813e-09,1.253125e-02
1.239813e-09,1.235938e-02
1.243813e-09,1.215625e-02
1.247813e-09,1.154688e-02
1.251813e-09,1.190625e-02
1.255812e-09,1.148438e-02
1.259812e-09,1.145313e-02
1.263812e-09,1.182813e-02
1.267812e-09,1.187500e-02
1.271812e-09,1.164063e-02
1.275812e-09,1.118750e-02
1.279812e-09,1.106250e-02
1.283812e-09,1.140625e-02
1.287812e-09,1.096875e-02
1.291812e-09,1.143750e-02
1.295813e-09,1.156250e-02
1.299813e-09,1.162500e-02
1.303813e-09,1.054688e-02
1.307813e-09,1.126563e-02
1.311813e-09,1.042188e-02
1.315812e-09,1.153125e-02
1.319812e-09,1.129688e-02
1.323812e-09,1.107813e-02
1.327812e-09,1.046875e-02
1.331812e-09,1.085938e-02
1.335812e-09,1.046875e-02
1.339812e-09,1.050000e-02
1.343812e-09,1.092188e-02
1.347812e-09,1.112500e-02
1.351812e-09,1.098438e-02
1.355813e-09,1.065625e-02
1.359813e-09,1.068750e-02
1.363813e-09,1.118750e-02
1.367813e-09,1.090625e-02
1.371813e-09,1.156250e-02
1.375812e-09,1.187500e-02
1.379812e-09,1.217188e-02
1.383812e-09,1.118750e-02
1.387812e-09,1.210938e-02
1.391812e-09,1.145313e-02
1.395812e-09,1.276563e-02
1.399812e-09,1.270313e-02
1.403812e-09,1.264063e-02
1.407812e-09,1.218750e-02
1.411812e-09,1.271875e-02
1.415813e-09,1.245313e-02
1.419813e-09,1.257813e-02
1.423813e-09,1.309375e-02
1.427813e-09,1.337500e-02
1.431813e-09,1.328125e-02
1.435812e-09,1.296875e-02
1.439812e-09,1.303125e-02
1.443812e-09,1.350000e-02
1.447812e-09,1.315625e-02
1.451812e-09,1.376563e-02
1.455812e-09,1.396875e-02
1.459812e-09,1.415625e-02
1.463812e-09,1.296875e-02
1.467812e-09,1.371875e-02
1.471812e-09,1.285938e-02
1.475813e-09,1.396875e-02
1.479813e-09,1.365625e-02
1.483813e-09,1.332813e-02
1.487813e-09,1.259375e-02
1.491813e-09,1.282813e-02
1.495812e-09,1.223438e-02
1.499812e-09,1.204688e-02
1.503812e-09,1.221875e-02
1.507812e-09,1.217188e-02
1.511812e-09,1.173438e-02
1.515812e-09,1.106250e-02
1.519812e-09,1.078125e-02
1.523812e-09,1.089063e-02
1.527812e-09,1.018750e-02
1.531812e-09,1.046875e-02
1.535813e-09,1.034375e-02
1.539813e-09,1.021875e-02
1.543813e-09,8.703125e-03
1.547813e-09,9.187500e-03
1.551813e-09,8.062500e-03
1.555812e-09,8.921875e-03
1.559812e-09,8.406250e-03
1.563812e-09,7.875000e-03
1.567812e-09,6.968750e-03
1.571812e-09,7.062500e-03
1.575812e-09,6.375000e-03
1.579812e-09,6.093750e-03
1.583812e-09,6.234375e-03
1.587812e-09,6.187500e-03
1.591812e-09,5.750000e-03
1.595813e-09,5.125000e-03
1.599813e-09,4.937500e-03
1.603813e-09,5.156250e-03
1.607813e-09,4.609375e-03
1.611813e-09,5.062500e-03
1.615812e-09,5.156250e-03
1.619812e-09,5.265625e-03
1.623812e-09,4.015625e-03
1.627812e-09,4.781250e-03
1.631812e-09,3.968750e-03
1.635812e-09,5.171875e-03
1.639812e-09,5.000000e-03
1.643812e-09,4.843750e-03
1.647812e-09,4.312500e-03
1.651812e-09,4.812500e-03
1.655813e-09,4.531250e-03
1.659813e-09,4.671875e-03
1.663813e-09,5.218750e-03
1.667813e-09,5.593750e-03
1.671813e-09,5.578125e-03
1.675812e-09,5.375000e-03
1.679812e-09,5.593750e-03
1.683812e-09,6.218750e-03
1.687812e-09,6.046875e-03
1.691812e-09,6.890625e-03
1.695812e-09,7.343750e-03
1.699812e-09,7.796875e-03
1.703812e-09,6.843750e-03
1.707812e-09,7.906250e-03
1.711812e-09,7.343750e-03
1.715813e-09,8.796875e-03
1.719813e-09,8.843750e-03
1.723813e-09,8.890625e-03
1.727813e-09,8.515625e-03
1.731813e-09,9.125000e-03
1.735812e-09,8.937500e-03
1.739812e-09,9.125000e-03
1.743812e-09,9.703125e-03
1.747812e-09,1.006250e-02
1.751812e-09,1.001563e-02
1.755812e-09,9.734375e-03
1.759812e-09,9.843750e-03
