Measurements-streak-laser/Photodiode-on-Tek-12bit-4GHz/Tek000_ch1_20190613133010701.csv

Model,MSO64
Waveform Type,ANALOG
Horizontal Units,s
Sample Interval,4.000000e-12
Record Length,1000
Zero Index,310.765625
Vertical Units,V

TIME,CH1
-1.243063e-09,2.609375e-03
-1.239063e-09,2.406250e-03
-1.235063e-09,3.218750e-03
-1.231063e-09,3.625000e-03
-1.227063e-09,4.031250e-03
-1.223062e-09,3.000000e-03
-1.219062e-09,4.015625e-03
-1.215062e-09,3.390625e-03
-1.211062e-09,4.796875e-03
-1.207062e-09,4.781250e-03
-1.203062e-09,4.750000e-03
-1.199062e-09,4.312500e-03
-1.195062e-09,4.875000e-03
-1.191062e-09,4.625000e-03
-1.187063e-09,4.765625e-03
-1.183063e-09,5.296875e-03
-1.179063e-09,5.609375e-03
-1.175063e-09,5.515625e-03
-1.171063e-09,5.203125e-03
-1.167063e-09,5.281250e-03
-1.163062e-09,5.750000e-03
-1.159062e-09,5.406250e-03
-1.155062e-09,6.062500e-03
-1.151062e-09,6.296875e-03
-1.147062e-09,6.531250e-03
-1.143062e-09,5.328125e-03
-1.139062e-09,6.140625e-03
-1.135062e-09,5.312500e-03
-1.131062e-09,6.531250e-03
-1.127063e-09,6.296875e-03
-1.123063e-09,6.062500e-03
-1.119063e-09,5.421875e-03
-1.115063e-09,5.781250e-03
-1.111063e-09,5.328125e-03
-1.107063e-09,5.281250e-03
-1.103062e-09,5.640625e-03
-1.099062e-09,5.781250e-03
-1.095062e-09,5.531250e-03
-1.091062e-09,5.062500e-03
-1.087062e-09,5.015625e-03
-1.083062e-09,5.375000e-03
-1.079062e-09,4.921875e-03
-1.075062e-09,5.484375e-03
-1.071062e-09,5.640625e-03
-1.067063e-09,5.812500e-03
-1.063063e-09,4.578125e-03
-1.059063e-09,5.359375e-03
-1.055063e-09,4.531250e-03
-1.051063e-09,5.750000e-03
-1.047063e-09,5.546875e-03
-1.043062e-09,5.343750e-03
-1.039062e-09,4.750000e-03
-1.035062e-09,5.187500e-03
-1.031062e-09,4.812500e-03
-1.027062e-09,4.843750e-03
-1.023062e-09,5.296875e-03
-1.019062e-09,5.546875e-03
-1.015062e-09,5.406250e-03
-1.011062e-09,5.062500e-03
-1.007063e-09,5.125000e-03
-1.003063e-09,5.609375e-03
-9.990625e-10,5.281250e-03
-9.950625e-10,5.968750e-03
-9.910625e-10,6.250000e-03
-9.870625e-10,6.546875e-03
-9.830625e-10,5.406250e-03
-9.790625e-10,6.312500e-03
-9.750625e-10,5.578125e-03
-9.710625e-10,6.859375e-03
-9.670625e-10,6.734375e-03
-9.630625e-10,6.609375e-03
-9.590625e-10,6.078125e-03
-9.550625e-10,6.546875e-03
-9.510625e-10,6.203125e-03
-9.470625e-10,6.250000e-03
-9.430625e-10,6.703125e-03
-9.390625e-10,6.937500e-03
-9.350625e-10,6.765625e-03
-9.310625e-10,6.375000e-03
-9.270625e-10,6.390625e-03
-9.230625e-10,6.796875e-03
-9.190625e-10,6.375000e-03
-9.150625e-10,6.968750e-03
-9.110625e-10,7.125000e-03
-9.070625e-10,7.296875e-03
-9.030625e-10,6.046875e-03
-8.990625e-10,6.796875e-03
-8.950625e-10,5.906250e-03
-8.910625e-10,7.000000e-03
-8.870625e-10,6.718750e-03
-8.830625e-10,6.421875e-03
-8.790625e-10,5.718750e-03
-8.750625e-10,6.015625e-03
-8.710625e-10,5.484375e-03
-8.670625e-10,5.375000e-03
-8.630625e-10,5.656250e-03
-8.590625e-10,5.734375e-03
-8.550625e-10,5.406250e-03
-8.510625e-10,4.859375e-03
-8.470625e-10,4.718750e-03
-8.430625e-10,4.984375e-03
-8.390625e-10,4.437500e-03
-8.350625e-10,4.906250e-03
-8.310625e-10,4.968750e-03
-8.270625e-10,5.031250e-03
-8.230625e-10,3.718750e-03
-8.190625e-10,4.406250e-03
-8.150625e-10,3.468750e-03
-8.110625e-10,4.453125e-03
-8.070625e-10,4.187500e-03
-8.030625e-10,3.875000e-03
-7.990625e-10,3.203125e-03
-7.950625e-10,3.500000e-03
-7.910625e-10,3.000000e-03
-7.870625e-10,2.968750e-03
-7.830625e-10,3.281250e-03
-7.790625e-10,3.421875e-03
-7.750625e-10,3.218750e-03
-7.710625e-10,2.750000e-03
-7.670625e-10,2.703125e-03
-7.630625e-10,3.078125e-03
-7.590625e-10,2.640625e-03
-7.550625e-10,3.234375e-03
-7.510625e-10,3.437500e-03
-7.470625e-10,3.625000e-03
-7.430625e-10,2.453125e-03
-7.390625e-10,3.281250e-03
-7.350625e-10,2.500000e-03
-7.310625e-10,3.593750e-03
-7.270625e-10,3.484375e-03
-7.230625e-10,3.328125e-03
-7.190625e-10,2.796875e-03
-7.150625e-10,3.218750e-03
-7.110625e-10,2.812500e-03
-7.070625e-10,2.921875e-03
-7.030625e-10,3.343750e-03
-6.990625e-10,3.546875e-03
-6.950625e-10,3.500000e-03
-6.910625e-10,3.125000e-03
-6.870625e-10,3.125000e-03
-6.830625e-10,3.562500e-03
-6.790625e-10,3.218750e-03
-6.750625e-10,3.828125e-03
-6.710625e-10,4.078125e-03
-6.670625e-10,4.281250e-03
-6.630625e-10,3.109375e-03
-6.590625e-10,3.953125e-03
-6.550625e-10,3.218750e-03
-6.510625e-10,4.296875e-03
-6.470625e-10,4.171875e-03
-6.430625e-10,4.015625e-03
-6.390625e-10,3.468750e-03
-6.350625e-10,3.828125e-03
-6.310625e-10,3.359375e-03
-6.270625e-10,3.437500e-03
-6.230625e-10,3.828125e-03
-6.190625e-10,3.953125e-03
-6.150625e-10,3.890625e-03
-6.110625e-10,3.453125e-03
-6.070625e-10,3.406250e-03
-6.030625e-10,3.765625e-03
-5.990625e-10,3.390625e-03
-5.950625e-10,3.968750e-03
-5.910625e-10,4.156250e-03
-5.870625e-10,4.296875e-03
-5.830625e-10,3.062500e-03
-5.790625e-10,3.859375e-03
-5.750625e-10,3.140625e-03
-5.710625e-10,4.171875e-03
-5.670625e-10,4.046875e-03
-5.630625e-10,3.859375e-03
-5.590625e-10,3.281250e-03
-5.550625e-10,3.625000e-03
-5.510625e-10,3.171875e-03
-5.470625e-10,3.234375e-03
-5.430625e-10,3.640625e-03
-5.390625e-10,3.765625e-03
-5.350625e-10,3.703125e-03
-5.310625e-10,3.296875e-03
-5.270625e-10,3.296875e-03
-5.230625e-10,3.703125e-03
-5.190625e-10,3.359375e-03
-5.150625e-10,3.984375e-03
-5.110625e-10,4.187500e-03
-5.070625e-10,4.390625e-03
-5.030625e-10,3.187500e-03
-4.990625e-10,4.000000e-03
-4.950625e-10,3.359375e-03
-4.910625e-10,4.453125e-03
-4.870625e-10,4.406250e-03
-4.830625e-10,4.234375e-03
-4.790625e-10,3.718750e-03
-4.750625e-10,4.109375e-03
-4.710625e-10,3.750000e-03
-4.670625e-10,3.812500e-03
-4.630625e-10,4.296875e-03
-4.590625e-10,4.468750e-03
-4.550625e-10,4.390625e-03
-4.510625e-10,4.046875e-03
-4.470625e-10,4.125000e-03
-4.430625e-10,4.609375e-03
-4.390625e-10,4.265625e-03
-4.350625e-10,4.953125e-03
-4.310625e-10,5.203125e-03
-4.270625e-10,5.437500e-03
-4.230625e-10,4.296875e-03
-4.190625e-10,5.093750e-03
-4.150625e-10,4.500000e-03
-4.110625e-10,5.640625e-03
-4.070625e-10,5.656250e-03
-4.030625e-10,5.484375e-03
-3.990625e-10,5.015625e-03
-3.950625e-10,5.453125e-03
-3.910625e-10,5.187500e-03
-3.870625e-10,5.234375e-03
-3.830625e-10,5.765625e-03
-3.790625e-10,6.000000e-03
-3.750625e-10,5.906250e-03
-3.710625e-10,5.625000e-03
-3.670625e-10,5.796875e-03
-3.630625e-10,6.343750e-03
-3.590625e-10,6.015625e-03
-3.550625e-10,6.750000e-03
-3.510625e-10,7.078125e-03
-3.470625e-10,7.359375e-03
-3.430625e-10,6.312500e-03
-3.390625e-10,7.125000e-03
-3.350625e-10,6.562500e-03
-3.310625e-10,7.750000e-03
-3.270625e-10,7.796875e-03
-3.230625e-10,7.671875e-03
-3.190625e-10,7.265625e-03
-3.150625e-10,7.750000e-03
-3.110625e-10,7.515625e-03
-3.070625e-10,7.562500e-03
-3.030625e-10,8.078125e-03
-2.990625e-10,8.312500e-03
-2.950625e-10,8.187500e-03
-2.910625e-10,7.921875e-03
-2.870625e-10,8.031250e-03
-2.830625e-10,8.531250e-03
-2.790625e-10,8.140625e-03
-2.750625e-10,8.765625e-03
-2.710625e-10,9.031250e-03
-2.670625e-10,9.203125e-03
-2.630625e-10,8.046875e-03
-2.590625e-10,8.703125e-03
-2.550625e-10,7.937500e-03
-2.510625e-10,8.984375e-03
-2.470625e-10,8.796875e-03
-2.430625e-10,8.468750e-03
-2.390625e-10,7.859375e-03
-2.350625e-10,8.093750e-03
-2.310625e-10,7.593750e-03
-2.270625e-10,7.390625e-03
-2.230625e-10,7.593750e-03
-2.190625e-10,7.515625e-03
-2.150625e-10,7.062500e-03
-2.110625e-10,6.515625e-03
-2.070625e-10,6.281250e-03
-2.030625e-10,6.406250e-03
-1.990625e-10,5.718750e-03
-1.950625e-10,6.000000e-03
-1.910625e-10,5.921875e-03
-1.870625e-10,5.781250e-03
-1.830625e-10,4.343750e-03
-1.790625e-10,4.718750e-03
-1.750625e-10,3.625000e-03
-1.710625e-10,4.453125e-03
-1.670625e-10,3.968750e-03
-1.630625e-10,3.453125e-03
-1.590625e-10,2.687500e-03
-1.550625e-10,2.796875e-03
-1.510625e-10,2.171875e-03
-1.470625e-10,1.937500e-03
-1.430625e-10,2.109375e-03
-1.390625e-10,2.093750e-03
-1.350625e-10,1.734375e-03
-1.310625e-10,1.359375e-03
-1.270625e-10,1.312500e-03
-1.230625e-10,1.687500e-03
-1.190625e-10,1.359375e-03
-1.150625e-10,2.062500e-03
-1.110625e-10,2.468750e-03
-1.070625e-10,2.937500e-03
-1.030625e-10,2.187500e-03
-9.906250e-11,3.312500e-03
-9.506250e-11,3.015625e-03
-9.106250e-11,4.781250e-03
-8.706250e-11,5.250000e-03
-8.306250e-11,5.843750e-03
-7.906250e-11,6.250000e-03
-7.506250e-11,7.625000e-03
-7.106250e-11,8.343750e-03
-6.706250e-11,9.562500e-03
-6.306250e-11,1.123438e-02
-5.906250e-11,1.285938e-02
-5.506250e-11,1.418750e-02
-5.106250e-11,1.557813e-02
-4.706250e-11,1.735938e-02
-4.306250e-11,1.959375e-02
-3.906250e-11,2.125000e-02
-3.506250e-11,2.401563e-02
-3.106250e-11,2.650000e-02
-2.706250e-11,2.915625e-02
-2.306250e-11,3.062500e-02
-1.906250e-11,3.400000e-02
-1.506250e-11,3.596875e-02
-1.106250e-11,4.006250e-02
-7.062500e-12,4.282813e-02
-3.062500e-12,4.581250e-02
9.375000e-13,4.856250e-02
4.937500e-12,5.228125e-02
8.937500e-12,5.537500e-02
1.293750e-11,5.890625e-02
1.693750e-11,6.292188e-02
2.093750e-11,6.689063e-02
2.493750e-11,7.042188e-02
2.893750e-11,7.401563e-02
3.293750e-11,7.793750e-02
3.693750e-11,8.223438e-02
4.093750e-11,8.592188e-02
4.493750e-11,9.062500e-02
4.893750e-11,9.493750e-02
5.293750e-11,9.939063e-02
5.693750e-11,1.025156e-01
6.093750e-11,1.074375e-01
6.493750e-11,1.108438e-01
6.893750e-11,1.162344e-01
7.293750e-11,1.201563e-01
7.693750e-11,1.242188e-01
8.093750e-11,1.278438e-01
8.493750e-11,1.323125e-01
8.893750e-11,1.360156e-01
9.293750e-11,1.400156e-01
9.693750e-11,1.443281e-01
1.009375e-10,1.485000e-01
1.049375e-10,1.519688e-01
1.089375e-10,1.553594e-01
1.129375e-10,1.589531e-01
1.169375e-10,1.627344e-01
1.209375e-10,1.657813e-01
1.249375e-10,1.696406e-01
1.289375e-10,1.729063e-01
1.329375e-10,1.762031e-01
1.369375e-10,1.779844e-01
1.409375e-10,1.814375e-01
1.449375e-10,1.832031e-01
1.489375e-10,1.867813e-01
1.529375e-10,1.887188e-01
1.569375e-10,1.906875e-01
1.609375e-10,1.920625e-01
1.649375e-10,1.941250e-01
1.689375e-10,1.953750e-01
1.729375e-10,1.967500e-01
1.769375e-10,1.983125e-01
1.809375e-10,1.996719e-01
1.849375e-10,2.001875e-01
1.889375e-10,2.005156e-01
1.929375e-10,2.010000e-01
1.969375e-10,2.016094e-01
2.009375e-10,2.014063e-01
2.049375e-10,2.019219e-01
2.089375e-10,2.017813e-01
2.129375e-10,2.017031e-01
2.169375e-10,1.999844e-01
2.209375e-10,2.000000e-01
2.249375e-10,1.983125e-01
2.289375e-10,1.983750e-01
2.329375e-10,1.968125e-01
2.369375e-10,1.953125e-01
2.409375e-10,1.932188e-01
2.449375e-10,1.918750e-01
2.489375e-10,1.897656e-01
2.529375e-10,1.878125e-01
2.569375e-10,1.860938e-01
2.609375e-10,1.842344e-01
2.649375e-10,1.816094e-01
2.689375e-10,1.788438e-01
2.729375e-10,1.763594e-01
2.769375e-10,1.740938e-01
2.809375e-10,1.710938e-01
2.849375e-10,1.688750e-01
2.889375e-10,1.661563e-01
2.929375e-10,1.635781e-01
2.969375e-10,1.594688e-01
3.009375e-10,1.572656e-01
3.049375e-10,1.534844e-01
3.089375e-10,1.515000e-01
3.129375e-10,1.480781e-01
3.169375e-10,1.448125e-01
3.209375e-10,1.410781e-01
3.249375e-10,1.382656e-01
3.289375e-10,1.348125e-01
3.329375e-10,1.316563e-01
3.369375e-10,1.288125e-01
3.409375e-10,1.259688e-01
3.449375e-10,1.225313e-01
3.489375e-10,1.190625e-01
3.529375e-10,1.159844e-01
3.569375e-10,1.132656e-01
3.609375e-10,1.098750e-01
3.649375e-10,1.074219e-01
3.689375e-10,1.045938e-01
3.729375e-10,1.020000e-01
3.769375e-10,9.795313e-02
3.809375e-10,9.595313e-02
3.849375e-10,9.248438e-02
3.889375e-10,9.084375e-02
3.929375e-10,8.792188e-02
3.969375e-10,8.518750e-02
4.009375e-10,8.207813e-02
4.049375e-10,7.996875e-02
4.089375e-10,7.728125e-02
4.129375e-10,7.495313e-02
4.169375e-10,7.295313e-02
4.209375e-10,7.100000e-02
4.249375e-10,6.859375e-02
4.289375e-10,6.614063e-02
4.329375e-10,6.409375e-02
4.369375e-10,6.248438e-02
4.409375e-10,6.018750e-02
4.449375e-10,5.882813e-02
4.489375e-10,5.717188e-02
4.529375e-10,5.568750e-02
4.569375e-10,5.281250e-02
4.609375e-10,5.200000e-02
4.649375e-10,4.970313e-02
4.689375e-10,4.923438e-02
4.729375e-10,4.751563e-02
4.769375e-10,4.590625e-02
4.809375e-10,4.393750e-02
4.849375e-10,4.296875e-02
4.889375e-10,4.137500e-02
4.929375e-10,4.014063e-02
4.969375e-10,3.921875e-02
5.009375e-10,3.829688e-02
5.049375e-10,3.696875e-02
5.089375e-10,3.551563e-02
5.129375e-10,3.446875e-02
5.169375e-10,3.382813e-02
5.209375e-10,3.245313e-02
5.249375e-10,3.198438e-02
5.289375e-10,3.123438e-02
5.329375e-10,3.057813e-02
5.369375e-10,2.854688e-02
5.409375e-10,2.850000e-02
5.449375e-10,2.700000e-02
5.489375e-10,2.729688e-02
5.529375e-10,2.634375e-02
5.569375e-10,2.539063e-02
5.609375e-10,2.412500e-02
5.649375e-10,2.381250e-02
5.689375e-10,2.281250e-02
5.729375e-10,2.215625e-02
5.769375e-10,2.182813e-02
5.809375e-10,2.146875e-02
5.849375e-10,2.071875e-02
5.889375e-10,1.979688e-02
5.929375e-10,1.928125e-02
5.969375e-10,1.910938e-02
6.009375e-10,1.821875e-02
6.049375e-10,1.820313e-02
6.089375e-10,1.793750e-02
6.129375e-10,1.765625e-02
6.169375e-10,1.607813e-02
6.209375e-10,1.640625e-02
6.249375e-10,1.531250e-02
6.289375e-10,1.600000e-02
6.329375e-10,1.543750e-02
6.369375e-10,1.482813e-02
6.409375e-10,1.389063e-02
6.449375e-10,1.395313e-02
6.489375e-10,1.320313e-02
6.529375e-10,1.282813e-02
6.569375e-10,1.281250e-02
6.609375e-10,1.275000e-02
6.649375e-10,1.228125e-02
6.689375e-10,1.159375e-02
6.729375e-10,1.135938e-02
6.769375e-10,1.139063e-02
6.809375e-10,1.073438e-02
6.849375e-10,1.096875e-02
6.889375e-10,1.092188e-02
6.929375e-10,1.078125e-02
6.969375e-10,9.406250e-03
7.009375e-10,9.875000e-03
7.049375e-10,8.953125e-03
7.089375e-10,9.828125e-03
7.129375e-10,9.406250e-03
7.169375e-10,8.953125e-03
7.209375e-10,8.093750e-03
7.249375e-10,8.296875e-03
7.289375e-10,7.640625e-03
7.329375e-10,7.343750e-03
7.369375e-10,7.453125e-03
7.409375e-10,7.468750e-03
7.449375e-10,7.093750e-03
7.489375e-10,6.453125e-03
7.529375e-10,6.296875e-03
7.569375e-10,6.421875e-03
7.609375e-10,5.828125e-03
7.649375e-10,6.156250e-03
7.689375e-10,6.218750e-03
7.729375e-10,6.093750e-03
7.769375e-10,4.828125e-03
7.809375e-10,5.328125e-03
7.849375e-10,4.468750e-03
7.889375e-10,5.468750e-03
7.929375e-10,5.156250e-03
7.969375e-10,4.812500e-03
8.009375e-10,4.046875e-03
8.049375e-10,4.343750e-03
8.089375e-10,3.812500e-03
8.129375e-10,3.656250e-03
8.169375e-10,3.937500e-03
8.209375e-10,4.046875e-03
8.249375e-10,3.859375e-03
8.289375e-10,3.375000e-03
8.329375e-10,3.375000e-03
8.369375e-10,3.718750e-03
8.409375e-10,3.359375e-03
8.449375e-10,3.921875e-03
8.489375e-10,4.187500e-03
8.529375e-10,4.296875e-03
8.569375e-10,3.296875e-03
8.609375e-10,4.031250e-03
8.649375e-10,3.390625e-03
8.689375e-10,4.703125e-03
8.729375e-10,4.656250e-03
8.769375e-10,4.609375e-03
8.809375e-10,4.140625e-03
8.849375e-10,4.703125e-03
8.889375e-10,4.468750e-03
8.929375e-10,4.640625e-03
8.969375e-10,5.234375e-03
9.009375e-10,5.562500e-03
9.049375e-10,5.671875e-03
9.089375e-10,5.484375e-03
9.129375e-10,5.703125e-03
9.169375e-10,6.359375e-03
9.209375e-10,6.265625e-03
9.249375e-10,7.078125e-03
9.289375e-10,7.531250e-03
9.329375e-10,7.890625e-03
9.369375e-10,7.093750e-03
9.409375e-10,8.031250e-03
9.449375e-10,7.515625e-03
9.489375e-10,8.984375e-03
9.529375e-10,9.078125e-03
9.569375e-10,9.125000e-03
9.609375e-10,8.781250e-03
9.649375e-10,9.375000e-03
9.689375e-10,9.203125e-03
9.729375e-10,9.421875e-03
9.769375e-10,1.004688e-02
9.809375e-10,1.029688e-02
9.849375e-10,1.034375e-02
9.889375e-10,1.010938e-02
9.929375e-10,1.020313e-02
9.969375e-10,1.078125e-02
1.000937e-09,1.056250e-02
1.004938e-09,1.120313e-02
1.008938e-09,1.146875e-02
1.012938e-09,1.164063e-02
1.016938e-09,1.065625e-02
1.020938e-09,1.140625e-02
1.024938e-09,1.062500e-02
1.028937e-09,1.182813e-02
1.032937e-09,1.165625e-02
1.036937e-09,1.142188e-02
1.040937e-09,1.079688e-02
1.044937e-09,1.110938e-02
1.048937e-09,1.065625e-02
1.052937e-09,1.057813e-02
1.056937e-09,1.090625e-02
1.060937e-09,1.085938e-02
1.064938e-09,1.059375e-02
1.068938e-09,1.007813e-02
1.072938e-09,9.875000e-03
1.076938e-09,1.017188e-02
1.080938e-09,9.656250e-03
1.084938e-09,1.004688e-02
1.088937e-09,1.006250e-02
1.092937e-09,1.001563e-02
1.096937e-09,8.796875e-03
1.100937e-09,9.375000e-03
1.104937e-09,8.406250e-03
1.108937e-09,9.406250e-03
1.112937e-09,9.046875e-03
1.116937e-09,8.671875e-03
1.120937e-09,7.921875e-03
1.124938e-09,8.140625e-03
1.128938e-09,7.593750e-03
1.132938e-09,7.453125e-03
1.136938e-09,7.734375e-03
1.140938e-09,7.687500e-03
1.144938e-09,7.390625e-03
1.148937e-09,6.875000e-03
1.152937e-09,6.703125e-03
1.156937e-09,7.015625e-03
1.160937e-09,6.546875e-03
1.164937e-09,7.000000e-03
1.168937e-09,7.109375e-03
1.172937e-09,7.187500e-03
1.176937e-09,6.046875e-03
1.180937e-09,6.765625e-03
1.184938e-09,5.906250e-03
1.188938e-09,7.046875e-03
1.192938e-09,6.812500e-03
1.196938e-09,6.578125e-03
1.200938e-09,5.953125e-03
1.204938e-09,6.343750e-03
1.208937e-09,5.937500e-03
1.212937e-09,5.937500e-03
1.216937e-09,6.343750e-03
1.220937e-09,6.500000e-03
1.224937e-09,6.312500e-03
1.228937e-09,5.937500e-03
1.232937e-09,5.906250e-03
1.236937e-09,6.328125e-03
1.240937e-09,5.968750e-03
1.244938e-09,6.546875e-03
1.248938e-09,6.765625e-03
1.252938e-09,6.953125e-03
1.256938e-09,5.859375e-03
1.260938e-09,6.671875e-03
1.264938e-09,5.875000e-03
1.268937e-09,7.078125e-03
1.272937e-09,6.890625e-03
1.276937e-09,6.703125e-03
1.280937e-09,6.109375e-03
1.284937e-09,6.531250e-03
1.288937e-09,6.140625e-03
1.292937e-09,6.156250e-03
1.296937e-09,6.562500e-03
1.300937e-09,6.750000e-03
1.304938e-09,6.562500e-03
1.308938e-09,6.171875e-03
1.312938e-09,6.156250e-03
1.316938e-09,6.562500e-03
1.320938e-09,6.171875e-03
1.324938e-09,6.781250e-03
1.328937e-09,6.984375e-03
1.332937e-09,7.187500e-03
1.336937e-09,6.046875e-03
1.340937e-09,6.859375e-03
1.344937e-09,6.078125e-03
1.348937e-09,7.296875e-03
1.352937e-09,7.125000e-03
1.356937e-09,6.968750e-03
1.360937e-09,6.406250e-03
1.364938e-09,6.843750e-03
1.368938e-09,6.500000e-03
1.372938e-09,6.562500e-03
1.376938e-09,7.031250e-03
1.380938e-09,7.281250e-03
1.384938e-09,7.156250e-03
1.388937e-09,6.843750e-03
1.392937e-09,6.921875e-03
1.396937e-09,7.437500e-03
1.400937e-09,7.140625e-03
1.404937e-09,7.843750e-03
1.408937e-09,8.156250e-03
1.412937e-09,8.468750e-03
1.416937e-09,7.406250e-03
1.420937e-09,8.343750e-03
1.424937e-09,7.671875e-03
1.428938e-09,9.015625e-03
1.432938e-09,8.953125e-03
1.436938e-09,8.890625e-03
1.440938e-09,8.437500e-03
1.444938e-09,8.984375e-03
1.448937e-09,8.718750e-03
1.452937e-09,8.875000e-03
1.456937e-09,9.406250e-03
1.460937e-09,9.750000e-03
1.464937e-09,9.687500e-03
1.468937e-09,9.406250e-03
1.472937e-09,9.531250e-03
1.476937e-09,1.004688e-02
1.480937e-09,9.765625e-03
1.484937e-09,1.046875e-02
1.488938e-09,1.075000e-02
1.492938e-09,1.104688e-02
1.496938e-09,9.906250e-03
1.500938e-09,1.078125e-02
1.504938e-09,1.001563e-02
1.508937e-09,1.126563e-02
1.512937e-09,1.107813e-02
1.516937e-09,1.089063e-02
1.520937e-09,1.028125e-02
1.524937e-09,1.067188e-02
1.528937e-09,1.023438e-02
1.532937e-09,1.018750e-02
1.536937e-09,1.051563e-02
1.540937e-09,1.065625e-02
1.544937e-09,1.035938e-02
1.548938e-09,9.843750e-03
1.552938e-09,9.734375e-03
1.556938e-09,1.000000e-02
1.560938e-09,9.453125e-03
1.564938e-09,9.906250e-03
1.568937e-09,9.937500e-03
1.572937e-09,9.953125e-03
1.576937e-09,8.562500e-03
1.580937e-09,9.171875e-03
1.584937e-09,8.156250e-03
1.588937e-09,9.156250e-03
1.592937e-09,8.734375e-03
1.596937e-09,8.312500e-03
1.600937e-09,7.468750e-03
1.604937e-09,7.656250e-03
1.608938e-09,7.015625e-03
1.612938e-09,6.781250e-03
1.616938e-09,6.953125e-03
1.620938e-09,6.921875e-03
1.624938e-09,6.500000e-03
1.628937e-09,5.859375e-03
1.632937e-09,5.640625e-03
1.636937e-09,5.828125e-03
1.640937e-09,5.218750e-03
1.644937e-09,5.625000e-03
1.648937e-09,5.640625e-03
1.652937e-09,5.656250e-03
1.656937e-09,4.265625e-03
1.660937e-09,4.921875e-03
1.664937e-09,3.953125e-03
1.668938e-09,5.031250e-03
1.672938e-09,4.703125e-03
1.676938e-09,4.375000e-03
1.680938e-09,3.656250e-03
1.684938e-09,3.968750e-03
1.688937e-09,3.484375e-03
1.692937e-09,3.421875e-03
1.696937e-09,3.765625e-03
1.700937e-09,3.921875e-03
1.704937e-09,3.687500e-03
1.708937e-09,3.265625e-03
1.712937e-09,3.250000e-03
1.716937e-09,3.656250e-03
1.720937e-09,3.265625e-03
1.724937e-09,3.890625e-03
1.728938e-09,4.109375e-03
1.732938e-09,4.343750e-03
1.736938e-09,3.171875e-03
1.740938e-09,4.031250e-03
1.744938e-09,3.265625e-03
1.748937e-09,4.546875e-03
1.752937e-09,4.406250e-03
1.756937e-09,4.265625e-03
