Measurements-streak-laser/Photodiode-on-Tek-12bit-4GHz/Tek000_ch1_20190613133004783.csv

Model,MSO64
Waveform Type,ANALOG
Horizontal Units,s
Sample Interval,4.000000e-12
Record Length,1000
Zero Index,310.265625
Vertical Units,V

TIME,CH1
-1.241063e-09,5.468750e-04
-1.237063e-09,7.343750e-04
-1.233063e-09,-4.687500e-04
-1.229063e-09,3.750000e-04
-1.225062e-09,-3.906250e-04
-1.221062e-09,8.906250e-04
-1.217062e-09,7.812500e-04
-1.213062e-09,6.875000e-04
-1.209062e-09,2.031250e-04
-1.205062e-09,7.500000e-04
-1.201062e-09,5.000000e-04
-1.197062e-09,6.718750e-04
-1.193062e-09,1.250000e-03
-1.189062e-09,1.656250e-03
-1.185063e-09,1.656250e-03
-1.181063e-09,1.468750e-03
-1.177063e-09,1.703125e-03
-1.173063e-09,2.328125e-03
-1.169063e-09,2.156250e-03
-1.165062e-09,3.000000e-03
-1.161062e-09,3.453125e-03
-1.157062e-09,3.906250e-03
-1.153062e-09,2.937500e-03
-1.149062e-09,3.984375e-03
-1.145062e-09,3.421875e-03
-1.141062e-09,4.859375e-03
-1.137062e-09,4.890625e-03
-1.133062e-09,4.921875e-03
-1.129062e-09,4.531250e-03
-1.125063e-09,5.140625e-03
-1.121063e-09,4.921875e-03
-1.117063e-09,5.109375e-03
-1.113063e-09,5.687500e-03
-1.109063e-09,6.046875e-03
-1.105063e-09,6.000000e-03
-1.101062e-09,5.734375e-03
-1.097062e-09,5.843750e-03
-1.093062e-09,6.343750e-03
-1.089062e-09,6.031250e-03
-1.085062e-09,6.718750e-03
-1.081062e-09,6.984375e-03
-1.077062e-09,7.218750e-03
-1.073062e-09,6.031250e-03
-1.069062e-09,6.859375e-03
-1.065063e-09,6.046875e-03
-1.061063e-09,7.234375e-03
-1.057063e-09,7.000000e-03
-1.053063e-09,6.750000e-03
-1.049063e-09,6.093750e-03
-1.045063e-09,6.421875e-03
-1.041062e-09,5.921875e-03
-1.037062e-09,5.828125e-03
-1.033062e-09,6.125000e-03
-1.029062e-09,6.218750e-03
-1.025062e-09,5.906250e-03
-1.021062e-09,5.359375e-03
-1.017062e-09,5.234375e-03
-1.013062e-09,5.500000e-03
-1.009062e-09,4.953125e-03
-1.005063e-09,5.406250e-03
-1.001063e-09,5.468750e-03
-9.970625e-10,5.515625e-03
-9.930625e-10,4.156250e-03
-9.890625e-10,4.828125e-03
-9.850625e-10,3.875000e-03
-9.810625e-10,4.953125e-03
-9.770625e-10,4.609375e-03
-9.730625e-10,4.281250e-03
-9.690625e-10,3.562500e-03
-9.650625e-10,3.859375e-03
-9.610625e-10,3.343750e-03
-9.570625e-10,3.265625e-03
-9.530625e-10,3.593750e-03
-9.490625e-10,3.718750e-03
-9.450625e-10,3.468750e-03
-9.410625e-10,3.015625e-03
-9.370625e-10,2.984375e-03
-9.330625e-10,3.375000e-03
-9.290625e-10,2.953125e-03
-9.250625e-10,3.578125e-03
-9.210625e-10,3.796875e-03
-9.170625e-10,4.031250e-03
-9.130625e-10,2.875000e-03
-9.090625e-10,3.750000e-03
-9.050625e-10,3.015625e-03
-9.010625e-10,4.265625e-03
-8.970625e-10,4.187500e-03
-8.930625e-10,4.093750e-03
-8.890625e-10,3.609375e-03
-8.850625e-10,4.156250e-03
-8.810625e-10,3.906250e-03
-8.770625e-10,4.062500e-03
-8.730625e-10,4.640625e-03
-8.690625e-10,5.015625e-03
-8.650625e-10,5.000000e-03
-8.610625e-10,4.781250e-03
-8.570625e-10,4.968750e-03
-8.530625e-10,5.562500e-03
-8.490625e-10,5.359375e-03
-8.450625e-10,6.171875e-03
-8.410625e-10,6.578125e-03
-8.370625e-10,6.984375e-03
-8.330625e-10,6.015625e-03
-8.290625e-10,7.031250e-03
-8.250625e-10,6.421875e-03
-8.210625e-10,7.703125e-03
-8.170625e-10,7.734375e-03
-8.130625e-10,7.718750e-03
-8.090625e-10,7.328125e-03
-8.050625e-10,7.906250e-03
-8.010625e-10,7.640625e-03
-7.970625e-10,7.843750e-03
-7.930625e-10,8.375000e-03
-7.890625e-10,8.703125e-03
-7.850625e-10,8.671875e-03
-7.810625e-10,8.359375e-03
-7.770625e-10,8.437500e-03
-7.730625e-10,8.921875e-03
-7.690625e-10,8.578125e-03
-7.650625e-10,9.218750e-03
-7.610625e-10,9.468750e-03
-7.570625e-10,9.671875e-03
-7.530625e-10,8.515625e-03
-7.490625e-10,9.312500e-03
-7.450625e-10,8.468750e-03
-7.410625e-10,9.437500e-03
-7.370625e-10,9.250000e-03
-7.330625e-10,8.968750e-03
-7.290625e-10,8.328125e-03
-7.250625e-10,8.562500e-03
-7.210625e-10,7.984375e-03
-7.170625e-10,7.921875e-03
-7.130625e-10,8.125000e-03
-7.090625e-10,8.093750e-03
-7.050625e-10,7.828125e-03
-7.010625e-10,7.171875e-03
-6.970625e-10,6.906250e-03
-6.930625e-10,7.046875e-03
-6.890625e-10,6.406250e-03
-6.850625e-10,6.718750e-03
-6.810625e-10,6.656250e-03
-6.770625e-10,6.531250e-03
-6.730625e-10,5.062500e-03
-6.690625e-10,5.593750e-03
-6.650625e-10,4.531250e-03
-6.610625e-10,5.203125e-03
-6.570625e-10,4.765625e-03
-6.530625e-10,4.281250e-03
-6.490625e-10,3.437500e-03
-6.450625e-10,3.453125e-03
-6.410625e-10,2.671875e-03
-6.370625e-10,2.468750e-03
-6.330625e-10,2.546875e-03
-6.290625e-10,2.359375e-03
-6.250625e-10,2.078125e-03
-6.210625e-10,1.343750e-03
-6.170625e-10,1.031250e-03
-6.130625e-10,1.140625e-03
-6.090625e-10,5.468750e-04
-6.050625e-10,8.906250e-04
-6.010625e-10,8.906250e-04
-5.970625e-10,8.437500e-04
-5.930625e-10,-5.468750e-04
-5.890625e-10,1.093750e-04
-5.850625e-10,-7.031250e-04
-5.810625e-10,1.406250e-04
-5.770625e-10,-3.125000e-05
-5.730625e-10,-2.656250e-04
-5.690625e-10,-8.437500e-04
-5.650625e-10,-5.625000e-04
-5.610625e-10,-1.031250e-03
-5.570625e-10,-9.062500e-04
-5.530625e-10,-4.687500e-04
-5.490625e-10,-3.125000e-04
-5.450625e-10,-2.187500e-04
-5.410625e-10,-5.312500e-04
-5.370625e-10,-4.218750e-04
-5.330625e-10,1.093750e-04
-5.290625e-10,-4.687500e-05
-5.250625e-10,7.500000e-04
-5.210625e-10,1.140625e-03
-5.170625e-10,1.531250e-03
-5.130625e-10,5.625000e-04
-5.090625e-10,1.609375e-03
-5.050625e-10,1.265625e-03
-5.010625e-10,2.531250e-03
-4.970625e-10,2.812500e-03
-4.930625e-10,2.921875e-03
-4.890625e-10,2.703125e-03
-4.850625e-10,3.359375e-03
-4.810625e-10,3.250000e-03
-4.770625e-10,3.640625e-03
-4.730625e-10,4.406250e-03
-4.690625e-10,4.812500e-03
-4.650625e-10,5.093750e-03
-4.610625e-10,5.000000e-03
-4.570625e-10,5.328125e-03
-4.530625e-10,6.062500e-03
-4.490625e-10,5.968750e-03
-4.450625e-10,6.890625e-03
-4.410625e-10,7.328125e-03
-4.370625e-10,7.734375e-03
-4.330625e-10,6.765625e-03
-4.290625e-10,7.718750e-03
-4.250625e-10,7.296875e-03
-4.210625e-10,8.468750e-03
-4.170625e-10,8.640625e-03
-4.130625e-10,8.546875e-03
-4.090625e-10,8.125000e-03
-4.050625e-10,8.562500e-03
-4.010625e-10,8.281250e-03
-3.970625e-10,8.312500e-03
-3.930625e-10,8.812500e-03
-3.890625e-10,8.921875e-03
-3.850625e-10,8.765625e-03
-3.810625e-10,8.359375e-03
-3.770625e-10,8.406250e-03
-3.730625e-10,8.796875e-03
-3.690625e-10,8.281250e-03
-3.650625e-10,8.843750e-03
-3.610625e-10,8.937500e-03
-3.570625e-10,8.968750e-03
-3.530625e-10,7.687500e-03
-3.490625e-10,8.218750e-03
-3.450625e-10,7.453125e-03
-3.410625e-10,8.312500e-03
-3.370625e-10,8.156250e-03
-3.330625e-10,7.750000e-03
-3.290625e-10,7.093750e-03
-3.250625e-10,7.296875e-03
-3.210625e-10,6.843750e-03
-3.170625e-10,6.609375e-03
-3.130625e-10,6.921875e-03
-3.090625e-10,6.890625e-03
-3.050625e-10,6.562500e-03
-3.010625e-10,6.125000e-03
-2.970625e-10,6.109375e-03
-2.930625e-10,6.484375e-03
-2.890625e-10,5.953125e-03
-2.850625e-10,6.500000e-03
-2.810625e-10,6.687500e-03
-2.770625e-10,6.796875e-03
-2.730625e-10,5.656250e-03
-2.690625e-10,6.281250e-03
-2.650625e-10,5.625000e-03
-2.610625e-10,6.671875e-03
-2.570625e-10,6.640625e-03
-2.530625e-10,6.437500e-03
-2.490625e-10,6.031250e-03
-2.450625e-10,6.437500e-03
-2.410625e-10,6.203125e-03
-2.370625e-10,6.187500e-03
-2.330625e-10,6.656250e-03
-2.290625e-10,6.843750e-03
-2.250625e-10,6.687500e-03
-2.210625e-10,6.484375e-03
-2.170625e-10,6.609375e-03
-2.130625e-10,7.093750e-03
-2.090625e-10,6.750000e-03
-2.050625e-10,7.375000e-03
-2.010625e-10,7.671875e-03
-1.970625e-10,7.859375e-03
-1.930625e-10,6.796875e-03
-1.890625e-10,7.453125e-03
-1.850625e-10,6.734375e-03
-1.810625e-10,7.796875e-03
-1.770625e-10,7.640625e-03
-1.730625e-10,7.390625e-03
-1.690625e-10,6.906250e-03
-1.650625e-10,7.203125e-03
-1.610625e-10,6.781250e-03
-1.570625e-10,6.640625e-03
-1.530625e-10,6.906250e-03
-1.490625e-10,6.921875e-03
-1.450625e-10,6.578125e-03
-1.410625e-10,6.218750e-03
-1.370625e-10,6.109375e-03
-1.330625e-10,6.343750e-03
-1.290625e-10,5.859375e-03
-1.250625e-10,6.343750e-03
-1.210625e-10,6.515625e-03
-1.170625e-10,6.640625e-03
-1.130625e-10,5.593750e-03
-1.090625e-10,6.265625e-03
-1.050625e-10,5.578125e-03
-1.010625e-10,6.828125e-03
-9.706250e-11,6.812500e-03
-9.306250e-11,6.859375e-03
-8.906250e-11,6.750000e-03
-8.506250e-11,7.531250e-03
-8.106250e-11,7.656250e-03
-7.706250e-11,8.234375e-03
-7.306250e-11,9.250000e-03
-6.906250e-11,1.021875e-02
-6.506250e-11,1.087500e-02
-6.106250e-11,1.168750e-02
-5.706250e-11,1.285938e-02
-5.306250e-11,1.443750e-02
-4.906250e-11,1.553125e-02
-4.506250e-11,1.773438e-02
-4.106250e-11,1.968750e-02
-3.706250e-11,2.187500e-02
-3.306250e-11,2.300000e-02
-2.906250e-11,2.593750e-02
-2.506250e-11,2.760938e-02
-2.106250e-11,3.143750e-02
-1.706250e-11,3.403125e-02
-1.306250e-11,3.692188e-02
-9.062500e-12,3.973438e-02
-5.062500e-12,4.353125e-02
-1.062500e-12,4.681250e-02
2.937500e-12,5.062500e-02
6.937500e-12,5.498438e-02
1.093750e-11,5.940625e-02
1.493750e-11,6.350000e-02
1.893750e-11,6.782813e-02
2.293750e-11,7.256250e-02
2.693750e-11,7.768750e-02
3.093750e-11,8.240625e-02
3.493750e-11,8.821875e-02
3.893750e-11,9.376563e-02
4.293750e-11,9.957813e-02
4.693750e-11,1.042500e-01
5.093750e-11,1.106719e-01
5.493750e-11,1.157344e-01
5.893750e-11,1.228750e-01
6.293750e-11,1.286250e-01
6.693750e-11,1.346719e-01
7.093750e-11,1.404063e-01
7.493750e-11,1.469844e-01
7.893750e-11,1.529219e-01
8.293750e-11,1.591875e-01
8.693750e-11,1.658438e-01
9.093750e-11,1.724375e-01
9.493750e-11,1.783438e-01
9.893750e-11,1.843125e-01
1.029375e-10,1.904531e-01
1.069375e-10,1.967500e-01
1.109375e-10,2.024375e-01
1.149375e-10,2.089063e-01
1.189375e-10,2.148125e-01
1.229375e-10,2.208125e-01
1.269375e-10,2.253281e-01
1.309375e-10,2.313750e-01
1.349375e-10,2.357813e-01
1.389375e-10,2.419531e-01
1.429375e-10,2.464375e-01
1.469375e-10,2.510156e-01
1.509375e-10,2.549375e-01
1.549375e-10,2.594375e-01
1.589375e-10,2.631250e-01
1.629375e-10,2.668438e-01
1.669375e-10,2.707031e-01
1.709375e-10,2.743281e-01
1.749375e-10,2.769375e-01
1.789375e-10,2.794063e-01
1.829375e-10,2.818906e-01
1.869375e-10,2.843438e-01
1.909375e-10,2.860313e-01
1.949375e-10,2.882813e-01
1.989375e-10,2.897656e-01
2.029375e-10,2.912813e-01
2.069375e-10,2.911094e-01
2.109375e-10,2.924688e-01
2.149375e-10,2.920625e-01
2.189375e-10,2.932656e-01
2.229375e-10,2.927344e-01
2.269375e-10,2.922813e-01
2.309375e-10,2.911094e-01
2.349375e-10,2.905000e-01
2.389375e-10,2.891094e-01
2.429375e-10,2.877500e-01
2.469375e-10,2.865000e-01
2.509375e-10,2.851094e-01
2.549375e-10,2.827188e-01
2.589375e-10,2.802031e-01
2.629375e-10,2.778438e-01
2.669375e-10,2.755469e-01
2.709375e-10,2.725469e-01
2.749375e-10,2.701719e-01
2.789375e-10,2.671563e-01
2.829375e-10,2.643281e-01
2.869375e-10,2.598594e-01
2.909375e-10,2.571719e-01
2.949375e-10,2.528438e-01
2.989375e-10,2.501875e-01
3.029375e-10,2.460156e-01
3.069375e-10,2.420156e-01
3.109375e-10,2.374688e-01
3.149375e-10,2.336875e-01
3.189375e-10,2.293281e-01
3.229375e-10,2.251250e-01
3.269375e-10,2.211406e-01
3.309375e-10,2.171875e-01
3.349375e-10,2.124688e-01
3.389375e-10,2.077344e-01
3.429375e-10,2.033438e-01
3.469375e-10,1.992031e-01
3.509375e-10,1.944219e-01
3.549375e-10,1.904688e-01
3.589375e-10,1.860781e-01
3.629375e-10,1.819688e-01
3.669375e-10,1.763594e-01
3.709375e-10,1.727188e-01
3.749375e-10,1.676250e-01
3.789375e-10,1.642344e-01
3.829375e-10,1.595469e-01
3.869375e-10,1.551094e-01
3.909375e-10,1.502344e-01
3.949375e-10,1.463281e-01
3.989375e-10,1.419375e-01
4.029375e-10,1.378125e-01
4.069375e-10,1.339688e-01
4.109375e-10,1.302656e-01
4.149375e-10,1.260000e-01
4.189375e-10,1.217656e-01
4.229375e-10,1.179375e-01
4.269375e-10,1.145156e-01
4.309375e-10,1.104844e-01
4.349375e-10,1.073438e-01
4.389375e-10,1.039375e-01
4.429375e-10,1.008281e-01
4.469375e-10,9.629688e-02
4.509375e-10,9.385938e-02
4.549375e-10,9.003125e-02
4.589375e-10,8.793750e-02
4.629375e-10,8.468750e-02
4.669375e-10,8.165625e-02
4.709375e-10,7.828125e-02
4.749375e-10,7.593750e-02
4.789375e-10,7.310938e-02
4.829375e-10,7.064063e-02
4.869375e-10,6.846875e-02
4.909375e-10,6.645313e-02
4.949375e-10,6.403125e-02
4.989375e-10,6.160938e-02
5.029375e-10,5.959375e-02
5.069375e-10,5.803125e-02
5.109375e-10,5.584375e-02
5.149375e-10,5.454688e-02
5.189375e-10,5.306250e-02
5.229375e-10,5.178125e-02
5.269375e-10,4.917188e-02
5.309375e-10,4.859375e-02
5.349375e-10,4.665625e-02
5.389375e-10,4.643750e-02
5.429375e-10,4.507813e-02
5.469375e-10,4.379688e-02
5.509375e-10,4.226563e-02
5.549375e-10,4.167188e-02
5.589375e-10,4.050000e-02
5.629375e-10,3.968750e-02
5.669375e-10,3.912500e-02
5.709375e-10,3.867188e-02
5.749375e-10,3.781250e-02
5.789375e-10,3.682813e-02
5.829375e-10,3.625000e-02
5.869375e-10,3.601563e-02
5.909375e-10,3.509375e-02
5.949375e-10,3.498438e-02
5.989375e-10,3.465625e-02
6.029375e-10,3.435938e-02
6.069375e-10,3.276563e-02
6.109375e-10,3.304688e-02
6.149375e-10,3.193750e-02
6.189375e-10,3.250000e-02
6.229375e-10,3.185938e-02
6.269375e-10,3.112500e-02
6.309375e-10,3.009375e-02
6.349375e-10,3.000000e-02
6.389375e-10,2.914063e-02
6.429375e-10,2.857813e-02
6.469375e-10,2.829688e-02
6.509375e-10,2.803125e-02
6.549375e-10,2.732813e-02
6.589375e-10,2.637500e-02
6.629375e-10,2.587500e-02
6.669375e-10,2.556250e-02
6.709375e-10,2.457813e-02
6.749375e-10,2.437500e-02
6.789375e-10,2.396875e-02
6.829375e-10,2.342188e-02
6.869375e-10,2.168750e-02
6.909375e-10,2.170313e-02
6.949375e-10,2.042188e-02
6.989375e-10,2.079688e-02
7.029375e-10,1.993750e-02
7.069375e-10,1.900000e-02
7.109375e-10,1.773438e-02
7.149375e-10,1.750000e-02
7.189375e-10,1.639063e-02
7.229375e-10,1.565625e-02
7.269375e-10,1.529688e-02
7.309375e-10,1.492188e-02
7.349375e-10,1.417188e-02
7.389375e-10,1.315625e-02
7.429375e-10,1.268750e-02
7.469375e-10,1.242188e-02
7.509375e-10,1.153125e-02
7.549375e-10,1.151563e-02
7.589375e-10,1.132813e-02
7.629375e-10,1.093750e-02
7.669375e-10,9.500000e-03
7.709375e-10,9.796875e-03
7.749375e-10,8.843750e-03
7.789375e-10,9.671875e-03
7.829375e-10,9.265625e-03
7.869375e-10,8.859375e-03
7.909375e-10,8.046875e-03
7.949375e-10,8.359375e-03
7.989375e-10,7.812500e-03
8.029375e-10,7.671875e-03
8.069375e-10,7.984375e-03
8.109375e-10,8.187500e-03
8.149375e-10,8.125000e-03
8.189375e-10,7.750000e-03
8.229375e-10,7.906250e-03
8.269375e-10,8.359375e-03
8.309375e-10,8.156250e-03
8.349375e-10,8.843750e-03
8.389375e-10,9.281250e-03
8.429375e-10,9.500000e-03
8.469375e-10,8.718750e-03
8.509375e-10,9.562500e-03
8.549375e-10,9.140625e-03
8.589375e-10,1.056250e-02
8.629375e-10,1.067188e-02
8.669375e-10,1.075000e-02
8.709375e-10,1.039063e-02
8.749375e-10,1.104688e-02
8.789375e-10,1.087500e-02
8.829375e-10,1.106250e-02
8.869375e-10,1.168750e-02
8.909375e-10,1.201563e-02
8.949375e-10,1.214063e-02
8.989375e-10,1.190625e-02
9.029375e-10,1.207813e-02
9.069375e-10,1.264063e-02
9.109375e-10,1.246875e-02
9.149375e-10,1.312500e-02
9.189375e-10,1.345313e-02
9.229375e-10,1.356250e-02
9.269375e-10,1.265625e-02
9.309375e-10,1.331250e-02
9.349375e-10,1.259375e-02
9.389375e-10,1.382813e-02
9.429375e-10,1.368750e-02
9.469375e-10,1.348438e-02
9.509375e-10,1.284375e-02
9.549375e-10,1.314063e-02
9.589375e-10,1.268750e-02
9.629375e-10,1.260938e-02
9.669375e-10,1.293750e-02
9.709375e-10,1.284375e-02
9.749375e-10,1.265625e-02
9.789375e-10,1.214063e-02
9.829375e-10,1.195313e-02
9.869375e-10,1.228125e-02
9.909375e-10,1.185938e-02
9.949375e-10,1.225000e-02
9.989375e-10,1.231250e-02
1.002937e-09,1.223438e-02
1.006938e-09,1.117188e-02
1.010938e-09,1.171875e-02
1.014938e-09,1.082813e-02
1.018938e-09,1.195313e-02
1.022938e-09,1.173438e-02
1.026938e-09,1.145313e-02
1.030937e-09,1.082813e-02
1.034937e-09,1.114063e-02
1.038937e-09,1.073438e-02
1.042937e-09,1.075000e-02
1.046937e-09,1.117188e-02
1.050937e-09,1.117188e-02
1.054937e-09,1.109375e-02
1.058937e-09,1.075000e-02
1.062937e-09,1.068750e-02
1.066938e-09,1.121875e-02
1.070938e-09,1.095313e-02
1.074938e-09,1.154688e-02
1.078938e-09,1.179688e-02
1.082938e-09,1.196875e-02
1.086938e-09,1.112500e-02
1.090937e-09,1.192188e-02
1.094937e-09,1.123438e-02
1.098937e-09,1.250000e-02
1.102937e-09,1.245313e-02
1.106937e-09,1.234375e-02
1.110937e-09,1.187500e-02
1.114937e-09,1.234375e-02
1.118937e-09,1.206250e-02
1.122937e-09,1.217188e-02
1.126938e-09,1.267188e-02
1.130938e-09,1.278125e-02
1.134938e-09,1.270313e-02
1.138938e-09,1.235938e-02
1.142938e-09,1.231250e-02
1.146938e-09,1.276563e-02
1.150937e-09,1.242188e-02
1.154937e-09,1.293750e-02
1.158937e-09,1.307813e-02
1.162937e-09,1.314063e-02
1.166937e-09,1.210938e-02
1.170937e-09,1.276563e-02
1.174937e-09,1.187500e-02
1.178937e-09,1.292188e-02
1.182937e-09,1.260938e-02
1.186938e-09,1.226563e-02
1.190938e-09,1.153125e-02
1.194938e-09,1.175000e-02
1.198938e-09,1.118750e-02
1.202938e-09,1.101563e-02
1.206938e-09,1.121875e-02
1.210937e-09,1.112500e-02
1.214937e-09,1.073438e-02
1.218937e-09,1.012500e-02
1.222937e-09,9.843750e-03
1.226937e-09,1.004688e-02
1.230937e-09,9.437500e-03
1.234937e-09,9.750000e-03
1.238937e-09,9.718750e-03
1.242937e-09,9.640625e-03
1.246938e-09,8.390625e-03
1.250938e-09,8.953125e-03
1.254938e-09,7.953125e-03
1.258938e-09,8.921875e-03
1.262938e-09,8.546875e-03
1.266937e-09,8.171875e-03
1.270937e-09,7.421875e-03
1.274937e-09,7.671875e-03
1.278937e-09,7.156250e-03
1.282937e-09,7.046875e-03
1.286937e-09,7.359375e-03
1.290937e-09,7.421875e-03
1.294937e-09,7.171875e-03
1.298937e-09,6.734375e-03
1.302937e-09,6.671875e-03
1.306938e-09,7.062500e-03
1.310938e-09,6.671875e-03
1.314938e-09,7.265625e-03
1.318938e-09,7.484375e-03
1.322938e-09,7.703125e-03
1.326937e-09,6.656250e-03
1.330937e-09,7.531250e-03
1.334937e-09,6.796875e-03
1.338937e-09,8.078125e-03
1.342937e-09,7.984375e-03
1.346937e-09,7.890625e-03
1.350937e-09,7.421875e-03
1.354937e-09,7.937500e-03
1.358937e-09,7.671875e-03
1.362937e-09,7.812500e-03
1.366938e-09,8.343750e-03
1.370938e-09,8.656250e-03
1.374938e-09,8.593750e-03
1.378938e-09,8.328125e-03
1.382938e-09,8.437500e-03
1.386937e-09,8.968750e-03
1.390937e-09,8.687500e-03
1.394937e-09,9.390625e-03
1.398937e-09,9.687500e-03
1.402937e-09,9.968750e-03
1.406937e-09,8.906250e-03
1.410937e-09,9.781250e-03
1.414937e-09,9.046875e-03
1.418937e-09,1.031250e-02
1.422937e-09,1.015625e-02
1.426938e-09,1.000000e-02
1.430938e-09,9.421875e-03
1.434938e-09,9.843750e-03
1.438938e-09,9.453125e-03
1.442938e-09,9.468750e-03
1.446937e-09,9.859375e-03
1.450937e-09,1.003125e-02
1.454937e-09,9.828125e-03
1.458937e-09,9.406250e-03
1.462937e-09,9.359375e-03
1.466937e-09,9.734375e-03
1.470937e-09,9.296875e-03
1.474937e-09,9.843750e-03
1.478937e-09,1.000000e-02
1.482937e-09,1.015625e-02
1.486938e-09,8.937500e-03
1.490938e-09,9.703125e-03
1.494938e-09,8.859375e-03
1.498938e-09,1.003125e-02
1.502938e-09,9.812500e-03
1.506937e-09,9.578125e-03
1.510937e-09,8.968750e-03
1.514937e-09,9.359375e-03
1.518937e-09,8.953125e-03
1.522937e-09,8.968750e-03
1.526937e-09,9.375000e-03
1.530937e-09,9.609375e-03
1.534937e-09,9.437500e-03
1.538937e-09,9.078125e-03
1.542937e-09,9.125000e-03
1.546938e-09,9.593750e-03
1.550938e-09,9.265625e-03
1.554938e-09,9.937500e-03
1.558938e-09,1.021875e-02
1.562938e-09,1.051563e-02
1.566937e-09,9.421875e-03
1.570937e-09,1.032813e-02
1.574937e-09,9.625000e-03
1.578937e-09,1.093750e-02
1.582937e-09,1.085938e-02
1.586937e-09,1.076563e-02
1.590937e-09,1.028125e-02
1.594937e-09,1.079688e-02
1.598937e-09,1.050000e-02
1.602937e-09,1.059375e-02
1.606938e-09,1.110938e-02
1.610938e-09,1.140625e-02
1.614938e-09,1.128125e-02
1.618938e-09,1.095313e-02
1.622938e-09,1.101563e-02
1.626937e-09,1.146875e-02
1.630937e-09,1.109375e-02
1.634937e-09,1.173438e-02
1.638937e-09,1.193750e-02
1.642937e-09,1.212500e-02
1.646937e-09,1.090625e-02
1.650937e-09,1.167188e-02
1.654937e-09,1.081250e-02
1.658937e-09,1.193750e-02
1.662937e-09,1.165625e-02
1.666938e-09,1.134375e-02
1.670938e-09,1.059375e-02
1.674938e-09,1.085938e-02
1.678938e-09,1.029688e-02
1.682938e-09,1.010938e-02
1.686937e-09,1.031250e-02
1.690937e-09,1.031250e-02
1.694937e-09,9.875000e-03
1.698937e-09,9.234375e-03
1.702937e-09,8.984375e-03
1.706937e-09,9.140625e-03
1.710937e-09,8.468750e-03
1.714937e-09,8.781250e-03
1.718937e-09,8.703125e-03
1.722937e-09,8.625000e-03
1.726938e-09,7.125000e-03
1.730938e-09,7.625000e-03
1.734938e-09,6.531250e-03
1.738938e-09,7.453125e-03
1.742938e-09,6.968750e-03
1.746937e-09,6.484375e-03
1.750937e-09,5.609375e-03
1.754937e-09,5.734375e-03
