Measurements-streak-laser/Photodiode-on-Tek-12bit-4GHz/Tek000_ch1_20190613132928279.csv

Model,MSO64
Waveform Type,ANALOG
Horizontal Units,s
Sample Interval,4.000000e-12
Record Length,1000
Zero Index,310.218750
Vertical Units,V

TIME,CH1
-1.240875e-09,6.640625e-03
-1.236875e-09,6.781250e-03
-1.232875e-09,6.531250e-03
-1.228875e-09,6.093750e-03
-1.224875e-09,6.062500e-03
-1.220875e-09,6.453125e-03
-1.216875e-09,6.031250e-03
-1.212875e-09,6.625000e-03
-1.208875e-09,6.828125e-03
-1.204875e-09,7.031250e-03
-1.200875e-09,5.812500e-03
-1.196875e-09,6.640625e-03
-1.192875e-09,5.843750e-03
-1.188875e-09,7.078125e-03
-1.184875e-09,6.890625e-03
-1.180875e-09,6.718750e-03
-1.176875e-09,6.140625e-03
-1.172875e-09,6.562500e-03
-1.168875e-09,6.187500e-03
-1.164875e-09,6.218750e-03
-1.160875e-09,6.656250e-03
-1.156875e-09,6.890625e-03
-1.152875e-09,6.703125e-03
-1.148875e-09,6.328125e-03
-1.144875e-09,6.343750e-03
-1.140875e-09,6.781250e-03
-1.136875e-09,6.390625e-03
-1.132875e-09,7.000000e-03
-1.128875e-09,7.218750e-03
-1.124875e-09,7.421875e-03
-1.120875e-09,6.218750e-03
-1.116875e-09,7.015625e-03
-1.112875e-09,6.203125e-03
-1.108875e-09,7.390625e-03
-1.104875e-09,7.171875e-03
-1.100875e-09,6.953125e-03
-1.096875e-09,6.312500e-03
-1.092875e-09,6.687500e-03
-1.088875e-09,6.234375e-03
-1.084875e-09,6.203125e-03
-1.080875e-09,6.546875e-03
-1.076875e-09,6.703125e-03
-1.072875e-09,6.437500e-03
-1.068875e-09,5.968750e-03
-1.064875e-09,5.890625e-03
-1.060875e-09,6.218750e-03
-1.056875e-09,5.734375e-03
-1.052875e-09,6.250000e-03
-1.048875e-09,6.375000e-03
-1.044875e-09,6.484375e-03
-1.040875e-09,5.171875e-03
-1.036875e-09,5.890625e-03
-1.032875e-09,4.968750e-03
-1.028875e-09,6.078125e-03
-1.024875e-09,5.781250e-03
-1.020875e-09,5.468750e-03
-1.016875e-09,4.750000e-03
-1.012875e-09,5.046875e-03
-1.008875e-09,4.531250e-03
-1.004875e-09,4.421875e-03
-1.000875e-09,4.718750e-03
-9.968750e-10,4.812500e-03
-9.928750e-10,4.500000e-03
-9.888750e-10,3.984375e-03
-9.848750e-10,3.875000e-03
-9.808750e-10,4.171875e-03
-9.768750e-10,3.656250e-03
-9.728750e-10,4.171875e-03
-9.688750e-10,4.265625e-03
-9.648750e-10,4.375000e-03
-9.608750e-10,3.078125e-03
-9.568750e-10,3.796875e-03
-9.528750e-10,2.906250e-03
-9.488750e-10,4.015625e-03
-9.448750e-10,3.734375e-03
-9.408750e-10,3.468750e-03
-9.368750e-10,2.796875e-03
-9.328750e-10,3.140625e-03
-9.288750e-10,2.687500e-03
-9.248750e-10,2.640625e-03
-9.208750e-10,3.000000e-03
-9.168750e-10,3.171875e-03
-9.128750e-10,2.953125e-03
-9.088750e-10,2.531250e-03
-9.048750e-10,2.515625e-03
-9.008750e-10,2.906250e-03
-8.968750e-10,2.515625e-03
-8.928750e-10,3.125000e-03
-8.888750e-10,3.359375e-03
-8.848750e-10,3.593750e-03
-8.808750e-10,2.437500e-03
-8.768750e-10,3.296875e-03
-8.728750e-10,2.546875e-03
-8.688750e-10,3.750000e-03
-8.648750e-10,3.640625e-03
-8.608750e-10,3.515625e-03
-8.568750e-10,3.031250e-03
-8.528750e-10,3.531250e-03
-8.488750e-10,3.218750e-03
-8.448750e-10,3.359375e-03
-8.408750e-10,3.875000e-03
-8.368750e-10,4.218750e-03
-8.328750e-10,4.171875e-03
-8.288750e-10,3.906250e-03
-8.248750e-10,4.046875e-03
-8.208750e-10,4.593750e-03
-8.168750e-10,4.359375e-03
-8.128750e-10,5.125000e-03
-8.088750e-10,5.484375e-03
-8.048750e-10,5.859375e-03
-8.008750e-10,4.859375e-03
-7.968750e-10,5.843750e-03
-7.928750e-10,5.203125e-03
-7.888750e-10,6.468750e-03
-7.848750e-10,6.484375e-03
-7.808750e-10,6.453125e-03
-7.768750e-10,6.062500e-03
-7.728750e-10,6.609375e-03
-7.688750e-10,6.343750e-03
-7.648750e-10,6.546875e-03
-7.608750e-10,7.078125e-03
-7.568750e-10,7.406250e-03
-7.528750e-10,7.406250e-03
-7.488750e-10,7.125000e-03
-7.448750e-10,7.218750e-03
-7.408750e-10,7.718750e-03
-7.368750e-10,7.406250e-03
-7.328750e-10,8.093750e-03
-7.288750e-10,8.375000e-03
-7.248750e-10,8.625000e-03
-7.208750e-10,7.500000e-03
-7.168750e-10,8.359375e-03
-7.128750e-10,7.593750e-03
-7.088750e-10,8.656250e-03
-7.048750e-10,8.531250e-03
-7.008750e-10,8.343750e-03
-6.968750e-10,7.765625e-03
-6.928750e-10,8.093750e-03
-6.888750e-10,7.609375e-03
-6.848750e-10,7.625000e-03
-6.808750e-10,7.937500e-03
-6.768750e-10,8.015625e-03
-6.728750e-10,7.875000e-03
-6.688750e-10,7.343750e-03
-6.648750e-10,7.218750e-03
-6.608750e-10,7.484375e-03
-6.568750e-10,7.000000e-03
-6.528750e-10,7.468750e-03
-6.488750e-10,7.562500e-03
-6.448750e-10,7.593750e-03
-6.408750e-10,6.281250e-03
-6.368750e-10,6.968750e-03
-6.328750e-10,6.109375e-03
-6.288750e-10,7.015625e-03
-6.248750e-10,6.765625e-03
-6.208750e-10,6.484375e-03
-6.168750e-10,5.828125e-03
-6.128750e-10,6.062500e-03
-6.088750e-10,5.484375e-03
-6.048750e-10,5.484375e-03
-6.008750e-10,5.781250e-03
-5.968750e-10,5.828125e-03
-5.928750e-10,5.734375e-03
-5.888750e-10,5.234375e-03
-5.848750e-10,5.156250e-03
-5.808750e-10,5.500000e-03
-5.768750e-10,5.125000e-03
-5.728750e-10,5.687500e-03
-5.688750e-10,5.890625e-03
-5.648750e-10,6.046875e-03
-5.608750e-10,4.843750e-03
-5.568750e-10,5.671875e-03
-5.528750e-10,5.015625e-03
-5.488750e-10,6.078125e-03
-5.448750e-10,6.046875e-03
-5.408750e-10,5.921875e-03
-5.368750e-10,5.421875e-03
-5.328750e-10,5.828125e-03
-5.288750e-10,5.453125e-03
-5.248750e-10,5.593750e-03
-5.208750e-10,6.078125e-03
-5.168750e-10,6.250000e-03
-5.128750e-10,6.265625e-03
-5.088750e-10,5.921875e-03
-5.048750e-10,5.984375e-03
-5.008750e-10,6.437500e-03
-4.968750e-10,6.125000e-03
-4.928750e-10,6.796875e-03
-4.888750e-10,7.000000e-03
-4.848750e-10,7.187500e-03
-4.808750e-10,5.968750e-03
-4.768750e-10,6.734375e-03
-4.728750e-10,6.062500e-03
-4.688750e-10,7.062500e-03
-4.648750e-10,6.968750e-03
-4.608750e-10,6.671875e-03
-4.568750e-10,6.031250e-03
-4.528750e-10,6.281250e-03
-4.488750e-10,5.781250e-03
-4.448750e-10,5.656250e-03
-4.408750e-10,5.937500e-03
-4.368750e-10,5.875000e-03
-4.328750e-10,5.562500e-03
-4.288750e-10,4.953125e-03
-4.248750e-10,4.781250e-03
-4.208750e-10,5.000000e-03
-4.168750e-10,4.328125e-03
-4.128750e-10,4.718750e-03
-4.088750e-10,4.625000e-03
-4.048750e-10,4.515625e-03
-4.008750e-10,3.046875e-03
-3.968750e-10,3.468750e-03
-3.928750e-10,2.531250e-03
-3.888750e-10,3.281250e-03
-3.848750e-10,2.953125e-03
-3.808750e-10,2.421875e-03
-3.768750e-10,1.609375e-03
-3.728750e-10,1.703125e-03
-3.688750e-10,1.109375e-03
-3.648750e-10,8.125000e-04
-3.608750e-10,1.031250e-03
-3.568750e-10,9.218750e-04
-3.528750e-10,5.625000e-04
-3.488750e-10,1.562500e-05
-3.448750e-10,-6.250000e-05
-3.408750e-10,2.656250e-04
-3.368750e-10,-2.656250e-04
-3.328750e-10,2.812500e-04
-3.288750e-10,4.687500e-04
-3.248750e-10,6.250000e-04
-3.208750e-10,-5.000000e-04
-3.168750e-10,2.343750e-04
-3.128750e-10,-3.593750e-04
-3.088750e-10,8.281250e-04
-3.048750e-10,9.218750e-04
-3.008750e-10,8.593750e-04
-2.968750e-10,5.625000e-04
-2.928750e-10,1.171875e-03
-2.888750e-10,1.125000e-03
-2.848750e-10,1.359375e-03
-2.808750e-10,2.093750e-03
-2.768750e-10,2.562500e-03
-2.728750e-10,2.718750e-03
-2.688750e-10,2.781250e-03
-2.648750e-10,3.218750e-03
-2.608750e-10,4.062500e-03
-2.568750e-10,4.062500e-03
-2.528750e-10,5.062500e-03
-2.488750e-10,5.750000e-03
-2.448750e-10,6.328125e-03
-2.408750e-10,5.625000e-03
-2.368750e-10,6.718750e-03
-2.328750e-10,6.406250e-03
-2.288750e-10,7.875000e-03
-2.248750e-10,8.140625e-03
-2.208750e-10,8.281250e-03
-2.168750e-10,8.140625e-03
-2.128750e-10,8.812500e-03
-2.088750e-10,8.750000e-03
-2.048750e-10,8.953125e-03
-2.008750e-10,9.546875e-03
-1.968750e-10,9.859375e-03
-1.928750e-10,9.781250e-03
-1.888750e-10,9.609375e-03
-1.848750e-10,9.703125e-03
-1.808750e-10,1.014063e-02
-1.768750e-10,9.750000e-03
-1.728750e-10,1.028125e-02
-1.688750e-10,1.045313e-02
-1.648750e-10,1.053125e-02
-1.608750e-10,9.312500e-03
-1.568750e-10,9.843750e-03
-1.528750e-10,8.906250e-03
-1.488750e-10,9.843750e-03
-1.448750e-10,9.453125e-03
-1.408750e-10,9.031250e-03
-1.368750e-10,8.343750e-03
-1.328750e-10,8.500000e-03
-1.288750e-10,7.921875e-03
-1.248750e-10,7.718750e-03
-1.208750e-10,7.875000e-03
-1.168750e-10,7.875000e-03
-1.128750e-10,7.531250e-03
-1.088750e-10,7.171875e-03
-1.048750e-10,7.140625e-03
-1.008750e-10,7.484375e-03
-9.687500e-11,7.187500e-03
-9.287500e-11,7.937500e-03
-8.887500e-11,8.375000e-03
-8.487500e-11,8.921875e-03
-8.087500e-11,8.296875e-03
-7.687500e-11,9.515625e-03
-7.287500e-11,9.359375e-03
-6.887500e-11,1.131250e-02
-6.487500e-11,1.196875e-02
-6.087500e-11,1.282813e-02
-5.687500e-11,1.353125e-02
-5.287500e-11,1.525000e-02
-4.887500e-11,1.635938e-02
-4.487500e-11,1.798438e-02
-4.087500e-11,2.014063e-02
-3.687500e-11,2.229688e-02
-3.287500e-11,2.415625e-02
-2.887500e-11,2.618750e-02
-2.487500e-11,2.865625e-02
-2.087500e-11,3.157813e-02
-1.687500e-11,3.400000e-02
-1.287500e-11,3.757813e-02
-8.875000e-12,4.092188e-02
-4.875000e-12,4.450000e-02
-8.750000e-13,4.696875e-02
3.125000e-12,5.129688e-02
7.125000e-12,5.429688e-02
1.112500e-11,5.945313e-02
1.512500e-11,6.328125e-02
1.912500e-11,6.740625e-02
2.312500e-11,7.129688e-02
2.712500e-11,7.617188e-02
3.112500e-11,8.043750e-02
3.512500e-11,8.514063e-02
3.912500e-11,9.034375e-02
4.312500e-11,9.550000e-02
4.712500e-11,1.001719e-01
5.112500e-11,1.049375e-01
5.512500e-11,1.100156e-01
5.912500e-11,1.153906e-01
6.312500e-11,1.201875e-01
6.712500e-11,1.259375e-01
7.112500e-11,1.312500e-01
7.512500e-11,1.366875e-01
7.912500e-11,1.407500e-01
8.312500e-11,1.465313e-01
8.712500e-11,1.507344e-01
9.112500e-11,1.568750e-01
9.512500e-11,1.614375e-01
9.912500e-11,1.661406e-01
1.031250e-10,1.703125e-01
1.071250e-10,1.752188e-01
1.111250e-10,1.793281e-01
1.151250e-10,1.836094e-01
1.191250e-10,1.881406e-01
1.231250e-10,1.924688e-01
1.271250e-10,1.959688e-01
1.311250e-10,1.993438e-01
1.351250e-10,2.028281e-01
1.391250e-10,2.063906e-01
1.431250e-10,2.091875e-01
1.471250e-10,2.126719e-01
1.511250e-10,2.154844e-01
1.551250e-10,2.182969e-01
1.591250e-10,2.194844e-01
1.631250e-10,2.222813e-01
1.671250e-10,2.233438e-01
1.711250e-10,2.261094e-01
1.751250e-10,2.271875e-01
1.791250e-10,2.282813e-01
1.831250e-10,2.287188e-01
1.871250e-10,2.297813e-01
1.911250e-10,2.300156e-01
1.951250e-10,2.303281e-01
1.991250e-10,2.307813e-01
2.031250e-10,2.310469e-01
2.071250e-10,2.304063e-01
2.111250e-10,2.295781e-01
2.151250e-10,2.289219e-01
2.191250e-10,2.283438e-01
2.231250e-10,2.270156e-01
2.271250e-10,2.263594e-01
2.311250e-10,2.250625e-01
2.351250e-10,2.238594e-01
2.391250e-10,2.210625e-01
2.431250e-10,2.200000e-01
2.471250e-10,2.172813e-01
2.511250e-10,2.162813e-01
2.551250e-10,2.137344e-01
2.591250e-10,2.112813e-01
2.631250e-10,2.082969e-01
2.671250e-10,2.060781e-01
2.711250e-10,2.031719e-01
2.751250e-10,2.004688e-01
2.791250e-10,1.979844e-01
2.831250e-10,1.954688e-01
2.871250e-10,1.922031e-01
2.911250e-10,1.888594e-01
2.951250e-10,1.858438e-01
2.991250e-10,1.830781e-01
3.031250e-10,1.796250e-01
3.071250e-10,1.770000e-01
3.111250e-10,1.739063e-01
3.151250e-10,1.710313e-01
3.191250e-10,1.666406e-01
3.231250e-10,1.642031e-01
3.271250e-10,1.602344e-01
3.311250e-10,1.580313e-01
3.351250e-10,1.544531e-01
3.391250e-10,1.510781e-01
3.431250e-10,1.472500e-01
3.471250e-10,1.443438e-01
3.511250e-10,1.408750e-01
3.551250e-10,1.376719e-01
3.591250e-10,1.347656e-01
3.631250e-10,1.319063e-01
3.671250e-10,1.284531e-01
3.711250e-10,1.249688e-01
3.751250e-10,1.218594e-01
3.791250e-10,1.191250e-01
3.831250e-10,1.157188e-01
3.871250e-10,1.132188e-01
3.911250e-10,1.103438e-01
3.951250e-10,1.077188e-01
3.991250e-10,1.036250e-01
4.031250e-10,1.015781e-01
4.071250e-10,9.804688e-02
4.111250e-10,9.631250e-02
4.151250e-10,9.328125e-02
4.191250e-10,9.045313e-02
4.231250e-10,8.720313e-02
4.271250e-10,8.496875e-02
4.311250e-10,8.215625e-02
4.351250e-10,7.968750e-02
4.391250e-10,7.750000e-02
4.431250e-10,7.539063e-02
4.471250e-10,7.281250e-02
4.511250e-10,7.018750e-02
4.551250e-10,6.795313e-02
4.591250e-10,6.614063e-02
4.631250e-10,6.365625e-02
4.671250e-10,6.209375e-02
4.711250e-10,6.025000e-02
4.751250e-10,5.859375e-02
4.791250e-10,5.556250e-02
4.831250e-10,5.457813e-02
4.871250e-10,5.215625e-02
4.911250e-10,5.153125e-02
4.951250e-10,4.968750e-02
4.991250e-10,4.795313e-02
5.031250e-10,4.592188e-02
5.071250e-10,4.485938e-02
5.111250e-10,4.320313e-02
5.151250e-10,4.193750e-02
5.191250e-10,4.096875e-02
5.231250e-10,4.006250e-02
5.271250e-10,3.876563e-02
5.311250e-10,3.735938e-02
5.351250e-10,3.637500e-02
5.391250e-10,3.581250e-02
5.431250e-10,3.454688e-02
5.471250e-10,3.417188e-02
5.511250e-10,3.356250e-02
5.551250e-10,3.304688e-02
5.591250e-10,3.121875e-02
5.631250e-10,3.134375e-02
5.671250e-10,3.006250e-02
5.711250e-10,3.056250e-02
5.751250e-10,2.982813e-02
5.791250e-10,2.909375e-02
5.831250e-10,2.807813e-02
5.871250e-10,2.800000e-02
5.911250e-10,2.723438e-02
5.951250e-10,2.682813e-02
5.991250e-10,2.671875e-02
6.031250e-10,2.659375e-02
6.071250e-10,2.607813e-02
6.111250e-10,2.537500e-02
6.151250e-10,2.509375e-02
6.191250e-10,2.509375e-02
6.231250e-10,2.439063e-02
6.271250e-10,2.454688e-02
6.311250e-10,2.442188e-02
6.351250e-10,2.426563e-02
6.391250e-10,2.281250e-02
6.431250e-10,2.323438e-02
6.471250e-10,2.225000e-02
6.511250e-10,2.298438e-02
6.551250e-10,2.245313e-02
6.591250e-10,2.185938e-02
6.631250e-10,2.090625e-02
6.671250e-10,2.095313e-02
6.711250e-10,2.015625e-02
6.751250e-10,1.970313e-02
6.791250e-10,1.959375e-02
6.831250e-10,1.943750e-02
6.871250e-10,1.885938e-02
6.911250e-10,1.803125e-02
6.951250e-10,1.765625e-02
6.991250e-10,1.751563e-02
7.031250e-10,1.668750e-02
7.071250e-10,1.671875e-02
7.111250e-10,1.650000e-02
7.151250e-10,1.614063e-02
7.191250e-10,1.459375e-02
7.231250e-10,1.482813e-02
7.271250e-10,1.371875e-02
7.311250e-10,1.437500e-02
7.351250e-10,1.375000e-02
7.391250e-10,1.310938e-02
7.431250e-10,1.204688e-02
7.471250e-10,1.207813e-02
7.511250e-10,1.121875e-02
7.551250e-10,1.075000e-02
7.591250e-10,1.070313e-02
7.631250e-10,1.056250e-02
7.671250e-10,1.006250e-02
7.711250e-10,9.296875e-03
7.751250e-10,9.031250e-03
7.791250e-10,9.046875e-03
7.831250e-10,8.390625e-03
7.871250e-10,8.640625e-03
7.911250e-10,8.640625e-03
7.951250e-10,8.468750e-03
7.991250e-10,7.187500e-03
8.031250e-10,7.656250e-03
8.071250e-10,6.781250e-03
8.111250e-10,7.781250e-03
8.151250e-10,7.484375e-03
8.191250e-10,7.156250e-03
8.231250e-10,6.421875e-03
8.271250e-10,6.750000e-03
8.311250e-10,6.234375e-03
8.351250e-10,6.109375e-03
8.391250e-10,6.421875e-03
8.431250e-10,6.531250e-03
8.471250e-10,6.390625e-03
8.511250e-10,5.921875e-03
8.551250e-10,5.921875e-03
8.591250e-10,6.281250e-03
8.631250e-10,5.921875e-03
8.671250e-10,6.468750e-03
8.711250e-10,6.687500e-03
8.751250e-10,6.750000e-03
8.791250e-10,5.718750e-03
8.831250e-10,6.359375e-03
8.871250e-10,5.625000e-03
8.911250e-10,6.843750e-03
8.951250e-10,6.687500e-03
8.991250e-10,6.500000e-03
9.031250e-10,5.875000e-03
9.071250e-10,6.250000e-03
9.111250e-10,5.828125e-03
9.151250e-10,5.796875e-03
9.191250e-10,6.187500e-03
9.231250e-10,6.234375e-03
9.271250e-10,6.125000e-03
9.311250e-10,5.687500e-03
9.351250e-10,5.609375e-03
9.391250e-10,6.000000e-03
9.431250e-10,5.640625e-03
9.471250e-10,6.140625e-03
9.511250e-10,6.312500e-03
9.551250e-10,6.343750e-03
9.591250e-10,5.296875e-03
9.631250e-10,5.921875e-03
9.671250e-10,5.125000e-03
9.711250e-10,6.312500e-03
9.751250e-10,6.140625e-03
9.791250e-10,5.937500e-03
9.831250e-10,5.343750e-03
9.871250e-10,5.703125e-03
9.911250e-10,5.328125e-03
9.951250e-10,5.359375e-03
9.991250e-10,5.812500e-03
1.003125e-09,5.906250e-03
1.007125e-09,5.843750e-03
1.011125e-09,5.515625e-03
1.015125e-09,5.515625e-03
1.019125e-09,6.062500e-03
1.023125e-09,5.828125e-03
1.027125e-09,6.468750e-03
1.031125e-09,6.781250e-03
1.035125e-09,7.000000e-03
1.039125e-09,6.156250e-03
1.043125e-09,7.015625e-03
1.047125e-09,6.390625e-03
1.051125e-09,7.765625e-03
1.055125e-09,7.796875e-03
1.059125e-09,7.781250e-03
1.063125e-09,7.421875e-03
1.067125e-09,8.000000e-03
1.071125e-09,7.843750e-03
1.075125e-09,8.078125e-03
1.079125e-09,8.734375e-03
1.083125e-09,9.031250e-03
1.087125e-09,9.109375e-03
1.091125e-09,8.953125e-03
1.095125e-09,9.109375e-03
1.099125e-09,9.765625e-03
1.103125e-09,9.625000e-03
1.107125e-09,1.037500e-02
1.111125e-09,1.075000e-02
1.115125e-09,1.106250e-02
1.119125e-09,1.021875e-02
1.123125e-09,1.114063e-02
1.127125e-09,1.048438e-02
1.131125e-09,1.179688e-02
1.135125e-09,1.173438e-02
1.139125e-09,1.164063e-02
1.143125e-09,1.114063e-02
1.147125e-09,1.159375e-02
1.151125e-09,1.125000e-02
1.155125e-09,1.129688e-02
1.159125e-09,1.173438e-02
1.163125e-09,1.184375e-02
1.167125e-09,1.165625e-02
1.171125e-09,1.121875e-02
1.175125e-09,1.110938e-02
1.179125e-09,1.145313e-02
1.183125e-09,1.100000e-02
1.187125e-09,1.143750e-02
1.191125e-09,1.150000e-02
1.195125e-09,1.150000e-02
1.199125e-09,1.031250e-02
1.203125e-09,1.092188e-02
1.207125e-09,9.937500e-03
1.211125e-09,1.093750e-02
1.215125e-09,1.056250e-02
1.219125e-09,1.017188e-02
1.223125e-09,9.375000e-03
1.227125e-09,9.578125e-03
1.231125e-09,8.984375e-03
1.235125e-09,8.796875e-03
1.239125e-09,9.015625e-03
1.243125e-09,8.968750e-03
1.247125e-09,8.609375e-03
1.251125e-09,8.046875e-03
1.255125e-09,7.843750e-03
1.259125e-09,8.109375e-03
1.263125e-09,7.593750e-03
1.267125e-09,8.031250e-03
1.271125e-09,8.109375e-03
1.275125e-09,8.187500e-03
1.279125e-09,7.000000e-03
1.283125e-09,7.718750e-03
1.287125e-09,6.875000e-03
1.291125e-09,8.031250e-03
1.295125e-09,7.828125e-03
1.299125e-09,7.640625e-03
1.303125e-09,7.062500e-03
1.307125e-09,7.515625e-03
1.311125e-09,7.171875e-03
1.315125e-09,7.265625e-03
1.319125e-09,7.765625e-03
1.323125e-09,8.062500e-03
1.327125e-09,7.984375e-03
1.331125e-09,7.734375e-03
1.335125e-09,7.875000e-03
1.339125e-09,8.437500e-03
1.343125e-09,8.218750e-03
1.347125e-09,9.000000e-03
1.351125e-09,9.375000e-03
1.355125e-09,9.765625e-03
1.359125e-09,8.812500e-03
1.363125e-09,9.796875e-03
1.367125e-09,9.187500e-03
1.371125e-09,1.057813e-02
1.375125e-09,1.057813e-02
1.379125e-09,1.056250e-02
1.383125e-09,1.014063e-02
1.387125e-09,1.070313e-02
1.391125e-09,1.046875e-02
1.395125e-09,1.060938e-02
1.399125e-09,1.114063e-02
1.403125e-09,1.145313e-02
1.407125e-09,1.134375e-02
1.411125e-09,1.103125e-02
1.415125e-09,1.109375e-02
1.419125e-09,1.154688e-02
1.423125e-09,1.117188e-02
1.427125e-09,1.178125e-02
1.431125e-09,1.195313e-02
1.435125e-09,1.210938e-02
1.439125e-09,1.087500e-02
1.443125e-09,1.160938e-02
1.447125e-09,1.070313e-02
1.451125e-09,1.179688e-02
1.455125e-09,1.146875e-02
1.459125e-09,1.110938e-02
1.463125e-09,1.034375e-02
1.467125e-09,1.056250e-02
1.471125e-09,9.968750e-03
1.475125e-09,9.765625e-03
1.479125e-09,9.937500e-03
1.483125e-09,9.906250e-03
1.487125e-09,9.468750e-03
1.491125e-09,8.812500e-03
1.495125e-09,8.562500e-03
1.499125e-09,8.718750e-03
1.503125e-09,8.062500e-03
1.507125e-09,8.406250e-03
1.511125e-09,8.343750e-03
1.515125e-09,8.296875e-03
1.519125e-09,6.859375e-03
1.523125e-09,7.437500e-03
1.527125e-09,6.406250e-03
1.531125e-09,7.406250e-03
1.535125e-09,7.000000e-03
1.539125e-09,6.609375e-03
1.543125e-09,5.843750e-03
1.547125e-09,6.093750e-03
1.551125e-09,5.562500e-03
1.555125e-09,5.437500e-03
1.559125e-09,5.750000e-03
1.563125e-09,5.875000e-03
1.567125e-09,5.609375e-03
1.571125e-09,5.171875e-03
1.575125e-09,5.156250e-03
1.579125e-09,5.562500e-03
1.583125e-09,5.187500e-03
1.587125e-09,5.843750e-03
1.591125e-09,6.109375e-03
1.595125e-09,6.406250e-03
1.599125e-09,5.312500e-03
1.603125e-09,6.234375e-03
1.607125e-09,5.562500e-03
1.611125e-09,6.921875e-03
1.615125e-09,6.890625e-03
1.619125e-09,6.875000e-03
1.623125e-09,6.468750e-03
1.627125e-09,7.062500e-03
1.631125e-09,6.875000e-03
1.635125e-09,7.078125e-03
1.639125e-09,7.703125e-03
1.643125e-09,8.125000e-03
1.647125e-09,8.140625e-03
1.651125e-09,7.968750e-03
1.655125e-09,8.171875e-03
1.659125e-09,8.781250e-03
1.663125e-09,8.593750e-03
1.667125e-09,9.390625e-03
1.671125e-09,9.781250e-03
1.675125e-09,1.015625e-02
1.679125e-09,9.109375e-03
1.683125e-09,1.006250e-02
1.687125e-09,9.390625e-03
1.691125e-09,1.070313e-02
1.695125e-09,1.060938e-02
1.699125e-09,1.048438e-02
1.703125e-09,9.937500e-03
1.707125e-09,1.039063e-02
1.711125e-09,1.000000e-02
1.715125e-09,1.001563e-02
1.719125e-09,1.039063e-02
1.723125e-09,1.056250e-02
1.727125e-09,1.031250e-02
1.731125e-09,9.828125e-03
1.735125e-09,9.734375e-03
1.739125e-09,1.003125e-02
1.743125e-09,9.500000e-03
1.747125e-09,9.953125e-03
1.751125e-09,1.000000e-02
1.755125e-09,1.003125e-02
1.759125e-09,8.640625e-03
