Measurements-streak-laser/Photodiode-on-Tek-12bit-4GHz/Tek000_ch1_20190613133100745.csv

Model,MSO64
Waveform Type,ANALOG
Horizontal Units,s
Sample Interval,4.000000e-12
Record Length,1000
Zero Index,310.453125
Vertical Units,V

TIME,CH1
-1.241813e-09,2.828125e-03
-1.237813e-09,2.234375e-03
-1.233813e-09,2.656250e-03
-1.229812e-09,2.265625e-03
-1.225812e-09,2.265625e-03
-1.221812e-09,2.687500e-03
-1.217812e-09,2.890625e-03
-1.213812e-09,2.671875e-03
-1.209812e-09,2.250000e-03
-1.205812e-09,2.250000e-03
-1.201812e-09,2.625000e-03
-1.197812e-09,2.203125e-03
-1.193813e-09,2.781250e-03
-1.189813e-09,2.968750e-03
-1.185813e-09,3.125000e-03
-1.181813e-09,1.875000e-03
-1.177813e-09,2.656250e-03
-1.173813e-09,1.812500e-03
-1.169812e-09,2.984375e-03
-1.165812e-09,2.750000e-03
-1.161812e-09,2.515625e-03
-1.157812e-09,1.875000e-03
-1.153812e-09,2.250000e-03
-1.149812e-09,1.812500e-03
-1.145812e-09,1.781250e-03
-1.141812e-09,2.171875e-03
-1.137812e-09,2.359375e-03
-1.133813e-09,2.140625e-03
-1.129813e-09,1.734375e-03
-1.125813e-09,1.734375e-03
-1.121813e-09,2.140625e-03
-1.117813e-09,1.750000e-03
-1.113813e-09,2.375000e-03
-1.109812e-09,2.609375e-03
-1.105812e-09,2.843750e-03
-1.101812e-09,1.671875e-03
-1.097812e-09,2.531250e-03
-1.093812e-09,1.781250e-03
-1.089812e-09,3.062500e-03
-1.085812e-09,2.937500e-03
-1.081812e-09,2.812500e-03
-1.077812e-09,2.281250e-03
-1.073813e-09,2.781250e-03
-1.069813e-09,2.468750e-03
-1.065813e-09,2.562500e-03
-1.061813e-09,3.078125e-03
-1.057813e-09,3.390625e-03
-1.053813e-09,3.296875e-03
-1.049812e-09,3.000000e-03
-1.045812e-09,3.125000e-03
-1.041812e-09,3.640625e-03
-1.037812e-09,3.359375e-03
-1.033812e-09,4.078125e-03
-1.029812e-09,4.406250e-03
-1.025812e-09,4.703125e-03
-1.021812e-09,3.593750e-03
-1.017812e-09,4.515625e-03
-1.013813e-09,3.796875e-03
-1.009813e-09,5.093750e-03
-1.005813e-09,4.984375e-03
-1.001813e-09,4.843750e-03
-9.978125e-10,4.312500e-03
-9.938125e-10,4.765625e-03
-9.898125e-10,4.406250e-03
-9.858125e-10,4.437500e-03
-9.818125e-10,4.875000e-03
-9.778125e-10,5.093750e-03
-9.738125e-10,4.890625e-03
-9.698125e-10,4.484375e-03
-9.658125e-10,4.453125e-03
-9.618125e-10,4.828125e-03
-9.578125e-10,4.390625e-03
-9.538125e-10,4.937500e-03
-9.498125e-10,5.078125e-03
-9.458125e-10,5.203125e-03
-9.418125e-10,3.906250e-03
-9.378125e-10,4.609375e-03
-9.338125e-10,3.687500e-03
-9.298125e-10,4.765625e-03
-9.258125e-10,4.437500e-03
-9.218125e-10,4.093750e-03
-9.178125e-10,3.343750e-03
-9.138125e-10,3.609375e-03
-9.098125e-10,3.046875e-03
-9.058125e-10,2.906250e-03
-9.018125e-10,3.140625e-03
-8.978125e-10,3.187500e-03
-8.938125e-10,2.812500e-03
-8.898125e-10,2.250000e-03
-8.858125e-10,2.078125e-03
-8.818125e-10,2.328125e-03
-8.778125e-10,1.765625e-03
-8.738125e-10,2.218750e-03
-8.698125e-10,2.281250e-03
-8.658125e-10,2.328125e-03
-8.618125e-10,1.000000e-03
-8.578125e-10,1.687500e-03
-8.538125e-10,7.500000e-04
-8.498125e-10,1.781250e-03
-8.458125e-10,1.500000e-03
-8.418125e-10,1.218750e-03
-8.378125e-10,5.625000e-04
-8.338125e-10,8.906250e-04
-8.298125e-10,4.375000e-04
-8.258125e-10,4.218750e-04
-8.218125e-10,7.968750e-04
-8.178125e-10,9.843750e-04
-8.138125e-10,8.281250e-04
-8.098125e-10,4.218750e-04
-8.058125e-10,4.531250e-04
-8.018125e-10,9.062500e-04
-7.978125e-10,5.468750e-04
-7.938125e-10,1.234375e-03
-7.898125e-10,1.515625e-03
-7.858125e-10,1.812500e-03
-7.818125e-10,7.656250e-04
-7.778125e-10,1.687500e-03
-7.738125e-10,1.015625e-03
-7.698125e-10,2.218750e-03
-7.658125e-10,2.218750e-03
-7.618125e-10,2.187500e-03
-7.578125e-10,1.796875e-03
-7.538125e-10,2.359375e-03
-7.498125e-10,2.093750e-03
-7.458125e-10,2.343750e-03
-7.418125e-10,2.906250e-03
-7.378125e-10,3.281250e-03
-7.338125e-10,3.359375e-03
-7.298125e-10,3.125000e-03
-7.258125e-10,3.281250e-03
-7.218125e-10,3.859375e-03
-7.178125e-10,3.640625e-03
-7.138125e-10,4.421875e-03
-7.098125e-10,4.796875e-03
-7.058125e-10,5.156250e-03
-7.018125e-10,4.140625e-03
-6.978125e-10,5.125000e-03
-6.938125e-10,4.500000e-03
-6.898125e-10,5.671875e-03
-6.858125e-10,5.671875e-03
-6.818125e-10,5.625000e-03
-6.778125e-10,5.203125e-03
-6.738125e-10,5.656250e-03
-6.698125e-10,5.296875e-03
-6.658125e-10,5.468750e-03
-6.618125e-10,5.937500e-03
-6.578125e-10,6.140625e-03
-6.538125e-10,6.156250e-03
-6.498125e-10,5.765625e-03
-6.458125e-10,5.765625e-03
-6.418125e-10,6.171875e-03
-6.378125e-10,5.828125e-03
-6.338125e-10,6.406250e-03
-6.298125e-10,6.625000e-03
-6.258125e-10,6.781250e-03
-6.218125e-10,5.546875e-03
-6.178125e-10,6.359375e-03
-6.138125e-10,5.609375e-03
-6.098125e-10,6.578125e-03
-6.058125e-10,6.437500e-03
-6.018125e-10,6.218750e-03
-5.978125e-10,5.640625e-03
-5.938125e-10,5.906250e-03
-5.898125e-10,5.375000e-03
-5.858125e-10,5.421875e-03
-5.818125e-10,5.750000e-03
-5.778125e-10,5.796875e-03
-5.738125e-10,5.718750e-03
-5.698125e-10,5.218750e-03
-5.658125e-10,5.125000e-03
-5.618125e-10,5.437500e-03
-5.578125e-10,5.031250e-03
-5.538125e-10,5.562500e-03
-5.498125e-10,5.687500e-03
-5.458125e-10,5.781250e-03
-5.418125e-10,4.500000e-03
-5.378125e-10,5.250000e-03
-5.338125e-10,4.531250e-03
-5.298125e-10,5.468750e-03
-5.258125e-10,5.359375e-03
-5.218125e-10,5.125000e-03
-5.178125e-10,4.515625e-03
-5.138125e-10,4.796875e-03
-5.098125e-10,4.296875e-03
-5.058125e-10,4.312500e-03
-5.018125e-10,4.687500e-03
-4.978125e-10,4.734375e-03
-4.938125e-10,4.640625e-03
-4.898125e-10,4.156250e-03
-4.858125e-10,4.125000e-03
-4.818125e-10,4.468750e-03
-4.778125e-10,4.046875e-03
-4.738125e-10,4.625000e-03
-4.698125e-10,4.718750e-03
-4.658125e-10,4.812500e-03
-4.618125e-10,3.531250e-03
-4.578125e-10,4.218750e-03
-4.538125e-10,3.500000e-03
-4.498125e-10,4.437500e-03
-4.458125e-10,4.328125e-03
-4.418125e-10,4.000000e-03
-4.378125e-10,3.359375e-03
-4.338125e-10,3.609375e-03
-4.298125e-10,3.125000e-03
-4.258125e-10,3.015625e-03
-4.218125e-10,3.359375e-03
-4.178125e-10,3.343750e-03
-4.138125e-10,3.109375e-03
-4.098125e-10,2.593750e-03
-4.058125e-10,2.531250e-03
-4.018125e-10,2.859375e-03
-3.978125e-10,2.312500e-03
-3.938125e-10,2.843750e-03
-3.898125e-10,2.921875e-03
-3.858125e-10,2.968750e-03
-3.818125e-10,1.671875e-03
-3.778125e-10,2.265625e-03
-3.738125e-10,1.531250e-03
-3.698125e-10,2.468750e-03
-3.658125e-10,2.343750e-03
-3.618125e-10,2.015625e-03
-3.578125e-10,1.421875e-03
-3.538125e-10,1.718750e-03
-3.498125e-10,1.343750e-03
-3.458125e-10,1.234375e-03
-3.418125e-10,1.656250e-03
-3.378125e-10,1.750000e-03
-3.338125e-10,1.546875e-03
-3.298125e-10,1.203125e-03
-3.258125e-10,1.296875e-03
-3.218125e-10,1.781250e-03
-3.178125e-10,1.390625e-03
-3.138125e-10,2.062500e-03
-3.098125e-10,2.375000e-03
-3.058125e-10,2.609375e-03
-3.018125e-10,1.562500e-03
-2.978125e-10,2.328125e-03
-2.938125e-10,1.781250e-03
-2.898125e-10,2.953125e-03
-2.858125e-10,3.046875e-03
-2.818125e-10,2.937500e-03
-2.778125e-10,2.609375e-03
-2.738125e-10,3.125000e-03
-2.698125e-10,2.968750e-03
-2.658125e-10,3.046875e-03
-2.618125e-10,3.625000e-03
-2.578125e-10,3.906250e-03
-2.538125e-10,3.843750e-03
-2.498125e-10,3.687500e-03
-2.458125e-10,3.875000e-03
-2.418125e-10,4.453125e-03
-2.378125e-10,4.156250e-03
-2.338125e-10,4.843750e-03
-2.298125e-10,5.187500e-03
-2.258125e-10,5.421875e-03
-2.218125e-10,4.375000e-03
-2.178125e-10,5.078125e-03
-2.138125e-10,4.390625e-03
-2.098125e-10,5.484375e-03
-2.058125e-10,5.359375e-03
-2.018125e-10,5.093750e-03
-1.978125e-10,4.593750e-03
-1.938125e-10,4.875000e-03
-1.898125e-10,4.437500e-03
-1.858125e-10,4.281250e-03
-1.818125e-10,4.500000e-03
-1.778125e-10,4.468750e-03
-1.738125e-10,4.062500e-03
-1.698125e-10,3.609375e-03
-1.658125e-10,3.406250e-03
-1.618125e-10,3.578125e-03
-1.578125e-10,2.953125e-03
-1.538125e-10,3.296875e-03
-1.498125e-10,3.296875e-03
-1.458125e-10,3.234375e-03
-1.418125e-10,1.953125e-03
-1.378125e-10,2.406250e-03
-1.338125e-10,1.453125e-03
-1.298125e-10,2.421875e-03
-1.258125e-10,2.109375e-03
-1.218125e-10,1.812500e-03
-1.178125e-10,1.312500e-03
-1.138125e-10,1.687500e-03
-1.098125e-10,1.359375e-03
-1.058125e-10,1.468750e-03
-1.018125e-10,2.000000e-03
-9.781250e-11,2.390625e-03
-9.381250e-11,2.500000e-03
-8.981250e-11,2.656250e-03
-8.581250e-11,3.171875e-03
-8.181250e-11,4.093750e-03
-7.781250e-11,4.437500e-03
-7.381250e-11,5.875000e-03
-6.981250e-11,7.031250e-03
-6.581250e-11,8.343750e-03
-6.181250e-11,8.531250e-03
-5.781250e-11,1.057813e-02
-5.381250e-11,1.129688e-02
-4.981250e-11,1.412500e-02
-4.581250e-11,1.570313e-02
-4.181250e-11,1.751563e-02
-3.781250e-11,1.920313e-02
-3.381250e-11,2.190625e-02
-2.981250e-11,2.400000e-02
-2.581250e-11,2.664063e-02
-2.181250e-11,2.981250e-02
-1.781250e-11,3.300000e-02
-1.381250e-11,3.587500e-02
-9.812500e-12,3.895313e-02
-5.812500e-12,4.242188e-02
-1.812500e-12,4.632813e-02
2.187500e-12,4.976563e-02
6.187500e-12,5.432813e-02
1.018750e-11,5.862500e-02
1.418750e-11,6.315625e-02
1.818750e-11,6.656250e-02
2.218750e-11,7.178125e-02
2.618750e-11,7.564063e-02
3.018750e-11,8.162500e-02
3.418750e-11,8.625000e-02
3.818750e-11,9.115625e-02
4.218750e-11,9.578125e-02
4.618750e-11,1.013438e-01
5.018750e-11,1.062813e-01
5.418750e-11,1.115938e-01
5.818750e-11,1.173594e-01
6.218750e-11,1.230781e-01
6.618750e-11,1.282188e-01
7.018750e-11,1.334531e-01
7.418750e-11,1.389375e-01
7.818750e-11,1.446563e-01
8.218750e-11,1.497969e-01
8.618750e-11,1.558281e-01
9.018750e-11,1.613750e-01
9.418750e-11,1.670469e-01
9.818750e-11,1.712813e-01
1.021875e-10,1.771875e-01
1.061875e-10,1.815000e-01
1.101875e-10,1.876875e-01
1.141875e-10,1.922813e-01
1.181875e-10,1.970000e-01
1.221875e-10,2.011406e-01
1.261875e-10,2.059844e-01
1.301875e-10,2.100156e-01
1.341875e-10,2.142031e-01
1.381875e-10,2.186094e-01
1.421875e-10,2.228125e-01
1.461875e-10,2.261250e-01
1.501875e-10,2.293281e-01
1.541875e-10,2.326094e-01
1.581875e-10,2.359531e-01
1.621875e-10,2.385469e-01
1.661875e-10,2.417969e-01
1.701875e-10,2.443438e-01
1.741875e-10,2.469219e-01
1.781875e-10,2.478750e-01
1.821875e-10,2.504063e-01
1.861875e-10,2.512031e-01
1.901875e-10,2.536875e-01
1.941875e-10,2.544531e-01
1.981875e-10,2.552813e-01
2.021875e-10,2.554375e-01
2.061875e-10,2.561875e-01
2.101875e-10,2.561250e-01
2.141875e-10,2.561406e-01
2.181875e-10,2.562813e-01
2.221875e-10,2.562500e-01
2.261875e-10,2.552500e-01
2.301875e-10,2.541094e-01
2.341875e-10,2.531094e-01
2.381875e-10,2.521875e-01
2.421875e-10,2.505000e-01
2.461875e-10,2.494688e-01
2.501875e-10,2.477813e-01
2.541875e-10,2.462188e-01
2.581875e-10,2.430000e-01
2.621875e-10,2.415313e-01
2.661875e-10,2.383750e-01
2.701875e-10,2.369063e-01
2.741875e-10,2.338750e-01
2.781875e-10,2.309531e-01
2.821875e-10,2.274531e-01
2.861875e-10,2.247031e-01
2.901875e-10,2.212813e-01
2.941875e-10,2.180000e-01
2.981875e-10,2.149219e-01
3.021875e-10,2.118125e-01
3.061875e-10,2.079063e-01
3.101875e-10,2.039219e-01
3.141875e-10,2.002344e-01
3.181875e-10,1.967813e-01
3.221875e-10,1.926406e-01
3.261875e-10,1.892969e-01
3.301875e-10,1.854531e-01
3.341875e-10,1.818594e-01
3.381875e-10,1.767188e-01
3.421875e-10,1.735156e-01
3.461875e-10,1.687813e-01
3.501875e-10,1.657969e-01
3.541875e-10,1.614219e-01
3.581875e-10,1.572813e-01
3.621875e-10,1.526563e-01
3.661875e-10,1.489844e-01
3.701875e-10,1.447656e-01
3.741875e-10,1.408125e-01
3.781875e-10,1.371406e-01
3.821875e-10,1.335625e-01
3.861875e-10,1.293906e-01
3.901875e-10,1.252188e-01
3.941875e-10,1.214531e-01
3.981875e-10,1.180781e-01
4.021875e-10,1.140625e-01
4.061875e-10,1.109688e-01
4.101875e-10,1.075469e-01
4.141875e-10,1.044219e-01
4.181875e-10,9.985938e-02
4.221875e-10,9.739063e-02
4.261875e-10,9.348438e-02
4.301875e-10,9.139063e-02
4.341875e-10,8.806250e-02
4.381875e-10,8.496875e-02
4.421875e-10,8.154688e-02
4.461875e-10,7.914063e-02
4.501875e-10,7.623438e-02
4.541875e-10,7.370313e-02
4.581875e-10,7.150000e-02
4.621875e-10,6.942188e-02
4.661875e-10,6.693750e-02
4.701875e-10,6.445313e-02
4.741875e-10,6.239063e-02
4.781875e-10,6.079688e-02
4.821875e-10,5.857813e-02
4.861875e-10,5.728125e-02
4.901875e-10,5.578125e-02
4.941875e-10,5.450000e-02
4.981875e-10,5.187500e-02
5.021875e-10,5.132813e-02
5.061875e-10,4.935938e-02
5.101875e-10,4.920313e-02
5.141875e-10,4.785938e-02
5.181875e-10,4.664063e-02
5.221875e-10,4.514063e-02
5.261875e-10,4.460938e-02
5.301875e-10,4.351563e-02
5.341875e-10,4.278125e-02
5.381875e-10,4.234375e-02
5.421875e-10,4.196875e-02
5.461875e-10,4.120313e-02
5.501875e-10,4.032813e-02
5.541875e-10,3.984375e-02
5.581875e-10,3.973438e-02
5.621875e-10,3.893750e-02
5.661875e-10,3.896875e-02
5.701875e-10,3.876563e-02
5.741875e-10,3.862500e-02
5.781875e-10,3.712500e-02
5.821875e-10,3.756250e-02
5.861875e-10,3.654688e-02
5.901875e-10,3.725000e-02
5.941875e-10,3.671875e-02
5.981875e-10,3.612500e-02
6.021875e-10,3.520313e-02
6.061875e-10,3.520313e-02
6.101875e-10,3.443750e-02
6.141875e-10,3.400000e-02
6.181875e-10,3.381250e-02
6.221875e-10,3.360938e-02
6.261875e-10,3.293750e-02
6.301875e-10,3.204688e-02
6.341875e-10,3.156250e-02
6.381875e-10,3.129688e-02
6.421875e-10,3.031250e-02
6.461875e-10,3.012500e-02
6.501875e-10,2.965625e-02
6.541875e-10,2.910938e-02
6.581875e-10,2.728125e-02
6.621875e-10,2.726563e-02
6.661875e-10,2.585938e-02
6.701875e-10,2.614063e-02
6.741875e-10,2.515625e-02
6.781875e-10,2.409375e-02
6.821875e-10,2.265625e-02
6.861875e-10,2.225000e-02
6.901875e-10,2.096875e-02
6.941875e-10,2.004688e-02
6.981875e-10,1.948438e-02
7.021875e-10,1.889063e-02
7.061875e-10,1.789063e-02
7.101875e-10,1.664063e-02
7.141875e-10,1.589063e-02
7.181875e-10,1.537500e-02
7.221875e-10,1.421875e-02
7.261875e-10,1.392188e-02
7.301875e-10,1.343750e-02
7.341875e-10,1.279688e-02
7.381875e-10,1.104688e-02
7.421875e-10,1.107813e-02
7.461875e-10,9.843750e-03
7.501875e-10,1.037500e-02
7.541875e-10,9.687500e-03
7.581875e-10,9.000000e-03
7.621875e-10,7.937500e-03
7.661875e-10,8.000000e-03
7.701875e-10,7.218750e-03
7.741875e-10,6.843750e-03
7.781875e-10,6.921875e-03
7.821875e-10,6.953125e-03
7.861875e-10,6.687500e-03
7.901875e-10,6.140625e-03
7.941875e-10,6.140625e-03
7.981875e-10,6.437500e-03
8.021875e-10,6.109375e-03
8.061875e-10,6.687500e-03
8.101875e-10,7.046875e-03
8.141875e-10,7.218750e-03
8.181875e-10,6.343750e-03
8.221875e-10,7.187500e-03
8.261875e-10,6.750000e-03
8.301875e-10,8.171875e-03
8.341875e-10,8.281250e-03
8.381875e-10,8.406250e-03
8.421875e-10,8.078125e-03
8.461875e-10,8.796875e-03
8.501875e-10,8.703125e-03
8.541875e-10,8.968750e-03
8.581875e-10,9.671875e-03
8.621875e-10,1.014063e-02
8.661875e-10,1.037500e-02
8.701875e-10,1.025000e-02
8.741875e-10,1.054688e-02
8.781875e-10,1.121875e-02
8.821875e-10,1.114063e-02
8.861875e-10,1.192188e-02
8.901875e-10,1.235938e-02
8.941875e-10,1.259375e-02
8.981875e-10,1.175000e-02
9.021875e-10,1.251563e-02
9.061875e-10,1.189063e-02
9.101875e-10,1.317188e-02
9.141875e-10,1.307813e-02
9.181875e-10,1.290625e-02
9.221875e-10,1.228125e-02
9.261875e-10,1.259375e-02
9.301875e-10,1.210938e-02
9.341875e-10,1.200000e-02
9.381875e-10,1.225000e-02
9.421875e-10,1.214063e-02
9.461875e-10,1.185938e-02
9.501875e-10,1.121875e-02
9.541875e-10,1.090625e-02
9.581875e-10,1.106250e-02
9.621875e-10,1.045313e-02
9.661875e-10,1.067188e-02
9.701875e-10,1.053125e-02
9.741875e-10,1.025000e-02
9.781875e-10,8.890625e-03
9.821875e-10,9.187500e-03
9.861875e-10,8.046875e-03
9.901875e-10,8.875000e-03
9.941875e-10,8.359375e-03
9.981875e-10,7.796875e-03
1.002188e-09,6.843750e-03
1.006188e-09,6.843750e-03
1.010188e-09,6.125000e-03
1.014188e-09,5.812500e-03
1.018188e-09,5.921875e-03
1.022187e-09,5.640625e-03
1.026187e-09,5.265625e-03
1.030187e-09,4.609375e-03
1.034187e-09,4.281250e-03
1.038187e-09,4.531250e-03
1.042187e-09,4.015625e-03
1.046187e-09,4.359375e-03
1.050187e-09,4.406250e-03
1.054187e-09,4.375000e-03
1.058188e-09,3.312500e-03
1.062188e-09,3.937500e-03
1.066188e-09,3.109375e-03
1.070188e-09,4.281250e-03
1.074188e-09,4.156250e-03
1.078188e-09,3.984375e-03
1.082187e-09,3.468750e-03
1.086187e-09,3.921875e-03
1.090187e-09,3.656250e-03
1.094187e-09,3.812500e-03
1.098187e-09,4.390625e-03
1.102187e-09,4.593750e-03
1.106187e-09,4.625000e-03
1.110187e-09,4.437500e-03
1.114187e-09,4.562500e-03
1.118188e-09,5.203125e-03
1.122188e-09,5.078125e-03
1.126188e-09,5.812500e-03
1.130188e-09,6.218750e-03
1.134188e-09,6.546875e-03
1.138188e-09,5.765625e-03
1.142187e-09,6.734375e-03
1.146187e-09,6.140625e-03
1.150187e-09,7.500000e-03
1.154187e-09,7.515625e-03
1.158187e-09,7.484375e-03
1.162187e-09,7.062500e-03
1.166187e-09,7.609375e-03
1.170187e-09,7.359375e-03
1.174187e-09,7.484375e-03
1.178188e-09,8.015625e-03
1.182188e-09,8.203125e-03
1.186188e-09,8.109375e-03
1.190188e-09,7.765625e-03
1.194188e-09,7.734375e-03
1.198188e-09,8.187500e-03
1.202187e-09,7.812500e-03
1.206187e-09,8.328125e-03
1.210187e-09,8.484375e-03
1.214187e-09,8.562500e-03
1.218187e-09,7.453125e-03
1.222187e-09,8.140625e-03
1.226187e-09,7.234375e-03
1.230187e-09,8.281250e-03
1.234187e-09,7.968750e-03
1.238188e-09,7.640625e-03
1.242188e-09,6.890625e-03
1.246188e-09,7.140625e-03
1.250188e-09,6.578125e-03
1.254188e-09,6.421875e-03
1.258188e-09,6.671875e-03
1.262187e-09,6.656250e-03
1.266187e-09,6.296875e-03
1.270187e-09,5.734375e-03
1.274187e-09,5.546875e-03
1.278187e-09,5.796875e-03
1.282187e-09,5.265625e-03
1.286187e-09,5.687500e-03
1.290187e-09,5.750000e-03
1.294187e-09,5.781250e-03
1.298188e-09,4.578125e-03
1.302188e-09,5.250000e-03
1.306188e-09,4.359375e-03
1.310188e-09,5.468750e-03
1.314188e-09,5.203125e-03
1.318188e-09,4.953125e-03
1.322187e-09,4.312500e-03
1.326187e-09,4.687500e-03
1.330187e-09,4.281250e-03
1.334187e-09,4.296875e-03
1.338187e-09,4.718750e-03
1.342187e-09,4.921875e-03
1.346187e-09,4.781250e-03
1.350187e-09,4.437500e-03
1.354187e-09,4.500000e-03
1.358188e-09,5.000000e-03
1.362188e-09,4.687500e-03
1.366188e-09,5.390625e-03
1.370188e-09,5.703125e-03
1.374188e-09,6.000000e-03
1.378188e-09,4.984375e-03
1.382187e-09,5.921875e-03
1.386187e-09,5.250000e-03
1.390187e-09,6.609375e-03
1.394187e-09,6.562500e-03
1.398187e-09,6.500000e-03
1.402187e-09,6.046875e-03
1.406187e-09,6.609375e-03
1.410187e-09,6.359375e-03
1.414187e-09,6.515625e-03
1.418188e-09,7.078125e-03
1.422188e-09,7.406250e-03
1.426188e-09,7.343750e-03
1.430188e-09,7.078125e-03
1.434188e-09,7.203125e-03
1.438188e-09,7.750000e-03
1.442187e-09,7.468750e-03
1.446187e-09,8.187500e-03
1.450187e-09,8.484375e-03
1.454187e-09,8.781250e-03
1.458187e-09,7.703125e-03
1.462187e-09,8.593750e-03
1.466187e-09,7.875000e-03
1.470187e-09,9.156250e-03
1.474187e-09,9.031250e-03
1.478188e-09,8.890625e-03
1.482188e-09,8.343750e-03
1.486188e-09,8.812500e-03
1.490188e-09,8.453125e-03
1.494188e-09,8.500000e-03
1.498188e-09,8.953125e-03
1.502187e-09,9.187500e-03
1.506187e-09,9.015625e-03
1.510187e-09,8.656250e-03
1.514187e-09,8.687500e-03
1.518187e-09,9.125000e-03
1.522187e-09,8.750000e-03
1.526187e-09,9.390625e-03
1.530187e-09,9.625000e-03
1.534187e-09,9.859375e-03
1.538188e-09,8.703125e-03
1.542188e-09,9.546875e-03
1.546188e-09,8.781250e-03
1.550188e-09,1.003125e-02
1.554188e-09,9.875000e-03
1.558188e-09,9.718750e-03
1.562187e-09,9.171875e-03
1.566187e-09,9.625000e-03
1.570187e-09,9.281250e-03
1.574187e-09,9.343750e-03
1.578187e-09,9.812500e-03
1.582187e-09,1.007813e-02
1.586187e-09,9.937500e-03
1.590187e-09,9.593750e-03
1.594187e-09,9.671875e-03
1.598188e-09,1.014063e-02
1.602188e-09,9.812500e-03
1.606188e-09,1.048438e-02
1.610188e-09,1.075000e-02
1.614188e-09,1.101563e-02
1.618188e-09,9.890625e-03
1.622187e-09,1.075000e-02
1.626187e-09,1.000000e-02
1.630187e-09,1.126563e-02
1.634187e-09,1.110938e-02
1.638187e-09,1.095313e-02
1.642187e-09,1.037500e-02
1.646187e-09,1.081250e-02
1.650187e-09,1.043750e-02
1.654187e-09,1.045313e-02
1.658187e-09,1.085938e-02
1.662188e-09,1.104688e-02
1.666188e-09,1.084375e-02
1.670188e-09,1.040625e-02
1.674188e-09,1.037500e-02
1.678188e-09,1.073438e-02
1.682187e-09,1.028125e-02
1.686187e-09,1.082813e-02
1.690187e-09,1.095313e-02
1.694187e-09,1.107813e-02
1.698187e-09,9.781250e-03
1.702187e-09,1.048438e-02
1.706187e-09,9.562500e-03
1.710187e-09,1.065625e-02
1.714187e-09,1.032813e-02
1.718187e-09,9.984375e-03
1.722188e-09,9.234375e-03
1.726188e-09,9.500000e-03
1.730188e-09,8.937500e-03
1.734188e-09,8.781250e-03
1.738188e-09,9.015625e-03
1.742187e-09,9.046875e-03
1.746187e-09,8.671875e-03
1.750187e-09,8.093750e-03
1.754187e-09,7.921875e-03
1.758187e-09,8.156250e-03
