Measurements-streak-laser/Photodiode-on-Tek-12bit-4GHz/Tek000_ch1_20190613132945127.csv

Model,MSO64
Waveform Type,ANALOG
Horizontal Units,s
Sample Interval,4.000000e-12
Record Length,1000
Zero Index,310.031250
Vertical Units,V

TIME,CH1
-1.240125e-09,5.765625e-03
-1.236125e-09,5.843750e-03
-1.232125e-09,6.328125e-03
-1.228125e-09,6.000000e-03
-1.224125e-09,6.671875e-03
-1.220125e-09,6.937500e-03
-1.216125e-09,7.187500e-03
-1.212125e-09,6.031250e-03
-1.208125e-09,6.875000e-03
-1.204125e-09,6.093750e-03
-1.200125e-09,7.343750e-03
-1.196125e-09,7.156250e-03
-1.192125e-09,6.953125e-03
-1.188125e-09,6.343750e-03
-1.184125e-09,6.750000e-03
-1.180125e-09,6.312500e-03
-1.176125e-09,6.281250e-03
-1.172125e-09,6.640625e-03
-1.168125e-09,6.796875e-03
-1.164125e-09,6.531250e-03
-1.160125e-09,6.046875e-03
-1.156125e-09,5.953125e-03
-1.152125e-09,6.265625e-03
-1.148125e-09,5.750000e-03
-1.144125e-09,6.234375e-03
-1.140125e-09,6.312500e-03
-1.136125e-09,6.359375e-03
-1.132125e-09,5.000000e-03
-1.128125e-09,5.656250e-03
-1.124125e-09,4.687500e-03
-1.120125e-09,5.718750e-03
-1.116125e-09,5.343750e-03
-1.112125e-09,4.953125e-03
-1.108125e-09,4.156250e-03
-1.104125e-09,4.375000e-03
-1.100125e-09,3.765625e-03
-1.096125e-09,3.578125e-03
-1.092125e-09,3.781250e-03
-1.088125e-09,3.781250e-03
-1.084125e-09,3.390625e-03
-1.080125e-09,2.796875e-03
-1.076125e-09,2.609375e-03
-1.072125e-09,2.828125e-03
-1.068125e-09,2.265625e-03
-1.064125e-09,2.703125e-03
-1.060125e-09,2.750000e-03
-1.056125e-09,2.812500e-03
-1.052125e-09,1.468750e-03
-1.048125e-09,2.156250e-03
-1.044125e-09,1.234375e-03
-1.040125e-09,2.359375e-03
-1.036125e-09,2.093750e-03
-1.032125e-09,1.828125e-03
-1.028125e-09,1.171875e-03
-1.024125e-09,1.562500e-03
-1.020125e-09,1.140625e-03
-1.016125e-09,1.140625e-03
-1.012125e-09,1.578125e-03
-1.008125e-09,1.828125e-03
-1.004125e-09,1.687500e-03
-1.000125e-09,1.359375e-03
-9.961250e-10,1.453125e-03
-9.921250e-10,1.968750e-03
-9.881250e-10,1.703125e-03
-9.841250e-10,2.453125e-03
-9.801250e-10,2.812500e-03
-9.761250e-10,3.187500e-03
-9.721250e-10,2.156250e-03
-9.681250e-10,3.171875e-03
-9.641250e-10,2.562500e-03
-9.601250e-10,3.968750e-03
-9.561250e-10,4.000000e-03
-9.521250e-10,4.015625e-03
-9.481250e-10,3.640625e-03
-9.441250e-10,4.281250e-03
-9.401250e-10,4.109375e-03
-9.361250e-10,4.343750e-03
-9.321250e-10,4.984375e-03
-9.281250e-10,5.421875e-03
-9.241250e-10,5.437500e-03
-9.201250e-10,5.250000e-03
-9.161250e-10,5.468750e-03
-9.121250e-10,6.062500e-03
-9.081250e-10,5.859375e-03
-9.041250e-10,6.640625e-03
-9.001250e-10,7.015625e-03
-8.961250e-10,7.375000e-03
-8.921250e-10,6.312500e-03
-8.881250e-10,7.250000e-03
-8.841250e-10,6.546875e-03
-8.801250e-10,7.781250e-03
-8.761250e-10,7.671875e-03
-8.721250e-10,7.531250e-03
-8.681250e-10,6.984375e-03
-8.641250e-10,7.406250e-03
-8.601250e-10,7.000000e-03
-8.561250e-10,7.015625e-03
-8.521250e-10,7.390625e-03
-8.481250e-10,7.562500e-03
-8.441250e-10,7.312500e-03
-8.401250e-10,6.828125e-03
-8.361250e-10,6.750000e-03
-8.321250e-10,7.062500e-03
-8.281250e-10,6.546875e-03
-8.241250e-10,7.046875e-03
-8.201250e-10,7.125000e-03
-8.161250e-10,7.187500e-03
-8.121250e-10,5.890625e-03
-8.081250e-10,6.546875e-03
-8.041250e-10,5.593750e-03
-8.001250e-10,6.500000e-03
-7.961250e-10,6.218750e-03
-7.921250e-10,5.859375e-03
-7.881250e-10,5.156250e-03
-7.841250e-10,5.390625e-03
-7.801250e-10,4.828125e-03
-7.761250e-10,4.750000e-03
-7.721250e-10,5.000000e-03
-7.681250e-10,5.062500e-03
-7.641250e-10,4.812500e-03
-7.601250e-10,4.281250e-03
-7.561250e-10,4.171875e-03
-7.521250e-10,4.468750e-03
-7.481250e-10,3.984375e-03
-7.441250e-10,4.500000e-03
-7.401250e-10,4.656250e-03
-7.361250e-10,4.781250e-03
-7.321250e-10,3.593750e-03
-7.281250e-10,4.375000e-03
-7.241250e-10,3.562500e-03
-7.201250e-10,4.546875e-03
-7.161250e-10,4.421875e-03
-7.121250e-10,4.234375e-03
-7.081250e-10,3.718750e-03
-7.041250e-10,4.093750e-03
-7.001250e-10,3.656250e-03
-6.961250e-10,3.765625e-03
-6.921250e-10,4.171875e-03
-6.881250e-10,4.343750e-03
-6.841250e-10,4.343750e-03
-6.801250e-10,3.921875e-03
-6.761250e-10,3.906250e-03
-6.721250e-10,4.296875e-03
-6.681250e-10,3.953125e-03
-6.641250e-10,4.531250e-03
-6.601250e-10,4.765625e-03
-6.561250e-10,4.921875e-03
-6.521250e-10,3.734375e-03
-6.481250e-10,4.546875e-03
-6.441250e-10,3.796875e-03
-6.401250e-10,4.734375e-03
-6.361250e-10,4.593750e-03
-6.321250e-10,4.375000e-03
-6.281250e-10,3.781250e-03
-6.241250e-10,4.031250e-03
-6.201250e-10,3.468750e-03
-6.161250e-10,3.484375e-03
-6.121250e-10,3.750000e-03
-6.081250e-10,3.734375e-03
-6.041250e-10,3.640625e-03
-6.001250e-10,3.046875e-03
-5.961250e-10,2.859375e-03
-5.921250e-10,3.078125e-03
-5.881250e-10,2.578125e-03
-5.841250e-10,2.984375e-03
-5.801250e-10,3.015625e-03
-5.761250e-10,2.984375e-03
-5.721250e-10,1.578125e-03
-5.681250e-10,2.218750e-03
-5.641250e-10,1.375000e-03
-5.601250e-10,2.156250e-03
-5.561250e-10,1.921875e-03
-5.521250e-10,1.578125e-03
-5.481250e-10,8.750000e-04
-5.441250e-10,1.031250e-03
-5.401250e-10,3.906250e-04
-5.361250e-10,3.437500e-04
-5.321250e-10,6.250000e-04
-5.281250e-10,5.781250e-04
-5.241250e-10,4.687500e-04
-5.201250e-10,-6.250000e-05
-5.161250e-10,-1.718750e-04
-5.121250e-10,1.562500e-04
-5.081250e-10,-2.500000e-04
-5.041250e-10,3.125000e-04
-5.001250e-10,4.531250e-04
-4.961250e-10,5.937500e-04
-4.921250e-10,-6.250000e-04
-4.881250e-10,1.562500e-04
-4.841250e-10,-4.218750e-04
-4.801250e-10,5.937500e-04
-4.761250e-10,6.562500e-04
-4.721250e-10,5.156250e-04
-4.681250e-10,6.250000e-05
-4.641250e-10,4.843750e-04
-4.601250e-10,1.875000e-04
-4.561250e-10,3.593750e-04
-4.521250e-10,9.375000e-04
-4.481250e-10,1.156250e-03
-4.441250e-10,1.234375e-03
-4.401250e-10,9.687500e-04
-4.361250e-10,1.187500e-03
-4.321250e-10,1.796875e-03
-4.281250e-10,1.546875e-03
-4.241250e-10,2.390625e-03
-4.201250e-10,2.718750e-03
-4.161250e-10,3.062500e-03
-4.121250e-10,2.046875e-03
-4.081250e-10,2.906250e-03
-4.041250e-10,2.484375e-03
-4.001250e-10,3.640625e-03
-3.961250e-10,3.812500e-03
-3.921250e-10,3.718750e-03
-3.881250e-10,3.343750e-03
-3.841250e-10,3.843750e-03
-3.801250e-10,3.656250e-03
-3.761250e-10,3.750000e-03
-3.721250e-10,4.343750e-03
-3.681250e-10,4.562500e-03
-3.641250e-10,4.515625e-03
-3.601250e-10,4.265625e-03
-3.561250e-10,4.468750e-03
-3.521250e-10,5.046875e-03
-3.481250e-10,4.687500e-03
-3.441250e-10,5.437500e-03
-3.401250e-10,5.750000e-03
-3.361250e-10,5.984375e-03
-3.321250e-10,4.937500e-03
-3.281250e-10,5.671875e-03
-3.241250e-10,5.140625e-03
-3.201250e-10,6.250000e-03
-3.161250e-10,6.328125e-03
-3.121250e-10,6.156250e-03
-3.081250e-10,5.765625e-03
-3.041250e-10,6.218750e-03
-3.001250e-10,6.015625e-03
-2.961250e-10,6.031250e-03
-2.921250e-10,6.562500e-03
-2.881250e-10,6.765625e-03
-2.841250e-10,6.671875e-03
-2.801250e-10,6.453125e-03
-2.761250e-10,6.640625e-03
-2.721250e-10,7.203125e-03
-2.681250e-10,6.875000e-03
-2.641250e-10,7.578125e-03
-2.601250e-10,7.937500e-03
-2.561250e-10,8.187500e-03
-2.521250e-10,7.171875e-03
-2.481250e-10,7.890625e-03
-2.441250e-10,7.312500e-03
-2.401250e-10,8.421875e-03
-2.361250e-10,8.421875e-03
-2.321250e-10,8.234375e-03
-2.281250e-10,7.843750e-03
-2.241250e-10,8.218750e-03
-2.201250e-10,7.906250e-03
-2.161250e-10,7.812500e-03
-2.121250e-10,8.171875e-03
-2.081250e-10,8.234375e-03
-2.041250e-10,7.921875e-03
-2.001250e-10,7.562500e-03
-1.961250e-10,7.468750e-03
-1.921250e-10,7.718750e-03
-1.881250e-10,7.140625e-03
-1.841250e-10,7.500000e-03
-1.801250e-10,7.515625e-03
-1.761250e-10,7.421875e-03
-1.721250e-10,6.078125e-03
-1.681250e-10,6.406250e-03
-1.641250e-10,5.359375e-03
-1.601250e-10,6.109375e-03
-1.561250e-10,5.609375e-03
-1.521250e-10,5.031250e-03
-1.481250e-10,4.250000e-03
-1.441250e-10,4.234375e-03
-1.401250e-10,3.500000e-03
-1.361250e-10,3.109375e-03
-1.321250e-10,3.093750e-03
-1.281250e-10,2.875000e-03
-1.241250e-10,2.312500e-03
-1.201250e-10,1.765625e-03
-1.161250e-10,1.515625e-03
-1.121250e-10,1.625000e-03
-1.081250e-10,1.062500e-03
-1.041250e-10,1.546875e-03
-1.001250e-10,1.718750e-03
-9.612500e-11,1.937500e-03
-9.212500e-11,1.062500e-03
-8.812500e-11,1.921875e-03
-8.412500e-11,1.453125e-03
-8.012500e-11,3.046875e-03
-7.612500e-11,3.406250e-03
-7.212500e-11,3.906250e-03
-6.812500e-11,4.328125e-03
-6.412500e-11,5.718750e-03
-6.012500e-11,6.515625e-03
-5.612500e-11,7.843750e-03
-5.212500e-11,9.687500e-03
-4.812500e-11,1.153125e-02
-4.412500e-11,1.315625e-02
-4.012500e-11,1.500000e-02
-3.612500e-11,1.726563e-02
-3.212500e-11,2.000000e-02
-2.812500e-11,2.231250e-02
-2.412500e-11,2.579688e-02
-2.012500e-11,2.910938e-02
-1.612500e-11,3.271875e-02
-1.212500e-11,3.531250e-02
-8.125000e-12,3.975000e-02
-4.125000e-12,4.296875e-02
-1.250000e-13,4.839063e-02
3.875000e-12,5.257813e-02
7.875000e-12,5.712500e-02
1.187500e-11,6.157813e-02
1.587500e-11,6.704688e-02
1.987500e-11,7.200000e-02
2.387500e-11,7.748438e-02
2.787500e-11,8.351563e-02
3.187500e-11,8.962500e-02
3.587500e-11,9.532813e-02
3.987500e-11,1.012656e-01
4.387500e-11,1.075625e-01
4.787500e-11,1.142031e-01
5.187500e-11,1.204063e-01
5.587500e-11,1.276563e-01
5.987500e-11,1.345469e-01
6.387500e-11,1.416719e-01
6.787500e-11,1.475469e-01
7.187500e-11,1.551094e-01
7.587500e-11,1.612188e-01
7.987500e-11,1.693281e-01
8.387500e-11,1.759219e-01
8.787500e-11,1.827500e-01
9.187500e-11,1.891250e-01
9.587500e-11,1.962344e-01
9.987500e-11,2.026094e-01
1.038750e-10,2.091875e-01
1.078750e-10,2.160469e-01
1.118750e-10,2.227500e-01
1.158750e-10,2.285938e-01
1.198750e-10,2.343906e-01
1.238750e-10,2.402500e-01
1.278750e-10,2.461563e-01
1.318750e-10,2.513438e-01
1.358750e-10,2.571719e-01
1.398750e-10,2.623125e-01
1.438750e-10,2.674531e-01
1.478750e-10,2.709688e-01
1.518750e-10,2.759375e-01
1.558750e-10,2.791563e-01
1.598750e-10,2.840156e-01
1.638750e-10,2.870938e-01
1.678750e-10,2.902188e-01
1.718750e-10,2.925625e-01
1.758750e-10,2.954063e-01
1.798750e-10,2.973750e-01
1.838750e-10,2.993125e-01
1.878750e-10,3.012969e-01
1.918750e-10,3.030469e-01
1.958750e-10,3.036875e-01
1.998750e-10,3.041250e-01
2.038750e-10,3.045938e-01
2.078750e-10,3.050000e-01
2.118750e-10,3.045938e-01
2.158750e-10,3.047344e-01
2.198750e-10,3.040938e-01
2.238750e-10,3.035156e-01
2.278750e-10,3.012031e-01
2.318750e-10,3.004844e-01
2.358750e-10,2.980156e-01
2.398750e-10,2.971563e-01
2.438750e-10,2.945938e-01
2.478750e-10,2.921250e-01
2.518750e-10,2.890000e-01
2.558750e-10,2.864844e-01
2.598750e-10,2.832656e-01
2.638750e-10,2.801094e-01
2.678750e-10,2.770938e-01
2.718750e-10,2.740469e-01
2.758750e-10,2.700469e-01
2.798750e-10,2.659688e-01
2.838750e-10,2.621563e-01
2.878750e-10,2.584688e-01
2.918750e-10,2.541406e-01
2.958750e-10,2.505156e-01
2.998750e-10,2.463594e-01
3.038750e-10,2.424531e-01
3.078750e-10,2.369844e-01
3.118750e-10,2.333906e-01
3.158750e-10,2.282813e-01
3.198750e-10,2.248594e-01
3.238750e-10,2.200313e-01
3.278750e-10,2.154531e-01
3.318750e-10,2.104063e-01
3.358750e-10,2.062344e-01
3.398750e-10,2.015625e-01
3.438750e-10,1.971094e-01
3.478750e-10,1.929375e-01
3.518750e-10,1.888750e-01
3.558750e-10,1.841406e-01
3.598750e-10,1.794531e-01
3.638750e-10,1.751563e-01
3.678750e-10,1.712031e-01
3.718750e-10,1.666406e-01
3.758750e-10,1.629531e-01
3.798750e-10,1.589219e-01
3.838750e-10,1.552188e-01
3.878750e-10,1.500313e-01
3.918750e-10,1.469063e-01
3.958750e-10,1.423438e-01
3.998750e-10,1.395313e-01
4.038750e-10,1.354531e-01
4.078750e-10,1.316563e-01
4.118750e-10,1.274531e-01
4.158750e-10,1.242344e-01
4.198750e-10,1.205625e-01
4.238750e-10,1.171875e-01
4.278750e-10,1.140938e-01
4.318750e-10,1.111406e-01
4.358750e-10,1.076719e-01
4.398750e-10,1.042344e-01
4.438750e-10,1.011719e-01
4.478750e-10,9.856250e-02
4.518750e-10,9.529688e-02
4.558750e-10,9.292188e-02
4.598750e-10,9.029688e-02
4.638750e-10,8.792188e-02
4.678750e-10,8.415625e-02
4.718750e-10,8.245313e-02
4.758750e-10,7.932813e-02
4.798750e-10,7.793750e-02
4.838750e-10,7.535938e-02
4.878750e-10,7.296875e-02
4.918750e-10,7.023438e-02
4.958750e-10,6.846875e-02
4.998750e-10,6.620313e-02
5.038750e-10,6.426563e-02
5.078750e-10,6.259375e-02
5.118750e-10,6.104688e-02
5.158750e-10,5.907813e-02
5.198750e-10,5.706250e-02
5.238750e-10,5.542188e-02
5.278750e-10,5.421875e-02
5.318750e-10,5.232813e-02
5.358750e-10,5.128125e-02
5.398750e-10,5.004688e-02
5.438750e-10,4.895313e-02
5.478750e-10,4.653125e-02
5.518750e-10,4.607813e-02
5.558750e-10,4.425000e-02
5.598750e-10,4.410938e-02
5.638750e-10,4.281250e-02
5.678750e-10,4.153125e-02
5.718750e-10,4.000000e-02
5.758750e-10,3.937500e-02
5.798750e-10,3.812500e-02
5.838750e-10,3.721875e-02
5.878750e-10,3.656250e-02
5.918750e-10,3.596875e-02
5.958750e-10,3.500000e-02
5.998750e-10,3.384375e-02
6.038750e-10,3.312500e-02
6.078750e-10,3.268750e-02
6.118750e-10,3.159375e-02
6.158750e-10,3.128125e-02
6.198750e-10,3.076563e-02
6.238750e-10,3.025000e-02
6.278750e-10,2.846875e-02
6.318750e-10,2.851563e-02
6.358750e-10,2.725000e-02
6.398750e-10,2.760938e-02
6.438750e-10,2.678125e-02
6.478750e-10,2.587500e-02
6.518750e-10,2.467188e-02
6.558750e-10,2.445313e-02
6.598750e-10,2.340625e-02
6.638750e-10,2.270313e-02
6.678750e-10,2.232813e-02
6.718750e-10,2.195313e-02
6.758750e-10,2.118750e-02
6.798750e-10,2.015625e-02
6.838750e-10,1.962500e-02
6.878750e-10,1.926563e-02
6.918750e-10,1.826563e-02
6.958750e-10,1.809375e-02
6.998750e-10,1.771875e-02
7.038750e-10,1.720313e-02
7.078750e-10,1.553125e-02
7.118750e-10,1.560938e-02
7.158750e-10,1.443750e-02
7.198750e-10,1.493750e-02
7.238750e-10,1.420313e-02
7.278750e-10,1.343750e-02
7.318750e-10,1.228125e-02
7.358750e-10,1.223438e-02
7.398750e-10,1.128125e-02
7.438750e-10,1.071875e-02
7.478750e-10,1.056250e-02
7.518750e-10,1.037500e-02
7.558750e-10,9.843750e-03
7.598750e-10,9.015625e-03
7.638750e-10,8.750000e-03
7.678750e-10,8.687500e-03
7.718750e-10,8.015625e-03
7.758750e-10,8.203125e-03
7.798750e-10,8.218750e-03
7.838750e-10,8.000000e-03
7.878750e-10,6.765625e-03
7.918750e-10,7.218750e-03
7.958750e-10,6.437500e-03
7.998750e-10,7.437500e-03
8.038750e-10,7.187500e-03
8.078750e-10,6.937500e-03
8.118750e-10,6.250000e-03
8.158750e-10,6.671875e-03
8.198750e-10,6.234375e-03
8.238750e-10,6.203125e-03
8.278750e-10,6.609375e-03
8.318750e-10,6.859375e-03
8.358750e-10,6.875000e-03
8.398750e-10,6.562500e-03
8.438750e-10,6.734375e-03
8.478750e-10,7.250000e-03
8.518750e-10,7.078125e-03
8.558750e-10,7.796875e-03
8.598750e-10,8.234375e-03
8.638750e-10,8.468750e-03
8.678750e-10,7.687500e-03
8.718750e-10,8.515625e-03
8.758750e-10,8.062500e-03
8.798750e-10,9.515625e-03
8.838750e-10,9.609375e-03
8.878750e-10,9.687500e-03
8.918750e-10,9.328125e-03
8.958750e-10,9.953125e-03
8.998750e-10,9.796875e-03
9.038750e-10,1.001563e-02
9.078750e-10,1.065625e-02
9.118750e-10,1.096875e-02
9.158750e-10,1.114063e-02
9.198750e-10,1.093750e-02
9.238750e-10,1.112500e-02
9.278750e-10,1.175000e-02
9.318750e-10,1.164063e-02
9.358750e-10,1.235938e-02
9.398750e-10,1.273438e-02
9.438750e-10,1.293750e-02
9.478750e-10,1.214063e-02
9.518750e-10,1.289063e-02
9.558750e-10,1.226563e-02
9.598750e-10,1.360938e-02
9.638750e-10,1.357813e-02
9.678750e-10,1.348438e-02
9.718750e-10,1.296875e-02
9.758750e-10,1.339063e-02
9.798750e-10,1.307813e-02
9.838750e-10,1.312500e-02
9.878750e-10,1.359375e-02
9.918750e-10,1.360938e-02
9.958750e-10,1.353125e-02
9.998750e-10,1.314063e-02
1.003875e-09,1.304688e-02
1.007875e-09,1.348438e-02
1.011875e-09,1.314063e-02
1.015875e-09,1.360938e-02
1.019875e-09,1.373438e-02
1.023875e-09,1.371875e-02
1.027875e-09,1.270313e-02
1.031875e-09,1.328125e-02
1.035875e-09,1.240625e-02
1.039875e-09,1.350000e-02
1.043875e-09,1.323438e-02
1.047875e-09,1.292188e-02
1.051875e-09,1.223438e-02
1.055875e-09,1.246875e-02
1.059875e-09,1.195313e-02
1.063875e-09,1.184375e-02
1.067875e-09,1.212500e-02
1.071875e-09,1.198438e-02
1.075875e-09,1.170313e-02
1.079875e-09,1.117188e-02
1.083875e-09,1.090625e-02
1.087875e-09,1.118750e-02
1.091875e-09,1.068750e-02
1.095875e-09,1.101563e-02
1.099875e-09,1.100000e-02
1.103875e-09,1.089063e-02
1.107875e-09,9.750000e-03
1.111875e-09,1.028125e-02
1.115875e-09,9.281250e-03
1.119875e-09,1.025000e-02
1.123875e-09,9.875000e-03
1.127875e-09,9.484375e-03
1.131875e-09,8.687500e-03
1.135875e-09,8.875000e-03
1.139875e-09,8.296875e-03
1.143875e-09,8.109375e-03
1.147875e-09,8.343750e-03
1.151875e-09,8.203125e-03
1.155875e-09,7.859375e-03
1.159875e-09,7.281250e-03
1.163875e-09,7.015625e-03
1.167875e-09,7.265625e-03
1.171875e-09,6.734375e-03
1.175875e-09,7.078125e-03
1.179875e-09,7.093750e-03
1.183875e-09,7.046875e-03
1.187875e-09,5.906250e-03
1.191875e-09,6.500000e-03
1.195875e-09,5.562500e-03
1.199875e-09,6.593750e-03
1.203875e-09,6.281250e-03
1.207875e-09,5.953125e-03
1.211875e-09,5.250000e-03
1.215875e-09,5.546875e-03
1.219875e-09,5.078125e-03
1.223875e-09,5.015625e-03
1.227875e-09,5.359375e-03
1.231875e-09,5.421875e-03
1.235875e-09,5.218750e-03
1.239875e-09,4.781250e-03
1.243875e-09,4.718750e-03
1.247875e-09,5.125000e-03
1.251875e-09,4.750000e-03
1.255875e-09,5.312500e-03
1.259875e-09,5.531250e-03
1.263875e-09,5.718750e-03
1.267875e-09,4.703125e-03
1.271875e-09,5.546875e-03
1.275875e-09,4.796875e-03
1.279875e-09,6.046875e-03
1.283875e-09,5.937500e-03
1.287875e-09,5.828125e-03
1.291875e-09,5.328125e-03
1.295875e-09,5.828125e-03
1.299875e-09,5.546875e-03
1.303875e-09,5.671875e-03
1.307875e-09,6.187500e-03
1.311875e-09,6.484375e-03
1.315875e-09,6.421875e-03
1.319875e-09,6.156250e-03
1.323875e-09,6.265625e-03
1.327875e-09,6.812500e-03
1.331875e-09,6.562500e-03
1.335875e-09,7.281250e-03
1.339875e-09,7.609375e-03
1.343875e-09,7.921875e-03
1.347875e-09,6.937500e-03
1.351875e-09,7.859375e-03
1.355875e-09,7.187500e-03
1.359875e-09,8.500000e-03
1.363875e-09,8.421875e-03
1.367875e-09,8.343750e-03
1.371875e-09,7.859375e-03
1.375875e-09,8.359375e-03
1.379875e-09,8.062500e-03
1.383875e-09,8.171875e-03
1.387875e-09,8.656250e-03
1.391875e-09,8.921875e-03
1.395875e-09,8.812500e-03
1.399875e-09,8.484375e-03
1.403875e-09,8.531250e-03
1.407875e-09,9.000000e-03
1.411875e-09,8.656250e-03
1.415875e-09,9.281250e-03
1.419875e-09,9.531250e-03
1.423875e-09,9.750000e-03
1.427875e-09,8.609375e-03
1.431875e-09,9.421875e-03
1.435875e-09,8.640625e-03
1.439875e-09,9.843750e-03
1.443875e-09,9.640625e-03
1.447875e-09,9.437500e-03
1.451875e-09,8.828125e-03
1.455875e-09,9.218750e-03
1.459875e-09,8.796875e-03
1.463875e-09,8.781250e-03
1.467875e-09,9.156250e-03
1.471875e-09,9.312500e-03
1.475875e-09,9.093750e-03
1.479875e-09,8.656250e-03
1.483875e-09,8.609375e-03
1.487875e-09,8.968750e-03
1.491875e-09,8.531250e-03
1.495875e-09,9.078125e-03
1.499875e-09,9.234375e-03
1.503875e-09,9.375000e-03
1.507875e-09,8.140625e-03
1.511875e-09,8.890625e-03
1.515875e-09,8.031250e-03
1.519875e-09,9.187500e-03
1.523875e-09,8.921875e-03
1.527875e-09,8.671875e-03
1.531875e-09,8.000000e-03
1.535875e-09,8.359375e-03
1.539875e-09,7.890625e-03
1.543875e-09,7.843750e-03
1.547875e-09,8.187500e-03
1.551875e-09,8.328125e-03
1.555875e-09,8.062500e-03
1.559875e-09,7.609375e-03
1.563875e-09,7.546875e-03
1.567875e-09,7.890625e-03
1.571875e-09,7.437500e-03
1.575875e-09,7.984375e-03
1.579875e-09,8.125000e-03
1.583875e-09,8.265625e-03
1.587875e-09,7.000000e-03
1.591875e-09,7.750000e-03
1.595875e-09,6.906250e-03
1.599875e-09,8.062500e-03
1.603875e-09,7.796875e-03
1.607875e-09,7.546875e-03
1.611875e-09,6.890625e-03
1.615875e-09,7.250000e-03
1.619875e-09,6.796875e-03
1.623875e-09,6.750000e-03
1.627875e-09,7.109375e-03
1.631875e-09,7.265625e-03
1.635875e-09,7.031250e-03
1.639875e-09,6.593750e-03
1.643875e-09,6.562500e-03
1.647875e-09,6.937500e-03
1.651875e-09,6.500000e-03
1.655875e-09,7.078125e-03
1.659875e-09,7.265625e-03
1.663875e-09,7.437500e-03
1.667875e-09,6.218750e-03
1.671875e-09,7.015625e-03
1.675875e-09,6.203125e-03
1.679875e-09,7.406250e-03
1.683875e-09,7.218750e-03
1.687875e-09,7.015625e-03
1.691875e-09,6.421875e-03
1.695875e-09,6.828125e-03
1.699875e-09,6.453125e-03
1.703875e-09,6.468750e-03
1.707875e-09,6.890625e-03
1.711875e-09,7.125000e-03
1.715875e-09,6.937500e-03
1.719875e-09,6.578125e-03
1.723875e-09,6.609375e-03
1.727875e-09,7.046875e-03
1.731875e-09,6.687500e-03
1.735875e-09,7.328125e-03
1.739875e-09,7.578125e-03
1.743875e-09,7.812500e-03
1.747875e-09,6.640625e-03
1.751875e-09,7.484375e-03
1.755875e-09,6.718750e-03
1.759875e-09,7.968750e-03
