Measurements-streak-laser/Photodiode-on-Tek-12bit-4GHz/Tek000_ch1_20190613133019025.csv

Model,MSO64
Waveform Type,ANALOG
Horizontal Units,s
Sample Interval,4.000000e-12
Record Length,1000
Zero Index,310.437500
Vertical Units,V

TIME,CH1
-1.241750e-09,6.281250e-03
-1.237750e-09,6.625000e-03
-1.233750e-09,6.156250e-03
-1.229750e-09,6.671875e-03
-1.225750e-09,6.781250e-03
-1.221750e-09,6.875000e-03
-1.217750e-09,5.531250e-03
-1.213750e-09,6.218750e-03
-1.209750e-09,5.265625e-03
-1.205750e-09,6.328125e-03
-1.201750e-09,5.968750e-03
-1.197750e-09,5.593750e-03
-1.193750e-09,4.796875e-03
-1.189750e-09,5.015625e-03
-1.185750e-09,4.421875e-03
-1.181750e-09,4.218750e-03
-1.177750e-09,4.406250e-03
-1.173750e-09,4.390625e-03
-1.169750e-09,3.968750e-03
-1.165750e-09,3.328125e-03
-1.161750e-09,3.093750e-03
-1.157750e-09,3.265625e-03
-1.153750e-09,2.625000e-03
-1.149750e-09,2.984375e-03
-1.145750e-09,2.953125e-03
-1.141750e-09,2.906250e-03
-1.137750e-09,1.453125e-03
-1.133750e-09,2.031250e-03
-1.129750e-09,1.000000e-03
-1.125750e-09,1.984375e-03
-1.121750e-09,1.562500e-03
-1.117750e-09,1.140625e-03
-1.113750e-09,3.281250e-04
-1.109750e-09,5.312500e-04
-1.105750e-09,-6.250000e-05
-1.101750e-09,-2.500000e-04
-1.097750e-09,-1.562500e-05
-1.093750e-09,3.125000e-05
-1.089750e-09,-3.125000e-04
-1.085750e-09,-8.437500e-04
-1.081750e-09,-9.687500e-04
-1.077750e-09,-6.562500e-04
-1.073750e-09,-1.156250e-03
-1.069750e-09,-6.250000e-04
-1.065750e-09,-4.843750e-04
-1.061750e-09,-3.281250e-04
-1.057750e-09,-1.562500e-03
-1.053750e-09,-7.656250e-04
-1.049750e-09,-1.578125e-03
-1.045750e-09,-3.437500e-04
-1.041750e-09,-5.156250e-04
-1.037750e-09,-6.718750e-04
-1.033750e-09,-1.218750e-03
-1.029750e-09,-7.343750e-04
-1.025750e-09,-1.062500e-03
-1.021750e-09,-9.687500e-04
-1.017750e-09,-4.375000e-04
-1.013750e-09,-1.250000e-04
-1.009750e-09,-1.875000e-04
-1.005750e-09,-4.531250e-04
-1.001750e-09,-3.125000e-04
-9.977500e-10,2.656250e-04
-9.937500e-10,1.562500e-05
-9.897500e-10,7.968750e-04
-9.857500e-10,1.171875e-03
-9.817500e-10,1.546875e-03
-9.777500e-10,5.000000e-04
-9.737500e-10,1.484375e-03
-9.697500e-10,8.593750e-04
-9.657500e-10,2.250000e-03
-9.617500e-10,2.218750e-03
-9.577500e-10,2.187500e-03
-9.537500e-10,1.750000e-03
-9.497500e-10,2.312500e-03
-9.457500e-10,2.062500e-03
-9.417500e-10,2.218750e-03
-9.377500e-10,2.765625e-03
-9.337500e-10,3.109375e-03
-9.297500e-10,3.031250e-03
-9.257500e-10,2.750000e-03
-9.217500e-10,2.859375e-03
-9.177500e-10,3.375000e-03
-9.137500e-10,3.062500e-03
-9.097500e-10,3.750000e-03
-9.057500e-10,4.031250e-03
-9.017500e-10,4.281250e-03
-8.977500e-10,3.140625e-03
-8.937500e-10,3.984375e-03
-8.897500e-10,3.218750e-03
-8.857500e-10,4.390625e-03
-8.817500e-10,4.218750e-03
-8.777500e-10,4.031250e-03
-8.737500e-10,3.437500e-03
-8.697500e-10,3.843750e-03
-8.657500e-10,3.421875e-03
-8.617500e-10,3.421875e-03
-8.577500e-10,3.812500e-03
-8.537500e-10,3.984375e-03
-8.497500e-10,3.765625e-03
-8.457500e-10,3.328125e-03
-8.417500e-10,3.296875e-03
-8.377500e-10,3.671875e-03
-8.337500e-10,3.234375e-03
-8.297500e-10,3.812500e-03
-8.257500e-10,3.984375e-03
-8.217500e-10,4.156250e-03
-8.177500e-10,2.968750e-03
-8.137500e-10,3.750000e-03
-8.097500e-10,2.921875e-03
-8.057500e-10,3.984375e-03
-8.017500e-10,3.828125e-03
-7.977500e-10,3.609375e-03
-7.937500e-10,3.062500e-03
-7.897500e-10,3.453125e-03
-7.857500e-10,3.046875e-03
-7.817500e-10,3.109375e-03
-7.777500e-10,3.531250e-03
-7.737500e-10,3.734375e-03
-7.697500e-10,3.640625e-03
-7.657500e-10,3.250000e-03
-7.617500e-10,3.281250e-03
-7.577500e-10,3.718750e-03
-7.537500e-10,3.359375e-03
-7.497500e-10,4.000000e-03
-7.457500e-10,4.265625e-03
-7.417500e-10,4.500000e-03
-7.377500e-10,3.406250e-03
-7.337500e-10,4.281250e-03
-7.297500e-10,3.531250e-03
-7.257500e-10,4.609375e-03
-7.217500e-10,4.531250e-03
-7.177500e-10,4.406250e-03
-7.137500e-10,3.921875e-03
-7.097500e-10,4.312500e-03
-7.057500e-10,3.906250e-03
-7.017500e-10,4.031250e-03
-6.977500e-10,4.437500e-03
-6.937500e-10,4.609375e-03
-6.897500e-10,4.578125e-03
-6.857500e-10,4.156250e-03
-6.817500e-10,4.125000e-03
-6.777500e-10,4.484375e-03
-6.737500e-10,4.109375e-03
-6.697500e-10,4.656250e-03
-6.657500e-10,4.859375e-03
-6.617500e-10,5.000000e-03
-6.577500e-10,3.781250e-03
-6.537500e-10,4.562500e-03
-6.497500e-10,3.781250e-03
-6.457500e-10,4.718750e-03
-6.417500e-10,4.546875e-03
-6.377500e-10,4.343750e-03
-6.337500e-10,3.750000e-03
-6.297500e-10,4.031250e-03
-6.257500e-10,3.484375e-03
-6.217500e-10,3.531250e-03
-6.177500e-10,3.859375e-03
-6.137500e-10,3.906250e-03
-6.097500e-10,3.875000e-03
-6.057500e-10,3.390625e-03
-6.017500e-10,3.296875e-03
-5.977500e-10,3.625000e-03
-5.937500e-10,3.265625e-03
-5.897500e-10,3.812500e-03
-5.857500e-10,4.015625e-03
-5.817500e-10,4.156250e-03
-5.777500e-10,2.953125e-03
-5.737500e-10,3.781250e-03
-5.697500e-10,3.156250e-03
-5.657500e-10,4.156250e-03
-5.617500e-10,4.156250e-03
-5.577500e-10,4.046875e-03
-5.537500e-10,3.593750e-03
-5.497500e-10,4.000000e-03
-5.457500e-10,3.625000e-03
-5.417500e-10,3.843750e-03
-5.377500e-10,4.375000e-03
-5.337500e-10,4.593750e-03
-5.297500e-10,4.750000e-03
-5.257500e-10,4.468750e-03
-5.217500e-10,4.609375e-03
-5.177500e-10,5.171875e-03
-5.137500e-10,5.000000e-03
-5.097500e-10,5.796875e-03
-5.057500e-10,6.140625e-03
-5.017500e-10,6.484375e-03
-4.977500e-10,5.437500e-03
-4.937500e-10,6.406250e-03
-4.897500e-10,5.953125e-03
-4.857500e-10,7.093750e-03
-4.817500e-10,7.265625e-03
-4.777500e-10,7.203125e-03
-4.737500e-10,6.812500e-03
-4.697500e-10,7.281250e-03
-4.657500e-10,7.000000e-03
-4.617500e-10,7.156250e-03
-4.577500e-10,7.703125e-03
-4.537500e-10,7.859375e-03
-4.497500e-10,7.859375e-03
-4.457500e-10,7.500000e-03
-4.417500e-10,7.562500e-03
-4.377500e-10,8.015625e-03
-4.337500e-10,7.609375e-03
-4.297500e-10,8.234375e-03
-4.257500e-10,8.343750e-03
-4.217500e-10,8.453125e-03
-4.177500e-10,7.171875e-03
-4.137500e-10,7.781250e-03
-4.097500e-10,7.062500e-03
-4.057500e-10,7.921875e-03
-4.017500e-10,7.781250e-03
-3.977500e-10,7.359375e-03
-3.937500e-10,6.656250e-03
-3.897500e-10,6.812500e-03
-3.857500e-10,6.281250e-03
-3.817500e-10,6.046875e-03
-3.777500e-10,6.296875e-03
-3.737500e-10,6.187500e-03
-3.697500e-10,5.812500e-03
-3.657500e-10,5.234375e-03
-3.617500e-10,5.125000e-03
-3.577500e-10,5.375000e-03
-3.537500e-10,4.734375e-03
-3.497500e-10,5.187500e-03
-3.457500e-10,5.234375e-03
-3.417500e-10,5.234375e-03
-3.377500e-10,3.937500e-03
-3.337500e-10,4.468750e-03
-3.297500e-10,3.750000e-03
-3.257500e-10,4.671875e-03
-3.217500e-10,4.609375e-03
-3.177500e-10,4.312500e-03
-3.137500e-10,3.812500e-03
-3.097500e-10,4.171875e-03
-3.057500e-10,3.906250e-03
-3.017500e-10,3.875000e-03
-2.977500e-10,4.390625e-03
-2.937500e-10,4.609375e-03
-2.897500e-10,4.531250e-03
-2.857500e-10,4.359375e-03
-2.817500e-10,4.609375e-03
-2.777500e-10,5.250000e-03
-2.737500e-10,5.031250e-03
-2.697500e-10,5.828125e-03
-2.657500e-10,6.328125e-03
-2.617500e-10,6.703125e-03
-2.577500e-10,5.843750e-03
-2.537500e-10,6.718750e-03
-2.497500e-10,6.312500e-03
-2.457500e-10,7.593750e-03
-2.417500e-10,7.765625e-03
-2.377500e-10,7.765625e-03
-2.337500e-10,7.546875e-03
-2.297500e-10,8.109375e-03
-2.257500e-10,7.968750e-03
-2.217500e-10,8.062500e-03
-2.177500e-10,8.578125e-03
-2.137500e-10,8.796875e-03
-2.097500e-10,8.640625e-03
-2.057500e-10,8.406250e-03
-2.017500e-10,8.453125e-03
-1.977500e-10,8.828125e-03
-1.937500e-10,8.343750e-03
-1.897500e-10,8.796875e-03
-1.857500e-10,8.890625e-03
-1.817500e-10,8.843750e-03
-1.777500e-10,7.546875e-03
-1.737500e-10,7.906250e-03
-1.697500e-10,6.859375e-03
-1.657500e-10,7.609375e-03
-1.617500e-10,7.093750e-03
-1.577500e-10,6.453125e-03
-1.537500e-10,5.593750e-03
-1.497500e-10,5.515625e-03
-1.457500e-10,4.687500e-03
-1.417500e-10,4.187500e-03
-1.377500e-10,4.031250e-03
-1.337500e-10,3.671875e-03
-1.297500e-10,2.968750e-03
-1.257500e-10,2.250000e-03
-1.217500e-10,1.828125e-03
-1.177500e-10,1.750000e-03
-1.137500e-10,1.000000e-03
-1.097500e-10,1.265625e-03
-1.057500e-10,1.218750e-03
-1.017500e-10,1.218750e-03
-9.775000e-11,9.375000e-05
-9.375000e-11,7.343750e-04
-8.975000e-11,4.687500e-05
-8.575000e-11,1.390625e-03
-8.175000e-11,1.500000e-03
-7.775000e-11,1.765625e-03
-7.375000e-11,1.937500e-03
-6.975000e-11,3.093750e-03
-6.575000e-11,3.640625e-03
-6.175000e-11,4.718750e-03
-5.775000e-11,6.328125e-03
-5.375000e-11,7.953125e-03
-4.975000e-11,9.328125e-03
-4.575000e-11,1.095313e-02
-4.175000e-11,1.298438e-02
-3.775000e-11,1.551563e-02
-3.375000e-11,1.760938e-02
-2.975000e-11,2.087500e-02
-2.575000e-11,2.398438e-02
-2.175000e-11,2.739063e-02
-1.775000e-11,2.976563e-02
-1.375000e-11,3.401563e-02
-9.750000e-12,3.703125e-02
-5.750000e-12,4.225000e-02
-1.750000e-12,4.625000e-02
2.250000e-12,5.060938e-02
6.250000e-12,5.487500e-02
1.025000e-11,6.017188e-02
1.425000e-11,6.492188e-02
1.825000e-11,7.021875e-02
2.225000e-11,7.606250e-02
2.625000e-11,8.198438e-02
3.025000e-11,8.750000e-02
3.425000e-11,9.325000e-02
3.825000e-11,9.935938e-02
4.225000e-11,1.058281e-01
4.625000e-11,1.118281e-01
5.025000e-11,1.188906e-01
5.425000e-11,1.255938e-01
5.825000e-11,1.325313e-01
6.225000e-11,1.382031e-01
6.625000e-11,1.455781e-01
7.025000e-11,1.515000e-01
7.425000e-11,1.594219e-01
7.825000e-11,1.658438e-01
8.225000e-11,1.724844e-01
8.625000e-11,1.786719e-01
9.025000e-11,1.856094e-01
9.425000e-11,1.918125e-01
9.825000e-11,1.982344e-01
1.022500e-10,2.049375e-01
1.062500e-10,2.114844e-01
1.102500e-10,2.172031e-01
1.142500e-10,2.228906e-01
1.182500e-10,2.286406e-01
1.222500e-10,2.344375e-01
1.262500e-10,2.395469e-01
1.302500e-10,2.453281e-01
1.342500e-10,2.504063e-01
1.382500e-10,2.555156e-01
1.422500e-10,2.590156e-01
1.462500e-10,2.640156e-01
1.502500e-10,2.672500e-01
1.542500e-10,2.721875e-01
1.582500e-10,2.753437e-01
1.622500e-10,2.785625e-01
1.662500e-10,2.810469e-01
1.702500e-10,2.840469e-01
1.742500e-10,2.861875e-01
1.782500e-10,2.883438e-01
1.822500e-10,2.905625e-01
1.862500e-10,2.925781e-01
1.902500e-10,2.935000e-01
1.942500e-10,2.942656e-01
1.982500e-10,2.950781e-01
2.022500e-10,2.958438e-01
2.062500e-10,2.958281e-01
2.102500e-10,2.963750e-01
2.142500e-10,2.961875e-01
2.182500e-10,2.960469e-01
2.222500e-10,2.942344e-01
2.262500e-10,2.940000e-01
2.302500e-10,2.920469e-01
2.342500e-10,2.917031e-01
2.382500e-10,2.897031e-01
2.422500e-10,2.877969e-01
2.462500e-10,2.852344e-01
2.502500e-10,2.832813e-01
2.542500e-10,2.806406e-01
2.582500e-10,2.780781e-01
2.622500e-10,2.756563e-01
2.662500e-10,2.731719e-01
2.702500e-10,2.697500e-01
2.742500e-10,2.662656e-01
2.782500e-10,2.630156e-01
2.822500e-10,2.599063e-01
2.862500e-10,2.561094e-01
2.902500e-10,2.530313e-01
2.942500e-10,2.493906e-01
2.982500e-10,2.460000e-01
3.022500e-10,2.410313e-01
3.062500e-10,2.378906e-01
3.102500e-10,2.332188e-01
3.142500e-10,2.302188e-01
3.182500e-10,2.257969e-01
3.222500e-10,2.215938e-01
3.262500e-10,2.168906e-01
3.302500e-10,2.130469e-01
3.342500e-10,2.086563e-01
3.382500e-10,2.044688e-01
3.422500e-10,2.005313e-01
3.462500e-10,1.966875e-01
3.502500e-10,1.921250e-01
3.542500e-10,1.875781e-01
3.582500e-10,1.834063e-01
3.622500e-10,1.795469e-01
3.662500e-10,1.750469e-01
3.702500e-10,1.714219e-01
3.742500e-10,1.673906e-01
3.782500e-10,1.636875e-01
3.822500e-10,1.584844e-01
3.862500e-10,1.552969e-01
3.902500e-10,1.506719e-01
3.942500e-10,1.477500e-01
3.982500e-10,1.435625e-01
4.022500e-10,1.396563e-01
4.062500e-10,1.353125e-01
4.102500e-10,1.319531e-01
4.142500e-10,1.281094e-01
4.182500e-10,1.245625e-01
4.222500e-10,1.212813e-01
4.262500e-10,1.181563e-01
4.302500e-10,1.145000e-01
4.342500e-10,1.108594e-01
4.382500e-10,1.076094e-01
4.422500e-10,1.047969e-01
4.462500e-10,1.013438e-01
4.502500e-10,9.878125e-02
4.542500e-10,9.596875e-02
4.582500e-10,9.342188e-02
4.622500e-10,8.948438e-02
4.662500e-10,8.760938e-02
4.702500e-10,8.432813e-02
4.742500e-10,8.278125e-02
4.782500e-10,8.006250e-02
4.822500e-10,7.753125e-02
4.862500e-10,7.468750e-02
4.902500e-10,7.281250e-02
4.942500e-10,7.043750e-02
4.982500e-10,6.842188e-02
5.022500e-10,6.665625e-02
5.062500e-10,6.504688e-02
5.102500e-10,6.300000e-02
5.142500e-10,6.093750e-02
5.182500e-10,5.925000e-02
5.222500e-10,5.800000e-02
5.262500e-10,5.607813e-02
5.302500e-10,5.501563e-02
5.342500e-10,5.375000e-02
5.382500e-10,5.264063e-02
5.422500e-10,5.020313e-02
5.462500e-10,4.975000e-02
5.502500e-10,4.790625e-02
5.542500e-10,4.775000e-02
5.582500e-10,4.643750e-02
5.622500e-10,4.515625e-02
5.662500e-10,4.359375e-02
5.702500e-10,4.295313e-02
5.742500e-10,4.168750e-02
5.782500e-10,4.076563e-02
5.822500e-10,4.007813e-02
5.862500e-10,3.946875e-02
5.902500e-10,3.843750e-02
5.942500e-10,3.725000e-02
5.982500e-10,3.648438e-02
6.022500e-10,3.598438e-02
6.062500e-10,3.481250e-02
6.102500e-10,3.443750e-02
6.142500e-10,3.382813e-02
6.182500e-10,3.323438e-02
6.222500e-10,3.134375e-02
6.262500e-10,3.131250e-02
6.302500e-10,2.992188e-02
6.342500e-10,3.017188e-02
6.382500e-10,2.921875e-02
6.422500e-10,2.818750e-02
6.462500e-10,2.685938e-02
6.502500e-10,2.650000e-02
6.542500e-10,2.532813e-02
6.582500e-10,2.450000e-02
6.622500e-10,2.396875e-02
6.662500e-10,2.346875e-02
6.702500e-10,2.256250e-02
6.742500e-10,2.140625e-02
6.782500e-10,2.073438e-02
6.822500e-10,2.025000e-02
6.862500e-10,1.914063e-02
6.902500e-10,1.884375e-02
6.942500e-10,1.835938e-02
6.982500e-10,1.775000e-02
7.022500e-10,1.598438e-02
7.062500e-10,1.600000e-02
7.102500e-10,1.473438e-02
7.142500e-10,1.517188e-02
7.182500e-10,1.439063e-02
7.222500e-10,1.359375e-02
7.262500e-10,1.242188e-02
7.302500e-10,1.235938e-02
7.342500e-10,1.142188e-02
7.382500e-10,1.085938e-02
7.422500e-10,1.073438e-02
7.462500e-10,1.059375e-02
7.502500e-10,1.012500e-02
7.542500e-10,9.359375e-03
7.582500e-10,9.171875e-03
7.622500e-10,9.203125e-03
7.662500e-10,8.640625e-03
7.702500e-10,8.937500e-03
7.742500e-10,9.078125e-03
7.782500e-10,9.000000e-03
7.822500e-10,7.906250e-03
7.862500e-10,8.515625e-03
7.902500e-10,7.890625e-03
7.942500e-10,9.062500e-03
7.982500e-10,8.968750e-03
8.022500e-10,8.890625e-03
8.062500e-10,8.390625e-03
8.102500e-10,8.984375e-03
8.142500e-10,8.718750e-03
8.182500e-10,8.843750e-03
8.222500e-10,9.421875e-03
8.262500e-10,9.843750e-03
8.302500e-10,1.001563e-02
8.342500e-10,9.843750e-03
8.382500e-10,1.017188e-02
8.422500e-10,1.081250e-02
8.462500e-10,1.076563e-02
8.502500e-10,1.157813e-02
8.542500e-10,1.212500e-02
8.582500e-10,1.243750e-02
8.622500e-10,1.175000e-02
8.662500e-10,1.262500e-02
8.702500e-10,1.221875e-02
8.742500e-10,1.368750e-02
8.782500e-10,1.379688e-02
8.822500e-10,1.385938e-02
8.862500e-10,1.346875e-02
8.902500e-10,1.406250e-02
8.942500e-10,1.384375e-02
8.982500e-10,1.398438e-02
9.022500e-10,1.453125e-02
9.062500e-10,1.473438e-02
9.102500e-10,1.478125e-02
9.142500e-10,1.443750e-02
9.182500e-10,1.446875e-02
9.222500e-10,1.493750e-02
9.262500e-10,1.464063e-02
9.302500e-10,1.515625e-02
9.342500e-10,1.532813e-02
9.382500e-10,1.531250e-02
9.422500e-10,1.428125e-02
9.462500e-10,1.479688e-02
9.502500e-10,1.393750e-02
9.542500e-10,1.503125e-02
9.582500e-10,1.473438e-02
9.622500e-10,1.439063e-02
9.662500e-10,1.362500e-02
9.702500e-10,1.379688e-02
9.742500e-10,1.321875e-02
9.782500e-10,1.301563e-02
9.822500e-10,1.323438e-02
9.862500e-10,1.301563e-02
9.902500e-10,1.271875e-02
9.942500e-10,1.207813e-02
9.982500e-10,1.178125e-02
1.002250e-09,1.200000e-02
1.006250e-09,1.146875e-02
1.010250e-09,1.175000e-02
1.014250e-09,1.170313e-02
1.018250e-09,1.153125e-02
1.022250e-09,1.037500e-02
1.026250e-09,1.081250e-02
1.030250e-09,9.843750e-03
1.034250e-09,1.084375e-02
1.038250e-09,1.050000e-02
1.042250e-09,1.012500e-02
1.046250e-09,9.390625e-03
1.050250e-09,9.593750e-03
1.054250e-09,9.093750e-03
1.058250e-09,8.984375e-03
1.062250e-09,9.296875e-03
1.066250e-09,9.187500e-03
1.070250e-09,8.984375e-03
1.074250e-09,8.515625e-03
1.078250e-09,8.343750e-03
1.082250e-09,8.734375e-03
1.086250e-09,8.359375e-03
1.090250e-09,8.812500e-03
1.094250e-09,8.953125e-03
1.098250e-09,9.000000e-03
1.102250e-09,8.031250e-03
1.106250e-09,8.718750e-03
1.110250e-09,7.906250e-03
1.114250e-09,9.062500e-03
1.118250e-09,8.875000e-03
1.122250e-09,8.671875e-03
1.126250e-09,8.078125e-03
1.130250e-09,8.453125e-03
1.134250e-09,8.078125e-03
1.138250e-09,8.078125e-03
1.142250e-09,8.500000e-03
1.146250e-09,8.546875e-03
1.150250e-09,8.390625e-03
1.154250e-09,7.984375e-03
1.158250e-09,7.890625e-03
1.162250e-09,8.296875e-03
1.166250e-09,7.921875e-03
1.170250e-09,8.406250e-03
1.174250e-09,8.562500e-03
1.178250e-09,8.625000e-03
1.182250e-09,7.578125e-03
1.186250e-09,8.281250e-03
1.190250e-09,7.421875e-03
1.194250e-09,8.515625e-03
1.198250e-09,8.250000e-03
1.202250e-09,7.984375e-03
1.206250e-09,7.312500e-03
1.210250e-09,7.609375e-03
1.214250e-09,7.140625e-03
1.218250e-09,7.062500e-03
1.222250e-09,7.390625e-03
1.226250e-09,7.421875e-03
1.230250e-09,7.156250e-03
1.234250e-09,6.671875e-03
1.238250e-09,6.531250e-03
1.242250e-09,6.875000e-03
1.246250e-09,6.406250e-03
1.250250e-09,6.890625e-03
1.254250e-09,7.000000e-03
1.258250e-09,7.078125e-03
1.262250e-09,5.968750e-03
1.266250e-09,6.687500e-03
1.270250e-09,5.828125e-03
1.274250e-09,6.968750e-03
1.278250e-09,6.734375e-03
1.282250e-09,6.515625e-03
1.286250e-09,5.906250e-03
1.290250e-09,6.296875e-03
1.294250e-09,5.906250e-03
1.298250e-09,5.937500e-03
1.302250e-09,6.375000e-03
1.306250e-09,6.578125e-03
1.310250e-09,6.437500e-03
1.314250e-09,6.109375e-03
1.318250e-09,6.156250e-03
1.322250e-09,6.656250e-03
1.326250e-09,6.375000e-03
1.330250e-09,7.046875e-03
1.334250e-09,7.375000e-03
1.338250e-09,7.671875e-03
1.342250e-09,6.703125e-03
1.346250e-09,7.640625e-03
1.350250e-09,7.000000e-03
1.354250e-09,8.343750e-03
1.358250e-09,8.328125e-03
1.362250e-09,8.296875e-03
1.366250e-09,7.890625e-03
1.370250e-09,8.468750e-03
1.374250e-09,8.265625e-03
1.378250e-09,8.453125e-03
1.382250e-09,9.062500e-03
1.386250e-09,9.421875e-03
1.390250e-09,9.421875e-03
1.394250e-09,9.218750e-03
1.398250e-09,9.375000e-03
1.402250e-09,9.968750e-03
1.406250e-09,9.750000e-03
1.410250e-09,1.050000e-02
1.414250e-09,1.085938e-02
1.418250e-09,1.118750e-02
1.422250e-09,1.017188e-02
1.426250e-09,1.109375e-02
1.430250e-09,1.040625e-02
1.434250e-09,1.171875e-02
1.438250e-09,1.159375e-02
1.442250e-09,1.146875e-02
1.446250e-09,1.093750e-02
1.450250e-09,1.137500e-02
1.454250e-09,1.100000e-02
1.458250e-09,1.101563e-02
1.462250e-09,1.142188e-02
1.466250e-09,1.157813e-02
1.470250e-09,1.135938e-02
1.474250e-09,1.089063e-02
1.478250e-09,1.081250e-02
1.482250e-09,1.112500e-02
1.486250e-09,1.062500e-02
1.490250e-09,1.110938e-02
1.494250e-09,1.117188e-02
1.498250e-09,1.120313e-02
1.502250e-09,9.859375e-03
1.506250e-09,1.048438e-02
1.510250e-09,9.484375e-03
1.514250e-09,1.048438e-02
1.518250e-09,1.006250e-02
1.522250e-09,9.640625e-03
1.526250e-09,8.796875e-03
1.530250e-09,8.968750e-03
1.534250e-09,8.312500e-03
1.538250e-09,8.062500e-03
1.542250e-09,8.203125e-03
1.546250e-09,8.140625e-03
1.550250e-09,7.687500e-03
1.554250e-09,7.015625e-03
1.558250e-09,6.750000e-03
1.562250e-09,6.890625e-03
1.566250e-09,6.234375e-03
1.570250e-09,6.593750e-03
1.574250e-09,6.546875e-03
1.578250e-09,6.500000e-03
1.582250e-09,5.078125e-03
1.586250e-09,5.671875e-03
1.590250e-09,4.656250e-03
1.594250e-09,5.671875e-03
1.598250e-09,5.281250e-03
1.602250e-09,4.906250e-03
1.606250e-09,4.156250e-03
1.610250e-09,4.421875e-03
1.614250e-09,3.890625e-03
1.618250e-09,3.781250e-03
1.622250e-09,4.093750e-03
1.626250e-09,4.218750e-03
1.630250e-09,3.953125e-03
1.634250e-09,3.515625e-03
1.638250e-09,3.484375e-03
1.642250e-09,3.875000e-03
1.646250e-09,3.484375e-03
1.650250e-09,4.109375e-03
1.654250e-09,4.343750e-03
1.658250e-09,4.609375e-03
1.662250e-09,3.468750e-03
1.666250e-09,4.359375e-03
1.670250e-09,3.640625e-03
1.674250e-09,4.968750e-03
1.678250e-09,4.890625e-03
1.682250e-09,4.812500e-03
1.686250e-09,4.343750e-03
1.690250e-09,4.890625e-03
1.694250e-09,4.640625e-03
1.698250e-09,4.796875e-03
1.702250e-09,5.359375e-03
1.706250e-09,5.718750e-03
1.710250e-09,5.687500e-03
1.714250e-09,5.453125e-03
1.718250e-09,5.609375e-03
1.722250e-09,6.187500e-03
1.726250e-09,5.937500e-03
1.730250e-09,6.703125e-03
1.734250e-09,7.062500e-03
1.738250e-09,7.390625e-03
1.742250e-09,6.328125e-03
1.746250e-09,7.250000e-03
1.750250e-09,6.562500e-03
1.754250e-09,7.890625e-03
