Measurements-streak-laser/Photodiode-on-Tek-12bit-4GHz/Tek000_ch1_20190613133036575.csv

Model,MSO64
Waveform Type,ANALOG
Horizontal Units,s
Sample Interval,4.000000e-12
Record Length,1000
Zero Index,310.906250
Vertical Units,V

TIME,CH1
-1.243625e-09,3.750000e-03
-1.239625e-09,3.921875e-03
-1.235625e-09,3.281250e-03
-1.231625e-09,3.656250e-03
-1.227625e-09,3.625000e-03
-1.223625e-09,3.609375e-03
-1.219625e-09,2.203125e-03
-1.215625e-09,2.812500e-03
-1.211625e-09,1.812500e-03
-1.207625e-09,2.859375e-03
-1.203625e-09,2.500000e-03
-1.199625e-09,2.140625e-03
-1.195625e-09,1.421875e-03
-1.191625e-09,1.718750e-03
-1.187625e-09,1.218750e-03
-1.183625e-09,1.140625e-03
-1.179625e-09,1.500000e-03
-1.175625e-09,1.656250e-03
-1.171625e-09,1.437500e-03
-1.167625e-09,1.046875e-03
-1.163625e-09,1.078125e-03
-1.159625e-09,1.515625e-03
-1.155625e-09,1.171875e-03
-1.151625e-09,1.859375e-03
-1.147625e-09,2.171875e-03
-1.143625e-09,2.500000e-03
-1.139625e-09,1.421875e-03
-1.135625e-09,2.390625e-03
-1.131625e-09,1.750000e-03
-1.127625e-09,3.140625e-03
-1.123625e-09,3.140625e-03
-1.119625e-09,3.156250e-03
-1.115625e-09,2.781250e-03
-1.111625e-09,3.421875e-03
-1.107625e-09,3.265625e-03
-1.103625e-09,3.515625e-03
-1.099625e-09,4.171875e-03
-1.095625e-09,4.640625e-03
-1.091625e-09,4.718750e-03
-1.087625e-09,4.578125e-03
-1.083625e-09,4.859375e-03
-1.079625e-09,5.531250e-03
-1.075625e-09,5.406250e-03
-1.071625e-09,6.281250e-03
-1.067625e-09,6.765625e-03
-1.063625e-09,7.234375e-03
-1.059625e-09,6.281250e-03
-1.055625e-09,7.343750e-03
-1.051625e-09,6.781250e-03
-1.047625e-09,8.250000e-03
-1.043625e-09,8.281250e-03
-1.039625e-09,8.312500e-03
-1.035625e-09,7.921875e-03
-1.031625e-09,8.531250e-03
-1.027625e-09,8.328125e-03
-1.023625e-09,8.531250e-03
-1.019625e-09,9.125000e-03
-1.015625e-09,9.500000e-03
-1.011625e-09,9.468750e-03
-1.007625e-09,9.218750e-03
-1.003625e-09,9.375000e-03
-9.996250e-10,9.906250e-03
-9.956250e-10,9.656250e-03
-9.916250e-10,1.037500e-02
-9.876250e-10,1.070313e-02
-9.836250e-10,1.101563e-02
-9.796250e-10,9.906250e-03
-9.756250e-10,1.082813e-02
-9.716250e-10,1.010938e-02
-9.676250e-10,1.140625e-02
-9.636250e-10,1.128125e-02
-9.596250e-10,1.117188e-02
-9.556250e-10,1.064063e-02
-9.516250e-10,1.110938e-02
-9.476250e-10,1.078125e-02
-9.436250e-10,1.085938e-02
-9.396250e-10,1.132813e-02
-9.356250e-10,1.159375e-02
-9.316250e-10,1.145313e-02
-9.276250e-10,1.110938e-02
-9.236250e-10,1.117188e-02
-9.196250e-10,1.164063e-02
-9.156250e-10,1.129688e-02
-9.116250e-10,1.195313e-02
-9.076250e-10,1.220313e-02
-9.036250e-10,1.245313e-02
-8.996250e-10,1.129688e-02
-8.956250e-10,1.215625e-02
-8.916250e-10,1.137500e-02
-8.876250e-10,1.257813e-02
-8.836250e-10,1.242188e-02
-8.796250e-10,1.225000e-02
-8.756250e-10,1.167188e-02
-8.716250e-10,1.207813e-02
-8.676250e-10,1.168750e-02
-8.636250e-10,1.170313e-02
-8.596250e-10,1.209375e-02
-8.556250e-10,1.228125e-02
-8.516250e-10,1.206250e-02
-8.476250e-10,1.162500e-02
-8.436250e-10,1.157813e-02
-8.396250e-10,1.192188e-02
-8.356250e-10,1.145313e-02
-8.316250e-10,1.198438e-02
-8.276250e-10,1.209375e-02
-8.236250e-10,1.220313e-02
-8.196250e-10,1.092188e-02
-8.156250e-10,1.159375e-02
-8.116250e-10,1.065625e-02
-8.076250e-10,1.162500e-02
-8.036250e-10,1.131250e-02
-7.996250e-10,1.095313e-02
-7.956250e-10,1.020313e-02
-7.916250e-10,1.040625e-02
-7.876250e-10,9.796875e-03
-7.836250e-10,9.640625e-03
-7.796250e-10,9.828125e-03
-7.756250e-10,9.796875e-03
-7.716250e-10,9.421875e-03
-7.676250e-10,8.781250e-03
-7.636250e-10,8.546875e-03
-7.596250e-10,8.718750e-03
-7.556250e-10,8.078125e-03
-7.516250e-10,8.453125e-03
-7.476250e-10,8.421875e-03
-7.436250e-10,8.390625e-03
-7.396250e-10,7.000000e-03
-7.356250e-10,7.593750e-03
-7.316250e-10,6.593750e-03
-7.276250e-10,7.468750e-03
-7.236250e-10,7.109375e-03
-7.196250e-10,6.734375e-03
-7.156250e-10,6.000000e-03
-7.116250e-10,6.218750e-03
-7.076250e-10,5.625000e-03
-7.036250e-10,5.546875e-03
-6.996250e-10,5.812500e-03
-6.956250e-10,5.859375e-03
-6.916250e-10,5.671875e-03
-6.876250e-10,5.171875e-03
-6.836250e-10,5.078125e-03
-6.796250e-10,5.406250e-03
-6.756250e-10,5.000000e-03
-6.716250e-10,5.562500e-03
-6.676250e-10,5.765625e-03
-6.636250e-10,5.953125e-03
-6.596250e-10,4.781250e-03
-6.556250e-10,5.640625e-03
-6.516250e-10,4.937500e-03
-6.476250e-10,6.062500e-03
-6.436250e-10,6.000000e-03
-6.396250e-10,5.906250e-03
-6.356250e-10,5.437500e-03
-6.316250e-10,5.890625e-03
-6.276250e-10,5.546875e-03
-6.236250e-10,5.718750e-03
-6.196250e-10,6.218750e-03
-6.156250e-10,6.468750e-03
-6.116250e-10,6.515625e-03
-6.076250e-10,6.203125e-03
-6.036250e-10,6.281250e-03
-5.996250e-10,6.765625e-03
-5.956250e-10,6.500000e-03
-5.916250e-10,7.171875e-03
-5.876250e-10,7.437500e-03
-5.836250e-10,7.671875e-03
-5.796250e-10,6.515625e-03
-5.756250e-10,7.359375e-03
-5.716250e-10,6.671875e-03
-5.676250e-10,7.734375e-03
-5.636250e-10,7.625000e-03
-5.596250e-10,7.406250e-03
-5.556250e-10,6.812500e-03
-5.516250e-10,7.093750e-03
-5.476250e-10,6.578125e-03
-5.436250e-10,6.546875e-03
-5.396250e-10,6.828125e-03
-5.356250e-10,6.828125e-03
-5.316250e-10,6.593750e-03
-5.276250e-10,6.015625e-03
-5.236250e-10,5.828125e-03
-5.196250e-10,6.031250e-03
-5.156250e-10,5.437500e-03
-5.116250e-10,5.828125e-03
-5.076250e-10,5.765625e-03
-5.036250e-10,5.687500e-03
-4.996250e-10,4.218750e-03
-4.956250e-10,4.734375e-03
-4.916250e-10,3.781250e-03
-4.876250e-10,4.562500e-03
-4.836250e-10,4.218750e-03
-4.796250e-10,3.718750e-03
-4.756250e-10,2.890625e-03
-4.716250e-10,2.984375e-03
-4.676250e-10,2.328125e-03
-4.636250e-10,2.093750e-03
-4.596250e-10,2.281250e-03
-4.556250e-10,2.187500e-03
-4.516250e-10,1.843750e-03
-4.476250e-10,1.250000e-03
-4.436250e-10,1.109375e-03
-4.396250e-10,1.375000e-03
-4.356250e-10,8.281250e-04
-4.316250e-10,1.359375e-03
-4.276250e-10,1.453125e-03
-4.236250e-10,1.578125e-03
-4.196250e-10,3.593750e-04
-4.156250e-10,1.093750e-03
-4.116250e-10,4.531250e-04
-4.076250e-10,1.578125e-03
-4.036250e-10,1.609375e-03
-3.996250e-10,1.484375e-03
-3.956250e-10,1.078125e-03
-3.916250e-10,1.640625e-03
-3.876250e-10,1.500000e-03
-3.836250e-10,1.703125e-03
-3.796250e-10,2.406250e-03
-3.756250e-10,2.843750e-03
-3.716250e-10,2.984375e-03
-3.676250e-10,2.953125e-03
-3.636250e-10,3.375000e-03
-3.596250e-10,4.203125e-03
-3.556250e-10,4.187500e-03
-3.516250e-10,5.234375e-03
-3.476250e-10,5.890625e-03
-3.436250e-10,6.515625e-03
-3.396250e-10,5.828125e-03
-3.356250e-10,7.000000e-03
-3.316250e-10,6.781250e-03
-3.276250e-10,8.359375e-03
-3.236250e-10,8.750000e-03
-3.196250e-10,9.000000e-03
-3.156250e-10,8.953125e-03
-3.116250e-10,9.796875e-03
-3.076250e-10,9.906250e-03
-3.036250e-10,1.029688e-02
-2.996250e-10,1.114063e-02
-2.956250e-10,1.170313e-02
-2.916250e-10,1.187500e-02
-2.876250e-10,1.190625e-02
-2.836250e-10,1.228125e-02
-2.796250e-10,1.303125e-02
-2.756250e-10,1.290625e-02
-2.716250e-10,1.375000e-02
-2.676250e-10,1.420313e-02
-2.636250e-10,1.456250e-02
-2.596250e-10,1.357813e-02
-2.556250e-10,1.439063e-02
-2.516250e-10,1.375000e-02
-2.476250e-10,1.490625e-02
-2.436250e-10,1.479688e-02
-2.396250e-10,1.454688e-02
-2.356250e-10,1.398438e-02
-2.316250e-10,1.426563e-02
-2.276250e-10,1.378125e-02
-2.236250e-10,1.356250e-02
-2.196250e-10,1.376563e-02
-2.156250e-10,1.367188e-02
-2.116250e-10,1.318750e-02
-2.076250e-10,1.259375e-02
-2.036250e-10,1.229688e-02
-1.996250e-10,1.234375e-02
-1.956250e-10,1.159375e-02
-1.916250e-10,1.179688e-02
-1.876250e-10,1.162500e-02
-1.836250e-10,1.140625e-02
-1.796250e-10,9.875000e-03
-1.756250e-10,1.015625e-02
-1.716250e-10,8.984375e-03
-1.676250e-10,9.703125e-03
-1.636250e-10,9.125000e-03
-1.596250e-10,8.531250e-03
-1.556250e-10,7.671875e-03
-1.516250e-10,7.687500e-03
-1.476250e-10,6.984375e-03
-1.436250e-10,6.671875e-03
-1.396250e-10,6.781250e-03
-1.356250e-10,6.703125e-03
-1.316250e-10,6.296875e-03
-1.276250e-10,5.843750e-03
-1.236250e-10,5.765625e-03
-1.196250e-10,6.078125e-03
-1.156250e-10,5.718750e-03
-1.116250e-10,6.390625e-03
-1.076250e-10,6.765625e-03
-1.036250e-10,7.203125e-03
-9.962500e-11,6.437500e-03
-9.562500e-11,7.531250e-03
-9.162500e-11,7.218750e-03
-8.762500e-11,8.968750e-03
-8.362500e-11,9.421875e-03
-7.962500e-11,1.000000e-02
-7.562500e-11,1.037500e-02
-7.162500e-11,1.173438e-02
-6.762500e-11,1.243750e-02
-6.362500e-11,1.362500e-02
-5.962500e-11,1.528125e-02
-5.562500e-11,1.687500e-02
-5.162500e-11,1.815625e-02
-4.762500e-11,1.948438e-02
-4.362500e-11,2.121875e-02
-3.962500e-11,2.339063e-02
-3.562500e-11,2.498438e-02
-3.162500e-11,2.767188e-02
-2.762500e-11,3.006250e-02
-2.362500e-11,3.262500e-02
-1.962500e-11,3.398438e-02
-1.562500e-11,3.723438e-02
-1.162500e-11,3.907813e-02
-7.625000e-12,4.303125e-02
-3.625000e-12,4.564063e-02
3.750000e-13,4.845313e-02
4.375000e-12,5.100000e-02
8.375000e-12,5.454688e-02
1.237500e-11,5.742188e-02
1.637500e-11,6.073438e-02
2.037500e-11,6.453125e-02
2.437500e-11,6.825000e-02
2.837500e-11,7.153125e-02
3.237500e-11,7.484375e-02
3.637500e-11,7.850000e-02
4.037500e-11,8.250000e-02
4.437500e-11,8.589063e-02
4.837500e-11,9.028125e-02
5.237500e-11,9.426563e-02
5.637500e-11,9.837500e-02
6.037500e-11,1.011563e-01
6.437500e-11,1.057344e-01
6.837500e-11,1.087813e-01
7.237500e-11,1.137969e-01
7.637500e-11,1.173438e-01
8.037500e-11,1.210156e-01
8.437500e-11,1.242500e-01
8.837500e-11,1.282969e-01
9.237500e-11,1.316094e-01
9.637500e-11,1.351875e-01
1.003750e-10,1.390781e-01
1.043750e-10,1.428125e-01
1.083750e-10,1.458594e-01
1.123750e-10,1.488125e-01
1.163750e-10,1.519531e-01
1.203750e-10,1.552969e-01
1.243750e-10,1.578906e-01
1.283750e-10,1.612813e-01
1.323750e-10,1.640938e-01
1.363750e-10,1.669219e-01
1.403750e-10,1.682188e-01
1.443750e-10,1.712188e-01
1.483750e-10,1.725156e-01
1.523750e-10,1.756094e-01
1.563750e-10,1.770781e-01
1.603750e-10,1.785781e-01
1.643750e-10,1.794844e-01
1.683750e-10,1.810781e-01
1.723750e-10,1.818438e-01
1.763750e-10,1.827500e-01
1.803750e-10,1.838594e-01
1.843750e-10,1.847500e-01
1.883750e-10,1.848125e-01
1.923750e-10,1.846875e-01
1.963750e-10,1.847500e-01
2.003750e-10,1.849219e-01
2.043750e-10,1.842969e-01
2.083750e-10,1.843906e-01
2.123750e-10,1.838594e-01
2.163750e-10,1.833750e-01
2.203750e-10,1.812813e-01
2.243750e-10,1.809375e-01
2.283750e-10,1.789063e-01
2.323750e-10,1.786250e-01
2.363750e-10,1.767813e-01
2.403750e-10,1.749688e-01
2.443750e-10,1.726094e-01
2.483750e-10,1.710000e-01
2.523750e-10,1.686563e-01
2.563750e-10,1.665156e-01
2.603750e-10,1.646094e-01
2.643750e-10,1.625781e-01
2.683750e-10,1.598438e-01
2.723750e-10,1.569688e-01
2.763750e-10,1.544219e-01
2.803750e-10,1.521094e-01
2.843750e-10,1.490781e-01
2.883750e-10,1.468906e-01
2.923750e-10,1.442188e-01
2.963750e-10,1.417031e-01
3.003750e-10,1.376875e-01
3.043750e-10,1.356250e-01
3.083750e-10,1.320156e-01
3.123750e-10,1.302188e-01
3.163750e-10,1.270469e-01
3.203750e-10,1.240313e-01
3.243750e-10,1.205781e-01
3.283750e-10,1.180938e-01
3.323750e-10,1.149844e-01
3.363750e-10,1.121875e-01
3.403750e-10,1.097500e-01
3.443750e-10,1.073125e-01
3.483750e-10,1.043438e-01
3.523750e-10,1.013281e-01
3.563750e-10,9.873438e-02
3.603750e-10,9.653125e-02
3.643750e-10,9.365625e-02
3.683750e-10,9.175000e-02
3.723750e-10,8.948438e-02
3.763750e-10,8.743750e-02
3.803750e-10,8.398438e-02
3.843750e-10,8.257813e-02
3.883750e-10,7.968750e-02
3.923750e-10,7.867188e-02
3.963750e-10,7.635938e-02
4.003750e-10,7.423438e-02
4.043750e-10,7.171875e-02
4.083750e-10,7.021875e-02
4.123750e-10,6.814063e-02
4.163750e-10,6.639063e-02
4.203750e-10,6.500000e-02
4.243750e-10,6.362500e-02
4.283750e-10,6.179688e-02
4.323750e-10,5.989063e-02
4.363750e-10,5.839063e-02
4.403750e-10,5.731250e-02
4.443750e-10,5.553125e-02
4.483750e-10,5.467188e-02
4.523750e-10,5.351563e-02
4.563750e-10,5.248438e-02
4.603750e-10,5.006250e-02
4.643750e-10,4.965625e-02
4.683750e-10,4.776563e-02
4.723750e-10,4.768750e-02
4.763750e-10,4.634375e-02
4.803750e-10,4.507813e-02
4.843750e-10,4.343750e-02
4.883750e-10,4.276563e-02
4.923750e-10,4.145313e-02
4.963750e-10,4.046875e-02
5.003750e-10,3.979688e-02
5.043750e-10,3.909375e-02
5.083750e-10,3.798438e-02
5.123750e-10,3.671875e-02
5.163750e-10,3.582813e-02
5.203750e-10,3.534375e-02
5.243750e-10,3.410938e-02
5.283750e-10,3.376563e-02
5.323750e-10,3.312500e-02
5.363750e-10,3.256250e-02
5.403750e-10,3.062500e-02
5.443750e-10,3.064063e-02
5.483750e-10,2.920313e-02
5.523750e-10,2.956250e-02
5.563750e-10,2.865625e-02
5.603750e-10,2.773438e-02
5.643750e-10,2.651563e-02
5.683750e-10,2.623438e-02
5.723750e-10,2.523438e-02
5.763750e-10,2.462500e-02
5.803750e-10,2.431250e-02
5.843750e-10,2.396875e-02
5.883750e-10,2.323438e-02
5.923750e-10,2.231250e-02
5.963750e-10,2.182813e-02
6.003750e-10,2.167188e-02
6.043750e-10,2.079688e-02
6.083750e-10,2.081250e-02
6.123750e-10,2.056250e-02
6.163750e-10,2.031250e-02
6.203750e-10,1.875000e-02
6.243750e-10,1.910938e-02
6.283750e-10,1.804688e-02
6.323750e-10,1.878125e-02
6.363750e-10,1.825000e-02
6.403750e-10,1.767188e-02
6.443750e-10,1.678125e-02
6.483750e-10,1.687500e-02
6.523750e-10,1.618750e-02
6.563750e-10,1.585938e-02
6.603750e-10,1.590625e-02
6.643750e-10,1.587500e-02
6.683750e-10,1.546875e-02
6.723750e-10,1.481250e-02
6.763750e-10,1.464063e-02
6.803750e-10,1.473438e-02
6.843750e-10,1.412500e-02
6.883750e-10,1.440625e-02
6.923750e-10,1.442188e-02
6.963750e-10,1.432813e-02
7.003750e-10,1.300000e-02
7.043750e-10,1.351563e-02
7.083750e-10,1.262500e-02
7.123750e-10,1.354688e-02
7.163750e-10,1.315625e-02
7.203750e-10,1.273438e-02
7.243750e-10,1.190625e-02
7.283750e-10,1.214063e-02
7.323750e-10,1.150000e-02
7.363750e-10,1.123438e-02
7.403750e-10,1.137500e-02
7.443750e-10,1.139063e-02
7.483750e-10,1.103125e-02
7.523750e-10,1.039063e-02
7.563750e-10,1.023438e-02
7.603750e-10,1.035938e-02
7.643750e-10,9.765625e-03
7.683750e-10,1.010938e-02
7.723750e-10,1.014063e-02
7.763750e-10,1.003125e-02
7.803750e-10,8.734375e-03
7.843750e-10,9.234375e-03
7.883750e-10,8.343750e-03
7.923750e-10,9.328125e-03
7.963750e-10,8.984375e-03
8.003750e-10,8.625000e-03
8.043750e-10,7.843750e-03
8.083750e-10,8.125000e-03
8.123750e-10,7.562500e-03
8.163750e-10,7.390625e-03
8.203750e-10,7.656250e-03
8.243750e-10,7.734375e-03
8.283750e-10,7.531250e-03
8.323750e-10,7.031250e-03
8.363750e-10,7.000000e-03
8.403750e-10,7.328125e-03
8.443750e-10,6.937500e-03
8.483750e-10,7.484375e-03
8.523750e-10,7.718750e-03
8.563750e-10,7.843750e-03
8.603750e-10,6.812500e-03
8.643750e-10,7.546875e-03
8.683750e-10,6.875000e-03
8.723750e-10,8.171875e-03
8.763750e-10,8.109375e-03
8.803750e-10,8.046875e-03
8.843750e-10,7.578125e-03
8.883750e-10,8.109375e-03
8.923750e-10,7.875000e-03
8.963750e-10,8.031250e-03
9.003750e-10,8.609375e-03
9.043750e-10,8.921875e-03
9.083750e-10,9.000000e-03
9.123750e-10,8.796875e-03
9.163750e-10,9.000000e-03
9.203750e-10,9.640625e-03
9.243750e-10,9.515625e-03
9.283750e-10,1.029688e-02
9.323750e-10,1.073438e-02
9.363750e-10,1.106250e-02
9.403750e-10,1.021875e-02
9.443750e-10,1.114063e-02
9.483750e-10,1.057813e-02
9.523750e-10,1.200000e-02
9.563750e-10,1.203125e-02
9.603750e-10,1.203125e-02
9.643750e-10,1.162500e-02
9.683750e-10,1.217188e-02
9.723750e-10,1.193750e-02
9.763750e-10,1.209375e-02
9.803750e-10,1.265625e-02
9.843750e-10,1.284375e-02
9.883750e-10,1.281250e-02
9.923750e-10,1.250000e-02
9.963750e-10,1.250000e-02
1.000375e-09,1.298438e-02
1.004375e-09,1.267188e-02
1.008375e-09,1.323438e-02
1.012375e-09,1.340625e-02
1.016375e-09,1.348438e-02
1.020375e-09,1.239063e-02
1.024375e-09,1.303125e-02
1.028375e-09,1.215625e-02
1.032375e-09,1.323438e-02
1.036375e-09,1.295313e-02
1.040375e-09,1.259375e-02
1.044375e-09,1.185938e-02
1.048375e-09,1.206250e-02
1.052375e-09,1.148438e-02
1.056375e-09,1.129688e-02
1.060375e-09,1.150000e-02
1.064375e-09,1.134375e-02
1.068375e-09,1.095313e-02
1.072375e-09,1.031250e-02
1.076375e-09,1.000000e-02
1.080375e-09,1.015625e-02
1.084375e-09,9.531250e-03
1.088375e-09,9.796875e-03
1.092375e-09,9.687500e-03
1.096375e-09,9.531250e-03
1.100375e-09,8.187500e-03
1.104375e-09,8.656250e-03
1.108375e-09,7.562500e-03
1.112375e-09,8.453125e-03
1.116375e-09,8.000000e-03
1.120375e-09,7.515625e-03
1.124375e-09,6.640625e-03
1.128375e-09,6.765625e-03
1.132375e-09,6.125000e-03
1.136375e-09,5.890625e-03
1.140375e-09,6.062500e-03
1.144375e-09,5.968750e-03
1.148375e-09,5.578125e-03
1.152375e-09,4.984375e-03
1.156375e-09,4.750000e-03
1.160375e-09,4.984375e-03
1.164375e-09,4.453125e-03
1.168375e-09,4.859375e-03
1.172375e-09,4.921875e-03
1.176375e-09,4.953125e-03
1.180375e-09,3.765625e-03
1.184375e-09,4.468750e-03
1.188375e-09,3.593750e-03
1.192375e-09,4.718750e-03
1.196375e-09,4.484375e-03
1.200375e-09,4.265625e-03
1.204375e-09,3.656250e-03
1.208375e-09,4.062500e-03
1.212375e-09,3.703125e-03
1.216375e-09,3.750000e-03
1.220375e-09,4.203125e-03
1.224375e-09,4.437500e-03
1.228375e-09,4.328125e-03
1.232375e-09,4.031250e-03
1.236375e-09,4.109375e-03
1.240375e-09,4.656250e-03
1.244375e-09,4.390625e-03
1.248375e-09,5.125000e-03
1.252375e-09,5.484375e-03
1.256375e-09,5.812500e-03
1.260375e-09,4.875000e-03
1.264375e-09,5.843750e-03
1.268375e-09,5.234375e-03
1.272375e-09,6.625000e-03
1.276375e-09,6.640625e-03
1.280375e-09,6.656250e-03
1.284375e-09,6.265625e-03
1.288375e-09,6.890625e-03
1.292375e-09,6.703125e-03
1.296375e-09,6.937500e-03
1.300375e-09,7.578125e-03
1.304375e-09,7.984375e-03
1.308375e-09,8.015625e-03
1.312375e-09,7.843750e-03
1.316375e-09,8.046875e-03
1.320375e-09,8.687500e-03
1.324375e-09,8.515625e-03
1.328375e-09,9.312500e-03
1.332375e-09,9.718750e-03
1.336375e-09,1.010938e-02
1.340375e-09,9.156250e-03
1.344375e-09,1.014063e-02
1.348375e-09,9.515625e-03
1.352375e-09,1.089063e-02
1.356375e-09,1.085938e-02
1.360375e-09,1.081250e-02
1.364375e-09,1.034375e-02
1.368375e-09,1.087500e-02
1.372375e-09,1.059375e-02
1.376375e-09,1.070313e-02
1.380375e-09,1.120313e-02
1.384375e-09,1.148438e-02
1.388375e-09,1.134375e-02
1.392375e-09,1.100000e-02
1.396375e-09,1.103125e-02
1.400375e-09,1.146875e-02
1.404375e-09,1.107813e-02
1.408375e-09,1.168750e-02
1.412375e-09,1.185938e-02
1.416375e-09,1.203125e-02
1.420375e-09,1.079688e-02
1.424375e-09,1.154688e-02
1.428375e-09,1.067188e-02
1.432375e-09,1.179688e-02
1.436375e-09,1.150000e-02
1.440375e-09,1.118750e-02
1.444375e-09,1.046875e-02
1.448375e-09,1.073438e-02
1.452375e-09,1.020313e-02
1.456375e-09,1.004688e-02
1.460375e-09,1.029688e-02
1.464375e-09,1.032813e-02
1.468375e-09,9.968750e-03
1.472375e-09,9.390625e-03
1.476375e-09,9.203125e-03
1.480375e-09,9.437500e-03
1.484375e-09,8.843750e-03
1.488375e-09,9.265625e-03
1.492375e-09,9.281250e-03
1.496375e-09,9.296875e-03
1.500375e-09,7.921875e-03
1.504375e-09,8.546875e-03
1.508375e-09,7.562500e-03
1.512375e-09,8.609375e-03
1.516375e-09,8.250000e-03
1.520375e-09,7.890625e-03
1.524375e-09,7.140625e-03
1.528375e-09,7.421875e-03
1.532375e-09,6.890625e-03
1.536375e-09,6.781250e-03
1.540375e-09,7.093750e-03
1.544375e-09,7.203125e-03
1.548375e-09,6.937500e-03
1.552375e-09,6.468750e-03
1.556375e-09,6.421875e-03
1.560375e-09,6.796875e-03
1.564375e-09,6.375000e-03
1.568375e-09,6.968750e-03
1.572375e-09,7.187500e-03
1.576375e-09,7.406250e-03
1.580375e-09,6.250000e-03
1.584375e-09,7.109375e-03
1.588375e-09,6.375000e-03
1.592375e-09,7.656250e-03
1.596375e-09,7.531250e-03
1.600375e-09,7.437500e-03
1.604375e-09,6.937500e-03
1.608375e-09,7.468750e-03
1.612375e-09,7.187500e-03
1.616375e-09,7.328125e-03
1.620375e-09,7.859375e-03
1.624375e-09,8.203125e-03
1.628375e-09,8.156250e-03
1.632375e-09,7.890625e-03
1.636375e-09,8.031250e-03
1.640375e-09,8.593750e-03
1.644375e-09,8.328125e-03
1.648375e-09,9.078125e-03
1.652375e-09,9.406250e-03
1.656375e-09,9.734375e-03
1.660375e-09,8.640625e-03
1.664375e-09,9.562500e-03
1.668375e-09,8.859375e-03
1.672375e-09,1.014063e-02
1.676375e-09,1.001563e-02
1.680375e-09,9.875000e-03
1.684375e-09,9.312500e-03
1.688375e-09,9.750000e-03
1.692375e-09,9.359375e-03
1.696375e-09,9.359375e-03
1.700375e-09,9.734375e-03
1.704375e-09,9.906250e-03
1.708375e-09,9.640625e-03
1.712375e-09,9.171875e-03
1.716375e-09,9.078125e-03
1.720375e-09,9.375000e-03
1.724375e-09,8.843750e-03
1.728375e-09,9.312500e-03
1.732375e-09,9.343750e-03
1.736375e-09,9.375000e-03
1.740375e-09,7.984375e-03
1.744375e-09,8.593750e-03
1.748375e-09,7.562500e-03
1.752375e-09,8.562500e-03
1.756375e-09,8.125000e-03
