Measurements-streak-laser-independent/Photodiode-on-Tek-12bit-4GHz/Tek000_ch1_20190613133021131.csv

Model,MSO64
Waveform Type,ANALOG
Horizontal Units,s
Sample Interval,4.000000e-12
Record Length,1000
Zero Index,310.656250
Vertical Units,V

TIME,CH1
-1.242625e-09,5.062500e-03
-1.238625e-09,4.968750e-03
-1.234625e-09,5.281250e-03
-1.230625e-09,4.796875e-03
-1.226625e-09,5.328125e-03
-1.222625e-09,5.453125e-03
-1.218625e-09,5.593750e-03
-1.214625e-09,4.343750e-03
-1.210625e-09,5.109375e-03
-1.206625e-09,4.265625e-03
-1.202625e-09,5.453125e-03
-1.198625e-09,5.234375e-03
-1.194625e-09,5.015625e-03
-1.190625e-09,4.406250e-03
-1.186625e-09,4.812500e-03
-1.182625e-09,4.421875e-03
-1.178625e-09,4.437500e-03
-1.174625e-09,4.859375e-03
-1.170625e-09,5.078125e-03
-1.166625e-09,4.906250e-03
-1.162625e-09,4.531250e-03
-1.158625e-09,4.578125e-03
-1.154625e-09,5.015625e-03
-1.150625e-09,4.640625e-03
-1.146625e-09,5.281250e-03
-1.142625e-09,5.531250e-03
-1.138625e-09,5.765625e-03
-1.134625e-09,4.593750e-03
-1.130625e-09,5.437500e-03
-1.126625e-09,4.671875e-03
-1.122625e-09,5.906250e-03
-1.118625e-09,5.734375e-03
-1.114625e-09,5.562500e-03
-1.110625e-09,4.984375e-03
-1.106625e-09,5.406250e-03
-1.102625e-09,5.031250e-03
-1.098625e-09,5.046875e-03
-1.094625e-09,5.453125e-03
-1.090625e-09,5.671875e-03
-1.086625e-09,5.484375e-03
-1.082625e-09,5.078125e-03
-1.078625e-09,5.093750e-03
-1.074625e-09,5.484375e-03
-1.070625e-09,5.093750e-03
-1.066625e-09,5.687500e-03
-1.062625e-09,5.890625e-03
-1.058625e-09,6.093750e-03
-1.054625e-09,4.875000e-03
-1.050625e-09,5.687500e-03
-1.046625e-09,4.875000e-03
-1.042625e-09,6.078125e-03
-1.038625e-09,5.890625e-03
-1.034625e-09,5.687500e-03
-1.030625e-09,5.078125e-03
-1.026625e-09,5.500000e-03
-1.022625e-09,5.093750e-03
-1.018625e-09,5.109375e-03
-1.014625e-09,5.531250e-03
-1.010625e-09,5.765625e-03
-1.006625e-09,5.578125e-03
-1.002625e-09,5.203125e-03
-9.986250e-10,5.234375e-03
-9.946250e-10,5.671875e-03
-9.906250e-10,5.312500e-03
-9.866250e-10,5.968750e-03
-9.826250e-10,6.218750e-03
-9.786250e-10,6.468750e-03
-9.746250e-10,5.328125e-03
-9.706250e-10,6.187500e-03
-9.666250e-10,5.453125e-03
-9.626250e-10,6.718750e-03
-9.586250e-10,6.593750e-03
-9.546250e-10,6.468750e-03
-9.506250e-10,5.937500e-03
-9.466250e-10,6.421875e-03
-9.426250e-10,6.093750e-03
-9.386250e-10,6.187500e-03
-9.346250e-10,6.671875e-03
-9.306250e-10,6.968750e-03
-9.266250e-10,6.859375e-03
-9.226250e-10,6.531250e-03
-9.186250e-10,6.625000e-03
-9.146250e-10,7.125000e-03
-9.106250e-10,6.796875e-03
-9.066250e-10,7.500000e-03
-9.026250e-10,7.781250e-03
-8.986250e-10,8.078125e-03
-8.946250e-10,6.968750e-03
-8.906250e-10,7.843750e-03
-8.866250e-10,7.125000e-03
-8.826250e-10,8.343750e-03
-8.786250e-10,8.218750e-03
-8.746250e-10,8.093750e-03
-8.706250e-10,7.593750e-03
-8.666250e-10,8.062500e-03
-8.626250e-10,7.734375e-03
-8.586250e-10,7.812500e-03
-8.546250e-10,8.296875e-03
-8.506250e-10,8.562500e-03
-8.466250e-10,8.453125e-03
-8.426250e-10,8.109375e-03
-8.386250e-10,8.187500e-03
-8.346250e-10,8.656250e-03
-8.306250e-10,8.328125e-03
-8.266250e-10,9.000000e-03
-8.226250e-10,9.265625e-03
-8.186250e-10,9.546875e-03
-8.146250e-10,8.468750e-03
-8.106250e-10,9.359375e-03
-8.066250e-10,8.625000e-03
-8.026250e-10,9.734375e-03
-7.986250e-10,9.687500e-03
-7.946250e-10,9.562500e-03
-7.906250e-10,9.109375e-03
-7.866250e-10,9.578125e-03
-7.826250e-10,9.250000e-03
-7.786250e-10,9.406250e-03
-7.746250e-10,9.875000e-03
-7.706250e-10,1.015625e-02
-7.666250e-10,1.012500e-02
-7.626250e-10,9.796875e-03
-7.586250e-10,9.859375e-03
-7.546250e-10,1.032813e-02
-7.506250e-10,1.001563e-02
-7.466250e-10,1.068750e-02
-7.426250e-10,1.096875e-02
-7.386250e-10,1.121875e-02
-7.346250e-10,1.015625e-02
-7.306250e-10,1.103125e-02
-7.266250e-10,1.028125e-02
-7.226250e-10,1.126563e-02
-7.186250e-10,1.118750e-02
-7.146250e-10,1.103125e-02
-7.106250e-10,1.054688e-02
-7.066250e-10,1.087500e-02
-7.026250e-10,1.039063e-02
-6.986250e-10,1.048438e-02
-6.946250e-10,1.079688e-02
-6.906250e-10,1.087500e-02
-6.866250e-10,1.081250e-02
-6.826250e-10,1.026563e-02
-6.786250e-10,1.010938e-02
-6.746250e-10,1.034375e-02
-6.706250e-10,9.828125e-03
-6.666250e-10,1.023438e-02
-6.626250e-10,1.028125e-02
-6.586250e-10,1.023438e-02
-6.546250e-10,8.859375e-03
-6.506250e-10,9.468750e-03
-6.466250e-10,8.515625e-03
-6.426250e-10,9.156250e-03
-6.386250e-10,8.812500e-03
-6.346250e-10,8.390625e-03
-6.306250e-10,7.609375e-03
-6.266250e-10,7.609375e-03
-6.226250e-10,6.796875e-03
-6.186250e-10,6.640625e-03
-6.146250e-10,6.687500e-03
-6.106250e-10,6.437500e-03
-6.066250e-10,6.234375e-03
-6.026250e-10,5.437500e-03
-5.986250e-10,5.062500e-03
-5.946250e-10,5.109375e-03
-5.906250e-10,4.484375e-03
-5.866250e-10,4.734375e-03
-5.826250e-10,4.656250e-03
-5.786250e-10,4.515625e-03
-5.746250e-10,3.031250e-03
-5.706250e-10,3.609375e-03
-5.666250e-10,2.765625e-03
-5.626250e-10,3.406250e-03
-5.586250e-10,3.203125e-03
-5.546250e-10,2.875000e-03
-5.506250e-10,2.218750e-03
-5.466250e-10,2.375000e-03
-5.426250e-10,1.765625e-03
-5.386250e-10,1.828125e-03
-5.346250e-10,2.187500e-03
-5.306250e-10,2.187500e-03
-5.266250e-10,2.281250e-03
-5.226250e-10,1.859375e-03
-5.186250e-10,1.875000e-03
-5.146250e-10,2.328125e-03
-5.106250e-10,2.109375e-03
-5.066250e-10,2.812500e-03
-5.026250e-10,3.109375e-03
-4.986250e-10,3.406250e-03
-4.946250e-10,2.343750e-03
-4.906250e-10,3.312500e-03
-4.866250e-10,2.953125e-03
-4.826250e-10,4.031250e-03
-4.786250e-10,4.328125e-03
-4.746250e-10,4.343750e-03
-4.706250e-10,4.062500e-03
-4.666250e-10,4.593750e-03
-4.626250e-10,4.406250e-03
-4.586250e-10,4.718750e-03
-4.546250e-10,5.390625e-03
-4.506250e-10,5.656250e-03
-4.466250e-10,5.843750e-03
-4.426250e-10,5.640625e-03
-4.386250e-10,5.875000e-03
-4.346250e-10,6.484375e-03
-4.306250e-10,6.250000e-03
-4.266250e-10,7.046875e-03
-4.226250e-10,7.296875e-03
-4.186250e-10,7.531250e-03
-4.146250e-10,6.406250e-03
-4.106250e-10,7.125000e-03
-4.066250e-10,6.609375e-03
-4.026250e-10,7.484375e-03
-3.986250e-10,7.546875e-03
-3.946250e-10,7.203125e-03
-3.906250e-10,6.609375e-03
-3.866250e-10,6.812500e-03
-3.826250e-10,6.359375e-03
-3.786250e-10,6.140625e-03
-3.746250e-10,6.437500e-03
-3.706250e-10,6.281250e-03
-3.666250e-10,5.921875e-03
-3.626250e-10,5.312500e-03
-3.586250e-10,5.187500e-03
-3.546250e-10,5.390625e-03
-3.506250e-10,4.656250e-03
-3.466250e-10,5.031250e-03
-3.426250e-10,4.968750e-03
-3.386250e-10,4.812500e-03
-3.346250e-10,3.406250e-03
-3.306250e-10,3.734375e-03
-3.266250e-10,2.937500e-03
-3.226250e-10,3.625000e-03
-3.186250e-10,3.468750e-03
-3.146250e-10,2.968750e-03
-3.106250e-10,2.343750e-03
-3.066250e-10,2.515625e-03
-3.026250e-10,2.125000e-03
-2.986250e-10,1.890625e-03
-2.946250e-10,2.281250e-03
-2.906250e-10,2.296875e-03
-2.866250e-10,2.093750e-03
-2.826250e-10,1.828125e-03
-2.786250e-10,2.000000e-03
-2.746250e-10,2.578125e-03
-2.706250e-10,2.265625e-03
-2.666250e-10,3.015625e-03
-2.626250e-10,3.500000e-03
-2.586250e-10,3.843750e-03
-2.546250e-10,3.046875e-03
-2.506250e-10,3.906250e-03
-2.466250e-10,3.625000e-03
-2.426250e-10,4.937500e-03
-2.386250e-10,5.296875e-03
-2.346250e-10,5.421875e-03
-2.306250e-10,5.453125e-03
-2.266250e-10,6.187500e-03
-2.226250e-10,6.312500e-03
-2.186250e-10,6.625000e-03
-2.146250e-10,7.437500e-03
-2.106250e-10,7.906250e-03
-2.066250e-10,8.046875e-03
-2.026250e-10,8.203125e-03
-1.986250e-10,8.609375e-03
-1.946250e-10,9.343750e-03
-1.906250e-10,9.250000e-03
-1.866250e-10,1.004688e-02
-1.826250e-10,1.054688e-02
-1.786250e-10,1.085938e-02
-1.746250e-10,9.984375e-03
-1.706250e-10,1.065625e-02
-1.666250e-10,1.001563e-02
-1.626250e-10,1.104688e-02
-1.586250e-10,1.092188e-02
-1.546250e-10,1.060938e-02
-1.506250e-10,1.012500e-02
-1.466250e-10,1.029688e-02
-1.426250e-10,9.750000e-03
-1.386250e-10,9.453125e-03
-1.346250e-10,9.484375e-03
-1.306250e-10,9.250000e-03
-1.266250e-10,8.671875e-03
-1.226250e-10,8.125000e-03
-1.186250e-10,7.750000e-03
-1.146250e-10,7.687500e-03
-1.106250e-10,6.937500e-03
-1.066250e-10,7.125000e-03
-1.026250e-10,7.015625e-03
-9.862500e-11,6.890625e-03
-9.462500e-11,5.687500e-03
-9.062500e-11,6.078125e-03
-8.662500e-11,5.203125e-03
-8.262500e-11,6.296875e-03
-7.862500e-11,6.171875e-03
-7.462500e-11,6.171875e-03
-7.062500e-11,6.140625e-03
-6.662500e-11,6.984375e-03
-6.262500e-11,7.281250e-03
-5.862500e-11,8.078125e-03
-5.462500e-11,9.375000e-03
-5.062500e-11,1.070313e-02
-4.662500e-11,1.184375e-02
-4.262500e-11,1.329688e-02
-3.862500e-11,1.515625e-02
-3.462500e-11,1.748438e-02
-3.062500e-11,1.950000e-02
-2.662500e-11,2.271875e-02
-2.262500e-11,2.584375e-02
-1.862500e-11,2.931250e-02
-1.462500e-11,3.193750e-02
-1.062500e-11,3.634375e-02
-6.625000e-12,3.968750e-02
-2.625000e-12,4.529688e-02
1.375000e-12,4.978125e-02
5.375000e-12,5.475000e-02
9.375000e-12,5.981250e-02
1.337500e-11,6.590625e-02
1.737500e-11,7.162500e-02
2.137500e-11,7.796875e-02
2.537500e-11,8.496875e-02
2.937500e-11,9.217188e-02
3.337500e-11,9.907813e-02
3.737500e-11,1.064375e-01
4.137500e-11,1.141875e-01
4.537500e-11,1.223750e-01
4.937500e-11,1.302969e-01
5.337500e-11,1.393594e-01
5.737500e-11,1.481875e-01
6.137500e-11,1.573906e-01
6.537500e-11,1.655313e-01
6.937500e-11,1.752813e-01
7.337500e-11,1.837500e-01
7.737500e-11,1.942969e-01
8.137500e-11,2.033906e-01
8.537500e-11,2.128750e-01
8.937500e-11,2.220000e-01
9.337500e-11,2.318438e-01
9.737500e-11,2.410469e-01
1.013750e-10,2.504688e-01
1.053750e-10,2.602031e-01
1.093750e-10,2.698594e-01
1.133750e-10,2.785938e-01
1.173750e-10,2.874219e-01
1.213750e-10,2.962344e-01
1.253750e-10,3.050156e-01
1.293750e-10,3.131719e-01
1.333750e-10,3.219063e-01
1.373750e-10,3.298906e-01
1.413750e-10,3.379219e-01
1.453750e-10,3.442969e-01
1.493750e-10,3.519375e-01
1.533750e-10,3.577969e-01
1.573750e-10,3.652188e-01
1.613750e-10,3.707500e-01
1.653750e-10,3.763281e-01
1.693750e-10,3.810313e-01
1.733750e-10,3.860313e-01
1.773750e-10,3.901250e-01
1.813750e-10,3.940469e-01
1.853750e-10,3.978906e-01
1.893750e-10,4.014375e-01
1.933750e-10,4.036406e-01
1.973750e-10,4.056250e-01
2.013750e-10,4.074531e-01
2.053750e-10,4.090313e-01
2.093750e-10,4.097969e-01
2.133750e-10,4.108906e-01
2.173750e-10,4.110469e-01
2.213750e-10,4.112344e-01
2.253750e-10,4.096094e-01
2.293750e-10,4.093125e-01
2.333750e-10,4.072031e-01
2.373750e-10,4.065156e-01
2.413750e-10,4.040000e-01
2.453750e-10,4.015938e-01
2.493750e-10,3.983906e-01
2.533750e-10,3.955938e-01
2.573750e-10,3.921094e-01
2.613750e-10,3.885469e-01
2.653750e-10,3.850000e-01
2.693750e-10,3.814219e-01
2.733750e-10,3.766875e-01
2.773750e-10,3.719063e-01
2.813750e-10,3.672969e-01
2.853750e-10,3.626875e-01
2.893750e-10,3.574688e-01
2.933750e-10,3.528438e-01
2.973750e-10,3.475938e-01
3.013750e-10,3.426875e-01
3.053750e-10,3.361563e-01
3.093750e-10,3.314063e-01
3.133750e-10,3.251563e-01
3.173750e-10,3.204844e-01
3.213750e-10,3.143750e-01
3.253750e-10,3.086250e-01
3.293750e-10,3.023594e-01
3.333750e-10,2.968906e-01
3.373750e-10,2.910313e-01
3.413750e-10,2.853125e-01
3.453750e-10,2.798281e-01
3.493750e-10,2.745625e-01
3.533750e-10,2.685000e-01
3.573750e-10,2.625469e-01
3.613750e-10,2.570000e-01
3.653750e-10,2.517188e-01
3.693750e-10,2.459219e-01
3.733750e-10,2.409531e-01
3.773750e-10,2.355938e-01
3.813750e-10,2.306875e-01
3.853750e-10,2.242656e-01
3.893750e-10,2.198750e-01
3.933750e-10,2.141094e-01
3.973750e-10,2.099375e-01
4.013750e-10,2.045469e-01
4.053750e-10,1.995156e-01
4.093750e-10,1.940469e-01
4.133750e-10,1.895469e-01
4.173750e-10,1.846563e-01
4.213750e-10,1.800000e-01
4.253750e-10,1.755469e-01
4.293750e-10,1.713438e-01
4.333750e-10,1.665313e-01
4.373750e-10,1.617969e-01
4.413750e-10,1.574063e-01
4.453750e-10,1.534219e-01
4.493750e-10,1.488438e-01
4.533750e-10,1.450625e-01
4.573750e-10,1.410469e-01
4.613750e-10,1.373594e-01
4.653750e-10,1.322344e-01
4.693750e-10,1.291719e-01
4.733750e-10,1.247500e-01
4.773750e-10,1.218906e-01
4.813750e-10,1.179219e-01
4.853750e-10,1.142031e-01
4.893750e-10,1.101250e-01
4.933750e-10,1.069844e-01
4.973750e-10,1.034688e-01
5.013750e-10,1.002344e-01
5.053750e-10,9.718750e-02
5.093750e-10,9.440625e-02
5.133750e-10,9.117188e-02
5.173750e-10,8.795313e-02
5.213750e-10,8.512500e-02
5.253750e-10,8.271875e-02
5.293750e-10,7.973438e-02
5.333750e-10,7.751563e-02
5.373750e-10,7.520313e-02
5.413750e-10,7.312500e-02
5.453750e-10,6.975000e-02
5.493750e-10,6.837500e-02
5.533750e-10,6.571875e-02
5.573750e-10,6.465625e-02
5.613750e-10,6.256250e-02
5.653750e-10,6.054688e-02
5.693750e-10,5.835938e-02
5.733750e-10,5.707813e-02
5.773750e-10,5.528125e-02
5.813750e-10,5.385938e-02
5.853750e-10,5.264063e-02
5.893750e-10,5.164063e-02
5.933750e-10,5.028125e-02
5.973750e-10,4.882813e-02
6.013750e-10,4.781250e-02
6.053750e-10,4.709375e-02
6.093750e-10,4.578125e-02
6.133750e-10,4.521875e-02
6.173750e-10,4.453125e-02
6.213750e-10,4.390625e-02
6.253750e-10,4.206250e-02
6.293750e-10,4.203125e-02
6.333750e-10,4.078125e-02
6.373750e-10,4.104688e-02
6.413750e-10,4.021875e-02
6.453750e-10,3.928125e-02
6.493750e-10,3.810938e-02
6.533750e-10,3.787500e-02
6.573750e-10,3.687500e-02
6.613750e-10,3.615625e-02
6.653750e-10,3.571875e-02
6.693750e-10,3.534375e-02
6.733750e-10,3.456250e-02
6.773750e-10,3.351563e-02
6.813750e-10,3.293750e-02
6.853750e-10,3.246875e-02
6.893750e-10,3.137500e-02
6.933750e-10,3.100000e-02
6.973750e-10,3.046875e-02
7.013750e-10,2.975000e-02
7.053750e-10,2.790625e-02
7.093750e-10,2.771875e-02
7.133750e-10,2.634375e-02
7.173750e-10,2.646875e-02
7.213750e-10,2.543750e-02
7.253750e-10,2.428125e-02
7.293750e-10,2.276563e-02
7.333750e-10,2.231250e-02
7.373750e-10,2.093750e-02
7.413750e-10,1.987500e-02
7.453750e-10,1.918750e-02
7.493750e-10,1.853125e-02
7.533750e-10,1.750000e-02
7.573750e-10,1.615625e-02
7.613750e-10,1.537500e-02
7.653750e-10,1.471875e-02
7.693750e-10,1.350000e-02
7.733750e-10,1.307813e-02
7.773750e-10,1.256250e-02
7.813750e-10,1.173438e-02
7.853750e-10,1.003125e-02
7.893750e-10,9.890625e-03
7.933750e-10,8.671875e-03
7.973750e-10,9.125000e-03
8.013750e-10,8.406250e-03
8.053750e-10,7.687500e-03
8.093750e-10,6.562500e-03
8.133750e-10,6.593750e-03
8.173750e-10,5.781250e-03
8.213750e-10,5.343750e-03
8.253750e-10,5.406250e-03
8.293750e-10,5.406250e-03
8.333750e-10,5.203125e-03
8.373750e-10,4.671875e-03
8.413750e-10,4.703125e-03
8.453750e-10,5.046875e-03
8.493750e-10,4.796875e-03
8.533750e-10,5.406250e-03
8.573750e-10,5.859375e-03
8.613750e-10,6.031250e-03
8.653750e-10,5.390625e-03
8.693750e-10,6.218750e-03
8.733750e-10,5.937500e-03
8.773750e-10,7.500000e-03
8.813750e-10,7.796875e-03
8.853750e-10,8.093750e-03
8.893750e-10,7.953125e-03
8.933750e-10,8.828125e-03
8.973750e-10,8.921875e-03
9.013750e-10,9.406250e-03
9.053750e-10,1.032813e-02
9.093750e-10,1.090625e-02
9.133750e-10,1.145313e-02
9.173750e-10,1.156250e-02
9.213750e-10,1.207813e-02
9.253750e-10,1.303125e-02
9.293750e-10,1.326563e-02
9.333750e-10,1.428125e-02
9.373750e-10,1.496875e-02
9.413750e-10,1.540625e-02
9.453750e-10,1.498438e-02
9.493750e-10,1.592188e-02
9.533750e-10,1.559375e-02
9.573750e-10,1.717188e-02
9.613750e-10,1.739063e-02
9.653750e-10,1.751563e-02
9.693750e-10,1.720313e-02
9.733750e-10,1.778125e-02
9.773750e-10,1.759375e-02
9.813750e-10,1.778125e-02
9.853750e-10,1.834375e-02
9.893750e-10,1.837500e-02
9.933750e-10,1.842188e-02
9.973750e-10,1.806250e-02
1.001375e-09,1.796875e-02
1.005375e-09,1.842188e-02
1.009375e-09,1.810938e-02
1.013375e-09,1.851563e-02
1.017375e-09,1.857813e-02
1.021375e-09,1.845313e-02
1.025375e-09,1.748438e-02
1.029375e-09,1.792188e-02
1.033375e-09,1.698438e-02
1.037375e-09,1.798438e-02
1.041375e-09,1.765625e-02
1.045375e-09,1.726563e-02
1.049375e-09,1.650000e-02
1.053375e-09,1.662500e-02
1.057375e-09,1.606250e-02
1.061375e-09,1.587500e-02
1.065375e-09,1.610938e-02
1.069375e-09,1.584375e-02
1.073375e-09,1.556250e-02
1.077375e-09,1.500000e-02
1.081375e-09,1.468750e-02
1.085375e-09,1.500000e-02
1.089375e-09,1.454688e-02
1.093375e-09,1.485938e-02
1.097375e-09,1.489063e-02
1.101375e-09,1.478125e-02
1.105375e-09,1.384375e-02
1.109375e-09,1.440625e-02
1.113375e-09,1.354688e-02
1.117375e-09,1.460938e-02
1.121375e-09,1.440625e-02
1.125375e-09,1.415625e-02
1.129375e-09,1.356250e-02
1.133375e-09,1.390625e-02
1.137375e-09,1.353125e-02
1.141375e-09,1.356250e-02
1.145375e-09,1.400000e-02
1.149375e-09,1.401563e-02
1.153375e-09,1.392188e-02
1.157375e-09,1.357813e-02
1.161375e-09,1.350000e-02
1.165375e-09,1.398438e-02
1.169375e-09,1.370313e-02
1.173375e-09,1.423438e-02
1.177375e-09,1.445313e-02
1.181375e-09,1.456250e-02
1.185375e-09,1.370313e-02
1.189375e-09,1.446875e-02
1.193375e-09,1.368750e-02
1.197375e-09,1.485938e-02
1.201375e-09,1.468750e-02
1.205375e-09,1.450000e-02
1.209375e-09,1.392188e-02
1.213375e-09,1.429688e-02
1.217375e-09,1.390625e-02
1.221375e-09,1.390625e-02
1.225375e-09,1.431250e-02
1.229375e-09,1.434375e-02
1.233375e-09,1.414063e-02
1.237375e-09,1.371875e-02
1.241375e-09,1.357813e-02
1.245375e-09,1.393750e-02
1.249375e-09,1.351563e-02
1.253375e-09,1.396875e-02
1.257375e-09,1.407813e-02
1.261375e-09,1.412500e-02
1.265375e-09,1.306250e-02
1.269375e-09,1.373438e-02
1.273375e-09,1.284375e-02
1.277375e-09,1.392188e-02
1.281375e-09,1.364063e-02
1.285375e-09,1.335938e-02
1.289375e-09,1.268750e-02
1.293375e-09,1.300000e-02
1.297375e-09,1.254688e-02
1.301375e-09,1.248438e-02
1.305375e-09,1.282813e-02
1.309375e-09,1.292188e-02
1.313375e-09,1.268750e-02
1.317375e-09,1.226563e-02
1.321375e-09,1.218750e-02
1.325375e-09,1.257813e-02
1.329375e-09,1.218750e-02
1.333375e-09,1.273438e-02
1.337375e-09,1.293750e-02
1.341375e-09,1.309375e-02
1.345375e-09,1.206250e-02
1.349375e-09,1.287500e-02
1.353375e-09,1.210938e-02
1.357375e-09,1.331250e-02
1.361375e-09,1.317188e-02
1.365375e-09,1.303125e-02
1.369375e-09,1.248438e-02
1.373375e-09,1.293750e-02
1.377375e-09,1.262500e-02
1.381375e-09,1.268750e-02
1.385375e-09,1.317188e-02
1.389375e-09,1.340625e-02
1.393375e-09,1.328125e-02
1.397375e-09,1.295313e-02
1.401375e-09,1.298438e-02
1.405375e-09,1.345313e-02
1.409375e-09,1.310938e-02
1.413375e-09,1.373438e-02
1.417375e-09,1.396875e-02
1.421375e-09,1.417188e-02
1.425375e-09,1.306250e-02
1.429375e-09,1.385938e-02
1.433375e-09,1.306250e-02
1.437375e-09,1.423438e-02
1.441375e-09,1.401563e-02
1.445375e-09,1.376563e-02
1.449375e-09,1.312500e-02
1.453375e-09,1.345313e-02
1.457375e-09,1.298438e-02
1.461375e-09,1.289063e-02
1.465375e-09,1.318750e-02
1.469375e-09,1.326563e-02
1.473375e-09,1.293750e-02
1.477375e-09,1.240625e-02
1.481375e-09,1.225000e-02
1.485375e-09,1.248438e-02
1.489375e-09,1.192188e-02
1.493375e-09,1.234375e-02
1.497375e-09,1.234375e-02
1.501375e-09,1.235938e-02
1.505375e-09,1.098438e-02
1.509375e-09,1.159375e-02
1.513375e-09,1.059375e-02
1.517375e-09,1.157813e-02
1.521375e-09,1.117188e-02
1.525375e-09,1.076563e-02
1.529375e-09,9.968750e-03
1.533375e-09,1.017188e-02
1.537375e-09,9.578125e-03
1.541375e-09,9.390625e-03
1.545375e-09,9.609375e-03
1.549375e-09,9.625000e-03
1.553375e-09,9.265625e-03
1.557375e-09,8.703125e-03
1.561375e-09,8.562500e-03
1.565375e-09,8.828125e-03
1.569375e-09,8.296875e-03
1.573375e-09,8.781250e-03
1.577375e-09,8.890625e-03
1.581375e-09,9.000000e-03
1.585375e-09,7.734375e-03
1.589375e-09,8.484375e-03
1.593375e-09,7.640625e-03
1.597375e-09,8.796875e-03
1.601375e-09,8.578125e-03
1.605375e-09,8.359375e-03
1.609375e-09,7.765625e-03
1.613375e-09,8.187500e-03
1.617375e-09,7.796875e-03
1.621375e-09,7.828125e-03
1.625375e-09,8.265625e-03
1.629375e-09,8.531250e-03
1.633375e-09,8.375000e-03
1.637375e-09,8.031250e-03
1.641375e-09,8.109375e-03
1.645375e-09,8.578125e-03
1.649375e-09,8.250000e-03
1.653375e-09,8.906250e-03
1.657375e-09,9.187500e-03
1.661375e-09,9.453125e-03
1.665375e-09,8.328125e-03
1.669375e-09,9.203125e-03
1.673375e-09,8.468750e-03
1.677375e-09,9.718750e-03
1.681375e-09,9.578125e-03
1.685375e-09,9.421875e-03
1.689375e-09,8.843750e-03
1.693375e-09,9.281250e-03
1.697375e-09,8.906250e-03
1.701375e-09,8.906250e-03
1.705375e-09,9.312500e-03
1.709375e-09,9.500000e-03
1.713375e-09,9.296875e-03
1.717375e-09,8.859375e-03
1.721375e-09,8.828125e-03
1.725375e-09,9.187500e-03
1.729375e-09,8.734375e-03
1.733375e-09,9.265625e-03
1.737375e-09,9.390625e-03
1.741375e-09,9.515625e-03
1.745375e-09,8.218750e-03
1.749375e-09,8.921875e-03
1.753375e-09,8.031250e-03
1.757375e-09,9.125000e-03
