Measurements-streak-laser-independent/Photodiode-on-Tek-12bit-4GHz/Tek000_ch1_20190613132953852.csv

Model,MSO64
Waveform Type,ANALOG
Horizontal Units,s
Sample Interval,4.000000e-12
Record Length,1000
Zero Index,310.187500
Vertical Units,V

TIME,CH1
-1.240750e-09,8.078125e-03
-1.236750e-09,8.234375e-03
-1.232750e-09,8.781250e-03
-1.228750e-09,8.546875e-03
-1.224750e-09,9.296875e-03
-1.220750e-09,9.640625e-03
-1.216750e-09,9.984375e-03
-1.212750e-09,8.906250e-03
-1.208750e-09,9.843750e-03
-1.204750e-09,9.156250e-03
-1.200750e-09,1.046875e-02
-1.196750e-09,1.035938e-02
-1.192750e-09,1.025000e-02
-1.188750e-09,9.703125e-03
-1.184750e-09,1.017188e-02
-1.180750e-09,9.796875e-03
-1.176750e-09,9.828125e-03
-1.172750e-09,1.025000e-02
-1.168750e-09,1.043750e-02
-1.164750e-09,1.021875e-02
-1.160750e-09,9.765625e-03
-1.156750e-09,9.703125e-03
-1.152750e-09,1.003125e-02
-1.148750e-09,9.531250e-03
-1.144750e-09,1.001563e-02
-1.140750e-09,1.009375e-02
-1.136750e-09,1.014063e-02
-1.132750e-09,8.750000e-03
-1.128750e-09,9.375000e-03
-1.124750e-09,8.359375e-03
-1.120750e-09,9.359375e-03
-1.116750e-09,8.937500e-03
-1.112750e-09,8.484375e-03
-1.108750e-09,7.625000e-03
-1.104750e-09,7.750000e-03
-1.100750e-09,7.078125e-03
-1.096750e-09,6.796875e-03
-1.092750e-09,6.906250e-03
-1.088750e-09,6.812500e-03
-1.084750e-09,6.312500e-03
-1.080750e-09,5.609375e-03
-1.076750e-09,5.312500e-03
-1.072750e-09,5.421875e-03
-1.068750e-09,4.718750e-03
-1.064750e-09,5.031250e-03
-1.060750e-09,4.953125e-03
-1.056750e-09,4.875000e-03
-1.052750e-09,3.390625e-03
-1.048750e-09,3.937500e-03
-1.044750e-09,2.890625e-03
-1.040750e-09,3.875000e-03
-1.036750e-09,3.468750e-03
-1.032750e-09,3.062500e-03
-1.028750e-09,2.281250e-03
-1.024750e-09,2.515625e-03
-1.020750e-09,1.968750e-03
-1.016750e-09,1.859375e-03
-1.012750e-09,2.156250e-03
-1.008750e-09,2.281250e-03
-1.004750e-09,2.015625e-03
-1.000750e-09,1.578125e-03
-9.967500e-10,1.562500e-03
-9.927500e-10,1.984375e-03
-9.887500e-10,1.609375e-03
-9.847500e-10,2.265625e-03
-9.807500e-10,2.546875e-03
-9.767500e-10,2.843750e-03
-9.727500e-10,1.750000e-03
-9.687500e-10,2.687500e-03
-9.647500e-10,2.031250e-03
-9.607500e-10,3.390625e-03
-9.567500e-10,3.375000e-03
-9.527500e-10,3.375000e-03
-9.487500e-10,2.984375e-03
-9.447500e-10,3.609375e-03
-9.407500e-10,3.437500e-03
-9.367500e-10,3.687500e-03
-9.327500e-10,4.343750e-03
-9.287500e-10,4.796875e-03
-9.247500e-10,4.859375e-03
-9.207500e-10,4.718750e-03
-9.167500e-10,4.968750e-03
-9.127500e-10,5.640625e-03
-9.087500e-10,5.500000e-03
-9.047500e-10,6.359375e-03
-9.007500e-10,6.812500e-03
-8.967500e-10,7.250000e-03
-8.927500e-10,6.296875e-03
-8.887500e-10,7.328125e-03
-8.847500e-10,6.734375e-03
-8.807500e-10,8.093750e-03
-8.767500e-10,8.093750e-03
-8.727500e-10,8.062500e-03
-8.687500e-10,7.640625e-03
-8.647500e-10,8.171875e-03
-8.607500e-10,7.890625e-03
-8.567500e-10,8.015625e-03
-8.527500e-10,8.515625e-03
-8.487500e-10,8.781250e-03
-8.447500e-10,8.656250e-03
-8.407500e-10,8.281250e-03
-8.367500e-10,8.296875e-03
-8.327500e-10,8.703125e-03
-8.287500e-10,8.281250e-03
-8.247500e-10,8.859375e-03
-8.207500e-10,9.000000e-03
-8.167500e-10,9.125000e-03
-8.127500e-10,7.859375e-03
-8.087500e-10,8.578125e-03
-8.047500e-10,7.656250e-03
-8.007500e-10,8.656250e-03
-7.967500e-10,8.343750e-03
-7.927500e-10,8.000000e-03
-7.887500e-10,7.265625e-03
-7.847500e-10,7.484375e-03
-7.807500e-10,6.890625e-03
-7.767500e-10,6.734375e-03
-7.727500e-10,6.937500e-03
-7.687500e-10,6.937500e-03
-7.647500e-10,6.578125e-03
-7.607500e-10,5.968750e-03
-7.567500e-10,5.750000e-03
-7.527500e-10,5.937500e-03
-7.487500e-10,5.343750e-03
-7.447500e-10,5.734375e-03
-7.407500e-10,5.750000e-03
-7.367500e-10,5.750000e-03
-7.327500e-10,4.390625e-03
-7.287500e-10,5.015625e-03
-7.247500e-10,4.062500e-03
-7.207500e-10,5.000000e-03
-7.167500e-10,4.687500e-03
-7.127500e-10,4.359375e-03
-7.087500e-10,3.656250e-03
-7.047500e-10,3.906250e-03
-7.007500e-10,3.359375e-03
-6.967500e-10,3.312500e-03
-6.927500e-10,3.625000e-03
-6.887500e-10,3.718750e-03
-6.847500e-10,3.546875e-03
-6.807500e-10,3.078125e-03
-6.767500e-10,3.015625e-03
-6.727500e-10,3.375000e-03
-6.687500e-10,2.984375e-03
-6.647500e-10,3.578125e-03
-6.607500e-10,3.796875e-03
-6.567500e-10,4.015625e-03
-6.527500e-10,2.843750e-03
-6.487500e-10,3.718750e-03
-6.447500e-10,3.031250e-03
-6.407500e-10,4.187500e-03
-6.367500e-10,4.125000e-03
-6.327500e-10,4.031250e-03
-6.287500e-10,3.578125e-03
-6.247500e-10,4.046875e-03
-6.207500e-10,3.718750e-03
-6.167500e-10,3.906250e-03
-6.127500e-10,4.437500e-03
-6.087500e-10,4.734375e-03
-6.047500e-10,4.796875e-03
-6.007500e-10,4.531250e-03
-5.967500e-10,4.671875e-03
-5.927500e-10,5.218750e-03
-5.887500e-10,5.000000e-03
-5.847500e-10,5.765625e-03
-5.807500e-10,6.140625e-03
-5.767500e-10,6.484375e-03
-5.727500e-10,5.421875e-03
-5.687500e-10,6.406250e-03
-5.647500e-10,5.843750e-03
-5.607500e-10,7.093750e-03
-5.567500e-10,7.140625e-03
-5.527500e-10,7.109375e-03
-5.487500e-10,6.703125e-03
-5.447500e-10,7.203125e-03
-5.407500e-10,6.921875e-03
-5.367500e-10,7.109375e-03
-5.327500e-10,7.656250e-03
-5.287500e-10,7.921875e-03
-5.247500e-10,7.937500e-03
-5.207500e-10,7.640625e-03
-5.167500e-10,7.750000e-03
-5.127500e-10,8.250000e-03
-5.087500e-10,7.968750e-03
-5.047500e-10,8.656250e-03
-5.007500e-10,8.921875e-03
-4.967500e-10,9.156250e-03
-4.927500e-10,8.000000e-03
-4.887500e-10,8.828125e-03
-4.847500e-10,8.156250e-03
-4.807500e-10,9.281250e-03
-4.767500e-10,9.203125e-03
-4.727500e-10,8.984375e-03
-4.687500e-10,8.421875e-03
-4.647500e-10,8.765625e-03
-4.607500e-10,8.359375e-03
-4.567500e-10,8.328125e-03
-4.527500e-10,8.718750e-03
-4.487500e-10,8.812500e-03
-4.447500e-10,8.609375e-03
-4.407500e-10,8.156250e-03
-4.367500e-10,8.109375e-03
-4.327500e-10,8.468750e-03
-4.287500e-10,7.968750e-03
-4.247500e-10,8.515625e-03
-4.207500e-10,8.609375e-03
-4.167500e-10,8.703125e-03
-4.127500e-10,7.406250e-03
-4.087500e-10,8.046875e-03
-4.047500e-10,7.234375e-03
-4.007500e-10,8.234375e-03
-3.967500e-10,8.031250e-03
-3.927500e-10,7.687500e-03
-3.887500e-10,7.015625e-03
-3.847500e-10,7.296875e-03
-3.807500e-10,6.828125e-03
-3.767500e-10,6.687500e-03
-3.727500e-10,7.031250e-03
-3.687500e-10,7.078125e-03
-3.647500e-10,6.781250e-03
-3.607500e-10,6.328125e-03
-3.567500e-10,6.296875e-03
-3.527500e-10,6.656250e-03
-3.487500e-10,6.156250e-03
-3.447500e-10,6.703125e-03
-3.407500e-10,6.859375e-03
-3.367500e-10,6.984375e-03
-3.327500e-10,5.765625e-03
-3.287500e-10,6.437500e-03
-3.247500e-10,5.687500e-03
-3.207500e-10,6.781250e-03
-3.167500e-10,6.640625e-03
-3.127500e-10,6.390625e-03
-3.087500e-10,5.843750e-03
-3.047500e-10,6.234375e-03
-3.007500e-10,5.875000e-03
-2.967500e-10,5.843750e-03
-2.927500e-10,6.265625e-03
-2.887500e-10,6.421875e-03
-2.847500e-10,6.218750e-03
-2.807500e-10,5.890625e-03
-2.767500e-10,5.937500e-03
-2.727500e-10,6.375000e-03
-2.687500e-10,5.968750e-03
-2.647500e-10,6.562500e-03
-2.607500e-10,6.812500e-03
-2.567500e-10,6.984375e-03
-2.527500e-10,5.843750e-03
-2.487500e-10,6.562500e-03
-2.447500e-10,5.796875e-03
-2.407500e-10,6.906250e-03
-2.367500e-10,6.750000e-03
-2.327500e-10,6.500000e-03
-2.287500e-10,5.953125e-03
-2.247500e-10,6.296875e-03
-2.207500e-10,5.875000e-03
-2.167500e-10,5.796875e-03
-2.127500e-10,6.125000e-03
-2.087500e-10,6.218750e-03
-2.047500e-10,5.921875e-03
-2.007500e-10,5.515625e-03
-1.967500e-10,5.437500e-03
-1.927500e-10,5.750000e-03
-1.887500e-10,5.250000e-03
-1.847500e-10,5.750000e-03
-1.807500e-10,5.875000e-03
-1.767500e-10,5.968750e-03
-1.727500e-10,4.765625e-03
-1.687500e-10,5.406250e-03
-1.647500e-10,4.562500e-03
-1.607500e-10,5.671875e-03
-1.567500e-10,5.453125e-03
-1.527500e-10,5.234375e-03
-1.487500e-10,4.718750e-03
-1.447500e-10,5.140625e-03
-1.407500e-10,4.812500e-03
-1.367500e-10,4.890625e-03
-1.327500e-10,5.375000e-03
-1.287500e-10,5.687500e-03
-1.247500e-10,5.671875e-03
-1.207500e-10,5.593750e-03
-1.167500e-10,5.875000e-03
-1.127500e-10,6.562500e-03
-1.087500e-10,6.578125e-03
-1.047500e-10,7.609375e-03
-1.007500e-10,8.328125e-03
-9.675000e-11,9.109375e-03
-9.275000e-11,8.656250e-03
-8.875000e-11,1.010938e-02
-8.475000e-11,1.009375e-02
-8.075000e-11,1.215625e-02
-7.675000e-11,1.290625e-02
-7.275000e-11,1.375000e-02
-6.875000e-11,1.437500e-02
-6.475000e-11,1.596875e-02
-6.075000e-11,1.689063e-02
-5.675000e-11,1.828125e-02
-5.275000e-11,2.014063e-02
-4.875000e-11,2.192188e-02
-4.475000e-11,2.334375e-02
-4.075000e-11,2.479688e-02
-3.675000e-11,2.664063e-02
-3.275000e-11,2.890625e-02
-2.875000e-11,3.054688e-02
-2.475000e-11,3.326563e-02
-2.075000e-11,3.565625e-02
-1.675000e-11,3.818750e-02
-1.275000e-11,3.946875e-02
-8.750000e-12,4.265625e-02
-4.750000e-12,4.437500e-02
-7.500000e-13,4.817188e-02
3.250000e-12,5.059375e-02
7.250000e-12,5.317188e-02
1.125000e-11,5.545313e-02
1.525000e-11,5.868750e-02
1.925000e-11,6.121875e-02
2.325000e-11,6.415625e-02
2.725000e-11,6.753125e-02
3.125000e-11,7.079688e-02
3.525000e-11,7.357813e-02
3.925000e-11,7.634375e-02
4.325000e-11,7.942188e-02
4.725000e-11,8.282813e-02
5.125000e-11,8.556250e-02
5.525000e-11,8.926563e-02
5.925000e-11,9.253125e-02
6.325000e-11,9.587500e-02
6.725000e-11,9.782813e-02
7.125000e-11,1.015938e-01
7.525000e-11,1.037813e-01
7.925000e-11,1.079219e-01
8.325000e-11,1.105625e-01
8.725000e-11,1.132813e-01
9.125000e-11,1.155313e-01
9.525000e-11,1.186250e-01
9.925000e-11,1.209219e-01
1.032500e-10,1.235000e-01
1.072500e-10,1.263906e-01
1.112500e-10,1.290938e-01
1.152500e-10,1.311406e-01
1.192500e-10,1.330313e-01
1.232500e-10,1.351875e-01
1.272500e-10,1.375313e-01
1.312500e-10,1.391250e-01
1.352500e-10,1.415469e-01
1.392500e-10,1.434063e-01
1.432500e-10,1.452969e-01
1.472500e-10,1.456719e-01
1.512500e-10,1.477969e-01
1.552500e-10,1.482656e-01
1.592500e-10,1.505625e-01
1.632500e-10,1.512813e-01
1.672500e-10,1.520469e-01
1.712500e-10,1.522656e-01
1.752500e-10,1.532344e-01
1.792500e-10,1.534219e-01
1.832500e-10,1.537969e-01
1.872500e-10,1.544375e-01
1.912500e-10,1.548906e-01
1.952500e-10,1.546094e-01
1.992500e-10,1.541563e-01
2.032500e-10,1.539531e-01
2.072500e-10,1.539531e-01
2.112500e-10,1.531719e-01
2.152500e-10,1.531719e-01
2.192500e-10,1.526250e-01
2.232500e-10,1.521250e-01
2.272500e-10,1.500781e-01
2.312500e-10,1.498438e-01
2.352500e-10,1.479688e-01
2.392500e-10,1.479063e-01
2.432500e-10,1.463125e-01
2.472500e-10,1.447656e-01
2.512500e-10,1.427031e-01
2.552500e-10,1.414688e-01
2.592500e-10,1.394844e-01
2.632500e-10,1.377344e-01
2.672500e-10,1.362500e-01
2.712500e-10,1.346250e-01
2.752500e-10,1.323594e-01
2.792500e-10,1.299375e-01
2.832500e-10,1.278281e-01
2.872500e-10,1.260000e-01
2.912500e-10,1.234219e-01
2.952500e-10,1.216875e-01
2.992500e-10,1.194844e-01
3.032500e-10,1.173906e-01
3.072500e-10,1.137813e-01
3.112500e-10,1.121250e-01
3.152500e-10,1.088750e-01
3.192500e-10,1.074688e-01
3.232500e-10,1.046250e-01
3.272500e-10,1.019063e-01
3.312500e-10,9.873438e-02
3.352500e-10,9.650000e-02
3.392500e-10,9.359375e-02
3.432500e-10,9.100000e-02
3.472500e-10,8.871875e-02
3.512500e-10,8.639063e-02
3.552500e-10,8.353125e-02
3.592500e-10,8.057813e-02
3.632500e-10,7.803125e-02
3.672500e-10,7.585938e-02
3.712500e-10,7.296875e-02
3.752500e-10,7.103125e-02
3.792500e-10,6.873438e-02
3.832500e-10,6.660938e-02
3.872500e-10,6.306250e-02
3.912500e-10,6.156250e-02
3.952500e-10,5.856250e-02
3.992500e-10,5.745313e-02
4.032500e-10,5.503125e-02
4.072500e-10,5.278125e-02
4.112500e-10,5.015625e-02
4.152500e-10,4.856250e-02
4.192500e-10,4.635938e-02
4.232500e-10,4.454688e-02
4.272500e-10,4.309375e-02
4.312500e-10,4.165625e-02
4.352500e-10,3.982813e-02
4.392500e-10,3.793750e-02
4.432500e-10,3.646875e-02
4.472500e-10,3.546875e-02
4.512500e-10,3.376563e-02
4.552500e-10,3.306250e-02
4.592500e-10,3.207813e-02
4.632500e-10,3.125000e-02
4.672500e-10,2.906250e-02
4.712500e-10,2.895313e-02
4.752500e-10,2.737500e-02
4.792500e-10,2.768750e-02
4.832500e-10,2.676563e-02
4.872500e-10,2.592188e-02
4.912500e-10,2.476563e-02
4.952500e-10,2.462500e-02
4.992500e-10,2.382813e-02
5.032500e-10,2.343750e-02
5.072500e-10,2.339063e-02
5.112500e-10,2.332813e-02
5.152500e-10,2.287500e-02
5.192500e-10,2.231250e-02
5.232500e-10,2.214063e-02
5.272500e-10,2.237500e-02
5.312500e-10,2.187500e-02
5.352500e-10,2.229688e-02
5.392500e-10,2.243750e-02
5.432500e-10,2.260938e-02
5.472500e-10,2.140625e-02
5.512500e-10,2.218750e-02
5.552500e-10,2.146875e-02
5.592500e-10,2.257813e-02
5.632500e-10,2.239063e-02
5.672500e-10,2.217188e-02
5.712500e-10,2.159375e-02
5.752500e-10,2.198438e-02
5.792500e-10,2.157813e-02
5.832500e-10,2.153125e-02
5.872500e-10,2.179688e-02
5.912500e-10,2.196875e-02
5.952500e-10,2.170313e-02
5.992500e-10,2.121875e-02
6.032500e-10,2.110938e-02
6.072500e-10,2.131250e-02
6.112500e-10,2.075000e-02
6.152500e-10,2.106250e-02
6.192500e-10,2.104688e-02
6.232500e-10,2.096875e-02
6.272500e-10,1.953125e-02
6.312500e-10,2.000000e-02
6.352500e-10,1.896875e-02
6.392500e-10,1.975000e-02
6.432500e-10,1.920313e-02
6.472500e-10,1.859375e-02
6.512500e-10,1.759375e-02
6.552500e-10,1.759375e-02
6.592500e-10,1.675000e-02
6.632500e-10,1.626563e-02
6.672500e-10,1.614063e-02
6.712500e-10,1.592188e-02
6.752500e-10,1.528125e-02
6.792500e-10,1.440625e-02
6.832500e-10,1.398438e-02
6.872500e-10,1.384375e-02
6.912500e-10,1.300000e-02
6.952500e-10,1.306250e-02
6.992500e-10,1.282813e-02
7.032500e-10,1.251563e-02
7.072500e-10,1.095313e-02
7.112500e-10,1.128125e-02
7.152500e-10,1.017188e-02
7.192500e-10,1.093750e-02
7.232500e-10,1.039063e-02
7.272500e-10,9.843750e-03
7.312500e-10,8.921875e-03
7.352500e-10,9.046875e-03
7.392500e-10,8.359375e-03
7.432500e-10,8.062500e-03
7.472500e-10,8.203125e-03
7.512500e-10,8.218750e-03
7.552500e-10,7.906250e-03
7.592500e-10,7.328125e-03
7.632500e-10,7.265625e-03
7.672500e-10,7.515625e-03
7.712500e-10,7.078125e-03
7.752500e-10,7.578125e-03
7.792500e-10,7.781250e-03
7.832500e-10,7.890625e-03
7.872500e-10,6.796875e-03
7.912500e-10,7.531250e-03
7.952500e-10,6.859375e-03
7.992500e-10,8.093750e-03
8.032500e-10,8.000000e-03
8.072500e-10,7.890625e-03
8.112500e-10,7.359375e-03
8.152500e-10,7.875000e-03
8.192500e-10,7.562500e-03
8.232500e-10,7.640625e-03
8.272500e-10,8.140625e-03
8.312500e-10,8.406250e-03
8.352500e-10,8.375000e-03
8.392500e-10,8.046875e-03
8.432500e-10,8.156250e-03
8.472500e-10,8.625000e-03
8.512500e-10,8.328125e-03
8.552500e-10,8.968750e-03
8.592500e-10,9.234375e-03
8.632500e-10,9.375000e-03
8.672500e-10,8.296875e-03
8.712500e-10,9.000000e-03
8.752500e-10,8.234375e-03
8.792500e-10,9.421875e-03
8.832500e-10,9.203125e-03
8.872500e-10,8.953125e-03
8.912500e-10,8.265625e-03
8.952500e-10,8.562500e-03
8.992500e-10,8.062500e-03
9.032500e-10,7.921875e-03
9.072500e-10,8.187500e-03
9.112500e-10,8.156250e-03
9.152500e-10,7.859375e-03
9.192500e-10,7.281250e-03
9.232500e-10,7.062500e-03
9.272500e-10,7.296875e-03
9.312500e-10,6.734375e-03
9.352500e-10,7.093750e-03
9.392500e-10,7.078125e-03
9.432500e-10,6.984375e-03
9.472500e-10,5.703125e-03
9.512500e-10,6.203125e-03
9.552500e-10,5.203125e-03
9.592500e-10,6.218750e-03
9.632500e-10,5.843750e-03
9.672500e-10,5.453125e-03
9.712500e-10,4.687500e-03
9.752500e-10,4.890625e-03
9.792500e-10,4.343750e-03
9.832500e-10,4.218750e-03
9.872500e-10,4.515625e-03
9.912500e-10,4.500000e-03
9.952500e-10,4.250000e-03
9.992500e-10,3.781250e-03
1.003250e-09,3.671875e-03
1.007250e-09,4.078125e-03
1.011250e-09,3.703125e-03
1.015250e-09,4.250000e-03
1.019250e-09,4.468750e-03
1.023250e-09,4.640625e-03
1.027250e-09,3.625000e-03
1.031250e-09,4.437500e-03
1.035250e-09,3.734375e-03
1.039250e-09,5.031250e-03
1.043250e-09,4.984375e-03
1.047250e-09,4.921875e-03
1.051250e-09,4.500000e-03
1.055250e-09,5.046875e-03
1.059250e-09,4.828125e-03
1.063250e-09,5.046875e-03
1.067250e-09,5.656250e-03
1.071250e-09,5.968750e-03
1.075250e-09,6.015625e-03
1.079250e-09,5.843750e-03
1.083250e-09,6.000000e-03
1.087250e-09,6.656250e-03
1.091250e-09,6.500000e-03
1.095250e-09,7.265625e-03
1.099250e-09,7.656250e-03
1.103250e-09,8.000000e-03
1.107250e-09,7.109375e-03
1.111250e-09,8.062500e-03
1.115250e-09,7.437500e-03
1.119250e-09,8.781250e-03
1.123250e-09,8.750000e-03
1.127250e-09,8.671875e-03
1.131250e-09,8.203125e-03
1.135250e-09,8.703125e-03
1.139250e-09,8.390625e-03
1.143250e-09,8.468750e-03
1.147250e-09,8.937500e-03
1.151250e-09,9.125000e-03
1.155250e-09,8.968750e-03
1.159250e-09,8.578125e-03
1.163250e-09,8.531250e-03
1.167250e-09,8.921875e-03
1.171250e-09,8.500000e-03
1.175250e-09,9.015625e-03
1.179250e-09,9.140625e-03
1.183250e-09,9.218750e-03
1.187250e-09,8.015625e-03
1.191250e-09,8.703125e-03
1.195250e-09,7.781250e-03
1.199250e-09,8.843750e-03
1.203250e-09,8.515625e-03
1.207250e-09,8.171875e-03
1.211250e-09,7.437500e-03
1.215250e-09,7.703125e-03
1.219250e-09,7.156250e-03
1.223250e-09,7.015625e-03
1.227250e-09,7.281250e-03
1.231250e-09,7.312500e-03
1.235250e-09,7.000000e-03
1.239250e-09,6.468750e-03
1.243250e-09,6.328125e-03
1.247250e-09,6.625000e-03
1.251250e-09,6.125000e-03
1.255250e-09,6.625000e-03
1.259250e-09,6.734375e-03
1.263250e-09,6.843750e-03
1.267250e-09,5.640625e-03
1.271250e-09,6.390625e-03
1.275250e-09,5.562500e-03
1.279250e-09,6.734375e-03
1.283250e-09,6.531250e-03
1.287250e-09,6.343750e-03
1.291250e-09,5.765625e-03
1.295250e-09,6.203125e-03
1.299250e-09,5.859375e-03
1.303250e-09,5.921875e-03
1.307250e-09,6.406250e-03
1.311250e-09,6.687500e-03
1.315250e-09,6.593750e-03
1.319250e-09,6.296875e-03
1.323250e-09,6.406250e-03
1.327250e-09,6.953125e-03
1.331250e-09,6.687500e-03
1.335250e-09,7.421875e-03
1.339250e-09,7.781250e-03
1.343250e-09,8.125000e-03
1.347250e-09,7.109375e-03
1.351250e-09,8.062500e-03
1.355250e-09,7.406250e-03
1.359250e-09,8.781250e-03
1.363250e-09,8.734375e-03
1.367250e-09,8.687500e-03
1.371250e-09,8.234375e-03
1.375250e-09,8.781250e-03
1.379250e-09,8.515625e-03
1.383250e-09,8.640625e-03
1.387250e-09,9.171875e-03
1.391250e-09,9.484375e-03
1.395250e-09,9.390625e-03
1.399250e-09,9.078125e-03
1.403250e-09,9.156250e-03
1.407250e-09,9.640625e-03
1.411250e-09,9.296875e-03
1.415250e-09,9.953125e-03
1.419250e-09,1.018750e-02
1.423250e-09,1.040625e-02
1.427250e-09,9.218750e-03
1.431250e-09,1.003125e-02
1.435250e-09,9.203125e-03
1.439250e-09,1.039063e-02
1.443250e-09,1.014063e-02
1.447250e-09,9.890625e-03
1.451250e-09,9.218750e-03
1.455250e-09,9.546875e-03
1.459250e-09,9.062500e-03
1.463250e-09,8.968750e-03
1.467250e-09,9.265625e-03
1.471250e-09,9.343750e-03
1.475250e-09,9.031250e-03
1.479250e-09,8.500000e-03
1.483250e-09,8.343750e-03
1.487250e-09,8.609375e-03
1.491250e-09,8.062500e-03
1.495250e-09,8.500000e-03
1.499250e-09,8.546875e-03
1.503250e-09,8.578125e-03
1.507250e-09,7.203125e-03
1.511250e-09,7.843750e-03
1.515250e-09,6.859375e-03
1.519250e-09,7.890625e-03
1.523250e-09,7.515625e-03
1.527250e-09,7.140625e-03
1.531250e-09,6.359375e-03
1.535250e-09,6.578125e-03
1.539250e-09,6.000000e-03
1.543250e-09,5.828125e-03
1.547250e-09,6.062500e-03
1.551250e-09,6.078125e-03
1.555250e-09,5.703125e-03
1.559250e-09,5.140625e-03
1.563250e-09,4.968750e-03
1.567250e-09,5.203125e-03
1.571250e-09,4.640625e-03
1.575250e-09,5.078125e-03
1.579250e-09,5.125000e-03
1.583250e-09,5.171875e-03
1.587250e-09,3.828125e-03
1.591250e-09,4.484375e-03
1.595250e-09,3.531250e-03
1.599250e-09,4.593750e-03
1.603250e-09,4.265625e-03
1.607250e-09,3.921875e-03
1.611250e-09,3.187500e-03
1.615250e-09,3.484375e-03
1.619250e-09,2.953125e-03
1.623250e-09,2.843750e-03
1.627250e-09,3.140625e-03
1.631250e-09,3.250000e-03
1.635250e-09,2.953125e-03
1.639250e-09,2.453125e-03
1.643250e-09,2.375000e-03
1.647250e-09,2.703125e-03
1.651250e-09,2.234375e-03
1.655250e-09,2.781250e-03
1.659250e-09,2.937500e-03
1.663250e-09,3.093750e-03
1.667250e-09,1.859375e-03
1.671250e-09,2.640625e-03
1.675250e-09,1.828125e-03
1.679250e-09,3.031250e-03
1.683250e-09,2.843750e-03
1.687250e-09,2.656250e-03
1.691250e-09,2.093750e-03
1.695250e-09,2.531250e-03
1.699250e-09,2.187500e-03
1.703250e-09,2.250000e-03
1.707250e-09,2.750000e-03
1.711250e-09,3.031250e-03
1.715250e-09,2.937500e-03
1.719250e-09,2.656250e-03
1.723250e-09,2.781250e-03
1.727250e-09,3.328125e-03
1.731250e-09,3.078125e-03
1.735250e-09,3.843750e-03
1.739250e-09,4.234375e-03
1.743250e-09,4.625000e-03
1.747250e-09,3.609375e-03
1.751250e-09,4.625000e-03
1.755250e-09,4.031250e-03
1.759250e-09,5.453125e-03
