Measurements-streak-laser-independent/Photodiode-on-Tek-12bit-4GHz/Tek000_ch1_20190613132927477.csv

Model,MSO64
Waveform Type,ANALOG
Horizontal Units,s
Sample Interval,4.000000e-12
Record Length,1000
Zero Index,310.531250
Vertical Units,V

TIME,CH1
-1.242125e-09,5.750000e-03
-1.238125e-09,5.125000e-03
-1.234125e-09,5.515625e-03
-1.230125e-09,5.093750e-03
-1.226125e-09,5.078125e-03
-1.222125e-09,5.468750e-03
-1.218125e-09,5.656250e-03
-1.214125e-09,5.453125e-03
-1.210125e-09,5.031250e-03
-1.206125e-09,5.015625e-03
-1.202125e-09,5.421875e-03
-1.198125e-09,5.000000e-03
-1.194125e-09,5.593750e-03
-1.190125e-09,5.796875e-03
-1.186125e-09,6.000000e-03
-1.182125e-09,4.765625e-03
-1.178125e-09,5.578125e-03
-1.174125e-09,4.765625e-03
-1.170125e-09,5.984375e-03
-1.166125e-09,5.781250e-03
-1.162125e-09,5.578125e-03
-1.158125e-09,4.968750e-03
-1.154125e-09,5.375000e-03
-1.150125e-09,4.968750e-03
-1.146125e-09,4.968750e-03
-1.142125e-09,5.375000e-03
-1.138125e-09,5.578125e-03
-1.134125e-09,5.375000e-03
-1.130125e-09,4.968750e-03
-1.126125e-09,4.968750e-03
-1.122125e-09,5.375000e-03
-1.118125e-09,4.968750e-03
-1.114125e-09,5.562500e-03
-1.110125e-09,5.765625e-03
-1.106125e-09,5.953125e-03
-1.102125e-09,4.734375e-03
-1.098125e-09,5.531250e-03
-1.094125e-09,4.703125e-03
-1.090125e-09,5.906250e-03
-1.086125e-09,5.671875e-03
-1.082125e-09,5.453125e-03
-1.078125e-09,4.812500e-03
-1.074125e-09,5.187500e-03
-1.070125e-09,4.750000e-03
-1.066125e-09,4.703125e-03
-1.062125e-09,5.078125e-03
-1.058125e-09,5.234375e-03
-1.054125e-09,4.968750e-03
-1.050125e-09,4.515625e-03
-1.046125e-09,4.468750e-03
-1.042125e-09,4.812500e-03
-1.038125e-09,4.343750e-03
-1.034125e-09,4.890625e-03
-1.030125e-09,5.015625e-03
-1.026125e-09,5.156250e-03
-1.022125e-09,3.875000e-03
-1.018125e-09,4.609375e-03
-1.014125e-09,3.718750e-03
-1.010125e-09,4.859375e-03
-1.006125e-09,4.593750e-03
-1.002125e-09,4.312500e-03
-9.981250e-10,3.640625e-03
-9.941250e-10,3.984375e-03
-9.901250e-10,3.515625e-03
-9.861250e-10,3.453125e-03
-9.821250e-10,3.796875e-03
-9.781250e-10,3.953125e-03
-9.741250e-10,3.703125e-03
-9.701250e-10,3.250000e-03
-9.661250e-10,3.218750e-03
-9.621250e-10,3.593750e-03
-9.581250e-10,3.171875e-03
-9.541250e-10,3.765625e-03
-9.501250e-10,3.968750e-03
-9.461250e-10,4.171875e-03
-9.421250e-10,2.984375e-03
-9.381250e-10,3.812500e-03
-9.341250e-10,3.031250e-03
-9.301250e-10,4.265625e-03
-9.261250e-10,4.109375e-03
-9.221250e-10,3.968750e-03
-9.181250e-10,3.437500e-03
-9.141250e-10,3.937500e-03
-9.101250e-10,3.609375e-03
-9.061250e-10,3.718750e-03
-9.021250e-10,4.234375e-03
-8.981250e-10,4.546875e-03
-8.941250e-10,4.468750e-03
-8.901250e-10,4.187500e-03
-8.861250e-10,4.328125e-03
-8.821250e-10,4.875000e-03
-8.781250e-10,4.609375e-03
-8.741250e-10,5.375000e-03
-8.701250e-10,5.718750e-03
-8.661250e-10,6.078125e-03
-8.621250e-10,5.046875e-03
-8.581250e-10,6.000000e-03
-8.541250e-10,5.343750e-03
-8.501250e-10,6.640625e-03
-8.461250e-10,6.609375e-03
-8.421250e-10,6.546875e-03
-8.381250e-10,6.093750e-03
-8.341250e-10,6.625000e-03
-8.301250e-10,6.328125e-03
-8.261250e-10,6.468750e-03
-8.221250e-10,6.968750e-03
-8.181250e-10,7.250000e-03
-8.141250e-10,7.156250e-03
-8.101250e-10,6.812500e-03
-8.061250e-10,6.859375e-03
-8.021250e-10,7.296875e-03
-7.981250e-10,6.921875e-03
-7.941250e-10,7.531250e-03
-7.901250e-10,7.718750e-03
-7.861250e-10,7.890625e-03
-7.821250e-10,6.671875e-03
-7.781250e-10,7.421875e-03
-7.741250e-10,6.546875e-03
-7.701250e-10,7.562500e-03
-7.661250e-10,7.296875e-03
-7.621250e-10,6.984375e-03
-7.581250e-10,6.281250e-03
-7.541250e-10,6.515625e-03
-7.501250e-10,5.921875e-03
-7.461250e-10,5.796875e-03
-7.421250e-10,6.000000e-03
-7.381250e-10,5.968750e-03
-7.341250e-10,5.640625e-03
-7.301250e-10,5.000000e-03
-7.261250e-10,4.765625e-03
-7.221250e-10,4.921875e-03
-7.181250e-10,4.281250e-03
-7.141250e-10,4.640625e-03
-7.101250e-10,4.593750e-03
-7.061250e-10,4.546875e-03
-7.021250e-10,3.109375e-03
-6.981250e-10,3.687500e-03
-6.941250e-10,2.671875e-03
-6.901250e-10,3.515625e-03
-6.861250e-10,3.156250e-03
-6.821250e-10,2.750000e-03
-6.781250e-10,1.984375e-03
-6.741250e-10,2.156250e-03
-6.701250e-10,1.531250e-03
-6.661250e-10,1.437500e-03
-6.621250e-10,1.656250e-03
-6.581250e-10,1.671875e-03
-6.541250e-10,1.484375e-03
-6.501250e-10,9.531250e-04
-6.461250e-10,8.437500e-04
-6.421250e-10,1.156250e-03
-6.381250e-10,7.343750e-04
-6.341250e-10,1.296875e-03
-6.301250e-10,1.500000e-03
-6.261250e-10,1.687500e-03
-6.221250e-10,5.000000e-04
-6.181250e-10,1.375000e-03
-6.141250e-10,7.187500e-04
-6.101250e-10,1.875000e-03
-6.061250e-10,1.859375e-03
-6.021250e-10,1.812500e-03
-5.981250e-10,1.406250e-03
-5.941250e-10,1.921875e-03
-5.901250e-10,1.656250e-03
-5.861250e-10,1.906250e-03
-5.821250e-10,2.515625e-03
-5.781250e-10,2.875000e-03
-5.741250e-10,3.031250e-03
-5.701250e-10,2.843750e-03
-5.661250e-10,3.078125e-03
-5.621250e-10,3.718750e-03
-5.581250e-10,3.625000e-03
-5.541250e-10,4.468750e-03
-5.501250e-10,4.937500e-03
-5.461250e-10,5.359375e-03
-5.421250e-10,4.406250e-03
-5.381250e-10,5.453125e-03
-5.341250e-10,5.015625e-03
-5.301250e-10,6.312500e-03
-5.261250e-10,6.468750e-03
-5.221250e-10,6.500000e-03
-5.181250e-10,6.140625e-03
-5.141250e-10,6.703125e-03
-5.101250e-10,6.468750e-03
-5.061250e-10,6.687500e-03
-5.021250e-10,7.265625e-03
-4.981250e-10,7.546875e-03
-4.941250e-10,7.562500e-03
-4.901250e-10,7.265625e-03
-4.861250e-10,7.375000e-03
-4.821250e-10,7.859375e-03
-4.781250e-10,7.531250e-03
-4.741250e-10,8.187500e-03
-4.701250e-10,8.375000e-03
-4.661250e-10,8.562500e-03
-4.621250e-10,7.328125e-03
-4.581250e-10,8.046875e-03
-4.541250e-10,7.296875e-03
-4.501250e-10,8.312500e-03
-4.461250e-10,8.140625e-03
-4.421250e-10,7.812500e-03
-4.381250e-10,7.125000e-03
-4.341250e-10,7.343750e-03
-4.301250e-10,6.828125e-03
-4.261250e-10,6.656250e-03
-4.221250e-10,6.921875e-03
-4.181250e-10,6.875000e-03
-4.141250e-10,6.531250e-03
-4.101250e-10,5.937500e-03
-4.061250e-10,5.796875e-03
-4.021250e-10,6.031250e-03
-3.981250e-10,5.390625e-03
-3.941250e-10,5.828125e-03
-3.901250e-10,5.812500e-03
-3.861250e-10,5.796875e-03
-3.821250e-10,4.421875e-03
-3.781250e-10,4.953125e-03
-3.741250e-10,4.062500e-03
-3.701250e-10,4.984375e-03
-3.661250e-10,4.734375e-03
-3.621250e-10,4.343750e-03
-3.581250e-10,3.656250e-03
-3.541250e-10,3.890625e-03
-3.501250e-10,3.421875e-03
-3.461250e-10,3.265625e-03
-3.421250e-10,3.609375e-03
-3.381250e-10,3.671875e-03
-3.341250e-10,3.406250e-03
-3.301250e-10,3.000000e-03
-3.261250e-10,3.015625e-03
-3.221250e-10,3.437500e-03
-3.181250e-10,3.000000e-03
-3.141250e-10,3.625000e-03
-3.101250e-10,3.890625e-03
-3.061250e-10,4.093750e-03
-3.021250e-10,2.984375e-03
-2.981250e-10,3.765625e-03
-2.941250e-10,3.125000e-03
-2.901250e-10,4.328125e-03
-2.861250e-10,4.312500e-03
-2.821250e-10,4.187500e-03
-2.781250e-10,3.781250e-03
-2.741250e-10,4.281250e-03
-2.701250e-10,4.062500e-03
-2.661250e-10,4.140625e-03
-2.621250e-10,4.687500e-03
-2.581250e-10,4.968750e-03
-2.541250e-10,4.875000e-03
-2.501250e-10,4.671875e-03
-2.461250e-10,4.828125e-03
-2.421250e-10,5.359375e-03
-2.381250e-10,5.062500e-03
-2.341250e-10,5.750000e-03
-2.301250e-10,6.093750e-03
-2.261250e-10,6.343750e-03
-2.221250e-10,5.281250e-03
-2.181250e-10,6.062500e-03
-2.141250e-10,5.359375e-03
-2.101250e-10,6.546875e-03
-2.061250e-10,6.421875e-03
-2.021250e-10,6.234375e-03
-1.981250e-10,5.734375e-03
-1.941250e-10,6.125000e-03
-1.901250e-10,5.750000e-03
-1.861250e-10,5.703125e-03
-1.821250e-10,6.046875e-03
-1.781250e-10,6.156250e-03
-1.741250e-10,5.890625e-03
-1.701250e-10,5.546875e-03
-1.661250e-10,5.500000e-03
-1.621250e-10,5.828125e-03
-1.581250e-10,5.375000e-03
-1.541250e-10,5.921875e-03
-1.501250e-10,6.109375e-03
-1.461250e-10,6.265625e-03
-1.421250e-10,5.156250e-03
-1.381250e-10,5.890625e-03
-1.341250e-10,5.140625e-03
-1.301250e-10,6.359375e-03
-1.261250e-10,6.265625e-03
-1.221250e-10,6.187500e-03
-1.181250e-10,5.875000e-03
-1.141250e-10,6.468750e-03
-1.101250e-10,6.359375e-03
-1.061250e-10,6.671875e-03
-1.021250e-10,7.406250e-03
-9.812500e-11,8.031250e-03
-9.412500e-11,8.296875e-03
-9.012500e-11,8.562500e-03
-8.612500e-11,9.218750e-03
-8.212500e-11,1.028125e-02
-7.812500e-11,1.070313e-02
-7.412500e-11,1.218750e-02
-7.012500e-11,1.337500e-02
-6.612500e-11,1.468750e-02
-6.212500e-11,1.479688e-02
-5.812500e-11,1.679688e-02
-5.412500e-11,1.737500e-02
-5.012500e-11,2.007813e-02
-4.612500e-11,2.145313e-02
-4.212500e-11,2.300000e-02
-3.812500e-11,2.434375e-02
-3.412500e-11,2.668750e-02
-3.012500e-11,2.837500e-02
-2.612500e-11,3.056250e-02
-2.212500e-11,3.323438e-02
-1.812500e-11,3.585938e-02
-1.412500e-11,3.812500e-02
-1.012500e-11,4.045313e-02
-6.125000e-12,4.318750e-02
-2.125000e-12,4.634375e-02
1.875000e-12,4.890625e-02
5.875000e-12,5.254688e-02
9.875000e-12,5.587500e-02
1.387500e-11,5.937500e-02
1.787500e-11,6.160938e-02
2.187500e-11,6.571875e-02
2.587500e-11,6.839063e-02
2.987500e-11,7.312500e-02
3.387500e-11,7.646875e-02
3.787500e-11,7.998438e-02
4.187500e-11,8.317188e-02
4.587500e-11,8.729688e-02
4.987500e-11,9.071875e-02
5.387500e-11,9.450000e-02
5.787500e-11,9.870313e-02
6.187500e-11,1.027969e-01
6.587500e-11,1.063438e-01
6.987500e-11,1.098438e-01
7.387500e-11,1.136250e-01
7.787500e-11,1.176875e-01
8.187500e-11,1.210781e-01
8.587500e-11,1.253438e-01
8.987500e-11,1.291406e-01
9.387500e-11,1.330000e-01
9.787500e-11,1.354063e-01
1.018750e-10,1.395625e-01
1.058750e-10,1.420938e-01
1.098750e-10,1.465000e-01
1.138750e-10,1.493438e-01
1.178750e-10,1.522500e-01
1.218750e-10,1.546094e-01
1.258750e-10,1.577344e-01
1.298750e-10,1.600313e-01
1.338750e-10,1.625313e-01
1.378750e-10,1.652813e-01
1.418750e-10,1.678125e-01
1.458750e-10,1.695625e-01
1.498750e-10,1.711563e-01
1.538750e-10,1.729063e-01
1.578750e-10,1.748125e-01
1.618750e-10,1.759219e-01
1.658750e-10,1.777500e-01
1.698750e-10,1.789688e-01
1.738750e-10,1.801875e-01
1.778750e-10,1.798281e-01
1.818750e-10,1.811719e-01
1.858750e-10,1.807969e-01
1.898750e-10,1.821875e-01
1.938750e-10,1.819688e-01
1.978750e-10,1.817500e-01
2.018750e-10,1.809375e-01
2.058750e-10,1.808438e-01
2.098750e-10,1.799531e-01
2.138750e-10,1.792188e-01
2.178750e-10,1.786875e-01
2.218750e-10,1.779844e-01
2.258750e-10,1.764844e-01
2.298750e-10,1.748281e-01
2.338750e-10,1.733906e-01
2.378750e-10,1.721563e-01
2.418750e-10,1.701250e-01
2.458750e-10,1.688906e-01
2.498750e-10,1.670781e-01
2.538750e-10,1.653594e-01
2.578750e-10,1.620781e-01
2.618750e-10,1.606563e-01
2.658750e-10,1.575938e-01
2.698750e-10,1.563281e-01
2.738750e-10,1.535781e-01
2.778750e-10,1.509219e-01
2.818750e-10,1.477656e-01
2.858750e-10,1.454844e-01
2.898750e-10,1.425000e-01
2.938750e-10,1.397813e-01
2.978750e-10,1.373594e-01
3.018750e-10,1.348750e-01
3.058750e-10,1.317500e-01
3.098750e-10,1.285469e-01
3.138750e-10,1.257188e-01
3.178750e-10,1.232031e-01
3.218750e-10,1.199844e-01
3.258750e-10,1.176719e-01
3.298750e-10,1.149375e-01
3.338750e-10,1.124063e-01
3.378750e-10,1.083906e-01
3.418750e-10,1.064063e-01
3.458750e-10,1.028906e-01
3.498750e-10,1.012188e-01
3.538750e-10,9.821875e-02
3.578750e-10,9.537500e-02
3.618750e-10,9.212500e-02
3.658750e-10,8.987500e-02
3.698750e-10,8.703125e-02
3.738750e-10,8.451563e-02
3.778750e-10,8.234375e-02
3.818750e-10,8.018750e-02
3.858750e-10,7.756250e-02
3.898750e-10,7.485938e-02
3.938750e-10,7.259375e-02
3.978750e-10,7.073438e-02
4.018750e-10,6.818750e-02
4.058750e-10,6.660938e-02
4.098750e-10,6.470313e-02
4.138750e-10,6.298438e-02
4.178750e-10,5.985938e-02
4.218750e-10,5.879688e-02
4.258750e-10,5.626563e-02
4.298750e-10,5.557813e-02
4.338750e-10,5.362500e-02
4.378750e-10,5.181250e-02
4.418750e-10,4.964063e-02
4.458750e-10,4.846875e-02
4.498750e-10,4.670313e-02
4.538750e-10,4.529688e-02
4.578750e-10,4.421875e-02
4.618750e-10,4.317188e-02
4.658750e-10,4.168750e-02
4.698750e-10,4.012500e-02
4.738750e-10,3.895313e-02
4.778750e-10,3.821875e-02
4.818750e-10,3.676563e-02
4.858750e-10,3.623438e-02
4.898750e-10,3.542188e-02
4.938750e-10,3.473438e-02
4.978750e-10,3.265625e-02
5.018750e-10,3.260938e-02
5.058750e-10,3.106250e-02
5.098750e-10,3.135938e-02
5.138750e-10,3.039063e-02
5.178750e-10,2.946875e-02
5.218750e-10,2.820313e-02
5.258750e-10,2.790625e-02
5.298750e-10,2.693750e-02
5.338750e-10,2.632813e-02
5.378750e-10,2.603125e-02
5.418750e-10,2.568750e-02
5.458750e-10,2.495313e-02
5.498750e-10,2.406250e-02
5.538750e-10,2.354688e-02
5.578750e-10,2.342188e-02
5.618750e-10,2.253125e-02
5.658750e-10,2.254688e-02
5.698750e-10,2.226563e-02
5.738750e-10,2.200000e-02
5.778750e-10,2.039063e-02
5.818750e-10,2.071875e-02
5.858750e-10,1.957813e-02
5.898750e-10,2.025000e-02
5.938750e-10,1.962500e-02
5.978750e-10,1.896875e-02
6.018750e-10,1.796875e-02
6.058750e-10,1.793750e-02
6.098750e-10,1.714063e-02
6.138750e-10,1.670313e-02
6.178750e-10,1.659375e-02
6.218750e-10,1.640625e-02
6.258750e-10,1.584375e-02
6.298750e-10,1.503125e-02
6.338750e-10,1.467188e-02
6.378750e-10,1.460938e-02
6.418750e-10,1.382813e-02
6.458750e-10,1.392188e-02
6.498750e-10,1.375000e-02
6.538750e-10,1.351563e-02
6.578750e-10,1.200000e-02
6.618750e-10,1.235938e-02
6.658750e-10,1.131250e-02
6.698750e-10,1.207813e-02
6.738750e-10,1.154688e-02
6.778750e-10,1.098438e-02
6.818750e-10,1.006250e-02
6.858750e-10,1.017188e-02
6.898750e-10,9.453125e-03
6.938750e-10,9.109375e-03
6.978750e-10,9.171875e-03
7.018750e-10,9.156250e-03
7.058750e-10,8.765625e-03
7.098750e-10,8.125000e-03
7.138750e-10,7.984375e-03
7.178750e-10,8.125000e-03
7.218750e-10,7.578125e-03
7.258750e-10,7.953125e-03
7.298750e-10,8.062500e-03
7.338750e-10,8.062500e-03
7.378750e-10,6.843750e-03
7.418750e-10,7.500000e-03
7.458750e-10,6.750000e-03
7.498750e-10,7.875000e-03
7.538750e-10,7.671875e-03
7.578750e-10,7.484375e-03
7.618750e-10,6.875000e-03
7.658750e-10,7.343750e-03
7.698750e-10,6.968750e-03
7.738750e-10,6.984375e-03
7.778750e-10,7.437500e-03
7.818750e-10,7.734375e-03
7.858750e-10,7.703125e-03
7.898750e-10,7.390625e-03
7.938750e-10,7.562500e-03
7.978750e-10,8.046875e-03
8.018750e-10,7.812500e-03
8.058750e-10,8.515625e-03
8.098750e-10,8.890625e-03
8.138750e-10,9.125000e-03
8.178750e-10,8.187500e-03
8.218750e-10,9.031250e-03
8.258750e-10,8.437500e-03
8.298750e-10,9.765625e-03
8.338750e-10,9.734375e-03
8.378750e-10,9.671875e-03
8.418750e-10,9.171875e-03
8.458750e-10,9.671875e-03
8.498750e-10,9.359375e-03
8.538750e-10,9.406250e-03
8.578750e-10,9.875000e-03
8.618750e-10,1.007813e-02
8.658750e-10,1.000000e-02
8.698750e-10,9.593750e-03
8.738750e-10,9.609375e-03
8.778750e-10,1.000000e-02
8.818750e-10,9.625000e-03
8.858750e-10,1.015625e-02
8.898750e-10,1.031250e-02
8.938750e-10,1.034375e-02
8.978750e-10,9.187500e-03
9.018750e-10,9.781250e-03
9.058750e-10,8.906250e-03
9.098750e-10,1.000000e-02
9.138750e-10,9.687500e-03
9.178750e-10,9.359375e-03
9.218750e-10,8.593750e-03
9.258750e-10,8.812500e-03
9.298750e-10,8.234375e-03
9.338750e-10,8.062500e-03
9.378750e-10,8.281250e-03
9.418750e-10,8.187500e-03
9.458750e-10,7.875000e-03
9.498750e-10,7.281250e-03
9.538750e-10,7.046875e-03
9.578750e-10,7.296875e-03
9.618750e-10,6.765625e-03
9.658750e-10,7.156250e-03
9.698750e-10,7.171875e-03
9.738750e-10,7.125000e-03
9.778750e-10,5.921875e-03
9.818750e-10,6.484375e-03
9.858750e-10,5.562500e-03
9.898750e-10,6.671875e-03
9.938750e-10,6.406250e-03
9.978750e-10,6.125000e-03
1.001875e-09,5.484375e-03
1.005875e-09,5.812500e-03
1.009875e-09,5.390625e-03
1.013875e-09,5.406250e-03
1.017875e-09,5.828125e-03
1.021875e-09,5.937500e-03
1.025875e-09,5.843750e-03
1.029875e-09,5.515625e-03
1.033875e-09,5.531250e-03
1.037875e-09,6.078125e-03
1.041875e-09,5.843750e-03
1.045875e-09,6.515625e-03
1.049875e-09,6.859375e-03
1.053875e-09,7.140625e-03
1.057875e-09,6.250000e-03
1.061875e-09,7.171875e-03
1.065875e-09,6.562500e-03
1.069875e-09,7.953125e-03
1.073875e-09,7.984375e-03
1.077875e-09,8.000000e-03
1.081875e-09,7.625000e-03
1.085875e-09,8.218750e-03
1.089875e-09,8.046875e-03
1.093875e-09,8.281250e-03
1.097875e-09,8.906250e-03
1.101875e-09,9.218750e-03
1.105875e-09,9.250000e-03
1.109875e-09,9.046875e-03
1.113875e-09,9.171875e-03
1.117875e-09,9.765625e-03
1.121875e-09,9.546875e-03
1.125875e-09,1.025000e-02
1.129875e-09,1.056250e-02
1.133875e-09,1.081250e-02
1.137875e-09,9.828125e-03
1.141875e-09,1.067188e-02
1.145875e-09,9.906250e-03
1.149875e-09,1.112500e-02
1.153875e-09,1.093750e-02
1.157875e-09,1.073438e-02
1.161875e-09,1.009375e-02
1.165875e-09,1.043750e-02
1.169875e-09,9.968750e-03
1.173875e-09,9.890625e-03
1.177875e-09,1.018750e-02
1.181875e-09,1.020313e-02
1.185875e-09,9.875000e-03
1.189875e-09,9.312500e-03
1.193875e-09,9.093750e-03
1.197875e-09,9.328125e-03
1.201875e-09,8.734375e-03
1.205875e-09,9.078125e-03
1.209875e-09,9.046875e-03
1.213875e-09,8.968750e-03
1.217875e-09,7.625000e-03
1.221875e-09,8.171875e-03
1.225875e-09,7.109375e-03
1.229875e-09,8.046875e-03
1.233875e-09,7.593750e-03
1.237875e-09,7.140625e-03
1.241875e-09,6.312500e-03
1.245875e-09,6.468750e-03
1.249875e-09,5.843750e-03
1.253875e-09,5.625000e-03
1.257875e-09,5.828125e-03
1.261875e-09,5.812500e-03
1.265875e-09,5.437500e-03
1.269875e-09,4.890625e-03
1.273875e-09,4.718750e-03
1.277875e-09,5.015625e-03
1.281875e-09,4.500000e-03
1.285875e-09,5.000000e-03
1.289875e-09,5.140625e-03
1.293875e-09,5.281250e-03
1.297875e-09,4.125000e-03
1.301875e-09,4.921875e-03
1.305875e-09,4.140625e-03
1.309875e-09,5.390625e-03
1.313875e-09,5.265625e-03
1.317875e-09,5.156250e-03
1.321875e-09,4.671875e-03
1.325875e-09,5.203125e-03
1.329875e-09,4.953125e-03
1.333875e-09,5.140625e-03
1.337875e-09,5.734375e-03
1.341875e-09,6.125000e-03
1.345875e-09,6.156250e-03
1.349875e-09,5.984375e-03
1.353875e-09,6.218750e-03
1.357875e-09,6.890625e-03
1.361875e-09,6.750000e-03
1.365875e-09,7.625000e-03
1.369875e-09,8.109375e-03
1.373875e-09,8.578125e-03
1.377875e-09,7.687500e-03
1.381875e-09,8.765625e-03
1.385875e-09,8.234375e-03
1.389875e-09,9.718750e-03
1.393875e-09,9.781250e-03
1.397875e-09,9.843750e-03
1.401875e-09,9.484375e-03
1.405875e-09,1.012500e-02
1.409875e-09,9.953125e-03
1.413875e-09,1.015625e-02
1.417875e-09,1.075000e-02
1.421875e-09,1.112500e-02
1.425875e-09,1.109375e-02
1.429875e-09,1.082813e-02
1.433875e-09,1.093750e-02
1.437875e-09,1.143750e-02
1.441875e-09,1.110938e-02
1.445875e-09,1.176563e-02
1.449875e-09,1.200000e-02
1.453875e-09,1.220313e-02
1.457875e-09,1.100000e-02
1.461875e-09,1.176563e-02
1.465875e-09,1.089063e-02
1.469875e-09,1.203125e-02
1.473875e-09,1.171875e-02
1.477875e-09,1.139063e-02
1.481875e-09,1.064063e-02
1.485875e-09,1.089063e-02
1.489875e-09,1.031250e-02
1.493875e-09,1.010938e-02
1.497875e-09,1.029688e-02
1.501875e-09,1.028125e-02
1.505875e-09,9.843750e-03
1.509875e-09,9.187500e-03
1.513875e-09,8.921875e-03
1.517875e-09,9.062500e-03
1.521875e-09,8.390625e-03
1.525875e-09,8.703125e-03
1.529875e-09,8.625000e-03
1.533875e-09,8.546875e-03
1.537875e-09,7.062500e-03
1.541875e-09,7.578125e-03
1.545875e-09,6.500000e-03
1.549875e-09,7.421875e-03
1.553875e-09,6.953125e-03
1.557875e-09,6.484375e-03
1.561875e-09,5.625000e-03
1.565875e-09,5.781250e-03
1.569875e-09,5.156250e-03
1.573875e-09,4.937500e-03
1.577875e-09,5.125000e-03
1.581875e-09,5.140625e-03
1.585875e-09,4.750000e-03
1.589875e-09,4.187500e-03
1.593875e-09,4.031250e-03
1.597875e-09,4.312500e-03
1.601875e-09,3.796875e-03
1.605875e-09,4.296875e-03
1.609875e-09,4.421875e-03
1.613875e-09,4.546875e-03
1.617875e-09,3.296875e-03
1.621875e-09,4.078125e-03
1.625875e-09,3.250000e-03
1.629875e-09,4.468750e-03
1.633875e-09,4.281250e-03
1.637875e-09,4.093750e-03
1.641875e-09,3.531250e-03
1.645875e-09,4.000000e-03
1.649875e-09,3.671875e-03
1.653875e-09,3.750000e-03
1.657875e-09,4.250000e-03
1.661875e-09,4.546875e-03
1.665875e-09,4.453125e-03
1.669875e-09,4.171875e-03
1.673875e-09,4.296875e-03
1.677875e-09,4.828125e-03
1.681875e-09,4.546875e-03
1.685875e-09,5.296875e-03
1.689875e-09,5.640625e-03
1.693875e-09,5.968750e-03
1.697875e-09,4.906250e-03
1.701875e-09,5.843750e-03
1.705875e-09,5.171875e-03
1.709875e-09,6.515625e-03
1.713875e-09,6.437500e-03
1.717875e-09,6.359375e-03
1.721875e-09,5.859375e-03
1.725875e-09,6.375000e-03
1.729875e-09,6.062500e-03
1.733875e-09,6.156250e-03
1.737875e-09,6.640625e-03
1.741875e-09,6.921875e-03
1.745875e-09,6.781250e-03
1.749875e-09,6.421875e-03
1.753875e-09,6.468750e-03
1.757875e-09,6.906250e-03
