Measurements-streak-laser-independent/Photodiode-on-Tek-12bit-4GHz/Tek000_ch1_20190613132959369.csv

Model,MSO64
Waveform Type,ANALOG
Horizontal Units,s
Sample Interval,4.000000e-12
Record Length,1000
Zero Index,310.468750
Vertical Units,V

TIME,CH1
-1.241875e-09,5.750000e-03
-1.237875e-09,6.359375e-03
-1.233875e-09,6.140625e-03
-1.229875e-09,6.328125e-03
-1.225875e-09,6.921875e-03
-1.221875e-09,7.312500e-03
-1.217875e-09,7.281250e-03
-1.213875e-09,7.046875e-03
-1.209875e-09,7.203125e-03
-1.205875e-09,7.765625e-03
-1.201875e-09,7.515625e-03
-1.197875e-09,8.265625e-03
-1.193875e-09,8.609375e-03
-1.189875e-09,8.937500e-03
-1.185875e-09,7.843750e-03
-1.181875e-09,8.781250e-03
-1.177875e-09,8.078125e-03
-1.173875e-09,9.406250e-03
-1.169875e-09,9.296875e-03
-1.165875e-09,9.187500e-03
-1.161875e-09,8.671875e-03
-1.157875e-09,9.156250e-03
-1.153875e-09,8.828125e-03
-1.149875e-09,8.906250e-03
-1.145875e-09,9.375000e-03
-1.141875e-09,9.640625e-03
-1.137875e-09,9.500000e-03
-1.133875e-09,9.140625e-03
-1.129875e-09,9.187500e-03
-1.125875e-09,9.640625e-03
-1.121875e-09,9.281250e-03
-1.117875e-09,9.921875e-03
-1.113875e-09,1.015625e-02
-1.109875e-09,1.039063e-02
-1.105875e-09,9.203125e-03
-1.101875e-09,1.003125e-02
-1.097875e-09,9.250000e-03
-1.093875e-09,1.046875e-02
-1.089875e-09,1.028125e-02
-1.085875e-09,1.007813e-02
-1.081875e-09,9.484375e-03
-1.077875e-09,9.875000e-03
-1.073875e-09,9.468750e-03
-1.069875e-09,9.453125e-03
-1.065875e-09,9.843750e-03
-1.061875e-09,1.001563e-02
-1.057875e-09,9.781250e-03
-1.053875e-09,9.343750e-03
-1.049875e-09,9.312500e-03
-1.045875e-09,9.656250e-03
-1.041875e-09,9.203125e-03
-1.037875e-09,9.750000e-03
-1.033875e-09,9.890625e-03
-1.029875e-09,1.001563e-02
-1.025875e-09,8.718750e-03
-1.021875e-09,9.453125e-03
-1.017875e-09,8.546875e-03
-1.013875e-09,9.656250e-03
-1.009875e-09,9.343750e-03
-1.005875e-09,9.031250e-03
-1.001875e-09,8.296875e-03
-9.978750e-10,8.578125e-03
-9.938750e-10,8.031250e-03
-9.898750e-10,7.906250e-03
-9.858750e-10,8.156250e-03
-9.818750e-10,8.218750e-03
-9.778750e-10,7.859375e-03
-9.738750e-10,7.296875e-03
-9.698750e-10,7.140625e-03
-9.658750e-10,7.375000e-03
-9.618750e-10,6.812500e-03
-9.578750e-10,7.250000e-03
-9.538750e-10,7.296875e-03
-9.498750e-10,7.328125e-03
-9.458750e-10,5.953125e-03
-9.418750e-10,6.593750e-03
-9.378750e-10,5.625000e-03
-9.338750e-10,6.656250e-03
-9.298750e-10,6.296875e-03
-9.258750e-10,5.953125e-03
-9.218750e-10,5.203125e-03
-9.178750e-10,5.468750e-03
-9.138750e-10,4.937500e-03
-9.098750e-10,4.812500e-03
-9.058750e-10,5.109375e-03
-9.018750e-10,5.203125e-03
-8.978750e-10,4.906250e-03
-8.938750e-10,4.406250e-03
-8.898750e-10,4.343750e-03
-8.858750e-10,4.687500e-03
-8.818750e-10,4.218750e-03
-8.778750e-10,4.781250e-03
-8.738750e-10,4.968750e-03
-8.698750e-10,5.140625e-03
-8.658750e-10,3.953125e-03
-8.618750e-10,4.765625e-03
-8.578750e-10,3.968750e-03
-8.538750e-10,5.125000e-03
-8.498750e-10,5.000000e-03
-8.458750e-10,4.843750e-03
-8.418750e-10,4.328125e-03
-8.378750e-10,4.796875e-03
-8.338750e-10,4.468750e-03
-8.298750e-10,4.578125e-03
-8.258750e-10,5.078125e-03
-8.218750e-10,5.375000e-03
-8.178750e-10,5.312500e-03
-8.138750e-10,5.015625e-03
-8.098750e-10,5.125000e-03
-8.058750e-10,5.640625e-03
-8.018750e-10,5.359375e-03
-7.978750e-10,6.078125e-03
-7.938750e-10,6.406250e-03
-7.898750e-10,6.718750e-03
-7.858750e-10,5.671875e-03
-7.818750e-10,6.593750e-03
-7.778750e-10,5.890625e-03
-7.738750e-10,7.062500e-03
-7.698750e-10,7.015625e-03
-7.658750e-10,6.906250e-03
-7.618750e-10,6.421875e-03
-7.578750e-10,6.859375e-03
-7.538750e-10,6.500000e-03
-7.498750e-10,6.593750e-03
-7.458750e-10,7.000000e-03
-7.418750e-10,7.187500e-03
-7.378750e-10,7.078125e-03
-7.338750e-10,6.640625e-03
-7.298750e-10,6.593750e-03
-7.258750e-10,6.937500e-03
-7.218750e-10,6.468750e-03
-7.178750e-10,6.984375e-03
-7.138750e-10,7.093750e-03
-7.098750e-10,7.171875e-03
-7.058750e-10,5.875000e-03
-7.018750e-10,6.546875e-03
-6.978750e-10,5.625000e-03
-6.938750e-10,6.500000e-03
-6.898750e-10,6.187500e-03
-6.858750e-10,5.828125e-03
-6.818750e-10,5.078125e-03
-6.778750e-10,5.218750e-03
-6.738750e-10,4.546875e-03
-6.698750e-10,4.406250e-03
-6.658750e-10,4.546875e-03
-6.618750e-10,4.453125e-03
-6.578750e-10,4.171875e-03
-6.538750e-10,3.484375e-03
-6.498750e-10,3.218750e-03
-6.458750e-10,3.343750e-03
-6.418750e-10,2.734375e-03
-6.378750e-10,3.078125e-03
-6.338750e-10,3.062500e-03
-6.298750e-10,3.000000e-03
-6.258750e-10,1.578125e-03
-6.218750e-10,2.187500e-03
-6.178750e-10,1.281250e-03
-6.138750e-10,2.125000e-03
-6.098750e-10,1.843750e-03
-6.058750e-10,1.515625e-03
-6.018750e-10,8.437500e-04
-5.978750e-10,1.062500e-03
-5.938750e-10,5.000000e-04
-5.898750e-10,5.000000e-04
-5.858750e-10,8.437500e-04
-5.818750e-10,9.218750e-04
-5.778750e-10,8.750000e-04
-5.738750e-10,4.375000e-04
-5.698750e-10,4.375000e-04
-5.658750e-10,8.750000e-04
-5.618750e-10,5.937500e-04
-5.578750e-10,1.265625e-03
-5.538750e-10,1.562500e-03
-5.498750e-10,1.859375e-03
-5.458750e-10,7.812500e-04
-5.418750e-10,1.750000e-03
-5.378750e-10,1.265625e-03
-5.338750e-10,2.484375e-03
-5.298750e-10,2.625000e-03
-5.258750e-10,2.671875e-03
-5.218750e-10,2.359375e-03
-5.178750e-10,2.953125e-03
-5.138750e-10,2.781250e-03
-5.098750e-10,3.109375e-03
-5.058750e-10,3.812500e-03
-5.018750e-10,4.203125e-03
-4.978750e-10,4.406250e-03
-4.938750e-10,4.281250e-03
-4.898750e-10,4.593750e-03
-4.858750e-10,5.281250e-03
-4.818750e-10,5.187500e-03
-4.778750e-10,6.093750e-03
-4.738750e-10,6.531250e-03
-4.698750e-10,6.968750e-03
-4.658750e-10,6.015625e-03
-4.618750e-10,7.015625e-03
-4.578750e-10,6.593750e-03
-4.538750e-10,7.843750e-03
-4.498750e-10,8.015625e-03
-4.458750e-10,7.968750e-03
-4.418750e-10,7.593750e-03
-4.378750e-10,8.109375e-03
-4.338750e-10,7.875000e-03
-4.298750e-10,8.000000e-03
-4.258750e-10,8.546875e-03
-4.218750e-10,8.765625e-03
-4.178750e-10,8.703125e-03
-4.138750e-10,8.359375e-03
-4.098750e-10,8.468750e-03
-4.058750e-10,8.937500e-03
-4.018750e-10,8.531250e-03
-3.978750e-10,9.187500e-03
-3.938750e-10,9.359375e-03
-3.898750e-10,9.500000e-03
-3.858750e-10,8.296875e-03
-3.818750e-10,8.968750e-03
-3.778750e-10,8.265625e-03
-3.738750e-10,9.281250e-03
-3.698750e-10,9.171875e-03
-3.658750e-10,8.875000e-03
-3.618750e-10,8.281250e-03
-3.578750e-10,8.593750e-03
-3.538750e-10,8.203125e-03
-3.498750e-10,8.093750e-03
-3.458750e-10,8.500000e-03
-3.418750e-10,8.578125e-03
-3.378750e-10,8.343750e-03
-3.338750e-10,7.968750e-03
-3.298750e-10,8.015625e-03
-3.258750e-10,8.468750e-03
-3.218750e-10,8.031250e-03
-3.178750e-10,8.656250e-03
-3.138750e-10,8.921875e-03
-3.098750e-10,9.125000e-03
-3.058750e-10,8.046875e-03
-3.018750e-10,8.781250e-03
-2.978750e-10,8.187500e-03
-2.938750e-10,9.343750e-03
-2.898750e-10,9.375000e-03
-2.858750e-10,9.250000e-03
-2.818750e-10,8.875000e-03
-2.778750e-10,9.375000e-03
-2.738750e-10,9.187500e-03
-2.698750e-10,9.265625e-03
-2.658750e-10,9.828125e-03
-2.618750e-10,1.010938e-02
-2.578750e-10,1.004688e-02
-2.538750e-10,9.875000e-03
-2.498750e-10,1.006250e-02
-2.458750e-10,1.064063e-02
-2.418750e-10,1.035938e-02
-2.378750e-10,1.104688e-02
-2.338750e-10,1.140625e-02
-2.298750e-10,1.167188e-02
-2.258750e-10,1.064063e-02
-2.218750e-10,1.137500e-02
-2.178750e-10,1.070313e-02
-2.138750e-10,1.182813e-02
-2.098750e-10,1.170313e-02
-2.058750e-10,1.146875e-02
-2.018750e-10,1.095313e-02
-1.978750e-10,1.126563e-02
-1.938750e-10,1.082813e-02
-1.898750e-10,1.067188e-02
-1.858750e-10,1.090625e-02
-1.818750e-10,1.087500e-02
-1.778750e-10,1.046875e-02
-1.738750e-10,9.968750e-03
-1.698750e-10,9.750000e-03
-1.658750e-10,9.875000e-03
-1.618750e-10,9.218750e-03
-1.578750e-10,9.515625e-03
-1.538750e-10,9.453125e-03
-1.498750e-10,9.328125e-03
-1.458750e-10,7.937500e-03
-1.418750e-10,8.328125e-03
-1.378750e-10,7.265625e-03
-1.338750e-10,8.140625e-03
-1.298750e-10,7.687500e-03
-1.258750e-10,7.250000e-03
-1.218750e-10,6.578125e-03
-1.178750e-10,6.796875e-03
-1.138750e-10,6.296875e-03
-1.098750e-10,6.218750e-03
-1.058750e-10,6.546875e-03
-1.018750e-10,6.734375e-03
-9.787500e-11,6.609375e-03
-9.387500e-11,6.531250e-03
-8.987500e-11,6.796875e-03
-8.587500e-11,7.468750e-03
-8.187500e-11,7.531250e-03
-7.787500e-11,8.687500e-03
-7.387500e-11,9.546875e-03
-6.987500e-11,1.056250e-02
-6.587500e-11,1.042188e-02
-6.187500e-11,1.215625e-02
-5.787500e-11,1.254688e-02
-5.387500e-11,1.504688e-02
-4.987500e-11,1.628125e-02
-4.587500e-11,1.773438e-02
-4.187500e-11,1.904688e-02
-3.787500e-11,2.137500e-02
-3.387500e-11,2.310938e-02
-2.987500e-11,2.537500e-02
-2.587500e-11,2.817188e-02
-2.187500e-11,3.096875e-02
-1.787500e-11,3.346875e-02
-1.387500e-11,3.612500e-02
-9.875000e-12,3.920313e-02
-5.875000e-12,4.273438e-02
-1.875000e-12,4.576563e-02
2.125000e-12,4.992188e-02
6.125000e-12,5.381250e-02
1.012500e-11,5.793750e-02
1.412500e-11,6.090625e-02
1.812500e-11,6.573438e-02
2.212500e-11,6.918750e-02
2.612500e-11,7.475000e-02
3.012500e-11,7.896875e-02
3.412500e-11,8.343750e-02
3.812500e-11,8.765625e-02
4.212500e-11,9.279688e-02
4.612500e-11,9.729688e-02
5.012500e-11,1.021875e-01
5.412500e-11,1.075156e-01
5.812500e-11,1.127969e-01
6.212500e-11,1.175156e-01
6.612500e-11,1.222969e-01
7.012500e-11,1.273281e-01
7.412500e-11,1.326250e-01
7.812500e-11,1.372969e-01
8.212500e-11,1.428750e-01
8.612500e-11,1.479531e-01
9.012500e-11,1.531406e-01
9.412500e-11,1.568906e-01
9.812500e-11,1.623281e-01
1.021250e-10,1.661563e-01
1.061250e-10,1.718438e-01
1.101250e-10,1.759375e-01
1.141250e-10,1.801406e-01
1.181250e-10,1.837656e-01
1.221250e-10,1.880781e-01
1.261250e-10,1.915938e-01
1.301250e-10,1.952500e-01
1.341250e-10,1.991094e-01
1.381250e-10,2.027500e-01
1.421250e-10,2.055469e-01
1.461250e-10,2.081719e-01
1.501250e-10,2.109219e-01
1.541250e-10,2.137188e-01
1.581250e-10,2.157500e-01
1.621250e-10,2.184375e-01
1.661250e-10,2.204375e-01
1.701250e-10,2.224531e-01
1.741250e-10,2.228281e-01
1.781250e-10,2.248438e-01
1.821250e-10,2.250938e-01
1.861250e-10,2.270625e-01
1.901250e-10,2.273281e-01
1.941250e-10,2.276406e-01
1.981250e-10,2.272969e-01
2.021250e-10,2.275781e-01
2.061250e-10,2.270625e-01
2.101250e-10,2.266250e-01
2.141250e-10,2.263594e-01
2.181250e-10,2.259219e-01
2.221250e-10,2.245781e-01
2.261250e-10,2.230938e-01
2.301250e-10,2.217813e-01
2.341250e-10,2.205781e-01
2.381250e-10,2.186406e-01
2.421250e-10,2.173906e-01
2.461250e-10,2.155469e-01
2.501250e-10,2.138125e-01
2.541250e-10,2.104844e-01
2.581250e-10,2.089375e-01
2.621250e-10,2.057656e-01
2.661250e-10,2.043438e-01
2.701250e-10,2.013750e-01
2.741250e-10,1.985469e-01
2.781250e-10,1.951875e-01
2.821250e-10,1.926406e-01
2.861250e-10,1.894219e-01
2.901250e-10,1.864219e-01
2.941250e-10,1.836875e-01
2.981250e-10,1.809219e-01
3.021250e-10,1.774375e-01
3.061250e-10,1.738906e-01
3.101250e-10,1.707031e-01
3.141250e-10,1.677813e-01
3.181250e-10,1.641875e-01
3.221250e-10,1.614531e-01
3.261250e-10,1.582656e-01
3.301250e-10,1.552969e-01
3.341250e-10,1.508438e-01
3.381250e-10,1.483594e-01
3.421250e-10,1.443750e-01
3.461250e-10,1.421719e-01
3.501250e-10,1.386094e-01
3.541250e-10,1.352500e-01
3.581250e-10,1.314531e-01
3.621250e-10,1.286094e-01
3.661250e-10,1.252031e-01
3.701250e-10,1.220781e-01
3.741250e-10,1.192656e-01
3.781250e-10,1.164844e-01
3.821250e-10,1.131719e-01
3.861250e-10,1.098125e-01
3.901250e-10,1.068594e-01
3.941250e-10,1.042813e-01
3.981250e-10,1.010313e-01
4.021250e-10,9.870313e-02
4.061250e-10,9.603125e-02
4.101250e-10,9.359375e-02
4.141250e-10,8.971875e-02
4.181250e-10,8.789063e-02
4.221250e-10,8.457813e-02
4.261250e-10,8.307813e-02
4.301250e-10,8.031250e-02
4.341250e-10,7.773438e-02
4.381250e-10,7.476563e-02
4.421250e-10,7.278125e-02
4.461250e-10,7.025000e-02
4.501250e-10,6.806250e-02
4.541250e-10,6.617188e-02
4.581250e-10,6.435938e-02
4.621250e-10,6.209375e-02
4.661250e-10,5.978125e-02
4.701250e-10,5.784375e-02
4.741250e-10,5.637500e-02
4.781250e-10,5.420313e-02
4.821250e-10,5.295313e-02
4.861250e-10,5.143750e-02
4.901250e-10,5.009375e-02
4.941250e-10,4.739063e-02
4.981250e-10,4.671875e-02
5.021250e-10,4.462500e-02
5.061250e-10,4.431250e-02
5.101250e-10,4.279688e-02
5.141250e-10,4.137500e-02
5.181250e-10,3.964063e-02
5.221250e-10,3.887500e-02
5.261250e-10,3.750000e-02
5.301250e-10,3.651563e-02
5.341250e-10,3.581250e-02
5.381250e-10,3.515625e-02
5.421250e-10,3.412500e-02
5.461250e-10,3.296875e-02
5.501250e-10,3.220313e-02
5.541250e-10,3.184375e-02
5.581250e-10,3.079688e-02
5.621250e-10,3.059375e-02
5.661250e-10,3.017188e-02
5.701250e-10,2.981250e-02
5.741250e-10,2.812500e-02
5.781250e-10,2.837500e-02
5.821250e-10,2.720313e-02
5.861250e-10,2.779688e-02
5.901250e-10,2.715625e-02
5.941250e-10,2.646875e-02
5.981250e-10,2.550000e-02
6.021250e-10,2.546875e-02
6.061250e-10,2.468750e-02
6.101250e-10,2.426563e-02
6.141250e-10,2.415625e-02
6.181250e-10,2.400000e-02
6.221250e-10,2.343750e-02
6.261250e-10,2.267188e-02
6.301250e-10,2.231250e-02
6.341250e-10,2.223438e-02
6.381250e-10,2.145313e-02
6.421250e-10,2.150000e-02
6.461250e-10,2.126563e-02
6.501250e-10,2.098438e-02
6.541250e-10,1.940625e-02
6.581250e-10,1.968750e-02
6.621250e-10,1.854688e-02
6.661250e-10,1.915625e-02
6.701250e-10,1.848438e-02
6.741250e-10,1.775000e-02
6.781250e-10,1.664063e-02
6.821250e-10,1.656250e-02
6.861250e-10,1.562500e-02
6.901250e-10,1.503125e-02
6.941250e-10,1.479688e-02
6.981250e-10,1.451563e-02
7.021250e-10,1.382813e-02
7.061250e-10,1.287500e-02
7.101250e-10,1.242188e-02
7.141250e-10,1.218750e-02
7.181250e-10,1.128125e-02
7.221250e-10,1.126563e-02
7.261250e-10,1.101563e-02
7.301250e-10,1.060938e-02
7.341250e-10,9.046875e-03
7.381250e-10,9.281250e-03
7.421250e-10,8.187500e-03
7.461250e-10,8.890625e-03
7.501250e-10,8.312500e-03
7.541250e-10,7.734375e-03
7.581250e-10,6.765625e-03
7.621250e-10,6.890625e-03
7.661250e-10,6.171875e-03
7.701250e-10,5.843750e-03
7.741250e-10,5.953125e-03
7.781250e-10,5.968750e-03
7.821250e-10,5.687500e-03
7.861250e-10,5.125000e-03
7.901250e-10,5.078125e-03
7.941250e-10,5.343750e-03
7.981250e-10,4.937500e-03
8.021250e-10,5.468750e-03
8.061250e-10,5.750000e-03
8.101250e-10,5.875000e-03
8.141250e-10,4.906250e-03
8.181250e-10,5.687500e-03
8.221250e-10,5.140625e-03
8.261250e-10,6.484375e-03
8.301250e-10,6.531250e-03
8.341250e-10,6.562500e-03
8.381250e-10,6.187500e-03
8.421250e-10,6.859375e-03
8.461250e-10,6.718750e-03
8.501250e-10,6.968750e-03
8.541250e-10,7.656250e-03
8.581250e-10,8.109375e-03
8.621250e-10,8.328125e-03
8.661250e-10,8.234375e-03
8.701250e-10,8.562500e-03
8.741250e-10,9.281250e-03
8.781250e-10,9.281250e-03
8.821250e-10,1.015625e-02
8.861250e-10,1.068750e-02
8.901250e-10,1.107813e-02
8.941250e-10,1.034375e-02
8.981250e-10,1.128125e-02
9.021250e-10,1.081250e-02
9.061250e-10,1.228125e-02
9.101250e-10,1.237500e-02
9.141250e-10,1.242188e-02
9.181250e-10,1.201563e-02
9.221250e-10,1.257813e-02
9.261250e-10,1.234375e-02
9.301250e-10,1.246875e-02
9.341250e-10,1.301563e-02
9.381250e-10,1.317188e-02
9.421250e-10,1.314063e-02
9.461250e-10,1.278125e-02
9.501250e-10,1.276563e-02
9.541250e-10,1.320313e-02
9.581250e-10,1.284375e-02
9.621250e-10,1.334375e-02
9.661250e-10,1.346875e-02
9.701250e-10,1.346875e-02
9.741250e-10,1.234375e-02
9.781250e-10,1.289063e-02
9.821250e-10,1.196875e-02
9.861250e-10,1.301563e-02
9.901250e-10,1.268750e-02
9.941250e-10,1.229688e-02
9.981250e-10,1.150000e-02
1.002125e-09,1.165625e-02
1.006125e-09,1.104688e-02
1.010125e-09,1.082813e-02
1.014125e-09,1.101563e-02
1.018125e-09,1.081250e-02
1.022125e-09,1.045313e-02
1.026125e-09,9.812500e-03
1.030125e-09,9.484375e-03
1.034125e-09,9.687500e-03
1.038125e-09,9.093750e-03
1.042125e-09,9.375000e-03
1.046125e-09,9.312500e-03
1.050125e-09,9.171875e-03
1.054125e-09,7.937500e-03
1.058125e-09,8.421875e-03
1.062125e-09,7.406250e-03
1.066125e-09,8.375000e-03
1.070125e-09,8.015625e-03
1.074125e-09,7.609375e-03
1.078125e-09,6.859375e-03
1.082125e-09,7.062500e-03
1.086125e-09,6.531250e-03
1.090125e-09,6.406250e-03
1.094125e-09,6.687500e-03
1.098125e-09,6.640625e-03
1.102125e-09,6.375000e-03
1.106125e-09,5.906250e-03
1.110125e-09,5.750000e-03
1.114125e-09,6.109375e-03
1.118125e-09,5.687500e-03
1.122125e-09,6.187500e-03
1.126125e-09,6.328125e-03
1.130125e-09,6.437500e-03
1.134125e-09,5.390625e-03
1.138125e-09,6.140625e-03
1.142125e-09,5.359375e-03
1.146125e-09,6.546875e-03
1.150125e-09,6.390625e-03
1.154125e-09,6.218750e-03
1.158125e-09,5.687500e-03
1.162125e-09,6.125000e-03
1.166125e-09,5.812500e-03
1.170125e-09,5.890625e-03
1.174125e-09,6.390625e-03
1.178125e-09,6.593750e-03
1.182125e-09,6.515625e-03
1.186125e-09,6.218750e-03
1.190125e-09,6.281250e-03
1.194125e-09,6.812500e-03
1.198125e-09,6.562500e-03
1.202125e-09,7.234375e-03
1.206125e-09,7.562500e-03
1.210125e-09,7.843750e-03
1.214125e-09,6.906250e-03
1.218125e-09,7.828125e-03
1.222125e-09,7.171875e-03
1.226125e-09,8.484375e-03
1.230125e-09,8.437500e-03
1.234125e-09,8.390625e-03
1.238125e-09,7.937500e-03
1.242125e-09,8.484375e-03
1.246125e-09,8.234375e-03
1.250125e-09,8.390625e-03
1.254125e-09,8.937500e-03
1.258125e-09,9.234375e-03
1.262125e-09,9.203125e-03
1.266125e-09,8.937500e-03
1.270125e-09,9.046875e-03
1.274125e-09,9.593750e-03
1.278125e-09,9.328125e-03
1.282125e-09,1.003125e-02
1.286125e-09,1.034375e-02
1.290125e-09,1.062500e-02
1.294125e-09,9.593750e-03
1.298125e-09,1.050000e-02
1.302125e-09,9.765625e-03
1.306125e-09,1.103125e-02
1.310125e-09,1.090625e-02
1.314125e-09,1.076563e-02
1.318125e-09,1.020313e-02
1.322125e-09,1.064063e-02
1.326125e-09,1.026563e-02
1.330125e-09,1.028125e-02
1.334125e-09,1.068750e-02
1.338125e-09,1.085938e-02
1.342125e-09,1.064063e-02
1.346125e-09,1.021875e-02
1.350125e-09,1.015625e-02
1.354125e-09,1.050000e-02
1.358125e-09,1.003125e-02
1.362125e-09,1.054688e-02
1.366125e-09,1.065625e-02
1.370125e-09,1.073438e-02
1.374125e-09,9.468750e-03
1.378125e-09,1.014063e-02
1.382125e-09,9.203125e-03
1.386125e-09,1.026563e-02
1.390125e-09,9.921875e-03
1.394125e-09,9.562500e-03
1.398125e-09,8.812500e-03
1.402125e-09,9.046875e-03
1.406125e-09,8.484375e-03
1.410125e-09,8.312500e-03
1.414125e-09,8.546875e-03
1.418125e-09,8.578125e-03
1.422125e-09,8.203125e-03
1.426125e-09,7.640625e-03
1.430125e-09,7.484375e-03
1.434125e-09,7.718750e-03
1.438125e-09,7.171875e-03
1.442125e-09,7.625000e-03
1.446125e-09,7.703125e-03
1.450125e-09,7.765625e-03
1.454125e-09,6.468750e-03
1.458125e-09,7.171875e-03
1.462125e-09,6.281250e-03
1.466125e-09,7.406250e-03
1.470125e-09,7.140625e-03
1.474125e-09,6.890625e-03
1.478125e-09,6.250000e-03
1.482125e-09,6.640625e-03
1.486125e-09,6.234375e-03
1.490125e-09,6.250000e-03
1.494125e-09,6.671875e-03
1.498125e-09,6.921875e-03
1.502125e-09,6.781250e-03
1.506125e-09,6.453125e-03
1.510125e-09,6.531250e-03
1.514125e-09,7.031250e-03
1.518125e-09,6.750000e-03
1.522125e-09,7.468750e-03
1.526125e-09,7.812500e-03
1.530125e-09,8.156250e-03
1.534125e-09,7.125000e-03
1.538125e-09,8.093750e-03
1.542125e-09,7.453125e-03
1.546125e-09,8.843750e-03
1.550125e-09,8.812500e-03
1.554125e-09,8.796875e-03
1.558125e-09,8.375000e-03
1.562125e-09,8.953125e-03
1.566125e-09,8.734375e-03
1.570125e-09,8.906250e-03
1.574125e-09,9.468750e-03
1.578125e-09,9.828125e-03
1.582125e-09,9.781250e-03
1.586125e-09,9.515625e-03
1.590125e-09,9.640625e-03
1.594125e-09,1.015625e-02
1.598125e-09,9.859375e-03
1.602125e-09,1.053125e-02
1.606125e-09,1.079688e-02
1.610125e-09,1.104688e-02
1.614125e-09,9.875000e-03
1.618125e-09,1.068750e-02
1.622125e-09,9.859375e-03
1.626125e-09,1.104688e-02
1.630125e-09,1.078125e-02
1.634125e-09,1.051563e-02
1.638125e-09,9.812500e-03
1.642125e-09,1.009375e-02
1.646125e-09,9.546875e-03
1.650125e-09,9.390625e-03
1.654125e-09,9.625000e-03
1.658125e-09,9.625000e-03
1.662125e-09,9.203125e-03
1.666125e-09,8.578125e-03
1.670125e-09,8.328125e-03
1.674125e-09,8.468750e-03
1.678125e-09,7.796875e-03
1.682125e-09,8.109375e-03
1.686125e-09,8.015625e-03
1.690125e-09,7.906250e-03
1.694125e-09,6.390625e-03
1.698125e-09,6.890625e-03
1.702125e-09,5.765625e-03
1.706125e-09,6.656250e-03
1.710125e-09,6.140625e-03
1.714125e-09,5.609375e-03
1.718125e-09,4.687500e-03
1.722125e-09,4.796875e-03
1.726125e-09,4.093750e-03
1.730125e-09,3.812500e-03
1.734125e-09,3.937500e-03
1.738125e-09,3.859375e-03
1.742125e-09,3.421875e-03
1.746125e-09,2.781250e-03
1.750125e-09,2.562500e-03
1.754125e-09,2.765625e-03
1.758125e-09,2.187500e-03
