Measurements-streak-laser-independent/Photodiode-on-Tek-12bit-4GHz/Tek000_ch1_20190613132927377.csv

Model,MSO64
Waveform Type,ANALOG
Horizontal Units,s
Sample Interval,4.000000e-12
Record Length,1000
Zero Index,310.125000
Vertical Units,V

TIME,CH1
-1.240500e-09,5.984375e-03
-1.236500e-09,5.828125e-03
-1.232500e-09,5.250000e-03
-1.228500e-09,5.687500e-03
-1.224500e-09,5.312500e-03
-1.220500e-09,5.343750e-03
-1.216500e-09,5.765625e-03
-1.212500e-09,5.968750e-03
-1.208500e-09,5.765625e-03
-1.204500e-09,5.359375e-03
-1.200500e-09,5.343750e-03
-1.196500e-09,5.718750e-03
-1.192500e-09,5.281250e-03
-1.188500e-09,5.859375e-03
-1.184500e-09,6.015625e-03
-1.180500e-09,6.156250e-03
-1.176500e-09,4.875000e-03
-1.172500e-09,5.609375e-03
-1.168500e-09,4.718750e-03
-1.164500e-09,5.859375e-03
-1.160500e-09,5.562500e-03
-1.156500e-09,5.265625e-03
-1.152500e-09,4.546875e-03
-1.148500e-09,4.843750e-03
-1.144500e-09,4.328125e-03
-1.140500e-09,4.218750e-03
-1.136500e-09,4.515625e-03
-1.132500e-09,4.593750e-03
-1.128500e-09,4.281250e-03
-1.124500e-09,3.765625e-03
-1.120500e-09,3.656250e-03
-1.116500e-09,3.953125e-03
-1.112500e-09,3.437500e-03
-1.108500e-09,3.953125e-03
-1.104500e-09,4.062500e-03
-1.100500e-09,4.171875e-03
-1.096500e-09,2.875000e-03
-1.092500e-09,3.609375e-03
-1.088500e-09,2.718750e-03
-1.084500e-09,3.875000e-03
-1.080500e-09,3.625000e-03
-1.076500e-09,3.375000e-03
-1.072500e-09,2.750000e-03
-1.068500e-09,3.125000e-03
-1.064500e-09,2.703125e-03
-1.060500e-09,2.703125e-03
-1.056500e-09,3.109375e-03
-1.052500e-09,3.328125e-03
-1.048500e-09,3.140625e-03
-1.044500e-09,2.765625e-03
-1.040500e-09,2.796875e-03
-1.036500e-09,3.250000e-03
-1.032500e-09,2.906250e-03
-1.028500e-09,3.562500e-03
-1.024500e-09,3.828125e-03
-1.020500e-09,4.093750e-03
-1.016500e-09,2.953125e-03
-1.012500e-09,3.828125e-03
-1.008500e-09,3.093750e-03
-1.004500e-09,4.375000e-03
-1.000500e-09,4.250000e-03
-9.965000e-10,4.125000e-03
-9.925000e-10,3.578125e-03
-9.885000e-10,4.062500e-03
-9.845000e-10,3.718750e-03
-9.805000e-10,3.781250e-03
-9.765000e-10,4.234375e-03
-9.725000e-10,4.500000e-03
-9.685000e-10,4.328125e-03
-9.645000e-10,3.968750e-03
-9.605000e-10,4.000000e-03
-9.565000e-10,4.421875e-03
-9.525000e-10,4.015625e-03
-9.485000e-10,4.640625e-03
-9.445000e-10,4.828125e-03
-9.405000e-10,5.015625e-03
-9.365000e-10,3.781250e-03
-9.325000e-10,4.562500e-03
-9.285000e-10,3.718750e-03
-9.245000e-10,4.843750e-03
-9.205000e-10,4.593750e-03
-9.165000e-10,4.328125e-03
-9.125000e-10,3.640625e-03
-9.085000e-10,3.984375e-03
-9.045000e-10,3.484375e-03
-9.005000e-10,3.406250e-03
-8.965000e-10,3.718750e-03
-8.925000e-10,3.828125e-03
-8.885000e-10,3.531250e-03
-8.845000e-10,3.015625e-03
-8.805000e-10,2.921875e-03
-8.765000e-10,3.218750e-03
-8.725000e-10,2.718750e-03
-8.685000e-10,3.234375e-03
-8.645000e-10,3.343750e-03
-8.605000e-10,3.468750e-03
-8.565000e-10,2.187500e-03
-8.525000e-10,2.921875e-03
-8.485000e-10,2.046875e-03
-8.445000e-10,3.140625e-03
-8.405000e-10,2.906250e-03
-8.365000e-10,2.671875e-03
-8.325000e-10,2.046875e-03
-8.285000e-10,2.437500e-03
-8.245000e-10,2.015625e-03
-8.205000e-10,2.031250e-03
-8.165000e-10,2.453125e-03
-8.125000e-10,2.671875e-03
-8.085000e-10,2.546875e-03
-8.045000e-10,2.171875e-03
-8.005000e-10,2.234375e-03
-7.965000e-10,2.703125e-03
-7.925000e-10,2.390625e-03
-7.885000e-10,3.078125e-03
-7.845000e-10,3.390625e-03
-7.805000e-10,3.687500e-03
-7.765000e-10,2.625000e-03
-7.725000e-10,3.562500e-03
-7.685000e-10,2.890625e-03
-7.645000e-10,4.156250e-03
-7.605000e-10,4.125000e-03
-7.565000e-10,4.078125e-03
-7.525000e-10,3.656250e-03
-7.485000e-10,4.187500e-03
-7.445000e-10,3.906250e-03
-7.405000e-10,4.093750e-03
-7.365000e-10,4.625000e-03
-7.325000e-10,4.953125e-03
-7.285000e-10,4.953125e-03
-7.245000e-10,4.656250e-03
-7.205000e-10,4.765625e-03
-7.165000e-10,5.265625e-03
-7.125000e-10,4.984375e-03
-7.085000e-10,5.671875e-03
-7.045000e-10,5.953125e-03
-7.005000e-10,6.218750e-03
-6.965000e-10,5.078125e-03
-6.925000e-10,5.937500e-03
-6.885000e-10,5.187500e-03
-6.845000e-10,6.312500e-03
-6.805000e-10,6.156250e-03
-6.765000e-10,5.968750e-03
-6.725000e-10,5.375000e-03
-6.685000e-10,5.703125e-03
-6.645000e-10,5.218750e-03
-6.605000e-10,5.203125e-03
-6.565000e-10,5.531250e-03
-6.525000e-10,5.593750e-03
-6.485000e-10,5.406250e-03
-6.445000e-10,4.859375e-03
-6.405000e-10,4.718750e-03
-6.365000e-10,4.984375e-03
-6.325000e-10,4.468750e-03
-6.285000e-10,4.921875e-03
-6.245000e-10,4.968750e-03
-6.205000e-10,5.000000e-03
-6.165000e-10,3.625000e-03
-6.125000e-10,4.281250e-03
-6.085000e-10,3.375000e-03
-6.045000e-10,4.312500e-03
-6.005000e-10,4.015625e-03
-5.965000e-10,3.671875e-03
-5.925000e-10,2.937500e-03
-5.885000e-10,3.156250e-03
-5.845000e-10,2.578125e-03
-5.805000e-10,2.484375e-03
-5.765000e-10,2.765625e-03
-5.725000e-10,2.796875e-03
-5.685000e-10,2.593750e-03
-5.645000e-10,2.062500e-03
-5.605000e-10,1.968750e-03
-5.565000e-10,2.296875e-03
-5.525000e-10,1.859375e-03
-5.485000e-10,2.421875e-03
-5.445000e-10,2.578125e-03
-5.405000e-10,2.734375e-03
-5.365000e-10,1.515625e-03
-5.325000e-10,2.312500e-03
-5.285000e-10,1.625000e-03
-5.245000e-10,2.750000e-03
-5.205000e-10,2.687500e-03
-5.165000e-10,2.531250e-03
-5.125000e-10,2.031250e-03
-5.085000e-10,2.484375e-03
-5.045000e-10,2.171875e-03
-5.005000e-10,2.296875e-03
-4.965000e-10,2.828125e-03
-4.925000e-10,3.093750e-03
-4.885000e-10,3.093750e-03
-4.845000e-10,2.828125e-03
-4.805000e-10,2.984375e-03
-4.765000e-10,3.546875e-03
-4.725000e-10,3.296875e-03
-4.685000e-10,4.078125e-03
-4.645000e-10,4.406250e-03
-4.605000e-10,4.750000e-03
-4.565000e-10,3.687500e-03
-4.525000e-10,4.609375e-03
-4.485000e-10,4.031250e-03
-4.445000e-10,5.281250e-03
-4.405000e-10,5.328125e-03
-4.365000e-10,5.234375e-03
-4.325000e-10,4.781250e-03
-4.285000e-10,5.265625e-03
-4.245000e-10,5.000000e-03
-4.205000e-10,5.078125e-03
-4.165000e-10,5.609375e-03
-4.125000e-10,5.828125e-03
-4.085000e-10,5.718750e-03
-4.045000e-10,5.390625e-03
-4.005000e-10,5.468750e-03
-3.965000e-10,5.937500e-03
-3.925000e-10,5.531250e-03
-3.885000e-10,6.187500e-03
-3.845000e-10,6.375000e-03
-3.805000e-10,6.546875e-03
-3.765000e-10,5.343750e-03
-3.725000e-10,6.046875e-03
-3.685000e-10,5.281250e-03
-3.645000e-10,6.343750e-03
-3.605000e-10,6.187500e-03
-3.565000e-10,5.875000e-03
-3.525000e-10,5.250000e-03
-3.485000e-10,5.546875e-03
-3.445000e-10,5.109375e-03
-3.405000e-10,4.968750e-03
-3.365000e-10,5.281250e-03
-3.325000e-10,5.328125e-03
-3.285000e-10,5.015625e-03
-3.245000e-10,4.531250e-03
-3.205000e-10,4.468750e-03
-3.165000e-10,4.781250e-03
-3.125000e-10,4.234375e-03
-3.085000e-10,4.718750e-03
-3.045000e-10,4.828125e-03
-3.005000e-10,4.875000e-03
-2.965000e-10,3.593750e-03
-2.925000e-10,4.203125e-03
-2.885000e-10,3.359375e-03
-2.845000e-10,4.375000e-03
-2.805000e-10,4.140625e-03
-2.765000e-10,3.812500e-03
-2.725000e-10,3.187500e-03
-2.685000e-10,3.468750e-03
-2.645000e-10,3.031250e-03
-2.605000e-10,2.906250e-03
-2.565000e-10,3.234375e-03
-2.525000e-10,3.312500e-03
-2.485000e-10,3.031250e-03
-2.445000e-10,2.640625e-03
-2.405000e-10,2.609375e-03
-2.365000e-10,2.968750e-03
-2.325000e-10,2.515625e-03
-2.285000e-10,3.078125e-03
-2.245000e-10,3.281250e-03
-2.205000e-10,3.437500e-03
-2.165000e-10,2.281250e-03
-2.125000e-10,3.015625e-03
-2.085000e-10,2.250000e-03
-2.045000e-10,3.437500e-03
-2.005000e-10,3.296875e-03
-1.965000e-10,3.125000e-03
-1.925000e-10,2.656250e-03
-1.885000e-10,3.109375e-03
-1.845000e-10,2.812500e-03
-1.805000e-10,2.890625e-03
-1.765000e-10,3.375000e-03
-1.725000e-10,3.656250e-03
-1.685000e-10,3.578125e-03
-1.645000e-10,3.421875e-03
-1.605000e-10,3.593750e-03
-1.565000e-10,4.171875e-03
-1.525000e-10,4.000000e-03
-1.485000e-10,4.843750e-03
-1.445000e-10,5.328125e-03
-1.405000e-10,5.812500e-03
-1.365000e-10,5.015625e-03
-1.325000e-10,6.109375e-03
-1.285000e-10,5.718750e-03
-1.245000e-10,7.328125e-03
-1.205000e-10,7.593750e-03
-1.165000e-10,7.906250e-03
-1.125000e-10,7.953125e-03
-1.085000e-10,8.937500e-03
-1.045000e-10,9.203125e-03
-1.005000e-10,9.890625e-03
-9.650000e-11,1.101563e-02
-9.250000e-11,1.200000e-02
-8.850000e-11,1.260938e-02
-8.450000e-11,1.320313e-02
-8.050000e-11,1.417188e-02
-7.650000e-11,1.553125e-02
-7.250000e-11,1.623438e-02
-6.850000e-11,1.798438e-02
-6.450000e-11,1.939063e-02
-6.050000e-11,2.089063e-02
-5.650000e-11,2.112500e-02
-5.250000e-11,2.328125e-02
-4.850000e-11,2.395313e-02
-4.450000e-11,2.670313e-02
-4.050000e-11,2.809375e-02
-3.650000e-11,2.962500e-02
-3.250000e-11,3.085938e-02
-2.850000e-11,3.309375e-02
-2.450000e-11,3.462500e-02
-2.050000e-11,3.659375e-02
-1.650000e-11,3.901563e-02
-1.250000e-11,4.134375e-02
-8.500000e-12,4.326563e-02
-4.500000e-12,4.518750e-02
-5.000000e-13,4.748438e-02
3.500000e-12,5.015625e-02
7.500000e-12,5.218750e-02
1.150000e-11,5.525000e-02
1.550000e-11,5.793750e-02
1.950000e-11,6.076563e-02
2.350000e-11,6.226563e-02
2.750000e-11,6.564063e-02
3.150000e-11,6.751563e-02
3.550000e-11,7.143750e-02
3.950000e-11,7.390625e-02
4.350000e-11,7.653125e-02
4.750000e-11,7.878125e-02
5.150000e-11,8.195313e-02
5.550000e-11,8.439063e-02
5.950000e-11,8.718750e-02
6.350000e-11,9.039063e-02
6.750000e-11,9.345313e-02
7.150000e-11,9.595313e-02
7.550000e-11,9.840625e-02
7.950000e-11,1.011406e-01
8.350000e-11,1.041719e-01
8.750000e-11,1.065000e-01
9.150000e-11,1.097344e-01
9.550000e-11,1.124844e-01
9.950000e-11,1.153125e-01
1.035000e-10,1.166875e-01
1.075000e-10,1.198594e-01
1.115000e-10,1.214063e-01
1.155000e-10,1.248750e-01
1.195000e-10,1.267969e-01
1.235000e-10,1.287969e-01
1.275000e-10,1.302813e-01
1.315000e-10,1.325781e-01
1.355000e-10,1.340625e-01
1.395000e-10,1.357969e-01
1.435000e-10,1.378125e-01
1.475000e-10,1.396406e-01
1.515000e-10,1.407656e-01
1.555000e-10,1.417188e-01
1.595000e-10,1.429219e-01
1.635000e-10,1.443125e-01
1.675000e-10,1.449063e-01
1.715000e-10,1.463125e-01
1.755000e-10,1.471406e-01
1.795000e-10,1.480000e-01
1.835000e-10,1.472969e-01
1.875000e-10,1.483906e-01
1.915000e-10,1.477813e-01
1.955000e-10,1.489844e-01
1.995000e-10,1.486250e-01
2.035000e-10,1.482813e-01
2.075000e-10,1.473750e-01
2.115000e-10,1.472656e-01
2.155000e-10,1.463438e-01
2.195000e-10,1.456406e-01
2.235000e-10,1.451719e-01
2.275000e-10,1.445313e-01
2.315000e-10,1.431719e-01
2.355000e-10,1.416250e-01
2.395000e-10,1.403594e-01
2.435000e-10,1.393125e-01
2.475000e-10,1.374844e-01
2.515000e-10,1.364688e-01
2.555000e-10,1.349219e-01
2.595000e-10,1.334375e-01
2.635000e-10,1.304219e-01
2.675000e-10,1.292969e-01
2.715000e-10,1.265313e-01
2.755000e-10,1.256094e-01
2.795000e-10,1.231875e-01
2.835000e-10,1.208594e-01
2.875000e-10,1.180313e-01
2.915000e-10,1.161094e-01
2.955000e-10,1.134688e-01
2.995000e-10,1.111250e-01
3.035000e-10,1.090781e-01
3.075000e-10,1.069531e-01
3.115000e-10,1.042344e-01
3.155000e-10,1.014219e-01
3.195000e-10,9.896875e-02
3.235000e-10,9.687500e-02
3.275000e-10,9.406250e-02
3.315000e-10,9.217188e-02
3.355000e-10,8.987500e-02
3.395000e-10,8.775000e-02
3.435000e-10,8.417188e-02
3.475000e-10,8.260938e-02
3.515000e-10,7.953125e-02
3.555000e-10,7.835938e-02
3.595000e-10,7.582813e-02
3.635000e-10,7.345313e-02
3.675000e-10,7.068750e-02
3.715000e-10,6.893750e-02
3.755000e-10,6.656250e-02
3.795000e-10,6.456250e-02
3.835000e-10,6.293750e-02
3.875000e-10,6.129688e-02
3.915000e-10,5.921875e-02
3.955000e-10,5.706250e-02
3.995000e-10,5.534375e-02
4.035000e-10,5.406250e-02
4.075000e-10,5.209375e-02
4.115000e-10,5.110938e-02
4.155000e-10,4.979688e-02
4.195000e-10,4.867188e-02
4.235000e-10,4.614063e-02
4.275000e-10,4.568750e-02
4.315000e-10,4.373438e-02
4.355000e-10,4.368750e-02
4.395000e-10,4.237500e-02
4.435000e-10,4.115625e-02
4.475000e-10,3.959375e-02
4.515000e-10,3.904688e-02
4.555000e-10,3.785938e-02
4.595000e-10,3.704688e-02
4.635000e-10,3.659375e-02
4.675000e-10,3.610938e-02
4.715000e-10,3.521875e-02
4.755000e-10,3.420313e-02
4.795000e-10,3.359375e-02
4.835000e-10,3.339063e-02
4.875000e-10,3.245313e-02
4.915000e-10,3.245313e-02
4.955000e-10,3.212500e-02
4.995000e-10,3.189063e-02
5.035000e-10,3.025000e-02
5.075000e-10,3.062500e-02
5.115000e-10,2.946875e-02
5.155000e-10,3.015625e-02
5.195000e-10,2.954688e-02
5.235000e-10,2.895313e-02
5.275000e-10,2.796875e-02
5.315000e-10,2.795313e-02
5.355000e-10,2.720313e-02
5.395000e-10,2.681250e-02
5.435000e-10,2.671875e-02
5.475000e-10,2.654688e-02
5.515000e-10,2.595313e-02
5.555000e-10,2.515625e-02
5.595000e-10,2.473438e-02
5.635000e-10,2.465625e-02
5.675000e-10,2.381250e-02
5.715000e-10,2.385938e-02
5.755000e-10,2.356250e-02
5.795000e-10,2.326563e-02
5.835000e-10,2.159375e-02
5.875000e-10,2.185938e-02
5.915000e-10,2.060938e-02
5.955000e-10,2.118750e-02
5.995000e-10,2.043750e-02
6.035000e-10,1.964063e-02
6.075000e-10,1.848438e-02
6.115000e-10,1.829688e-02
6.155000e-10,1.731250e-02
6.195000e-10,1.670313e-02
6.235000e-10,1.642188e-02
6.275000e-10,1.604688e-02
6.315000e-10,1.526563e-02
6.355000e-10,1.425000e-02
6.395000e-10,1.368750e-02
6.435000e-10,1.343750e-02
6.475000e-10,1.243750e-02
6.515000e-10,1.237500e-02
6.555000e-10,1.200000e-02
6.595000e-10,1.156250e-02
6.635000e-10,9.843750e-03
6.675000e-10,1.003125e-02
6.715000e-10,8.781250e-03
6.755000e-10,9.390625e-03
6.795000e-10,8.703125e-03
6.835000e-10,7.984375e-03
6.875000e-10,6.906250e-03
6.915000e-10,6.875000e-03
6.955000e-10,6.015625e-03
6.995000e-10,5.562500e-03
7.035000e-10,5.515625e-03
7.075000e-10,5.375000e-03
7.115000e-10,4.875000e-03
7.155000e-10,4.125000e-03
7.195000e-10,3.890625e-03
7.235000e-10,3.968750e-03
7.275000e-10,3.328125e-03
7.315000e-10,3.656250e-03
7.355000e-10,3.687500e-03
7.395000e-10,3.640625e-03
7.435000e-10,2.359375e-03
7.475000e-10,2.953125e-03
7.515000e-10,2.140625e-03
7.555000e-10,3.218750e-03
7.595000e-10,2.984375e-03
7.635000e-10,2.750000e-03
7.675000e-10,2.093750e-03
7.715000e-10,2.531250e-03
7.755000e-10,2.125000e-03
7.795000e-10,2.109375e-03
7.835000e-10,2.531250e-03
7.875000e-10,2.781250e-03
7.915000e-10,2.703125e-03
7.955000e-10,2.375000e-03
7.995000e-10,2.484375e-03
8.035000e-10,2.968750e-03
8.075000e-10,2.687500e-03
8.115000e-10,3.375000e-03
8.155000e-10,3.718750e-03
8.195000e-10,3.953125e-03
8.235000e-10,2.968750e-03
8.275000e-10,3.812500e-03
8.315000e-10,3.187500e-03
8.355000e-10,4.515625e-03
8.395000e-10,4.468750e-03
8.435000e-10,4.421875e-03
8.475000e-10,3.921875e-03
8.515000e-10,4.453125e-03
8.555000e-10,4.156250e-03
8.595000e-10,4.250000e-03
8.635000e-10,4.750000e-03
8.675000e-10,5.000000e-03
8.715000e-10,4.968750e-03
8.755000e-10,4.640625e-03
8.795000e-10,4.718750e-03
8.835000e-10,5.203125e-03
8.875000e-10,4.921875e-03
8.915000e-10,5.562500e-03
8.955000e-10,5.843750e-03
8.995000e-10,6.000000e-03
9.035000e-10,4.968750e-03
9.075000e-10,5.734375e-03
9.115000e-10,5.000000e-03
9.155000e-10,6.265625e-03
9.195000e-10,6.125000e-03
9.235000e-10,5.984375e-03
9.275000e-10,5.421875e-03
9.315000e-10,5.828125e-03
9.355000e-10,5.468750e-03
9.395000e-10,5.500000e-03
9.435000e-10,5.937500e-03
9.475000e-10,6.078125e-03
9.515000e-10,5.984375e-03
9.555000e-10,5.609375e-03
9.595000e-10,5.609375e-03
9.635000e-10,6.078125e-03
9.675000e-10,5.765625e-03
9.715000e-10,6.359375e-03
9.755000e-10,6.609375e-03
9.795000e-10,6.781250e-03
9.835000e-10,5.750000e-03
9.875000e-10,6.531250e-03
9.915000e-10,5.781250e-03
9.955000e-10,7.062500e-03
9.995000e-10,6.953125e-03
1.003500e-09,6.812500e-03
1.007500e-09,6.296875e-03
1.011500e-09,6.750000e-03
1.015500e-09,6.421875e-03
1.019500e-09,6.515625e-03
1.023500e-09,7.015625e-03
1.027500e-09,7.187500e-03
1.031500e-09,7.109375e-03
1.035500e-09,6.812500e-03
1.039500e-09,6.843750e-03
1.043500e-09,7.343750e-03
1.047500e-09,7.062500e-03
1.051500e-09,7.703125e-03
1.055500e-09,7.968750e-03
1.059500e-09,8.187500e-03
1.063500e-09,7.171875e-03
1.067500e-09,8.000000e-03
1.071500e-09,7.250000e-03
1.075500e-09,8.515625e-03
1.079500e-09,8.375000e-03
1.083500e-09,8.234375e-03
1.087500e-09,7.687500e-03
1.091500e-09,8.109375e-03
1.095500e-09,7.765625e-03
1.099500e-09,7.796875e-03
1.103500e-09,8.250000e-03
1.107500e-09,8.390625e-03
1.111500e-09,8.234375e-03
1.115500e-09,7.843750e-03
1.119500e-09,7.796875e-03
1.123500e-09,8.218750e-03
1.127500e-09,7.843750e-03
1.131500e-09,8.390625e-03
1.135500e-09,8.578125e-03
1.139500e-09,8.703125e-03
1.143500e-09,7.578125e-03
1.147500e-09,8.343750e-03
1.151500e-09,7.500000e-03
1.155500e-09,8.656250e-03
1.159500e-09,8.437500e-03
1.163500e-09,8.203125e-03
1.167500e-09,7.562500e-03
1.171500e-09,7.937500e-03
1.175500e-09,7.515625e-03
1.179500e-09,7.484375e-03
1.183500e-09,7.875000e-03
1.187500e-09,8.015625e-03
1.191500e-09,7.812500e-03
1.195500e-09,7.390625e-03
1.199500e-09,7.359375e-03
1.203500e-09,7.765625e-03
1.207500e-09,7.390625e-03
1.211500e-09,7.984375e-03
1.215500e-09,8.187500e-03
1.219500e-09,8.390625e-03
1.223500e-09,7.296875e-03
1.227500e-09,8.140625e-03
1.231500e-09,7.375000e-03
1.235500e-09,8.625000e-03
1.239500e-09,8.500000e-03
1.243500e-09,8.375000e-03
1.247500e-09,7.843750e-03
1.251500e-09,8.343750e-03
1.255500e-09,8.031250e-03
1.259500e-09,8.140625e-03
1.263500e-09,8.656250e-03
1.267500e-09,8.953125e-03
1.271500e-09,8.890625e-03
1.275500e-09,8.609375e-03
1.279500e-09,8.718750e-03
1.283500e-09,9.265625e-03
1.287500e-09,9.015625e-03
1.291500e-09,9.750000e-03
1.295500e-09,1.007813e-02
1.299500e-09,1.040625e-02
1.303500e-09,9.375000e-03
1.307500e-09,1.031250e-02
1.311500e-09,9.640625e-03
1.315500e-09,1.096875e-02
1.319500e-09,1.089063e-02
1.323500e-09,1.081250e-02
1.327500e-09,1.031250e-02
1.331500e-09,1.081250e-02
1.335500e-09,1.050000e-02
1.339500e-09,1.059375e-02
1.343500e-09,1.106250e-02
1.347500e-09,1.131250e-02
1.351500e-09,1.117188e-02
1.355500e-09,1.079688e-02
1.359500e-09,1.081250e-02
1.363500e-09,1.123438e-02
1.367500e-09,1.082813e-02
1.371500e-09,1.140625e-02
1.375500e-09,1.157813e-02
1.379500e-09,1.171875e-02
1.383500e-09,1.046875e-02
1.387500e-09,1.120313e-02
1.391500e-09,1.031250e-02
1.395500e-09,1.140625e-02
1.399500e-09,1.109375e-02
1.403500e-09,1.075000e-02
1.407500e-09,1.001563e-02
1.411500e-09,1.025000e-02
1.415500e-09,9.687500e-03
1.419500e-09,9.515625e-03
1.423500e-09,9.734375e-03
1.427500e-09,9.750000e-03
1.431500e-09,9.343750e-03
1.435500e-09,8.734375e-03
1.439500e-09,8.515625e-03
1.443500e-09,8.703125e-03
1.447500e-09,8.078125e-03
1.451500e-09,8.468750e-03
1.455500e-09,8.437500e-03
1.459500e-09,8.421875e-03
1.463500e-09,7.000000e-03
1.467500e-09,7.593750e-03
1.471500e-09,6.578125e-03
1.475500e-09,7.578125e-03
1.479500e-09,7.171875e-03
1.483500e-09,6.765625e-03
1.487500e-09,5.968750e-03
1.491500e-09,6.203125e-03
1.495500e-09,5.625000e-03
1.499500e-09,5.468750e-03
1.503500e-09,5.718750e-03
1.507500e-09,5.781250e-03
1.511500e-09,5.453125e-03
1.515500e-09,4.937500e-03
1.519500e-09,4.843750e-03
1.523500e-09,5.156250e-03
1.527500e-09,4.671875e-03
1.531500e-09,5.203125e-03
1.535500e-09,5.359375e-03
1.539500e-09,5.515625e-03
1.543500e-09,4.281250e-03
1.547500e-09,5.078125e-03
1.551500e-09,4.265625e-03
1.555500e-09,5.484375e-03
1.559500e-09,5.296875e-03
1.563500e-09,5.125000e-03
1.567500e-09,4.546875e-03
1.571500e-09,5.000000e-03
1.575500e-09,4.640625e-03
1.579500e-09,4.687500e-03
1.583500e-09,5.156250e-03
1.587500e-09,5.421875e-03
1.591500e-09,5.281250e-03
1.595500e-09,4.953125e-03
1.599500e-09,5.031250e-03
1.603500e-09,5.500000e-03
1.607500e-09,5.171875e-03
1.611500e-09,5.843750e-03
1.615500e-09,6.109375e-03
1.619500e-09,6.375000e-03
1.623500e-09,5.218750e-03
1.627500e-09,6.093750e-03
1.631500e-09,5.328125e-03
1.635500e-09,6.578125e-03
1.639500e-09,6.421875e-03
1.643500e-09,6.250000e-03
1.647500e-09,5.656250e-03
1.651500e-09,6.078125e-03
1.655500e-09,5.671875e-03
1.659500e-09,5.671875e-03
1.663500e-09,6.062500e-03
1.667500e-09,6.250000e-03
1.671500e-09,6.015625e-03
1.675500e-09,5.578125e-03
1.679500e-09,5.531250e-03
1.683500e-09,5.875000e-03
1.687500e-09,5.406250e-03
1.691500e-09,5.953125e-03
1.695500e-09,6.078125e-03
1.699500e-09,6.187500e-03
1.703500e-09,4.890625e-03
1.707500e-09,5.609375e-03
1.711500e-09,4.703125e-03
1.715500e-09,5.812500e-03
1.719500e-09,5.515625e-03
1.723500e-09,5.203125e-03
1.727500e-09,4.500000e-03
1.731500e-09,4.796875e-03
1.735500e-09,4.281250e-03
1.739500e-09,4.187500e-03
1.743500e-09,4.484375e-03
1.747500e-09,4.593750e-03
1.751500e-09,4.296875e-03
1.755500e-09,3.812500e-03
1.759500e-09,3.718750e-03
