Measurements-streak-laser-independent/Photodiode-on-Tek-12bit-4GHz/Tek000_ch1_20190613133008795.csv

Model,MSO64
Waveform Type,ANALOG
Horizontal Units,s
Sample Interval,4.000000e-12
Record Length,1000
Zero Index,310.859375
Vertical Units,V

TIME,CH1
-1.243438e-09,7.343750e-03
-1.239438e-09,7.171875e-03
-1.235438e-09,6.796875e-03
-1.231438e-09,6.828125e-03
-1.227437e-09,7.281250e-03
-1.223437e-09,6.906250e-03
-1.219437e-09,7.546875e-03
-1.215437e-09,7.781250e-03
-1.211437e-09,8.031250e-03
-1.207437e-09,6.859375e-03
-1.203437e-09,7.703125e-03
-1.199437e-09,6.921875e-03
-1.195437e-09,8.171875e-03
-1.191438e-09,8.015625e-03
-1.187438e-09,7.843750e-03
-1.183438e-09,7.265625e-03
-1.179438e-09,7.687500e-03
-1.175438e-09,7.312500e-03
-1.171438e-09,7.328125e-03
-1.167437e-09,7.750000e-03
-1.163437e-09,7.953125e-03
-1.159437e-09,7.750000e-03
-1.155437e-09,7.343750e-03
-1.151437e-09,7.343750e-03
-1.147437e-09,7.734375e-03
-1.143437e-09,7.312500e-03
-1.139437e-09,7.890625e-03
-1.135437e-09,8.046875e-03
-1.131438e-09,8.218750e-03
-1.127438e-09,6.953125e-03
-1.123438e-09,7.703125e-03
-1.119438e-09,6.828125e-03
-1.115438e-09,7.968750e-03
-1.111438e-09,7.687500e-03
-1.107437e-09,7.406250e-03
-1.103437e-09,6.718750e-03
-1.099437e-09,7.015625e-03
-1.095437e-09,6.515625e-03
-1.091437e-09,6.406250e-03
-1.087437e-09,6.703125e-03
-1.083437e-09,6.796875e-03
-1.079437e-09,6.468750e-03
-1.075437e-09,5.953125e-03
-1.071438e-09,5.828125e-03
-1.067438e-09,6.109375e-03
-1.063438e-09,5.578125e-03
-1.059438e-09,6.062500e-03
-1.055438e-09,6.140625e-03
-1.051438e-09,6.218750e-03
-1.047437e-09,4.906250e-03
-1.043437e-09,5.593750e-03
-1.039437e-09,4.671875e-03
-1.035437e-09,5.781250e-03
-1.031437e-09,5.468750e-03
-1.027437e-09,5.171875e-03
-1.023437e-09,4.484375e-03
-1.019437e-09,4.796875e-03
-1.015437e-09,4.328125e-03
-1.011438e-09,4.250000e-03
-1.007438e-09,4.593750e-03
-1.003438e-09,4.750000e-03
-9.994375e-10,4.500000e-03
-9.954375e-10,4.062500e-03
-9.914375e-10,4.031250e-03
-9.874375e-10,4.421875e-03
-9.834375e-10,4.015625e-03
-9.794375e-10,4.609375e-03
-9.754375e-10,4.828125e-03
-9.714375e-10,5.031250e-03
-9.674375e-10,3.843750e-03
-9.634375e-10,4.687500e-03
-9.594375e-10,3.906250e-03
-9.554375e-10,5.140625e-03
-9.514375e-10,4.984375e-03
-9.474375e-10,4.843750e-03
-9.434375e-10,4.296875e-03
-9.394375e-10,4.750000e-03
-9.354375e-10,4.406250e-03
-9.314375e-10,4.468750e-03
-9.274375e-10,4.937500e-03
-9.234375e-10,5.203125e-03
-9.194375e-10,5.062500e-03
-9.154375e-10,4.718750e-03
-9.114375e-10,4.781250e-03
-9.074375e-10,5.234375e-03
-9.034375e-10,4.890625e-03
-8.994375e-10,5.546875e-03
-8.954375e-10,5.781250e-03
-8.914375e-10,6.031250e-03
-8.874375e-10,4.859375e-03
-8.834375e-10,5.687500e-03
-8.794375e-10,4.906250e-03
-8.754375e-10,6.078125e-03
-8.714375e-10,5.890625e-03
-8.674375e-10,5.687500e-03
-8.634375e-10,5.078125e-03
-8.594375e-10,5.468750e-03
-8.554375e-10,5.031250e-03
-8.514375e-10,5.015625e-03
-8.474375e-10,5.375000e-03
-8.434375e-10,5.515625e-03
-8.394375e-10,5.281250e-03
-8.354375e-10,4.812500e-03
-8.314375e-10,4.734375e-03
-8.274375e-10,5.062500e-03
-8.234375e-10,4.578125e-03
-8.194375e-10,5.093750e-03
-8.154375e-10,5.218750e-03
-8.114375e-10,5.328125e-03
-8.074375e-10,4.062500e-03
-8.034375e-10,4.765625e-03
-7.994375e-10,3.875000e-03
-7.954375e-10,4.890625e-03
-7.914375e-10,4.640625e-03
-7.874375e-10,4.359375e-03
-7.834375e-10,3.703125e-03
-7.794375e-10,4.015625e-03
-7.754375e-10,3.515625e-03
-7.714375e-10,3.500000e-03
-7.674375e-10,3.828125e-03
-7.634375e-10,3.968750e-03
-7.594375e-10,3.781250e-03
-7.554375e-10,3.328125e-03
-7.514375e-10,3.281250e-03
-7.474375e-10,3.671875e-03
-7.434375e-10,3.265625e-03
-7.394375e-10,3.859375e-03
-7.354375e-10,4.093750e-03
-7.314375e-10,4.296875e-03
-7.274375e-10,3.171875e-03
-7.234375e-10,4.031250e-03
-7.194375e-10,3.312500e-03
-7.154375e-10,4.453125e-03
-7.114375e-10,4.406250e-03
-7.074375e-10,4.312500e-03
-7.034375e-10,3.859375e-03
-6.994375e-10,4.359375e-03
-6.954375e-10,4.046875e-03
-6.914375e-10,4.250000e-03
-6.874375e-10,4.781250e-03
-6.834375e-10,5.093750e-03
-6.794375e-10,5.171875e-03
-6.754375e-10,4.906250e-03
-6.714375e-10,5.062500e-03
-6.674375e-10,5.625000e-03
-6.634375e-10,5.421875e-03
-6.594375e-10,6.187500e-03
-6.554375e-10,6.578125e-03
-6.514375e-10,6.937500e-03
-6.474375e-10,5.937500e-03
-6.434375e-10,6.921875e-03
-6.394375e-10,6.359375e-03
-6.354375e-10,7.593750e-03
-6.314375e-10,7.625000e-03
-6.274375e-10,7.625000e-03
-6.234375e-10,7.234375e-03
-6.194375e-10,7.734375e-03
-6.154375e-10,7.421875e-03
-6.114375e-10,7.625000e-03
-6.074375e-10,8.140625e-03
-6.034375e-10,8.390625e-03
-5.994375e-10,8.437500e-03
-5.954375e-10,8.109375e-03
-5.914375e-10,8.156250e-03
-5.874375e-10,8.609375e-03
-5.834375e-10,8.312500e-03
-5.794375e-10,8.937500e-03
-5.754375e-10,9.171875e-03
-5.714375e-10,9.359375e-03
-5.674375e-10,8.140625e-03
-5.634375e-10,8.937500e-03
-5.594375e-10,8.218750e-03
-5.554375e-10,9.234375e-03
-5.514375e-10,9.093750e-03
-5.474375e-10,8.843750e-03
-5.434375e-10,8.218750e-03
-5.394375e-10,8.500000e-03
-5.354375e-10,7.968750e-03
-5.314375e-10,7.921875e-03
-5.274375e-10,8.218750e-03
-5.234375e-10,8.234375e-03
-5.194375e-10,8.031250e-03
-5.154375e-10,7.484375e-03
-5.114375e-10,7.343750e-03
-5.074375e-10,7.609375e-03
-5.034375e-10,7.093750e-03
-4.994375e-10,7.562500e-03
-4.954375e-10,7.593750e-03
-4.914375e-10,7.593750e-03
-4.874375e-10,6.234375e-03
-4.834375e-10,6.843750e-03
-4.794375e-10,6.000000e-03
-4.754375e-10,6.906250e-03
-4.714375e-10,6.671875e-03
-4.674375e-10,6.296875e-03
-4.634375e-10,5.593750e-03
-4.594375e-10,5.796875e-03
-4.554375e-10,5.250000e-03
-4.514375e-10,5.125000e-03
-4.474375e-10,5.406250e-03
-4.434375e-10,5.390625e-03
-4.394375e-10,5.125000e-03
-4.354375e-10,4.609375e-03
-4.314375e-10,4.515625e-03
-4.274375e-10,4.828125e-03
-4.234375e-10,4.312500e-03
-4.194375e-10,4.843750e-03
-4.154375e-10,4.937500e-03
-4.114375e-10,5.015625e-03
-4.074375e-10,3.750000e-03
-4.034375e-10,4.406250e-03
-3.994375e-10,3.656250e-03
-3.954375e-10,4.656250e-03
-3.914375e-10,4.546875e-03
-3.874375e-10,4.250000e-03
-3.834375e-10,3.671875e-03
-3.794375e-10,4.000000e-03
-3.754375e-10,3.625000e-03
-3.714375e-10,3.578125e-03
-3.674375e-10,4.000000e-03
-3.634375e-10,4.140625e-03
-3.594375e-10,3.953125e-03
-3.554375e-10,3.593750e-03
-3.514375e-10,3.671875e-03
-3.474375e-10,4.140625e-03
-3.434375e-10,3.734375e-03
-3.394375e-10,4.406250e-03
-3.354375e-10,4.671875e-03
-3.314375e-10,4.890625e-03
-3.274375e-10,3.796875e-03
-3.234375e-10,4.562500e-03
-3.194375e-10,3.953125e-03
-3.154375e-10,5.125000e-03
-3.114375e-10,5.125000e-03
-3.074375e-10,4.984375e-03
-3.034375e-10,4.562500e-03
-2.994375e-10,5.046875e-03
-2.954375e-10,4.843750e-03
-2.914375e-10,4.906250e-03
-2.874375e-10,5.453125e-03
-2.834375e-10,5.718750e-03
-2.794375e-10,5.640625e-03
-2.754375e-10,5.453125e-03
-2.714375e-10,5.640625e-03
-2.674375e-10,6.218750e-03
-2.634375e-10,5.953125e-03
-2.594375e-10,6.703125e-03
-2.554375e-10,7.093750e-03
-2.514375e-10,7.421875e-03
-2.474375e-10,6.453125e-03
-2.434375e-10,7.312500e-03
-2.394375e-10,6.750000e-03
-2.354375e-10,8.015625e-03
-2.314375e-10,8.046875e-03
-2.274375e-10,7.984375e-03
-2.234375e-10,7.656250e-03
-2.194375e-10,8.187500e-03
-2.154375e-10,8.000000e-03
-2.114375e-10,8.109375e-03
-2.074375e-10,8.640625e-03
-2.034375e-10,8.937500e-03
-1.994375e-10,8.859375e-03
-1.954375e-10,8.687500e-03
-1.914375e-10,8.843750e-03
-1.874375e-10,9.375000e-03
-1.834375e-10,9.093750e-03
-1.794375e-10,9.796875e-03
-1.754375e-10,1.015625e-02
-1.714375e-10,1.045313e-02
-1.674375e-10,9.468750e-03
-1.634375e-10,1.029688e-02
-1.594375e-10,9.656250e-03
-1.554375e-10,1.092188e-02
-1.514375e-10,1.087500e-02
-1.474375e-10,1.081250e-02
-1.434375e-10,1.048438e-02
-1.394375e-10,1.101563e-02
-1.354375e-10,1.082813e-02
-1.314375e-10,1.100000e-02
-1.274375e-10,1.157813e-02
-1.234375e-10,1.195313e-02
-1.194375e-10,1.198438e-02
-1.154375e-10,1.196875e-02
-1.114375e-10,1.228125e-02
-1.074375e-10,1.295313e-02
-1.034375e-10,1.295313e-02
-9.943750e-11,1.395313e-02
-9.543750e-11,1.462500e-02
-9.143750e-11,1.532813e-02
-8.743750e-11,1.481250e-02
-8.343750e-11,1.614063e-02
-7.943750e-11,1.603125e-02
-7.543750e-11,1.795313e-02
-7.143750e-11,1.854688e-02
-6.743750e-11,1.925000e-02
-6.343750e-11,1.971875e-02
-5.943750e-11,2.115625e-02
-5.543750e-11,2.192188e-02
-5.143750e-11,2.314063e-02
-4.743750e-11,2.481250e-02
-4.343750e-11,2.642188e-02
-3.943750e-11,2.767188e-02
-3.543750e-11,2.898438e-02
-3.143750e-11,3.068750e-02
-2.743750e-11,3.278125e-02
-2.343750e-11,3.432813e-02
-1.943750e-11,3.693750e-02
-1.543750e-11,3.925000e-02
-1.143750e-11,4.173438e-02
-7.437500e-12,4.301563e-02
-3.437500e-12,4.617188e-02
5.625000e-13,4.793750e-02
4.562500e-12,5.179688e-02
8.562500e-12,5.431250e-02
1.256250e-11,5.706250e-02
1.656250e-11,5.954688e-02
2.056250e-11,6.301563e-02
2.456250e-11,6.582813e-02
2.856250e-11,6.909375e-02
3.256250e-11,7.282813e-02
3.656250e-11,7.653125e-02
4.056250e-11,7.978125e-02
4.456250e-11,8.307813e-02
4.856250e-11,8.673438e-02
5.256250e-11,9.073438e-02
5.656250e-11,9.414063e-02
6.056250e-11,9.854688e-02
6.456250e-11,1.025781e-01
6.856250e-11,1.067500e-01
7.256250e-11,1.095781e-01
7.656250e-11,1.142188e-01
8.056250e-11,1.173438e-01
8.456250e-11,1.224531e-01
8.856250e-11,1.260625e-01
9.256250e-11,1.298438e-01
9.656250e-11,1.331875e-01
1.005625e-10,1.373594e-01
1.045625e-10,1.407813e-01
1.085625e-10,1.444688e-01
1.125625e-10,1.485000e-01
1.165625e-10,1.523594e-01
1.205625e-10,1.555313e-01
1.245625e-10,1.586094e-01
1.285625e-10,1.619063e-01
1.325625e-10,1.653594e-01
1.365625e-10,1.680938e-01
1.405625e-10,1.716094e-01
1.445625e-10,1.745469e-01
1.485625e-10,1.775156e-01
1.525625e-10,1.789531e-01
1.565625e-10,1.820625e-01
1.605625e-10,1.834844e-01
1.645625e-10,1.866875e-01
1.685625e-10,1.882656e-01
1.725625e-10,1.898750e-01
1.765625e-10,1.908750e-01
1.805625e-10,1.925625e-01
1.845625e-10,1.934375e-01
1.885625e-10,1.944375e-01
1.925625e-10,1.956094e-01
1.965625e-10,1.965938e-01
2.005625e-10,1.967188e-01
2.045625e-10,1.966563e-01
2.085625e-10,1.967656e-01
2.125625e-10,1.969844e-01
2.165625e-10,1.964063e-01
2.205625e-10,1.965469e-01
2.245625e-10,1.960313e-01
2.285625e-10,1.955781e-01
2.325625e-10,1.935000e-01
2.365625e-10,1.931719e-01
2.405625e-10,1.911563e-01
2.445625e-10,1.908594e-01
2.485625e-10,1.889844e-01
2.525625e-10,1.871719e-01
2.565625e-10,1.847813e-01
2.605625e-10,1.831406e-01
2.645625e-10,1.807656e-01
2.685625e-10,1.785625e-01
2.725625e-10,1.765938e-01
2.765625e-10,1.745000e-01
2.805625e-10,1.716719e-01
2.845625e-10,1.687188e-01
2.885625e-10,1.660469e-01
2.925625e-10,1.636250e-01
2.965625e-10,1.604688e-01
3.005625e-10,1.581250e-01
3.045625e-10,1.552969e-01
3.085625e-10,1.526250e-01
3.125625e-10,1.484375e-01
3.165625e-10,1.461875e-01
3.205625e-10,1.423594e-01
3.245625e-10,1.403438e-01
3.285625e-10,1.369219e-01
3.325625e-10,1.336563e-01
3.365625e-10,1.299531e-01
3.405625e-10,1.271719e-01
3.445625e-10,1.237813e-01
3.485625e-10,1.206875e-01
3.525625e-10,1.179063e-01
3.565625e-10,1.151406e-01
3.605625e-10,1.118281e-01
3.645625e-10,1.084531e-01
3.685625e-10,1.055000e-01
3.725625e-10,1.029063e-01
3.765625e-10,9.965625e-02
3.805625e-10,9.734375e-02
3.845625e-10,9.467188e-02
3.885625e-10,9.221875e-02
3.925625e-10,8.834375e-02
3.965625e-10,8.653125e-02
4.005625e-10,8.323438e-02
4.045625e-10,8.178125e-02
4.085625e-10,7.904688e-02
4.125625e-10,7.650000e-02
4.165625e-10,7.357813e-02
4.205625e-10,7.167188e-02
4.245625e-10,6.918750e-02
4.285625e-10,6.704688e-02
4.325625e-10,6.526563e-02
4.365625e-10,6.353125e-02
4.405625e-10,6.134375e-02
4.445625e-10,5.910938e-02
4.485625e-10,5.728125e-02
4.525625e-10,5.589063e-02
4.565625e-10,5.382813e-02
4.605625e-10,5.268750e-02
4.645625e-10,5.128125e-02
4.685625e-10,5.004688e-02
4.725625e-10,4.742188e-02
4.765625e-10,4.684375e-02
4.805625e-10,4.481250e-02
4.845625e-10,4.460938e-02
4.885625e-10,4.315625e-02
4.925625e-10,4.182813e-02
4.965625e-10,4.014063e-02
5.005625e-10,3.945313e-02
5.045625e-10,3.812500e-02
5.085625e-10,3.718750e-02
5.125625e-10,3.656250e-02
5.165625e-10,3.593750e-02
5.205625e-10,3.490625e-02
5.245625e-10,3.376563e-02
5.285625e-10,3.303125e-02
5.325625e-10,3.268750e-02
5.365625e-10,3.164063e-02
5.405625e-10,3.146875e-02
5.445625e-10,3.104688e-02
5.485625e-10,3.068750e-02
5.525625e-10,2.896875e-02
5.565625e-10,2.923438e-02
5.605625e-10,2.803125e-02
5.645625e-10,2.862500e-02
5.685625e-10,2.796875e-02
5.725625e-10,2.731250e-02
5.765625e-10,2.632813e-02
5.805625e-10,2.629688e-02
5.845625e-10,2.553125e-02
5.885625e-10,2.514063e-02
5.925625e-10,2.506250e-02
5.965625e-10,2.492188e-02
6.005625e-10,2.439063e-02
6.045625e-10,2.365625e-02
6.085625e-10,2.334375e-02
6.125625e-10,2.334375e-02
6.165625e-10,2.262500e-02
6.205625e-10,2.275000e-02
6.245625e-10,2.259375e-02
6.285625e-10,2.242188e-02
6.325625e-10,2.093750e-02
6.365625e-10,2.132813e-02
6.405625e-10,2.028125e-02
6.445625e-10,2.101563e-02
6.485625e-10,2.046875e-02
6.525625e-10,1.985938e-02
6.565625e-10,1.889063e-02
6.605625e-10,1.892188e-02
6.645625e-10,1.812500e-02
6.685625e-10,1.768750e-02
6.725625e-10,1.759375e-02
6.765625e-10,1.743750e-02
6.805625e-10,1.685938e-02
6.845625e-10,1.604688e-02
6.885625e-10,1.568750e-02
6.925625e-10,1.559375e-02
6.965625e-10,1.478125e-02
7.005625e-10,1.485938e-02
7.045625e-10,1.467188e-02
7.085625e-10,1.435938e-02
7.125625e-10,1.282813e-02
7.165625e-10,1.310938e-02
7.205625e-10,1.201563e-02
7.245625e-10,1.273438e-02
7.285625e-10,1.214063e-02
7.325625e-10,1.153125e-02
7.365625e-10,1.051563e-02
7.405625e-10,1.057813e-02
7.445625e-10,9.765625e-03
7.485625e-10,9.343750e-03
7.525625e-10,9.328125e-03
7.565625e-10,9.203125e-03
7.605625e-10,8.750000e-03
7.645625e-10,8.000000e-03
7.685625e-10,7.765625e-03
7.725625e-10,7.812500e-03
7.765625e-10,7.171875e-03
7.805625e-10,7.453125e-03
7.845625e-10,7.468750e-03
7.885625e-10,7.343750e-03
7.925625e-10,6.062500e-03
7.965625e-10,6.578125e-03
8.005625e-10,5.718750e-03
8.045625e-10,6.750000e-03
8.085625e-10,6.453125e-03
8.125625e-10,6.171875e-03
8.165625e-10,5.468750e-03
8.205625e-10,5.828125e-03
8.245625e-10,5.359375e-03
8.285625e-10,5.296875e-03
8.325625e-10,5.656250e-03
8.365625e-10,5.843750e-03
8.405625e-10,5.750000e-03
8.445625e-10,5.359375e-03
8.485625e-10,5.437500e-03
8.525625e-10,5.875000e-03
8.565625e-10,5.609375e-03
8.605625e-10,6.250000e-03
8.645625e-10,6.593750e-03
8.685625e-10,6.781250e-03
8.725625e-10,5.843750e-03
8.765625e-10,6.656250e-03
8.805625e-10,6.046875e-03
8.845625e-10,7.390625e-03
8.885625e-10,7.390625e-03
8.925625e-10,7.359375e-03
8.965625e-10,6.906250e-03
9.005625e-10,7.453125e-03
9.045625e-10,7.203125e-03
9.085625e-10,7.343750e-03
9.125625e-10,7.906250e-03
9.165625e-10,8.171875e-03
9.205625e-10,8.218750e-03
9.245625e-10,7.953125e-03
9.285625e-10,8.078125e-03
9.325625e-10,8.640625e-03
9.365625e-10,8.437500e-03
9.405625e-10,9.125000e-03
9.445625e-10,9.437500e-03
9.485625e-10,9.656250e-03
9.525625e-10,8.718750e-03
9.565625e-10,9.515625e-03
9.605625e-10,8.828125e-03
9.645625e-10,1.014063e-02
9.685625e-10,1.006250e-02
9.725625e-10,9.937500e-03
9.765625e-10,9.421875e-03
9.805625e-10,9.843750e-03
9.845625e-10,9.515625e-03
9.885625e-10,9.578125e-03
9.925625e-10,1.004688e-02
9.965625e-10,1.014063e-02
1.000563e-09,1.004688e-02
1.004563e-09,9.687500e-03
1.008563e-09,9.656250e-03
1.012563e-09,1.010938e-02
1.016563e-09,9.781250e-03
1.020563e-09,1.034375e-02
1.024562e-09,1.053125e-02
1.028562e-09,1.064063e-02
1.032562e-09,9.609375e-03
1.036562e-09,1.032813e-02
1.040562e-09,9.531250e-03
1.044562e-09,1.073438e-02
1.048562e-09,1.056250e-02
1.052562e-09,1.037500e-02
1.056562e-09,9.796875e-03
1.060563e-09,1.017188e-02
1.064563e-09,9.796875e-03
1.068563e-09,9.828125e-03
1.072563e-09,1.025000e-02
1.076563e-09,1.034375e-02
1.080563e-09,1.021875e-02
1.084562e-09,9.859375e-03
1.088562e-09,9.812500e-03
1.092562e-09,1.028125e-02
1.096562e-09,9.953125e-03
1.100562e-09,1.053125e-02
1.104562e-09,1.075000e-02
1.108562e-09,1.092188e-02
1.112562e-09,9.921875e-03
1.116562e-09,1.071875e-02
1.120563e-09,9.968750e-03
1.124563e-09,1.120313e-02
1.128563e-09,1.106250e-02
1.132563e-09,1.092188e-02
1.136563e-09,1.039063e-02
1.140563e-09,1.082813e-02
1.144562e-09,1.050000e-02
1.148562e-09,1.057813e-02
1.152562e-09,1.104688e-02
1.156562e-09,1.121875e-02
1.160562e-09,1.110938e-02
1.164562e-09,1.078125e-02
1.168562e-09,1.078125e-02
1.172562e-09,1.125000e-02
1.176562e-09,1.093750e-02
1.180563e-09,1.153125e-02
1.184563e-09,1.176563e-02
1.188563e-09,1.195313e-02
1.192563e-09,1.090625e-02
1.196563e-09,1.171875e-02
1.200563e-09,1.093750e-02
1.204562e-09,1.212500e-02
1.208562e-09,1.195313e-02
1.212562e-09,1.175000e-02
1.216562e-09,1.115625e-02
1.220562e-09,1.154688e-02
1.224562e-09,1.112500e-02
1.228562e-09,1.112500e-02
1.232562e-09,1.150000e-02
1.236562e-09,1.162500e-02
1.240563e-09,1.139063e-02
1.244563e-09,1.093750e-02
1.248563e-09,1.085938e-02
1.252563e-09,1.120313e-02
1.256563e-09,1.075000e-02
1.260563e-09,1.125000e-02
1.264562e-09,1.135938e-02
1.268562e-09,1.143750e-02
1.272562e-09,1.023438e-02
1.276562e-09,1.092188e-02
1.280562e-09,1.001563e-02
1.284562e-09,1.109375e-02
1.288562e-09,1.078125e-02
1.292562e-09,1.046875e-02
1.296562e-09,9.750000e-03
1.300562e-09,1.001563e-02
1.304563e-09,9.500000e-03
1.308563e-09,9.375000e-03
1.312563e-09,9.656250e-03
1.316563e-09,9.703125e-03
1.320563e-09,9.375000e-03
1.324562e-09,8.859375e-03
1.328562e-09,8.718750e-03
1.332562e-09,9.000000e-03
1.336562e-09,8.484375e-03
1.340562e-09,8.953125e-03
1.344562e-09,9.031250e-03
1.348562e-09,9.109375e-03
1.352562e-09,7.843750e-03
1.356562e-09,8.546875e-03
1.360562e-09,7.656250e-03
1.364563e-09,8.765625e-03
1.368563e-09,8.484375e-03
1.372563e-09,8.203125e-03
1.376563e-09,7.546875e-03
1.380563e-09,7.890625e-03
1.384562e-09,7.437500e-03
1.388562e-09,7.406250e-03
1.392562e-09,7.781250e-03
1.396562e-09,7.953125e-03
1.400562e-09,7.734375e-03
1.404562e-09,7.343750e-03
1.408562e-09,7.343750e-03
1.412562e-09,7.765625e-03
1.416562e-09,7.390625e-03
1.420562e-09,8.031250e-03
1.424563e-09,8.265625e-03
1.428563e-09,8.515625e-03
1.432563e-09,7.406250e-03
1.436563e-09,8.281250e-03
1.440563e-09,7.546875e-03
1.444562e-09,8.843750e-03
1.448562e-09,8.734375e-03
1.452562e-09,8.640625e-03
1.456562e-09,8.140625e-03
1.460562e-09,8.656250e-03
1.464562e-09,8.375000e-03
1.468562e-09,8.500000e-03
1.472562e-09,9.031250e-03
1.476562e-09,9.359375e-03
1.480562e-09,9.281250e-03
1.484563e-09,9.015625e-03
1.488563e-09,9.140625e-03
1.492563e-09,9.671875e-03
1.496563e-09,9.406250e-03
1.500563e-09,1.012500e-02
1.504562e-09,1.045313e-02
1.508562e-09,1.076563e-02
1.512562e-09,9.687500e-03
1.516562e-09,1.059375e-02
1.520562e-09,9.890625e-03
1.524562e-09,1.118750e-02
1.528562e-09,1.107813e-02
1.532562e-09,1.095313e-02
1.536562e-09,1.042188e-02
1.540562e-09,1.087500e-02
1.544563e-09,1.053125e-02
1.548563e-09,1.056250e-02
1.552563e-09,1.098438e-02
1.556563e-09,1.120313e-02
1.560563e-09,1.100000e-02
1.564562e-09,1.059375e-02
1.568562e-09,1.057813e-02
1.572562e-09,1.093750e-02
1.576562e-09,1.048438e-02
1.580562e-09,1.103125e-02
1.584562e-09,1.115625e-02
1.588562e-09,1.128125e-02
1.592562e-09,9.984375e-03
1.596562e-09,1.068750e-02
1.600562e-09,9.765625e-03
1.604563e-09,1.084375e-02
1.608563e-09,1.050000e-02
1.612563e-09,1.015625e-02
1.616563e-09,9.406250e-03
1.620563e-09,9.640625e-03
1.624562e-09,9.078125e-03
1.628562e-09,8.906250e-03
1.632562e-09,9.125000e-03
1.636562e-09,9.156250e-03
1.640562e-09,8.781250e-03
1.644562e-09,8.187500e-03
1.648562e-09,8.000000e-03
1.652562e-09,8.218750e-03
1.656562e-09,7.640625e-03
1.660562e-09,8.062500e-03
1.664563e-09,8.078125e-03
1.668563e-09,8.109375e-03
1.672563e-09,6.734375e-03
1.676563e-09,7.390625e-03
1.680563e-09,6.437500e-03
1.684562e-09,7.500000e-03
1.688562e-09,7.156250e-03
1.692562e-09,6.828125e-03
1.696562e-09,6.109375e-03
1.700562e-09,6.406250e-03
1.704562e-09,5.906250e-03
1.708562e-09,5.828125e-03
1.712562e-09,6.156250e-03
1.716562e-09,6.312500e-03
1.720562e-09,6.062500e-03
1.724563e-09,5.625000e-03
1.728563e-09,5.609375e-03
1.732563e-09,6.000000e-03
1.736563e-09,5.593750e-03
1.740563e-09,6.218750e-03
1.744562e-09,6.437500e-03
1.748562e-09,6.687500e-03
1.752562e-09,5.515625e-03
1.756562e-09,6.375000e-03
