Measurements-streak-laser-independent/Photodiode-on-Tek-12bit-4GHz/Tek000_ch1_20190613133035774.csv

Model,MSO64
Waveform Type,ANALOG
Horizontal Units,s
Sample Interval,4.000000e-12
Record Length,1000
Zero Index,310.812500
Vertical Units,V

TIME,CH1
-1.243250e-09,6.500000e-03
-1.239250e-09,6.546875e-03
-1.235250e-09,6.968750e-03
-1.231250e-09,6.578125e-03
-1.227250e-09,7.203125e-03
-1.223250e-09,7.390625e-03
-1.219250e-09,7.578125e-03
-1.215250e-09,6.328125e-03
-1.211250e-09,7.109375e-03
-1.207250e-09,6.250000e-03
-1.203250e-09,7.406250e-03
-1.199250e-09,7.125000e-03
-1.195250e-09,6.859375e-03
-1.191250e-09,6.156250e-03
-1.187250e-09,6.484375e-03
-1.183250e-09,5.968750e-03
-1.179250e-09,5.875000e-03
-1.175250e-09,6.171875e-03
-1.171250e-09,6.265625e-03
-1.167250e-09,5.953125e-03
-1.163250e-09,5.437500e-03
-1.159250e-09,5.328125e-03
-1.155250e-09,5.625000e-03
-1.151250e-09,5.109375e-03
-1.147250e-09,5.609375e-03
-1.143250e-09,5.718750e-03
-1.139250e-09,5.812500e-03
-1.135250e-09,4.515625e-03
-1.131250e-09,5.234375e-03
-1.127250e-09,4.343750e-03
-1.123250e-09,5.500000e-03
-1.119250e-09,5.234375e-03
-1.115250e-09,4.984375e-03
-1.111250e-09,4.343750e-03
-1.107250e-09,4.718750e-03
-1.103250e-09,4.296875e-03
-1.099250e-09,4.281250e-03
-1.095250e-09,4.703125e-03
-1.091250e-09,4.921875e-03
-1.087250e-09,4.750000e-03
-1.083250e-09,4.390625e-03
-1.079250e-09,4.437500e-03
-1.075250e-09,4.906250e-03
-1.071250e-09,4.578125e-03
-1.067250e-09,5.265625e-03
-1.063250e-09,5.562500e-03
-1.059250e-09,5.875000e-03
-1.055250e-09,4.781250e-03
-1.051250e-09,5.703125e-03
-1.047250e-09,5.031250e-03
-1.043250e-09,6.375000e-03
-1.039250e-09,6.312500e-03
-1.035250e-09,6.265625e-03
-1.031250e-09,5.812500e-03
-1.027250e-09,6.359375e-03
-1.023250e-09,6.125000e-03
-1.019250e-09,6.265625e-03
-1.015250e-09,6.828125e-03
-1.011250e-09,7.187500e-03
-1.007250e-09,7.140625e-03
-1.003250e-09,6.875000e-03
-9.992500e-10,7.015625e-03
-9.952500e-10,7.562500e-03
-9.912500e-10,7.281250e-03
-9.872500e-10,8.015625e-03
-9.832500e-10,8.343750e-03
-9.792500e-10,8.640625e-03
-9.752500e-10,7.531250e-03
-9.712500e-10,8.421875e-03
-9.672500e-10,7.687500e-03
-9.632500e-10,8.953125e-03
-9.592500e-10,8.796875e-03
-9.552500e-10,8.640625e-03
-9.512500e-10,8.062500e-03
-9.472500e-10,8.468750e-03
-9.432500e-10,8.078125e-03
-9.392500e-10,8.062500e-03
-9.352500e-10,8.453125e-03
-9.312500e-10,8.609375e-03
-9.272500e-10,8.359375e-03
-9.232500e-10,7.890625e-03
-9.192500e-10,7.828125e-03
-9.152500e-10,8.156250e-03
-9.112500e-10,7.656250e-03
-9.072500e-10,8.156250e-03
-9.032500e-10,8.250000e-03
-8.992500e-10,8.328125e-03
-8.952500e-10,7.000000e-03
-8.912500e-10,7.687500e-03
-8.872500e-10,6.734375e-03
-8.832500e-10,7.750000e-03
-8.792500e-10,7.421875e-03
-8.752500e-10,7.062500e-03
-8.712500e-10,6.312500e-03
-8.672500e-10,6.562500e-03
-8.632500e-10,6.015625e-03
-8.592500e-10,5.875000e-03
-8.552500e-10,6.125000e-03
-8.512500e-10,6.187500e-03
-8.472500e-10,5.843750e-03
-8.432500e-10,5.312500e-03
-8.392500e-10,5.171875e-03
-8.352500e-10,5.453125e-03
-8.312500e-10,4.921875e-03
-8.272500e-10,5.406250e-03
-8.232500e-10,5.500000e-03
-8.192500e-10,5.609375e-03
-8.152500e-10,4.343750e-03
-8.112500e-10,5.062500e-03
-8.072500e-10,4.187500e-03
-8.032500e-10,5.250000e-03
-7.992500e-10,5.015625e-03
-7.952500e-10,4.765625e-03
-7.912500e-10,4.156250e-03
-7.872500e-10,4.531250e-03
-7.832500e-10,4.078125e-03
-7.792500e-10,4.109375e-03
-7.752500e-10,4.500000e-03
-7.712500e-10,4.687500e-03
-7.672500e-10,4.546875e-03
-7.632500e-10,4.156250e-03
-7.592500e-10,4.156250e-03
-7.552500e-10,4.578125e-03
-7.512500e-10,4.203125e-03
-7.472500e-10,4.828125e-03
-7.432500e-10,5.078125e-03
-7.392500e-10,5.312500e-03
-7.352500e-10,4.171875e-03
-7.312500e-10,5.031250e-03
-7.272500e-10,4.281250e-03
-7.232500e-10,5.406250e-03
-7.192500e-10,5.281250e-03
-7.152500e-10,5.140625e-03
-7.112500e-10,4.625000e-03
-7.072500e-10,5.031250e-03
-7.032500e-10,4.625000e-03
-6.992500e-10,4.703125e-03
-6.952500e-10,5.125000e-03
-6.912500e-10,5.312500e-03
-6.872500e-10,5.234375e-03
-6.832500e-10,4.812500e-03
-6.792500e-10,4.796875e-03
-6.752500e-10,5.187500e-03
-6.712500e-10,4.796875e-03
-6.672500e-10,5.390625e-03
-6.632500e-10,5.578125e-03
-6.592500e-10,5.750000e-03
-6.552500e-10,4.531250e-03
-6.512500e-10,5.328125e-03
-6.472500e-10,4.562500e-03
-6.432500e-10,5.593750e-03
-6.392500e-10,5.437500e-03
-6.352500e-10,5.218750e-03
-6.312500e-10,4.640625e-03
-6.272500e-10,4.968750e-03
-6.232500e-10,4.484375e-03
-6.192500e-10,4.515625e-03
-6.152500e-10,4.890625e-03
-6.112500e-10,5.000000e-03
-6.072500e-10,4.921875e-03
-6.032500e-10,4.468750e-03
-5.992500e-10,4.437500e-03
-5.952500e-10,4.812500e-03
-5.912500e-10,4.437500e-03
-5.872500e-10,5.031250e-03
-5.832500e-10,5.250000e-03
-5.792500e-10,5.437500e-03
-5.752500e-10,4.234375e-03
-5.712500e-10,5.078125e-03
-5.672500e-10,4.390625e-03
-5.632500e-10,5.515625e-03
-5.592500e-10,5.453125e-03
-5.552500e-10,5.328125e-03
-5.512500e-10,4.828125e-03
-5.472500e-10,5.265625e-03
-5.432500e-10,4.906250e-03
-5.392500e-10,5.046875e-03
-5.352500e-10,5.562500e-03
-5.312500e-10,5.796875e-03
-5.272500e-10,5.812500e-03
-5.232500e-10,5.515625e-03
-5.192500e-10,5.640625e-03
-5.152500e-10,6.156250e-03
-5.112500e-10,5.921875e-03
-5.072500e-10,6.656250e-03
-5.032500e-10,6.984375e-03
-4.992500e-10,7.296875e-03
-4.952500e-10,6.203125e-03
-4.912500e-10,7.109375e-03
-4.872500e-10,6.562500e-03
-4.832500e-10,7.765625e-03
-4.792500e-10,7.812500e-03
-4.752500e-10,7.718750e-03
-4.712500e-10,7.265625e-03
-4.672500e-10,7.734375e-03
-4.632500e-10,7.437500e-03
-4.592500e-10,7.546875e-03
-4.552500e-10,8.062500e-03
-4.512500e-10,8.281250e-03
-4.472500e-10,8.203125e-03
-4.432500e-10,7.859375e-03
-4.392500e-10,7.953125e-03
-4.352500e-10,8.421875e-03
-4.312500e-10,8.031250e-03
-4.272500e-10,8.687500e-03
-4.232500e-10,8.875000e-03
-4.192500e-10,9.046875e-03
-4.152500e-10,7.828125e-03
-4.112500e-10,8.531250e-03
-4.072500e-10,7.796875e-03
-4.032500e-10,8.843750e-03
-3.992500e-10,8.703125e-03
-3.952500e-10,8.390625e-03
-3.912500e-10,7.750000e-03
-3.872500e-10,8.031250e-03
-3.832500e-10,7.562500e-03
-3.792500e-10,7.421875e-03
-3.752500e-10,7.734375e-03
-3.712500e-10,7.750000e-03
-3.672500e-10,7.437500e-03
-3.632500e-10,6.921875e-03
-3.592500e-10,6.843750e-03
-3.552500e-10,7.140625e-03
-3.512500e-10,6.546875e-03
-3.472500e-10,7.031250e-03
-3.432500e-10,7.093750e-03
-3.392500e-10,7.109375e-03
-3.352500e-10,5.796875e-03
-3.312500e-10,6.343750e-03
-3.272500e-10,5.500000e-03
-3.232500e-10,6.453125e-03
-3.192500e-10,6.218750e-03
-3.152500e-10,5.843750e-03
-3.112500e-10,5.171875e-03
-3.072500e-10,5.421875e-03
-3.032500e-10,4.953125e-03
-2.992500e-10,4.781250e-03
-2.952500e-10,5.078125e-03
-2.912500e-10,5.109375e-03
-2.872500e-10,4.781250e-03
-2.832500e-10,4.328125e-03
-2.792500e-10,4.281250e-03
-2.752500e-10,4.609375e-03
-2.712500e-10,4.093750e-03
-2.672500e-10,4.593750e-03
-2.632500e-10,4.750000e-03
-2.592500e-10,4.843750e-03
-2.552500e-10,3.609375e-03
-2.512500e-10,4.234375e-03
-2.472500e-10,3.437500e-03
-2.432500e-10,4.484375e-03
-2.392500e-10,4.265625e-03
-2.352500e-10,3.984375e-03
-2.312500e-10,3.406250e-03
-2.272500e-10,3.718750e-03
-2.232500e-10,3.296875e-03
-2.192500e-10,3.187500e-03
-2.152500e-10,3.515625e-03
-2.112500e-10,3.593750e-03
-2.072500e-10,3.296875e-03
-2.032500e-10,2.921875e-03
-1.992500e-10,2.875000e-03
-1.952500e-10,3.203125e-03
-1.912500e-10,2.734375e-03
-1.872500e-10,3.250000e-03
-1.832500e-10,3.437500e-03
-1.792500e-10,3.562500e-03
-1.752500e-10,2.390625e-03
-1.712500e-10,3.078125e-03
-1.672500e-10,2.281250e-03
-1.632500e-10,3.421875e-03
-1.592500e-10,3.250000e-03
-1.552500e-10,3.062500e-03
-1.512500e-10,2.609375e-03
-1.472500e-10,3.062500e-03
-1.432500e-10,2.781250e-03
-1.392500e-10,2.875000e-03
-1.352500e-10,3.390625e-03
-1.312500e-10,3.734375e-03
-1.272500e-10,3.718750e-03
-1.232500e-10,3.687500e-03
-1.192500e-10,3.968750e-03
-1.152500e-10,4.671875e-03
-1.112500e-10,4.687500e-03
-1.072500e-10,5.718750e-03
-1.032500e-10,6.421875e-03
-9.925000e-11,7.187500e-03
-9.525000e-11,6.734375e-03
-9.125000e-11,8.156250e-03
-8.725000e-11,8.125000e-03
-8.325000e-11,1.014063e-02
-7.925000e-11,1.085938e-02
-7.525000e-11,1.167188e-02
-7.125000e-11,1.226563e-02
-6.725000e-11,1.384375e-02
-6.325000e-11,1.471875e-02
-5.925000e-11,1.609375e-02
-5.525000e-11,1.790625e-02
-5.125000e-11,1.965625e-02
-4.725000e-11,2.104688e-02
-4.325000e-11,2.250000e-02
-3.925000e-11,2.432813e-02
-3.525000e-11,2.657813e-02
-3.125000e-11,2.823438e-02
-2.725000e-11,3.096875e-02
-2.325000e-11,3.339063e-02
-1.925000e-11,3.596875e-02
-1.525000e-11,3.732813e-02
-1.125000e-11,4.056250e-02
-7.250000e-12,4.237500e-02
-3.250000e-12,4.629688e-02
7.500000e-13,4.884375e-02
4.750000e-12,5.157813e-02
8.750000e-12,5.404688e-02
1.275000e-11,5.748438e-02
1.675000e-11,6.025000e-02
2.075000e-11,6.343750e-02
2.475000e-11,6.709375e-02
2.875000e-11,7.067188e-02
3.275000e-11,7.379688e-02
3.675000e-11,7.692188e-02
4.075000e-11,8.040625e-02
4.475000e-11,8.421875e-02
4.875000e-11,8.740625e-02
5.275000e-11,9.159375e-02
5.675000e-11,9.535938e-02
6.075000e-11,9.925000e-02
6.475000e-11,1.017969e-01
6.875000e-11,1.061406e-01
7.275000e-11,1.089531e-01
7.675000e-11,1.137500e-01
8.075000e-11,1.170313e-01
8.475000e-11,1.204688e-01
8.875000e-11,1.234531e-01
9.275000e-11,1.272656e-01
9.675000e-11,1.303281e-01
1.007500e-10,1.336719e-01
1.047500e-10,1.373438e-01
1.087500e-10,1.408750e-01
1.127500e-10,1.437031e-01
1.167500e-10,1.464375e-01
1.207500e-10,1.494063e-01
1.247500e-10,1.525625e-01
1.287500e-10,1.550000e-01
1.327500e-10,1.582344e-01
1.367500e-10,1.609063e-01
1.407500e-10,1.636250e-01
1.447500e-10,1.647969e-01
1.487500e-10,1.677188e-01
1.527500e-10,1.689375e-01
1.567500e-10,1.719844e-01
1.607500e-10,1.734375e-01
1.647500e-10,1.749219e-01
1.687500e-10,1.758125e-01
1.727500e-10,1.774375e-01
1.767500e-10,1.782344e-01
1.807500e-10,1.792031e-01
1.847500e-10,1.803906e-01
1.887500e-10,1.813750e-01
1.927500e-10,1.815469e-01
1.967500e-10,1.815313e-01
2.007500e-10,1.817188e-01
2.047500e-10,1.820469e-01
2.087500e-10,1.815781e-01
2.127500e-10,1.818438e-01
2.167500e-10,1.814844e-01
2.207500e-10,1.811563e-01
2.247500e-10,1.792344e-01
2.287500e-10,1.790781e-01
2.327500e-10,1.772188e-01
2.367500e-10,1.771250e-01
2.407500e-10,1.754375e-01
2.447500e-10,1.737969e-01
2.487500e-10,1.715625e-01
2.527500e-10,1.700938e-01
2.567500e-10,1.678750e-01
2.607500e-10,1.658438e-01
2.647500e-10,1.640156e-01
2.687500e-10,1.620469e-01
2.727500e-10,1.593438e-01
2.767500e-10,1.564844e-01
2.807500e-10,1.539219e-01
2.847500e-10,1.515781e-01
2.887500e-10,1.484844e-01
2.927500e-10,1.462031e-01
2.967500e-10,1.433906e-01
3.007500e-10,1.407188e-01
3.047500e-10,1.365156e-01
3.087500e-10,1.342344e-01
3.127500e-10,1.303594e-01
3.167500e-10,1.282969e-01
3.207500e-10,1.248125e-01
3.247500e-10,1.214531e-01
3.287500e-10,1.176250e-01
3.327500e-10,1.147344e-01
3.367500e-10,1.112188e-01
3.407500e-10,1.079844e-01
3.447500e-10,1.050781e-01
3.487500e-10,1.021406e-01
3.527500e-10,9.868750e-02
3.567500e-10,9.515625e-02
3.607500e-10,9.204688e-02
3.647500e-10,8.931250e-02
3.687500e-10,8.592188e-02
3.727500e-10,8.346875e-02
3.767500e-10,8.068750e-02
3.807500e-10,7.810938e-02
3.847500e-10,7.412500e-02
3.887500e-10,7.221875e-02
3.927500e-10,6.884375e-02
3.967500e-10,6.735938e-02
4.007500e-10,6.460938e-02
4.047500e-10,6.204688e-02
4.087500e-10,5.914063e-02
4.127500e-10,5.728125e-02
4.167500e-10,5.485938e-02
4.207500e-10,5.282813e-02
4.247500e-10,5.118750e-02
4.287500e-10,4.957813e-02
4.327500e-10,4.759375e-02
4.367500e-10,4.554688e-02
4.407500e-10,4.396875e-02
4.447500e-10,4.284375e-02
4.487500e-10,4.106250e-02
4.527500e-10,4.025000e-02
4.567500e-10,3.918750e-02
4.607500e-10,3.829688e-02
4.647500e-10,3.603125e-02
4.687500e-10,3.585938e-02
4.727500e-10,3.421875e-02
4.767500e-10,3.445313e-02
4.807500e-10,3.345313e-02
4.847500e-10,3.254688e-02
4.887500e-10,3.131250e-02
4.927500e-10,3.107813e-02
4.967500e-10,3.020313e-02
5.007500e-10,2.970313e-02
5.047500e-10,2.953125e-02
5.087500e-10,2.934375e-02
5.127500e-10,2.875000e-02
5.167500e-10,2.801563e-02
5.207500e-10,2.765625e-02
5.247500e-10,2.770313e-02
5.287500e-10,2.700000e-02
5.327500e-10,2.718750e-02
5.367500e-10,2.707813e-02
5.407500e-10,2.700000e-02
5.447500e-10,2.553125e-02
5.487500e-10,2.601563e-02
5.527500e-10,2.500000e-02
5.567500e-10,2.578125e-02
5.607500e-10,2.525000e-02
5.647500e-10,2.468750e-02
5.687500e-10,2.375000e-02
5.727500e-10,2.375000e-02
5.767500e-10,2.298438e-02
5.807500e-10,2.256250e-02
5.847500e-10,2.242188e-02
5.887500e-10,2.218750e-02
5.927500e-10,2.153125e-02
5.967500e-10,2.064063e-02
6.007500e-10,2.014063e-02
6.047500e-10,1.993750e-02
6.087500e-10,1.898438e-02
6.127500e-10,1.889063e-02
6.167500e-10,1.848438e-02
6.207500e-10,1.804688e-02
6.247500e-10,1.626563e-02
6.287500e-10,1.637500e-02
6.327500e-10,1.503125e-02
6.367500e-10,1.548438e-02
6.407500e-10,1.464063e-02
6.447500e-10,1.375000e-02
6.487500e-10,1.250000e-02
6.527500e-10,1.228125e-02
6.567500e-10,1.121875e-02
6.607500e-10,1.054688e-02
6.647500e-10,1.025000e-02
6.687500e-10,9.890625e-03
6.727500e-10,9.156250e-03
6.767500e-10,8.187500e-03
6.807500e-10,7.718750e-03
6.847500e-10,7.531250e-03
6.887500e-10,6.671875e-03
6.927500e-10,6.750000e-03
6.967500e-10,6.562500e-03
7.007500e-10,6.312500e-03
7.047500e-10,4.859375e-03
7.087500e-10,5.281250e-03
7.127500e-10,4.328125e-03
7.167500e-10,5.250000e-03
7.207500e-10,4.875000e-03
7.247500e-10,4.515625e-03
7.287500e-10,3.796875e-03
7.327500e-10,4.171875e-03
7.367500e-10,3.718750e-03
7.407500e-10,3.671875e-03
7.447500e-10,4.062500e-03
7.487500e-10,4.375000e-03
7.527500e-10,4.343750e-03
7.567500e-10,4.062500e-03
7.607500e-10,4.296875e-03
7.647500e-10,4.843750e-03
7.687500e-10,4.687500e-03
7.727500e-10,5.484375e-03
7.767500e-10,6.000000e-03
7.807500e-10,6.375000e-03
7.847500e-10,5.593750e-03
7.887500e-10,6.593750e-03
7.927500e-10,6.218750e-03
7.967500e-10,7.734375e-03
8.007500e-10,7.890625e-03
8.047500e-10,8.046875e-03
8.087500e-10,7.750000e-03
8.127500e-10,8.500000e-03
8.167500e-10,8.406250e-03
8.207500e-10,8.671875e-03
8.247500e-10,9.359375e-03
8.287500e-10,9.828125e-03
8.327500e-10,9.984375e-03
8.367500e-10,9.812500e-03
8.407500e-10,1.006250e-02
8.447500e-10,1.067188e-02
8.487500e-10,1.050000e-02
8.527500e-10,1.125000e-02
8.567500e-10,1.164063e-02
8.607500e-10,1.185938e-02
8.647500e-10,1.089063e-02
8.687500e-10,1.165625e-02
8.727500e-10,1.096875e-02
8.767500e-10,1.223438e-02
8.807500e-10,1.207813e-02
8.847500e-10,1.189063e-02
8.887500e-10,1.125000e-02
8.927500e-10,1.159375e-02
8.967500e-10,1.114063e-02
9.007500e-10,1.104688e-02
9.047500e-10,1.135938e-02
9.087500e-10,1.137500e-02
9.127500e-10,1.112500e-02
9.167500e-10,1.059375e-02
9.207500e-10,1.042188e-02
9.247500e-10,1.070313e-02
9.287500e-10,1.020313e-02
9.327500e-10,1.060938e-02
9.367500e-10,1.065625e-02
9.407500e-10,1.060938e-02
9.447500e-10,9.390625e-03
9.487500e-10,9.937500e-03
9.527500e-10,9.015625e-03
9.567500e-10,1.009375e-02
9.607500e-10,9.796875e-03
9.647500e-10,9.484375e-03
9.687500e-10,8.781250e-03
9.727500e-10,9.046875e-03
9.767500e-10,8.562500e-03
9.807500e-10,8.500000e-03
9.847500e-10,8.859375e-03
9.887500e-10,8.875000e-03
9.927500e-10,8.687500e-03
9.967500e-10,8.265625e-03
1.000750e-09,8.187500e-03
1.004750e-09,8.625000e-03
1.008750e-09,8.281250e-03
1.012750e-09,8.843750e-03
1.016750e-09,9.046875e-03
1.020750e-09,9.203125e-03
1.024750e-09,8.187500e-03
1.028750e-09,8.968750e-03
1.032750e-09,8.203125e-03
1.036750e-09,9.468750e-03
1.040750e-09,9.343750e-03
1.044750e-09,9.187500e-03
1.048750e-09,8.671875e-03
1.052750e-09,9.093750e-03
1.056750e-09,8.765625e-03
1.060750e-09,8.828125e-03
1.064750e-09,9.296875e-03
1.068750e-09,9.421875e-03
1.072750e-09,9.296875e-03
1.076750e-09,8.937500e-03
1.080750e-09,8.890625e-03
1.084750e-09,9.328125e-03
1.088750e-09,8.953125e-03
1.092750e-09,9.484375e-03
1.096750e-09,9.640625e-03
1.100750e-09,9.734375e-03
1.104750e-09,8.625000e-03
1.108750e-09,9.328125e-03
1.112750e-09,8.437500e-03
1.116750e-09,9.531250e-03
1.120750e-09,9.250000e-03
1.124750e-09,8.937500e-03
1.128750e-09,8.218750e-03
1.132750e-09,8.484375e-03
1.136750e-09,7.968750e-03
1.140750e-09,7.828125e-03
1.144750e-09,8.093750e-03
1.148750e-09,8.078125e-03
1.152750e-09,7.750000e-03
1.156750e-09,7.203125e-03
1.160750e-09,7.000000e-03
1.164750e-09,7.265625e-03
1.168750e-09,6.734375e-03
1.172750e-09,7.156250e-03
1.176750e-09,7.203125e-03
1.180750e-09,7.218750e-03
1.184750e-09,6.015625e-03
1.188750e-09,6.687500e-03
1.192750e-09,5.781250e-03
1.196750e-09,6.859375e-03
1.200750e-09,6.578125e-03
1.204750e-09,6.312500e-03
1.208750e-09,5.671875e-03
1.212750e-09,6.031250e-03
1.216750e-09,5.609375e-03
1.220750e-09,5.609375e-03
1.224750e-09,6.031250e-03
1.228750e-09,6.218750e-03
1.232750e-09,6.078125e-03
1.236750e-09,5.734375e-03
1.240750e-09,5.765625e-03
1.244750e-09,6.265625e-03
1.248750e-09,5.984375e-03
1.252750e-09,6.671875e-03
1.256750e-09,7.000000e-03
1.260750e-09,7.296875e-03
1.264750e-09,6.312500e-03
1.268750e-09,7.265625e-03
1.272750e-09,6.609375e-03
1.276750e-09,7.968750e-03
1.280750e-09,7.921875e-03
1.284750e-09,7.890625e-03
1.288750e-09,7.453125e-03
1.292750e-09,8.015625e-03
1.296750e-09,7.765625e-03
1.300750e-09,7.937500e-03
1.304750e-09,8.484375e-03
1.308750e-09,8.812500e-03
1.312750e-09,8.750000e-03
1.316750e-09,8.453125e-03
1.320750e-09,8.546875e-03
1.324750e-09,9.046875e-03
1.328750e-09,8.718750e-03
1.332750e-09,9.375000e-03
1.336750e-09,9.625000e-03
1.340750e-09,9.843750e-03
1.344750e-09,8.671875e-03
1.348750e-09,9.468750e-03
1.352750e-09,8.625000e-03
1.356750e-09,9.796875e-03
1.360750e-09,9.531250e-03
1.364750e-09,9.234375e-03
1.368750e-09,8.531250e-03
1.372750e-09,8.812500e-03
1.376750e-09,8.281250e-03
1.380750e-09,8.140625e-03
1.384750e-09,8.390625e-03
1.388750e-09,8.406250e-03
1.392750e-09,8.031250e-03
1.396750e-09,7.437500e-03
1.400750e-09,7.234375e-03
1.404750e-09,7.437500e-03
1.408750e-09,6.828125e-03
1.412750e-09,7.218750e-03
1.416750e-09,7.203125e-03
1.420750e-09,7.187500e-03
1.424750e-09,5.781250e-03
1.428750e-09,6.390625e-03
1.432750e-09,5.390625e-03
1.436750e-09,6.406250e-03
1.440750e-09,6.031250e-03
1.444750e-09,5.656250e-03
1.448750e-09,4.890625e-03
1.452750e-09,5.156250e-03
1.456750e-09,4.640625e-03
1.460750e-09,4.531250e-03
1.464750e-09,4.828125e-03
1.468750e-09,4.968750e-03
1.472750e-09,4.703125e-03
1.476750e-09,4.250000e-03
1.480750e-09,4.234375e-03
1.484750e-09,4.640625e-03
1.488750e-09,4.250000e-03
1.492750e-09,4.875000e-03
1.496750e-09,5.140625e-03
1.500750e-09,5.406250e-03
1.504750e-09,4.281250e-03
1.508750e-09,5.187500e-03
1.512750e-09,4.484375e-03
1.516750e-09,5.812500e-03
1.520750e-09,5.750000e-03
1.524750e-09,5.687500e-03
1.528750e-09,5.218750e-03
1.532750e-09,5.781250e-03
1.536750e-09,5.531250e-03
1.540750e-09,5.687500e-03
1.544750e-09,6.250000e-03
1.548750e-09,6.609375e-03
1.552750e-09,6.562500e-03
1.556750e-09,6.296875e-03
1.560750e-09,6.437500e-03
1.564750e-09,6.968750e-03
1.568750e-09,6.671875e-03
1.572750e-09,7.375000e-03
1.576750e-09,7.671875e-03
1.580750e-09,7.937500e-03
1.584750e-09,6.781250e-03
1.588750e-09,7.625000e-03
1.592750e-09,6.828125e-03
1.596750e-09,8.046875e-03
1.600750e-09,7.812500e-03
1.604750e-09,7.562500e-03
1.608750e-09,6.875000e-03
1.612750e-09,7.187500e-03
1.616750e-09,6.671875e-03
1.620750e-09,6.546875e-03
1.624750e-09,6.796875e-03
1.628750e-09,6.812500e-03
1.632750e-09,6.421875e-03
1.636750e-09,5.796875e-03
1.640750e-09,5.578125e-03
1.644750e-09,5.734375e-03
1.648750e-09,5.078125e-03
1.652750e-09,5.406250e-03
1.656750e-09,5.328125e-03
1.660750e-09,5.234375e-03
1.664750e-09,3.718750e-03
1.668750e-09,4.234375e-03
1.672750e-09,3.109375e-03
1.676750e-09,4.015625e-03
1.680750e-09,3.515625e-03
1.684750e-09,3.000000e-03
1.688750e-09,2.093750e-03
1.692750e-09,2.203125e-03
1.696750e-09,1.515625e-03
1.700750e-09,1.234375e-03
1.704750e-09,1.375000e-03
1.708750e-09,1.328125e-03
1.712750e-09,8.906250e-04
1.716750e-09,2.656250e-04
1.720750e-09,6.250000e-05
1.724750e-09,2.812500e-04
1.728750e-09,-2.812500e-04
1.732750e-09,1.718750e-04
1.736750e-09,2.656250e-04
1.740750e-09,3.593750e-04
1.744750e-09,-9.375000e-04
1.748750e-09,-1.875000e-04
1.752750e-09,-1.031250e-03
1.756750e-09,1.562500e-04
