Measurements-streak-laser-independent/Photodiode-on-Tek-12bit-4GHz/Tek000_ch1_20190613133033365.csv

Model,MSO64
Waveform Type,ANALOG
Horizontal Units,s
Sample Interval,4.000000e-12
Record Length,1000
Zero Index,310.312500
Vertical Units,V

TIME,CH1
-1.241250e-09,4.781250e-03
-1.237250e-09,3.906250e-03
-1.233250e-09,5.078125e-03
-1.229250e-09,4.843750e-03
-1.225250e-09,4.625000e-03
-1.221250e-09,4.000000e-03
-1.217250e-09,4.421875e-03
-1.213250e-09,4.046875e-03
-1.209250e-09,4.078125e-03
-1.205250e-09,4.531250e-03
-1.201250e-09,4.796875e-03
-1.197250e-09,4.671875e-03
-1.193250e-09,4.343750e-03
-1.189250e-09,4.437500e-03
-1.185250e-09,4.953125e-03
-1.181250e-09,4.656250e-03
-1.177250e-09,5.390625e-03
-1.173250e-09,5.718750e-03
-1.169250e-09,6.062500e-03
-1.165250e-09,4.984375e-03
-1.161250e-09,5.937500e-03
-1.157250e-09,5.281250e-03
-1.153250e-09,6.640625e-03
-1.149250e-09,6.578125e-03
-1.145250e-09,6.515625e-03
-1.141250e-09,6.062500e-03
-1.137250e-09,6.593750e-03
-1.133250e-09,6.328125e-03
-1.129250e-09,6.453125e-03
-1.125250e-09,6.984375e-03
-1.121250e-09,7.296875e-03
-1.117250e-09,7.187500e-03
-1.113250e-09,6.875000e-03
-1.109250e-09,6.937500e-03
-1.105250e-09,7.421875e-03
-1.101250e-09,7.062500e-03
-1.097250e-09,7.703125e-03
-1.093250e-09,7.921875e-03
-1.089250e-09,8.125000e-03
-1.085250e-09,6.906250e-03
-1.081250e-09,7.687500e-03
-1.077250e-09,6.828125e-03
-1.073250e-09,7.984375e-03
-1.069250e-09,7.703125e-03
-1.065250e-09,7.406250e-03
-1.061250e-09,6.687500e-03
-1.057250e-09,6.953125e-03
-1.053250e-09,6.406250e-03
-1.049250e-09,6.250000e-03
-1.045250e-09,6.468750e-03
-1.041250e-09,6.484375e-03
-1.037250e-09,6.078125e-03
-1.033250e-09,5.453125e-03
-1.029250e-09,5.218750e-03
-1.025250e-09,5.390625e-03
-1.021250e-09,4.734375e-03
-1.017250e-09,5.078125e-03
-1.013250e-09,5.031250e-03
-1.009250e-09,4.953125e-03
-1.005250e-09,3.468750e-03
-1.001250e-09,4.015625e-03
-9.972500e-10,2.921875e-03
-9.932500e-10,3.859375e-03
-9.892500e-10,3.390625e-03
-9.852500e-10,2.921875e-03
-9.812500e-10,2.046875e-03
-9.772500e-10,2.203125e-03
-9.732500e-10,1.546875e-03
-9.692500e-10,1.312500e-03
-9.652500e-10,1.484375e-03
-9.612500e-10,1.484375e-03
-9.572500e-10,1.078125e-03
-9.532500e-10,5.000000e-04
-9.492500e-10,3.281250e-04
-9.452500e-10,5.781250e-04
-9.412500e-10,4.687500e-05
-9.372500e-10,5.312500e-04
-9.332500e-10,6.562500e-04
-9.292500e-10,7.812500e-04
-9.252500e-10,-4.843750e-04
-9.212500e-10,2.968750e-04
-9.172500e-10,-5.156250e-04
-9.132500e-10,6.562500e-04
-9.092500e-10,5.000000e-04
-9.052500e-10,3.437500e-04
-9.012500e-10,-1.718750e-04
-8.972500e-10,3.281250e-04
-8.932500e-10,3.125000e-05
-8.892500e-10,1.718750e-04
-8.852500e-10,7.343750e-04
-8.812500e-10,1.109375e-03
-8.772500e-10,1.093750e-03
-8.732500e-10,8.906250e-04
-8.692500e-10,1.109375e-03
-8.652500e-10,1.750000e-03
-8.612500e-10,1.578125e-03
-8.572500e-10,2.437500e-03
-8.532500e-10,2.906250e-03
-8.492500e-10,3.390625e-03
-8.452500e-10,2.484375e-03
-8.412500e-10,3.562500e-03
-8.372500e-10,3.046875e-03
-8.332500e-10,4.421875e-03
-8.292500e-10,4.546875e-03
-8.252500e-10,4.625000e-03
-8.212500e-10,4.328125e-03
-8.172500e-10,5.000000e-03
-8.132500e-10,4.859375e-03
-8.092500e-10,5.156250e-03
-8.052500e-10,5.796875e-03
-8.012500e-10,6.234375e-03
-7.972500e-10,6.312500e-03
-7.932500e-10,6.109375e-03
-7.892500e-10,6.312500e-03
-7.852500e-10,6.890625e-03
-7.812500e-10,6.656250e-03
-7.772500e-10,7.421875e-03
-7.732500e-10,7.765625e-03
-7.692500e-10,8.078125e-03
-7.652500e-10,7.031250e-03
-7.612500e-10,7.937500e-03
-7.572500e-10,7.203125e-03
-7.532500e-10,8.281250e-03
-7.492500e-10,8.171875e-03
-7.452500e-10,8.000000e-03
-7.412500e-10,7.468750e-03
-7.372500e-10,7.812500e-03
-7.332500e-10,7.343750e-03
-7.292500e-10,7.375000e-03
-7.252500e-10,7.671875e-03
-7.212500e-10,7.765625e-03
-7.172500e-10,7.593750e-03
-7.132500e-10,7.062500e-03
-7.092500e-10,6.921875e-03
-7.052500e-10,7.171875e-03
-7.012500e-10,6.656250e-03
-6.972500e-10,7.109375e-03
-6.932500e-10,7.171875e-03
-6.892500e-10,7.203125e-03
-6.852500e-10,5.890625e-03
-6.812500e-10,6.546875e-03
-6.772500e-10,5.640625e-03
-6.732500e-10,6.468750e-03
-6.692500e-10,6.203125e-03
-6.652500e-10,5.906250e-03
-6.612500e-10,5.250000e-03
-6.572500e-10,5.453125e-03
-6.532500e-10,4.859375e-03
-6.492500e-10,4.859375e-03
-6.452500e-10,5.125000e-03
-6.412500e-10,5.156250e-03
-6.372500e-10,5.093750e-03
-6.332500e-10,4.578125e-03
-6.292500e-10,4.484375e-03
-6.252500e-10,4.812500e-03
-6.212500e-10,4.453125e-03
-6.172500e-10,5.000000e-03
-6.132500e-10,5.234375e-03
-6.092500e-10,5.406250e-03
-6.052500e-10,4.250000e-03
-6.012500e-10,5.125000e-03
-5.972500e-10,4.515625e-03
-5.932500e-10,5.546875e-03
-5.892500e-10,5.562500e-03
-5.852500e-10,5.531250e-03
-5.812500e-10,5.125000e-03
-5.772500e-10,5.578125e-03
-5.732500e-10,5.234375e-03
-5.692500e-10,5.515625e-03
-5.652500e-10,6.078125e-03
-5.612500e-10,6.343750e-03
-5.572500e-10,6.562500e-03
-5.532500e-10,6.312500e-03
-5.492500e-10,6.468750e-03
-5.452500e-10,7.031250e-03
-5.412500e-10,6.906250e-03
-5.372500e-10,7.671875e-03
-5.332500e-10,8.062500e-03
-5.292500e-10,8.390625e-03
-5.252500e-10,7.343750e-03
-5.212500e-10,8.312500e-03
-5.172500e-10,7.859375e-03
-5.132500e-10,8.953125e-03
-5.092500e-10,9.078125e-03
-5.052500e-10,9.031250e-03
-5.012500e-10,8.609375e-03
-4.972500e-10,9.015625e-03
-4.932500e-10,8.656250e-03
-4.892500e-10,8.796875e-03
-4.852500e-10,9.281250e-03
-4.812500e-10,9.375000e-03
-4.772500e-10,9.375000e-03
-4.732500e-10,8.937500e-03
-4.692500e-10,8.921875e-03
-4.652500e-10,9.281250e-03
-4.612500e-10,8.843750e-03
-4.572500e-10,9.390625e-03
-4.532500e-10,9.437500e-03
-4.492500e-10,9.468750e-03
-4.452500e-10,8.109375e-03
-4.412500e-10,8.671875e-03
-4.372500e-10,7.890625e-03
-4.332500e-10,8.656250e-03
-4.292500e-10,8.468750e-03
-4.252500e-10,8.000000e-03
-4.212500e-10,7.218750e-03
-4.172500e-10,7.296875e-03
-4.132500e-10,6.656250e-03
-4.092500e-10,6.390625e-03
-4.052500e-10,6.562500e-03
-4.012500e-10,6.359375e-03
-3.972500e-10,5.968750e-03
-3.932500e-10,5.281250e-03
-3.892500e-10,5.093750e-03
-3.852500e-10,5.265625e-03
-3.812500e-10,4.562500e-03
-3.772500e-10,4.953125e-03
-3.732500e-10,4.875000e-03
-3.692500e-10,4.796875e-03
-3.652500e-10,3.406250e-03
-3.612500e-10,3.843750e-03
-3.572500e-10,3.062500e-03
-3.532500e-10,3.859375e-03
-3.492500e-10,3.734375e-03
-3.452500e-10,3.328125e-03
-3.412500e-10,2.718750e-03
-3.372500e-10,2.968750e-03
-3.332500e-10,2.609375e-03
-3.292500e-10,2.484375e-03
-3.252500e-10,2.921875e-03
-3.212500e-10,3.031250e-03
-3.172500e-10,2.875000e-03
-3.132500e-10,2.593750e-03
-3.092500e-10,2.781250e-03
-3.052500e-10,3.359375e-03
-3.012500e-10,3.031250e-03
-2.972500e-10,3.796875e-03
-2.932500e-10,4.218750e-03
-2.892500e-10,4.562500e-03
-2.852500e-10,3.656250e-03
-2.812500e-10,4.515625e-03
-2.772500e-10,4.125000e-03
-2.732500e-10,5.390625e-03
-2.692500e-10,5.625000e-03
-2.652500e-10,5.640625e-03
-2.612500e-10,5.468750e-03
-2.572500e-10,6.109375e-03
-2.532500e-10,6.078125e-03
-2.492500e-10,6.265625e-03
-2.452500e-10,6.953125e-03
-2.412500e-10,7.296875e-03
-2.372500e-10,7.328125e-03
-2.332500e-10,7.265625e-03
-2.292500e-10,7.546875e-03
-2.252500e-10,8.171875e-03
-2.212500e-10,7.921875e-03
-2.172500e-10,8.625000e-03
-2.132500e-10,9.015625e-03
-2.092500e-10,9.250000e-03
-2.052500e-10,8.234375e-03
-2.012500e-10,8.890625e-03
-1.972500e-10,8.187500e-03
-1.932500e-10,9.218750e-03
-1.892500e-10,9.046875e-03
-1.852500e-10,8.718750e-03
-1.812500e-10,8.171875e-03
-1.772500e-10,8.375000e-03
-1.732500e-10,7.843750e-03
-1.692500e-10,7.578125e-03
-1.652500e-10,7.687500e-03
-1.612500e-10,7.531250e-03
-1.572500e-10,7.015625e-03
-1.532500e-10,6.468750e-03
-1.492500e-10,6.156250e-03
-1.452500e-10,6.187500e-03
-1.412500e-10,5.468750e-03
-1.372500e-10,5.687500e-03
-1.332500e-10,5.593750e-03
-1.292500e-10,5.437500e-03
-1.252500e-10,4.109375e-03
-1.212500e-10,4.468750e-03
-1.172500e-10,3.484375e-03
-1.132500e-10,4.390625e-03
-1.092500e-10,4.062500e-03
-1.052500e-10,3.765625e-03
-1.012500e-10,3.343750e-03
-9.725000e-11,3.765625e-03
-9.325000e-11,3.531250e-03
-8.925000e-11,3.734375e-03
-8.525000e-11,4.390625e-03
-8.125000e-11,4.953125e-03
-7.725000e-11,5.250000e-03
-7.325000e-11,5.687500e-03
-6.925000e-11,6.468750e-03
-6.525000e-11,7.671875e-03
-6.125000e-11,8.375000e-03
-5.725000e-11,1.017188e-02
-5.325000e-11,1.175000e-02
-4.925000e-11,1.353125e-02
-4.525000e-11,1.428125e-02
-4.125000e-11,1.682813e-02
-3.725000e-11,1.812500e-02
-3.325000e-11,2.157813e-02
-2.925000e-11,2.381250e-02
-2.525000e-11,2.634375e-02
-2.125000e-11,2.881250e-02
-1.725000e-11,3.229688e-02
-1.325000e-11,3.523438e-02
-9.250000e-12,3.873438e-02
-5.250000e-12,4.279688e-02
-1.250000e-12,4.692188e-02
2.750000e-12,5.076563e-02
6.750000e-12,5.487500e-02
1.075000e-11,5.937500e-02
1.475000e-11,6.431250e-02
1.875000e-11,6.884375e-02
2.275000e-11,7.453125e-02
2.675000e-11,7.995313e-02
3.075000e-11,8.568750e-02
3.475000e-11,9.032813e-02
3.875000e-11,9.671875e-02
4.275000e-11,1.017969e-01
4.675000e-11,1.090156e-01
5.075000e-11,1.148750e-01
5.475000e-11,1.210469e-01
5.875000e-11,1.269844e-01
6.275000e-11,1.337969e-01
6.675000e-11,1.400156e-01
7.075000e-11,1.465938e-01
7.475000e-11,1.536250e-01
7.875000e-11,1.606250e-01
8.275000e-11,1.670000e-01
8.675000e-11,1.735000e-01
9.075000e-11,1.802031e-01
9.475000e-11,1.870938e-01
9.875000e-11,1.934375e-01
1.027500e-10,2.006406e-01
1.067500e-10,2.073125e-01
1.107500e-10,2.141250e-01
1.147500e-10,2.195156e-01
1.187500e-10,2.264531e-01
1.227500e-10,2.317969e-01
1.267500e-10,2.389688e-01
1.307500e-10,2.444688e-01
1.347500e-10,2.501406e-01
1.387500e-10,2.551875e-01
1.427500e-10,2.608281e-01
1.467500e-10,2.656719e-01
1.507500e-10,2.705938e-01
1.547500e-10,2.756719e-01
1.587500e-10,2.805625e-01
1.627500e-10,2.844375e-01
1.667500e-10,2.881875e-01
1.707500e-10,2.919687e-01
1.747500e-10,2.957031e-01
1.787500e-10,2.987031e-01
1.827500e-10,3.022500e-01
1.867500e-10,3.050469e-01
1.907500e-10,3.078594e-01
1.947500e-10,3.089844e-01
1.987500e-10,3.115938e-01
2.027500e-10,3.124219e-01
2.067500e-10,3.148594e-01
2.107500e-10,3.155156e-01
2.147500e-10,3.162344e-01
2.187500e-10,3.162031e-01
2.227500e-10,3.166563e-01
2.267500e-10,3.163281e-01
2.307500e-10,3.159688e-01
2.347500e-10,3.156719e-01
2.387500e-10,3.152031e-01
2.427500e-10,3.136563e-01
2.467500e-10,3.119531e-01
2.507500e-10,3.103438e-01
2.547500e-10,3.087188e-01
2.587500e-10,3.063438e-01
2.627500e-10,3.045313e-01
2.667500e-10,3.020156e-01
2.707500e-10,2.996406e-01
2.747500e-10,2.955781e-01
2.787500e-10,2.931719e-01
2.827500e-10,2.891094e-01
2.867500e-10,2.866250e-01
2.907500e-10,2.825625e-01
2.947500e-10,2.786406e-01
2.987500e-10,2.741094e-01
3.027500e-10,2.702656e-01
3.067500e-10,2.658125e-01
3.107500e-10,2.614375e-01
3.147500e-10,2.572344e-01
3.187500e-10,2.530469e-01
3.227500e-10,2.479844e-01
3.267500e-10,2.428906e-01
3.307500e-10,2.380938e-01
3.347500e-10,2.335000e-01
3.387500e-10,2.282656e-01
3.427500e-10,2.237969e-01
3.467500e-10,2.188438e-01
3.507500e-10,2.141875e-01
3.547500e-10,2.080000e-01
3.587500e-10,2.037344e-01
3.627500e-10,1.980156e-01
3.667500e-10,1.939688e-01
3.707500e-10,1.885938e-01
3.747500e-10,1.835000e-01
3.787500e-10,1.779688e-01
3.827500e-10,1.733750e-01
3.867500e-10,1.683281e-01
3.907500e-10,1.635313e-01
3.947500e-10,1.590156e-01
3.987500e-10,1.546719e-01
4.027500e-10,1.497500e-01
4.067500e-10,1.448750e-01
4.107500e-10,1.404375e-01
4.147500e-10,1.363906e-01
4.187500e-10,1.317813e-01
4.227500e-10,1.280625e-01
4.267500e-10,1.240938e-01
4.307500e-10,1.204688e-01
4.347500e-10,1.154375e-01
4.387500e-10,1.125156e-01
4.427500e-10,1.082188e-01
4.467500e-10,1.056719e-01
4.507500e-10,1.019688e-01
4.547500e-10,9.854688e-02
4.587500e-10,9.481250e-02
4.627500e-10,9.210938e-02
4.667500e-10,8.898438e-02
4.707500e-10,8.620313e-02
4.747500e-10,8.371875e-02
4.787500e-10,8.145313e-02
4.827500e-10,7.875000e-02
4.867500e-10,7.609375e-02
4.907500e-10,7.385938e-02
4.947500e-10,7.209375e-02
4.987500e-10,6.971875e-02
5.027500e-10,6.823438e-02
5.067500e-10,6.657813e-02
5.107500e-10,6.515625e-02
5.147500e-10,6.240625e-02
5.187500e-10,6.170313e-02
5.227500e-10,5.964063e-02
5.267500e-10,5.926563e-02
5.307500e-10,5.778125e-02
5.347500e-10,5.640625e-02
5.387500e-10,5.475000e-02
5.427500e-10,5.403125e-02
5.467500e-10,5.276563e-02
5.507500e-10,5.184375e-02
5.547500e-10,5.117188e-02
5.587500e-10,5.059375e-02
5.627500e-10,4.960938e-02
5.667500e-10,4.853125e-02
5.707500e-10,4.781250e-02
5.747500e-10,4.743750e-02
5.787500e-10,4.640625e-02
5.827500e-10,4.612500e-02
5.867500e-10,4.564063e-02
5.907500e-10,4.521875e-02
5.947500e-10,4.346875e-02
5.987500e-10,4.359375e-02
6.027500e-10,4.234375e-02
6.067500e-10,4.270313e-02
6.107500e-10,4.189063e-02
6.147500e-10,4.098438e-02
6.187500e-10,3.978125e-02
6.227500e-10,3.948438e-02
6.267500e-10,3.843750e-02
6.307500e-10,3.771875e-02
6.347500e-10,3.721875e-02
6.387500e-10,3.675000e-02
6.427500e-10,3.584375e-02
6.467500e-10,3.470313e-02
6.507500e-10,3.400000e-02
6.547500e-10,3.348438e-02
6.587500e-10,3.229688e-02
6.627500e-10,3.187500e-02
6.667500e-10,3.123438e-02
6.707500e-10,3.050000e-02
6.747500e-10,2.856250e-02
6.787500e-10,2.839063e-02
6.827500e-10,2.690625e-02
6.867500e-10,2.706250e-02
6.907500e-10,2.601563e-02
6.947500e-10,2.489063e-02
6.987500e-10,2.343750e-02
7.027500e-10,2.300000e-02
7.067500e-10,2.173438e-02
7.107500e-10,2.079688e-02
7.147500e-10,2.023438e-02
7.187500e-10,1.970313e-02
7.227500e-10,1.878125e-02
7.267500e-10,1.760938e-02
7.307500e-10,1.698438e-02
7.347500e-10,1.653125e-02
7.387500e-10,1.548438e-02
7.427500e-10,1.529688e-02
7.467500e-10,1.495313e-02
7.507500e-10,1.440625e-02
7.547500e-10,1.284375e-02
7.587500e-10,1.298438e-02
7.627500e-10,1.192188e-02
7.667500e-10,1.259375e-02
7.707500e-10,1.204688e-02
7.747500e-10,1.151563e-02
7.787500e-10,1.057813e-02
7.827500e-10,1.078125e-02
7.867500e-10,1.012500e-02
7.907500e-10,9.859375e-03
7.947500e-10,1.003125e-02
7.987500e-10,1.015625e-02
8.027500e-10,1.000000e-02
8.067500e-10,9.531250e-03
8.107500e-10,9.625000e-03
8.147500e-10,9.953125e-03
8.187500e-10,9.671875e-03
8.227500e-10,1.026563e-02
8.267500e-10,1.065625e-02
8.307500e-10,1.081250e-02
8.347500e-10,9.968750e-03
8.387500e-10,1.075000e-02
8.427500e-10,1.029688e-02
8.467500e-10,1.167188e-02
8.507500e-10,1.175000e-02
8.547500e-10,1.181250e-02
8.587500e-10,1.140625e-02
8.627500e-10,1.206250e-02
8.667500e-10,1.187500e-02
8.707500e-10,1.206250e-02
8.747500e-10,1.267188e-02
8.787500e-10,1.301563e-02
8.827500e-10,1.318750e-02
8.867500e-10,1.296875e-02
8.907500e-10,1.317188e-02
8.947500e-10,1.375000e-02
8.987500e-10,1.362500e-02
9.027500e-10,1.431250e-02
9.067500e-10,1.468750e-02
9.107500e-10,1.484375e-02
9.147500e-10,1.400000e-02
9.187500e-10,1.468750e-02
9.227500e-10,1.406250e-02
9.267500e-10,1.534375e-02
9.307500e-10,1.526563e-02
9.347500e-10,1.512500e-02
9.387500e-10,1.454688e-02
9.427500e-10,1.492188e-02
9.467500e-10,1.451563e-02
9.507500e-10,1.448438e-02
9.547500e-10,1.487500e-02
9.587500e-10,1.482813e-02
9.627500e-10,1.471875e-02
9.667500e-10,1.423438e-02
9.707500e-10,1.409375e-02
9.747500e-10,1.445313e-02
9.787500e-10,1.404688e-02
9.827500e-10,1.445313e-02
9.867500e-10,1.453125e-02
9.907500e-10,1.445313e-02
9.947500e-10,1.340625e-02
9.987500e-10,1.389063e-02
1.002750e-09,1.300000e-02
1.006750e-09,1.409375e-02
1.010750e-09,1.382813e-02
1.014750e-09,1.351563e-02
1.018750e-09,1.282813e-02
1.022750e-09,1.306250e-02
1.026750e-09,1.257813e-02
1.030750e-09,1.250000e-02
1.034750e-09,1.282813e-02
1.038750e-09,1.270313e-02
1.042750e-09,1.253125e-02
1.046750e-09,1.206250e-02
1.050750e-09,1.187500e-02
1.054750e-09,1.226563e-02
1.058750e-09,1.189063e-02
1.062750e-09,1.231250e-02
1.066750e-09,1.242188e-02
1.070750e-09,1.242188e-02
1.074750e-09,1.145313e-02
1.078750e-09,1.207813e-02
1.082750e-09,1.125000e-02
1.086750e-09,1.237500e-02
1.090750e-09,1.218750e-02
1.094750e-09,1.193750e-02
1.098750e-09,1.134375e-02
1.102750e-09,1.167188e-02
1.106750e-09,1.128125e-02
1.110750e-09,1.128125e-02
1.114750e-09,1.168750e-02
1.118750e-09,1.167188e-02
1.122750e-09,1.153125e-02
1.126750e-09,1.112500e-02
1.130750e-09,1.100000e-02
1.134750e-09,1.142188e-02
1.138750e-09,1.106250e-02
1.142750e-09,1.154688e-02
1.146750e-09,1.170313e-02
1.150750e-09,1.176563e-02
1.154750e-09,1.079688e-02
1.158750e-09,1.151563e-02
1.162750e-09,1.070313e-02
1.166750e-09,1.182813e-02
1.170750e-09,1.162500e-02
1.174750e-09,1.140625e-02
1.178750e-09,1.079688e-02
1.182750e-09,1.117188e-02
1.186750e-09,1.078125e-02
1.190750e-09,1.078125e-02
1.194750e-09,1.118750e-02
1.198750e-09,1.128125e-02
1.202750e-09,1.110938e-02
1.206750e-09,1.073438e-02
1.210750e-09,1.065625e-02
1.214750e-09,1.109375e-02
1.218750e-09,1.075000e-02
1.222750e-09,1.129688e-02
1.226750e-09,1.151563e-02
1.230750e-09,1.165625e-02
1.234750e-09,1.068750e-02
1.238750e-09,1.148438e-02
1.242750e-09,1.071875e-02
1.246750e-09,1.192188e-02
1.250750e-09,1.176563e-02
1.254750e-09,1.162500e-02
1.258750e-09,1.107813e-02
1.262750e-09,1.151563e-02
1.266750e-09,1.117188e-02
1.270750e-09,1.123438e-02
1.274750e-09,1.168750e-02
1.278750e-09,1.189063e-02
1.282750e-09,1.175000e-02
1.286750e-09,1.140625e-02
1.290750e-09,1.140625e-02
1.294750e-09,1.185938e-02
1.298750e-09,1.151563e-02
1.302750e-09,1.210938e-02
1.306750e-09,1.231250e-02
1.310750e-09,1.250000e-02
1.314750e-09,1.142188e-02
1.318750e-09,1.221875e-02
1.322750e-09,1.140625e-02
1.326750e-09,1.256250e-02
1.330750e-09,1.234375e-02
1.334750e-09,1.210938e-02
1.338750e-09,1.145313e-02
1.342750e-09,1.179688e-02
1.346750e-09,1.134375e-02
1.350750e-09,1.126563e-02
1.354750e-09,1.159375e-02
1.358750e-09,1.165625e-02
1.362750e-09,1.135938e-02
1.366750e-09,1.085938e-02
1.370750e-09,1.071875e-02
1.374750e-09,1.100000e-02
1.378750e-09,1.046875e-02
1.382750e-09,1.090625e-02
1.386750e-09,1.095313e-02
1.390750e-09,1.100000e-02
1.394750e-09,9.703125e-03
1.398750e-09,1.034375e-02
1.402750e-09,9.390625e-03
1.406750e-09,1.043750e-02
1.410750e-09,1.007813e-02
1.414750e-09,9.734375e-03
1.418750e-09,9.000000e-03
1.422750e-09,9.265625e-03
1.426750e-09,8.734375e-03
1.430750e-09,8.625000e-03
1.434750e-09,8.921875e-03
1.438750e-09,9.015625e-03
1.442750e-09,8.734375e-03
1.446750e-09,8.265625e-03
1.450750e-09,8.203125e-03
1.454750e-09,8.578125e-03
1.458750e-09,8.156250e-03
1.462750e-09,8.734375e-03
1.466750e-09,8.953125e-03
1.470750e-09,9.171875e-03
1.474750e-09,8.062500e-03
1.478750e-09,8.921875e-03
1.482750e-09,8.203125e-03
1.486750e-09,9.500000e-03
1.490750e-09,9.421875e-03
1.494750e-09,9.343750e-03
1.498750e-09,8.890625e-03
1.502750e-09,9.468750e-03
1.506750e-09,9.234375e-03
1.510750e-09,9.421875e-03
1.514750e-09,1.001563e-02
1.518750e-09,1.042188e-02
1.522750e-09,1.043750e-02
1.526750e-09,1.025000e-02
1.530750e-09,1.046875e-02
1.534750e-09,1.109375e-02
1.538750e-09,1.092188e-02
1.542750e-09,1.173438e-02
1.546750e-09,1.215625e-02
1.550750e-09,1.254688e-02
1.554750e-09,1.156250e-02
1.558750e-09,1.256250e-02
1.562750e-09,1.193750e-02
1.566750e-09,1.329688e-02
1.570750e-09,1.325000e-02
1.574750e-09,1.318750e-02
1.578750e-09,1.268750e-02
1.582750e-09,1.317188e-02
1.586750e-09,1.284375e-02
1.590750e-09,1.289063e-02
1.594750e-09,1.331250e-02
1.598750e-09,1.350000e-02
1.602750e-09,1.326563e-02
1.606750e-09,1.281250e-02
1.610750e-09,1.271875e-02
1.614750e-09,1.301563e-02
1.618750e-09,1.248438e-02
1.622750e-09,1.292188e-02
1.626750e-09,1.293750e-02
1.630750e-09,1.292188e-02
1.634750e-09,1.150000e-02
1.638750e-09,1.204688e-02
1.642750e-09,1.096875e-02
1.646750e-09,1.187500e-02
1.650750e-09,1.135938e-02
1.654750e-09,1.082813e-02
1.658750e-09,9.890625e-03
1.662750e-09,9.937500e-03
1.666750e-09,9.187500e-03
1.670750e-09,8.812500e-03
1.674750e-09,8.843750e-03
1.678750e-09,8.687500e-03
1.682750e-09,8.109375e-03
1.686750e-09,7.343750e-03
1.690750e-09,6.984375e-03
1.694750e-09,7.031250e-03
1.698750e-09,6.296875e-03
1.702750e-09,6.578125e-03
1.706750e-09,6.453125e-03
1.710750e-09,6.375000e-03
1.714750e-09,4.890625e-03
1.718750e-09,5.453125e-03
1.722750e-09,4.421875e-03
1.726750e-09,5.421875e-03
1.730750e-09,5.046875e-03
1.734750e-09,4.703125e-03
1.738750e-09,3.968750e-03
1.742750e-09,4.296875e-03
1.746750e-09,3.828125e-03
1.750750e-09,3.796875e-03
1.754750e-09,4.203125e-03
1.758750e-09,4.421875e-03
