Measurements-streak-laser-independent/Photodiode-on-Tek-12bit-4GHz/Tek000_ch1_20190613132930487.csv

Model,MSO64
Waveform Type,ANALOG
Horizontal Units,s
Sample Interval,4.000000e-12
Record Length,1000
Zero Index,310.609375
Vertical Units,V

TIME,CH1
-1.242437e-09,1.953125e-03
-1.238437e-09,1.265625e-03
-1.234437e-09,1.609375e-03
-1.230437e-09,1.593750e-03
-1.226437e-09,1.609375e-03
-1.222437e-09,2.343750e-04
-1.218438e-09,9.375000e-04
-1.214438e-09,3.125000e-05
-1.210438e-09,1.203125e-03
-1.206438e-09,9.843750e-04
-1.202438e-09,7.968750e-04
-1.198437e-09,2.343750e-04
-1.194437e-09,7.187500e-04
-1.190437e-09,4.375000e-04
-1.186437e-09,5.625000e-04
-1.182437e-09,1.140625e-03
-1.178437e-09,1.515625e-03
-1.174437e-09,1.531250e-03
-1.170437e-09,1.343750e-03
-1.166437e-09,1.593750e-03
-1.162437e-09,2.250000e-03
-1.158438e-09,2.109375e-03
-1.154438e-09,2.984375e-03
-1.150438e-09,3.468750e-03
-1.146438e-09,3.953125e-03
-1.142438e-09,3.015625e-03
-1.138437e-09,4.109375e-03
-1.134437e-09,3.578125e-03
-1.130437e-09,5.078125e-03
-1.126437e-09,5.125000e-03
-1.122437e-09,5.187500e-03
-1.118437e-09,4.812500e-03
-1.114437e-09,5.453125e-03
-1.110437e-09,5.265625e-03
-1.106437e-09,5.453125e-03
-1.102437e-09,6.031250e-03
-1.098438e-09,6.406250e-03
-1.094438e-09,6.343750e-03
-1.090438e-09,6.062500e-03
-1.086438e-09,6.156250e-03
-1.082438e-09,6.656250e-03
-1.078437e-09,6.312500e-03
-1.074437e-09,6.968750e-03
-1.070437e-09,7.187500e-03
-1.066437e-09,7.406250e-03
-1.062437e-09,6.187500e-03
-1.058437e-09,6.984375e-03
-1.054437e-09,6.140625e-03
-1.050437e-09,7.312500e-03
-1.046437e-09,7.046875e-03
-1.042437e-09,6.781250e-03
-1.038438e-09,6.093750e-03
-1.034438e-09,6.421875e-03
-1.030438e-09,5.937500e-03
-1.026438e-09,5.843750e-03
-1.022438e-09,6.156250e-03
-1.018438e-09,6.281250e-03
-1.014437e-09,6.000000e-03
-1.010437e-09,5.515625e-03
-1.006437e-09,5.437500e-03
-1.002437e-09,5.781250e-03
-9.984375e-10,5.312500e-03
-9.944375e-10,5.859375e-03
-9.904375e-10,6.031250e-03
-9.864375e-10,6.203125e-03
-9.824375e-10,4.968750e-03
-9.784375e-10,5.781250e-03
-9.744375e-10,4.968750e-03
-9.704375e-10,6.187500e-03
-9.664375e-10,6.015625e-03
-9.624375e-10,5.859375e-03
-9.584375e-10,5.312500e-03
-9.544375e-10,5.781250e-03
-9.504375e-10,5.453125e-03
-9.464375e-10,5.546875e-03
-9.424375e-10,6.046875e-03
-9.384375e-10,6.359375e-03
-9.344375e-10,6.265625e-03
-9.304375e-10,5.984375e-03
-9.264375e-10,6.109375e-03
-9.224375e-10,6.640625e-03
-9.184375e-10,6.359375e-03
-9.144375e-10,7.093750e-03
-9.104375e-10,7.421875e-03
-9.064375e-10,7.734375e-03
-9.024375e-10,6.656250e-03
-8.984375e-10,7.562500e-03
-8.944375e-10,6.859375e-03
-8.904375e-10,8.093750e-03
-8.864375e-10,7.984375e-03
-8.824375e-10,7.859375e-03
-8.784375e-10,7.312500e-03
-8.744375e-10,7.765625e-03
-8.704375e-10,7.390625e-03
-8.664375e-10,7.406250e-03
-8.624375e-10,7.812500e-03
-8.584375e-10,8.000000e-03
-8.544375e-10,7.781250e-03
-8.504375e-10,7.328125e-03
-8.464375e-10,7.265625e-03
-8.424375e-10,7.578125e-03
-8.384375e-10,7.078125e-03
-8.344375e-10,7.578125e-03
-8.304375e-10,7.656250e-03
-8.264375e-10,7.718750e-03
-8.224375e-10,6.421875e-03
-8.184375e-10,7.062500e-03
-8.144375e-10,6.093750e-03
-8.104375e-10,6.968750e-03
-8.064375e-10,6.640625e-03
-8.024375e-10,6.250000e-03
-7.984375e-10,5.500000e-03
-7.944375e-10,5.718750e-03
-7.904375e-10,5.093750e-03
-7.864375e-10,4.968750e-03
-7.824375e-10,5.171875e-03
-7.784375e-10,5.171875e-03
-7.744375e-10,4.875000e-03
-7.704375e-10,4.281250e-03
-7.664375e-10,4.109375e-03
-7.624375e-10,4.343750e-03
-7.584375e-10,3.812500e-03
-7.544375e-10,4.265625e-03
-7.504375e-10,4.359375e-03
-7.464375e-10,4.437500e-03
-7.424375e-10,3.218750e-03
-7.384375e-10,3.968750e-03
-7.344375e-10,3.109375e-03
-7.304375e-10,4.031250e-03
-7.264375e-10,3.890625e-03
-7.224375e-10,3.687500e-03
-7.184375e-10,3.171875e-03
-7.144375e-10,3.531250e-03
-7.104375e-10,3.078125e-03
-7.064375e-10,3.234375e-03
-7.024375e-10,3.640625e-03
-6.984375e-10,3.828125e-03
-6.944375e-10,3.875000e-03
-6.904375e-10,3.500000e-03
-6.864375e-10,3.515625e-03
-6.824375e-10,3.968750e-03
-6.784375e-10,3.671875e-03
-6.744375e-10,4.312500e-03
-6.704375e-10,4.609375e-03
-6.664375e-10,4.843750e-03
-6.624375e-10,3.765625e-03
-6.584375e-10,4.656250e-03
-6.544375e-10,4.000000e-03
-6.504375e-10,4.968750e-03
-6.464375e-10,4.937500e-03
-6.424375e-10,4.843750e-03
-6.384375e-10,4.375000e-03
-6.344375e-10,4.718750e-03
-6.304375e-10,4.234375e-03
-6.264375e-10,4.390625e-03
-6.224375e-10,4.750000e-03
-6.184375e-10,4.828125e-03
-6.144375e-10,4.890625e-03
-6.104375e-10,4.406250e-03
-6.064375e-10,4.312500e-03
-6.024375e-10,4.625000e-03
-5.984375e-10,4.250000e-03
-5.944375e-10,4.734375e-03
-5.904375e-10,4.875000e-03
-5.864375e-10,4.953125e-03
-5.824375e-10,3.656250e-03
-5.784375e-10,4.406250e-03
-5.744375e-10,3.703125e-03
-5.704375e-10,4.515625e-03
-5.664375e-10,4.406250e-03
-5.624375e-10,4.187500e-03
-5.584375e-10,3.625000e-03
-5.544375e-10,3.859375e-03
-5.504375e-10,3.312500e-03
-5.464375e-10,3.406250e-03
-5.424375e-10,3.796875e-03
-5.384375e-10,3.828125e-03
-5.344375e-10,3.906250e-03
-5.304375e-10,3.484375e-03
-5.264375e-10,3.484375e-03
-5.224375e-10,3.906250e-03
-5.184375e-10,3.656250e-03
-5.144375e-10,4.328125e-03
-5.104375e-10,4.593750e-03
-5.064375e-10,4.843750e-03
-5.024375e-10,3.750000e-03
-4.984375e-10,4.671875e-03
-4.944375e-10,4.250000e-03
-4.904375e-10,5.312500e-03
-4.864375e-10,5.531250e-03
-4.824375e-10,5.515625e-03
-4.784375e-10,5.203125e-03
-4.744375e-10,5.718750e-03
-4.704375e-10,5.484375e-03
-4.664375e-10,5.781250e-03
-4.624375e-10,6.437500e-03
-4.584375e-10,6.703125e-03
-4.544375e-10,6.890625e-03
-4.504375e-10,6.687500e-03
-4.464375e-10,6.921875e-03
-4.424375e-10,7.531250e-03
-4.384375e-10,7.312500e-03
-4.344375e-10,8.140625e-03
-4.304375e-10,8.421875e-03
-4.264375e-10,8.687500e-03
-4.224375e-10,7.593750e-03
-4.184375e-10,8.359375e-03
-4.144375e-10,7.859375e-03
-4.104375e-10,8.796875e-03
-4.064375e-10,8.859375e-03
-4.024375e-10,8.562500e-03
-3.984375e-10,7.968750e-03
-3.944375e-10,8.203125e-03
-3.904375e-10,7.734375e-03
-3.864375e-10,7.546875e-03
-3.824375e-10,7.812500e-03
-3.784375e-10,7.656250e-03
-3.744375e-10,7.281250e-03
-3.704375e-10,6.625000e-03
-3.664375e-10,6.437500e-03
-3.624375e-10,6.593750e-03
-3.584375e-10,5.781250e-03
-3.544375e-10,6.062500e-03
-3.504375e-10,5.890625e-03
-3.464375e-10,5.625000e-03
-3.424375e-10,4.078125e-03
-3.384375e-10,4.265625e-03
-3.344375e-10,3.296875e-03
-3.304375e-10,3.828125e-03
-3.264375e-10,3.453125e-03
-3.224375e-10,2.750000e-03
-3.184375e-10,1.875000e-03
-3.144375e-10,1.828125e-03
-3.104375e-10,1.187500e-03
-3.064375e-10,7.187500e-04
-3.024375e-10,8.281250e-04
-2.984375e-10,5.937500e-04
-2.944375e-10,1.093750e-04
-2.904375e-10,-4.531250e-04
-2.864375e-10,-5.625000e-04
-2.824375e-10,-2.656250e-04
-2.784375e-10,-8.750000e-04
-2.744375e-10,-4.062500e-04
-2.704375e-10,-2.031250e-04
-2.664375e-10,-1.250000e-04
-2.624375e-10,-1.218750e-03
-2.584375e-10,-5.937500e-04
-2.544375e-10,-1.140625e-03
-2.504375e-10,-4.687500e-05
-2.464375e-10,7.812500e-05
-2.424375e-10,5.551115e-17
-2.384375e-10,-2.031250e-04
-2.344375e-10,3.750000e-04
-2.304375e-10,3.281250e-04
-2.264375e-10,5.000000e-04
-2.224375e-10,1.187500e-03
-2.184375e-10,1.562500e-03
-2.144375e-10,1.656250e-03
-2.104375e-10,1.734375e-03
-2.064375e-10,2.093750e-03
-2.024375e-10,2.828125e-03
-1.984375e-10,2.734375e-03
-1.944375e-10,3.578125e-03
-1.904375e-10,4.125000e-03
-1.864375e-10,4.500000e-03
-1.824375e-10,3.703125e-03
-1.784375e-10,4.500000e-03
-1.744375e-10,3.984375e-03
-1.704375e-10,5.187500e-03
-1.664375e-10,5.203125e-03
-1.624375e-10,5.078125e-03
-1.584375e-10,4.750000e-03
-1.544375e-10,5.125000e-03
-1.504375e-10,4.781250e-03
-1.464375e-10,4.687500e-03
-1.424375e-10,4.953125e-03
-1.384375e-10,4.921875e-03
-1.344375e-10,4.546875e-03
-1.304375e-10,4.203125e-03
-1.264375e-10,4.046875e-03
-1.224375e-10,4.187500e-03
-1.184375e-10,3.609375e-03
-1.144375e-10,4.000000e-03
-1.104375e-10,4.046875e-03
-1.064375e-10,4.062500e-03
-1.024375e-10,2.968750e-03
-9.843750e-11,3.468750e-03
-9.443750e-11,2.687500e-03
-9.043750e-11,3.828125e-03
-8.643750e-11,3.734375e-03
-8.243750e-11,3.750000e-03
-7.843750e-11,3.671875e-03
-7.443750e-11,4.453125e-03
-7.043750e-11,4.640625e-03
-6.643750e-11,5.312500e-03
-6.243750e-11,6.453125e-03
-5.843750e-11,7.593750e-03
-5.443750e-11,8.500000e-03
-5.043750e-11,9.671875e-03
-4.643750e-11,1.121875e-02
-4.243750e-11,1.321875e-02
-3.843750e-11,1.484375e-02
-3.443750e-11,1.765625e-02
-3.043750e-11,2.031250e-02
-2.643750e-11,2.329688e-02
-2.243750e-11,2.537500e-02
-1.843750e-11,2.923438e-02
-1.443750e-11,3.196875e-02
-1.043750e-11,3.696875e-02
-6.437500e-12,4.081250e-02
-2.437500e-12,4.507813e-02
1.562500e-12,4.940625e-02
5.562500e-12,5.478125e-02
9.562500e-12,5.971875e-02
1.356250e-11,6.528125e-02
1.756250e-11,7.148438e-02
2.156250e-11,7.785938e-02
2.556250e-11,8.395313e-02
2.956250e-11,9.043750e-02
3.356250e-11,9.735938e-02
3.756250e-11,1.046875e-01
4.156250e-11,1.117500e-01
4.556250e-11,1.199375e-01
4.956250e-11,1.279063e-01
5.356250e-11,1.362500e-01
5.756250e-11,1.435000e-01
6.156250e-11,1.524375e-01
6.556250e-11,1.600625e-01
6.956250e-11,1.697969e-01
7.356250e-11,1.781094e-01
7.756250e-11,1.867969e-01
8.156250e-11,1.951563e-01
8.556250e-11,2.042656e-01
8.956250e-11,2.127656e-01
9.356250e-11,2.215000e-01
9.756250e-11,2.305938e-01
1.015625e-10,2.396250e-01
1.055625e-10,2.478125e-01
1.095625e-10,2.560781e-01
1.135625e-10,2.643906e-01
1.175625e-10,2.727188e-01
1.215625e-10,2.804375e-01
1.255625e-10,2.888125e-01
1.295625e-10,2.964844e-01
1.335625e-10,3.042031e-01
1.375625e-10,3.103281e-01
1.415625e-10,3.177969e-01
1.455625e-10,3.235156e-01
1.495625e-10,3.308594e-01
1.535625e-10,3.363438e-01
1.575625e-10,3.419063e-01
1.615625e-10,3.466563e-01
1.655625e-10,3.517656e-01
1.695625e-10,3.560000e-01
1.735625e-10,3.600938e-01
1.775625e-10,3.641875e-01
1.815625e-10,3.680000e-01
1.855625e-10,3.705469e-01
1.895625e-10,3.729063e-01
1.935625e-10,3.751250e-01
1.975625e-10,3.771719e-01
2.015625e-10,3.784063e-01
2.055625e-10,3.800469e-01
2.095625e-10,3.807813e-01
2.135625e-10,3.815313e-01
2.175625e-10,3.805000e-01
2.215625e-10,3.808750e-01
2.255625e-10,3.794219e-01
2.295625e-10,3.794531e-01
2.335625e-10,3.776719e-01
2.375625e-10,3.759844e-01
2.415625e-10,3.735156e-01
2.455625e-10,3.715000e-01
2.495625e-10,3.687656e-01
2.535625e-10,3.659688e-01
2.575625e-10,3.632188e-01
2.615625e-10,3.604063e-01
2.655625e-10,3.564688e-01
2.695625e-10,3.524688e-01
2.735625e-10,3.486094e-01
2.775625e-10,3.447813e-01
2.815625e-10,3.403125e-01
2.855625e-10,3.364375e-01
2.895625e-10,3.319219e-01
2.935625e-10,3.277031e-01
2.975625e-10,3.218594e-01
3.015625e-10,3.177656e-01
3.055625e-10,3.121250e-01
3.095625e-10,3.080938e-01
3.135625e-10,3.025938e-01
3.175625e-10,2.973750e-01
3.215625e-10,2.916563e-01
3.255625e-10,2.866875e-01
3.295625e-10,2.812656e-01
3.335625e-10,2.759844e-01
3.375625e-10,2.709375e-01
3.415625e-10,2.660313e-01
3.455625e-10,2.603125e-01
3.495625e-10,2.546719e-01
3.535625e-10,2.494063e-01
3.575625e-10,2.443906e-01
3.615625e-10,2.388125e-01
3.655625e-10,2.340469e-01
3.695625e-10,2.288594e-01
3.735625e-10,2.240938e-01
3.775625e-10,2.177969e-01
3.815625e-10,2.134844e-01
3.855625e-10,2.077656e-01
3.895625e-10,2.036875e-01
3.935625e-10,1.983281e-01
3.975625e-10,1.933281e-01
4.015625e-10,1.878594e-01
4.055625e-10,1.833438e-01
4.095625e-10,1.784531e-01
4.135625e-10,1.737500e-01
4.175625e-10,1.692969e-01
4.215625e-10,1.650625e-01
4.255625e-10,1.602188e-01
4.295625e-10,1.554375e-01
4.335625e-10,1.510313e-01
4.375625e-10,1.470313e-01
4.415625e-10,1.424219e-01
4.455625e-10,1.386719e-01
4.495625e-10,1.346563e-01
4.535625e-10,1.309844e-01
4.575625e-10,1.258750e-01
4.615625e-10,1.228438e-01
4.655625e-10,1.184688e-01
4.695625e-10,1.157031e-01
4.735625e-10,1.118125e-01
4.775625e-10,1.081875e-01
4.815625e-10,1.042188e-01
4.855625e-10,1.012344e-01
4.895625e-10,9.784375e-02
4.935625e-10,9.478125e-02
4.975625e-10,9.193750e-02
5.015625e-10,8.934375e-02
5.055625e-10,8.631250e-02
5.095625e-10,8.331250e-02
5.135625e-10,8.070313e-02
5.175625e-10,7.856250e-02
5.215625e-10,7.581250e-02
5.255625e-10,7.387500e-02
5.295625e-10,7.181250e-02
5.335625e-10,7.000000e-02
5.375625e-10,6.689063e-02
5.415625e-10,6.578125e-02
5.455625e-10,6.337500e-02
5.495625e-10,6.259375e-02
5.535625e-10,6.075000e-02
5.575625e-10,5.898438e-02
5.615625e-10,5.701563e-02
5.655625e-10,5.595313e-02
5.695625e-10,5.435938e-02
5.735625e-10,5.312500e-02
5.775625e-10,5.209375e-02
5.815625e-10,5.125000e-02
5.855625e-10,5.000000e-02
5.895625e-10,4.864063e-02
5.935625e-10,4.770313e-02
5.975625e-10,4.706250e-02
6.015625e-10,4.576563e-02
6.055625e-10,4.523438e-02
6.095625e-10,4.453125e-02
6.135625e-10,4.387500e-02
6.175625e-10,4.193750e-02
6.215625e-10,4.182813e-02
6.255625e-10,4.042188e-02
6.295625e-10,4.056250e-02
6.335625e-10,3.954688e-02
6.375625e-10,3.843750e-02
6.415625e-10,3.703125e-02
6.455625e-10,3.657813e-02
6.495625e-10,3.532813e-02
6.535625e-10,3.435938e-02
6.575625e-10,3.364063e-02
6.615625e-10,3.300000e-02
6.655625e-10,3.190625e-02
6.695625e-10,3.054688e-02
6.735625e-10,2.967188e-02
6.775625e-10,2.890625e-02
6.815625e-10,2.751563e-02
6.855625e-10,2.687500e-02
6.895625e-10,2.604688e-02
6.935625e-10,2.506250e-02
6.975625e-10,2.293750e-02
7.015625e-10,2.253125e-02
7.055625e-10,2.090625e-02
7.095625e-10,2.085938e-02
7.135625e-10,1.962500e-02
7.175625e-10,1.832813e-02
7.215625e-10,1.668750e-02
7.255625e-10,1.614063e-02
7.295625e-10,1.470313e-02
7.335625e-10,1.362500e-02
7.375625e-10,1.295313e-02
7.415625e-10,1.234375e-02
7.455625e-10,1.139063e-02
7.495625e-10,1.015625e-02
7.535625e-10,9.515625e-03
7.575625e-10,9.062500e-03
7.615625e-10,8.062500e-03
7.655625e-10,7.906250e-03
7.695625e-10,7.687500e-03
7.735625e-10,7.203125e-03
7.775625e-10,5.828125e-03
7.815625e-10,6.093750e-03
7.855625e-10,5.281250e-03
7.895625e-10,6.171875e-03
7.935625e-10,5.906250e-03
7.975625e-10,5.671875e-03
8.015625e-10,5.062500e-03
8.055625e-10,5.593750e-03
8.095625e-10,5.296875e-03
8.135625e-10,5.406250e-03
8.175625e-10,6.000000e-03
8.215625e-10,6.531250e-03
8.255625e-10,6.843750e-03
8.295625e-10,6.828125e-03
8.335625e-10,7.375000e-03
8.375625e-10,8.203125e-03
8.415625e-10,8.421875e-03
8.455625e-10,9.500000e-03
8.495625e-10,1.037500e-02
8.535625e-10,1.096875e-02
8.575625e-10,1.067188e-02
8.615625e-10,1.185938e-02
8.655625e-10,1.187500e-02
8.695625e-10,1.368750e-02
8.735625e-10,1.420313e-02
8.775625e-10,1.467188e-02
8.815625e-10,1.465625e-02
8.855625e-10,1.562500e-02
8.895625e-10,1.576563e-02
8.935625e-10,1.625000e-02
8.975625e-10,1.710938e-02
9.015625e-10,1.762500e-02
9.055625e-10,1.800000e-02
9.095625e-10,1.792188e-02
9.135625e-10,1.820313e-02
9.175625e-10,1.885938e-02
9.215625e-10,1.876563e-02
9.255625e-10,1.943750e-02
9.295625e-10,1.973438e-02
9.335625e-10,1.975000e-02
9.375625e-10,1.881250e-02
9.415625e-10,1.928125e-02
9.455625e-10,1.843750e-02
9.495625e-10,1.948438e-02
9.535625e-10,1.912500e-02
9.575625e-10,1.867188e-02
9.615625e-10,1.775000e-02
9.655625e-10,1.773438e-02
9.695625e-10,1.695313e-02
9.735625e-10,1.653125e-02
9.775625e-10,1.648438e-02
9.815625e-10,1.595313e-02
9.855625e-10,1.540625e-02
9.895625e-10,1.446875e-02
9.935625e-10,1.384375e-02
9.975625e-10,1.376563e-02
1.001562e-09,1.293750e-02
1.005562e-09,1.289063e-02
1.009562e-09,1.251563e-02
1.013562e-09,1.200000e-02
1.017562e-09,1.062500e-02
1.021562e-09,1.073438e-02
1.025562e-09,9.500000e-03
1.029562e-09,1.025000e-02
1.033563e-09,9.718750e-03
1.037563e-09,9.156250e-03
1.041563e-09,8.265625e-03
1.045563e-09,8.312500e-03
1.049563e-09,7.703125e-03
1.053563e-09,7.531250e-03
1.057562e-09,7.812500e-03
1.061562e-09,7.640625e-03
1.065562e-09,7.500000e-03
1.069562e-09,7.093750e-03
1.073562e-09,7.000000e-03
1.077562e-09,7.546875e-03
1.081562e-09,7.359375e-03
1.085562e-09,7.984375e-03
1.089562e-09,8.359375e-03
1.093563e-09,8.609375e-03
1.097563e-09,8.015625e-03
1.101563e-09,8.984375e-03
1.105563e-09,8.531250e-03
1.109563e-09,1.001563e-02
1.113562e-09,1.023438e-02
1.117562e-09,1.042188e-02
1.121562e-09,1.025000e-02
1.125562e-09,1.103125e-02
1.129562e-09,1.107813e-02
1.133562e-09,1.151563e-02
1.137562e-09,1.237500e-02
1.141562e-09,1.276563e-02
1.145562e-09,1.304688e-02
1.149562e-09,1.304688e-02
1.153563e-09,1.329688e-02
1.157563e-09,1.407813e-02
1.161563e-09,1.406250e-02
1.165563e-09,1.485938e-02
1.169563e-09,1.528125e-02
1.173562e-09,1.557813e-02
1.177562e-09,1.484375e-02
1.181562e-09,1.573438e-02
1.185562e-09,1.503125e-02
1.189562e-09,1.625000e-02
1.193562e-09,1.609375e-02
1.197562e-09,1.587500e-02
1.201562e-09,1.523438e-02
1.205562e-09,1.551563e-02
1.209562e-09,1.500000e-02
1.213563e-09,1.484375e-02
1.217563e-09,1.506250e-02
1.221563e-09,1.489063e-02
1.225563e-09,1.445313e-02
1.229563e-09,1.375000e-02
1.233562e-09,1.334375e-02
1.237562e-09,1.340625e-02
1.241562e-09,1.265625e-02
1.245562e-09,1.278125e-02
1.249562e-09,1.254688e-02
1.253562e-09,1.223438e-02
1.257562e-09,1.079688e-02
1.261562e-09,1.110938e-02
1.265562e-09,9.859375e-03
1.269562e-09,1.056250e-02
1.273563e-09,9.921875e-03
1.277563e-09,9.296875e-03
1.281563e-09,8.281250e-03
1.285563e-09,8.250000e-03
1.289563e-09,7.468750e-03
1.293562e-09,7.109375e-03
1.297562e-09,7.171875e-03
1.301562e-09,7.000000e-03
1.305562e-09,6.515625e-03
1.309562e-09,5.859375e-03
1.313562e-09,5.593750e-03
1.317562e-09,5.812500e-03
1.321562e-09,5.265625e-03
1.325562e-09,5.703125e-03
1.329562e-09,5.796875e-03
1.333563e-09,5.906250e-03
1.337563e-09,4.796875e-03
1.341563e-09,5.593750e-03
1.345563e-09,4.843750e-03
1.349563e-09,6.093750e-03
1.353562e-09,6.015625e-03
1.357562e-09,5.937500e-03
1.361562e-09,5.515625e-03
1.365562e-09,6.093750e-03
1.369562e-09,5.921875e-03
1.373562e-09,6.156250e-03
1.377562e-09,6.828125e-03
1.381562e-09,7.250000e-03
1.385562e-09,7.343750e-03
1.389562e-09,7.250000e-03
1.393563e-09,7.531250e-03
1.397563e-09,8.234375e-03
1.401563e-09,8.156250e-03
1.405563e-09,9.031250e-03
1.409563e-09,9.531250e-03
1.413562e-09,1.000000e-02
1.417562e-09,9.140625e-03
1.421562e-09,1.020313e-02
1.425562e-09,9.656250e-03
1.429562e-09,1.107813e-02
1.433562e-09,1.109375e-02
1.437562e-09,1.109375e-02
1.441562e-09,1.065625e-02
1.445562e-09,1.120313e-02
1.449562e-09,1.093750e-02
1.453563e-09,1.103125e-02
1.457563e-09,1.150000e-02
1.461563e-09,1.171875e-02
1.465563e-09,1.153125e-02
1.469563e-09,1.112500e-02
1.473562e-09,1.107813e-02
1.477562e-09,1.140625e-02
1.481562e-09,1.092188e-02
1.485562e-09,1.139063e-02
1.489562e-09,1.143750e-02
1.493562e-09,1.146875e-02
1.497562e-09,1.010938e-02
1.501562e-09,1.070313e-02
1.505562e-09,9.687500e-03
1.509562e-09,1.064063e-02
1.513563e-09,1.018750e-02
1.517563e-09,9.718750e-03
1.521563e-09,8.843750e-03
1.525563e-09,8.968750e-03
1.529563e-09,8.281250e-03
1.533562e-09,8.000000e-03
1.537562e-09,8.125000e-03
1.541562e-09,8.031250e-03
1.545562e-09,7.562500e-03
1.549562e-09,6.890625e-03
1.553562e-09,6.625000e-03
1.557562e-09,6.781250e-03
1.561562e-09,6.140625e-03
1.565562e-09,6.515625e-03
1.569562e-09,6.500000e-03
1.573563e-09,6.500000e-03
1.577563e-09,5.156250e-03
1.581563e-09,5.812500e-03
1.585563e-09,4.875000e-03
1.589563e-09,5.968750e-03
1.593562e-09,5.671875e-03
1.597562e-09,5.406250e-03
1.601562e-09,4.750000e-03
1.605562e-09,5.140625e-03
1.609562e-09,4.734375e-03
1.613562e-09,4.750000e-03
1.617562e-09,5.187500e-03
1.621562e-09,5.453125e-03
1.625562e-09,5.343750e-03
1.629562e-09,5.031250e-03
1.633563e-09,5.156250e-03
1.637563e-09,5.687500e-03
1.641563e-09,5.421875e-03
1.645563e-09,6.187500e-03
1.649563e-09,6.562500e-03
1.653562e-09,6.937500e-03
1.657562e-09,5.921875e-03
1.661562e-09,6.921875e-03
1.665562e-09,6.312500e-03
1.669562e-09,7.734375e-03
1.673562e-09,7.734375e-03
1.677562e-09,7.750000e-03
1.681562e-09,7.343750e-03
1.685562e-09,7.953125e-03
1.689562e-09,7.750000e-03
1.693563e-09,7.937500e-03
1.697563e-09,8.531250e-03
1.701563e-09,8.906250e-03
1.705563e-09,8.875000e-03
1.709563e-09,8.640625e-03
1.713562e-09,8.796875e-03
1.717562e-09,9.328125e-03
1.721562e-09,9.062500e-03
1.725562e-09,9.781250e-03
1.729562e-09,1.009375e-02
1.733562e-09,1.037500e-02
1.737562e-09,9.250000e-03
1.741562e-09,1.012500e-02
1.745562e-09,9.359375e-03
1.749562e-09,1.060938e-02
1.753563e-09,1.043750e-02
1.757563e-09,1.025000e-02
