Measurements-streak-laser-independent/Photodiode-on-Tek-12bit-4GHz/Tek000_ch1_20190613133024540.csv

Model,MSO64
Waveform Type,ANALOG
Horizontal Units,s
Sample Interval,4.000000e-12
Record Length,1000
Zero Index,310.156250
Vertical Units,V

TIME,CH1
-1.240625e-09,3.234375e-03
-1.236625e-09,2.390625e-03
-1.232625e-09,3.593750e-03
-1.228625e-09,3.375000e-03
-1.224625e-09,3.171875e-03
-1.220625e-09,2.578125e-03
-1.216625e-09,3.015625e-03
-1.212625e-09,2.625000e-03
-1.208625e-09,2.671875e-03
-1.204625e-09,3.125000e-03
-1.200625e-09,3.375000e-03
-1.196625e-09,3.234375e-03
-1.192625e-09,2.890625e-03
-1.188625e-09,2.968750e-03
-1.184625e-09,3.453125e-03
-1.180625e-09,3.125000e-03
-1.176625e-09,3.812500e-03
-1.172625e-09,4.109375e-03
-1.168625e-09,4.390625e-03
-1.164625e-09,3.281250e-03
-1.160625e-09,4.171875e-03
-1.156625e-09,3.453125e-03
-1.152625e-09,4.750000e-03
-1.148625e-09,4.640625e-03
-1.144625e-09,4.531250e-03
-1.140625e-09,4.000000e-03
-1.136625e-09,4.484375e-03
-1.132625e-09,4.156250e-03
-1.128625e-09,4.234375e-03
-1.124625e-09,4.703125e-03
-1.120625e-09,4.968750e-03
-1.116625e-09,4.828125e-03
-1.112625e-09,4.484375e-03
-1.108625e-09,4.531250e-03
-1.104625e-09,4.984375e-03
-1.100625e-09,4.625000e-03
-1.096625e-09,5.265625e-03
-1.092625e-09,5.515625e-03
-1.088625e-09,5.750000e-03
-1.084625e-09,4.562500e-03
-1.080625e-09,5.406250e-03
-1.076625e-09,4.625000e-03
-1.072625e-09,5.875000e-03
-1.068625e-09,5.687500e-03
-1.064625e-09,5.515625e-03
-1.060625e-09,4.953125e-03
-1.056625e-09,5.390625e-03
-1.052625e-09,5.015625e-03
-1.048625e-09,5.062500e-03
-1.044625e-09,5.515625e-03
-1.040625e-09,5.765625e-03
-1.036625e-09,5.625000e-03
-1.032625e-09,5.281250e-03
-1.028625e-09,5.359375e-03
-1.024625e-09,5.843750e-03
-1.020625e-09,5.531250e-03
-1.016625e-09,6.218750e-03
-1.012625e-09,6.531250e-03
-1.008625e-09,6.843750e-03
-1.004625e-09,5.750000e-03
-1.000625e-09,6.687500e-03
-9.966250e-10,6.000000e-03
-9.926250e-10,7.359375e-03
-9.886250e-10,7.296875e-03
-9.846250e-10,7.250000e-03
-9.806250e-10,6.812500e-03
-9.766250e-10,7.375000e-03
-9.726250e-10,7.125000e-03
-9.686250e-10,7.296875e-03
-9.646250e-10,7.875000e-03
-9.606250e-10,8.250000e-03
-9.566250e-10,8.218750e-03
-9.526250e-10,7.984375e-03
-9.486250e-10,8.156250e-03
-9.446250e-10,8.718750e-03
-9.406250e-10,8.468750e-03
-9.366250e-10,9.234375e-03
-9.326250e-10,9.578125e-03
-9.286250e-10,9.906250e-03
-9.246250e-10,8.812500e-03
-9.206250e-10,9.734375e-03
-9.166250e-10,9.031250e-03
-9.126250e-10,1.028125e-02
-9.086250e-10,1.014063e-02
-9.046250e-10,1.000000e-02
-9.006250e-10,9.421875e-03
-8.966250e-10,9.843750e-03
-8.926250e-10,9.437500e-03
-8.886250e-10,9.421875e-03
-8.846250e-10,9.781250e-03
-8.806250e-10,9.937500e-03
-8.766250e-10,9.656250e-03
-8.726250e-10,9.156250e-03
-8.686250e-10,9.046875e-03
-8.646250e-10,9.312500e-03
-8.606250e-10,8.765625e-03
-8.566250e-10,9.218750e-03
-8.526250e-10,9.234375e-03
-8.486250e-10,9.234375e-03
-8.446250e-10,7.859375e-03
-8.406250e-10,8.437500e-03
-8.366250e-10,7.406250e-03
-8.326250e-10,8.265625e-03
-8.286250e-10,7.859375e-03
-8.246250e-10,7.390625e-03
-8.206250e-10,6.562500e-03
-8.166250e-10,6.703125e-03
-8.126250e-10,6.031250e-03
-8.086250e-10,5.812500e-03
-8.046250e-10,5.953125e-03
-8.006250e-10,5.890625e-03
-7.966250e-10,5.484375e-03
-7.926250e-10,4.812500e-03
-7.886250e-10,4.578125e-03
-7.846250e-10,4.750000e-03
-7.806250e-10,4.140625e-03
-7.766250e-10,4.531250e-03
-7.726250e-10,4.546875e-03
-7.686250e-10,4.578125e-03
-7.646250e-10,3.265625e-03
-7.606250e-10,3.937500e-03
-7.566250e-10,3.015625e-03
-7.526250e-10,3.921875e-03
-7.486250e-10,3.718750e-03
-7.446250e-10,3.437500e-03
-7.406250e-10,2.843750e-03
-7.366250e-10,3.187500e-03
-7.326250e-10,2.718750e-03
-7.286250e-10,2.796875e-03
-7.246250e-10,3.187500e-03
-7.206250e-10,3.375000e-03
-7.166250e-10,3.328125e-03
-7.126250e-10,2.953125e-03
-7.086250e-10,2.984375e-03
-7.046250e-10,3.437500e-03
-7.006250e-10,3.125000e-03
-6.966250e-10,3.781250e-03
-6.926250e-10,4.093750e-03
-6.886250e-10,4.359375e-03
-6.846250e-10,3.296875e-03
-6.806250e-10,4.218750e-03
-6.766250e-10,3.562500e-03
-6.726250e-10,4.640625e-03
-6.686250e-10,4.625000e-03
-6.646250e-10,4.562500e-03
-6.606250e-10,4.109375e-03
-6.566250e-10,4.531250e-03
-6.526250e-10,4.125000e-03
-6.486250e-10,4.296875e-03
-6.446250e-10,4.734375e-03
-6.406250e-10,4.890625e-03
-6.366250e-10,4.937500e-03
-6.326250e-10,4.515625e-03
-6.286250e-10,4.484375e-03
-6.246250e-10,4.843750e-03
-6.206250e-10,4.484375e-03
-6.166250e-10,5.015625e-03
-6.126250e-10,5.187500e-03
-6.086250e-10,5.296875e-03
-6.046250e-10,4.015625e-03
-6.006250e-10,4.781250e-03
-5.966250e-10,4.015625e-03
-5.926250e-10,4.890625e-03
-5.886250e-10,4.718750e-03
-5.846250e-10,4.453125e-03
-5.806250e-10,3.812500e-03
-5.766250e-10,4.015625e-03
-5.726250e-10,3.421875e-03
-5.686250e-10,3.421875e-03
-5.646250e-10,3.703125e-03
-5.606250e-10,3.671875e-03
-5.566250e-10,3.578125e-03
-5.526250e-10,3.031250e-03
-5.486250e-10,2.906250e-03
-5.446250e-10,3.187500e-03
-5.406250e-10,2.765625e-03
-5.366250e-10,3.265625e-03
-5.326250e-10,3.375000e-03
-5.286250e-10,3.468750e-03
-5.246250e-10,2.187500e-03
-5.206250e-10,2.937500e-03
-5.166250e-10,2.281250e-03
-5.126250e-10,3.234375e-03
-5.086250e-10,3.203125e-03
-5.046250e-10,3.015625e-03
-5.006250e-10,2.500000e-03
-4.966250e-10,2.843750e-03
-4.926250e-10,2.437500e-03
-4.886250e-10,2.562500e-03
-4.846250e-10,3.062500e-03
-4.806250e-10,3.203125e-03
-4.766250e-10,3.234375e-03
-4.726250e-10,2.906250e-03
-4.686250e-10,3.031250e-03
-4.646250e-10,3.546875e-03
-4.606250e-10,3.265625e-03
-4.566250e-10,4.015625e-03
-4.526250e-10,4.265625e-03
-4.486250e-10,4.531250e-03
-4.446250e-10,3.437500e-03
-4.406250e-10,4.265625e-03
-4.366250e-10,3.750000e-03
-4.326250e-10,4.828125e-03
-4.286250e-10,4.921875e-03
-4.246250e-10,4.750000e-03
-4.206250e-10,4.281250e-03
-4.166250e-10,4.687500e-03
-4.126250e-10,4.375000e-03
-4.086250e-10,4.390625e-03
-4.046250e-10,4.875000e-03
-4.006250e-10,4.984375e-03
-3.966250e-10,4.859375e-03
-3.926250e-10,4.468750e-03
-3.886250e-10,4.531250e-03
-3.846250e-10,4.953125e-03
-3.806250e-10,4.484375e-03
-3.766250e-10,5.093750e-03
-3.726250e-10,5.234375e-03
-3.686250e-10,5.328125e-03
-3.646250e-10,4.093750e-03
-3.606250e-10,4.687500e-03
-3.566250e-10,4.015625e-03
-3.526250e-10,4.937500e-03
-3.486250e-10,4.875000e-03
-3.446250e-10,4.546875e-03
-3.406250e-10,3.968750e-03
-3.366250e-10,4.265625e-03
-3.326250e-10,3.906250e-03
-3.286250e-10,3.781250e-03
-3.246250e-10,4.203125e-03
-3.206250e-10,4.281250e-03
-3.166250e-10,4.093750e-03
-3.126250e-10,3.765625e-03
-3.086250e-10,3.890625e-03
-3.046250e-10,4.390625e-03
-3.006250e-10,4.015625e-03
-2.966250e-10,4.703125e-03
-2.926250e-10,5.078125e-03
-2.886250e-10,5.343750e-03
-2.846250e-10,4.375000e-03
-2.806250e-10,5.187500e-03
-2.766250e-10,4.734375e-03
-2.726250e-10,5.984375e-03
-2.686250e-10,6.156250e-03
-2.646250e-10,6.171875e-03
-2.606250e-10,5.984375e-03
-2.566250e-10,6.625000e-03
-2.526250e-10,6.625000e-03
-2.486250e-10,6.843750e-03
-2.446250e-10,7.562500e-03
-2.406250e-10,8.000000e-03
-2.366250e-10,8.093750e-03
-2.326250e-10,8.140625e-03
-2.286250e-10,8.515625e-03
-2.246250e-10,9.265625e-03
-2.206250e-10,9.171875e-03
-2.166250e-10,1.003125e-02
-2.126250e-10,1.057813e-02
-2.086250e-10,1.098438e-02
-2.046250e-10,1.015625e-02
-2.006250e-10,1.100000e-02
-1.966250e-10,1.048438e-02
-1.926250e-10,1.173438e-02
-1.886250e-10,1.175000e-02
-1.846250e-10,1.164063e-02
-1.806250e-10,1.128125e-02
-1.766250e-10,1.168750e-02
-1.726250e-10,1.134375e-02
-1.686250e-10,1.126563e-02
-1.646250e-10,1.156250e-02
-1.606250e-10,1.157813e-02
-1.566250e-10,1.120313e-02
-1.526250e-10,1.078125e-02
-1.486250e-10,1.059375e-02
-1.446250e-10,1.073438e-02
-1.406250e-10,1.009375e-02
-1.366250e-10,1.040625e-02
-1.326250e-10,1.034375e-02
-1.286250e-10,1.021875e-02
-1.246250e-10,8.890625e-03
-1.206250e-10,9.250000e-03
-1.166250e-10,8.203125e-03
-1.126250e-10,9.078125e-03
-1.086250e-10,8.671875e-03
-1.046250e-10,8.281250e-03
-1.006250e-10,7.703125e-03
-9.662500e-11,8.000000e-03
-9.262500e-11,7.625000e-03
-8.862500e-11,7.671875e-03
-8.462500e-11,8.140625e-03
-8.062500e-11,8.531250e-03
-7.662500e-11,8.609375e-03
-7.262500e-11,8.828125e-03
-6.862500e-11,9.390625e-03
-6.462500e-11,1.039063e-02
-6.062500e-11,1.085938e-02
-5.662500e-11,1.245313e-02
-5.262500e-11,1.381250e-02
-4.862500e-11,1.540625e-02
-4.462500e-11,1.593750e-02
-4.062500e-11,1.831250e-02
-3.662500e-11,1.943750e-02
-3.262500e-11,2.273438e-02
-2.862500e-11,2.481250e-02
-2.462500e-11,2.721875e-02
-2.062500e-11,2.957813e-02
-1.662500e-11,3.296875e-02
-1.262500e-11,3.585938e-02
-8.625000e-12,3.932813e-02
-4.625000e-12,4.337500e-02
-6.250000e-13,4.753125e-02
3.375000e-12,5.140625e-02
7.375000e-12,5.556250e-02
1.137500e-11,6.015625e-02
1.537500e-11,6.521875e-02
1.937500e-11,6.989063e-02
2.337500e-11,7.571875e-02
2.737500e-11,8.132813e-02
3.137500e-11,8.726563e-02
3.537500e-11,9.209375e-02
3.937500e-11,9.871875e-02
4.337500e-11,1.040469e-01
4.737500e-11,1.115000e-01
5.137500e-11,1.176094e-01
5.537500e-11,1.240469e-01
5.937500e-11,1.302188e-01
6.337500e-11,1.372813e-01
6.737500e-11,1.437344e-01
7.137500e-11,1.505469e-01
7.537500e-11,1.577813e-01
7.937500e-11,1.649844e-01
8.337500e-11,1.715313e-01
8.737500e-11,1.781719e-01
9.137500e-11,1.850000e-01
9.537500e-11,1.919844e-01
9.937500e-11,1.983906e-01
1.033750e-10,2.055938e-01
1.073750e-10,2.122344e-01
1.113750e-10,2.189688e-01
1.153750e-10,2.242031e-01
1.193750e-10,2.309844e-01
1.233750e-10,2.361094e-01
1.273750e-10,2.429844e-01
1.313750e-10,2.481719e-01
1.353750e-10,2.534375e-01
1.393750e-10,2.580313e-01
1.433750e-10,2.631563e-01
1.473750e-10,2.674531e-01
1.513750e-10,2.717500e-01
1.553750e-10,2.761719e-01
1.593750e-10,2.803281e-01
1.633750e-10,2.834219e-01
1.673750e-10,2.863438e-01
1.713750e-10,2.892344e-01
1.753750e-10,2.920781e-01
1.793750e-10,2.941094e-01
1.833750e-10,2.966563e-01
1.873750e-10,2.984063e-01
1.913750e-10,3.001406e-01
1.953750e-10,3.001563e-01
1.993750e-10,3.016563e-01
2.033750e-10,3.013438e-01
2.073750e-10,3.026250e-01
2.113750e-10,3.021406e-01
2.153750e-10,3.016719e-01
2.193750e-10,3.004688e-01
2.233750e-10,2.997813e-01
2.273750e-10,2.982969e-01
2.313750e-10,2.968281e-01
2.353750e-10,2.954219e-01
2.393750e-10,2.938594e-01
2.433750e-10,2.912656e-01
2.473750e-10,2.885469e-01
2.513750e-10,2.859688e-01
2.553750e-10,2.834219e-01
2.593750e-10,2.801562e-01
2.633750e-10,2.775313e-01
2.673750e-10,2.742500e-01
2.713750e-10,2.711563e-01
2.753750e-10,2.664375e-01
2.793750e-10,2.634688e-01
2.833750e-10,2.588906e-01
2.873750e-10,2.559844e-01
2.913750e-10,2.515625e-01
2.953750e-10,2.473281e-01
2.993750e-10,2.425625e-01
3.033750e-10,2.385938e-01
3.073750e-10,2.340313e-01
3.113750e-10,2.296719e-01
3.153750e-10,2.255313e-01
3.193750e-10,2.214688e-01
3.233750e-10,2.166406e-01
3.273750e-10,2.118281e-01
3.313750e-10,2.073750e-01
3.353750e-10,2.032031e-01
3.393750e-10,1.984219e-01
3.433750e-10,1.944688e-01
3.473750e-10,1.901250e-01
3.513750e-10,1.860938e-01
3.553750e-10,1.805625e-01
3.593750e-10,1.770313e-01
3.633750e-10,1.720781e-01
3.673750e-10,1.688438e-01
3.713750e-10,1.642969e-01
3.753750e-10,1.600625e-01
3.793750e-10,1.553906e-01
3.833750e-10,1.517031e-01
3.873750e-10,1.475469e-01
3.913750e-10,1.436563e-01
3.953750e-10,1.400781e-01
3.993750e-10,1.366406e-01
4.033750e-10,1.326406e-01
4.073750e-10,1.286875e-01
4.113750e-10,1.251250e-01
4.153750e-10,1.219688e-01
4.193750e-10,1.182031e-01
4.233750e-10,1.153281e-01
4.273750e-10,1.121875e-01
4.313750e-10,1.093125e-01
4.353750e-10,1.050313e-01
4.393750e-10,1.028281e-01
4.433750e-10,9.920313e-02
4.473750e-10,9.731250e-02
4.513750e-10,9.421875e-02
4.553750e-10,9.135938e-02
4.593750e-10,8.812500e-02
4.633750e-10,8.589063e-02
4.673750e-10,8.317188e-02
4.713750e-10,8.076563e-02
4.753750e-10,7.864063e-02
4.793750e-10,7.665625e-02
4.833750e-10,7.421875e-02
4.873750e-10,7.176563e-02
4.913750e-10,6.968750e-02
4.953750e-10,6.806250e-02
4.993750e-10,6.578125e-02
5.033750e-10,6.434375e-02
5.073750e-10,6.268750e-02
5.113750e-10,6.123438e-02
5.153750e-10,5.842188e-02
5.193750e-10,5.762500e-02
5.233750e-10,5.542188e-02
5.273750e-10,5.492188e-02
5.313750e-10,5.326563e-02
5.353750e-10,5.168750e-02
5.393750e-10,4.981250e-02
5.433750e-10,4.887500e-02
5.473750e-10,4.734375e-02
5.513750e-10,4.615625e-02
5.553750e-10,4.521875e-02
5.593750e-10,4.435938e-02
5.633750e-10,4.309375e-02
5.673750e-10,4.171875e-02
5.713750e-10,4.071875e-02
5.753750e-10,4.006250e-02
5.793750e-10,3.871875e-02
5.833750e-10,3.818750e-02
5.873750e-10,3.742188e-02
5.913750e-10,3.671875e-02
5.953750e-10,3.471875e-02
5.993750e-10,3.459375e-02
6.033750e-10,3.309375e-02
6.073750e-10,3.326563e-02
6.113750e-10,3.223438e-02
6.153750e-10,3.114063e-02
6.193750e-10,2.976563e-02
6.233750e-10,2.932813e-02
6.273750e-10,2.814063e-02
6.313750e-10,2.728125e-02
6.353750e-10,2.670313e-02
6.393750e-10,2.615625e-02
6.433750e-10,2.520313e-02
6.473750e-10,2.401563e-02
6.513750e-10,2.329688e-02
6.553750e-10,2.278125e-02
6.593750e-10,2.160938e-02
6.633750e-10,2.125000e-02
6.673750e-10,2.068750e-02
6.713750e-10,2.003125e-02
6.753750e-10,1.817188e-02
6.793750e-10,1.810938e-02
6.833750e-10,1.676563e-02
6.873750e-10,1.707813e-02
6.913750e-10,1.618750e-02
6.953750e-10,1.523438e-02
6.993750e-10,1.395313e-02
7.033750e-10,1.375000e-02
7.073750e-10,1.267188e-02
7.113750e-10,1.196875e-02
7.153750e-10,1.165625e-02
7.193750e-10,1.135938e-02
7.233750e-10,1.070313e-02
7.273750e-10,9.765625e-03
7.313750e-10,9.406250e-03
7.353750e-10,9.234375e-03
7.393750e-10,8.468750e-03
7.433750e-10,8.562500e-03
7.473750e-10,8.500000e-03
7.513750e-10,8.250000e-03
7.553750e-10,6.953125e-03
7.593750e-10,7.375000e-03
7.633750e-10,6.593750e-03
7.673750e-10,7.562500e-03
7.713750e-10,7.296875e-03
7.753750e-10,7.031250e-03
7.793750e-10,6.375000e-03
7.833750e-10,6.843750e-03
7.873750e-10,6.437500e-03
7.913750e-10,6.421875e-03
7.953750e-10,6.875000e-03
7.993750e-10,7.234375e-03
8.033750e-10,7.312500e-03
8.073750e-10,7.062500e-03
8.113750e-10,7.359375e-03
8.153750e-10,7.921875e-03
8.193750e-10,7.843750e-03
8.233750e-10,8.625000e-03
8.273750e-10,9.187500e-03
8.313750e-10,9.515625e-03
8.353750e-10,8.828125e-03
8.393750e-10,9.765625e-03
8.433750e-10,9.421875e-03
8.473750e-10,1.092188e-02
8.513750e-10,1.110938e-02
8.553750e-10,1.126563e-02
8.593750e-10,1.096875e-02
8.633750e-10,1.167188e-02
8.673750e-10,1.154688e-02
8.713750e-10,1.178125e-02
8.753750e-10,1.243750e-02
8.793750e-10,1.279688e-02
8.833750e-10,1.295313e-02
8.873750e-10,1.273438e-02
8.913750e-10,1.292188e-02
8.953750e-10,1.348438e-02
8.993750e-10,1.329688e-02
9.033750e-10,1.395313e-02
9.073750e-10,1.425000e-02
9.113750e-10,1.434375e-02
9.153750e-10,1.339063e-02
9.193750e-10,1.400000e-02
9.233750e-10,1.325000e-02
9.273750e-10,1.443750e-02
9.313750e-10,1.423438e-02
9.353750e-10,1.395313e-02
9.393750e-10,1.325000e-02
9.433750e-10,1.346875e-02
9.473750e-10,1.292188e-02
9.513750e-10,1.275000e-02
9.553750e-10,1.298438e-02
9.593750e-10,1.278125e-02
9.633750e-10,1.250000e-02
9.673750e-10,1.185938e-02
9.713750e-10,1.156250e-02
9.753750e-10,1.176563e-02
9.793750e-10,1.120313e-02
9.833750e-10,1.146875e-02
9.873750e-10,1.139063e-02
9.913750e-10,1.117188e-02
9.953750e-10,9.968750e-03
9.993750e-10,1.035938e-02
1.003375e-09,9.343750e-03
1.007375e-09,1.031250e-02
1.011375e-09,9.937500e-03
1.015375e-09,9.531250e-03
1.019375e-09,8.750000e-03
1.023375e-09,8.921875e-03
1.027375e-09,8.375000e-03
1.031375e-09,8.250000e-03
1.035375e-09,8.546875e-03
1.039375e-09,8.421875e-03
1.043375e-09,8.218750e-03
1.047375e-09,7.750000e-03
1.051375e-09,7.593750e-03
1.055375e-09,8.000000e-03
1.059375e-09,7.656250e-03
1.063375e-09,8.156250e-03
1.067375e-09,8.343750e-03
1.071375e-09,8.437500e-03
1.075375e-09,7.546875e-03
1.079375e-09,8.296875e-03
1.083375e-09,7.578125e-03
1.087375e-09,8.828125e-03
1.091375e-09,8.765625e-03
1.095375e-09,8.671875e-03
1.099375e-09,8.218750e-03
1.103375e-09,8.718750e-03
1.107375e-09,8.484375e-03
1.111375e-09,8.640625e-03
1.115375e-09,9.218750e-03
1.119375e-09,9.390625e-03
1.123375e-09,9.406250e-03
1.127375e-09,9.171875e-03
1.131375e-09,9.218750e-03
1.135375e-09,9.812500e-03
1.139375e-09,9.593750e-03
1.143375e-09,1.025000e-02
1.147375e-09,1.056250e-02
1.151375e-09,1.076563e-02
1.155375e-09,9.906250e-03
1.159375e-09,1.073438e-02
1.163375e-09,1.001563e-02
1.167375e-09,1.123438e-02
1.171375e-09,1.110938e-02
1.175375e-09,1.095313e-02
1.179375e-09,1.039063e-02
1.183375e-09,1.079688e-02
1.187375e-09,1.040625e-02
1.191375e-09,1.040625e-02
1.195375e-09,1.081250e-02
1.199375e-09,1.085938e-02
1.203375e-09,1.064063e-02
1.207375e-09,1.018750e-02
1.211375e-09,1.003125e-02
1.215375e-09,1.037500e-02
1.219375e-09,9.906250e-03
1.223375e-09,1.032813e-02
1.227375e-09,1.040625e-02
1.231375e-09,1.040625e-02
1.235375e-09,9.234375e-03
1.239375e-09,9.859375e-03
1.243375e-09,8.906250e-03
1.247375e-09,9.921875e-03
1.251375e-09,9.562500e-03
1.255375e-09,9.203125e-03
1.259375e-09,8.453125e-03
1.263375e-09,8.687500e-03
1.267375e-09,8.125000e-03
1.271375e-09,7.984375e-03
1.275375e-09,8.250000e-03
1.279375e-09,8.234375e-03
1.283375e-09,7.906250e-03
1.287375e-09,7.390625e-03
1.291375e-09,7.218750e-03
1.295375e-09,7.515625e-03
1.299375e-09,7.015625e-03
1.303375e-09,7.484375e-03
1.307375e-09,7.593750e-03
1.311375e-09,7.671875e-03
1.315375e-09,6.500000e-03
1.319375e-09,7.234375e-03
1.323375e-09,6.390625e-03
1.327375e-09,7.531250e-03
1.331375e-09,7.312500e-03
1.335375e-09,7.093750e-03
1.339375e-09,6.500000e-03
1.343375e-09,6.906250e-03
1.347375e-09,6.531250e-03
1.351375e-09,6.578125e-03
1.355375e-09,7.031250e-03
1.359375e-09,7.250000e-03
1.363375e-09,7.125000e-03
1.367375e-09,6.796875e-03
1.371375e-09,6.859375e-03
1.375375e-09,7.359375e-03
1.379375e-09,7.062500e-03
1.383375e-09,7.750000e-03
1.387375e-09,8.062500e-03
1.391375e-09,8.359375e-03
1.395375e-09,7.328125e-03
1.399375e-09,8.234375e-03
1.403375e-09,7.562500e-03
1.407375e-09,8.875000e-03
1.411375e-09,8.796875e-03
1.415375e-09,8.718750e-03
1.419375e-09,8.250000e-03
1.423375e-09,8.765625e-03
1.427375e-09,8.484375e-03
1.431375e-09,8.609375e-03
1.435375e-09,9.125000e-03
1.439375e-09,9.406250e-03
1.443375e-09,9.312500e-03
1.447375e-09,9.015625e-03
1.451375e-09,9.093750e-03
1.455375e-09,9.578125e-03
1.459375e-09,9.265625e-03
1.463375e-09,9.921875e-03
1.467375e-09,1.018750e-02
1.471375e-09,1.043750e-02
1.475375e-09,9.296875e-03
1.479375e-09,1.014063e-02
1.483375e-09,9.359375e-03
1.487375e-09,1.057813e-02
1.491375e-09,1.039063e-02
1.495375e-09,1.020313e-02
1.499375e-09,9.578125e-03
1.503375e-09,9.968750e-03
1.507375e-09,9.546875e-03
1.511375e-09,9.515625e-03
1.515375e-09,9.890625e-03
1.519375e-09,1.004688e-02
1.523375e-09,9.781250e-03
1.527375e-09,9.328125e-03
1.531375e-09,9.265625e-03
1.535375e-09,9.593750e-03
1.539375e-09,9.125000e-03
1.543375e-09,9.640625e-03
1.547375e-09,9.750000e-03
1.551375e-09,9.859375e-03
1.555375e-09,8.578125e-03
1.559375e-09,9.296875e-03
1.563375e-09,8.406250e-03
1.567375e-09,9.500000e-03
1.571375e-09,9.203125e-03
1.575375e-09,8.906250e-03
1.579375e-09,8.218750e-03
1.583375e-09,8.531250e-03
1.587375e-09,8.031250e-03
1.591375e-09,7.937500e-03
1.595375e-09,8.250000e-03
1.599375e-09,8.375000e-03
1.603375e-09,8.093750e-03
1.607375e-09,7.609375e-03
1.611375e-09,7.531250e-03
1.615375e-09,7.875000e-03
1.619375e-09,7.406250e-03
1.623375e-09,7.953125e-03
1.627375e-09,8.109375e-03
1.631375e-09,8.265625e-03
1.635375e-09,7.015625e-03
1.639375e-09,7.781250e-03
1.643375e-09,6.953125e-03
1.647375e-09,8.156250e-03
1.651375e-09,7.937500e-03
1.655375e-09,7.734375e-03
1.659375e-09,7.125000e-03
1.663375e-09,7.531250e-03
1.667375e-09,7.140625e-03
1.671375e-09,7.171875e-03
1.675375e-09,7.593750e-03
1.679375e-09,7.828125e-03
1.683375e-09,7.656250e-03
1.687375e-09,7.296875e-03
1.691375e-09,7.343750e-03
1.695375e-09,7.796875e-03
1.699375e-09,7.453125e-03
1.703375e-09,8.109375e-03
1.707375e-09,8.375000e-03
1.711375e-09,8.640625e-03
1.715375e-09,7.500000e-03
1.719375e-09,8.375000e-03
1.723375e-09,7.640625e-03
1.727375e-09,8.921875e-03
1.731375e-09,8.781250e-03
1.735375e-09,8.656250e-03
1.739375e-09,8.109375e-03
1.743375e-09,8.578125e-03
1.747375e-09,8.234375e-03
1.751375e-09,8.296875e-03
1.755375e-09,8.750000e-03
1.759375e-09,9.000000e-03
