Measurements-streak-laser-independent/Photodiode-on-Tek-12bit-4GHz/Tek000_ch1_20190613132947435.csv

Model,MSO64
Waveform Type,ANALOG
Horizontal Units,s
Sample Interval,4.000000e-12
Record Length,1000
Zero Index,310.734375
Vertical Units,V

TIME,CH1
-1.242937e-09,5.156250e-03
-1.238937e-09,5.140625e-03
-1.234937e-09,5.531250e-03
-1.230937e-09,5.125000e-03
-1.226937e-09,5.750000e-03
-1.222937e-09,5.984375e-03
-1.218937e-09,6.234375e-03
-1.214937e-09,5.062500e-03
-1.210937e-09,5.937500e-03
-1.206938e-09,5.203125e-03
-1.202938e-09,6.500000e-03
-1.198938e-09,6.390625e-03
-1.194938e-09,6.281250e-03
-1.190938e-09,5.781250e-03
-1.186938e-09,6.296875e-03
-1.182937e-09,6.000000e-03
-1.178937e-09,6.125000e-03
-1.174937e-09,6.640625e-03
-1.170937e-09,6.953125e-03
-1.166937e-09,6.875000e-03
-1.162937e-09,6.578125e-03
-1.158937e-09,6.671875e-03
-1.154937e-09,7.187500e-03
-1.150937e-09,6.875000e-03
-1.146938e-09,7.562500e-03
-1.142938e-09,7.843750e-03
-1.138938e-09,8.093750e-03
-1.134938e-09,6.937500e-03
-1.130938e-09,7.781250e-03
-1.126938e-09,7.000000e-03
-1.122937e-09,8.218750e-03
-1.118937e-09,8.015625e-03
-1.114937e-09,7.796875e-03
-1.110937e-09,7.156250e-03
-1.106937e-09,7.500000e-03
-1.102937e-09,7.046875e-03
-1.098937e-09,6.968750e-03
-1.094937e-09,7.281250e-03
-1.090937e-09,7.359375e-03
-1.086938e-09,7.031250e-03
-1.082938e-09,6.484375e-03
-1.078938e-09,6.343750e-03
-1.074938e-09,6.578125e-03
-1.070938e-09,6.000000e-03
-1.066938e-09,6.421875e-03
-1.062937e-09,6.421875e-03
-1.058937e-09,6.421875e-03
-1.054937e-09,5.000000e-03
-1.050937e-09,5.593750e-03
-1.046937e-09,4.562500e-03
-1.042937e-09,5.546875e-03
-1.038937e-09,5.125000e-03
-1.034937e-09,4.687500e-03
-1.030937e-09,3.859375e-03
-1.026938e-09,4.031250e-03
-1.022938e-09,3.406250e-03
-1.018938e-09,3.203125e-03
-1.014938e-09,3.390625e-03
-1.010938e-09,3.390625e-03
-1.006938e-09,2.984375e-03
-1.002937e-09,2.390625e-03
-9.989375e-10,2.218750e-03
-9.949375e-10,2.453125e-03
-9.909375e-10,1.890625e-03
-9.869375e-10,2.359375e-03
-9.829375e-10,2.437500e-03
-9.789375e-10,2.515625e-03
-9.749375e-10,1.187500e-03
-9.709375e-10,1.906250e-03
-9.669375e-10,1.031250e-03
-9.629375e-10,2.156250e-03
-9.589375e-10,1.906250e-03
-9.549375e-10,1.671875e-03
-9.509375e-10,1.031250e-03
-9.469375e-10,1.437500e-03
-9.429375e-10,1.031250e-03
-9.389375e-10,1.046875e-03
-9.349375e-10,1.468750e-03
-9.309375e-10,1.703125e-03
-9.269375e-10,1.546875e-03
-9.229375e-10,1.187500e-03
-9.189375e-10,1.250000e-03
-9.149375e-10,1.734375e-03
-9.109375e-10,1.390625e-03
-9.069375e-10,2.078125e-03
-9.029375e-10,2.359375e-03
-8.989375e-10,2.656250e-03
-8.949375e-10,1.546875e-03
-8.909375e-10,2.437500e-03
-8.869375e-10,1.734375e-03
-8.829375e-10,2.953125e-03
-8.789375e-10,2.859375e-03
-8.749375e-10,2.734375e-03
-8.709375e-10,2.234375e-03
-8.669375e-10,2.734375e-03
-8.629375e-10,2.406250e-03
-8.589375e-10,2.500000e-03
-8.549375e-10,2.984375e-03
-8.509375e-10,3.265625e-03
-8.469375e-10,3.140625e-03
-8.429375e-10,2.812500e-03
-8.389375e-10,2.875000e-03
-8.349375e-10,3.343750e-03
-8.309375e-10,2.984375e-03
-8.269375e-10,3.640625e-03
-8.229375e-10,3.890625e-03
-8.189375e-10,4.140625e-03
-8.149375e-10,3.031250e-03
-8.109375e-10,3.890625e-03
-8.069375e-10,3.125000e-03
-8.029375e-10,4.187500e-03
-7.989375e-10,4.093750e-03
-7.949375e-10,3.921875e-03
-7.909375e-10,3.421875e-03
-7.869375e-10,3.843750e-03
-7.829375e-10,3.468750e-03
-7.789375e-10,3.578125e-03
-7.749375e-10,4.000000e-03
-7.709375e-10,4.234375e-03
-7.669375e-10,4.171875e-03
-7.629375e-10,3.796875e-03
-7.589375e-10,3.843750e-03
-7.549375e-10,4.281250e-03
-7.509375e-10,3.937500e-03
-7.469375e-10,4.609375e-03
-7.429375e-10,4.875000e-03
-7.389375e-10,5.140625e-03
-7.349375e-10,4.093750e-03
-7.309375e-10,4.984375e-03
-7.269375e-10,4.265625e-03
-7.229375e-10,5.281250e-03
-7.189375e-10,5.281250e-03
-7.149375e-10,5.187500e-03
-7.109375e-10,4.781250e-03
-7.069375e-10,5.203125e-03
-7.029375e-10,4.828125e-03
-6.989375e-10,5.031250e-03
-6.949375e-10,5.484375e-03
-6.909375e-10,5.703125e-03
-6.869375e-10,5.796875e-03
-6.829375e-10,5.421875e-03
-6.789375e-10,5.453125e-03
-6.749375e-10,5.875000e-03
-6.709375e-10,5.562500e-03
-6.669375e-10,6.187500e-03
-6.629375e-10,6.468750e-03
-6.589375e-10,6.671875e-03
-6.549375e-10,5.546875e-03
-6.509375e-10,6.406250e-03
-6.469375e-10,5.718750e-03
-6.429375e-10,6.625000e-03
-6.389375e-10,6.562500e-03
-6.349375e-10,6.421875e-03
-6.309375e-10,5.937500e-03
-6.269375e-10,6.218750e-03
-6.229375e-10,5.687500e-03
-6.189375e-10,5.843750e-03
-6.149375e-10,6.171875e-03
-6.109375e-10,6.218750e-03
-6.069375e-10,6.296875e-03
-6.029375e-10,5.796875e-03
-5.989375e-10,5.703125e-03
-5.949375e-10,6.000000e-03
-5.909375e-10,5.656250e-03
-5.869375e-10,6.171875e-03
-5.829375e-10,6.343750e-03
-5.789375e-10,6.437500e-03
-5.749375e-10,5.187500e-03
-5.709375e-10,5.984375e-03
-5.669375e-10,5.359375e-03
-5.629375e-10,6.187500e-03
-5.589375e-10,6.171875e-03
-5.549375e-10,6.015625e-03
-5.509375e-10,5.531250e-03
-5.469375e-10,5.828125e-03
-5.429375e-10,5.343750e-03
-5.389375e-10,5.531250e-03
-5.349375e-10,5.984375e-03
-5.309375e-10,6.078125e-03
-5.269375e-10,6.265625e-03
-5.229375e-10,5.906250e-03
-5.189375e-10,5.968750e-03
-5.149375e-10,6.453125e-03
-5.109375e-10,6.265625e-03
-5.069375e-10,7.000000e-03
-5.029375e-10,7.296875e-03
-4.989375e-10,7.578125e-03
-4.949375e-10,6.515625e-03
-4.909375e-10,7.453125e-03
-4.869375e-10,7.078125e-03
-4.829375e-10,8.093750e-03
-4.789375e-10,8.343750e-03
-4.749375e-10,8.312500e-03
-4.709375e-10,7.984375e-03
-4.669375e-10,8.453125e-03
-4.629375e-10,8.187500e-03
-4.589375e-10,8.437500e-03
-4.549375e-10,9.046875e-03
-4.509375e-10,9.218750e-03
-4.469375e-10,9.359375e-03
-4.429375e-10,9.062500e-03
-4.389375e-10,9.234375e-03
-4.349375e-10,9.765625e-03
-4.309375e-10,9.453125e-03
-4.269375e-10,1.018750e-02
-4.229375e-10,1.037500e-02
-4.189375e-10,1.053125e-02
-4.149375e-10,9.343750e-03
-4.109375e-10,1.000000e-02
-4.069375e-10,9.437500e-03
-4.029375e-10,1.026563e-02
-3.989375e-10,1.028125e-02
-3.949375e-10,9.906250e-03
-3.909375e-10,9.265625e-03
-3.869375e-10,9.421875e-03
-3.829375e-10,8.937500e-03
-3.789375e-10,8.703125e-03
-3.749375e-10,8.968750e-03
-3.709375e-10,8.765625e-03
-3.669375e-10,8.406250e-03
-3.629375e-10,7.765625e-03
-3.589375e-10,7.625000e-03
-3.549375e-10,7.828125e-03
-3.509375e-10,7.078125e-03
-3.469375e-10,7.437500e-03
-3.429375e-10,7.343750e-03
-3.389375e-10,7.187500e-03
-3.349375e-10,5.765625e-03
-3.309375e-10,6.062500e-03
-3.269375e-10,5.265625e-03
-3.229375e-10,5.906250e-03
-3.189375e-10,5.734375e-03
-3.149375e-10,5.203125e-03
-3.109375e-10,4.546875e-03
-3.069375e-10,4.671875e-03
-3.029375e-10,4.250000e-03
-2.989375e-10,3.984375e-03
-2.949375e-10,4.312500e-03
-2.909375e-10,4.281250e-03
-2.869375e-10,4.000000e-03
-2.829375e-10,3.671875e-03
-2.789375e-10,3.781250e-03
-2.749375e-10,4.296875e-03
-2.709375e-10,3.890625e-03
-2.669375e-10,4.562500e-03
-2.629375e-10,4.953125e-03
-2.589375e-10,5.203125e-03
-2.549375e-10,4.296875e-03
-2.509375e-10,5.046875e-03
-2.469375e-10,4.671875e-03
-2.429375e-10,5.859375e-03
-2.389375e-10,6.109375e-03
-2.349375e-10,6.109375e-03
-2.309375e-10,6.031250e-03
-2.269375e-10,6.640625e-03
-2.229375e-10,6.656250e-03
-2.189375e-10,6.828125e-03
-2.149375e-10,7.515625e-03
-2.109375e-10,7.843750e-03
-2.069375e-10,7.875000e-03
-2.029375e-10,7.906250e-03
-1.989375e-10,8.203125e-03
-1.949375e-10,8.828125e-03
-1.909375e-10,8.593750e-03
-1.869375e-10,9.281250e-03
-1.829375e-10,9.687500e-03
-1.789375e-10,9.875000e-03
-1.749375e-10,8.921875e-03
-1.709375e-10,9.484375e-03
-1.669375e-10,8.750000e-03
-1.629375e-10,9.703125e-03
-1.589375e-10,9.484375e-03
-1.549375e-10,9.109375e-03
-1.509375e-10,8.562500e-03
-1.469375e-10,8.671875e-03
-1.429375e-10,8.078125e-03
-1.389375e-10,7.734375e-03
-1.349375e-10,7.734375e-03
-1.309375e-10,7.453125e-03
-1.269375e-10,6.843750e-03
-1.229375e-10,6.281250e-03
-1.189375e-10,5.906250e-03
-1.149375e-10,5.843750e-03
-1.109375e-10,5.078125e-03
-1.069375e-10,5.281250e-03
-1.029375e-10,5.187500e-03
-9.893750e-11,5.078125e-03
-9.493750e-11,3.906250e-03
-9.093750e-11,4.328125e-03
-8.693750e-11,3.500000e-03
-8.293750e-11,4.609375e-03
-7.893750e-11,4.531250e-03
-7.493750e-11,4.578125e-03
-7.093750e-11,4.609375e-03
-6.693750e-11,5.515625e-03
-6.293750e-11,5.875000e-03
-5.893750e-11,6.718750e-03
-5.493750e-11,8.078125e-03
-5.093750e-11,9.484375e-03
-4.693750e-11,1.068750e-02
-4.293750e-11,1.223438e-02
-3.893750e-11,1.415625e-02
-3.493750e-11,1.656250e-02
-3.093750e-11,1.864063e-02
-2.693750e-11,2.195313e-02
-2.293750e-11,2.514063e-02
-1.893750e-11,2.871875e-02
-1.493750e-11,3.143750e-02
-1.093750e-11,3.592188e-02
-6.937500e-12,3.935938e-02
-2.937500e-12,4.504688e-02
1.062500e-12,4.962500e-02
5.062500e-12,5.470313e-02
9.062500e-12,5.985938e-02
1.306250e-11,6.607813e-02
1.706250e-11,7.190625e-02
2.106250e-11,7.834375e-02
2.506250e-11,8.546875e-02
2.906250e-11,9.279688e-02
3.306250e-11,9.982813e-02
3.706250e-11,1.073281e-01
4.106250e-11,1.152188e-01
4.506250e-11,1.235313e-01
4.906250e-11,1.316094e-01
5.306250e-11,1.408281e-01
5.706250e-11,1.498125e-01
6.106250e-11,1.592031e-01
6.506250e-11,1.675313e-01
6.906250e-11,1.774688e-01
7.306250e-11,1.861406e-01
7.706250e-11,1.968906e-01
8.106250e-11,2.062188e-01
8.506250e-11,2.159219e-01
8.906250e-11,2.252969e-01
9.306250e-11,2.353906e-01
9.706250e-11,2.448750e-01
1.010625e-10,2.545625e-01
1.050625e-10,2.645781e-01
1.090625e-10,2.745313e-01
1.130625e-10,2.835781e-01
1.170625e-10,2.927344e-01
1.210625e-10,3.018750e-01
1.250625e-10,3.109844e-01
1.290625e-10,3.195000e-01
1.330625e-10,3.286094e-01
1.370625e-10,3.369531e-01
1.410625e-10,3.453750e-01
1.450625e-10,3.521563e-01
1.490625e-10,3.602031e-01
1.530625e-10,3.664844e-01
1.570625e-10,3.743281e-01
1.610625e-10,3.802656e-01
1.650625e-10,3.862969e-01
1.690625e-10,3.914531e-01
1.730625e-10,3.968906e-01
1.770625e-10,4.014688e-01
1.810625e-10,4.058281e-01
1.850625e-10,4.101250e-01
1.890625e-10,4.141563e-01
1.930625e-10,4.168125e-01
1.970625e-10,4.192813e-01
2.010625e-10,4.215781e-01
2.050625e-10,4.236094e-01
2.090625e-10,4.248438e-01
2.130625e-10,4.263906e-01
2.170625e-10,4.270000e-01
2.210625e-10,4.276406e-01
2.250625e-10,4.264531e-01
2.290625e-10,4.265781e-01
2.330625e-10,4.248906e-01
2.370625e-10,4.246094e-01
2.410625e-10,4.224844e-01
2.450625e-10,4.204688e-01
2.490625e-10,4.176406e-01
2.530625e-10,4.151875e-01
2.570625e-10,4.120469e-01
2.610625e-10,4.087813e-01
2.650625e-10,4.055313e-01
2.690625e-10,4.022500e-01
2.730625e-10,3.977344e-01
2.770625e-10,3.932031e-01
2.810625e-10,3.887813e-01
2.850625e-10,3.843594e-01
2.890625e-10,3.793125e-01
2.930625e-10,3.747969e-01
2.970625e-10,3.696406e-01
3.010625e-10,3.648125e-01
3.050625e-10,3.583438e-01
3.090625e-10,3.535938e-01
3.130625e-10,3.473281e-01
3.170625e-10,3.425938e-01
3.210625e-10,3.364063e-01
3.250625e-10,3.305469e-01
3.290625e-10,3.241563e-01
3.330625e-10,3.185156e-01
3.370625e-10,3.124531e-01
3.410625e-10,3.065156e-01
3.450625e-10,3.007656e-01
3.490625e-10,2.952188e-01
3.530625e-10,2.888281e-01
3.570625e-10,2.825469e-01
3.610625e-10,2.766094e-01
3.650625e-10,2.709375e-01
3.690625e-10,2.647344e-01
3.730625e-10,2.592969e-01
3.770625e-10,2.534531e-01
3.810625e-10,2.480781e-01
3.850625e-10,2.411563e-01
3.890625e-10,2.362344e-01
3.930625e-10,2.299219e-01
3.970625e-10,2.251875e-01
4.010625e-10,2.192031e-01
4.050625e-10,2.136094e-01
4.090625e-10,2.075469e-01
4.130625e-10,2.024219e-01
4.170625e-10,1.969688e-01
4.210625e-10,1.916875e-01
4.250625e-10,1.866250e-01
4.290625e-10,1.818125e-01
4.330625e-10,1.763906e-01
4.370625e-10,1.710625e-01
4.410625e-10,1.660781e-01
4.450625e-10,1.615156e-01
4.490625e-10,1.563594e-01
4.530625e-10,1.520313e-01
4.570625e-10,1.474531e-01
4.610625e-10,1.432500e-01
4.650625e-10,1.376250e-01
4.690625e-10,1.340781e-01
4.730625e-10,1.291875e-01
4.770625e-10,1.258906e-01
4.810625e-10,1.214844e-01
4.850625e-10,1.173750e-01
4.890625e-10,1.129531e-01
4.930625e-10,1.094844e-01
4.970625e-10,1.056563e-01
5.010625e-10,1.021563e-01
5.050625e-10,9.884375e-02
5.090625e-10,9.584375e-02
5.130625e-10,9.242188e-02
5.170625e-10,8.904688e-02
5.210625e-10,8.607813e-02
5.250625e-10,8.357813e-02
5.290625e-10,8.051563e-02
5.330625e-10,7.825000e-02
5.370625e-10,7.589063e-02
5.410625e-10,7.382813e-02
5.450625e-10,7.048438e-02
5.490625e-10,6.917188e-02
5.530625e-10,6.659375e-02
5.570625e-10,6.562500e-02
5.610625e-10,6.364063e-02
5.650625e-10,6.176563e-02
5.690625e-10,5.971875e-02
5.730625e-10,5.857813e-02
5.770625e-10,5.696875e-02
5.810625e-10,5.571875e-02
5.850625e-10,5.468750e-02
5.890625e-10,5.389063e-02
5.930625e-10,5.270313e-02
5.970625e-10,5.145313e-02
6.010625e-10,5.062500e-02
6.050625e-10,5.010938e-02
6.090625e-10,4.898438e-02
6.130625e-10,4.859375e-02
6.170625e-10,4.807813e-02
6.210625e-10,4.762500e-02
6.250625e-10,4.593750e-02
6.290625e-10,4.604688e-02
6.330625e-10,4.493750e-02
6.370625e-10,4.529688e-02
6.410625e-10,4.456250e-02
6.450625e-10,4.371875e-02
6.490625e-10,4.260938e-02
6.530625e-10,4.242188e-02
6.570625e-10,4.145313e-02
6.610625e-10,4.076563e-02
6.650625e-10,4.029688e-02
6.690625e-10,3.992188e-02
6.730625e-10,3.909375e-02
6.770625e-10,3.798438e-02
6.810625e-10,3.735938e-02
6.850625e-10,3.679688e-02
6.890625e-10,3.560938e-02
6.930625e-10,3.510938e-02
6.970625e-10,3.445313e-02
7.010625e-10,3.360938e-02
7.050625e-10,3.162500e-02
7.090625e-10,3.128125e-02
7.130625e-10,2.976563e-02
7.170625e-10,2.973438e-02
7.210625e-10,2.853125e-02
7.250625e-10,2.721875e-02
7.290625e-10,2.553125e-02
7.330625e-10,2.493750e-02
7.370625e-10,2.340625e-02
7.410625e-10,2.220313e-02
7.450625e-10,2.135938e-02
7.490625e-10,2.057813e-02
7.530625e-10,1.943750e-02
7.570625e-10,1.796875e-02
7.610625e-10,1.710938e-02
7.650625e-10,1.635938e-02
7.690625e-10,1.507813e-02
7.730625e-10,1.459375e-02
7.770625e-10,1.403125e-02
7.810625e-10,1.318750e-02
7.850625e-10,1.146875e-02
7.890625e-10,1.134375e-02
7.930625e-10,1.015625e-02
7.970625e-10,1.064063e-02
8.010625e-10,9.984375e-03
8.050625e-10,9.343750e-03
8.090625e-10,8.312500e-03
8.130625e-10,8.453125e-03
8.170625e-10,7.734375e-03
8.210625e-10,7.421875e-03
8.250625e-10,7.609375e-03
8.290625e-10,7.750000e-03
8.330625e-10,7.703125e-03
8.370625e-10,7.312500e-03
8.410625e-10,7.515625e-03
8.450625e-10,8.000000e-03
8.490625e-10,7.921875e-03
8.530625e-10,8.671875e-03
8.570625e-10,9.281250e-03
8.610625e-10,9.578125e-03
8.650625e-10,9.078125e-03
8.690625e-10,1.001563e-02
8.730625e-10,9.859375e-03
8.770625e-10,1.150000e-02
8.810625e-10,1.189063e-02
8.850625e-10,1.223438e-02
8.890625e-10,1.212500e-02
8.930625e-10,1.301563e-02
8.970625e-10,1.310938e-02
9.010625e-10,1.356250e-02
9.050625e-10,1.442188e-02
9.090625e-10,1.492188e-02
9.130625e-10,1.535938e-02
9.170625e-10,1.534375e-02
9.210625e-10,1.568750e-02
9.250625e-10,1.645313e-02
9.290625e-10,1.648438e-02
9.330625e-10,1.725000e-02
9.370625e-10,1.767188e-02
9.410625e-10,1.781250e-02
9.450625e-10,1.706250e-02
9.490625e-10,1.765625e-02
9.530625e-10,1.698438e-02
9.570625e-10,1.818750e-02
9.610625e-10,1.801563e-02
9.650625e-10,1.771875e-02
9.690625e-10,1.698438e-02
9.730625e-10,1.710938e-02
9.770625e-10,1.648438e-02
9.810625e-10,1.621875e-02
9.850625e-10,1.631250e-02
9.890625e-10,1.587500e-02
9.930625e-10,1.546875e-02
9.970625e-10,1.467188e-02
1.001063e-09,1.410938e-02
1.005063e-09,1.412500e-02
1.009062e-09,1.339063e-02
1.013062e-09,1.339063e-02
1.017062e-09,1.306250e-02
1.021062e-09,1.254688e-02
1.025062e-09,1.123438e-02
1.029062e-09,1.132813e-02
1.033062e-09,1.009375e-02
1.037062e-09,1.082813e-02
1.041062e-09,1.026563e-02
1.045063e-09,9.656250e-03
1.049063e-09,8.718750e-03
1.053063e-09,8.703125e-03
1.057063e-09,8.015625e-03
1.061063e-09,7.781250e-03
1.065063e-09,7.968750e-03
1.069062e-09,7.687500e-03
1.073062e-09,7.468750e-03
1.077062e-09,6.984375e-03
1.081062e-09,6.765625e-03
1.085062e-09,7.234375e-03
1.089062e-09,6.968750e-03
1.093062e-09,7.500000e-03
1.097062e-09,7.781250e-03
1.101062e-09,7.953125e-03
1.105063e-09,7.343750e-03
1.109063e-09,8.234375e-03
1.113063e-09,7.734375e-03
1.117063e-09,9.187500e-03
1.121063e-09,9.406250e-03
1.125063e-09,9.578125e-03
1.129062e-09,9.437500e-03
1.133062e-09,1.023438e-02
1.137062e-09,1.031250e-02
1.141062e-09,1.082813e-02
1.145062e-09,1.175000e-02
1.149062e-09,1.221875e-02
1.153062e-09,1.260938e-02
1.157062e-09,1.275000e-02
1.161062e-09,1.312500e-02
1.165062e-09,1.406250e-02
1.169063e-09,1.421875e-02
1.173063e-09,1.517188e-02
1.177063e-09,1.579688e-02
1.181063e-09,1.629688e-02
1.185063e-09,1.582813e-02
1.189062e-09,1.692188e-02
1.193062e-09,1.646875e-02
1.197062e-09,1.790625e-02
1.201062e-09,1.800000e-02
1.205062e-09,1.804688e-02
1.209062e-09,1.765625e-02
1.213062e-09,1.820313e-02
1.217062e-09,1.793750e-02
1.221062e-09,1.803125e-02
1.225062e-09,1.848438e-02
1.229063e-09,1.854688e-02
1.233063e-09,1.834375e-02
1.237063e-09,1.787500e-02
1.241063e-09,1.767188e-02
1.245063e-09,1.793750e-02
1.249062e-09,1.739063e-02
1.253062e-09,1.768750e-02
1.257062e-09,1.760938e-02
1.261062e-09,1.742188e-02
1.265062e-09,1.614063e-02
1.269062e-09,1.656250e-02
1.273062e-09,1.540625e-02
1.277062e-09,1.617188e-02
1.281062e-09,1.559375e-02
1.285062e-09,1.498438e-02
1.289063e-09,1.398438e-02
1.293063e-09,1.395313e-02
1.297063e-09,1.314063e-02
1.301063e-09,1.275000e-02
1.305063e-09,1.273438e-02
1.309062e-09,1.246875e-02
1.313062e-09,1.189063e-02
1.317062e-09,1.112500e-02
1.321062e-09,1.070313e-02
1.325062e-09,1.078125e-02
1.329062e-09,1.007813e-02
1.333062e-09,1.032813e-02
1.337062e-09,1.023438e-02
1.341062e-09,1.012500e-02
1.345062e-09,8.843750e-03
1.349063e-09,9.421875e-03
1.353063e-09,8.437500e-03
1.357063e-09,9.453125e-03
1.361063e-09,9.140625e-03
1.365063e-09,8.843750e-03
1.369062e-09,8.187500e-03
1.373062e-09,8.531250e-03
1.377062e-09,8.125000e-03
1.381062e-09,8.140625e-03
1.385062e-09,8.578125e-03
1.389062e-09,8.781250e-03
1.393062e-09,8.671875e-03
1.397062e-09,8.359375e-03
1.401062e-09,8.437500e-03
1.405062e-09,8.968750e-03
1.409063e-09,8.703125e-03
1.413063e-09,9.421875e-03
1.417063e-09,9.765625e-03
1.421063e-09,1.009375e-02
1.425063e-09,9.125000e-03
1.429062e-09,1.006250e-02
1.433062e-09,9.406250e-03
1.437062e-09,1.075000e-02
1.441062e-09,1.068750e-02
1.445062e-09,1.062500e-02
1.449062e-09,1.014063e-02
1.453062e-09,1.065625e-02
1.457062e-09,1.035938e-02
1.461062e-09,1.043750e-02
1.465062e-09,1.090625e-02
1.469063e-09,1.114063e-02
1.473063e-09,1.098438e-02
1.477063e-09,1.059375e-02
1.481063e-09,1.057813e-02
1.485063e-09,1.096875e-02
1.489062e-09,1.053125e-02
1.493062e-09,1.107813e-02
1.497062e-09,1.118750e-02
1.501062e-09,1.129688e-02
1.505062e-09,1.003125e-02
1.509062e-09,1.070313e-02
1.513062e-09,9.765625e-03
1.517062e-09,1.082813e-02
1.521062e-09,1.045313e-02
1.525062e-09,1.009375e-02
1.529063e-09,9.312500e-03
1.533063e-09,9.531250e-03
1.537063e-09,8.953125e-03
1.541063e-09,8.765625e-03
1.545063e-09,8.984375e-03
1.549062e-09,8.984375e-03
1.553062e-09,8.609375e-03
1.557062e-09,8.031250e-03
1.561062e-09,7.843750e-03
1.565062e-09,8.078125e-03
1.569062e-09,7.531250e-03
1.573062e-09,7.968750e-03
1.577062e-09,8.046875e-03
1.581062e-09,8.109375e-03
1.585062e-09,6.828125e-03
1.589063e-09,7.546875e-03
1.593063e-09,6.671875e-03
1.597063e-09,7.812500e-03
1.601063e-09,7.562500e-03
1.605063e-09,7.343750e-03
1.609062e-09,6.750000e-03
1.613062e-09,7.156250e-03
1.617062e-09,6.781250e-03
1.621062e-09,6.828125e-03
1.625062e-09,7.281250e-03
1.629062e-09,7.562500e-03
1.633062e-09,7.453125e-03
1.637062e-09,7.156250e-03
1.641062e-09,7.265625e-03
1.645062e-09,7.796875e-03
1.649063e-09,7.531250e-03
1.653063e-09,8.281250e-03
1.657063e-09,8.625000e-03
1.661063e-09,8.968750e-03
1.665063e-09,7.937500e-03
1.669062e-09,8.890625e-03
1.673062e-09,8.234375e-03
1.677062e-09,9.593750e-03
1.681062e-09,9.546875e-03
1.685062e-09,9.468750e-03
1.689062e-09,9.000000e-03
1.693062e-09,9.515625e-03
1.697062e-09,9.234375e-03
1.701062e-09,9.328125e-03
1.705062e-09,9.812500e-03
1.709063e-09,1.007813e-02
1.713063e-09,9.921875e-03
1.717063e-09,9.562500e-03
1.721063e-09,9.578125e-03
1.725063e-09,9.968750e-03
1.729062e-09,9.546875e-03
1.733062e-09,1.012500e-02
1.737062e-09,1.025000e-02
1.741062e-09,1.037500e-02
1.745062e-09,9.078125e-03
1.749062e-09,9.781250e-03
1.753062e-09,8.843750e-03
1.757062e-09,9.906250e-03
