Measurements-streak-laser-independent/Photodiode-on-Tek-12bit-4GHz/Tek000_ch1_20190613133033066.csv

Model,MSO64
Waveform Type,ANALOG
Horizontal Units,s
Sample Interval,4.000000e-12
Record Length,1000
Zero Index,310.328125
Vertical Units,V

TIME,CH1
-1.241312e-09,6.703125e-03
-1.237312e-09,6.281250e-03
-1.233312e-09,6.265625e-03
-1.229312e-09,6.671875e-03
-1.225312e-09,6.250000e-03
-1.221312e-09,6.859375e-03
-1.217312e-09,7.062500e-03
-1.213312e-09,7.265625e-03
-1.209313e-09,6.062500e-03
-1.205313e-09,6.890625e-03
-1.201313e-09,6.109375e-03
-1.197313e-09,7.343750e-03
-1.193313e-09,7.171875e-03
-1.189313e-09,7.000000e-03
-1.185312e-09,6.437500e-03
-1.181312e-09,6.890625e-03
-1.177312e-09,6.546875e-03
-1.173312e-09,6.593750e-03
-1.169312e-09,7.062500e-03
-1.165312e-09,7.328125e-03
-1.161312e-09,7.203125e-03
-1.157312e-09,6.875000e-03
-1.153312e-09,6.953125e-03
-1.149313e-09,7.437500e-03
-1.145313e-09,7.109375e-03
-1.141313e-09,7.796875e-03
-1.137313e-09,8.078125e-03
-1.133313e-09,8.375000e-03
-1.129313e-09,7.234375e-03
-1.125312e-09,8.125000e-03
-1.121312e-09,7.390625e-03
-1.117312e-09,8.687500e-03
-1.113312e-09,8.546875e-03
-1.109312e-09,8.421875e-03
-1.105312e-09,7.875000e-03
-1.101312e-09,8.328125e-03
-1.097312e-09,7.984375e-03
-1.093312e-09,8.015625e-03
-1.089313e-09,8.468750e-03
-1.085313e-09,8.703125e-03
-1.081313e-09,8.515625e-03
-1.077313e-09,8.125000e-03
-1.073313e-09,8.125000e-03
-1.069313e-09,8.515625e-03
-1.065312e-09,8.093750e-03
-1.061312e-09,8.687500e-03
-1.057312e-09,8.843750e-03
-1.053312e-09,9.000000e-03
-1.049312e-09,7.718750e-03
-1.045312e-09,8.468750e-03
-1.041312e-09,7.578125e-03
-1.037312e-09,8.703125e-03
-1.033312e-09,8.390625e-03
-1.029313e-09,8.093750e-03
-1.025313e-09,7.359375e-03
-1.021313e-09,7.625000e-03
-1.017313e-09,7.093750e-03
-1.013313e-09,6.937500e-03
-1.009313e-09,7.187500e-03
-1.005312e-09,7.234375e-03
-1.001312e-09,6.859375e-03
-9.973125e-10,6.281250e-03
-9.933125e-10,6.093750e-03
-9.893125e-10,6.328125e-03
-9.853125e-10,5.734375e-03
-9.813125e-10,6.140625e-03
-9.773125e-10,6.140625e-03
-9.733125e-10,6.140625e-03
-9.693125e-10,4.734375e-03
-9.653125e-10,5.343750e-03
-9.613125e-10,4.328125e-03
-9.573125e-10,5.328125e-03
-9.533125e-10,4.937500e-03
-9.493125e-10,4.531250e-03
-9.453125e-10,3.750000e-03
-9.413125e-10,3.953125e-03
-9.373125e-10,3.375000e-03
-9.333125e-10,3.203125e-03
-9.293125e-10,3.437500e-03
-9.253125e-10,3.484375e-03
-9.213125e-10,3.125000e-03
-9.173125e-10,2.578125e-03
-9.133125e-10,2.437500e-03
-9.093125e-10,2.718750e-03
-9.053125e-10,2.203125e-03
-9.013125e-10,2.703125e-03
-8.973125e-10,2.812500e-03
-8.933125e-10,2.937500e-03
-8.893125e-10,1.671875e-03
-8.853125e-10,2.421875e-03
-8.813125e-10,1.562500e-03
-8.773125e-10,2.687500e-03
-8.733125e-10,2.484375e-03
-8.693125e-10,2.265625e-03
-8.653125e-10,1.687500e-03
-8.613125e-10,2.093750e-03
-8.573125e-10,1.718750e-03
-8.533125e-10,1.781250e-03
-8.493125e-10,2.234375e-03
-8.453125e-10,2.500000e-03
-8.413125e-10,2.390625e-03
-8.373125e-10,2.078125e-03
-8.333125e-10,2.171875e-03
-8.293125e-10,2.671875e-03
-8.253125e-10,2.390625e-03
-8.213125e-10,3.109375e-03
-8.173125e-10,3.453125e-03
-8.133125e-10,3.781250e-03
-8.093125e-10,2.750000e-03
-8.053125e-10,3.703125e-03
-8.013125e-10,3.046875e-03
-7.973125e-10,4.328125e-03
-7.933125e-10,4.328125e-03
-7.893125e-10,4.281250e-03
-7.853125e-10,3.875000e-03
-7.813125e-10,4.437500e-03
-7.773125e-10,4.171875e-03
-7.733125e-10,4.359375e-03
-7.693125e-10,4.906250e-03
-7.653125e-10,5.250000e-03
-7.613125e-10,5.250000e-03
-7.573125e-10,4.968750e-03
-7.533125e-10,5.093750e-03
-7.493125e-10,5.609375e-03
-7.453125e-10,5.328125e-03
-7.413125e-10,6.031250e-03
-7.373125e-10,6.343750e-03
-7.333125e-10,6.609375e-03
-7.293125e-10,5.500000e-03
-7.253125e-10,6.375000e-03
-7.213125e-10,5.640625e-03
-7.173125e-10,6.781250e-03
-7.133125e-10,6.640625e-03
-7.093125e-10,6.468750e-03
-7.053125e-10,5.906250e-03
-7.013125e-10,6.265625e-03
-6.973125e-10,5.796875e-03
-6.933125e-10,5.812500e-03
-6.893125e-10,6.156250e-03
-6.853125e-10,6.250000e-03
-6.813125e-10,6.078125e-03
-6.773125e-10,5.562500e-03
-6.733125e-10,5.437500e-03
-6.693125e-10,5.718750e-03
-6.653125e-10,5.218750e-03
-6.613125e-10,5.671875e-03
-6.573125e-10,5.750000e-03
-6.533125e-10,5.781250e-03
-6.493125e-10,4.421875e-03
-6.453125e-10,5.093750e-03
-6.413125e-10,4.171875e-03
-6.373125e-10,5.093750e-03
-6.333125e-10,4.796875e-03
-6.293125e-10,4.453125e-03
-6.253125e-10,3.718750e-03
-6.213125e-10,3.921875e-03
-6.173125e-10,3.312500e-03
-6.133125e-10,3.218750e-03
-6.093125e-10,3.468750e-03
-6.053125e-10,3.468750e-03
-6.013125e-10,3.250000e-03
-5.973125e-10,2.703125e-03
-5.933125e-10,2.562500e-03
-5.893125e-10,2.843750e-03
-5.853125e-10,2.375000e-03
-5.813125e-10,2.890625e-03
-5.773125e-10,3.015625e-03
-5.733125e-10,3.125000e-03
-5.693125e-10,1.859375e-03
-5.653125e-10,2.625000e-03
-5.613125e-10,1.890625e-03
-5.573125e-10,2.968750e-03
-5.533125e-10,2.875000e-03
-5.493125e-10,2.703125e-03
-5.453125e-10,2.171875e-03
-5.413125e-10,2.578125e-03
-5.373125e-10,2.218750e-03
-5.333125e-10,2.328125e-03
-5.293125e-10,2.843750e-03
-5.253125e-10,3.078125e-03
-5.213125e-10,3.093750e-03
-5.173125e-10,2.796875e-03
-5.133125e-10,2.937500e-03
-5.093125e-10,3.484375e-03
-5.053125e-10,3.250000e-03
-5.013125e-10,4.031250e-03
-4.973125e-10,4.359375e-03
-4.933125e-10,4.703125e-03
-4.893125e-10,3.656250e-03
-4.853125e-10,4.593750e-03
-4.813125e-10,4.062500e-03
-4.773125e-10,5.328125e-03
-4.733125e-10,5.406250e-03
-4.693125e-10,5.359375e-03
-4.653125e-10,4.937500e-03
-4.613125e-10,5.468750e-03
-4.573125e-10,5.218750e-03
-4.533125e-10,5.359375e-03
-4.493125e-10,5.937500e-03
-4.453125e-10,6.203125e-03
-4.413125e-10,6.156250e-03
-4.373125e-10,5.875000e-03
-4.333125e-10,6.000000e-03
-4.293125e-10,6.515625e-03
-4.253125e-10,6.171875e-03
-4.213125e-10,6.875000e-03
-4.173125e-10,7.125000e-03
-4.133125e-10,7.343750e-03
-4.093125e-10,6.187500e-03
-4.053125e-10,6.953125e-03
-4.013125e-10,6.250000e-03
-3.973125e-10,7.359375e-03
-3.933125e-10,7.265625e-03
-3.893125e-10,7.015625e-03
-3.853125e-10,6.437500e-03
-3.813125e-10,6.781250e-03
-3.773125e-10,6.406250e-03
-3.733125e-10,6.328125e-03
-3.693125e-10,6.718750e-03
-3.653125e-10,6.812500e-03
-3.613125e-10,6.562500e-03
-3.573125e-10,6.140625e-03
-3.533125e-10,6.140625e-03
-3.493125e-10,6.531250e-03
-3.453125e-10,6.062500e-03
-3.413125e-10,6.625000e-03
-3.373125e-10,6.796875e-03
-3.333125e-10,6.937500e-03
-3.293125e-10,5.750000e-03
-3.253125e-10,6.437500e-03
-3.213125e-10,5.687500e-03
-3.173125e-10,6.781250e-03
-3.133125e-10,6.671875e-03
-3.093125e-10,6.437500e-03
-3.053125e-10,5.906250e-03
-3.013125e-10,6.296875e-03
-2.973125e-10,5.968750e-03
-2.933125e-10,5.953125e-03
-2.893125e-10,6.406250e-03
-2.853125e-10,6.593750e-03
-2.813125e-10,6.421875e-03
-2.773125e-10,6.125000e-03
-2.733125e-10,6.218750e-03
-2.693125e-10,6.703125e-03
-2.653125e-10,6.343750e-03
-2.613125e-10,6.984375e-03
-2.573125e-10,7.281250e-03
-2.533125e-10,7.515625e-03
-2.493125e-10,6.437500e-03
-2.453125e-10,7.203125e-03
-2.413125e-10,6.500000e-03
-2.373125e-10,7.687500e-03
-2.333125e-10,7.593750e-03
-2.293125e-10,7.406250e-03
-2.253125e-10,6.921875e-03
-2.213125e-10,7.328125e-03
-2.173125e-10,6.984375e-03
-2.133125e-10,6.953125e-03
-2.093125e-10,7.343750e-03
-2.053125e-10,7.484375e-03
-2.013125e-10,7.234375e-03
-1.973125e-10,6.875000e-03
-1.933125e-10,6.843750e-03
-1.893125e-10,7.171875e-03
-1.853125e-10,6.718750e-03
-1.813125e-10,7.234375e-03
-1.773125e-10,7.390625e-03
-1.733125e-10,7.484375e-03
-1.693125e-10,6.281250e-03
-1.653125e-10,6.937500e-03
-1.613125e-10,6.078125e-03
-1.573125e-10,7.171875e-03
-1.533125e-10,6.906250e-03
-1.493125e-10,6.656250e-03
-1.453125e-10,6.109375e-03
-1.413125e-10,6.484375e-03
-1.373125e-10,6.109375e-03
-1.333125e-10,6.140625e-03
-1.293125e-10,6.562500e-03
-1.253125e-10,6.828125e-03
-1.213125e-10,6.734375e-03
-1.173125e-10,6.593750e-03
-1.133125e-10,6.812500e-03
-1.093125e-10,7.421875e-03
-1.053125e-10,7.359375e-03
-1.013125e-10,8.343750e-03
-9.731250e-11,9.000000e-03
-9.331250e-11,9.718750e-03
-8.931250e-11,9.218750e-03
-8.531250e-11,1.060938e-02
-8.131250e-11,1.056250e-02
-7.731250e-11,1.259375e-02
-7.331250e-11,1.329688e-02
-6.931250e-11,1.412500e-02
-6.531250e-11,1.475000e-02
-6.131250e-11,1.635938e-02
-5.731250e-11,1.729688e-02
-5.331250e-11,1.871875e-02
-4.931250e-11,2.062500e-02
-4.531250e-11,2.246875e-02
-4.131250e-11,2.396875e-02
-3.731250e-11,2.551563e-02
-3.331250e-11,2.746875e-02
-2.931250e-11,2.984375e-02
-2.531250e-11,3.164063e-02
-2.131250e-11,3.451563e-02
-1.731250e-11,3.707813e-02
-1.331250e-11,3.981250e-02
-9.312500e-12,4.129688e-02
-5.312500e-12,4.470313e-02
-1.312500e-12,4.665625e-02
2.687500e-12,5.070313e-02
6.687500e-12,5.339063e-02
1.068750e-11,5.625000e-02
1.468750e-11,5.881250e-02
1.868750e-11,6.234375e-02
2.268750e-11,6.518750e-02
2.668750e-11,6.843750e-02
3.068750e-11,7.212500e-02
3.468750e-11,7.571875e-02
3.868750e-11,7.882813e-02
4.268750e-11,8.192188e-02
4.668750e-11,8.532813e-02
5.068750e-11,8.906250e-02
5.468750e-11,9.212500e-02
5.868750e-11,9.614063e-02
6.268750e-11,9.970313e-02
6.668750e-11,1.033594e-01
7.068750e-11,1.055938e-01
7.468750e-11,1.096406e-01
7.868750e-11,1.120938e-01
8.268750e-11,1.164844e-01
8.668750e-11,1.193438e-01
9.068750e-11,1.222969e-01
9.468750e-11,1.247344e-01
9.868750e-11,1.279844e-01
1.026875e-10,1.304531e-01
1.066875e-10,1.331563e-01
1.106875e-10,1.361406e-01
1.146875e-10,1.389375e-01
1.186875e-10,1.410313e-01
1.226875e-10,1.429531e-01
1.266875e-10,1.451094e-01
1.306875e-10,1.474375e-01
1.346875e-10,1.489844e-01
1.386875e-10,1.513125e-01
1.426875e-10,1.530781e-01
1.466875e-10,1.548438e-01
1.506875e-10,1.550469e-01
1.546875e-10,1.570000e-01
1.586875e-10,1.572656e-01
1.626875e-10,1.593438e-01
1.666875e-10,1.598125e-01
1.706875e-10,1.603125e-01
1.746875e-10,1.602188e-01
1.786875e-10,1.608906e-01
1.826875e-10,1.607500e-01
1.866875e-10,1.607969e-01
1.906875e-10,1.610781e-01
1.946875e-10,1.611719e-01
1.986875e-10,1.605156e-01
2.026875e-10,1.596719e-01
2.066875e-10,1.590781e-01
2.106875e-10,1.586719e-01
2.146875e-10,1.575000e-01
2.186875e-10,1.570938e-01
2.226875e-10,1.561250e-01
2.266875e-10,1.552344e-01
2.306875e-10,1.527813e-01
2.346875e-10,1.521719e-01
2.386875e-10,1.499063e-01
2.426875e-10,1.494375e-01
2.466875e-10,1.474688e-01
2.506875e-10,1.455625e-01
2.546875e-10,1.431406e-01
2.586875e-10,1.415625e-01
2.626875e-10,1.392500e-01
2.666875e-10,1.371719e-01
2.706875e-10,1.353906e-01
2.746875e-10,1.334844e-01
2.786875e-10,1.309375e-01
2.826875e-10,1.282656e-01
2.866875e-10,1.259219e-01
2.906875e-10,1.238750e-01
2.946875e-10,1.210781e-01
2.986875e-10,1.191563e-01
3.026875e-10,1.167656e-01
3.066875e-10,1.145156e-01
3.106875e-10,1.107813e-01
3.146875e-10,1.090000e-01
3.186875e-10,1.056406e-01
3.226875e-10,1.041406e-01
3.266875e-10,1.012344e-01
3.306875e-10,9.845313e-02
3.346875e-10,9.521875e-02
3.386875e-10,9.295313e-02
3.426875e-10,9.004688e-02
3.466875e-10,8.743750e-02
3.506875e-10,8.515625e-02
3.546875e-10,8.284375e-02
3.586875e-10,8.003125e-02
3.626875e-10,7.710938e-02
3.666875e-10,7.460938e-02
3.706875e-10,7.248438e-02
3.746875e-10,6.965625e-02
3.786875e-10,6.779688e-02
3.826875e-10,6.557813e-02
3.866875e-10,6.354688e-02
3.906875e-10,6.007813e-02
3.946875e-10,5.867188e-02
3.986875e-10,5.578125e-02
4.026875e-10,5.478125e-02
4.066875e-10,5.248438e-02
4.106875e-10,5.034375e-02
4.146875e-10,4.784375e-02
4.186875e-10,4.639063e-02
4.226875e-10,4.432813e-02
4.266875e-10,4.264063e-02
4.306875e-10,4.132813e-02
4.346875e-10,4.004688e-02
4.386875e-10,3.835938e-02
4.426875e-10,3.660938e-02
4.466875e-10,3.529688e-02
4.506875e-10,3.445313e-02
4.546875e-10,3.292188e-02
4.586875e-10,3.235938e-02
4.626875e-10,3.154688e-02
4.666875e-10,3.087500e-02
4.706875e-10,2.885938e-02
4.746875e-10,2.890625e-02
4.786875e-10,2.748438e-02
4.826875e-10,2.796875e-02
4.866875e-10,2.720313e-02
4.906875e-10,2.651563e-02
4.946875e-10,2.553125e-02
4.986875e-10,2.554688e-02
5.026875e-10,2.489063e-02
5.066875e-10,2.465625e-02
5.106875e-10,2.475000e-02
5.146875e-10,2.481250e-02
5.186875e-10,2.450000e-02
5.226875e-10,2.404688e-02
5.266875e-10,2.400000e-02
5.306875e-10,2.432813e-02
5.346875e-10,2.393750e-02
5.386875e-10,2.443750e-02
5.426875e-10,2.464063e-02
5.466875e-10,2.485938e-02
5.506875e-10,2.371875e-02
5.546875e-10,2.453125e-02
5.586875e-10,2.381250e-02
5.626875e-10,2.492188e-02
5.666875e-10,2.471875e-02
5.706875e-10,2.445313e-02
5.746875e-10,2.381250e-02
5.786875e-10,2.410938e-02
5.826875e-10,2.362500e-02
5.866875e-10,2.346875e-02
5.906875e-10,2.359375e-02
5.946875e-10,2.359375e-02
5.986875e-10,2.317188e-02
6.026875e-10,2.248438e-02
6.066875e-10,2.218750e-02
6.106875e-10,2.215625e-02
6.146875e-10,2.134375e-02
6.186875e-10,2.139063e-02
6.226875e-10,2.109375e-02
6.266875e-10,2.071875e-02
6.306875e-10,1.900000e-02
6.346875e-10,1.914063e-02
6.386875e-10,1.779688e-02
6.426875e-10,1.825000e-02
6.466875e-10,1.735938e-02
6.506875e-10,1.640625e-02
6.546875e-10,1.506250e-02
6.586875e-10,1.471875e-02
6.626875e-10,1.353125e-02
6.666875e-10,1.271875e-02
6.706875e-10,1.226563e-02
6.746875e-10,1.171875e-02
6.786875e-10,1.076563e-02
6.826875e-10,9.578125e-03
6.866875e-10,8.875000e-03
6.906875e-10,8.468750e-03
6.946875e-10,7.359375e-03
6.986875e-10,7.203125e-03
7.026875e-10,6.781250e-03
7.066875e-10,6.265625e-03
7.106875e-10,4.562500e-03
7.146875e-10,4.750000e-03
7.186875e-10,3.546875e-03
7.226875e-10,4.250000e-03
7.266875e-10,3.671875e-03
7.306875e-10,3.109375e-03
7.346875e-10,2.203125e-03
7.386875e-10,2.406250e-03
7.426875e-10,1.812500e-03
7.466875e-10,1.640625e-03
7.506875e-10,1.953125e-03
7.546875e-10,2.171875e-03
7.586875e-10,2.093750e-03
7.626875e-10,1.781250e-03
7.666875e-10,2.000000e-03
7.706875e-10,2.578125e-03
7.746875e-10,2.484375e-03
7.786875e-10,3.375000e-03
7.826875e-10,4.000000e-03
7.866875e-10,4.515625e-03
7.906875e-10,3.875000e-03
7.946875e-10,5.078125e-03
7.986875e-10,4.875000e-03
8.026875e-10,6.625000e-03
8.066875e-10,7.031250e-03
8.106875e-10,7.453125e-03
8.146875e-10,7.437500e-03
8.186875e-10,8.468750e-03
8.226875e-10,8.671875e-03
8.266875e-10,9.265625e-03
8.306875e-10,1.028125e-02
8.346875e-10,1.104688e-02
8.386875e-10,1.151563e-02
8.426875e-10,1.167188e-02
8.466875e-10,1.221875e-02
8.506875e-10,1.312500e-02
8.546875e-10,1.325000e-02
8.586875e-10,1.428125e-02
8.626875e-10,1.490625e-02
8.666875e-10,1.539063e-02
8.706875e-10,1.462500e-02
8.746875e-10,1.559375e-02
8.786875e-10,1.506250e-02
8.826875e-10,1.645313e-02
8.866875e-10,1.640625e-02
8.906875e-10,1.629688e-02
8.946875e-10,1.571875e-02
8.986875e-10,1.606250e-02
9.026875e-10,1.557813e-02
9.066875e-10,1.543750e-02
9.106875e-10,1.565625e-02
9.146875e-10,1.553125e-02
9.186875e-10,1.510938e-02
9.226875e-10,1.437500e-02
9.266875e-10,1.398438e-02
9.306875e-10,1.400000e-02
9.346875e-10,1.320313e-02
9.386875e-10,1.329688e-02
9.426875e-10,1.296875e-02
9.466875e-10,1.256250e-02
9.506875e-10,1.093750e-02
9.546875e-10,1.107813e-02
9.586875e-10,9.703125e-03
9.626875e-10,1.032813e-02
9.666875e-10,9.578125e-03
9.706875e-10,8.781250e-03
9.746875e-10,7.593750e-03
9.786875e-10,7.390625e-03
9.826875e-10,6.437500e-03
9.866875e-10,5.906250e-03
9.906875e-10,5.796875e-03
9.946875e-10,5.375000e-03
9.986875e-10,4.750000e-03
1.002688e-09,3.906250e-03
1.006687e-09,3.437500e-03
1.010687e-09,3.484375e-03
1.014687e-09,2.781250e-03
1.018687e-09,3.031250e-03
1.022687e-09,2.937500e-03
1.026687e-09,2.843750e-03
1.030687e-09,1.593750e-03
1.034687e-09,2.187500e-03
1.038687e-09,1.281250e-03
1.042688e-09,2.421875e-03
1.046688e-09,2.218750e-03
1.050688e-09,2.031250e-03
1.054688e-09,1.500000e-03
1.058688e-09,1.984375e-03
1.062688e-09,1.734375e-03
1.066687e-09,1.921875e-03
1.070687e-09,2.531250e-03
1.074687e-09,2.875000e-03
1.078687e-09,2.968750e-03
1.082687e-09,2.859375e-03
1.086687e-09,3.109375e-03
1.090687e-09,3.843750e-03
1.094687e-09,3.812500e-03
1.098687e-09,4.703125e-03
1.102688e-09,5.250000e-03
1.106688e-09,5.765625e-03
1.110688e-09,5.031250e-03
1.114688e-09,6.171875e-03
1.118688e-09,5.718750e-03
1.122688e-09,7.250000e-03
1.126687e-09,7.390625e-03
1.130687e-09,7.515625e-03
1.134687e-09,7.218750e-03
1.138687e-09,7.921875e-03
1.142687e-09,7.796875e-03
1.146687e-09,8.062500e-03
1.150687e-09,8.703125e-03
1.154687e-09,9.046875e-03
1.158687e-09,9.046875e-03
1.162688e-09,8.812500e-03
1.166688e-09,8.890625e-03
1.170688e-09,9.421875e-03
1.174688e-09,9.109375e-03
1.178688e-09,9.718750e-03
1.182688e-09,9.937500e-03
1.186687e-09,1.009375e-02
1.190687e-09,8.953125e-03
1.194687e-09,9.703125e-03
1.198687e-09,8.812500e-03
1.202687e-09,9.906250e-03
1.206687e-09,9.578125e-03
1.210687e-09,9.250000e-03
1.214687e-09,8.500000e-03
1.218687e-09,8.718750e-03
1.222688e-09,8.140625e-03
1.226688e-09,7.968750e-03
1.230688e-09,8.171875e-03
1.234688e-09,8.140625e-03
1.238688e-09,7.750000e-03
1.242688e-09,7.140625e-03
1.246687e-09,6.906250e-03
1.250687e-09,7.125000e-03
1.254687e-09,6.531250e-03
1.258687e-09,6.921875e-03
1.262687e-09,6.921875e-03
1.266687e-09,6.921875e-03
1.270687e-09,5.625000e-03
1.274687e-09,6.281250e-03
1.278687e-09,5.328125e-03
1.282688e-09,6.406250e-03
1.286688e-09,6.093750e-03
1.290688e-09,5.812500e-03
1.294688e-09,5.140625e-03
1.298688e-09,5.484375e-03
1.302688e-09,5.046875e-03
1.306687e-09,5.031250e-03
1.310687e-09,5.437500e-03
1.314687e-09,5.640625e-03
1.318687e-09,5.484375e-03
1.322687e-09,5.140625e-03
1.326687e-09,5.203125e-03
1.330687e-09,5.687500e-03
1.334687e-09,5.390625e-03
1.338687e-09,6.093750e-03
1.342688e-09,6.421875e-03
1.346688e-09,6.750000e-03
1.350688e-09,5.718750e-03
1.354688e-09,6.671875e-03
1.358688e-09,6.015625e-03
1.362688e-09,7.390625e-03
1.366687e-09,7.359375e-03
1.370687e-09,7.328125e-03
1.374687e-09,6.906250e-03
1.378687e-09,7.468750e-03
1.382687e-09,7.250000e-03
1.386687e-09,7.421875e-03
1.390687e-09,8.000000e-03
1.394687e-09,8.343750e-03
1.398687e-09,8.312500e-03
1.402688e-09,8.062500e-03
1.406688e-09,8.203125e-03
1.410688e-09,8.750000e-03
1.414688e-09,8.468750e-03
1.418688e-09,9.203125e-03
1.422688e-09,9.515625e-03
1.426687e-09,9.812500e-03
1.430687e-09,8.718750e-03
1.434687e-09,9.609375e-03
1.438687e-09,8.890625e-03
1.442687e-09,1.015625e-02
1.446687e-09,1.001563e-02
1.450687e-09,9.875000e-03
1.454687e-09,9.312500e-03
1.458687e-09,9.750000e-03
1.462688e-09,9.375000e-03
1.466688e-09,9.406250e-03
1.470688e-09,9.828125e-03
1.474688e-09,1.004688e-02
1.478688e-09,9.843750e-03
1.482688e-09,9.453125e-03
1.486687e-09,9.437500e-03
1.490687e-09,9.843750e-03
1.494687e-09,9.437500e-03
1.498687e-09,1.003125e-02
1.502687e-09,1.021875e-02
1.506687e-09,1.040625e-02
1.510687e-09,9.187500e-03
1.514687e-09,9.984375e-03
1.518687e-09,9.156250e-03
1.522687e-09,1.034375e-02
1.526688e-09,1.012500e-02
1.530688e-09,9.906250e-03
1.534688e-09,9.265625e-03
1.538688e-09,9.656250e-03
1.542688e-09,9.218750e-03
1.546687e-09,9.187500e-03
1.550687e-09,9.562500e-03
1.554687e-09,9.718750e-03
1.558687e-09,9.484375e-03
1.562687e-09,9.031250e-03
1.566687e-09,8.984375e-03
1.570687e-09,9.328125e-03
1.574687e-09,8.875000e-03
1.578687e-09,9.406250e-03
1.582687e-09,9.531250e-03
1.586688e-09,9.640625e-03
1.590688e-09,8.343750e-03
1.594688e-09,9.046875e-03
1.598688e-09,8.125000e-03
1.602688e-09,9.218750e-03
1.606687e-09,8.890625e-03
1.610687e-09,8.546875e-03
1.614687e-09,7.781250e-03
1.618687e-09,8.015625e-03
1.622687e-09,7.453125e-03
1.626687e-09,7.265625e-03
1.630687e-09,7.484375e-03
1.634687e-09,7.468750e-03
1.638687e-09,7.062500e-03
1.642687e-09,6.437500e-03
1.646688e-09,6.218750e-03
1.650688e-09,6.390625e-03
1.654688e-09,5.734375e-03
1.658688e-09,6.109375e-03
1.662688e-09,6.046875e-03
1.666687e-09,6.015625e-03
1.670687e-09,4.546875e-03
1.674687e-09,5.093750e-03
1.678687e-09,4.046875e-03
1.682687e-09,5.015625e-03
1.686687e-09,4.578125e-03
1.690687e-09,4.125000e-03
1.694687e-09,3.296875e-03
1.698687e-09,3.484375e-03
1.702687e-09,2.890625e-03
1.706688e-09,2.687500e-03
1.710688e-09,2.921875e-03
1.714688e-09,2.953125e-03
1.718688e-09,2.609375e-03
1.722688e-09,2.062500e-03
1.726687e-09,1.953125e-03
1.730687e-09,2.281250e-03
1.734687e-09,1.796875e-03
1.738687e-09,2.343750e-03
1.742687e-09,2.531250e-03
1.746687e-09,2.718750e-03
1.750687e-09,1.531250e-03
1.754687e-09,2.375000e-03
1.758687e-09,1.625000e-03
