Measurements-streak-laser-independent/Photodiode-on-Tek-12bit-4GHz/Tek000_ch1_20190613133019727.csv

Model,MSO64
Waveform Type,ANALOG
Horizontal Units,s
Sample Interval,4.000000e-12
Record Length,1000
Zero Index,310.921875
Vertical Units,V

TIME,CH1
-1.243687e-09,4.656250e-03
-1.239687e-09,5.531250e-03
-1.235687e-09,4.812500e-03
-1.231687e-09,6.109375e-03
-1.227687e-09,6.000000e-03
-1.223687e-09,5.875000e-03
-1.219687e-09,5.343750e-03
-1.215687e-09,5.828125e-03
-1.211688e-09,5.500000e-03
-1.207688e-09,5.562500e-03
-1.203688e-09,6.031250e-03
-1.199688e-09,6.296875e-03
-1.195688e-09,6.140625e-03
-1.191688e-09,5.765625e-03
-1.187687e-09,5.812500e-03
-1.183687e-09,6.234375e-03
-1.179687e-09,5.843750e-03
-1.175687e-09,6.453125e-03
-1.171687e-09,6.640625e-03
-1.167687e-09,6.828125e-03
-1.163687e-09,5.578125e-03
-1.159687e-09,6.343750e-03
-1.155687e-09,5.484375e-03
-1.151688e-09,6.625000e-03
-1.147688e-09,6.343750e-03
-1.143688e-09,6.062500e-03
-1.139688e-09,5.343750e-03
-1.135688e-09,5.656250e-03
-1.131688e-09,5.125000e-03
-1.127687e-09,5.000000e-03
-1.123687e-09,5.265625e-03
-1.119687e-09,5.328125e-03
-1.115687e-09,4.984375e-03
-1.111687e-09,4.421875e-03
-1.107687e-09,4.250000e-03
-1.103687e-09,4.500000e-03
-1.099687e-09,3.937500e-03
-1.095687e-09,4.375000e-03
-1.091688e-09,4.406250e-03
-1.087688e-09,4.437500e-03
-1.083688e-09,3.062500e-03
-1.079688e-09,3.718750e-03
-1.075688e-09,2.750000e-03
-1.071688e-09,3.812500e-03
-1.067687e-09,3.468750e-03
-1.063687e-09,3.125000e-03
-1.059687e-09,2.375000e-03
-1.055687e-09,2.656250e-03
-1.051687e-09,2.140625e-03
-1.047687e-09,2.046875e-03
-1.043687e-09,2.359375e-03
-1.039687e-09,2.468750e-03
-1.035687e-09,2.203125e-03
-1.031688e-09,1.734375e-03
-1.027688e-09,1.687500e-03
-1.023688e-09,2.078125e-03
-1.019688e-09,1.640625e-03
-1.015688e-09,2.250000e-03
-1.011688e-09,2.453125e-03
-1.007687e-09,2.671875e-03
-1.003687e-09,1.500000e-03
-9.996875e-10,2.343750e-03
-9.956875e-10,1.578125e-03
-9.916875e-10,2.859375e-03
-9.876875e-10,2.734375e-03
-9.836875e-10,2.609375e-03
-9.796875e-10,2.093750e-03
-9.756875e-10,2.593750e-03
-9.716875e-10,2.296875e-03
-9.676875e-10,2.421875e-03
-9.636875e-10,2.937500e-03
-9.596875e-10,3.265625e-03
-9.556875e-10,3.187500e-03
-9.516875e-10,2.906250e-03
-9.476875e-10,3.046875e-03
-9.436875e-10,3.578125e-03
-9.396875e-10,3.296875e-03
-9.356875e-10,4.031250e-03
-9.316875e-10,4.375000e-03
-9.276875e-10,4.703125e-03
-9.236875e-10,3.609375e-03
-9.196875e-10,4.531250e-03
-9.156875e-10,3.828125e-03
-9.116875e-10,5.125000e-03
-9.076875e-10,5.015625e-03
-9.036875e-10,4.906250e-03
-8.996875e-10,4.390625e-03
-8.956875e-10,4.875000e-03
-8.916875e-10,4.531250e-03
-8.876875e-10,4.609375e-03
-8.836875e-10,5.062500e-03
-8.796875e-10,5.312500e-03
-8.756875e-10,5.156250e-03
-8.716875e-10,4.781250e-03
-8.676875e-10,4.796875e-03
-8.636875e-10,5.203125e-03
-8.596875e-10,4.812500e-03
-8.556875e-10,5.406250e-03
-8.516875e-10,5.609375e-03
-8.476875e-10,5.796875e-03
-8.436875e-10,4.593750e-03
-8.396875e-10,5.375000e-03
-8.356875e-10,4.546875e-03
-8.316875e-10,5.656250e-03
-8.276875e-10,5.453125e-03
-8.236875e-10,5.218750e-03
-8.196875e-10,4.593750e-03
-8.156875e-10,4.953125e-03
-8.116875e-10,4.500000e-03
-8.076875e-10,4.500000e-03
-8.036875e-10,4.875000e-03
-7.996875e-10,5.031250e-03
-7.956875e-10,4.843750e-03
-7.916875e-10,4.406250e-03
-7.876875e-10,4.390625e-03
-7.836875e-10,4.765625e-03
-7.796875e-10,4.359375e-03
-7.756875e-10,4.953125e-03
-7.716875e-10,5.156250e-03
-7.676875e-10,5.359375e-03
-7.636875e-10,4.203125e-03
-7.596875e-10,5.031250e-03
-7.556875e-10,4.265625e-03
-7.516875e-10,5.406250e-03
-7.476875e-10,5.296875e-03
-7.436875e-10,5.140625e-03
-7.396875e-10,4.625000e-03
-7.356875e-10,5.078125e-03
-7.316875e-10,4.718750e-03
-7.276875e-10,4.828125e-03
-7.236875e-10,5.296875e-03
-7.196875e-10,5.562500e-03
-7.156875e-10,5.531250e-03
-7.116875e-10,5.203125e-03
-7.076875e-10,5.281250e-03
-7.036875e-10,5.765625e-03
-6.996875e-10,5.484375e-03
-6.956875e-10,6.171875e-03
-6.916875e-10,6.484375e-03
-6.876875e-10,6.781250e-03
-6.836875e-10,5.687500e-03
-6.796875e-10,6.625000e-03
-6.756875e-10,5.953125e-03
-6.716875e-10,7.156250e-03
-6.676875e-10,7.109375e-03
-6.636875e-10,7.046875e-03
-6.596875e-10,6.578125e-03
-6.556875e-10,7.046875e-03
-6.516875e-10,6.703125e-03
-6.476875e-10,6.843750e-03
-6.436875e-10,7.343750e-03
-6.396875e-10,7.578125e-03
-6.356875e-10,7.578125e-03
-6.316875e-10,7.234375e-03
-6.276875e-10,7.296875e-03
-6.236875e-10,7.750000e-03
-6.196875e-10,7.453125e-03
-6.156875e-10,8.109375e-03
-6.116875e-10,8.375000e-03
-6.076875e-10,8.609375e-03
-6.036875e-10,7.437500e-03
-5.996875e-10,8.296875e-03
-5.956875e-10,7.609375e-03
-5.916875e-10,8.734375e-03
-5.876875e-10,8.640625e-03
-5.836875e-10,8.500000e-03
-5.796875e-10,7.953125e-03
-5.756875e-10,8.343750e-03
-5.716875e-10,7.921875e-03
-5.676875e-10,7.984375e-03
-5.636875e-10,8.406250e-03
-5.596875e-10,8.562500e-03
-5.556875e-10,8.468750e-03
-5.516875e-10,8.062500e-03
-5.476875e-10,8.046875e-03
-5.436875e-10,8.453125e-03
-5.396875e-10,8.062500e-03
-5.356875e-10,8.656250e-03
-5.316875e-10,8.843750e-03
-5.276875e-10,9.000000e-03
-5.236875e-10,7.750000e-03
-5.196875e-10,8.515625e-03
-5.156875e-10,7.765625e-03
-5.116875e-10,8.812500e-03
-5.076875e-10,8.671875e-03
-5.036875e-10,8.406250e-03
-4.996875e-10,7.781250e-03
-4.956875e-10,8.093750e-03
-4.916875e-10,7.609375e-03
-4.876875e-10,7.562500e-03
-4.836875e-10,7.890625e-03
-4.796875e-10,7.953125e-03
-4.756875e-10,7.718750e-03
-4.716875e-10,7.203125e-03
-4.676875e-10,7.109375e-03
-4.636875e-10,7.421875e-03
-4.596875e-10,6.890625e-03
-4.556875e-10,7.375000e-03
-4.516875e-10,7.421875e-03
-4.476875e-10,7.453125e-03
-4.436875e-10,6.093750e-03
-4.396875e-10,6.671875e-03
-4.356875e-10,5.796875e-03
-4.316875e-10,6.718750e-03
-4.276875e-10,6.437500e-03
-4.236875e-10,6.015625e-03
-4.196875e-10,5.250000e-03
-4.156875e-10,5.437500e-03
-4.116875e-10,4.859375e-03
-4.076875e-10,4.625000e-03
-4.036875e-10,4.843750e-03
-3.996875e-10,4.781250e-03
-3.956875e-10,4.390625e-03
-3.916875e-10,3.796875e-03
-3.876875e-10,3.625000e-03
-3.836875e-10,3.859375e-03
-3.796875e-10,3.218750e-03
-3.756875e-10,3.656250e-03
-3.716875e-10,3.656250e-03
-3.676875e-10,3.656250e-03
-3.636875e-10,2.296875e-03
-3.596875e-10,2.843750e-03
-3.556875e-10,1.968750e-03
-3.516875e-10,2.937500e-03
-3.476875e-10,2.687500e-03
-3.436875e-10,2.328125e-03
-3.396875e-10,1.671875e-03
-3.356875e-10,1.968750e-03
-3.316875e-10,1.531250e-03
-3.276875e-10,1.421875e-03
-3.236875e-10,1.781250e-03
-3.196875e-10,1.906250e-03
-3.156875e-10,1.671875e-03
-3.116875e-10,1.312500e-03
-3.076875e-10,1.359375e-03
-3.036875e-10,1.828125e-03
-2.996875e-10,1.437500e-03
-2.956875e-10,2.093750e-03
-2.916875e-10,2.406250e-03
-2.876875e-10,2.671875e-03
-2.836875e-10,1.609375e-03
-2.796875e-10,2.453125e-03
-2.756875e-10,1.843750e-03
-2.716875e-10,3.109375e-03
-2.676875e-10,3.125000e-03
-2.636875e-10,3.078125e-03
-2.596875e-10,2.718750e-03
-2.556875e-10,3.281250e-03
-2.516875e-10,3.093750e-03
-2.476875e-10,3.250000e-03
-2.436875e-10,3.828125e-03
-2.396875e-10,4.171875e-03
-2.356875e-10,4.156250e-03
-2.316875e-10,4.015625e-03
-2.276875e-10,4.218750e-03
-2.236875e-10,4.796875e-03
-2.196875e-10,4.578125e-03
-2.156875e-10,5.328125e-03
-2.116875e-10,5.734375e-03
-2.076875e-10,6.078125e-03
-2.036875e-10,5.093750e-03
-1.996875e-10,5.968750e-03
-1.956875e-10,5.343750e-03
-1.916875e-10,6.625000e-03
-1.876875e-10,6.593750e-03
-1.836875e-10,6.515625e-03
-1.796875e-10,6.125000e-03
-1.756875e-10,6.625000e-03
-1.716875e-10,6.359375e-03
-1.676875e-10,6.453125e-03
-1.636875e-10,6.937500e-03
-1.596875e-10,7.218750e-03
-1.556875e-10,7.125000e-03
-1.516875e-10,6.921875e-03
-1.476875e-10,7.062500e-03
-1.436875e-10,7.562500e-03
-1.396875e-10,7.328125e-03
-1.356875e-10,8.093750e-03
-1.316875e-10,8.484375e-03
-1.276875e-10,8.906250e-03
-1.236875e-10,8.031250e-03
-1.196875e-10,9.031250e-03
-1.156875e-10,8.546875e-03
-1.116875e-10,1.007813e-02
-1.076875e-10,1.026563e-02
-1.036875e-10,1.051563e-02
-9.968750e-11,1.050000e-02
-9.568750e-11,1.143750e-02
-9.168750e-11,1.165625e-02
-8.768750e-11,1.232813e-02
-8.368750e-11,1.343750e-02
-7.968750e-11,1.443750e-02
-7.568750e-11,1.507813e-02
-7.168750e-11,1.571875e-02
-6.768750e-11,1.675000e-02
-6.368750e-11,1.818750e-02
-5.968750e-11,1.900000e-02
-5.568750e-11,2.087500e-02
-5.168750e-11,2.243750e-02
-4.768750e-11,2.412500e-02
-4.368750e-11,2.457813e-02
-3.968750e-11,2.695313e-02
-3.568750e-11,2.787500e-02
-3.168750e-11,3.090625e-02
-2.768750e-11,3.259375e-02
-2.368750e-11,3.443750e-02
-1.968750e-11,3.603125e-02
-1.568750e-11,3.860938e-02
-1.168750e-11,4.051563e-02
-7.687500e-12,4.287500e-02
-3.687500e-12,4.571875e-02
3.125000e-13,4.848438e-02
4.312500e-12,5.082813e-02
8.312500e-12,5.318750e-02
1.231250e-11,5.593750e-02
1.631250e-11,5.904688e-02
2.031250e-11,6.154688e-02
2.431250e-11,6.506250e-02
2.831250e-11,6.821875e-02
3.231250e-11,7.148438e-02
3.631250e-11,7.342188e-02
4.031250e-11,7.721875e-02
4.431250e-11,7.951563e-02
4.831250e-11,8.381250e-02
5.231250e-11,8.667188e-02
5.631250e-11,8.965625e-02
6.031250e-11,9.223438e-02
6.431250e-11,9.570313e-02
6.831250e-11,9.842188e-02
7.231250e-11,1.014688e-01
7.631250e-11,1.048750e-01
8.031250e-11,1.081250e-01
8.431250e-11,1.107656e-01
8.831250e-11,1.133125e-01
9.231250e-11,1.161250e-01
9.631250e-11,1.191875e-01
1.003125e-10,1.215000e-01
1.043125e-10,1.246875e-01
1.083125e-10,1.273281e-01
1.123125e-10,1.300156e-01
1.163125e-10,1.312031e-01
1.203125e-10,1.341719e-01
1.243125e-10,1.354688e-01
1.283125e-10,1.386250e-01
1.323125e-10,1.402188e-01
1.363125e-10,1.418438e-01
1.403125e-10,1.429063e-01
1.443125e-10,1.447500e-01
1.483125e-10,1.457656e-01
1.523125e-10,1.469844e-01
1.563125e-10,1.484688e-01
1.603125e-10,1.497188e-01
1.643125e-10,1.502500e-01
1.683125e-10,1.505938e-01
1.723125e-10,1.511563e-01
1.763125e-10,1.519063e-01
1.803125e-10,1.518438e-01
1.843125e-10,1.525781e-01
1.883125e-10,1.527188e-01
1.923125e-10,1.528750e-01
1.963125e-10,1.514844e-01
2.003125e-10,1.518906e-01
2.043125e-10,1.505938e-01
2.083125e-10,1.511094e-01
2.123125e-10,1.500781e-01
2.163125e-10,1.490781e-01
2.203125e-10,1.475156e-01
2.243125e-10,1.467656e-01
2.283125e-10,1.452344e-01
2.323125e-10,1.439375e-01
2.363125e-10,1.428906e-01
2.403125e-10,1.416875e-01
2.443125e-10,1.397969e-01
2.483125e-10,1.377656e-01
2.523125e-10,1.360156e-01
2.563125e-10,1.345313e-01
2.603125e-10,1.322813e-01
2.643125e-10,1.308906e-01
2.683125e-10,1.289844e-01
2.723125e-10,1.271875e-01
2.763125e-10,1.238906e-01
2.803125e-10,1.225000e-01
2.843125e-10,1.195156e-01
2.883125e-10,1.183906e-01
2.923125e-10,1.158125e-01
2.963125e-10,1.133438e-01
3.003125e-10,1.104219e-01
3.043125e-10,1.084219e-01
3.083125e-10,1.057500e-01
3.123125e-10,1.033750e-01
3.163125e-10,1.013438e-01
3.203125e-10,9.923438e-02
3.243125e-10,9.657813e-02
3.283125e-10,9.384375e-02
3.323125e-10,9.148438e-02
3.363125e-10,8.950000e-02
3.403125e-10,8.681250e-02
3.443125e-10,8.506250e-02
3.483125e-10,8.292188e-02
3.523125e-10,8.095313e-02
3.563125e-10,7.756250e-02
3.603125e-10,7.618750e-02
3.643125e-10,7.329688e-02
3.683125e-10,7.229688e-02
3.723125e-10,6.996875e-02
3.763125e-10,6.779688e-02
3.803125e-10,6.523438e-02
3.843125e-10,6.368750e-02
3.883125e-10,6.150000e-02
3.923125e-10,5.968750e-02
3.963125e-10,5.823438e-02
4.003125e-10,5.676563e-02
4.043125e-10,5.485938e-02
4.083125e-10,5.287500e-02
4.123125e-10,5.129688e-02
4.163125e-10,5.015625e-02
4.203125e-10,4.831250e-02
4.243125e-10,4.743750e-02
4.283125e-10,4.625000e-02
4.323125e-10,4.520313e-02
4.363125e-10,4.276563e-02
4.403125e-10,4.239063e-02
4.443125e-10,4.051563e-02
4.483125e-10,4.051563e-02
4.523125e-10,3.921875e-02
4.563125e-10,3.804688e-02
4.603125e-10,3.650000e-02
4.643125e-10,3.595313e-02
4.683125e-10,3.476563e-02
4.723125e-10,3.393750e-02
4.763125e-10,3.345313e-02
4.803125e-10,3.293750e-02
4.843125e-10,3.200000e-02
4.883125e-10,3.095313e-02
4.923125e-10,3.028125e-02
4.963125e-10,3.003125e-02
5.003125e-10,2.903125e-02
5.043125e-10,2.895313e-02
5.083125e-10,2.857813e-02
5.123125e-10,2.826563e-02
5.163125e-10,2.656250e-02
5.203125e-10,2.685938e-02
5.243125e-10,2.564063e-02
5.283125e-10,2.628125e-02
5.323125e-10,2.560938e-02
5.363125e-10,2.493750e-02
5.403125e-10,2.392188e-02
5.443125e-10,2.385938e-02
5.483125e-10,2.306250e-02
5.523125e-10,2.262500e-02
5.563125e-10,2.251563e-02
5.603125e-10,2.232813e-02
5.643125e-10,2.173438e-02
5.683125e-10,2.093750e-02
5.723125e-10,2.053125e-02
5.763125e-10,2.048438e-02
5.803125e-10,1.968750e-02
5.843125e-10,1.976563e-02
5.883125e-10,1.954688e-02
5.923125e-10,1.932813e-02
5.963125e-10,1.775000e-02
6.003125e-10,1.809375e-02
6.043125e-10,1.696875e-02
6.083125e-10,1.768750e-02
6.123125e-10,1.709375e-02
6.163125e-10,1.643750e-02
6.203125e-10,1.545313e-02
6.243125e-10,1.546875e-02
6.283125e-10,1.467188e-02
6.323125e-10,1.425000e-02
6.363125e-10,1.418750e-02
6.403125e-10,1.404688e-02
6.443125e-10,1.351563e-02
6.483125e-10,1.275000e-02
6.523125e-10,1.245313e-02
6.563125e-10,1.245313e-02
6.603125e-10,1.175000e-02
6.643125e-10,1.195313e-02
6.683125e-10,1.187500e-02
6.723125e-10,1.171875e-02
6.763125e-10,1.031250e-02
6.803125e-10,1.079688e-02
6.843125e-10,9.843750e-03
6.883125e-10,1.075000e-02
6.923125e-10,1.035938e-02
6.963125e-10,9.937500e-03
7.003125e-10,9.156250e-03
7.043125e-10,9.421875e-03
7.083125e-10,8.843750e-03
7.123125e-10,8.656250e-03
7.163125e-10,8.890625e-03
7.203125e-10,9.015625e-03
7.243125e-10,8.765625e-03
7.283125e-10,8.265625e-03
7.323125e-10,8.250000e-03
7.363125e-10,8.531250e-03
7.403125e-10,8.109375e-03
7.443125e-10,8.625000e-03
7.483125e-10,8.828125e-03
7.523125e-10,8.921875e-03
7.563125e-10,7.796875e-03
7.603125e-10,8.515625e-03
7.643125e-10,7.796875e-03
7.683125e-10,8.968750e-03
7.723125e-10,8.796875e-03
7.763125e-10,8.625000e-03
7.803125e-10,8.000000e-03
7.843125e-10,8.437500e-03
7.883125e-10,8.031250e-03
7.923125e-10,8.000000e-03
7.963125e-10,8.390625e-03
8.003125e-10,8.578125e-03
8.043125e-10,8.437500e-03
8.083125e-10,8.000000e-03
8.123125e-10,8.015625e-03
8.163125e-10,8.375000e-03
8.203125e-10,7.984375e-03
8.243125e-10,8.531250e-03
8.283125e-10,8.718750e-03
8.323125e-10,8.781250e-03
8.363125e-10,7.640625e-03
8.403125e-10,8.281250e-03
8.443125e-10,7.484375e-03
8.483125e-10,8.625000e-03
8.523125e-10,8.375000e-03
8.563125e-10,8.109375e-03
8.603125e-10,7.421875e-03
8.643125e-10,7.734375e-03
8.683125e-10,7.234375e-03
8.723125e-10,7.140625e-03
8.763125e-10,7.437500e-03
8.803125e-10,7.484375e-03
8.843125e-10,7.265625e-03
8.883125e-10,6.750000e-03
8.923125e-10,6.640625e-03
8.963125e-10,6.968750e-03
9.003125e-10,6.531250e-03
9.043125e-10,7.000000e-03
9.083125e-10,7.125000e-03
9.123125e-10,7.171875e-03
9.163125e-10,6.000000e-03
9.203125e-10,6.656250e-03
9.243125e-10,5.812500e-03
9.283125e-10,6.968750e-03
9.323125e-10,6.750000e-03
9.363125e-10,6.515625e-03
9.403125e-10,5.890625e-03
9.443125e-10,6.250000e-03
9.483125e-10,5.828125e-03
9.523125e-10,5.828125e-03
9.563125e-10,6.250000e-03
9.603125e-10,6.343750e-03
9.643125e-10,6.218750e-03
9.683125e-10,5.843750e-03
9.723125e-10,5.828125e-03
9.763125e-10,6.296875e-03
9.803125e-10,5.968750e-03
9.843125e-10,6.578125e-03
9.883125e-10,6.812500e-03
9.923125e-10,6.984375e-03
9.963125e-10,5.968750e-03
1.000313e-09,6.750000e-03
1.004312e-09,6.000000e-03
1.008312e-09,7.265625e-03
1.012312e-09,7.156250e-03
1.016312e-09,7.000000e-03
1.020312e-09,6.468750e-03
1.024312e-09,6.906250e-03
1.028312e-09,6.562500e-03
1.032312e-09,6.625000e-03
1.036312e-09,7.078125e-03
1.040313e-09,7.218750e-03
1.044313e-09,7.109375e-03
1.048313e-09,6.734375e-03
1.052313e-09,6.718750e-03
1.056313e-09,7.156250e-03
1.060313e-09,6.812500e-03
1.064312e-09,7.375000e-03
1.068312e-09,7.562500e-03
1.072312e-09,7.703125e-03
1.076312e-09,6.609375e-03
1.080312e-09,7.359375e-03
1.084312e-09,6.546875e-03
1.088312e-09,7.703125e-03
1.092312e-09,7.500000e-03
1.096312e-09,7.265625e-03
1.100313e-09,6.656250e-03
1.104313e-09,7.015625e-03
1.108313e-09,6.593750e-03
1.112313e-09,6.578125e-03
1.116313e-09,6.968750e-03
1.120313e-09,7.078125e-03
1.124312e-09,6.890625e-03
1.128312e-09,6.484375e-03
1.132312e-09,6.437500e-03
1.136312e-09,6.859375e-03
1.140312e-09,6.500000e-03
1.144312e-09,7.078125e-03
1.148312e-09,7.312500e-03
1.152312e-09,7.500000e-03
1.156312e-09,6.453125e-03
1.160313e-09,7.296875e-03
1.164313e-09,6.562500e-03
1.168313e-09,7.828125e-03
1.172313e-09,7.734375e-03
1.176313e-09,7.640625e-03
1.180313e-09,7.171875e-03
1.184312e-09,7.703125e-03
1.188312e-09,7.453125e-03
1.192312e-09,7.609375e-03
1.196312e-09,8.187500e-03
1.200312e-09,8.546875e-03
1.204312e-09,8.546875e-03
1.208312e-09,8.343750e-03
1.212312e-09,8.531250e-03
1.216312e-09,9.171875e-03
1.220313e-09,9.000000e-03
1.224313e-09,9.812500e-03
1.228313e-09,1.025000e-02
1.232313e-09,1.065625e-02
1.236313e-09,9.750000e-03
1.240313e-09,1.078125e-02
1.244312e-09,1.021875e-02
1.248312e-09,1.164063e-02
1.252312e-09,1.165625e-02
1.256312e-09,1.167188e-02
1.260312e-09,1.128125e-02
1.264312e-09,1.185938e-02
1.268312e-09,1.164063e-02
1.272312e-09,1.181250e-02
1.276312e-09,1.237500e-02
1.280313e-09,1.268750e-02
1.284313e-09,1.260938e-02
1.288313e-09,1.229688e-02
1.292313e-09,1.235938e-02
1.296313e-09,1.282813e-02
1.300313e-09,1.245313e-02
1.304312e-09,1.306250e-02
1.308312e-09,1.323438e-02
1.312312e-09,1.339063e-02
1.316312e-09,1.215625e-02
1.320312e-09,1.285938e-02
1.324312e-09,1.193750e-02
1.328312e-09,1.300000e-02
1.332312e-09,1.264063e-02
1.336312e-09,1.225000e-02
1.340313e-09,1.143750e-02
1.344313e-09,1.160938e-02
1.348313e-09,1.095313e-02
1.352313e-09,1.068750e-02
1.356313e-09,1.081250e-02
1.360313e-09,1.070313e-02
1.364312e-09,1.018750e-02
1.368312e-09,9.453125e-03
1.372312e-09,9.125000e-03
1.376312e-09,9.187500e-03
1.380312e-09,8.437500e-03
1.384312e-09,8.671875e-03
1.388312e-09,8.515625e-03
1.392312e-09,8.359375e-03
1.396312e-09,6.828125e-03
1.400313e-09,7.281250e-03
1.404313e-09,6.140625e-03
1.408313e-09,7.015625e-03
1.412313e-09,6.484375e-03
1.416313e-09,5.984375e-03
1.420313e-09,5.078125e-03
1.424312e-09,5.218750e-03
1.428312e-09,4.562500e-03
1.432312e-09,4.328125e-03
1.436312e-09,4.515625e-03
1.440312e-09,4.531250e-03
1.444312e-09,4.156250e-03
1.448312e-09,3.609375e-03
1.452312e-09,3.484375e-03
1.456312e-09,3.796875e-03
1.460313e-09,3.328125e-03
1.464313e-09,3.890625e-03
1.468313e-09,4.078125e-03
1.472313e-09,4.281250e-03
1.476313e-09,3.125000e-03
1.480312e-09,3.984375e-03
1.484312e-09,3.265625e-03
1.488312e-09,4.578125e-03
1.492312e-09,4.500000e-03
1.496312e-09,4.437500e-03
1.500312e-09,4.000000e-03
1.504312e-09,4.578125e-03
1.508312e-09,4.375000e-03
1.512312e-09,4.562500e-03
1.516312e-09,5.187500e-03
1.520313e-09,5.609375e-03
1.524313e-09,5.640625e-03
1.528313e-09,5.468750e-03
1.532313e-09,5.703125e-03
1.536313e-09,6.343750e-03
1.540312e-09,6.187500e-03
1.544312e-09,7.015625e-03
1.548312e-09,7.437500e-03
1.552312e-09,7.859375e-03
1.556312e-09,6.859375e-03
1.560312e-09,7.859375e-03
1.564312e-09,7.218750e-03
1.568312e-09,8.593750e-03
1.572312e-09,8.546875e-03
1.576312e-09,8.468750e-03
1.580313e-09,7.968750e-03
1.584313e-09,8.468750e-03
1.588313e-09,8.125000e-03
1.592313e-09,8.171875e-03
1.596313e-09,8.593750e-03
1.600312e-09,8.796875e-03
1.604312e-09,8.578125e-03
1.608312e-09,8.125000e-03
1.612312e-09,8.062500e-03
1.616312e-09,8.375000e-03
1.620312e-09,7.859375e-03
1.624312e-09,8.343750e-03
1.628312e-09,8.390625e-03
1.632312e-09,8.421875e-03
1.636312e-09,7.031250e-03
1.640313e-09,7.640625e-03
1.644313e-09,6.625000e-03
1.648313e-09,7.609375e-03
1.652313e-09,7.171875e-03
1.656313e-09,6.718750e-03
1.660312e-09,5.875000e-03
1.664312e-09,6.015625e-03
1.668312e-09,5.359375e-03
1.672312e-09,5.109375e-03
1.676312e-09,5.250000e-03
1.680312e-09,5.187500e-03
1.684312e-09,4.750000e-03
1.688312e-09,4.093750e-03
1.692312e-09,3.875000e-03
1.696312e-09,4.046875e-03
1.700313e-09,3.437500e-03
1.704313e-09,3.843750e-03
1.708313e-09,3.859375e-03
1.712313e-09,3.890625e-03
1.716313e-09,2.531250e-03
1.720312e-09,3.218750e-03
1.724312e-09,2.296875e-03
1.728312e-09,3.406250e-03
1.732312e-09,3.140625e-03
1.736312e-09,2.875000e-03
1.740312e-09,2.250000e-03
1.744312e-09,2.640625e-03
1.748312e-09,2.250000e-03
1.752312e-09,2.281250e-03
1.756312e-09,2.734375e-03
