Measurements-streak-laser-independent/Photodiode-on-Tek-12bit-4GHz/Tek000_ch1_20190613133054025.csv

Model,MSO64
Waveform Type,ANALOG
Horizontal Units,s
Sample Interval,4.000000e-12
Record Length,1000
Zero Index,310.453125
Vertical Units,V

TIME,CH1
-1.241813e-09,7.875000e-03
-1.237813e-09,7.609375e-03
-1.233813e-09,8.328125e-03
-1.229812e-09,8.625000e-03
-1.225812e-09,8.890625e-03
-1.221812e-09,7.718750e-03
-1.217812e-09,8.546875e-03
-1.213812e-09,7.734375e-03
-1.209812e-09,8.937500e-03
-1.205812e-09,8.687500e-03
-1.201812e-09,8.421875e-03
-1.197812e-09,7.734375e-03
-1.193813e-09,8.046875e-03
-1.189813e-09,7.531250e-03
-1.185813e-09,7.406250e-03
-1.181813e-09,7.671875e-03
-1.177813e-09,7.718750e-03
-1.173813e-09,7.359375e-03
-1.169812e-09,6.781250e-03
-1.165812e-09,6.609375e-03
-1.161812e-09,6.843750e-03
-1.157812e-09,6.250000e-03
-1.153812e-09,6.671875e-03
-1.149812e-09,6.687500e-03
-1.145812e-09,6.703125e-03
-1.141812e-09,5.296875e-03
-1.137812e-09,5.921875e-03
-1.133813e-09,4.937500e-03
-1.129813e-09,6.000000e-03
-1.125813e-09,5.625000e-03
-1.121813e-09,5.281250e-03
-1.117813e-09,4.531250e-03
-1.113813e-09,4.812500e-03
-1.109812e-09,4.281250e-03
-1.105812e-09,4.187500e-03
-1.101812e-09,4.500000e-03
-1.097812e-09,4.640625e-03
-1.093812e-09,4.375000e-03
-1.089812e-09,3.921875e-03
-1.085812e-09,3.906250e-03
-1.081812e-09,4.296875e-03
-1.077812e-09,3.890625e-03
-1.073813e-09,4.515625e-03
-1.069813e-09,4.750000e-03
-1.065813e-09,5.000000e-03
-1.061813e-09,3.843750e-03
-1.057813e-09,4.734375e-03
-1.053813e-09,4.000000e-03
-1.049812e-09,5.312500e-03
-1.045812e-09,5.218750e-03
-1.041812e-09,5.125000e-03
-1.037812e-09,4.640625e-03
-1.033812e-09,5.171875e-03
-1.029812e-09,4.906250e-03
-1.025812e-09,5.031250e-03
-1.021812e-09,5.578125e-03
-1.017812e-09,5.921875e-03
-1.013813e-09,5.843750e-03
-1.009813e-09,5.578125e-03
-1.005813e-09,5.703125e-03
-1.001813e-09,6.234375e-03
-9.978125e-10,5.937500e-03
-9.938125e-10,6.656250e-03
-9.898125e-10,6.953125e-03
-9.858125e-10,7.250000e-03
-9.818125e-10,6.109375e-03
-9.778125e-10,6.968750e-03
-9.738125e-10,6.218750e-03
-9.698125e-10,7.453125e-03
-9.658125e-10,7.265625e-03
-9.618125e-10,7.062500e-03
-9.578125e-10,6.421875e-03
-9.538125e-10,6.796875e-03
-9.498125e-10,6.343750e-03
-9.458125e-10,6.281250e-03
-9.418125e-10,6.593750e-03
-9.378125e-10,6.687500e-03
-9.338125e-10,6.359375e-03
-9.298125e-10,5.812500e-03
-9.258125e-10,5.671875e-03
-9.218125e-10,5.906250e-03
-9.178125e-10,5.312500e-03
-9.138125e-10,5.718750e-03
-9.098125e-10,5.718750e-03
-9.058125e-10,5.703125e-03
-9.018125e-10,4.265625e-03
-8.978125e-10,4.843750e-03
-8.938125e-10,3.781250e-03
-8.898125e-10,4.671875e-03
-8.858125e-10,4.234375e-03
-8.818125e-10,3.781250e-03
-8.778125e-10,2.921875e-03
-8.738125e-10,3.078125e-03
-8.698125e-10,2.421875e-03
-8.658125e-10,2.203125e-03
-8.618125e-10,2.375000e-03
-8.578125e-10,2.343750e-03
-8.538125e-10,1.953125e-03
-8.498125e-10,1.343750e-03
-8.458125e-10,1.156250e-03
-8.418125e-10,1.406250e-03
-8.378125e-10,8.437500e-04
-8.338125e-10,1.312500e-03
-8.298125e-10,1.406250e-03
-8.258125e-10,1.531250e-03
-8.218125e-10,3.125000e-04
-8.178125e-10,1.078125e-03
-8.138125e-10,2.343750e-04
-8.098125e-10,1.265625e-03
-8.058125e-10,1.156250e-03
-8.018125e-10,1.000000e-03
-7.978125e-10,5.468750e-04
-7.938125e-10,1.031250e-03
-7.898125e-10,7.343750e-04
-7.858125e-10,9.375000e-04
-7.818125e-10,1.500000e-03
-7.778125e-10,1.875000e-03
-7.738125e-10,1.968750e-03
-7.698125e-10,1.781250e-03
-7.658125e-10,2.000000e-03
-7.618125e-10,2.656250e-03
-7.578125e-10,2.515625e-03
-7.538125e-10,3.390625e-03
-7.498125e-10,3.890625e-03
-7.458125e-10,4.375000e-03
-7.418125e-10,3.562500e-03
-7.378125e-10,4.687500e-03
-7.338125e-10,4.187500e-03
-7.298125e-10,5.406250e-03
-7.258125e-10,5.609375e-03
-7.218125e-10,5.718750e-03
-7.178125e-10,5.500000e-03
-7.138125e-10,6.109375e-03
-7.098125e-10,5.890625e-03
-7.058125e-10,6.250000e-03
-7.018125e-10,6.828125e-03
-6.978125e-10,7.156250e-03
-6.938125e-10,7.343750e-03
-6.898125e-10,7.031250e-03
-6.858125e-10,7.109375e-03
-6.818125e-10,7.562500e-03
-6.778125e-10,7.250000e-03
-6.738125e-10,7.843750e-03
-6.698125e-10,8.078125e-03
-6.658125e-10,8.203125e-03
-6.618125e-10,7.000000e-03
-6.578125e-10,7.750000e-03
-6.538125e-10,6.921875e-03
-6.498125e-10,7.625000e-03
-6.458125e-10,7.390625e-03
-6.418125e-10,7.062500e-03
-6.378125e-10,6.359375e-03
-6.338125e-10,6.421875e-03
-6.298125e-10,5.640625e-03
-6.258125e-10,5.531250e-03
-6.218125e-10,5.593750e-03
-6.178125e-10,5.343750e-03
-6.138125e-10,5.171875e-03
-6.098125e-10,4.359375e-03
-6.058125e-10,3.953125e-03
-6.018125e-10,3.953125e-03
-5.978125e-10,3.312500e-03
-5.938125e-10,3.515625e-03
-5.898125e-10,3.406250e-03
-5.858125e-10,3.218750e-03
-5.818125e-10,1.687500e-03
-5.778125e-10,2.234375e-03
-5.738125e-10,1.375000e-03
-5.698125e-10,1.937500e-03
-5.658125e-10,1.703125e-03
-5.618125e-10,1.375000e-03
-5.578125e-10,7.187500e-04
-5.538125e-10,8.437500e-04
-5.498125e-10,2.031250e-04
-5.458125e-10,3.125000e-04
-5.418125e-10,6.718750e-04
-5.378125e-10,6.875000e-04
-5.338125e-10,8.750000e-04
-5.298125e-10,4.843750e-04
-5.258125e-10,5.625000e-04
-5.218125e-10,1.078125e-03
-5.178125e-10,9.687500e-04
-5.138125e-10,1.781250e-03
-5.098125e-10,2.203125e-03
-5.058125e-10,2.609375e-03
-5.018125e-10,1.703125e-03
-4.978125e-10,2.812500e-03
-4.938125e-10,2.656250e-03
-4.898125e-10,3.875000e-03
-4.858125e-10,4.375000e-03
-4.818125e-10,4.593750e-03
-4.778125e-10,4.546875e-03
-4.738125e-10,5.265625e-03
-4.698125e-10,5.265625e-03
-4.658125e-10,5.812500e-03
-4.618125e-10,6.718750e-03
-4.578125e-10,7.171875e-03
-4.538125e-10,7.640625e-03
-4.498125e-10,7.640625e-03
-4.458125e-10,8.093750e-03
-4.418125e-10,8.906250e-03
-4.378125e-10,8.875000e-03
-4.338125e-10,9.890625e-03
-4.298125e-10,1.031250e-02
-4.258125e-10,1.070313e-02
-4.218125e-10,9.734375e-03
-4.178125e-10,1.059375e-02
-4.138125e-10,1.023438e-02
-4.098125e-10,1.118750e-02
-4.058125e-10,1.137500e-02
-4.018125e-10,1.112500e-02
-3.978125e-10,1.059375e-02
-3.938125e-10,1.081250e-02
-3.898125e-10,1.035938e-02
-3.858125e-10,1.015625e-02
-3.818125e-10,1.043750e-02
-3.778125e-10,1.020313e-02
-3.738125e-10,9.812500e-03
-3.698125e-10,9.109375e-03
-3.658125e-10,8.875000e-03
-3.618125e-10,8.968750e-03
-3.578125e-10,8.093750e-03
-3.538125e-10,8.312500e-03
-3.498125e-10,8.046875e-03
-3.458125e-10,7.703125e-03
-3.418125e-10,6.078125e-03
-3.378125e-10,6.156250e-03
-3.338125e-10,5.171875e-03
-3.298125e-10,5.562500e-03
-3.258125e-10,5.187500e-03
-3.218125e-10,4.421875e-03
-3.178125e-10,3.531250e-03
-3.138125e-10,3.421875e-03
-3.098125e-10,2.765625e-03
-3.058125e-10,2.265625e-03
-3.018125e-10,2.390625e-03
-2.978125e-10,2.125000e-03
-2.938125e-10,1.671875e-03
-2.898125e-10,1.156250e-03
-2.858125e-10,1.109375e-03
-2.818125e-10,1.468750e-03
-2.778125e-10,9.218750e-04
-2.738125e-10,1.468750e-03
-2.698125e-10,1.781250e-03
-2.658125e-10,1.937500e-03
-2.618125e-10,1.000000e-03
-2.578125e-10,1.687500e-03
-2.538125e-10,1.328125e-03
-2.498125e-10,2.500000e-03
-2.458125e-10,2.828125e-03
-2.418125e-10,2.875000e-03
-2.378125e-10,2.875000e-03
-2.338125e-10,3.593750e-03
-2.298125e-10,3.750000e-03
-2.258125e-10,4.046875e-03
-2.218125e-10,4.906250e-03
-2.178125e-10,5.406250e-03
-2.138125e-10,5.609375e-03
-2.098125e-10,5.875000e-03
-2.058125e-10,6.390625e-03
-2.018125e-10,7.250000e-03
-1.978125e-10,7.250000e-03
-1.938125e-10,8.171875e-03
-1.898125e-10,8.812500e-03
-1.858125e-10,9.250000e-03
-1.818125e-10,8.531250e-03
-1.778125e-10,9.296875e-03
-1.738125e-10,8.812500e-03
-1.698125e-10,9.937500e-03
-1.658125e-10,9.953125e-03
-1.618125e-10,9.750000e-03
-1.578125e-10,9.406250e-03
-1.538125e-10,9.656250e-03
-1.498125e-10,9.203125e-03
-1.458125e-10,8.937500e-03
-1.418125e-10,9.015625e-03
-1.378125e-10,8.781250e-03
-1.338125e-10,8.171875e-03
-1.298125e-10,7.625000e-03
-1.258125e-10,7.218750e-03
-1.218125e-10,7.078125e-03
-1.178125e-10,6.234375e-03
-1.138125e-10,6.296875e-03
-1.098125e-10,6.031250e-03
-1.058125e-10,5.718750e-03
-1.018125e-10,4.343750e-03
-9.781250e-11,4.484375e-03
-9.381250e-11,3.375000e-03
-8.981250e-11,4.156250e-03
-8.581250e-11,3.750000e-03
-8.181250e-11,3.437500e-03
-7.781250e-11,3.093750e-03
-7.381250e-11,3.593750e-03
-6.981250e-11,3.531250e-03
-6.581250e-11,3.937500e-03
-6.181250e-11,4.843750e-03
-5.781250e-11,5.765625e-03
-5.381250e-11,6.500000e-03
-4.981250e-11,7.609375e-03
-4.581250e-11,9.078125e-03
-4.181250e-11,1.100000e-02
-3.781250e-11,1.264063e-02
-3.381250e-11,1.548438e-02
-2.981250e-11,1.826563e-02
-2.581250e-11,2.142188e-02
-2.181250e-11,2.378125e-02
-1.781250e-11,2.789063e-02
-1.381250e-11,3.100000e-02
-9.812500e-12,3.640625e-02
-5.812500e-12,4.071875e-02
-1.812500e-12,4.557813e-02
2.187500e-12,5.059375e-02
6.187500e-12,5.667188e-02
1.018750e-11,6.242188e-02
1.418750e-11,6.884375e-02
1.818750e-11,7.596875e-02
2.218750e-11,8.337500e-02
2.618750e-11,9.053125e-02
3.018750e-11,9.825000e-02
3.418750e-11,1.064063e-01
3.818750e-11,1.150000e-01
4.218750e-11,1.234531e-01
4.618750e-11,1.330938e-01
5.018750e-11,1.425938e-01
5.418750e-11,1.525313e-01
5.818750e-11,1.615156e-01
6.218750e-11,1.720938e-01
6.618750e-11,1.815000e-01
7.018750e-11,1.930469e-01
7.418750e-11,2.032031e-01
7.818750e-11,2.138125e-01
8.218750e-11,2.241719e-01
8.618750e-11,2.352500e-01
9.018750e-11,2.457813e-01
9.418750e-11,2.565469e-01
9.818750e-11,2.676875e-01
1.021875e-10,2.788125e-01
1.061875e-10,2.890469e-01
1.101875e-10,2.994531e-01
1.141875e-10,3.098438e-01
1.181875e-10,3.201875e-01
1.221875e-10,3.300000e-01
1.261875e-10,3.404219e-01
1.301875e-10,3.500781e-01
1.341875e-10,3.598438e-01
1.381875e-10,3.679844e-01
1.421875e-10,3.773281e-01
1.461875e-10,3.849219e-01
1.501875e-10,3.940781e-01
1.541875e-10,4.013125e-01
1.581875e-10,4.086563e-01
1.621875e-10,4.150938e-01
1.661875e-10,4.217656e-01
1.701875e-10,4.275625e-01
1.741875e-10,4.331250e-01
1.781875e-10,4.385781e-01
1.821875e-10,4.437500e-01
1.861875e-10,4.474688e-01
1.901875e-10,4.510000e-01
1.941875e-10,4.542969e-01
1.981875e-10,4.572656e-01
2.021875e-10,4.594375e-01
2.061875e-10,4.618750e-01
2.101875e-10,4.632813e-01
2.141875e-10,4.647344e-01
2.181875e-10,4.642969e-01
2.221875e-10,4.650938e-01
2.261875e-10,4.640313e-01
2.301875e-10,4.643281e-01
2.341875e-10,4.627031e-01
2.381875e-10,4.611875e-01
2.421875e-10,4.588125e-01
2.461875e-10,4.567188e-01
2.501875e-10,4.539219e-01
2.541875e-10,4.509531e-01
2.581875e-10,4.479375e-01
2.621875e-10,4.448750e-01
2.661875e-10,4.404844e-01
2.701875e-10,4.360781e-01
2.741875e-10,4.317344e-01
2.781875e-10,4.273125e-01
2.821875e-10,4.222656e-01
2.861875e-10,4.177188e-01
2.901875e-10,4.124531e-01
2.941875e-10,4.075469e-01
2.981875e-10,4.009688e-01
3.021875e-10,3.960313e-01
3.061875e-10,3.895625e-01
3.101875e-10,3.846094e-01
3.141875e-10,3.781406e-01
3.181875e-10,3.720313e-01
3.221875e-10,3.653594e-01
3.261875e-10,3.593906e-01
3.301875e-10,3.530313e-01
3.341875e-10,3.467344e-01
3.381875e-10,3.406250e-01
3.421875e-10,3.347500e-01
3.461875e-10,3.279375e-01
3.501875e-10,3.212656e-01
3.541875e-10,3.149375e-01
3.581875e-10,3.088281e-01
3.621875e-10,3.022031e-01
3.661875e-10,2.963438e-01
3.701875e-10,2.900469e-01
3.741875e-10,2.842500e-01
3.781875e-10,2.768750e-01
3.821875e-10,2.714844e-01
3.861875e-10,2.647188e-01
3.901875e-10,2.595000e-01
3.941875e-10,2.530156e-01
3.981875e-10,2.469531e-01
4.021875e-10,2.404219e-01
4.061875e-10,2.347969e-01
4.101875e-10,2.288594e-01
4.141875e-10,2.230781e-01
4.181875e-10,2.175000e-01
4.221875e-10,2.122031e-01
4.261875e-10,2.062344e-01
4.301875e-10,2.003750e-01
4.341875e-10,1.948750e-01
4.381875e-10,1.897344e-01
4.421875e-10,1.840469e-01
4.461875e-10,1.791563e-01
4.501875e-10,1.740000e-01
4.541875e-10,1.692656e-01
4.581875e-10,1.630625e-01
4.621875e-10,1.589375e-01
4.661875e-10,1.534688e-01
4.701875e-10,1.495469e-01
4.741875e-10,1.445156e-01
4.781875e-10,1.398281e-01
4.821875e-10,1.347813e-01
4.861875e-10,1.306875e-01
4.901875e-10,1.262656e-01
4.941875e-10,1.221406e-01
4.981875e-10,1.181875e-01
5.021875e-10,1.145625e-01
5.061875e-10,1.104844e-01
5.101875e-10,1.065000e-01
5.141875e-10,1.028750e-01
5.181875e-10,9.973438e-02
5.221875e-10,9.604688e-02
5.261875e-10,9.312500e-02
5.301875e-10,9.012500e-02
5.341875e-10,8.745313e-02
5.381875e-10,8.350000e-02
5.421875e-10,8.157813e-02
5.461875e-10,7.842188e-02
5.501875e-10,7.681250e-02
5.541875e-10,7.425000e-02
5.581875e-10,7.179688e-02
5.621875e-10,6.920313e-02
5.661875e-10,6.751563e-02
5.701875e-10,6.540625e-02
5.741875e-10,6.365625e-02
5.781875e-10,6.209375e-02
5.821875e-10,6.084375e-02
5.861875e-10,5.920313e-02
5.901875e-10,5.753125e-02
5.941875e-10,5.628125e-02
5.981875e-10,5.537500e-02
6.021875e-10,5.389063e-02
6.061875e-10,5.310938e-02
6.101875e-10,5.228125e-02
6.141875e-10,5.154688e-02
6.181875e-10,4.959375e-02
6.221875e-10,4.945313e-02
6.261875e-10,4.812500e-02
6.301875e-10,4.828125e-02
6.341875e-10,4.737500e-02
6.381875e-10,4.635938e-02
6.421875e-10,4.514063e-02
6.461875e-10,4.484375e-02
6.501875e-10,4.381250e-02
6.541875e-10,4.307813e-02
6.581875e-10,4.254688e-02
6.621875e-10,4.217188e-02
6.661875e-10,4.135938e-02
6.701875e-10,4.029688e-02
6.741875e-10,3.970313e-02
6.781875e-10,3.918750e-02
6.821875e-10,3.809375e-02
6.861875e-10,3.765625e-02
6.901875e-10,3.710938e-02
6.941875e-10,3.637500e-02
6.981875e-10,3.453125e-02
7.021875e-10,3.432813e-02
7.061875e-10,3.298438e-02
7.101875e-10,3.306250e-02
7.141875e-10,3.201563e-02
7.181875e-10,3.085938e-02
7.221875e-10,2.934375e-02
7.261875e-10,2.890625e-02
7.301875e-10,2.753125e-02
7.341875e-10,2.648438e-02
7.381875e-10,2.576563e-02
7.421875e-10,2.515625e-02
7.461875e-10,2.417188e-02
7.501875e-10,2.284375e-02
7.541875e-10,2.212500e-02
7.581875e-10,2.146875e-02
7.621875e-10,2.031250e-02
7.661875e-10,1.989063e-02
7.701875e-10,1.943750e-02
7.741875e-10,1.864063e-02
7.781875e-10,1.701563e-02
7.821875e-10,1.692188e-02
7.861875e-10,1.581250e-02
7.901875e-10,1.629688e-02
7.941875e-10,1.565625e-02
7.981875e-10,1.501563e-02
8.021875e-10,1.396875e-02
8.061875e-10,1.407813e-02
8.101875e-10,1.331250e-02
8.141875e-10,1.293750e-02
8.181875e-10,1.304688e-02
8.221875e-10,1.312500e-02
8.261875e-10,1.300000e-02
8.301875e-10,1.250000e-02
8.341875e-10,1.260938e-02
8.381875e-10,1.295313e-02
8.421875e-10,1.273438e-02
8.461875e-10,1.332813e-02
8.501875e-10,1.381250e-02
8.541875e-10,1.393750e-02
8.581875e-10,1.329688e-02
8.621875e-10,1.406250e-02
8.661875e-10,1.376563e-02
8.701875e-10,1.523438e-02
8.741875e-10,1.545313e-02
8.781875e-10,1.565625e-02
8.821875e-10,1.537500e-02
8.861875e-10,1.610938e-02
8.901875e-10,1.603125e-02
8.941875e-10,1.631250e-02
8.981875e-10,1.701563e-02
9.021875e-10,1.737500e-02
9.061875e-10,1.768750e-02
9.101875e-10,1.753125e-02
9.141875e-10,1.778125e-02
9.181875e-10,1.840625e-02
9.221875e-10,1.832813e-02
9.261875e-10,1.898438e-02
9.301875e-10,1.934375e-02
9.341875e-10,1.937500e-02
9.381875e-10,1.859375e-02
9.421875e-10,1.909375e-02
9.461875e-10,1.839063e-02
9.501875e-10,1.956250e-02
9.541875e-10,1.935938e-02
9.581875e-10,1.906250e-02
9.621875e-10,1.831250e-02
9.661875e-10,1.843750e-02
9.701875e-10,1.784375e-02
9.741875e-10,1.757813e-02
9.781875e-10,1.770313e-02
9.821875e-10,1.728125e-02
9.861875e-10,1.695313e-02
9.901875e-10,1.618750e-02
9.941875e-10,1.568750e-02
9.981875e-10,1.576563e-02
1.002188e-09,1.509375e-02
1.006188e-09,1.514063e-02
1.010188e-09,1.489063e-02
1.014188e-09,1.440625e-02
1.018188e-09,1.320313e-02
1.022187e-09,1.332813e-02
1.026187e-09,1.217188e-02
1.030187e-09,1.295313e-02
1.034187e-09,1.246875e-02
1.038187e-09,1.190625e-02
1.042187e-09,1.100000e-02
1.046187e-09,1.101563e-02
1.050187e-09,1.037500e-02
1.054187e-09,1.015625e-02
1.058188e-09,1.035938e-02
1.062188e-09,1.004688e-02
1.066188e-09,9.828125e-03
1.070188e-09,9.328125e-03
1.074188e-09,9.078125e-03
1.078188e-09,9.500000e-03
1.082187e-09,9.203125e-03
1.086187e-09,9.640625e-03
1.090187e-09,9.843750e-03
1.094187e-09,9.890625e-03
1.098187e-09,9.203125e-03
1.102187e-09,9.968750e-03
1.106187e-09,9.328125e-03
1.110187e-09,1.064063e-02
1.114187e-09,1.070313e-02
1.118188e-09,1.071875e-02
1.122188e-09,1.040625e-02
1.126188e-09,1.100000e-02
1.130188e-09,1.090625e-02
1.134188e-09,1.121875e-02
1.138188e-09,1.193750e-02
1.142187e-09,1.217188e-02
1.146187e-09,1.235938e-02
1.150187e-09,1.228125e-02
1.154187e-09,1.240625e-02
1.158187e-09,1.314063e-02
1.162187e-09,1.309375e-02
1.166187e-09,1.381250e-02
1.170187e-09,1.421875e-02
1.174187e-09,1.446875e-02
1.178188e-09,1.382813e-02
1.182188e-09,1.471875e-02
1.186188e-09,1.406250e-02
1.190188e-09,1.531250e-02
1.194188e-09,1.525000e-02
1.198188e-09,1.512500e-02
1.202187e-09,1.459375e-02
1.206187e-09,1.500000e-02
1.210187e-09,1.462500e-02
1.214187e-09,1.462500e-02
1.218187e-09,1.500000e-02
1.222187e-09,1.495313e-02
1.226187e-09,1.471875e-02
1.230187e-09,1.421875e-02
1.234187e-09,1.398438e-02
1.238188e-09,1.425000e-02
1.242188e-09,1.373438e-02
1.246188e-09,1.404688e-02
1.250188e-09,1.403125e-02
1.254188e-09,1.390625e-02
1.258188e-09,1.275000e-02
1.262187e-09,1.328125e-02
1.266187e-09,1.225000e-02
1.270187e-09,1.314063e-02
1.274187e-09,1.271875e-02
1.278187e-09,1.229688e-02
1.282187e-09,1.146875e-02
1.286187e-09,1.164063e-02
1.290187e-09,1.104688e-02
1.294187e-09,1.085938e-02
1.298188e-09,1.109375e-02
1.302188e-09,1.103125e-02
1.306188e-09,1.071875e-02
1.310188e-09,1.018750e-02
1.314188e-09,1.001563e-02
1.318188e-09,1.034375e-02
1.322187e-09,9.890625e-03
1.326187e-09,1.037500e-02
1.330187e-09,1.053125e-02
1.334187e-09,1.065625e-02
1.338187e-09,9.625000e-03
1.342187e-09,1.043750e-02
1.346187e-09,9.671875e-03
1.350187e-09,1.089063e-02
1.354187e-09,1.078125e-02
1.358188e-09,1.067188e-02
1.362188e-09,1.018750e-02
1.366188e-09,1.070313e-02
1.370188e-09,1.043750e-02
1.374188e-09,1.059375e-02
1.378188e-09,1.114063e-02
1.382187e-09,1.145313e-02
1.386187e-09,1.142188e-02
1.390187e-09,1.118750e-02
1.394187e-09,1.131250e-02
1.398187e-09,1.187500e-02
1.402187e-09,1.164063e-02
1.406187e-09,1.235938e-02
1.410187e-09,1.268750e-02
1.414187e-09,1.298438e-02
1.418188e-09,1.198438e-02
1.422188e-09,1.285938e-02
1.426188e-09,1.214063e-02
1.430188e-09,1.339063e-02
1.434188e-09,1.325000e-02
1.438188e-09,1.307813e-02
1.442187e-09,1.248438e-02
1.446187e-09,1.287500e-02
1.450187e-09,1.246875e-02
1.454187e-09,1.242188e-02
1.458187e-09,1.275000e-02
1.462187e-09,1.284375e-02
1.466187e-09,1.254688e-02
1.470187e-09,1.203125e-02
1.474187e-09,1.187500e-02
1.478188e-09,1.212500e-02
1.482188e-09,1.156250e-02
1.486188e-09,1.198438e-02
1.490188e-09,1.196875e-02
1.494188e-09,1.195313e-02
1.498188e-09,1.059375e-02
1.502187e-09,1.117188e-02
1.506187e-09,1.015625e-02
1.510187e-09,1.110938e-02
1.514187e-09,1.068750e-02
1.518187e-09,1.026563e-02
1.522187e-09,9.437500e-03
1.526187e-09,9.625000e-03
1.530187e-09,9.031250e-03
1.534187e-09,8.828125e-03
1.538188e-09,9.031250e-03
1.542188e-09,9.046875e-03
1.546188e-09,8.687500e-03
1.550188e-09,8.140625e-03
1.554188e-09,8.000000e-03
1.558188e-09,8.296875e-03
1.562187e-09,7.812500e-03
1.566187e-09,8.328125e-03
1.570187e-09,8.468750e-03
1.574187e-09,8.625000e-03
1.578187e-09,7.437500e-03
1.582187e-09,8.250000e-03
1.586187e-09,7.468750e-03
1.590187e-09,8.718750e-03
1.594187e-09,8.578125e-03
1.598188e-09,8.453125e-03
1.602188e-09,7.953125e-03
1.606188e-09,8.468750e-03
1.610188e-09,8.203125e-03
1.614188e-09,8.343750e-03
1.618188e-09,8.906250e-03
1.622187e-09,9.265625e-03
1.626187e-09,9.234375e-03
1.630187e-09,9.015625e-03
1.634187e-09,9.187500e-03
1.638187e-09,9.781250e-03
1.642187e-09,9.562500e-03
1.646187e-09,1.034375e-02
1.650187e-09,1.071875e-02
1.654187e-09,1.109375e-02
1.658187e-09,1.006250e-02
1.662188e-09,1.101563e-02
1.666188e-09,1.035938e-02
1.670188e-09,1.168750e-02
1.674188e-09,1.159375e-02
1.678188e-09,1.150000e-02
1.682187e-09,1.096875e-02
1.686187e-09,1.143750e-02
1.690187e-09,1.107813e-02
1.694187e-09,1.109375e-02
1.698187e-09,1.148438e-02
1.702187e-09,1.165625e-02
1.706187e-09,1.142188e-02
1.710187e-09,1.095313e-02
1.714187e-09,1.085938e-02
1.718187e-09,1.115625e-02
1.722188e-09,1.062500e-02
1.726188e-09,1.107813e-02
1.730188e-09,1.109375e-02
1.734188e-09,1.110938e-02
1.738188e-09,9.703125e-03
1.742187e-09,1.028125e-02
1.746187e-09,9.250000e-03
1.750187e-09,1.020313e-02
1.754187e-09,9.750000e-03
1.758187e-09,9.281250e-03
