Measurements-streak-laser-independent/Photodiode-on-Tek-12bit-4GHz/Tek000_ch1_20190613133037277.csv

Model,MSO64
Waveform Type,ANALOG
Horizontal Units,s
Sample Interval,4.000000e-12
Record Length,1000
Zero Index,310.593750
Vertical Units,V

TIME,CH1
-1.242375e-09,7.796875e-03
-1.238375e-09,7.796875e-03
-1.234375e-09,7.359375e-03
-1.230375e-09,7.921875e-03
-1.226375e-09,7.656250e-03
-1.222375e-09,7.765625e-03
-1.218375e-09,8.265625e-03
-1.214375e-09,8.546875e-03
-1.210375e-09,8.390625e-03
-1.206375e-09,8.015625e-03
-1.202375e-09,8.031250e-03
-1.198375e-09,8.421875e-03
-1.194375e-09,7.968750e-03
-1.190375e-09,8.531250e-03
-1.186375e-09,8.640625e-03
-1.182375e-09,8.750000e-03
-1.178375e-09,7.421875e-03
-1.174375e-09,8.093750e-03
-1.170375e-09,7.125000e-03
-1.166375e-09,8.171875e-03
-1.162375e-09,7.781250e-03
-1.158375e-09,7.390625e-03
-1.154375e-09,6.578125e-03
-1.150375e-09,6.781250e-03
-1.146375e-09,6.156250e-03
-1.142375e-09,5.937500e-03
-1.138375e-09,6.109375e-03
-1.134375e-09,6.093750e-03
-1.130375e-09,5.671875e-03
-1.126375e-09,5.062500e-03
-1.122375e-09,4.843750e-03
-1.118375e-09,5.046875e-03
-1.114375e-09,4.453125e-03
-1.110375e-09,4.875000e-03
-1.106375e-09,4.906250e-03
-1.102375e-09,4.968750e-03
-1.098375e-09,3.625000e-03
-1.094375e-09,4.312500e-03
-1.090375e-09,3.406250e-03
-1.086375e-09,4.546875e-03
-1.082375e-09,4.281250e-03
-1.078375e-09,4.046875e-03
-1.074375e-09,3.437500e-03
-1.070375e-09,3.859375e-03
-1.066375e-09,3.484375e-03
-1.062375e-09,3.546875e-03
-1.058375e-09,4.031250e-03
-1.054375e-09,4.328125e-03
-1.050375e-09,4.265625e-03
-1.046375e-09,4.000000e-03
-1.042375e-09,4.171875e-03
-1.038375e-09,4.750000e-03
-1.034375e-09,4.546875e-03
-1.030375e-09,5.375000e-03
-1.026375e-09,5.812500e-03
-1.022375e-09,6.265625e-03
-1.018375e-09,5.312500e-03
-1.014375e-09,6.375000e-03
-1.010375e-09,5.843750e-03
-1.006375e-09,7.343750e-03
-1.002375e-09,7.421875e-03
-9.983750e-10,7.515625e-03
-9.943750e-10,7.187500e-03
-9.903750e-10,7.875000e-03
-9.863750e-10,7.750000e-03
-9.823750e-10,8.031250e-03
-9.783750e-10,8.703125e-03
-9.743750e-10,9.156250e-03
-9.703750e-10,9.203125e-03
-9.663750e-10,9.031250e-03
-9.623750e-10,9.250000e-03
-9.583750e-10,9.859375e-03
-9.543750e-10,9.640625e-03
-9.503750e-10,1.042188e-02
-9.463750e-10,1.076563e-02
-9.423750e-10,1.109375e-02
-9.383750e-10,9.984375e-03
-9.343750e-10,1.087500e-02
-9.303750e-10,1.012500e-02
-9.263750e-10,1.134375e-02
-9.223750e-10,1.117188e-02
-9.183750e-10,1.095313e-02
-9.143750e-10,1.032813e-02
-9.103750e-10,1.067188e-02
-9.063750e-10,1.018750e-02
-9.023750e-10,1.010938e-02
-8.983750e-10,1.039063e-02
-8.943750e-10,1.045313e-02
-8.903750e-10,1.010938e-02
-8.863750e-10,9.531250e-03
-8.823750e-10,9.343750e-03
-8.783750e-10,9.546875e-03
-8.743750e-10,8.921875e-03
-8.703750e-10,9.312500e-03
-8.663750e-10,9.265625e-03
-8.623750e-10,9.218750e-03
-8.583750e-10,7.781250e-03
-8.543750e-10,8.328125e-03
-8.503750e-10,7.250000e-03
-8.463750e-10,8.125000e-03
-8.423750e-10,7.687500e-03
-8.383750e-10,7.218750e-03
-8.343750e-10,6.375000e-03
-8.303750e-10,6.515625e-03
-8.263750e-10,5.843750e-03
-8.223750e-10,5.625000e-03
-8.183750e-10,5.781250e-03
-8.143750e-10,5.750000e-03
-8.103750e-10,5.359375e-03
-8.063750e-10,4.734375e-03
-8.023750e-10,4.531250e-03
-7.983750e-10,4.734375e-03
-7.943750e-10,4.156250e-03
-7.903750e-10,4.593750e-03
-7.863750e-10,4.656250e-03
-7.823750e-10,4.718750e-03
-7.783750e-10,3.421875e-03
-7.743750e-10,4.125000e-03
-7.703750e-10,3.234375e-03
-7.663750e-10,4.265625e-03
-7.623750e-10,4.046875e-03
-7.583750e-10,3.796875e-03
-7.543750e-10,3.203125e-03
-7.503750e-10,3.562500e-03
-7.463750e-10,3.140625e-03
-7.423750e-10,3.187500e-03
-7.383750e-10,3.593750e-03
-7.343750e-10,3.796875e-03
-7.303750e-10,3.703125e-03
-7.263750e-10,3.328125e-03
-7.223750e-10,3.375000e-03
-7.183750e-10,3.812500e-03
-7.143750e-10,3.500000e-03
-7.103750e-10,4.156250e-03
-7.063750e-10,4.453125e-03
-7.023750e-10,4.718750e-03
-6.983750e-10,3.609375e-03
-6.943750e-10,4.515625e-03
-6.903750e-10,3.843750e-03
-6.863750e-10,5.000000e-03
-6.823750e-10,4.937500e-03
-6.783750e-10,4.859375e-03
-6.743750e-10,4.390625e-03
-6.703750e-10,4.843750e-03
-6.663750e-10,4.484375e-03
-6.623750e-10,4.640625e-03
-6.583750e-10,5.109375e-03
-6.543750e-10,5.343750e-03
-6.503750e-10,5.343750e-03
-6.463750e-10,5.000000e-03
-6.423750e-10,5.046875e-03
-6.383750e-10,5.500000e-03
-6.343750e-10,5.187500e-03
-6.303750e-10,5.828125e-03
-6.263750e-10,6.093750e-03
-6.223750e-10,6.312500e-03
-6.183750e-10,5.156250e-03
-6.143750e-10,6.015625e-03
-6.103750e-10,5.328125e-03
-6.063750e-10,6.421875e-03
-6.023750e-10,6.328125e-03
-5.983750e-10,6.171875e-03
-5.943750e-10,5.640625e-03
-5.903750e-10,6.015625e-03
-5.863750e-10,5.578125e-03
-5.823750e-10,5.656250e-03
-5.783750e-10,6.062500e-03
-5.743750e-10,6.187500e-03
-5.703750e-10,6.125000e-03
-5.663750e-10,5.703125e-03
-5.623750e-10,5.671875e-03
-5.583750e-10,6.062500e-03
-5.543750e-10,5.687500e-03
-5.503750e-10,6.265625e-03
-5.463750e-10,6.437500e-03
-5.423750e-10,6.578125e-03
-5.383750e-10,5.328125e-03
-5.343750e-10,6.093750e-03
-5.303750e-10,5.343750e-03
-5.263750e-10,6.375000e-03
-5.223750e-10,6.234375e-03
-5.183750e-10,5.984375e-03
-5.143750e-10,5.359375e-03
-5.103750e-10,5.656250e-03
-5.063750e-10,5.156250e-03
-5.023750e-10,5.125000e-03
-4.983750e-10,5.468750e-03
-4.943750e-10,5.515625e-03
-4.903750e-10,5.343750e-03
-4.863750e-10,4.828125e-03
-4.823750e-10,4.765625e-03
-4.783750e-10,5.078125e-03
-4.743750e-10,4.593750e-03
-4.703750e-10,5.109375e-03
-4.663750e-10,5.187500e-03
-4.623750e-10,5.250000e-03
-4.583750e-10,3.937500e-03
-4.543750e-10,4.593750e-03
-4.503750e-10,3.796875e-03
-4.463750e-10,4.765625e-03
-4.423750e-10,4.578125e-03
-4.383750e-10,4.250000e-03
-4.343750e-10,3.578125e-03
-4.303750e-10,3.843750e-03
-4.263750e-10,3.359375e-03
-4.223750e-10,3.265625e-03
-4.183750e-10,3.609375e-03
-4.143750e-10,3.656250e-03
-4.103750e-10,3.421875e-03
-4.063750e-10,2.968750e-03
-4.023750e-10,2.968750e-03
-3.983750e-10,3.359375e-03
-3.943750e-10,2.890625e-03
-3.903750e-10,3.500000e-03
-3.863750e-10,3.687500e-03
-3.823750e-10,3.875000e-03
-3.783750e-10,2.703125e-03
-3.743750e-10,3.453125e-03
-3.703750e-10,2.812500e-03
-3.663750e-10,3.968750e-03
-3.623750e-10,3.968750e-03
-3.583750e-10,3.812500e-03
-3.543750e-10,3.375000e-03
-3.503750e-10,3.875000e-03
-3.463750e-10,3.671875e-03
-3.423750e-10,3.765625e-03
-3.383750e-10,4.359375e-03
-3.343750e-10,4.687500e-03
-3.303750e-10,4.671875e-03
-3.263750e-10,4.515625e-03
-3.223750e-10,4.765625e-03
-3.183750e-10,5.437500e-03
-3.143750e-10,5.234375e-03
-3.103750e-10,6.062500e-03
-3.063750e-10,6.546875e-03
-3.023750e-10,6.953125e-03
-2.983750e-10,6.031250e-03
-2.943750e-10,6.984375e-03
-2.903750e-10,6.515625e-03
-2.863750e-10,7.843750e-03
-2.823750e-10,7.968750e-03
-2.783750e-10,7.968750e-03
-2.743750e-10,7.671875e-03
-2.703750e-10,8.250000e-03
-2.663750e-10,8.093750e-03
-2.623750e-10,8.218750e-03
-2.583750e-10,8.781250e-03
-2.543750e-10,9.062500e-03
-2.503750e-10,8.953125e-03
-2.463750e-10,8.718750e-03
-2.423750e-10,8.828125e-03
-2.383750e-10,9.296875e-03
-2.343750e-10,8.906250e-03
-2.303750e-10,9.484375e-03
-2.263750e-10,9.687500e-03
-2.223750e-10,9.796875e-03
-2.183750e-10,8.593750e-03
-2.143750e-10,9.187500e-03
-2.103750e-10,8.296875e-03
-2.063750e-10,9.281250e-03
-2.023750e-10,8.937500e-03
-1.983750e-10,8.515625e-03
-1.943750e-10,7.796875e-03
-1.903750e-10,7.937500e-03
-1.863750e-10,7.312500e-03
-1.823750e-10,7.015625e-03
-1.783750e-10,7.109375e-03
-1.743750e-10,6.953125e-03
-1.703750e-10,6.437500e-03
-1.663750e-10,5.828125e-03
-1.623750e-10,5.531250e-03
-1.583750e-10,5.609375e-03
-1.543750e-10,4.937500e-03
-1.503750e-10,5.250000e-03
-1.463750e-10,5.218750e-03
-1.423750e-10,5.171875e-03
-1.383750e-10,3.875000e-03
-1.343750e-10,4.421875e-03
-1.303750e-10,3.515625e-03
-1.263750e-10,4.609375e-03
-1.223750e-10,4.390625e-03
-1.183750e-10,4.218750e-03
-1.143750e-10,3.812500e-03
-1.103750e-10,4.359375e-03
-1.063750e-10,4.218750e-03
-1.023750e-10,4.515625e-03
-9.837500e-11,5.265625e-03
-9.437500e-11,5.906250e-03
-9.037500e-11,6.218750e-03
-8.637500e-11,6.578125e-03
-8.237500e-11,7.328125e-03
-7.837500e-11,8.500000e-03
-7.437500e-11,9.062500e-03
-7.037500e-11,1.070313e-02
-6.637500e-11,1.207813e-02
-6.237500e-11,1.357813e-02
-5.837500e-11,1.389063e-02
-5.437500e-11,1.610938e-02
-5.037500e-11,1.693750e-02
-4.637500e-11,1.987500e-02
-4.237500e-11,2.150000e-02
-3.837500e-11,2.331250e-02
-3.437500e-11,2.490625e-02
-3.037500e-11,2.751563e-02
-2.637500e-11,2.946875e-02
-2.237500e-11,3.192188e-02
-1.837500e-11,3.484375e-02
-1.437500e-11,3.771875e-02
-1.037500e-11,4.023438e-02
-6.375000e-12,4.279688e-02
-2.375000e-12,4.575000e-02
1.625000e-12,4.910938e-02
5.625000e-12,5.185938e-02
9.625000e-12,5.568750e-02
1.362500e-11,5.915625e-02
1.762500e-11,6.279688e-02
2.162500e-11,6.515625e-02
2.562500e-11,6.935938e-02
2.962500e-11,7.209375e-02
3.362500e-11,7.687500e-02
3.762500e-11,8.023438e-02
4.162500e-11,8.376563e-02
4.562500e-11,8.692188e-02
4.962500e-11,9.100000e-02
5.362500e-11,9.434375e-02
5.762500e-11,9.804688e-02
6.162500e-11,1.021250e-01
6.562500e-11,1.060938e-01
6.962500e-11,1.094688e-01
7.362500e-11,1.128125e-01
7.762500e-11,1.164063e-01
8.162500e-11,1.202500e-01
8.562500e-11,1.234219e-01
8.962500e-11,1.274688e-01
9.362500e-11,1.310156e-01
9.762500e-11,1.346250e-01
1.016250e-10,1.367813e-01
1.056250e-10,1.406875e-01
1.096250e-10,1.429531e-01
1.136250e-10,1.471094e-01
1.176250e-10,1.497031e-01
1.216250e-10,1.523750e-01
1.256250e-10,1.545000e-01
1.296250e-10,1.573906e-01
1.336250e-10,1.594844e-01
1.376250e-10,1.617969e-01
1.416250e-10,1.643438e-01
1.456250e-10,1.667188e-01
1.496250e-10,1.683281e-01
1.536250e-10,1.697969e-01
1.576250e-10,1.714531e-01
1.616250e-10,1.732656e-01
1.656250e-10,1.743125e-01
1.696250e-10,1.761250e-01
1.736250e-10,1.773281e-01
1.776250e-10,1.785781e-01
1.816250e-10,1.782656e-01
1.856250e-10,1.796719e-01
1.896250e-10,1.794063e-01
1.936250e-10,1.809063e-01
1.976250e-10,1.808281e-01
2.016250e-10,1.807813e-01
2.056250e-10,1.801563e-01
2.096250e-10,1.802813e-01
2.136250e-10,1.796094e-01
2.176250e-10,1.791250e-01
2.216250e-10,1.788438e-01
2.256250e-10,1.784063e-01
2.296250e-10,1.772031e-01
2.336250e-10,1.758281e-01
2.376250e-10,1.747031e-01
2.416250e-10,1.737500e-01
2.456250e-10,1.720469e-01
2.496250e-10,1.711094e-01
2.536250e-10,1.695938e-01
2.576250e-10,1.681875e-01
2.616250e-10,1.652031e-01
2.656250e-10,1.640781e-01
2.696250e-10,1.612969e-01
2.736250e-10,1.602969e-01
2.776250e-10,1.577969e-01
2.816250e-10,1.553750e-01
2.856250e-10,1.524375e-01
2.896250e-10,1.503438e-01
2.936250e-10,1.475469e-01
2.976250e-10,1.449844e-01
3.016250e-10,1.426875e-01
3.056250e-10,1.403125e-01
3.096250e-10,1.372969e-01
3.136250e-10,1.341563e-01
3.176250e-10,1.313594e-01
3.216250e-10,1.288594e-01
3.256250e-10,1.256406e-01
3.296250e-10,1.232969e-01
3.336250e-10,1.205000e-01
3.376250e-10,1.178906e-01
3.416250e-10,1.137813e-01
3.456250e-10,1.116719e-01
3.496250e-10,1.080156e-01
3.536250e-10,1.061875e-01
3.576250e-10,1.030000e-01
3.616250e-10,9.998438e-02
3.656250e-10,9.653125e-02
3.696250e-10,9.406250e-02
3.736250e-10,9.098438e-02
3.776250e-10,8.823438e-02
3.816250e-10,8.582813e-02
3.856250e-10,8.343750e-02
3.896250e-10,8.054688e-02
3.936250e-10,7.759375e-02
3.976250e-10,7.507813e-02
4.016250e-10,7.298438e-02
4.056250e-10,7.018750e-02
4.096250e-10,6.837500e-02
4.136250e-10,6.623438e-02
4.176250e-10,6.429688e-02
4.216250e-10,6.096875e-02
4.256250e-10,5.970313e-02
4.296250e-10,5.698438e-02
4.336250e-10,5.612500e-02
4.376250e-10,5.401563e-02
4.416250e-10,5.206250e-02
4.456250e-10,4.976563e-02
4.496250e-10,4.850000e-02
4.536250e-10,4.664063e-02
4.576250e-10,4.515625e-02
4.616250e-10,4.403125e-02
4.656250e-10,4.293750e-02
4.696250e-10,4.142188e-02
4.736250e-10,3.985938e-02
4.776250e-10,3.870313e-02
4.816250e-10,3.798438e-02
4.856250e-10,3.657813e-02
4.896250e-10,3.609375e-02
4.936250e-10,3.535938e-02
4.976250e-10,3.473438e-02
5.016250e-10,3.275000e-02
5.056250e-10,3.279688e-02
5.096250e-10,3.137500e-02
5.136250e-10,3.178125e-02
5.176250e-10,3.093750e-02
5.216250e-10,3.014063e-02
5.256250e-10,2.901563e-02
5.296250e-10,2.885938e-02
5.336250e-10,2.801563e-02
5.376250e-10,2.754688e-02
5.416250e-10,2.739063e-02
5.456250e-10,2.718750e-02
5.496250e-10,2.657813e-02
5.536250e-10,2.581250e-02
5.576250e-10,2.543750e-02
5.616250e-10,2.540625e-02
5.656250e-10,2.464063e-02
5.696250e-10,2.475000e-02
5.736250e-10,2.457813e-02
5.776250e-10,2.440625e-02
5.816250e-10,2.287500e-02
5.856250e-10,2.326563e-02
5.896250e-10,2.218750e-02
5.936250e-10,2.289063e-02
5.976250e-10,2.231250e-02
6.016250e-10,2.168750e-02
6.056250e-10,2.070313e-02
6.096250e-10,2.068750e-02
6.136250e-10,1.987500e-02
6.176250e-10,1.943750e-02
6.216250e-10,1.929688e-02
6.256250e-10,1.909375e-02
6.296250e-10,1.846875e-02
6.336250e-10,1.760938e-02
6.376250e-10,1.718750e-02
6.416250e-10,1.704688e-02
6.456250e-10,1.618750e-02
6.496250e-10,1.620313e-02
6.536250e-10,1.593750e-02
6.576250e-10,1.559375e-02
6.616250e-10,1.396875e-02
6.656250e-10,1.423438e-02
6.696250e-10,1.306250e-02
6.736250e-10,1.370313e-02
6.776250e-10,1.304688e-02
6.816250e-10,1.234375e-02
6.856250e-10,1.128125e-02
6.896250e-10,1.126563e-02
6.936250e-10,1.040625e-02
6.976250e-10,9.921875e-03
7.016250e-10,9.828125e-03
7.056250e-10,9.671875e-03
7.096250e-10,9.125000e-03
7.136250e-10,8.343750e-03
7.176250e-10,8.046875e-03
7.216250e-10,8.031250e-03
7.256250e-10,7.343750e-03
7.296250e-10,7.562500e-03
7.336250e-10,7.531250e-03
7.376250e-10,7.375000e-03
7.416250e-10,6.031250e-03
7.456250e-10,6.531250e-03
7.496250e-10,5.656250e-03
7.536250e-10,6.625000e-03
7.576250e-10,6.312500e-03
7.616250e-10,5.984375e-03
7.656250e-10,5.265625e-03
7.696250e-10,5.609375e-03
7.736250e-10,5.109375e-03
7.776250e-10,5.031250e-03
7.816250e-10,5.375000e-03
7.856250e-10,5.578125e-03
7.896250e-10,5.453125e-03
7.936250e-10,5.062500e-03
7.976250e-10,5.156250e-03
8.016250e-10,5.562500e-03
8.056250e-10,5.281250e-03
8.096250e-10,5.921875e-03
8.136250e-10,6.281250e-03
8.176250e-10,6.484375e-03
8.216250e-10,5.515625e-03
8.256250e-10,6.343750e-03
8.296250e-10,5.781250e-03
8.336250e-10,7.125000e-03
8.376250e-10,7.109375e-03
8.416250e-10,7.093750e-03
8.456250e-10,6.640625e-03
8.496250e-10,7.218750e-03
8.536250e-10,6.984375e-03
8.576250e-10,7.125000e-03
8.616250e-10,7.687500e-03
8.656250e-10,8.015625e-03
8.696250e-10,8.062500e-03
8.736250e-10,7.796875e-03
8.776250e-10,7.968750e-03
8.816250e-10,8.515625e-03
8.856250e-10,8.312500e-03
8.896250e-10,9.031250e-03
8.936250e-10,9.390625e-03
8.976250e-10,9.609375e-03
9.016250e-10,8.656250e-03
9.056250e-10,9.468750e-03
9.096250e-10,8.812500e-03
9.136250e-10,1.012500e-02
9.176250e-10,1.004688e-02
9.216250e-10,9.953125e-03
9.256250e-10,9.421875e-03
9.296250e-10,9.859375e-03
9.336250e-10,9.515625e-03
9.376250e-10,9.562500e-03
9.416250e-10,1.001563e-02
9.456250e-10,1.014063e-02
9.496250e-10,1.003125e-02
9.536250e-10,9.640625e-03
9.576250e-10,9.593750e-03
9.616250e-10,1.003125e-02
9.656250e-10,9.671875e-03
9.696250e-10,1.021875e-02
9.736250e-10,1.037500e-02
9.776250e-10,1.045313e-02
9.816250e-10,9.359375e-03
9.856250e-10,1.001563e-02
9.896250e-10,9.171875e-03
9.936250e-10,1.032813e-02
9.976250e-10,1.009375e-02
1.001625e-09,9.828125e-03
1.005625e-09,9.187500e-03
1.009625e-09,9.484375e-03
1.013625e-09,9.015625e-03
1.017625e-09,8.953125e-03
1.021625e-09,9.296875e-03
1.025625e-09,9.296875e-03
1.029625e-09,9.062500e-03
1.033625e-09,8.578125e-03
1.037625e-09,8.437500e-03
1.041625e-09,8.796875e-03
1.045625e-09,8.343750e-03
1.049625e-09,8.812500e-03
1.053625e-09,8.890625e-03
1.057625e-09,8.921875e-03
1.061625e-09,7.781250e-03
1.065625e-09,8.421875e-03
1.069625e-09,7.531250e-03
1.073625e-09,8.625000e-03
1.077625e-09,8.359375e-03
1.081625e-09,8.046875e-03
1.085625e-09,7.375000e-03
1.089625e-09,7.656250e-03
1.093625e-09,7.171875e-03
1.097625e-09,7.093750e-03
1.101625e-09,7.421875e-03
1.105625e-09,7.421875e-03
1.109625e-09,7.171875e-03
1.113625e-09,6.687500e-03
1.117625e-09,6.531250e-03
1.121625e-09,6.875000e-03
1.125625e-09,6.406250e-03
1.129625e-09,6.859375e-03
1.133625e-09,6.953125e-03
1.137625e-09,7.000000e-03
1.141625e-09,5.828125e-03
1.145625e-09,6.515625e-03
1.149625e-09,5.609375e-03
1.153625e-09,6.687500e-03
1.157625e-09,6.406250e-03
1.161625e-09,6.125000e-03
1.165625e-09,5.437500e-03
1.169625e-09,5.734375e-03
1.173625e-09,5.250000e-03
1.177625e-09,5.171875e-03
1.181625e-09,5.500000e-03
1.185625e-09,5.562500e-03
1.189625e-09,5.312500e-03
1.193625e-09,4.843750e-03
1.197625e-09,4.718750e-03
1.201625e-09,5.078125e-03
1.205625e-09,4.625000e-03
1.209625e-09,5.140625e-03
1.213625e-09,5.281250e-03
1.217625e-09,5.390625e-03
1.221625e-09,4.234375e-03
1.225625e-09,5.000000e-03
1.229625e-09,4.156250e-03
1.233625e-09,5.312500e-03
1.237625e-09,5.093750e-03
1.241625e-09,4.890625e-03
1.245625e-09,4.281250e-03
1.249625e-09,4.687500e-03
1.253625e-09,4.296875e-03
1.257625e-09,4.328125e-03
1.261625e-09,4.750000e-03
1.265625e-09,4.953125e-03
1.269625e-09,4.812500e-03
1.273625e-09,4.468750e-03
1.277625e-09,4.500000e-03
1.281625e-09,4.984375e-03
1.285625e-09,4.671875e-03
1.289625e-09,5.328125e-03
1.293625e-09,5.625000e-03
1.297625e-09,5.906250e-03
1.301625e-09,4.859375e-03
1.305625e-09,5.765625e-03
1.309625e-09,5.078125e-03
1.313625e-09,6.390625e-03
1.317625e-09,6.328125e-03
1.321625e-09,6.265625e-03
1.325625e-09,5.796875e-03
1.329625e-09,6.328125e-03
1.333625e-09,6.078125e-03
1.337625e-09,6.234375e-03
1.341625e-09,6.781250e-03
1.345625e-09,7.109375e-03
1.349625e-09,7.062500e-03
1.353625e-09,6.812500e-03
1.357625e-09,6.953125e-03
1.361625e-09,7.515625e-03
1.365625e-09,7.250000e-03
1.369625e-09,8.000000e-03
1.373625e-09,8.328125e-03
1.377625e-09,8.671875e-03
1.381625e-09,7.625000e-03
1.385625e-09,8.546875e-03
1.389625e-09,7.859375e-03
1.393625e-09,9.187500e-03
1.397625e-09,9.093750e-03
1.401625e-09,9.000000e-03
1.405625e-09,8.500000e-03
1.409625e-09,8.984375e-03
1.413625e-09,8.671875e-03
1.417625e-09,8.750000e-03
1.421625e-09,9.234375e-03
1.425625e-09,9.484375e-03
1.429625e-09,9.343750e-03
1.433625e-09,9.000000e-03
1.437625e-09,9.046875e-03
1.441625e-09,9.484375e-03
1.445625e-09,9.125000e-03
1.449625e-09,9.750000e-03
1.453625e-09,9.968750e-03
1.457625e-09,1.020313e-02
1.461625e-09,9.015625e-03
1.465625e-09,9.843750e-03
1.469625e-09,9.046875e-03
1.473625e-09,1.026563e-02
1.477625e-09,1.006250e-02
1.481625e-09,9.875000e-03
1.485625e-09,9.281250e-03
1.489625e-09,9.687500e-03
1.493625e-09,9.296875e-03
1.497625e-09,9.296875e-03
1.501625e-09,9.718750e-03
1.505625e-09,9.937500e-03
1.509625e-09,9.734375e-03
1.513625e-09,9.359375e-03
1.517625e-09,9.375000e-03
1.521625e-09,9.812500e-03
1.525625e-09,9.437500e-03
1.529625e-09,1.006250e-02
1.533625e-09,1.031250e-02
1.537625e-09,1.054688e-02
1.541625e-09,9.390625e-03
1.545625e-09,1.023438e-02
1.549625e-09,9.484375e-03
1.553625e-09,1.073438e-02
1.557625e-09,1.059375e-02
1.561625e-09,1.045313e-02
1.565625e-09,9.906250e-03
1.569625e-09,1.035938e-02
1.573625e-09,1.001563e-02
1.577625e-09,1.006250e-02
1.581625e-09,1.053125e-02
1.585625e-09,1.078125e-02
1.589625e-09,1.062500e-02
1.593625e-09,1.026563e-02
1.597625e-09,1.031250e-02
1.601625e-09,1.075000e-02
1.605625e-09,1.037500e-02
1.609625e-09,1.098438e-02
1.613625e-09,1.120313e-02
1.617625e-09,1.140625e-02
1.621625e-09,1.018750e-02
1.625625e-09,1.096875e-02
1.629625e-09,1.012500e-02
1.633625e-09,1.128125e-02
1.637625e-09,1.101563e-02
1.641625e-09,1.073438e-02
1.645625e-09,1.003125e-02
1.649625e-09,1.032813e-02
1.653625e-09,9.812500e-03
1.657625e-09,9.671875e-03
1.661625e-09,9.921875e-03
1.665625e-09,9.953125e-03
1.669625e-09,9.562500e-03
1.673625e-09,8.953125e-03
1.677625e-09,8.750000e-03
1.681625e-09,8.921875e-03
1.685625e-09,8.281250e-03
1.689625e-09,8.625000e-03
1.693625e-09,8.562500e-03
1.697625e-09,8.500000e-03
1.701625e-09,7.000000e-03
1.705625e-09,7.515625e-03
1.709625e-09,6.406250e-03
1.713625e-09,7.328125e-03
1.717625e-09,6.812500e-03
1.721625e-09,6.296875e-03
1.725625e-09,5.390625e-03
1.729625e-09,5.500000e-03
1.733625e-09,4.796875e-03
1.737625e-09,4.500000e-03
1.741625e-09,4.625000e-03
1.745625e-09,4.546875e-03
1.749625e-09,4.093750e-03
1.753625e-09,3.437500e-03
1.757625e-09,3.203125e-03
