Measurements-streak-laser-independent/Photodiode-on-Tek-12bit-4GHz/Tek000_ch1_20190613132933193.csv

Model,MSO64
Waveform Type,ANALOG
Horizontal Units,s
Sample Interval,4.000000e-12
Record Length,1000
Zero Index,310.453125
Vertical Units,V

TIME,CH1
-1.241813e-09,9.375000e-04
-1.237813e-09,1.765625e-03
-1.233813e-09,9.843750e-04
-1.229812e-09,2.234375e-03
-1.225812e-09,2.078125e-03
-1.221812e-09,1.937500e-03
-1.217812e-09,1.375000e-03
-1.213812e-09,1.843750e-03
-1.209812e-09,1.515625e-03
-1.205812e-09,1.593750e-03
-1.201812e-09,2.062500e-03
-1.197812e-09,2.343750e-03
-1.193813e-09,2.218750e-03
-1.189813e-09,1.890625e-03
-1.185813e-09,1.953125e-03
-1.181813e-09,2.437500e-03
-1.177813e-09,2.109375e-03
-1.173813e-09,2.781250e-03
-1.169812e-09,3.062500e-03
-1.165812e-09,3.328125e-03
-1.161812e-09,2.171875e-03
-1.157812e-09,3.046875e-03
-1.153812e-09,2.281250e-03
-1.149812e-09,3.562500e-03
-1.145812e-09,3.406250e-03
-1.141812e-09,3.250000e-03
-1.137812e-09,2.687500e-03
-1.133813e-09,3.125000e-03
-1.129813e-09,2.765625e-03
-1.125813e-09,2.796875e-03
-1.121813e-09,3.234375e-03
-1.117813e-09,3.468750e-03
-1.113813e-09,3.296875e-03
-1.109812e-09,2.921875e-03
-1.105812e-09,2.953125e-03
-1.101812e-09,3.390625e-03
-1.097812e-09,3.015625e-03
-1.093812e-09,3.671875e-03
-1.089812e-09,3.906250e-03
-1.085812e-09,4.156250e-03
-1.081812e-09,3.000000e-03
-1.077812e-09,3.859375e-03
-1.073813e-09,3.109375e-03
-1.069813e-09,4.390625e-03
-1.065813e-09,4.250000e-03
-1.061813e-09,4.125000e-03
-1.057813e-09,3.609375e-03
-1.053813e-09,4.109375e-03
-1.049812e-09,3.812500e-03
-1.045812e-09,3.921875e-03
-1.041812e-09,4.453125e-03
-1.037812e-09,4.781250e-03
-1.033812e-09,4.718750e-03
-1.029812e-09,4.453125e-03
-1.025812e-09,4.609375e-03
-1.021812e-09,5.171875e-03
-1.017812e-09,4.937500e-03
-1.013813e-09,5.703125e-03
-1.009813e-09,6.093750e-03
-1.005813e-09,6.484375e-03
-1.001813e-09,5.453125e-03
-9.978125e-10,6.453125e-03
-9.938125e-10,5.843750e-03
-9.898125e-10,7.234375e-03
-9.858125e-10,7.218750e-03
-9.818125e-10,7.218750e-03
-9.778125e-10,6.812500e-03
-9.738125e-10,7.406250e-03
-9.698125e-10,7.171875e-03
-9.658125e-10,7.359375e-03
-9.618125e-10,7.937500e-03
-9.578125e-10,8.296875e-03
-9.538125e-10,8.265625e-03
-9.498125e-10,8.000000e-03
-9.458125e-10,8.140625e-03
-9.418125e-10,8.656250e-03
-9.378125e-10,8.375000e-03
-9.338125e-10,9.078125e-03
-9.298125e-10,9.359375e-03
-9.258125e-10,9.640625e-03
-9.218125e-10,8.484375e-03
-9.178125e-10,9.328125e-03
-9.138125e-10,8.546875e-03
-9.098125e-10,9.734375e-03
-9.058125e-10,9.531250e-03
-9.018125e-10,9.296875e-03
-8.978125e-10,8.656250e-03
-8.938125e-10,8.984375e-03
-8.898125e-10,8.500000e-03
-8.858125e-10,8.421875e-03
-8.818125e-10,8.703125e-03
-8.778125e-10,8.781250e-03
-8.738125e-10,8.453125e-03
-8.698125e-10,7.890625e-03
-8.658125e-10,7.734375e-03
-8.618125e-10,7.953125e-03
-8.578125e-10,7.359375e-03
-8.538125e-10,7.781250e-03
-8.498125e-10,7.765625e-03
-8.458125e-10,7.765625e-03
-8.418125e-10,6.343750e-03
-8.378125e-10,6.937500e-03
-8.338125e-10,5.906250e-03
-8.298125e-10,6.828125e-03
-8.258125e-10,6.421875e-03
-8.218125e-10,6.000000e-03
-8.178125e-10,5.187500e-03
-8.138125e-10,5.359375e-03
-8.098125e-10,4.734375e-03
-8.058125e-10,4.546875e-03
-8.018125e-10,4.750000e-03
-7.978125e-10,4.750000e-03
-7.938125e-10,4.390625e-03
-7.898125e-10,3.812500e-03
-7.858125e-10,3.640625e-03
-7.818125e-10,3.890625e-03
-7.778125e-10,3.343750e-03
-7.738125e-10,3.828125e-03
-7.698125e-10,3.921875e-03
-7.658125e-10,4.031250e-03
-7.618125e-10,2.750000e-03
-7.578125e-10,3.500000e-03
-7.538125e-10,2.656250e-03
-7.498125e-10,3.750000e-03
-7.458125e-10,3.562500e-03
-7.418125e-10,3.359375e-03
-7.378125e-10,2.796875e-03
-7.338125e-10,3.203125e-03
-7.298125e-10,2.828125e-03
-7.258125e-10,2.921875e-03
-7.218125e-10,3.375000e-03
-7.178125e-10,3.640625e-03
-7.138125e-10,3.593750e-03
-7.098125e-10,3.281250e-03
-7.058125e-10,3.375000e-03
-7.018125e-10,3.875000e-03
-6.978125e-10,3.625000e-03
-6.938125e-10,4.343750e-03
-6.898125e-10,4.687500e-03
-6.858125e-10,5.031250e-03
-6.818125e-10,3.968750e-03
-6.778125e-10,4.937500e-03
-6.738125e-10,4.312500e-03
-6.698125e-10,5.578125e-03
-6.658125e-10,5.578125e-03
-6.618125e-10,5.546875e-03
-6.578125e-10,5.125000e-03
-6.538125e-10,5.640625e-03
-6.498125e-10,5.343750e-03
-6.458125e-10,5.531250e-03
-6.418125e-10,6.062500e-03
-6.378125e-10,6.343750e-03
-6.338125e-10,6.359375e-03
-6.298125e-10,6.046875e-03
-6.258125e-10,6.125000e-03
-6.218125e-10,6.609375e-03
-6.178125e-10,6.312500e-03
-6.138125e-10,6.968750e-03
-6.098125e-10,7.234375e-03
-6.058125e-10,7.468750e-03
-6.018125e-10,6.281250e-03
-5.978125e-10,7.125000e-03
-5.938125e-10,6.390625e-03
-5.898125e-10,7.500000e-03
-5.858125e-10,7.343750e-03
-5.818125e-10,7.140625e-03
-5.778125e-10,6.531250e-03
-5.738125e-10,6.843750e-03
-5.698125e-10,6.359375e-03
-5.658125e-10,6.328125e-03
-5.618125e-10,6.656250e-03
-5.578125e-10,6.703125e-03
-5.538125e-10,6.484375e-03
-5.498125e-10,5.953125e-03
-5.458125e-10,5.828125e-03
-5.418125e-10,6.109375e-03
-5.378125e-10,5.578125e-03
-5.338125e-10,6.046875e-03
-5.298125e-10,6.078125e-03
-5.258125e-10,6.093750e-03
-5.218125e-10,4.703125e-03
-5.178125e-10,5.312500e-03
-5.138125e-10,4.406250e-03
-5.098125e-10,5.328125e-03
-5.058125e-10,5.015625e-03
-5.018125e-10,4.609375e-03
-4.978125e-10,3.828125e-03
-4.938125e-10,4.000000e-03
-4.898125e-10,3.390625e-03
-4.858125e-10,3.203125e-03
-4.818125e-10,3.421875e-03
-4.778125e-10,3.375000e-03
-4.738125e-10,3.015625e-03
-4.698125e-10,2.421875e-03
-4.658125e-10,2.250000e-03
-4.618125e-10,2.484375e-03
-4.578125e-10,1.890625e-03
-4.538125e-10,2.343750e-03
-4.498125e-10,2.359375e-03
-4.458125e-10,2.375000e-03
-4.418125e-10,1.015625e-03
-4.378125e-10,1.640625e-03
-4.338125e-10,7.812500e-04
-4.298125e-10,1.781250e-03
-4.258125e-10,1.546875e-03
-4.218125e-10,1.218750e-03
-4.178125e-10,5.625000e-04
-4.138125e-10,8.750000e-04
-4.098125e-10,4.375000e-04
-4.058125e-10,3.593750e-04
-4.018125e-10,7.500000e-04
-3.978125e-10,8.906250e-04
-3.938125e-10,7.031250e-04
-3.898125e-10,3.281250e-04
-3.858125e-10,4.062500e-04
-3.818125e-10,8.750000e-04
-3.778125e-10,5.000000e-04
-3.738125e-10,1.203125e-03
-3.698125e-10,1.515625e-03
-3.658125e-10,1.796875e-03
-3.618125e-10,7.343750e-04
-3.578125e-10,1.609375e-03
-3.538125e-10,1.031250e-03
-3.498125e-10,2.343750e-03
-3.458125e-10,2.390625e-03
-3.418125e-10,2.359375e-03
-3.378125e-10,2.015625e-03
-3.338125e-10,2.609375e-03
-3.298125e-10,2.484375e-03
-3.258125e-10,2.671875e-03
-3.218125e-10,3.343750e-03
-3.178125e-10,3.750000e-03
-3.138125e-10,3.796875e-03
-3.098125e-10,3.687500e-03
-3.058125e-10,3.984375e-03
-3.018125e-10,4.671875e-03
-2.978125e-10,4.515625e-03
-2.938125e-10,5.375000e-03
-2.898125e-10,5.875000e-03
-2.858125e-10,6.312500e-03
-2.818125e-10,5.390625e-03
-2.778125e-10,6.375000e-03
-2.738125e-10,5.859375e-03
-2.698125e-10,7.234375e-03
-2.658125e-10,7.312500e-03
-2.618125e-10,7.296875e-03
-2.578125e-10,6.968750e-03
-2.538125e-10,7.531250e-03
-2.498125e-10,7.328125e-03
-2.458125e-10,7.468750e-03
-2.418125e-10,8.000000e-03
-2.378125e-10,8.296875e-03
-2.338125e-10,8.187500e-03
-2.298125e-10,7.953125e-03
-2.258125e-10,8.031250e-03
-2.218125e-10,8.500000e-03
-2.178125e-10,8.156250e-03
-2.138125e-10,8.781250e-03
-2.098125e-10,9.031250e-03
-2.058125e-10,9.218750e-03
-2.018125e-10,8.062500e-03
-1.978125e-10,8.796875e-03
-1.938125e-10,7.984375e-03
-1.898125e-10,9.125000e-03
-1.858125e-10,8.921875e-03
-1.818125e-10,8.671875e-03
-1.778125e-10,8.109375e-03
-1.738125e-10,8.468750e-03
-1.698125e-10,8.062500e-03
-1.658125e-10,8.031250e-03
-1.618125e-10,8.390625e-03
-1.578125e-10,8.562500e-03
-1.538125e-10,8.359375e-03
-1.498125e-10,8.062500e-03
-1.458125e-10,8.109375e-03
-1.418125e-10,8.562500e-03
-1.378125e-10,8.265625e-03
-1.338125e-10,9.000000e-03
-1.298125e-10,9.375000e-03
-1.258125e-10,9.781250e-03
-1.218125e-10,8.906250e-03
-1.178125e-10,9.937500e-03
-1.138125e-10,9.484375e-03
-1.098125e-10,1.106250e-02
-1.058125e-10,1.129688e-02
-1.018125e-10,1.160938e-02
-9.781250e-11,1.164063e-02
-9.381250e-11,1.267188e-02
-8.981250e-11,1.298438e-02
-8.581250e-11,1.373438e-02
-8.181250e-11,1.493750e-02
-7.781250e-11,1.604688e-02
-7.381250e-11,1.678125e-02
-6.981250e-11,1.750000e-02
-6.581250e-11,1.860938e-02
-6.181250e-11,2.015625e-02
-5.781250e-11,2.103125e-02
-5.381250e-11,2.298438e-02
-4.981250e-11,2.459375e-02
-4.581250e-11,2.632813e-02
-4.181250e-11,2.679688e-02
-3.781250e-11,2.920313e-02
-3.381250e-11,3.012500e-02
-2.981250e-11,3.312500e-02
-2.581250e-11,3.475000e-02
-2.181250e-11,3.653125e-02
-1.781250e-11,3.801563e-02
-1.381250e-11,4.048438e-02
-9.812500e-12,4.225000e-02
-5.812500e-12,4.443750e-02
-1.812500e-12,4.707813e-02
2.187500e-12,4.962500e-02
6.187500e-12,5.173438e-02
1.018750e-11,5.379688e-02
1.418750e-11,5.623438e-02
1.818750e-11,5.903125e-02
2.218750e-11,6.115625e-02
2.618750e-11,6.428125e-02
3.018750e-11,6.701563e-02
3.418750e-11,6.982813e-02
3.818750e-11,7.128125e-02
4.218750e-11,7.462500e-02
4.618750e-11,7.639063e-02
5.018750e-11,8.015625e-02
5.418750e-11,8.246875e-02
5.818750e-11,8.487500e-02
6.218750e-11,8.684375e-02
6.618750e-11,8.970313e-02
7.018750e-11,9.178125e-02
7.418750e-11,9.420313e-02
7.818750e-11,9.695313e-02
8.218750e-11,9.954688e-02
8.618750e-11,1.015469e-01
9.018750e-11,1.034063e-01
9.418750e-11,1.055469e-01
9.818750e-11,1.079375e-01
1.021875e-10,1.095938e-01
1.061875e-10,1.120938e-01
1.101875e-10,1.140781e-01
1.141875e-10,1.160938e-01
1.181875e-10,1.166094e-01
1.221875e-10,1.189375e-01
1.261875e-10,1.195938e-01
1.301875e-10,1.221250e-01
1.341875e-10,1.231094e-01
1.381875e-10,1.241250e-01
1.421875e-10,1.245938e-01
1.461875e-10,1.258750e-01
1.501875e-10,1.263281e-01
1.541875e-10,1.270313e-01
1.581875e-10,1.279844e-01
1.621875e-10,1.287344e-01
1.661875e-10,1.287969e-01
1.701875e-10,1.286719e-01
1.741875e-10,1.287969e-01
1.781875e-10,1.291406e-01
1.821875e-10,1.286875e-01
1.861875e-10,1.290469e-01
1.901875e-10,1.288438e-01
1.941875e-10,1.286719e-01
1.981875e-10,1.269531e-01
2.021875e-10,1.270781e-01
2.061875e-10,1.255313e-01
2.101875e-10,1.258281e-01
2.141875e-10,1.245781e-01
2.181875e-10,1.233750e-01
2.221875e-10,1.216563e-01
2.261875e-10,1.207656e-01
2.301875e-10,1.191094e-01
2.341875e-10,1.177188e-01
2.381875e-10,1.165938e-01
2.421875e-10,1.153281e-01
2.461875e-10,1.134375e-01
2.501875e-10,1.113750e-01
2.541875e-10,1.096563e-01
2.581875e-10,1.082188e-01
2.621875e-10,1.060313e-01
2.661875e-10,1.047188e-01
2.701875e-10,1.029375e-01
2.741875e-10,1.012656e-01
2.781875e-10,9.809375e-02
2.821875e-10,9.690625e-02
2.861875e-10,9.410938e-02
2.901875e-10,9.321875e-02
2.941875e-10,9.090625e-02
2.981875e-10,8.868750e-02
3.021875e-10,8.603125e-02
3.061875e-10,8.435938e-02
3.101875e-10,8.200000e-02
3.141875e-10,7.996875e-02
3.181875e-10,7.829688e-02
3.221875e-10,7.657813e-02
3.261875e-10,7.434375e-02
3.301875e-10,7.201563e-02
3.341875e-10,7.009375e-02
3.381875e-10,6.857813e-02
3.421875e-10,6.634375e-02
3.461875e-10,6.507813e-02
3.501875e-10,6.345313e-02
3.541875e-10,6.196875e-02
3.581875e-10,5.906250e-02
3.621875e-10,5.821875e-02
3.661875e-10,5.585938e-02
3.701875e-10,5.542188e-02
3.741875e-10,5.364063e-02
3.781875e-10,5.200000e-02
3.821875e-10,4.996875e-02
3.861875e-10,4.896875e-02
3.901875e-10,4.731250e-02
3.941875e-10,4.603125e-02
3.981875e-10,4.510938e-02
4.021875e-10,4.415625e-02
4.061875e-10,4.276563e-02
4.101875e-10,4.128125e-02
4.141875e-10,4.020313e-02
4.181875e-10,3.954688e-02
4.221875e-10,3.815625e-02
4.261875e-10,3.773438e-02
4.301875e-10,3.698438e-02
4.341875e-10,3.632813e-02
4.381875e-10,3.426563e-02
4.421875e-10,3.425000e-02
4.461875e-10,3.268750e-02
4.501875e-10,3.303125e-02
4.541875e-10,3.204688e-02
4.581875e-10,3.112500e-02
4.621875e-10,2.981250e-02
4.661875e-10,2.950000e-02
4.701875e-10,2.846875e-02
4.741875e-10,2.779688e-02
4.781875e-10,2.746875e-02
4.821875e-10,2.706250e-02
4.861875e-10,2.621875e-02
4.901875e-10,2.521875e-02
4.941875e-10,2.459375e-02
4.981875e-10,2.437500e-02
5.021875e-10,2.337500e-02
5.061875e-10,2.329688e-02
5.101875e-10,2.287500e-02
5.141875e-10,2.248438e-02
5.181875e-10,2.071875e-02
5.221875e-10,2.092188e-02
5.261875e-10,1.959375e-02
5.301875e-10,2.012500e-02
5.341875e-10,1.934375e-02
5.381875e-10,1.854688e-02
5.421875e-10,1.739063e-02
5.461875e-10,1.720313e-02
5.501875e-10,1.625000e-02
5.541875e-10,1.568750e-02
5.581875e-10,1.545313e-02
5.621875e-10,1.512500e-02
5.661875e-10,1.439063e-02
5.701875e-10,1.346875e-02
5.741875e-10,1.296875e-02
5.781875e-10,1.281250e-02
5.821875e-10,1.192188e-02
5.861875e-10,1.195313e-02
5.901875e-10,1.165625e-02
5.941875e-10,1.137500e-02
5.981875e-10,9.750000e-03
6.021875e-10,1.009375e-02
6.061875e-10,8.937500e-03
6.101875e-10,9.687500e-03
6.141875e-10,9.109375e-03
6.181875e-10,8.515625e-03
6.221875e-10,7.578125e-03
6.261875e-10,7.671875e-03
6.301875e-10,6.953125e-03
6.341875e-10,6.656250e-03
6.381875e-10,6.734375e-03
6.421875e-10,6.718750e-03
6.461875e-10,6.328125e-03
6.501875e-10,5.718750e-03
6.541875e-10,5.578125e-03
6.581875e-10,5.781250e-03
6.621875e-10,5.250000e-03
6.661875e-10,5.671875e-03
6.701875e-10,5.812500e-03
6.741875e-10,5.875000e-03
6.781875e-10,4.671875e-03
6.821875e-10,5.375000e-03
6.861875e-10,4.640625e-03
6.901875e-10,5.781250e-03
6.941875e-10,5.609375e-03
6.981875e-10,5.421875e-03
7.021875e-10,4.843750e-03
7.061875e-10,5.312500e-03
7.101875e-10,4.953125e-03
7.141875e-10,4.968750e-03
7.181875e-10,5.421875e-03
7.221875e-10,5.718750e-03
7.261875e-10,5.640625e-03
7.301875e-10,5.312500e-03
7.341875e-10,5.453125e-03
7.381875e-10,5.906250e-03
7.421875e-10,5.625000e-03
7.461875e-10,6.281250e-03
7.501875e-10,6.625000e-03
7.541875e-10,6.843750e-03
7.581875e-10,5.812500e-03
7.621875e-10,6.656250e-03
7.661875e-10,6.000000e-03
7.701875e-10,7.281250e-03
7.741875e-10,7.203125e-03
7.781875e-10,7.093750e-03
7.821875e-10,6.546875e-03
7.861875e-10,7.046875e-03
7.901875e-10,6.703125e-03
7.941875e-10,6.734375e-03
7.981875e-10,7.187500e-03
8.021875e-10,7.437500e-03
8.061875e-10,7.343750e-03
8.101875e-10,6.968750e-03
8.141875e-10,7.031250e-03
8.181875e-10,7.453125e-03
8.221875e-10,7.125000e-03
8.261875e-10,7.734375e-03
8.301875e-10,7.984375e-03
8.341875e-10,8.140625e-03
8.381875e-10,7.046875e-03
8.421875e-10,7.796875e-03
8.461875e-10,7.046875e-03
8.501875e-10,8.281250e-03
8.541875e-10,8.125000e-03
8.581875e-10,7.953125e-03
8.621875e-10,7.375000e-03
8.661875e-10,7.781250e-03
8.701875e-10,7.390625e-03
8.741875e-10,7.406250e-03
8.781875e-10,7.828125e-03
8.821875e-10,8.000000e-03
8.861875e-10,7.875000e-03
8.901875e-10,7.500000e-03
8.941875e-10,7.500000e-03
8.981875e-10,7.953125e-03
9.021875e-10,7.609375e-03
9.061875e-10,8.218750e-03
9.101875e-10,8.453125e-03
9.141875e-10,8.609375e-03
9.181875e-10,7.546875e-03
9.221875e-10,8.296875e-03
9.261875e-10,7.546875e-03
9.301875e-10,8.796875e-03
9.341875e-10,8.656250e-03
9.381875e-10,8.500000e-03
9.421875e-10,7.921875e-03
9.461875e-10,8.343750e-03
9.501875e-10,7.968750e-03
9.541875e-10,8.000000e-03
9.581875e-10,8.437500e-03
9.621875e-10,8.578125e-03
9.661875e-10,8.437500e-03
9.701875e-10,8.046875e-03
9.741875e-10,8.015625e-03
9.781875e-10,8.453125e-03
9.821875e-10,8.093750e-03
9.861875e-10,8.656250e-03
9.901875e-10,8.828125e-03
9.941875e-10,8.953125e-03
9.981875e-10,7.828125e-03
1.002188e-09,8.562500e-03
1.006188e-09,7.718750e-03
1.010188e-09,8.890625e-03
1.014188e-09,8.656250e-03
1.018188e-09,8.406250e-03
1.022187e-09,7.765625e-03
1.026187e-09,8.093750e-03
1.030187e-09,7.625000e-03
1.034187e-09,7.578125e-03
1.038187e-09,7.921875e-03
1.042187e-09,7.968750e-03
1.046187e-09,7.718750e-03
1.050187e-09,7.234375e-03
1.054187e-09,7.109375e-03
1.058188e-09,7.437500e-03
1.062188e-09,6.984375e-03
1.066188e-09,7.453125e-03
1.070188e-09,7.546875e-03
1.074188e-09,7.609375e-03
1.078188e-09,6.406250e-03
1.082187e-09,7.093750e-03
1.086187e-09,6.187500e-03
1.090187e-09,7.281250e-03
1.094187e-09,7.000000e-03
1.098187e-09,6.703125e-03
1.102187e-09,6.015625e-03
1.106187e-09,6.312500e-03
1.110187e-09,5.843750e-03
1.114187e-09,5.765625e-03
1.118188e-09,6.093750e-03
1.122188e-09,6.156250e-03
1.126188e-09,5.906250e-03
1.130188e-09,5.437500e-03
1.134188e-09,5.328125e-03
1.138188e-09,5.671875e-03
1.142187e-09,5.218750e-03
1.146187e-09,5.734375e-03
1.150187e-09,5.859375e-03
1.154187e-09,5.968750e-03
1.158187e-09,4.781250e-03
1.162187e-09,5.531250e-03
1.166187e-09,4.656250e-03
1.170187e-09,5.796875e-03
1.174187e-09,5.546875e-03
1.178188e-09,5.296875e-03
1.182188e-09,4.640625e-03
1.186188e-09,4.984375e-03
1.190188e-09,4.531250e-03
1.194188e-09,4.500000e-03
1.198188e-09,4.859375e-03
1.202187e-09,4.968750e-03
1.206187e-09,4.734375e-03
1.210187e-09,4.281250e-03
1.214187e-09,4.203125e-03
1.218187e-09,4.562500e-03
1.222187e-09,4.109375e-03
1.226187e-09,4.640625e-03
1.230187e-09,4.796875e-03
1.234187e-09,4.921875e-03
1.238188e-09,3.703125e-03
1.242188e-09,4.453125e-03
1.246188e-09,3.593750e-03
1.250188e-09,4.750000e-03
1.254188e-09,4.500000e-03
1.258188e-09,4.234375e-03
1.262187e-09,3.593750e-03
1.266187e-09,3.937500e-03
1.270187e-09,3.500000e-03
1.274187e-09,3.468750e-03
1.278187e-09,3.828125e-03
1.282187e-09,3.984375e-03
1.286187e-09,3.765625e-03
1.290187e-09,3.343750e-03
1.294187e-09,3.312500e-03
1.298188e-09,3.718750e-03
1.302188e-09,3.312500e-03
1.306188e-09,3.906250e-03
1.310188e-09,4.125000e-03
1.314188e-09,4.328125e-03
1.318188e-09,3.171875e-03
1.322187e-09,4.015625e-03
1.326187e-09,3.250000e-03
1.330187e-09,4.500000e-03
1.334187e-09,4.359375e-03
1.338187e-09,4.234375e-03
1.342187e-09,3.703125e-03
1.346187e-09,4.187500e-03
1.350187e-09,3.875000e-03
1.354187e-09,3.968750e-03
1.358188e-09,4.484375e-03
1.362188e-09,4.781250e-03
1.366188e-09,4.703125e-03
1.370188e-09,4.421875e-03
1.374188e-09,4.546875e-03
1.378188e-09,5.078125e-03
1.382187e-09,4.812500e-03
1.386187e-09,5.562500e-03
1.390187e-09,5.890625e-03
1.394187e-09,6.234375e-03
1.398187e-09,5.171875e-03
1.402187e-09,6.125000e-03
1.406187e-09,5.453125e-03
1.410187e-09,6.796875e-03
1.414187e-09,6.718750e-03
1.418188e-09,6.656250e-03
1.422188e-09,6.171875e-03
1.426188e-09,6.687500e-03
1.430188e-09,6.390625e-03
1.434188e-09,6.484375e-03
1.438188e-09,6.984375e-03
1.442187e-09,7.265625e-03
1.446187e-09,7.140625e-03
1.450187e-09,6.796875e-03
1.454187e-09,6.843750e-03
1.458187e-09,7.281250e-03
1.462187e-09,6.906250e-03
1.466187e-09,7.531250e-03
1.470187e-09,7.734375e-03
1.474187e-09,7.921875e-03
1.478188e-09,6.703125e-03
1.482188e-09,7.484375e-03
1.486188e-09,6.625000e-03
1.490188e-09,7.796875e-03
1.494188e-09,7.531250e-03
1.498188e-09,7.250000e-03
1.502187e-09,6.562500e-03
1.506187e-09,6.875000e-03
1.510187e-09,6.375000e-03
1.514187e-09,6.265625e-03
1.518187e-09,6.562500e-03
1.522187e-09,6.656250e-03
1.526187e-09,6.328125e-03
1.530187e-09,5.812500e-03
1.534187e-09,5.687500e-03
1.538188e-09,5.968750e-03
1.542188e-09,5.437500e-03
1.546188e-09,5.921875e-03
1.550188e-09,6.015625e-03
1.554188e-09,6.093750e-03
1.558188e-09,4.781250e-03
1.562187e-09,5.484375e-03
1.566187e-09,4.578125e-03
1.570187e-09,5.703125e-03
1.574187e-09,5.421875e-03
1.578187e-09,5.156250e-03
1.582187e-09,4.484375e-03
1.586187e-09,4.843750e-03
1.590187e-09,4.406250e-03
1.594187e-09,4.375000e-03
1.598188e-09,4.765625e-03
1.602188e-09,4.968750e-03
1.606188e-09,4.781250e-03
1.610188e-09,4.390625e-03
1.614188e-09,4.421875e-03
1.618188e-09,4.875000e-03
1.622187e-09,4.531250e-03
1.626187e-09,5.203125e-03
1.630187e-09,5.484375e-03
1.634187e-09,5.781250e-03
1.638187e-09,4.656250e-03
1.642187e-09,5.578125e-03
1.646187e-09,4.875000e-03
1.650187e-09,6.218750e-03
1.654187e-09,6.140625e-03
1.658187e-09,6.062500e-03
1.662188e-09,5.593750e-03
1.666188e-09,6.125000e-03
1.670188e-09,5.859375e-03
1.674188e-09,6.000000e-03
1.678188e-09,6.531250e-03
1.682187e-09,6.859375e-03
1.686187e-09,6.796875e-03
1.690187e-09,6.515625e-03
1.694187e-09,6.625000e-03
1.698187e-09,7.140625e-03
1.702187e-09,6.843750e-03
1.706187e-09,7.546875e-03
1.710187e-09,7.828125e-03
1.714187e-09,8.093750e-03
1.718187e-09,6.953125e-03
1.722188e-09,7.812500e-03
1.726188e-09,7.046875e-03
1.730188e-09,8.281250e-03
1.734188e-09,8.093750e-03
1.738188e-09,7.890625e-03
1.742187e-09,7.281250e-03
1.746187e-09,7.656250e-03
1.750187e-09,7.218750e-03
1.754187e-09,7.171875e-03
1.758187e-09,7.531250e-03
