Measurements-streak-laser-independent/Photodiode-on-Tek-12bit-4GHz/Tek000_ch1_20190613133013208.csv

Model,MSO64
Waveform Type,ANALOG
Horizontal Units,s
Sample Interval,4.000000e-12
Record Length,1000
Zero Index,310.796875
Vertical Units,V

TIME,CH1
-1.243187e-09,3.921875e-03
-1.239187e-09,5.000000e-03
-1.235187e-09,4.656250e-03
-1.231187e-09,4.328125e-03
-1.227188e-09,3.609375e-03
-1.223188e-09,3.906250e-03
-1.219188e-09,3.421875e-03
-1.215188e-09,3.328125e-03
-1.211188e-09,3.671875e-03
-1.207188e-09,3.812500e-03
-1.203187e-09,3.546875e-03
-1.199187e-09,3.109375e-03
-1.195187e-09,3.078125e-03
-1.191187e-09,3.453125e-03
-1.187187e-09,3.031250e-03
-1.183187e-09,3.625000e-03
-1.179187e-09,3.828125e-03
-1.175187e-09,4.031250e-03
-1.171187e-09,2.828125e-03
-1.167188e-09,3.656250e-03
-1.163188e-09,2.859375e-03
-1.159188e-09,4.093750e-03
-1.155188e-09,3.921875e-03
-1.151188e-09,3.750000e-03
-1.147188e-09,3.156250e-03
-1.143187e-09,3.593750e-03
-1.139187e-09,3.218750e-03
-1.135187e-09,3.234375e-03
-1.131187e-09,3.671875e-03
-1.127187e-09,3.890625e-03
-1.123187e-09,3.703125e-03
-1.119187e-09,3.312500e-03
-1.115187e-09,3.312500e-03
-1.111187e-09,3.734375e-03
-1.107188e-09,3.328125e-03
-1.103188e-09,3.921875e-03
-1.099188e-09,4.125000e-03
-1.095188e-09,4.312500e-03
-1.091188e-09,3.078125e-03
-1.087188e-09,3.859375e-03
-1.083187e-09,3.015625e-03
-1.079187e-09,4.203125e-03
-1.075187e-09,3.968750e-03
-1.071187e-09,3.718750e-03
-1.067187e-09,3.062500e-03
-1.063187e-09,3.421875e-03
-1.059187e-09,2.968750e-03
-1.055187e-09,2.921875e-03
-1.051187e-09,3.281250e-03
-1.047188e-09,3.421875e-03
-1.043188e-09,3.171875e-03
-1.039188e-09,2.718750e-03
-1.035188e-09,2.671875e-03
-1.031188e-09,3.046875e-03
-1.027188e-09,2.593750e-03
-1.023187e-09,3.156250e-03
-1.019187e-09,3.328125e-03
-1.015187e-09,3.515625e-03
-1.011187e-09,2.281250e-03
-1.007187e-09,3.078125e-03
-1.003187e-09,2.250000e-03
-9.991875e-10,3.468750e-03
-9.951875e-10,3.281250e-03
-9.911875e-10,3.093750e-03
-9.871875e-10,2.515625e-03
-9.831875e-10,2.953125e-03
-9.791875e-10,2.578125e-03
-9.751875e-10,2.640625e-03
-9.711875e-10,3.093750e-03
-9.671875e-10,3.375000e-03
-9.631875e-10,3.250000e-03
-9.591875e-10,2.937500e-03
-9.551875e-10,3.031250e-03
-9.511875e-10,3.531250e-03
-9.471875e-10,3.234375e-03
-9.431875e-10,3.953125e-03
-9.391875e-10,4.281250e-03
-9.351875e-10,4.593750e-03
-9.311875e-10,3.515625e-03
-9.271875e-10,4.453125e-03
-9.231875e-10,3.781250e-03
-9.191875e-10,5.078125e-03
-9.151875e-10,5.015625e-03
-9.111875e-10,4.937500e-03
-9.071875e-10,4.468750e-03
-9.031875e-10,5.000000e-03
-8.991875e-10,4.718750e-03
-8.951875e-10,4.843750e-03
-8.911875e-10,5.359375e-03
-8.871875e-10,5.671875e-03
-8.831875e-10,5.578125e-03
-8.791875e-10,5.265625e-03
-8.751875e-10,5.343750e-03
-8.711875e-10,5.828125e-03
-8.671875e-10,5.484375e-03
-8.631875e-10,6.156250e-03
-8.591875e-10,6.406250e-03
-8.551875e-10,6.640625e-03
-8.511875e-10,5.500000e-03
-8.471875e-10,6.312500e-03
-8.431875e-10,5.515625e-03
-8.391875e-10,6.609375e-03
-8.351875e-10,6.437500e-03
-8.311875e-10,6.218750e-03
-8.271875e-10,5.609375e-03
-8.231875e-10,5.968750e-03
-8.191875e-10,5.515625e-03
-8.151875e-10,5.484375e-03
-8.111875e-10,5.828125e-03
-8.071875e-10,5.968750e-03
-8.031875e-10,5.734375e-03
-7.991875e-10,5.250000e-03
-7.951875e-10,5.156250e-03
-7.911875e-10,5.484375e-03
-7.871875e-10,5.000000e-03
-7.831875e-10,5.531250e-03
-7.791875e-10,5.656250e-03
-7.751875e-10,5.765625e-03
-7.711875e-10,4.546875e-03
-7.671875e-10,5.296875e-03
-7.631875e-10,4.421875e-03
-7.591875e-10,5.406250e-03
-7.551875e-10,5.218750e-03
-7.511875e-10,4.984375e-03
-7.471875e-10,4.421875e-03
-7.431875e-10,4.765625e-03
-7.391875e-10,4.312500e-03
-7.351875e-10,4.390625e-03
-7.311875e-10,4.765625e-03
-7.271875e-10,4.953125e-03
-7.231875e-10,4.906250e-03
-7.191875e-10,4.500000e-03
-7.151875e-10,4.531250e-03
-7.111875e-10,4.968750e-03
-7.071875e-10,4.640625e-03
-7.031875e-10,5.312500e-03
-6.991875e-10,5.609375e-03
-6.951875e-10,5.875000e-03
-6.911875e-10,4.828125e-03
-6.871875e-10,5.750000e-03
-6.831875e-10,5.109375e-03
-6.791875e-10,6.203125e-03
-6.751875e-10,6.234375e-03
-6.711875e-10,6.203125e-03
-6.671875e-10,5.828125e-03
-6.631875e-10,6.296875e-03
-6.591875e-10,5.968750e-03
-6.551875e-10,6.218750e-03
-6.511875e-10,6.734375e-03
-6.471875e-10,7.000000e-03
-6.431875e-10,7.156250e-03
-6.391875e-10,6.843750e-03
-6.351875e-10,6.921875e-03
-6.311875e-10,7.406250e-03
-6.271875e-10,7.171875e-03
-6.231875e-10,7.843750e-03
-6.191875e-10,8.171875e-03
-6.151875e-10,8.421875e-03
-6.111875e-10,7.296875e-03
-6.071875e-10,8.187500e-03
-6.031875e-10,7.562500e-03
-5.991875e-10,8.562500e-03
-5.951875e-10,8.531250e-03
-5.911875e-10,8.406250e-03
-5.871875e-10,7.906250e-03
-5.831875e-10,8.218750e-03
-5.791875e-10,7.718750e-03
-5.751875e-10,7.828125e-03
-5.711875e-10,8.187500e-03
-5.671875e-10,8.234375e-03
-5.631875e-10,8.218750e-03
-5.591875e-10,7.718750e-03
-5.551875e-10,7.609375e-03
-5.511875e-10,7.906250e-03
-5.471875e-10,7.484375e-03
-5.431875e-10,7.968750e-03
-5.391875e-10,8.062500e-03
-5.351875e-10,8.093750e-03
-5.311875e-10,6.750000e-03
-5.271875e-10,7.421875e-03
-5.231875e-10,6.671875e-03
-5.191875e-10,7.484375e-03
-5.151875e-10,7.328125e-03
-5.111875e-10,7.000000e-03
-5.071875e-10,6.328125e-03
-5.031875e-10,6.500000e-03
-4.991875e-10,5.890625e-03
-4.951875e-10,5.843750e-03
-4.911875e-10,6.125000e-03
-4.871875e-10,6.046875e-03
-4.831875e-10,5.890625e-03
-4.791875e-10,5.328125e-03
-4.751875e-10,5.203125e-03
-4.711875e-10,5.484375e-03
-4.671875e-10,4.984375e-03
-4.631875e-10,5.484375e-03
-4.591875e-10,5.515625e-03
-4.551875e-10,5.546875e-03
-4.511875e-10,4.218750e-03
-4.471875e-10,4.843750e-03
-4.431875e-10,4.125000e-03
-4.391875e-10,4.968750e-03
-4.351875e-10,4.890625e-03
-4.311875e-10,4.546875e-03
-4.271875e-10,3.921875e-03
-4.231875e-10,4.156250e-03
-4.191875e-10,3.687500e-03
-4.151875e-10,3.593750e-03
-4.111875e-10,3.968750e-03
-4.071875e-10,3.953125e-03
-4.031875e-10,3.765625e-03
-3.991875e-10,3.296875e-03
-3.951875e-10,3.296875e-03
-3.911875e-10,3.687500e-03
-3.871875e-10,3.187500e-03
-3.831875e-10,3.781250e-03
-3.791875e-10,3.906250e-03
-3.751875e-10,4.000000e-03
-3.711875e-10,2.781250e-03
-3.671875e-10,3.406250e-03
-3.631875e-10,2.781250e-03
-3.591875e-10,3.734375e-03
-3.551875e-10,3.718750e-03
-3.511875e-10,3.437500e-03
-3.471875e-10,2.937500e-03
-3.431875e-10,3.281250e-03
-3.391875e-10,2.984375e-03
-3.351875e-10,2.921875e-03
-3.311875e-10,3.406250e-03
-3.271875e-10,3.531250e-03
-3.231875e-10,3.390625e-03
-3.191875e-10,3.109375e-03
-3.151875e-10,3.281250e-03
-3.111875e-10,3.828125e-03
-3.071875e-10,3.453125e-03
-3.031875e-10,4.171875e-03
-2.991875e-10,4.531250e-03
-2.951875e-10,4.796875e-03
-2.911875e-10,3.812500e-03
-2.871875e-10,4.578125e-03
-2.831875e-10,4.125000e-03
-2.791875e-10,5.296875e-03
-2.751875e-10,5.437500e-03
-2.711875e-10,5.375000e-03
-2.671875e-10,5.125000e-03
-2.631875e-10,5.671875e-03
-2.591875e-10,5.578125e-03
-2.551875e-10,5.703125e-03
-2.511875e-10,6.328125e-03
-2.471875e-10,6.625000e-03
-2.431875e-10,6.625000e-03
-2.391875e-10,6.546875e-03
-2.351875e-10,6.812500e-03
-2.311875e-10,7.453125e-03
-2.271875e-10,7.218750e-03
-2.231875e-10,7.968750e-03
-2.191875e-10,8.406250e-03
-2.151875e-10,8.703125e-03
-2.111875e-10,7.765625e-03
-2.071875e-10,8.500000e-03
-2.031875e-10,7.921875e-03
-1.991875e-10,9.062500e-03
-1.951875e-10,9.031250e-03
-1.911875e-10,8.859375e-03
-1.871875e-10,8.468750e-03
-1.831875e-10,8.812500e-03
-1.791875e-10,8.468750e-03
-1.751875e-10,8.359375e-03
-1.711875e-10,8.656250e-03
-1.671875e-10,8.671875e-03
-1.631875e-10,8.328125e-03
-1.591875e-10,7.953125e-03
-1.551875e-10,7.812500e-03
-1.511875e-10,8.015625e-03
-1.471875e-10,7.437500e-03
-1.431875e-10,7.796875e-03
-1.391875e-10,7.828125e-03
-1.351875e-10,7.781250e-03
-1.311875e-10,6.546875e-03
-1.271875e-10,6.984375e-03
-1.231875e-10,6.046875e-03
-1.191875e-10,6.984375e-03
-1.151875e-10,6.671875e-03
-1.111875e-10,6.343750e-03
-1.071875e-10,5.875000e-03
-1.031875e-10,6.218750e-03
-9.918750e-11,5.890625e-03
-9.518750e-11,5.968750e-03
-9.118750e-11,6.453125e-03
-8.718750e-11,6.828125e-03
-8.318750e-11,6.906250e-03
-7.918750e-11,7.093750e-03
-7.518750e-11,7.625000e-03
-7.118750e-11,8.531250e-03
-6.718750e-11,8.906250e-03
-6.318750e-11,1.037500e-02
-5.918750e-11,1.159375e-02
-5.518750e-11,1.300000e-02
-5.118750e-11,1.334375e-02
-4.718750e-11,1.548438e-02
-4.318750e-11,1.637500e-02
-3.918750e-11,1.939063e-02
-3.518750e-11,2.118750e-02
-3.118750e-11,2.326563e-02
-2.718750e-11,2.531250e-02
-2.318750e-11,2.834375e-02
-1.918750e-11,3.087500e-02
-1.518750e-11,3.395313e-02
-1.118750e-11,3.759375e-02
-7.187500e-12,4.132813e-02
-3.187500e-12,4.479688e-02
8.125000e-13,4.854688e-02
4.812500e-12,5.273438e-02
8.812500e-12,5.737500e-02
1.281250e-11,6.164063e-02
1.681250e-11,6.707813e-02
2.081250e-11,7.231250e-02
2.481250e-11,7.787500e-02
2.881250e-11,8.237500e-02
3.281250e-11,8.867188e-02
3.681250e-11,9.371875e-02
4.081250e-11,1.009219e-01
4.481250e-11,1.068125e-01
4.881250e-11,1.130625e-01
5.281250e-11,1.191250e-01
5.681250e-11,1.261094e-01
6.081250e-11,1.325313e-01
6.481250e-11,1.393438e-01
6.881250e-11,1.466563e-01
7.281250e-11,1.539688e-01
7.681250e-11,1.607031e-01
8.081250e-11,1.675938e-01
8.481250e-11,1.747188e-01
8.881250e-11,1.820781e-01
9.281250e-11,1.889063e-01
9.681250e-11,1.965938e-01
1.008125e-10,2.037969e-01
1.048125e-10,2.111563e-01
1.088125e-10,2.171094e-01
1.128125e-10,2.246094e-01
1.168125e-10,2.305313e-01
1.208125e-10,2.382656e-01
1.248125e-10,2.443594e-01
1.288125e-10,2.506094e-01
1.328125e-10,2.562344e-01
1.368125e-10,2.624375e-01
1.408125e-10,2.678438e-01
1.448125e-10,2.732969e-01
1.488125e-10,2.788906e-01
1.528125e-10,2.842656e-01
1.568125e-10,2.885938e-01
1.608125e-10,2.927969e-01
1.648125e-10,2.969844e-01
1.688125e-10,3.010938e-01
1.728125e-10,3.044375e-01
1.768125e-10,3.083125e-01
1.808125e-10,3.113750e-01
1.848125e-10,3.144375e-01
1.888125e-10,3.157813e-01
1.928125e-10,3.185469e-01
1.968125e-10,3.195000e-01
2.008125e-10,3.220313e-01
2.048125e-10,3.227500e-01
2.088125e-10,3.235000e-01
2.128125e-10,3.234688e-01
2.168125e-10,3.238906e-01
2.208125e-10,3.234844e-01
2.248125e-10,3.230469e-01
2.288125e-10,3.226250e-01
2.328125e-10,3.220156e-01
2.368125e-10,3.202969e-01
2.408125e-10,3.184219e-01
2.448125e-10,3.166094e-01
2.488125e-10,3.147813e-01
2.528125e-10,3.122031e-01
2.568125e-10,3.101719e-01
2.608125e-10,3.074375e-01
2.648125e-10,3.048438e-01
2.688125e-10,3.005781e-01
2.728125e-10,2.979688e-01
2.768125e-10,2.937188e-01
2.808125e-10,2.910625e-01
2.848125e-10,2.868281e-01
2.888125e-10,2.827656e-01
2.928125e-10,2.781250e-01
2.968125e-10,2.741875e-01
3.008125e-10,2.696406e-01
3.048125e-10,2.652344e-01
3.088125e-10,2.610000e-01
3.128125e-10,2.568281e-01
3.168125e-10,2.518125e-01
3.208125e-10,2.467969e-01
3.248125e-10,2.421094e-01
3.288125e-10,2.376406e-01
3.328125e-10,2.325781e-01
3.368125e-10,2.282969e-01
3.408125e-10,2.235625e-01
3.448125e-10,2.191719e-01
3.488125e-10,2.132500e-01
3.528125e-10,2.092969e-01
3.568125e-10,2.039063e-01
3.608125e-10,2.002031e-01
3.648125e-10,1.951719e-01
3.688125e-10,1.904688e-01
3.728125e-10,1.853281e-01
3.768125e-10,1.811250e-01
3.808125e-10,1.764844e-01
3.848125e-10,1.720938e-01
3.888125e-10,1.679844e-01
3.928125e-10,1.640469e-01
3.968125e-10,1.595000e-01
4.008125e-10,1.550313e-01
4.048125e-10,1.509531e-01
4.088125e-10,1.472500e-01
4.128125e-10,1.429688e-01
4.168125e-10,1.395781e-01
4.208125e-10,1.358750e-01
4.248125e-10,1.325156e-01
4.288125e-10,1.277188e-01
4.328125e-10,1.249844e-01
4.368125e-10,1.208594e-01
4.408125e-10,1.184375e-01
4.448125e-10,1.148125e-01
4.488125e-10,1.114531e-01
4.528125e-10,1.077188e-01
4.568125e-10,1.049688e-01
4.608125e-10,1.017813e-01
4.648125e-10,9.889063e-02
4.688125e-10,9.626563e-02
4.728125e-10,9.381250e-02
4.768125e-10,9.087500e-02
4.808125e-10,8.795313e-02
4.848125e-10,8.542188e-02
4.888125e-10,8.332813e-02
4.928125e-10,8.059375e-02
4.968125e-10,7.870313e-02
5.008125e-10,7.662500e-02
5.048125e-10,7.476563e-02
5.088125e-10,7.154688e-02
5.128125e-10,7.035938e-02
5.168125e-10,6.779688e-02
5.208125e-10,6.692188e-02
5.248125e-10,6.490625e-02
5.288125e-10,6.300000e-02
5.328125e-10,6.081250e-02
5.368125e-10,5.957813e-02
5.408125e-10,5.779688e-02
5.448125e-10,5.637500e-02
5.488125e-10,5.517188e-02
5.528125e-10,5.412500e-02
5.568125e-10,5.267188e-02
5.608125e-10,5.112500e-02
5.648125e-10,4.996875e-02
5.688125e-10,4.920313e-02
5.728125e-10,4.778125e-02
5.768125e-10,4.714063e-02
5.808125e-10,4.632813e-02
5.848125e-10,4.560938e-02
5.888125e-10,4.359375e-02
5.928125e-10,4.348438e-02
5.968125e-10,4.203125e-02
6.008125e-10,4.223438e-02
6.048125e-10,4.126563e-02
6.088125e-10,4.026563e-02
6.128125e-10,3.900000e-02
6.168125e-10,3.865625e-02
6.208125e-10,3.760938e-02
6.248125e-10,3.689063e-02
6.288125e-10,3.643750e-02
6.328125e-10,3.603125e-02
6.368125e-10,3.521875e-02
6.408125e-10,3.420313e-02
6.448125e-10,3.360938e-02
6.488125e-10,3.325000e-02
6.528125e-10,3.221875e-02
6.568125e-10,3.195313e-02
6.608125e-10,3.150000e-02
6.648125e-10,3.095313e-02
6.688125e-10,2.918750e-02
6.728125e-10,2.920313e-02
6.768125e-10,2.790625e-02
6.808125e-10,2.823438e-02
6.848125e-10,2.734375e-02
6.888125e-10,2.635938e-02
6.928125e-10,2.504688e-02
6.968125e-10,2.475000e-02
7.008125e-10,2.359375e-02
7.048125e-10,2.275000e-02
7.088125e-10,2.225000e-02
7.128125e-10,2.176563e-02
7.168125e-10,2.087500e-02
7.208125e-10,1.968750e-02
7.248125e-10,1.903125e-02
7.288125e-10,1.853125e-02
7.328125e-10,1.740625e-02
7.368125e-10,1.710938e-02
7.408125e-10,1.662500e-02
7.448125e-10,1.593750e-02
7.488125e-10,1.418750e-02
7.528125e-10,1.414063e-02
7.568125e-10,1.285938e-02
7.608125e-10,1.328125e-02
7.648125e-10,1.248438e-02
7.688125e-10,1.165625e-02
7.728125e-10,1.043750e-02
7.768125e-10,1.032813e-02
7.808125e-10,9.359375e-03
7.848125e-10,8.750000e-03
7.888125e-10,8.593750e-03
7.928125e-10,8.390625e-03
7.968125e-10,7.890625e-03
8.008125e-10,7.093750e-03
8.048125e-10,6.843750e-03
8.088125e-10,6.843750e-03
8.128125e-10,6.250000e-03
8.168125e-10,6.531250e-03
8.208125e-10,6.625000e-03
8.248125e-10,6.484375e-03
8.288125e-10,5.390625e-03
8.328125e-10,5.921875e-03
8.368125e-10,5.250000e-03
8.408125e-10,6.406250e-03
8.448125e-10,6.312500e-03
8.488125e-10,6.218750e-03
8.528125e-10,5.687500e-03
8.568125e-10,6.234375e-03
8.608125e-10,5.968750e-03
8.648125e-10,6.093750e-03
8.688125e-10,6.687500e-03
8.728125e-10,7.046875e-03
8.768125e-10,7.250000e-03
8.808125e-10,7.078125e-03
8.848125e-10,7.375000e-03
8.888125e-10,8.062500e-03
8.928125e-10,8.062500e-03
8.968125e-10,8.906250e-03
9.008125e-10,9.468750e-03
9.048125e-10,9.812500e-03
9.088125e-10,9.187500e-03
9.128125e-10,1.010938e-02
9.168125e-10,9.734375e-03
9.208125e-10,1.128125e-02
9.248125e-10,1.146875e-02
9.288125e-10,1.160938e-02
9.328125e-10,1.131250e-02
9.368125e-10,1.195313e-02
9.408125e-10,1.184375e-02
9.448125e-10,1.209375e-02
9.488125e-10,1.276563e-02
9.528125e-10,1.300000e-02
9.568125e-10,1.315625e-02
9.608125e-10,1.295313e-02
9.648125e-10,1.306250e-02
9.688125e-10,1.365625e-02
9.728125e-10,1.350000e-02
9.768125e-10,1.412500e-02
9.808125e-10,1.439063e-02
9.848125e-10,1.450000e-02
9.888125e-10,1.360938e-02
9.928125e-10,1.425000e-02
9.968125e-10,1.348438e-02
1.000812e-09,1.468750e-02
1.004812e-09,1.451563e-02
1.008812e-09,1.426563e-02
1.012812e-09,1.360938e-02
1.016812e-09,1.387500e-02
1.020812e-09,1.339063e-02
1.024813e-09,1.329688e-02
1.028813e-09,1.359375e-02
1.032813e-09,1.342188e-02
1.036813e-09,1.317188e-02
1.040813e-09,1.262500e-02
1.044813e-09,1.232813e-02
1.048812e-09,1.260938e-02
1.052812e-09,1.209375e-02
1.056812e-09,1.239063e-02
1.060812e-09,1.234375e-02
1.064812e-09,1.217188e-02
1.068812e-09,1.104688e-02
1.072812e-09,1.148438e-02
1.076812e-09,1.046875e-02
1.080812e-09,1.140625e-02
1.084813e-09,1.103125e-02
1.088813e-09,1.059375e-02
1.092813e-09,9.796875e-03
1.096813e-09,9.937500e-03
1.100813e-09,9.343750e-03
1.104813e-09,9.156250e-03
1.108812e-09,9.375000e-03
1.112812e-09,9.187500e-03
1.116812e-09,8.859375e-03
1.120812e-09,8.296875e-03
1.124812e-09,8.000000e-03
1.128812e-09,8.281250e-03
1.132812e-09,7.765625e-03
1.136812e-09,8.109375e-03
1.140812e-09,8.140625e-03
1.144813e-09,8.078125e-03
1.148813e-09,7.000000e-03
1.152813e-09,7.609375e-03
1.156813e-09,6.703125e-03
1.160813e-09,7.750000e-03
1.164813e-09,7.468750e-03
1.168812e-09,7.187500e-03
1.172812e-09,6.515625e-03
1.176812e-09,6.843750e-03
1.180812e-09,6.406250e-03
1.184812e-09,6.390625e-03
1.188812e-09,6.781250e-03
1.192812e-09,6.843750e-03
1.196812e-09,6.687500e-03
1.200812e-09,6.296875e-03
1.204813e-09,6.250000e-03
1.208813e-09,6.703125e-03
1.212813e-09,6.375000e-03
1.216813e-09,6.968750e-03
1.220813e-09,7.218750e-03
1.224813e-09,7.406250e-03
1.228812e-09,6.500000e-03
1.232812e-09,7.359375e-03
1.236812e-09,6.671875e-03
1.240812e-09,7.937500e-03
1.244812e-09,7.875000e-03
1.248812e-09,7.812500e-03
1.252812e-09,7.359375e-03
1.256812e-09,7.906250e-03
1.260812e-09,7.687500e-03
1.264813e-09,7.859375e-03
1.268813e-09,8.437500e-03
1.272813e-09,8.750000e-03
1.276813e-09,8.765625e-03
1.280813e-09,8.562500e-03
1.284813e-09,8.703125e-03
1.288812e-09,9.312500e-03
1.292812e-09,9.140625e-03
1.296812e-09,9.890625e-03
1.300812e-09,1.028125e-02
1.304812e-09,1.062500e-02
1.308812e-09,9.750000e-03
1.312812e-09,1.071875e-02
1.316812e-09,1.009375e-02
1.320812e-09,1.143750e-02
1.324813e-09,1.140625e-02
1.328813e-09,1.137500e-02
1.332813e-09,1.092188e-02
1.336813e-09,1.145313e-02
1.340813e-09,1.118750e-02
1.344813e-09,1.131250e-02
1.348812e-09,1.181250e-02
1.352812e-09,1.206250e-02
1.356812e-09,1.195313e-02
1.360812e-09,1.160938e-02
1.364812e-09,1.162500e-02
1.368812e-09,1.206250e-02
1.372812e-09,1.167188e-02
1.376812e-09,1.225000e-02
1.380812e-09,1.240625e-02
1.384813e-09,1.254688e-02
1.388813e-09,1.134375e-02
1.392813e-09,1.206250e-02
1.396813e-09,1.115625e-02
1.400813e-09,1.225000e-02
1.404813e-09,1.192188e-02
1.408812e-09,1.156250e-02
1.412812e-09,1.081250e-02
1.416812e-09,1.103125e-02
1.420812e-09,1.045313e-02
1.424812e-09,1.026563e-02
1.428812e-09,1.045313e-02
1.432812e-09,1.042188e-02
1.436812e-09,1.001563e-02
1.440812e-09,9.375000e-03
1.444813e-09,9.140625e-03
1.448813e-09,9.312500e-03
1.452813e-09,8.671875e-03
1.456813e-09,9.031250e-03
1.460813e-09,9.000000e-03
1.464813e-09,8.953125e-03
1.468812e-09,7.562500e-03
1.472812e-09,8.140625e-03
1.476812e-09,7.125000e-03
1.480812e-09,8.125000e-03
1.484812e-09,7.734375e-03
1.488812e-09,7.359375e-03
1.492812e-09,6.593750e-03
1.496812e-09,6.843750e-03
1.500812e-09,6.312500e-03
1.504813e-09,6.203125e-03
1.508813e-09,6.515625e-03
1.512813e-09,6.625000e-03
1.516813e-09,6.375000e-03
1.520813e-09,5.937500e-03
1.524813e-09,5.906250e-03
1.528812e-09,6.312500e-03
1.532812e-09,5.937500e-03
1.536812e-09,6.562500e-03
1.540812e-09,6.828125e-03
1.544812e-09,7.109375e-03
1.548812e-09,6.015625e-03
1.552812e-09,6.937500e-03
1.556812e-09,6.265625e-03
1.560812e-09,7.609375e-03
1.564813e-09,7.562500e-03
1.568813e-09,7.546875e-03
1.572813e-09,7.125000e-03
1.576813e-09,7.718750e-03
1.580813e-09,7.515625e-03
1.584813e-09,7.718750e-03
1.588812e-09,8.328125e-03
1.592812e-09,8.734375e-03
1.596812e-09,8.750000e-03
1.600812e-09,8.562500e-03
1.604812e-09,8.765625e-03
1.608812e-09,9.359375e-03
1.612812e-09,9.156250e-03
1.616812e-09,9.937500e-03
1.620812e-09,1.031250e-02
1.624813e-09,1.067188e-02
1.628813e-09,9.625000e-03
1.632813e-09,1.056250e-02
1.636813e-09,9.875000e-03
1.640813e-09,1.117188e-02
1.644813e-09,1.104688e-02
1.648812e-09,1.090625e-02
1.652812e-09,1.032813e-02
1.656812e-09,1.075000e-02
1.660812e-09,1.034375e-02
1.664812e-09,1.031250e-02
1.668812e-09,1.065625e-02
1.672812e-09,1.078125e-02
1.676812e-09,1.050000e-02
1.680812e-09,9.968750e-03
1.684813e-09,9.828125e-03
1.688813e-09,1.007813e-02
1.692813e-09,9.500000e-03
1.696813e-09,9.906250e-03
1.700813e-09,9.890625e-03
1.704813e-09,9.859375e-03
1.708812e-09,8.406250e-03
1.712812e-09,8.968750e-03
1.716812e-09,7.890625e-03
1.720812e-09,8.828125e-03
1.724812e-09,8.343750e-03
1.728812e-09,7.859375e-03
1.732812e-09,6.968750e-03
1.736812e-09,7.078125e-03
1.740812e-09,6.375000e-03
1.744812e-09,6.093750e-03
1.748813e-09,6.218750e-03
1.752813e-09,6.125000e-03
1.756813e-09,5.671875e-03
