Measurements-streak-laser-independent/Photodiode-on-Tek-12bit-4GHz/Tek000_ch1_20190613132953953.csv

Model,MSO64
Waveform Type,ANALOG
Horizontal Units,s
Sample Interval,4.000000e-12
Record Length,1000
Zero Index,310.390625
Vertical Units,V

TIME,CH1
-1.241562e-09,3.296875e-03
-1.237562e-09,3.140625e-03
-1.233562e-09,2.781250e-03
-1.229563e-09,2.843750e-03
-1.225563e-09,3.328125e-03
-1.221563e-09,3.000000e-03
-1.217563e-09,3.703125e-03
-1.213563e-09,4.015625e-03
-1.209562e-09,4.328125e-03
-1.205562e-09,3.234375e-03
-1.201562e-09,4.171875e-03
-1.197562e-09,3.500000e-03
-1.193562e-09,4.843750e-03
-1.189562e-09,4.781250e-03
-1.185562e-09,4.734375e-03
-1.181562e-09,4.265625e-03
-1.177562e-09,4.812500e-03
-1.173562e-09,4.562500e-03
-1.169563e-09,4.703125e-03
-1.165563e-09,5.250000e-03
-1.161563e-09,5.593750e-03
-1.157563e-09,5.531250e-03
-1.153563e-09,5.250000e-03
-1.149562e-09,5.375000e-03
-1.145562e-09,5.906250e-03
-1.141562e-09,5.609375e-03
-1.137562e-09,6.328125e-03
-1.133562e-09,6.640625e-03
-1.129562e-09,6.921875e-03
-1.125562e-09,5.796875e-03
-1.121562e-09,6.671875e-03
-1.117562e-09,5.921875e-03
-1.113562e-09,7.203125e-03
-1.109563e-09,7.031250e-03
-1.105563e-09,6.875000e-03
-1.101563e-09,6.281250e-03
-1.097563e-09,6.703125e-03
-1.093563e-09,6.312500e-03
-1.089562e-09,6.296875e-03
-1.085562e-09,6.703125e-03
-1.081562e-09,6.875000e-03
-1.077562e-09,6.656250e-03
-1.073562e-09,6.203125e-03
-1.069562e-09,6.171875e-03
-1.065562e-09,6.531250e-03
-1.061562e-09,6.062500e-03
-1.057562e-09,6.609375e-03
-1.053563e-09,6.750000e-03
-1.049563e-09,6.890625e-03
-1.045563e-09,5.593750e-03
-1.041563e-09,6.343750e-03
-1.037563e-09,5.453125e-03
-1.033563e-09,6.593750e-03
-1.029562e-09,6.312500e-03
-1.025562e-09,6.031250e-03
-1.021562e-09,5.343750e-03
-1.017562e-09,5.671875e-03
-1.013562e-09,5.187500e-03
-1.009562e-09,5.109375e-03
-1.005562e-09,5.437500e-03
-1.001562e-09,5.578125e-03
-9.975625e-10,5.296875e-03
-9.935625e-10,4.828125e-03
-9.895625e-10,4.750000e-03
-9.855625e-10,5.093750e-03
-9.815625e-10,4.625000e-03
-9.775625e-10,5.187500e-03
-9.735625e-10,5.328125e-03
-9.695625e-10,5.468750e-03
-9.655625e-10,4.187500e-03
-9.615625e-10,4.953125e-03
-9.575625e-10,4.078125e-03
-9.535625e-10,5.218750e-03
-9.495625e-10,4.968750e-03
-9.455625e-10,4.718750e-03
-9.415625e-10,4.046875e-03
-9.375625e-10,4.406250e-03
-9.335625e-10,3.937500e-03
-9.295625e-10,3.875000e-03
-9.255625e-10,4.234375e-03
-9.215625e-10,4.359375e-03
-9.175625e-10,4.093750e-03
-9.135625e-10,3.625000e-03
-9.095625e-10,3.546875e-03
-9.055625e-10,3.875000e-03
-9.015625e-10,3.390625e-03
-8.975625e-10,3.906250e-03
-8.935625e-10,4.015625e-03
-8.895625e-10,4.125000e-03
-8.855625e-10,2.843750e-03
-8.815625e-10,3.546875e-03
-8.775625e-10,2.625000e-03
-8.735625e-10,3.656250e-03
-8.695625e-10,3.375000e-03
-8.655625e-10,3.046875e-03
-8.615625e-10,2.343750e-03
-8.575625e-10,2.625000e-03
-8.535625e-10,2.093750e-03
-8.495625e-10,2.000000e-03
-8.455625e-10,2.281250e-03
-8.415625e-10,2.359375e-03
-8.375625e-10,2.062500e-03
-8.335625e-10,1.531250e-03
-8.295625e-10,1.406250e-03
-8.255625e-10,1.703125e-03
-8.215625e-10,1.187500e-03
-8.175625e-10,1.703125e-03
-8.135625e-10,1.812500e-03
-8.095625e-10,1.921875e-03
-8.055625e-10,6.718750e-04
-8.015625e-10,1.406250e-03
-7.975625e-10,5.312500e-04
-7.935625e-10,1.562500e-03
-7.895625e-10,1.359375e-03
-7.855625e-10,1.125000e-03
-7.815625e-10,5.468750e-04
-7.775625e-10,9.218750e-04
-7.735625e-10,5.000000e-04
-7.695625e-10,5.625000e-04
-7.655625e-10,9.843750e-04
-7.615625e-10,1.203125e-03
-7.575625e-10,1.125000e-03
-7.535625e-10,7.500000e-04
-7.495625e-10,8.125000e-04
-7.455625e-10,1.281250e-03
-7.415625e-10,9.687500e-04
-7.375625e-10,1.671875e-03
-7.335625e-10,2.000000e-03
-7.295625e-10,2.296875e-03
-7.255625e-10,1.265625e-03
-7.215625e-10,2.218750e-03
-7.175625e-10,1.578125e-03
-7.135625e-10,2.765625e-03
-7.095625e-10,2.781250e-03
-7.055625e-10,2.765625e-03
-7.015625e-10,2.390625e-03
-6.975625e-10,2.906250e-03
-6.935625e-10,2.625000e-03
-6.895625e-10,2.875000e-03
-6.855625e-10,3.406250e-03
-6.815625e-10,3.718750e-03
-6.775625e-10,3.828125e-03
-6.735625e-10,3.546875e-03
-6.695625e-10,3.656250e-03
-6.655625e-10,4.171875e-03
-6.615625e-10,3.937500e-03
-6.575625e-10,4.640625e-03
-6.535625e-10,4.984375e-03
-6.495625e-10,5.265625e-03
-6.455625e-10,4.171875e-03
-6.415625e-10,5.078125e-03
-6.375625e-10,4.437500e-03
-6.335625e-10,5.515625e-03
-6.295625e-10,5.468750e-03
-6.255625e-10,5.359375e-03
-6.215625e-10,4.859375e-03
-6.175625e-10,5.234375e-03
-6.135625e-10,4.781250e-03
-6.095625e-10,4.906250e-03
-6.055625e-10,5.296875e-03
-6.015625e-10,5.421875e-03
-5.975625e-10,5.406250e-03
-5.935625e-10,4.968750e-03
-5.895625e-10,4.921875e-03
-5.855625e-10,5.281250e-03
-5.815625e-10,4.906250e-03
-5.775625e-10,5.468750e-03
-5.735625e-10,5.640625e-03
-5.695625e-10,5.781250e-03
-5.655625e-10,4.531250e-03
-5.615625e-10,5.328125e-03
-5.575625e-10,4.625000e-03
-5.535625e-10,5.625000e-03
-5.495625e-10,5.531250e-03
-5.455625e-10,5.359375e-03
-5.415625e-10,4.812500e-03
-5.375625e-10,5.156250e-03
-5.335625e-10,4.718750e-03
-5.295625e-10,4.812500e-03
-5.255625e-10,5.265625e-03
-5.215625e-10,5.406250e-03
-5.175625e-10,5.421875e-03
-5.135625e-10,5.046875e-03
-5.095625e-10,5.125000e-03
-5.055625e-10,5.609375e-03
-5.015625e-10,5.328125e-03
-4.975625e-10,6.046875e-03
-4.935625e-10,6.328125e-03
-4.895625e-10,6.593750e-03
-4.855625e-10,5.500000e-03
-4.815625e-10,6.390625e-03
-4.775625e-10,5.875000e-03
-4.735625e-10,7.015625e-03
-4.695625e-10,7.125000e-03
-4.655625e-10,7.046875e-03
-4.615625e-10,6.640625e-03
-4.575625e-10,7.125000e-03
-4.535625e-10,6.859375e-03
-4.495625e-10,7.015625e-03
-4.455625e-10,7.593750e-03
-4.415625e-10,7.812500e-03
-4.375625e-10,7.828125e-03
-4.335625e-10,7.531250e-03
-4.295625e-10,7.671875e-03
-4.255625e-10,8.203125e-03
-4.215625e-10,7.875000e-03
-4.175625e-10,8.593750e-03
-4.135625e-10,8.828125e-03
-4.095625e-10,9.031250e-03
-4.055625e-10,7.859375e-03
-4.015625e-10,8.593750e-03
-3.975625e-10,7.953125e-03
-3.935625e-10,8.968750e-03
-3.895625e-10,8.906250e-03
-3.855625e-10,8.609375e-03
-3.815625e-10,8.015625e-03
-3.775625e-10,8.296875e-03
-3.735625e-10,7.859375e-03
-3.695625e-10,7.718750e-03
-3.655625e-10,8.046875e-03
-3.615625e-10,8.015625e-03
-3.575625e-10,7.703125e-03
-3.535625e-10,7.187500e-03
-3.495625e-10,7.093750e-03
-3.455625e-10,7.390625e-03
-3.415625e-10,6.765625e-03
-3.375625e-10,7.203125e-03
-3.335625e-10,7.250000e-03
-3.295625e-10,7.218750e-03
-3.255625e-10,5.875000e-03
-3.215625e-10,6.359375e-03
-3.175625e-10,5.515625e-03
-3.135625e-10,6.390625e-03
-3.095625e-10,6.156250e-03
-3.055625e-10,5.734375e-03
-3.015625e-10,5.078125e-03
-2.975625e-10,5.281250e-03
-2.935625e-10,4.828125e-03
-2.895625e-10,4.625000e-03
-2.855625e-10,4.921875e-03
-2.815625e-10,4.921875e-03
-2.775625e-10,4.609375e-03
-2.735625e-10,4.203125e-03
-2.695625e-10,4.171875e-03
-2.655625e-10,4.562500e-03
-2.615625e-10,4.078125e-03
-2.575625e-10,4.625000e-03
-2.535625e-10,4.843750e-03
-2.495625e-10,4.968750e-03
-2.455625e-10,3.843750e-03
-2.415625e-10,4.500000e-03
-2.375625e-10,3.796875e-03
-2.335625e-10,4.890625e-03
-2.295625e-10,4.812500e-03
-2.255625e-10,4.593750e-03
-2.215625e-10,4.156250e-03
-2.175625e-10,4.546875e-03
-2.135625e-10,4.234375e-03
-2.095625e-10,4.203125e-03
-2.055625e-10,4.609375e-03
-2.015625e-10,4.750000e-03
-1.975625e-10,4.515625e-03
-1.935625e-10,4.250000e-03
-1.895625e-10,4.265625e-03
-1.855625e-10,4.640625e-03
-1.815625e-10,4.218750e-03
-1.775625e-10,4.750000e-03
-1.735625e-10,4.953125e-03
-1.695625e-10,5.062500e-03
-1.655625e-10,3.921875e-03
-1.615625e-10,4.531250e-03
-1.575625e-10,3.703125e-03
-1.535625e-10,4.750000e-03
-1.495625e-10,4.515625e-03
-1.455625e-10,4.234375e-03
-1.415625e-10,3.718750e-03
-1.375625e-10,4.046875e-03
-1.335625e-10,3.640625e-03
-1.295625e-10,3.593750e-03
-1.255625e-10,3.937500e-03
-1.215625e-10,4.093750e-03
-1.175625e-10,3.906250e-03
-1.135625e-10,3.718750e-03
-1.095625e-10,3.843750e-03
-1.055625e-10,4.328125e-03
-1.015625e-10,4.156250e-03
-9.756250e-11,5.015625e-03
-9.356250e-11,5.562500e-03
-8.956250e-11,6.187500e-03
-8.556250e-11,5.640625e-03
-8.156250e-11,6.890625e-03
-7.756250e-11,6.781250e-03
-7.356250e-11,8.734375e-03
-6.956250e-11,9.406250e-03
-6.556250e-11,1.025000e-02
-6.156250e-11,1.092188e-02
-5.756250e-11,1.259375e-02
-5.356250e-11,1.364063e-02
-4.956250e-11,1.518750e-02
-4.556250e-11,1.725000e-02
-4.156250e-11,1.929688e-02
-3.756250e-11,2.106250e-02
-3.356250e-11,2.300000e-02
-2.956250e-11,2.534375e-02
-2.556250e-11,2.812500e-02
-2.156250e-11,3.045313e-02
-1.756250e-11,3.390625e-02
-1.356250e-11,3.714063e-02
-9.562500e-12,4.060938e-02
-5.562500e-12,4.300000e-02
-1.562500e-12,4.725000e-02
2.437500e-12,5.018750e-02
6.437500e-12,5.529688e-02
1.043750e-11,5.910938e-02
1.443750e-11,6.323438e-02
1.843750e-11,6.717188e-02
2.243750e-11,7.210938e-02
2.643750e-11,7.646875e-02
3.043750e-11,8.129688e-02
3.443750e-11,8.664063e-02
3.843750e-11,9.198438e-02
4.243750e-11,9.689063e-02
4.643750e-11,1.019375e-01
5.043750e-11,1.073125e-01
5.443750e-11,1.130156e-01
5.843750e-11,1.181875e-01
6.243750e-11,1.243438e-01
6.643750e-11,1.301094e-01
7.043750e-11,1.360469e-01
7.443750e-11,1.406563e-01
7.843750e-11,1.469688e-01
8.243750e-11,1.517813e-01
8.643750e-11,1.585313e-01
9.043750e-11,1.637500e-01
9.443750e-11,1.691406e-01
9.843750e-11,1.740313e-01
1.024375e-10,1.796563e-01
1.064375e-10,1.845000e-01
1.104375e-10,1.895625e-01
1.144375e-10,1.948594e-01
1.184375e-10,1.999844e-01
1.224375e-10,2.042656e-01
1.264375e-10,2.084531e-01
1.304375e-10,2.127188e-01
1.344375e-10,2.170625e-01
1.384375e-10,2.206563e-01
1.424375e-10,2.249219e-01
1.464375e-10,2.284844e-01
1.504375e-10,2.320469e-01
1.544375e-10,2.339844e-01
1.584375e-10,2.374844e-01
1.624375e-10,2.392188e-01
1.664375e-10,2.426406e-01
1.704375e-10,2.443281e-01
1.744375e-10,2.460313e-01
1.784375e-10,2.470313e-01
1.824375e-10,2.485938e-01
1.864375e-10,2.493125e-01
1.904375e-10,2.500781e-01
1.944375e-10,2.509375e-01
1.984375e-10,2.515781e-01
2.024375e-10,2.512500e-01
2.064375e-10,2.507188e-01
2.104375e-10,2.502969e-01
2.144375e-10,2.499219e-01
2.184375e-10,2.487500e-01
2.224375e-10,2.482188e-01
2.264375e-10,2.470000e-01
2.304375e-10,2.458594e-01
2.344375e-10,2.430781e-01
2.384375e-10,2.419844e-01
2.424375e-10,2.392031e-01
2.464375e-10,2.381250e-01
2.504375e-10,2.354531e-01
2.544375e-10,2.328750e-01
2.584375e-10,2.297188e-01
2.624375e-10,2.273125e-01
2.664375e-10,2.242031e-01
2.704375e-10,2.212656e-01
2.744375e-10,2.185469e-01
2.784375e-10,2.157969e-01
2.824375e-10,2.122344e-01
2.864375e-10,2.086250e-01
2.904375e-10,2.053438e-01
2.944375e-10,2.022813e-01
2.984375e-10,1.985625e-01
3.024375e-10,1.956563e-01
3.064375e-10,1.922656e-01
3.104375e-10,1.891094e-01
3.144375e-10,1.844531e-01
3.184375e-10,1.817344e-01
3.224375e-10,1.775000e-01
3.264375e-10,1.750469e-01
3.304375e-10,1.712031e-01
3.344375e-10,1.675938e-01
3.384375e-10,1.635313e-01
3.424375e-10,1.603906e-01
3.464375e-10,1.567188e-01
3.504375e-10,1.532969e-01
3.544375e-10,1.501875e-01
3.584375e-10,1.471250e-01
3.624375e-10,1.434688e-01
3.664375e-10,1.397969e-01
3.704375e-10,1.365156e-01
3.744375e-10,1.335938e-01
3.784375e-10,1.300156e-01
3.824375e-10,1.273438e-01
3.864375e-10,1.242813e-01
3.904375e-10,1.214844e-01
3.944375e-10,1.172188e-01
3.984375e-10,1.149688e-01
4.024375e-10,1.112500e-01
4.064375e-10,1.092969e-01
4.104375e-10,1.060469e-01
4.144375e-10,1.030000e-01
4.184375e-10,9.953125e-02
4.224375e-10,9.704688e-02
4.264375e-10,9.400000e-02
4.304375e-10,9.125000e-02
4.344375e-10,8.878125e-02
4.384375e-10,8.637500e-02
4.424375e-10,8.348438e-02
4.464375e-10,8.053125e-02
4.504375e-10,7.795313e-02
4.544375e-10,7.579688e-02
4.584375e-10,7.293750e-02
4.624375e-10,7.098438e-02
4.664375e-10,6.873438e-02
4.704375e-10,6.668750e-02
4.744375e-10,6.321875e-02
4.784375e-10,6.181250e-02
4.824375e-10,5.895313e-02
4.864375e-10,5.787500e-02
4.904375e-10,5.556250e-02
4.944375e-10,5.339063e-02
4.984375e-10,5.089063e-02
5.024375e-10,4.937500e-02
5.064375e-10,4.728125e-02
5.104375e-10,4.556250e-02
5.144375e-10,4.412500e-02
5.184375e-10,4.278125e-02
5.224375e-10,4.104688e-02
5.264375e-10,3.923438e-02
5.304375e-10,3.784375e-02
5.344375e-10,3.687500e-02
5.384375e-10,3.523438e-02
5.424375e-10,3.448438e-02
5.464375e-10,3.353125e-02
5.504375e-10,3.270313e-02
5.544375e-10,3.057813e-02
5.584375e-10,3.043750e-02
5.624375e-10,2.892188e-02
5.664375e-10,2.917188e-02
5.704375e-10,2.823438e-02
5.744375e-10,2.732813e-02
5.784375e-10,2.617188e-02
5.824375e-10,2.598438e-02
5.864375e-10,2.512500e-02
5.904375e-10,2.465625e-02
5.944375e-10,2.448438e-02
5.984375e-10,2.435938e-02
6.024375e-10,2.385938e-02
6.064375e-10,2.318750e-02
6.104375e-10,2.295313e-02
6.144375e-10,2.303125e-02
6.184375e-10,2.243750e-02
6.224375e-10,2.268750e-02
6.264375e-10,2.270313e-02
6.304375e-10,2.270313e-02
6.344375e-10,2.142188e-02
6.384375e-10,2.200000e-02
6.424375e-10,2.121875e-02
6.464375e-10,2.214063e-02
6.504375e-10,2.181250e-02
6.544375e-10,2.142188e-02
6.584375e-10,2.068750e-02
6.624375e-10,2.093750e-02
6.664375e-10,2.035938e-02
6.704375e-10,2.012500e-02
6.744375e-10,2.020313e-02
6.784375e-10,2.025000e-02
6.824375e-10,1.987500e-02
6.864375e-10,1.923438e-02
6.904375e-10,1.906250e-02
6.944375e-10,1.907813e-02
6.984375e-10,1.840625e-02
7.024375e-10,1.859375e-02
7.064375e-10,1.850000e-02
7.104375e-10,1.826563e-02
7.144375e-10,1.684375e-02
7.184375e-10,1.718750e-02
7.224375e-10,1.617188e-02
7.264375e-10,1.690625e-02
7.304375e-10,1.635938e-02
7.344375e-10,1.576563e-02
7.384375e-10,1.476563e-02
7.424375e-10,1.482813e-02
7.464375e-10,1.401563e-02
7.504375e-10,1.356250e-02
7.544375e-10,1.351563e-02
7.584375e-10,1.340625e-02
7.624375e-10,1.293750e-02
7.664375e-10,1.215625e-02
7.704375e-10,1.192188e-02
7.744375e-10,1.192188e-02
7.784375e-10,1.128125e-02
7.824375e-10,1.153125e-02
7.864375e-10,1.154688e-02
7.904375e-10,1.137500e-02
7.944375e-10,1.012500e-02
7.984375e-10,1.060938e-02
8.024375e-10,9.796875e-03
8.064375e-10,1.082813e-02
8.104375e-10,1.056250e-02
8.144375e-10,1.031250e-02
8.184375e-10,9.640625e-03
8.224375e-10,1.004688e-02
8.264375e-10,9.625000e-03
8.304375e-10,9.593750e-03
8.344375e-10,1.000000e-02
8.384375e-10,1.025000e-02
8.424375e-10,1.023438e-02
8.464375e-10,9.906250e-03
8.504375e-10,1.004688e-02
8.544375e-10,1.054688e-02
8.584375e-10,1.035938e-02
8.624375e-10,1.104688e-02
8.664375e-10,1.145313e-02
8.704375e-10,1.165625e-02
8.744375e-10,1.079688e-02
8.784375e-10,1.160938e-02
8.824375e-10,1.104688e-02
8.864375e-10,1.242188e-02
8.904375e-10,1.242188e-02
8.944375e-10,1.239063e-02
8.984375e-10,1.190625e-02
9.024375e-10,1.240625e-02
9.064375e-10,1.210938e-02
9.104375e-10,1.218750e-02
9.144375e-10,1.265625e-02
9.184375e-10,1.278125e-02
9.224375e-10,1.271875e-02
9.264375e-10,1.231250e-02
9.304375e-10,1.226563e-02
9.344375e-10,1.265625e-02
9.384375e-10,1.226563e-02
9.424375e-10,1.271875e-02
9.464375e-10,1.281250e-02
9.504375e-10,1.273438e-02
9.544375e-10,1.157813e-02
9.584375e-10,1.204688e-02
9.624375e-10,1.107813e-02
9.664375e-10,1.207813e-02
9.704375e-10,1.168750e-02
9.744375e-10,1.125000e-02
9.784375e-10,1.039063e-02
9.824375e-10,1.046875e-02
9.864375e-10,9.781250e-03
9.904375e-10,9.500000e-03
9.944375e-10,9.609375e-03
9.984375e-10,9.312500e-03
1.002437e-09,8.890625e-03
1.006437e-09,8.171875e-03
1.010437e-09,7.765625e-03
1.014437e-09,7.906250e-03
1.018438e-09,7.265625e-03
1.022438e-09,7.484375e-03
1.026438e-09,7.359375e-03
1.030438e-09,7.140625e-03
1.034438e-09,5.875000e-03
1.038438e-09,6.312500e-03
1.042437e-09,5.281250e-03
1.046437e-09,6.234375e-03
1.050437e-09,5.875000e-03
1.054437e-09,5.468750e-03
1.058437e-09,4.718750e-03
1.062437e-09,4.953125e-03
1.066437e-09,4.453125e-03
1.070437e-09,4.375000e-03
1.074437e-09,4.718750e-03
1.078437e-09,4.718750e-03
1.082438e-09,4.546875e-03
1.086438e-09,4.156250e-03
1.090438e-09,4.078125e-03
1.094438e-09,4.562500e-03
1.098438e-09,4.265625e-03
1.102437e-09,4.875000e-03
1.106437e-09,5.140625e-03
1.110437e-09,5.359375e-03
1.114437e-09,4.484375e-03
1.118437e-09,5.359375e-03
1.122437e-09,4.703125e-03
1.126437e-09,6.031250e-03
1.130437e-09,6.031250e-03
1.134437e-09,6.000000e-03
1.138437e-09,5.593750e-03
1.142438e-09,6.171875e-03
1.146438e-09,5.968750e-03
1.150438e-09,6.171875e-03
1.154438e-09,6.781250e-03
1.158438e-09,7.062500e-03
1.162437e-09,7.078125e-03
1.166437e-09,6.875000e-03
1.170437e-09,6.968750e-03
1.174437e-09,7.562500e-03
1.178437e-09,7.343750e-03
1.182437e-09,8.031250e-03
1.186437e-09,8.343750e-03
1.190437e-09,8.593750e-03
1.194437e-09,7.656250e-03
1.198437e-09,8.515625e-03
1.202438e-09,7.796875e-03
1.206438e-09,9.015625e-03
1.210438e-09,8.875000e-03
1.214438e-09,8.703125e-03
1.218438e-09,8.125000e-03
1.222437e-09,8.531250e-03
1.226437e-09,8.125000e-03
1.230437e-09,8.125000e-03
1.234437e-09,8.500000e-03
1.238437e-09,8.593750e-03
1.242437e-09,8.375000e-03
1.246437e-09,7.906250e-03
1.250437e-09,7.796875e-03
1.254437e-09,8.140625e-03
1.258437e-09,7.687500e-03
1.262438e-09,8.156250e-03
1.266438e-09,8.265625e-03
1.270438e-09,8.328125e-03
1.274438e-09,7.140625e-03
1.278438e-09,7.843750e-03
1.282437e-09,6.937500e-03
1.286437e-09,8.015625e-03
1.290437e-09,7.734375e-03
1.294437e-09,7.437500e-03
1.298437e-09,6.750000e-03
1.302437e-09,7.062500e-03
1.306437e-09,6.578125e-03
1.310437e-09,6.515625e-03
1.314437e-09,6.859375e-03
1.318437e-09,6.968750e-03
1.322438e-09,6.718750e-03
1.326438e-09,6.281250e-03
1.330438e-09,6.218750e-03
1.334438e-09,6.578125e-03
1.338438e-09,6.156250e-03
1.342437e-09,6.718750e-03
1.346437e-09,6.906250e-03
1.350437e-09,7.062500e-03
1.354437e-09,5.921875e-03
1.358437e-09,6.718750e-03
1.362437e-09,5.906250e-03
1.366437e-09,7.093750e-03
1.370437e-09,6.906250e-03
1.374437e-09,6.718750e-03
1.378437e-09,6.109375e-03
1.382438e-09,6.531250e-03
1.386438e-09,6.125000e-03
1.390438e-09,6.140625e-03
1.394438e-09,6.562500e-03
1.398438e-09,6.750000e-03
1.402437e-09,6.562500e-03
1.406437e-09,6.156250e-03
1.410437e-09,6.140625e-03
1.414437e-09,6.546875e-03
1.418437e-09,6.125000e-03
1.422437e-09,6.718750e-03
1.426437e-09,6.906250e-03
1.430437e-09,7.078125e-03
1.434437e-09,5.875000e-03
1.438437e-09,6.656250e-03
1.442438e-09,5.812500e-03
1.446438e-09,7.000000e-03
1.450438e-09,6.765625e-03
1.454438e-09,6.531250e-03
1.458438e-09,5.890625e-03
1.462437e-09,6.250000e-03
1.466437e-09,5.828125e-03
1.470437e-09,5.796875e-03
1.474437e-09,6.171875e-03
1.478437e-09,6.343750e-03
1.482437e-09,6.109375e-03
1.486437e-09,5.687500e-03
1.490437e-09,5.687500e-03
1.494437e-09,6.078125e-03
1.498437e-09,5.687500e-03
1.502438e-09,6.296875e-03
1.506438e-09,6.515625e-03
1.510438e-09,6.750000e-03
1.514438e-09,5.593750e-03
1.518438e-09,6.453125e-03
1.522437e-09,5.703125e-03
1.526437e-09,7.000000e-03
1.530437e-09,6.875000e-03
1.534437e-09,6.781250e-03
1.538437e-09,6.281250e-03
1.542437e-09,6.812500e-03
1.546437e-09,6.546875e-03
1.550437e-09,6.687500e-03
1.554437e-09,7.250000e-03
1.558437e-09,7.609375e-03
1.562438e-09,7.593750e-03
1.566438e-09,7.375000e-03
1.570438e-09,7.562500e-03
1.574438e-09,8.156250e-03
1.578438e-09,7.968750e-03
1.582437e-09,8.765625e-03
1.586437e-09,9.187500e-03
1.590437e-09,9.593750e-03
1.594437e-09,8.593750e-03
1.598437e-09,9.609375e-03
1.602437e-09,9.000000e-03
1.606437e-09,1.040625e-02
1.610437e-09,1.039063e-02
1.614437e-09,1.035938e-02
1.618437e-09,9.921875e-03
1.622438e-09,1.048438e-02
1.626438e-09,1.021875e-02
1.630438e-09,1.032813e-02
1.634438e-09,1.084375e-02
1.638438e-09,1.112500e-02
1.642437e-09,1.098438e-02
1.646437e-09,1.062500e-02
1.650437e-09,1.064063e-02
1.654437e-09,1.103125e-02
1.658437e-09,1.060938e-02
1.662437e-09,1.115625e-02
1.666437e-09,1.126563e-02
1.670437e-09,1.135938e-02
1.674437e-09,1.003125e-02
1.678437e-09,1.067188e-02
1.682438e-09,9.671875e-03
1.686438e-09,1.067188e-02
1.690438e-09,1.023438e-02
1.694438e-09,9.781250e-03
1.698438e-09,8.890625e-03
1.702437e-09,8.984375e-03
1.706437e-09,8.250000e-03
1.710437e-09,7.921875e-03
1.714437e-09,7.953125e-03
1.718437e-09,7.781250e-03
1.722437e-09,7.187500e-03
1.726437e-09,6.390625e-03
1.730437e-09,5.984375e-03
1.734437e-09,5.968750e-03
1.738437e-09,5.140625e-03
1.742438e-09,5.328125e-03
1.746438e-09,5.109375e-03
1.750438e-09,4.890625e-03
1.754438e-09,3.265625e-03
1.758438e-09,3.671875e-03
