Measurements-streak-laser-independent/Photodiode-on-Tek-12bit-4GHz/Tek000_ch1_20190613133039784.csv

Model,MSO64
Waveform Type,ANALOG
Horizontal Units,s
Sample Interval,4.000000e-12
Record Length,1000
Zero Index,310.140625
Vertical Units,V

TIME,CH1
-1.240563e-09,6.093750e-04
-1.236562e-09,7.187500e-04
-1.232562e-09,4.375000e-04
-1.228562e-09,-1.562500e-05
-1.224562e-09,-3.125000e-05
-1.220562e-09,3.750000e-04
-1.216562e-09,5.551115e-17
-1.212562e-09,6.562500e-04
-1.208562e-09,9.531250e-04
-1.204562e-09,1.250000e-03
-1.200563e-09,1.718750e-04
-1.196563e-09,1.140625e-03
-1.192563e-09,5.156250e-04
-1.188563e-09,1.921875e-03
-1.184563e-09,1.937500e-03
-1.180563e-09,1.984375e-03
-1.176562e-09,1.625000e-03
-1.172562e-09,2.312500e-03
-1.168562e-09,2.187500e-03
-1.164562e-09,2.484375e-03
-1.160562e-09,3.203125e-03
-1.156562e-09,3.718750e-03
-1.152562e-09,3.828125e-03
-1.148562e-09,3.750000e-03
-1.144562e-09,4.078125e-03
-1.140563e-09,4.796875e-03
-1.136563e-09,4.718750e-03
-1.132563e-09,5.640625e-03
-1.128563e-09,6.140625e-03
-1.124563e-09,6.640625e-03
-1.120563e-09,5.718750e-03
-1.116562e-09,6.796875e-03
-1.112562e-09,6.234375e-03
-1.108562e-09,7.687500e-03
-1.104562e-09,7.718750e-03
-1.100562e-09,7.718750e-03
-1.096562e-09,7.296875e-03
-1.092562e-09,7.859375e-03
-1.088562e-09,7.593750e-03
-1.084562e-09,7.718750e-03
-1.080563e-09,8.218750e-03
-1.076563e-09,8.500000e-03
-1.072563e-09,8.343750e-03
-1.068563e-09,7.968750e-03
-1.064563e-09,7.984375e-03
-1.060563e-09,8.375000e-03
-1.056562e-09,7.937500e-03
-1.052562e-09,8.500000e-03
-1.048562e-09,8.625000e-03
-1.044562e-09,8.734375e-03
-1.040562e-09,7.421875e-03
-1.036562e-09,8.109375e-03
-1.032562e-09,7.156250e-03
-1.028562e-09,8.234375e-03
-1.024562e-09,7.875000e-03
-1.020563e-09,7.515625e-03
-1.016563e-09,6.734375e-03
-1.012563e-09,6.968750e-03
-1.008563e-09,6.375000e-03
-1.004563e-09,6.203125e-03
-1.000563e-09,6.421875e-03
-9.965625e-10,6.453125e-03
-9.925625e-10,6.078125e-03
-9.885625e-10,5.500000e-03
-9.845625e-10,5.328125e-03
-9.805625e-10,5.578125e-03
-9.765625e-10,5.031250e-03
-9.725625e-10,5.500000e-03
-9.685625e-10,5.578125e-03
-9.645625e-10,5.671875e-03
-9.605625e-10,4.359375e-03
-9.565625e-10,5.078125e-03
-9.525625e-10,4.187500e-03
-9.485625e-10,5.328125e-03
-9.445625e-10,5.078125e-03
-9.405625e-10,4.859375e-03
-9.365625e-10,4.234375e-03
-9.325625e-10,4.640625e-03
-9.285625e-10,4.250000e-03
-9.245625e-10,4.296875e-03
-9.205625e-10,4.750000e-03
-9.165625e-10,5.000000e-03
-9.125625e-10,4.875000e-03
-9.085625e-10,4.562500e-03
-9.045625e-10,4.656250e-03
-9.005625e-10,5.171875e-03
-8.965625e-10,4.890625e-03
-8.925625e-10,5.625000e-03
-8.885625e-10,5.953125e-03
-8.845625e-10,6.296875e-03
-8.805625e-10,5.250000e-03
-8.765625e-10,6.218750e-03
-8.725625e-10,5.562500e-03
-8.685625e-10,6.859375e-03
-8.645625e-10,6.828125e-03
-8.605625e-10,6.781250e-03
-8.565625e-10,6.359375e-03
-8.525625e-10,6.921875e-03
-8.485625e-10,6.671875e-03
-8.445625e-10,6.828125e-03
-8.405625e-10,7.375000e-03
-8.365625e-10,7.718750e-03
-8.325625e-10,7.671875e-03
-8.285625e-10,7.390625e-03
-8.245625e-10,7.500000e-03
-8.205625e-10,8.015625e-03
-8.165625e-10,7.718750e-03
-8.125625e-10,8.406250e-03
-8.085625e-10,8.687500e-03
-8.045625e-10,8.968750e-03
-8.005625e-10,7.875000e-03
-7.965625e-10,8.734375e-03
-7.925625e-10,7.968750e-03
-7.885625e-10,9.093750e-03
-7.845625e-10,8.968750e-03
-7.805625e-10,8.781250e-03
-7.765625e-10,8.234375e-03
-7.725625e-10,8.609375e-03
-7.685625e-10,8.187500e-03
-7.645625e-10,8.218750e-03
-7.605625e-10,8.578125e-03
-7.565625e-10,8.734375e-03
-7.525625e-10,8.562500e-03
-7.485625e-10,8.093750e-03
-7.445625e-10,8.015625e-03
-7.405625e-10,8.343750e-03
-7.365625e-10,7.875000e-03
-7.325625e-10,8.406250e-03
-7.285625e-10,8.531250e-03
-7.245625e-10,8.640625e-03
-7.205625e-10,7.390625e-03
-7.165625e-10,8.109375e-03
-7.125625e-10,7.234375e-03
-7.085625e-10,8.171875e-03
-7.045625e-10,7.937500e-03
-7.005625e-10,7.671875e-03
-6.965625e-10,7.031250e-03
-6.925625e-10,7.281250e-03
-6.885625e-10,6.734375e-03
-6.845625e-10,6.718750e-03
-6.805625e-10,7.000000e-03
-6.765625e-10,7.062500e-03
-6.725625e-10,6.906250e-03
-6.685625e-10,6.375000e-03
-6.645625e-10,6.250000e-03
-6.605625e-10,6.531250e-03
-6.565625e-10,6.078125e-03
-6.525625e-10,6.562500e-03
-6.485625e-10,6.703125e-03
-6.445625e-10,6.781250e-03
-6.405625e-10,5.515625e-03
-6.365625e-10,6.265625e-03
-6.325625e-10,5.468750e-03
-6.285625e-10,6.421875e-03
-6.245625e-10,6.250000e-03
-6.205625e-10,6.031250e-03
-6.165625e-10,5.453125e-03
-6.125625e-10,5.734375e-03
-6.085625e-10,5.234375e-03
-6.045625e-10,5.296875e-03
-6.005625e-10,5.671875e-03
-5.965625e-10,5.765625e-03
-5.925625e-10,5.750000e-03
-5.885625e-10,5.296875e-03
-5.845625e-10,5.265625e-03
-5.805625e-10,5.656250e-03
-5.765625e-10,5.328125e-03
-5.725625e-10,5.921875e-03
-5.685625e-10,6.140625e-03
-5.645625e-10,6.328125e-03
-5.605625e-10,5.140625e-03
-5.565625e-10,6.000000e-03
-5.525625e-10,5.375000e-03
-5.485625e-10,6.421875e-03
-5.445625e-10,6.406250e-03
-5.405625e-10,6.265625e-03
-5.365625e-10,5.781250e-03
-5.325625e-10,6.187500e-03
-5.285625e-10,5.781250e-03
-5.245625e-10,5.921875e-03
-5.205625e-10,6.406250e-03
-5.165625e-10,6.562500e-03
-5.125625e-10,6.593750e-03
-5.085625e-10,6.218750e-03
-5.045625e-10,6.281250e-03
-5.005625e-10,6.734375e-03
-4.965625e-10,6.421875e-03
-4.925625e-10,7.078125e-03
-4.885625e-10,7.296875e-03
-4.845625e-10,7.484375e-03
-4.805625e-10,6.296875e-03
-4.765625e-10,7.078125e-03
-4.725625e-10,6.437500e-03
-4.685625e-10,7.453125e-03
-4.645625e-10,7.406250e-03
-4.605625e-10,7.171875e-03
-4.565625e-10,6.593750e-03
-4.525625e-10,6.906250e-03
-4.485625e-10,6.453125e-03
-4.445625e-10,6.421875e-03
-4.405625e-10,6.781250e-03
-4.365625e-10,6.812500e-03
-4.325625e-10,6.609375e-03
-4.285625e-10,6.109375e-03
-4.245625e-10,6.062500e-03
-4.205625e-10,6.375000e-03
-4.165625e-10,5.843750e-03
-4.125625e-10,6.359375e-03
-4.085625e-10,6.406250e-03
-4.045625e-10,6.421875e-03
-4.005625e-10,5.093750e-03
-3.965625e-10,5.656250e-03
-3.925625e-10,4.875000e-03
-3.885625e-10,5.765625e-03
-3.845625e-10,5.593750e-03
-3.805625e-10,5.203125e-03
-3.765625e-10,4.531250e-03
-3.725625e-10,4.765625e-03
-3.685625e-10,4.312500e-03
-3.645625e-10,4.140625e-03
-3.605625e-10,4.484375e-03
-3.565625e-10,4.500000e-03
-3.525625e-10,4.250000e-03
-3.485625e-10,3.812500e-03
-3.445625e-10,3.843750e-03
-3.405625e-10,4.265625e-03
-3.365625e-10,3.796875e-03
-3.325625e-10,4.421875e-03
-3.285625e-10,4.671875e-03
-3.245625e-10,4.859375e-03
-3.205625e-10,3.765625e-03
-3.165625e-10,4.515625e-03
-3.125625e-10,3.953125e-03
-3.085625e-10,5.125000e-03
-3.045625e-10,5.203125e-03
-3.005625e-10,5.093750e-03
-2.965625e-10,4.781250e-03
-2.925625e-10,5.328125e-03
-2.885625e-10,5.203125e-03
-2.845625e-10,5.343750e-03
-2.805625e-10,6.000000e-03
-2.765625e-10,6.343750e-03
-2.725625e-10,6.375000e-03
-2.685625e-10,6.312500e-03
-2.645625e-10,6.625000e-03
-2.605625e-10,7.312500e-03
-2.565625e-10,7.140625e-03
-2.525625e-10,7.968750e-03
-2.485625e-10,8.468750e-03
-2.445625e-10,8.843750e-03
-2.405625e-10,7.953125e-03
-2.365625e-10,8.828125e-03
-2.325625e-10,8.312500e-03
-2.285625e-10,9.578125e-03
-2.245625e-10,9.625000e-03
-2.205625e-10,9.531250e-03
-2.165625e-10,9.171875e-03
-2.125625e-10,9.625000e-03
-2.085625e-10,9.343750e-03
-2.045625e-10,9.312500e-03
-2.005625e-10,9.687500e-03
-1.965625e-10,9.765625e-03
-1.925625e-10,9.468750e-03
-1.885625e-10,9.093750e-03
-1.845625e-10,8.968750e-03
-1.805625e-10,9.203125e-03
-1.765625e-10,8.609375e-03
-1.725625e-10,8.953125e-03
-1.685625e-10,8.937500e-03
-1.645625e-10,8.828125e-03
-1.605625e-10,7.453125e-03
-1.565625e-10,7.812500e-03
-1.525625e-10,6.734375e-03
-1.485625e-10,7.515625e-03
-1.445625e-10,7.015625e-03
-1.405625e-10,6.468750e-03
-1.365625e-10,5.687500e-03
-1.325625e-10,5.750000e-03
-1.285625e-10,5.093750e-03
-1.245625e-10,4.812500e-03
-1.205625e-10,4.921875e-03
-1.165625e-10,4.859375e-03
-1.125625e-10,4.468750e-03
-1.085625e-10,4.109375e-03
-1.045625e-10,4.062500e-03
-1.005625e-10,4.421875e-03
-9.656250e-11,4.140625e-03
-9.256250e-11,4.890625e-03
-8.856250e-11,5.375000e-03
-8.456250e-11,5.968750e-03
-8.056250e-11,5.421875e-03
-7.656250e-11,6.687500e-03
-7.256250e-11,6.625000e-03
-6.856250e-11,8.656250e-03
-6.456250e-11,9.421875e-03
-6.056250e-11,1.037500e-02
-5.656250e-11,1.123438e-02
-5.256250e-11,1.306250e-02
-4.856250e-11,1.431250e-02
-4.456250e-11,1.609375e-02
-4.056250e-11,1.839063e-02
-3.656250e-11,2.068750e-02
-3.256250e-11,2.273438e-02
-2.856250e-11,2.495313e-02
-2.456250e-11,2.759375e-02
-2.056250e-11,3.068750e-02
-1.656250e-11,3.331250e-02
-1.256250e-11,3.709375e-02
-8.562500e-12,4.062500e-02
-4.562500e-12,4.442188e-02
-5.625000e-13,4.710938e-02
3.437500e-12,5.165625e-02
7.437500e-12,5.489063e-02
1.143750e-11,6.026563e-02
1.543750e-11,6.432813e-02
1.943750e-11,6.868750e-02
2.343750e-11,7.285938e-02
2.743750e-11,7.798438e-02
3.143750e-11,8.251563e-02
3.543750e-11,8.750000e-02
3.943750e-11,9.295313e-02
4.343750e-11,9.840625e-02
4.743750e-11,1.033594e-01
5.143750e-11,1.084375e-01
5.543750e-11,1.138125e-01
5.943750e-11,1.195000e-01
6.343750e-11,1.246250e-01
6.743750e-11,1.307031e-01
7.143750e-11,1.363438e-01
7.543750e-11,1.421563e-01
7.943750e-11,1.466094e-01
8.343750e-11,1.527344e-01
8.743750e-11,1.573438e-01
9.143750e-11,1.638594e-01
9.543750e-11,1.688281e-01
9.943750e-11,1.739688e-01
1.034375e-10,1.785781e-01
1.074375e-10,1.839219e-01
1.114375e-10,1.884844e-01
1.154375e-10,1.932344e-01
1.194375e-10,1.982500e-01
1.234375e-10,2.030781e-01
1.274375e-10,2.070625e-01
1.314375e-10,2.109531e-01
1.354375e-10,2.149531e-01
1.394375e-10,2.190313e-01
1.434375e-10,2.223750e-01
1.474375e-10,2.263906e-01
1.514375e-10,2.297500e-01
1.554375e-10,2.331250e-01
1.594375e-10,2.349063e-01
1.634375e-10,2.382500e-01
1.674375e-10,2.398594e-01
1.714375e-10,2.431875e-01
1.754375e-10,2.448125e-01
1.794375e-10,2.464844e-01
1.834375e-10,2.474844e-01
1.874375e-10,2.490781e-01
1.914375e-10,2.498438e-01
1.954375e-10,2.506875e-01
1.994375e-10,2.516719e-01
2.034375e-10,2.524531e-01
2.074375e-10,2.522656e-01
2.114375e-10,2.519219e-01
2.154375e-10,2.517188e-01
2.194375e-10,2.515625e-01
2.234375e-10,2.506406e-01
2.274375e-10,2.503594e-01
2.314375e-10,2.494063e-01
2.354375e-10,2.485469e-01
2.394375e-10,2.460469e-01
2.434375e-10,2.452344e-01
2.474375e-10,2.427500e-01
2.514375e-10,2.419531e-01
2.554375e-10,2.395469e-01
2.594375e-10,2.372344e-01
2.634375e-10,2.343438e-01
2.674375e-10,2.321563e-01
2.714375e-10,2.292813e-01
2.754375e-10,2.265313e-01
2.794375e-10,2.240000e-01
2.834375e-10,2.213906e-01
2.874375e-10,2.179531e-01
2.914375e-10,2.144375e-01
2.954375e-10,2.112031e-01
2.994375e-10,2.081719e-01
3.034375e-10,2.044375e-01
3.074375e-10,2.015000e-01
3.114375e-10,1.980313e-01
3.154375e-10,1.947813e-01
3.194375e-10,1.899688e-01
3.234375e-10,1.870781e-01
3.274375e-10,1.826406e-01
3.314375e-10,1.799375e-01
3.354375e-10,1.758125e-01
3.394375e-10,1.719063e-01
3.434375e-10,1.675156e-01
3.474375e-10,1.640313e-01
3.514375e-10,1.599844e-01
3.554375e-10,1.561875e-01
3.594375e-10,1.526563e-01
3.634375e-10,1.492031e-01
3.674375e-10,1.451250e-01
3.714375e-10,1.410156e-01
3.754375e-10,1.373125e-01
3.794375e-10,1.339688e-01
3.834375e-10,1.299688e-01
3.874375e-10,1.268594e-01
3.914375e-10,1.234063e-01
3.954375e-10,1.202188e-01
3.994375e-10,1.155938e-01
4.034375e-10,1.130000e-01
4.074375e-10,1.089688e-01
4.114375e-10,1.067188e-01
4.154375e-10,1.032188e-01
4.194375e-10,9.995313e-02
4.234375e-10,9.629688e-02
4.274375e-10,9.364063e-02
4.314375e-10,9.050000e-02
4.354375e-10,8.767188e-02
4.394375e-10,8.515625e-02
4.434375e-10,8.276563e-02
4.474375e-10,7.990625e-02
4.514375e-10,7.704688e-02
4.554375e-10,7.459375e-02
4.594375e-10,7.260938e-02
4.634375e-10,6.995313e-02
4.674375e-10,6.823438e-02
4.714375e-10,6.626563e-02
4.754375e-10,6.451563e-02
4.794375e-10,6.139063e-02
4.834375e-10,6.034375e-02
4.874375e-10,5.787500e-02
4.914375e-10,5.718750e-02
4.954375e-10,5.531250e-02
4.994375e-10,5.357813e-02
5.034375e-10,5.153125e-02
5.074375e-10,5.045313e-02
5.114375e-10,4.881250e-02
5.154375e-10,4.754688e-02
5.194375e-10,4.656250e-02
5.234375e-10,4.565625e-02
5.274375e-10,4.434375e-02
5.314375e-10,4.295313e-02
5.354375e-10,4.195313e-02
5.394375e-10,4.134375e-02
5.434375e-10,4.006250e-02
5.474375e-10,3.962500e-02
5.514375e-10,3.895313e-02
5.554375e-10,3.837500e-02
5.594375e-10,3.645313e-02
5.634375e-10,3.650000e-02
5.674375e-10,3.512500e-02
5.714375e-10,3.546875e-02
5.754375e-10,3.459375e-02
5.794375e-10,3.370313e-02
5.834375e-10,3.251563e-02
5.874375e-10,3.226563e-02
5.914375e-10,3.129688e-02
5.954375e-10,3.068750e-02
5.994375e-10,3.032813e-02
6.034375e-10,2.998438e-02
6.074375e-10,2.921875e-02
6.114375e-10,2.826563e-02
6.154375e-10,2.771875e-02
6.194375e-10,2.745313e-02
6.234375e-10,2.648438e-02
6.274375e-10,2.634375e-02
6.314375e-10,2.593750e-02
6.354375e-10,2.551563e-02
6.394375e-10,2.379688e-02
6.434375e-10,2.392188e-02
6.474375e-10,2.268750e-02
6.514375e-10,2.314063e-02
6.554375e-10,2.235938e-02
6.594375e-10,2.151563e-02
6.634375e-10,2.032813e-02
6.674375e-10,2.015625e-02
6.714375e-10,1.915625e-02
6.754375e-10,1.850000e-02
6.794375e-10,1.820313e-02
6.834375e-10,1.787500e-02
6.874375e-10,1.715625e-02
6.914375e-10,1.618750e-02
6.954375e-10,1.571875e-02
6.994375e-10,1.546875e-02
7.034375e-10,1.457813e-02
7.074375e-10,1.453125e-02
7.114375e-10,1.428125e-02
7.154375e-10,1.390625e-02
7.194375e-10,1.235938e-02
7.234375e-10,1.260938e-02
7.274375e-10,1.156250e-02
7.314375e-10,1.226563e-02
7.354375e-10,1.171875e-02
7.394375e-10,1.115625e-02
7.434375e-10,1.021875e-02
7.474375e-10,1.035938e-02
7.514375e-10,9.640625e-03
7.554375e-10,9.312500e-03
7.594375e-10,9.406250e-03
7.634375e-10,9.437500e-03
7.674375e-10,9.140625e-03
7.714375e-10,8.562500e-03
7.754375e-10,8.500000e-03
7.794375e-10,8.703125e-03
7.834375e-10,8.250000e-03
7.874375e-10,8.687500e-03
7.914375e-10,8.906250e-03
7.954375e-10,8.937500e-03
7.994375e-10,7.875000e-03
8.034375e-10,8.531250e-03
8.074375e-10,7.906250e-03
8.114375e-10,9.093750e-03
8.154375e-10,9.000000e-03
8.194375e-10,8.890625e-03
8.234375e-10,8.343750e-03
8.274375e-10,8.859375e-03
8.314375e-10,8.531250e-03
8.354375e-10,8.578125e-03
8.394375e-10,9.062500e-03
8.434375e-10,9.343750e-03
8.474375e-10,9.375000e-03
8.514375e-10,9.062500e-03
8.554375e-10,9.218750e-03
8.594375e-10,9.718750e-03
8.634375e-10,9.500000e-03
8.674375e-10,1.017188e-02
8.714375e-10,1.053125e-02
8.754375e-10,1.068750e-02
8.794375e-10,9.796875e-03
8.834375e-10,1.053125e-02
8.874375e-10,9.921875e-03
8.914375e-10,1.123438e-02
8.954375e-10,1.118750e-02
8.994375e-10,1.110938e-02
9.034375e-10,1.059375e-02
9.074375e-10,1.104688e-02
9.114375e-10,1.071875e-02
9.154375e-10,1.078125e-02
9.194375e-10,1.125000e-02
9.234375e-10,1.137500e-02
9.274375e-10,1.134375e-02
9.314375e-10,1.096875e-02
9.354375e-10,1.096875e-02
9.394375e-10,1.143750e-02
9.434375e-10,1.114063e-02
9.474375e-10,1.170313e-02
9.514375e-10,1.192188e-02
9.554375e-10,1.200000e-02
9.594375e-10,1.101563e-02
9.634375e-10,1.167188e-02
9.674375e-10,1.092188e-02
9.714375e-10,1.214063e-02
9.754375e-10,1.198438e-02
9.794375e-10,1.179688e-02
9.834375e-10,1.121875e-02
9.874375e-10,1.156250e-02
9.914375e-10,1.118750e-02
9.954375e-10,1.118750e-02
9.994375e-10,1.160938e-02
1.003438e-09,1.162500e-02
1.007438e-09,1.150000e-02
1.011438e-09,1.110938e-02
1.015437e-09,1.101563e-02
1.019437e-09,1.145313e-02
1.023437e-09,1.110938e-02
1.027437e-09,1.162500e-02
1.031437e-09,1.178125e-02
1.035437e-09,1.184375e-02
1.039437e-09,1.082813e-02
1.043437e-09,1.150000e-02
1.047437e-09,1.067188e-02
1.051438e-09,1.182813e-02
1.055438e-09,1.164063e-02
1.059438e-09,1.139063e-02
1.063438e-09,1.078125e-02
1.067438e-09,1.109375e-02
1.071438e-09,1.067188e-02
1.075437e-09,1.064063e-02
1.079437e-09,1.101563e-02
1.083437e-09,1.100000e-02
1.087437e-09,1.081250e-02
1.091437e-09,1.035938e-02
1.095437e-09,1.020313e-02
1.099437e-09,1.057813e-02
1.103437e-09,1.015625e-02
1.107437e-09,1.059375e-02
1.111438e-09,1.068750e-02
1.115438e-09,1.070313e-02
1.119438e-09,9.625000e-03
1.123438e-09,1.025000e-02
1.127438e-09,9.359375e-03
1.131438e-09,1.042188e-02
1.135437e-09,1.014063e-02
1.139437e-09,9.828125e-03
1.143437e-09,9.140625e-03
1.147437e-09,9.421875e-03
1.151437e-09,8.937500e-03
1.155437e-09,8.843750e-03
1.159437e-09,9.156250e-03
1.163437e-09,9.140625e-03
1.167437e-09,8.875000e-03
1.171438e-09,8.390625e-03
1.175438e-09,8.234375e-03
1.179438e-09,8.562500e-03
1.183438e-09,8.109375e-03
1.187438e-09,8.562500e-03
1.191438e-09,8.671875e-03
1.195437e-09,8.718750e-03
1.199437e-09,7.625000e-03
1.203437e-09,8.328125e-03
1.207437e-09,7.468750e-03
1.211437e-09,8.578125e-03
1.215437e-09,8.343750e-03
1.219437e-09,8.093750e-03
1.223437e-09,7.468750e-03
1.227437e-09,7.828125e-03
1.231438e-09,7.421875e-03
1.235438e-09,7.406250e-03
1.239438e-09,7.812500e-03
1.243438e-09,7.953125e-03
1.247438e-09,7.781250e-03
1.251438e-09,7.390625e-03
1.255437e-09,7.359375e-03
1.259437e-09,7.796875e-03
1.263437e-09,7.437500e-03
1.267437e-09,8.031250e-03
1.271437e-09,8.265625e-03
1.275437e-09,8.453125e-03
1.279437e-09,7.406250e-03
1.283437e-09,8.250000e-03
1.287437e-09,7.484375e-03
1.291438e-09,8.718750e-03
1.295438e-09,8.562500e-03
1.299438e-09,8.421875e-03
1.303438e-09,7.875000e-03
1.307438e-09,8.312500e-03
1.311438e-09,7.968750e-03
1.315437e-09,8.031250e-03
1.319437e-09,8.484375e-03
1.323437e-09,8.703125e-03
1.327437e-09,8.562500e-03
1.331437e-09,8.218750e-03
1.335437e-09,8.250000e-03
1.339437e-09,8.703125e-03
1.343437e-09,8.343750e-03
1.347437e-09,8.968750e-03
1.351438e-09,9.203125e-03
1.355438e-09,9.421875e-03
1.359438e-09,8.312500e-03
1.363438e-09,9.140625e-03
1.367438e-09,8.375000e-03
1.371438e-09,9.593750e-03
1.375437e-09,9.406250e-03
1.379437e-09,9.234375e-03
1.383437e-09,8.656250e-03
1.387437e-09,9.062500e-03
1.391437e-09,8.687500e-03
1.395437e-09,8.703125e-03
1.399437e-09,9.125000e-03
1.403437e-09,9.312500e-03
1.407437e-09,9.125000e-03
1.411438e-09,8.734375e-03
1.415438e-09,8.734375e-03
1.419438e-09,9.156250e-03
1.423438e-09,8.765625e-03
1.427438e-09,9.359375e-03
1.431438e-09,9.562500e-03
1.435437e-09,9.765625e-03
1.439437e-09,8.593750e-03
1.443437e-09,9.406250e-03
1.447437e-09,8.609375e-03
1.451437e-09,9.812500e-03
1.455437e-09,9.625000e-03
1.459437e-09,9.421875e-03
1.463437e-09,8.828125e-03
1.467437e-09,9.234375e-03
1.471438e-09,8.843750e-03
1.475438e-09,8.843750e-03
1.479438e-09,9.250000e-03
1.483438e-09,9.437500e-03
1.487438e-09,9.250000e-03
1.491438e-09,8.843750e-03
1.495437e-09,8.828125e-03
1.499437e-09,9.234375e-03
1.503437e-09,8.812500e-03
1.507437e-09,9.406250e-03
1.511437e-09,9.593750e-03
1.515437e-09,9.765625e-03
1.519437e-09,8.546875e-03
1.523437e-09,9.328125e-03
1.527437e-09,8.484375e-03
1.531438e-09,9.656250e-03
1.535438e-09,9.406250e-03
1.539438e-09,9.171875e-03
1.543438e-09,8.515625e-03
1.547438e-09,8.859375e-03
1.551437e-09,8.390625e-03
1.555437e-09,8.328125e-03
1.559437e-09,8.656250e-03
1.563437e-09,8.781250e-03
1.567437e-09,8.500000e-03
1.571437e-09,8.015625e-03
1.575437e-09,7.921875e-03
1.579437e-09,8.234375e-03
1.583437e-09,7.734375e-03
1.587437e-09,8.234375e-03
1.591438e-09,8.328125e-03
1.595438e-09,8.421875e-03
1.599438e-09,7.109375e-03
1.603438e-09,7.812500e-03
1.607438e-09,6.890625e-03
1.611437e-09,8.000000e-03
1.615437e-09,7.671875e-03
1.619437e-09,7.359375e-03
1.623437e-09,6.656250e-03
1.627437e-09,6.937500e-03
1.631437e-09,6.437500e-03
1.635437e-09,6.328125e-03
1.639437e-09,6.625000e-03
1.643437e-09,6.734375e-03
1.647437e-09,6.453125e-03
1.651438e-09,5.953125e-03
1.655438e-09,5.875000e-03
1.659438e-09,6.203125e-03
1.663438e-09,5.734375e-03
1.667438e-09,6.265625e-03
1.671437e-09,6.421875e-03
1.675437e-09,6.562500e-03
1.679437e-09,5.312500e-03
1.683437e-09,6.093750e-03
1.687437e-09,5.250000e-03
1.691437e-09,6.437500e-03
1.695437e-09,6.234375e-03
1.699437e-09,6.015625e-03
1.703437e-09,5.406250e-03
1.707437e-09,5.828125e-03
1.711438e-09,5.437500e-03
1.715438e-09,5.453125e-03
1.719438e-09,5.875000e-03
1.723438e-09,6.093750e-03
1.727438e-09,5.921875e-03
1.731437e-09,5.562500e-03
1.735437e-09,5.593750e-03
1.739437e-09,6.031250e-03
1.743437e-09,5.671875e-03
1.747437e-09,6.312500e-03
1.751437e-09,6.562500e-03
1.755437e-09,6.796875e-03
1.759437e-09,5.625000e-03
