Measurements-streak-laser-independent/Photodiode-on-Tek-12bit-4GHz/Tek000_ch1_20190613133046704.csv

Model,MSO64
Waveform Type,ANALOG
Horizontal Units,s
Sample Interval,4.000000e-12
Record Length,1000
Zero Index,310.671875
Vertical Units,V

TIME,CH1
-1.242688e-09,1.968750e-03
-1.238688e-09,2.500000e-03
-1.234688e-09,2.218750e-03
-1.230688e-09,2.968750e-03
-1.226688e-09,3.312500e-03
-1.222688e-09,3.671875e-03
-1.218687e-09,2.609375e-03
-1.214687e-09,3.578125e-03
-1.210687e-09,2.921875e-03
-1.206687e-09,4.296875e-03
-1.202687e-09,4.265625e-03
-1.198687e-09,4.218750e-03
-1.194687e-09,3.765625e-03
-1.190687e-09,4.343750e-03
-1.186687e-09,4.078125e-03
-1.182688e-09,4.234375e-03
-1.178688e-09,4.781250e-03
-1.174688e-09,5.125000e-03
-1.170688e-09,5.062500e-03
-1.166688e-09,4.781250e-03
-1.162688e-09,4.890625e-03
-1.158687e-09,5.406250e-03
-1.154687e-09,5.109375e-03
-1.150687e-09,5.812500e-03
-1.146687e-09,6.093750e-03
-1.142687e-09,6.375000e-03
-1.138687e-09,5.234375e-03
-1.134687e-09,6.093750e-03
-1.130687e-09,5.328125e-03
-1.126687e-09,6.593750e-03
-1.122688e-09,6.421875e-03
-1.118688e-09,6.234375e-03
-1.114688e-09,5.640625e-03
-1.110688e-09,6.046875e-03
-1.106688e-09,5.640625e-03
-1.102688e-09,5.625000e-03
-1.098687e-09,6.015625e-03
-1.094687e-09,6.203125e-03
-1.090687e-09,5.968750e-03
-1.086687e-09,5.531250e-03
-1.082687e-09,5.500000e-03
-1.078687e-09,5.875000e-03
-1.074687e-09,5.421875e-03
-1.070687e-09,5.984375e-03
-1.066687e-09,6.140625e-03
-1.062688e-09,6.296875e-03
-1.058688e-09,5.046875e-03
-1.054688e-09,5.812500e-03
-1.050688e-09,4.953125e-03
-1.046688e-09,6.140625e-03
-1.042688e-09,5.906250e-03
-1.038687e-09,5.656250e-03
-1.034687e-09,5.031250e-03
-1.030687e-09,5.406250e-03
-1.026687e-09,4.984375e-03
-1.022687e-09,4.968750e-03
-1.018687e-09,5.359375e-03
-1.014687e-09,5.562500e-03
-1.010687e-09,5.359375e-03
-1.006687e-09,4.968750e-03
-1.002688e-09,4.984375e-03
-9.986875e-10,5.406250e-03
-9.946875e-10,5.031250e-03
-9.906875e-10,5.671875e-03
-9.866875e-10,5.921875e-03
-9.826875e-10,6.156250e-03
-9.786875e-10,4.984375e-03
-9.746875e-10,5.859375e-03
-9.706875e-10,5.093750e-03
-9.666875e-10,6.359375e-03
-9.626875e-10,6.218750e-03
-9.586875e-10,6.078125e-03
-9.546875e-10,5.531250e-03
-9.506875e-10,6.015625e-03
-9.466875e-10,5.671875e-03
-9.426875e-10,5.734375e-03
-9.386875e-10,6.218750e-03
-9.346875e-10,6.484375e-03
-9.306875e-10,6.343750e-03
-9.266875e-10,6.000000e-03
-9.226875e-10,6.046875e-03
-9.186875e-10,6.500000e-03
-9.146875e-10,6.156250e-03
-9.106875e-10,6.796875e-03
-9.066875e-10,7.031250e-03
-9.026875e-10,7.265625e-03
-8.986875e-10,6.093750e-03
-8.946875e-10,6.921875e-03
-8.906875e-10,6.109375e-03
-8.866875e-10,7.265625e-03
-8.826875e-10,7.062500e-03
-8.786875e-10,6.843750e-03
-8.746875e-10,6.234375e-03
-8.706875e-10,6.609375e-03
-8.666875e-10,6.156250e-03
-8.626875e-10,6.125000e-03
-8.586875e-10,6.484375e-03
-8.546875e-10,6.625000e-03
-8.506875e-10,6.359375e-03
-8.466875e-10,5.875000e-03
-8.426875e-10,5.796875e-03
-8.386875e-10,6.109375e-03
-8.346875e-10,5.609375e-03
-8.306875e-10,6.125000e-03
-8.266875e-10,6.218750e-03
-8.226875e-10,6.312500e-03
-8.186875e-10,5.046875e-03
-8.146875e-10,5.734375e-03
-8.106875e-10,4.812500e-03
-8.066875e-10,5.765625e-03
-8.026875e-10,5.500000e-03
-7.986875e-10,5.187500e-03
-7.946875e-10,4.515625e-03
-7.906875e-10,4.796875e-03
-7.866875e-10,4.265625e-03
-7.826875e-10,4.203125e-03
-7.786875e-10,4.500000e-03
-7.746875e-10,4.593750e-03
-7.706875e-10,4.359375e-03
-7.666875e-10,3.843750e-03
-7.626875e-10,3.750000e-03
-7.586875e-10,4.062500e-03
-7.546875e-10,3.593750e-03
-7.506875e-10,4.125000e-03
-7.466875e-10,4.265625e-03
-7.426875e-10,4.406250e-03
-7.386875e-10,3.218750e-03
-7.346875e-10,4.000000e-03
-7.306875e-10,3.187500e-03
-7.266875e-10,4.156250e-03
-7.226875e-10,4.031250e-03
-7.186875e-10,3.843750e-03
-7.146875e-10,3.312500e-03
-7.106875e-10,3.687500e-03
-7.066875e-10,3.250000e-03
-7.026875e-10,3.375000e-03
-6.986875e-10,3.765625e-03
-6.946875e-10,3.953125e-03
-6.906875e-10,3.968750e-03
-6.866875e-10,3.578125e-03
-6.826875e-10,3.593750e-03
-6.786875e-10,4.015625e-03
-6.746875e-10,3.703125e-03
-6.706875e-10,4.343750e-03
-6.666875e-10,4.640625e-03
-6.626875e-10,4.875000e-03
-6.586875e-10,3.765625e-03
-6.546875e-10,4.671875e-03
-6.506875e-10,4.031250e-03
-6.466875e-10,5.062500e-03
-6.426875e-10,5.046875e-03
-6.386875e-10,4.984375e-03
-6.346875e-10,4.562500e-03
-6.306875e-10,4.968750e-03
-6.266875e-10,4.562500e-03
-6.226875e-10,4.781250e-03
-6.186875e-10,5.234375e-03
-6.146875e-10,5.421875e-03
-6.106875e-10,5.546875e-03
-6.066875e-10,5.187500e-03
-6.026875e-10,5.218750e-03
-5.986875e-10,5.671875e-03
-5.946875e-10,5.421875e-03
-5.906875e-10,6.062500e-03
-5.866875e-10,6.343750e-03
-5.826875e-10,6.562500e-03
-5.786875e-10,5.406250e-03
-5.746875e-10,6.312500e-03
-5.706875e-10,5.718750e-03
-5.666875e-10,6.718750e-03
-5.626875e-10,6.718750e-03
-5.586875e-10,6.625000e-03
-5.546875e-10,6.156250e-03
-5.506875e-10,6.500000e-03
-5.466875e-10,6.062500e-03
-5.426875e-10,6.218750e-03
-5.386875e-10,6.671875e-03
-5.346875e-10,6.765625e-03
-5.306875e-10,6.828125e-03
-5.266875e-10,6.421875e-03
-5.226875e-10,6.421875e-03
-5.186875e-10,6.812500e-03
-5.146875e-10,6.500000e-03
-5.106875e-10,7.093750e-03
-5.066875e-10,7.265625e-03
-5.026875e-10,7.406250e-03
-4.986875e-10,6.156250e-03
-4.946875e-10,6.906250e-03
-4.906875e-10,6.281250e-03
-4.866875e-10,7.171875e-03
-4.826875e-10,7.140625e-03
-4.786875e-10,6.875000e-03
-4.746875e-10,6.281250e-03
-4.706875e-10,6.531250e-03
-4.666875e-10,6.015625e-03
-4.626875e-10,5.984375e-03
-4.586875e-10,6.328125e-03
-4.546875e-10,6.296875e-03
-4.506875e-10,6.140625e-03
-4.466875e-10,5.609375e-03
-4.426875e-10,5.531250e-03
-4.386875e-10,5.828125e-03
-4.346875e-10,5.296875e-03
-4.306875e-10,5.812500e-03
-4.266875e-10,5.812500e-03
-4.226875e-10,5.828125e-03
-4.186875e-10,4.468750e-03
-4.146875e-10,5.015625e-03
-4.106875e-10,4.265625e-03
-4.066875e-10,5.078125e-03
-4.026875e-10,4.953125e-03
-3.986875e-10,4.546875e-03
-3.946875e-10,3.859375e-03
-3.906875e-10,4.046875e-03
-3.866875e-10,3.578125e-03
-3.826875e-10,3.390625e-03
-3.786875e-10,3.734375e-03
-3.746875e-10,3.687500e-03
-3.706875e-10,3.437500e-03
-3.666875e-10,2.953125e-03
-3.626875e-10,2.968750e-03
-3.586875e-10,3.359375e-03
-3.546875e-10,2.843750e-03
-3.506875e-10,3.453125e-03
-3.466875e-10,3.625000e-03
-3.426875e-10,3.781250e-03
-3.386875e-10,2.625000e-03
-3.346875e-10,3.296875e-03
-3.306875e-10,2.750000e-03
-3.266875e-10,3.812500e-03
-3.226875e-10,3.906250e-03
-3.186875e-10,3.750000e-03
-3.146875e-10,3.390625e-03
-3.106875e-10,3.890625e-03
-3.066875e-10,3.765625e-03
-3.026875e-10,3.859375e-03
-2.986875e-10,4.500000e-03
-2.946875e-10,4.812500e-03
-2.906875e-10,4.828125e-03
-2.866875e-10,4.750000e-03
-2.826875e-10,5.093750e-03
-2.786875e-10,5.828125e-03
-2.746875e-10,5.656250e-03
-2.706875e-10,6.531250e-03
-2.666875e-10,7.062500e-03
-2.626875e-10,7.484375e-03
-2.586875e-10,6.656250e-03
-2.546875e-10,7.546875e-03
-2.506875e-10,7.156250e-03
-2.466875e-10,8.437500e-03
-2.426875e-10,8.640625e-03
-2.386875e-10,8.609375e-03
-2.346875e-10,8.406250e-03
-2.306875e-10,8.937500e-03
-2.266875e-10,8.796875e-03
-2.226875e-10,8.843750e-03
-2.186875e-10,9.343750e-03
-2.146875e-10,9.515625e-03
-2.106875e-10,9.328125e-03
-2.066875e-10,9.093750e-03
-2.026875e-10,9.093750e-03
-1.986875e-10,9.453125e-03
-1.946875e-10,8.937500e-03
-1.906875e-10,9.359375e-03
-1.866875e-10,9.437500e-03
-1.826875e-10,9.343750e-03
-1.786875e-10,8.046875e-03
-1.746875e-10,8.359375e-03
-1.706875e-10,7.312500e-03
-1.666875e-10,8.015625e-03
-1.626875e-10,7.500000e-03
-1.586875e-10,6.875000e-03
-1.546875e-10,6.031250e-03
-1.506875e-10,5.921875e-03
-1.466875e-10,5.109375e-03
-1.426875e-10,4.593750e-03
-1.386875e-10,4.453125e-03
-1.346875e-10,4.078125e-03
-1.306875e-10,3.375000e-03
-1.266875e-10,2.687500e-03
-1.226875e-10,2.265625e-03
-1.186875e-10,2.187500e-03
-1.146875e-10,1.437500e-03
-1.106875e-10,1.687500e-03
-1.066875e-10,1.640625e-03
-1.026875e-10,1.625000e-03
-9.868750e-11,5.156250e-04
-9.468750e-11,1.109375e-03
-9.068750e-11,4.062500e-04
-8.668750e-11,1.703125e-03
-8.268750e-11,1.796875e-03
-7.868750e-11,2.015625e-03
-7.468750e-11,2.171875e-03
-7.068750e-11,3.265625e-03
-6.668750e-11,3.765625e-03
-6.268750e-11,4.781250e-03
-5.868750e-11,6.312500e-03
-5.468750e-11,7.843750e-03
-5.068750e-11,9.156250e-03
-4.668750e-11,1.070313e-02
-4.268750e-11,1.267188e-02
-3.868750e-11,1.509375e-02
-3.468750e-11,1.710938e-02
-3.068750e-11,2.029688e-02
-2.668750e-11,2.331250e-02
-2.268750e-11,2.664063e-02
-1.868750e-11,2.896875e-02
-1.468750e-11,3.312500e-02
-1.068750e-11,3.609375e-02
-6.687500e-12,4.125000e-02
-2.687500e-12,4.521875e-02
1.312500e-12,4.954688e-02
5.312500e-12,5.382813e-02
9.312500e-12,5.914063e-02
1.331250e-11,6.393750e-02
1.731250e-11,6.928125e-02
2.131250e-11,7.520313e-02
2.531250e-11,8.121875e-02
2.931250e-11,8.685938e-02
3.331250e-11,9.279688e-02
3.731250e-11,9.909375e-02
4.131250e-11,1.057500e-01
4.531250e-11,1.120313e-01
4.931250e-11,1.193594e-01
5.331250e-11,1.263906e-01
5.731250e-11,1.336875e-01
6.131250e-11,1.397969e-01
6.531250e-11,1.475938e-01
6.931250e-11,1.540000e-01
7.331250e-11,1.624219e-01
7.731250e-11,1.693906e-01
8.131250e-11,1.766250e-01
8.531250e-11,1.834688e-01
8.931250e-11,1.910625e-01
9.331250e-11,1.979844e-01
9.731250e-11,2.051250e-01
1.013125e-10,2.125938e-01
1.053125e-10,2.199531e-01
1.093125e-10,2.264844e-01
1.133125e-10,2.330313e-01
1.173125e-10,2.396719e-01
1.213125e-10,2.463594e-01
1.253125e-10,2.523906e-01
1.293125e-10,2.590938e-01
1.333125e-10,2.651250e-01
1.373125e-10,2.712188e-01
1.413125e-10,2.757188e-01
1.453125e-10,2.816719e-01
1.493125e-10,2.858906e-01
1.533125e-10,2.917969e-01
1.573125e-10,2.959219e-01
1.613125e-10,3.001094e-01
1.653125e-10,3.035625e-01
1.693125e-10,3.074844e-01
1.733125e-10,3.105625e-01
1.773125e-10,3.135938e-01
1.813125e-10,3.167031e-01
1.853125e-10,3.195625e-01
1.893125e-10,3.212813e-01
1.933125e-10,3.228438e-01
1.973125e-10,3.243906e-01
2.013125e-10,3.258438e-01
2.053125e-10,3.265000e-01
2.093125e-10,3.276719e-01
2.133125e-10,3.280313e-01
2.173125e-10,3.284531e-01
2.213125e-10,3.271406e-01
2.253125e-10,3.273125e-01
2.293125e-10,3.257500e-01
2.333125e-10,3.257344e-01
2.373125e-10,3.239844e-01
2.413125e-10,3.223125e-01
2.453125e-10,3.199375e-01
2.493125e-10,3.181094e-01
2.533125e-10,3.155469e-01
2.573125e-10,3.130000e-01
2.613125e-10,3.105469e-01
2.653125e-10,3.080156e-01
2.693125e-10,3.044531e-01
2.733125e-10,3.007969e-01
2.773125e-10,2.973438e-01
2.813125e-10,2.939531e-01
2.853125e-10,2.898750e-01
2.893125e-10,2.864531e-01
2.933125e-10,2.824219e-01
2.973125e-10,2.786406e-01
3.013125e-10,2.732344e-01
3.053125e-10,2.696250e-01
3.093125e-10,2.644531e-01
3.133125e-10,2.609219e-01
3.173125e-10,2.559219e-01
3.213125e-10,2.511563e-01
3.253125e-10,2.458750e-01
3.293125e-10,2.414063e-01
3.333125e-10,2.364063e-01
3.373125e-10,2.315781e-01
3.413125e-10,2.269844e-01
3.453125e-10,2.225000e-01
3.493125e-10,2.172656e-01
3.533125e-10,2.120625e-01
3.573125e-10,2.072188e-01
3.613125e-10,2.026719e-01
3.653125e-10,1.975156e-01
3.693125e-10,1.932031e-01
3.733125e-10,1.885000e-01
3.773125e-10,1.841406e-01
3.813125e-10,1.782813e-01
3.853125e-10,1.744375e-01
3.893125e-10,1.691719e-01
3.933125e-10,1.656094e-01
3.973125e-10,1.607656e-01
4.013125e-10,1.562500e-01
4.053125e-10,1.512969e-01
4.093125e-10,1.473281e-01
4.133125e-10,1.429219e-01
4.173125e-10,1.387813e-01
4.213125e-10,1.349219e-01
4.253125e-10,1.312344e-01
4.293125e-10,1.270156e-01
4.333125e-10,1.228438e-01
4.373125e-10,1.190625e-01
4.413125e-10,1.157188e-01
4.453125e-10,1.117656e-01
4.493125e-10,1.086875e-01
4.533125e-10,1.053750e-01
4.573125e-10,1.023750e-01
4.613125e-10,9.796875e-02
4.653125e-10,9.564063e-02
4.693125e-10,9.193750e-02
4.733125e-10,8.992188e-02
4.773125e-10,8.678125e-02
4.813125e-10,8.384375e-02
4.853125e-10,8.060938e-02
4.893125e-10,7.834375e-02
4.933125e-10,7.562500e-02
4.973125e-10,7.323438e-02
5.013125e-10,7.110938e-02
5.053125e-10,6.917188e-02
5.093125e-10,6.681250e-02
5.133125e-10,6.445313e-02
5.173125e-10,6.246875e-02
5.213125e-10,6.093750e-02
5.253125e-10,5.878125e-02
5.293125e-10,5.745313e-02
5.333125e-10,5.595313e-02
5.373125e-10,5.465625e-02
5.413125e-10,5.203125e-02
5.453125e-10,5.142188e-02
5.493125e-10,4.943750e-02
5.533125e-10,4.914063e-02
5.573125e-10,4.771875e-02
5.613125e-10,4.634375e-02
5.653125e-10,4.473438e-02
5.693125e-10,4.404688e-02
5.733125e-10,4.276563e-02
5.773125e-10,4.184375e-02
5.813125e-10,4.115625e-02
5.853125e-10,4.057813e-02
5.893125e-10,3.960938e-02
5.933125e-10,3.851563e-02
5.973125e-10,3.782813e-02
6.013125e-10,3.743750e-02
6.053125e-10,3.640625e-02
6.093125e-10,3.615625e-02
6.133125e-10,3.571875e-02
6.173125e-10,3.529688e-02
6.213125e-10,3.362500e-02
6.253125e-10,3.378125e-02
6.293125e-10,3.262500e-02
6.333125e-10,3.309375e-02
6.373125e-10,3.239063e-02
6.413125e-10,3.159375e-02
6.453125e-10,3.053125e-02
6.493125e-10,3.042188e-02
6.533125e-10,2.953125e-02
6.573125e-10,2.896875e-02
6.613125e-10,2.868750e-02
6.653125e-10,2.845313e-02
6.693125e-10,2.779688e-02
6.733125e-10,2.690625e-02
6.773125e-10,2.650000e-02
6.813125e-10,2.625000e-02
6.853125e-10,2.537500e-02
6.893125e-10,2.528125e-02
6.933125e-10,2.501563e-02
6.973125e-10,2.459375e-02
7.013125e-10,2.303125e-02
7.053125e-10,2.320313e-02
7.093125e-10,2.212500e-02
7.133125e-10,2.267188e-02
7.173125e-10,2.201563e-02
7.213125e-10,2.129688e-02
7.253125e-10,2.020313e-02
7.293125e-10,2.020313e-02
7.333125e-10,1.929688e-02
7.373125e-10,1.875000e-02
7.413125e-10,1.859375e-02
7.453125e-10,1.845313e-02
7.493125e-10,1.792188e-02
7.533125e-10,1.710938e-02
7.573125e-10,1.682813e-02
7.613125e-10,1.673438e-02
7.653125e-10,1.604688e-02
7.693125e-10,1.618750e-02
7.733125e-10,1.615625e-02
7.773125e-10,1.589063e-02
7.813125e-10,1.460938e-02
7.853125e-10,1.498438e-02
7.893125e-10,1.415625e-02
7.933125e-10,1.506250e-02
7.973125e-10,1.471875e-02
8.013125e-10,1.437500e-02
8.053125e-10,1.359375e-02
8.093125e-10,1.390625e-02
8.133125e-10,1.335938e-02
8.173125e-10,1.318750e-02
8.213125e-10,1.345313e-02
8.253125e-10,1.357813e-02
8.293125e-10,1.346875e-02
8.333125e-10,1.300000e-02
8.373125e-10,1.303125e-02
8.413125e-10,1.335938e-02
8.453125e-10,1.303125e-02
8.493125e-10,1.356250e-02
8.533125e-10,1.384375e-02
8.573125e-10,1.387500e-02
8.613125e-10,1.292188e-02
8.653125e-10,1.354688e-02
8.693125e-10,1.292188e-02
8.733125e-10,1.415625e-02
8.773125e-10,1.406250e-02
8.813125e-10,1.393750e-02
8.853125e-10,1.335938e-02
8.893125e-10,1.378125e-02
8.933125e-10,1.339063e-02
8.973125e-10,1.339063e-02
9.013125e-10,1.381250e-02
9.053125e-10,1.389063e-02
9.093125e-10,1.384375e-02
9.133125e-10,1.342188e-02
9.173125e-10,1.339063e-02
9.213125e-10,1.379688e-02
9.253125e-10,1.346875e-02
9.293125e-10,1.395313e-02
9.333125e-10,1.412500e-02
9.373125e-10,1.407813e-02
9.413125e-10,1.307813e-02
9.453125e-10,1.359375e-02
9.493125e-10,1.278125e-02
9.533125e-10,1.392188e-02
9.573125e-10,1.368750e-02
9.613125e-10,1.340625e-02
9.653125e-10,1.271875e-02
9.693125e-10,1.295313e-02
9.733125e-10,1.246875e-02
9.773125e-10,1.234375e-02
9.813125e-10,1.265625e-02
9.853125e-10,1.250000e-02
9.893125e-10,1.231250e-02
9.933125e-10,1.178125e-02
9.973125e-10,1.156250e-02
1.001312e-09,1.189063e-02
1.005312e-09,1.145313e-02
1.009313e-09,1.182813e-02
1.013313e-09,1.187500e-02
1.017313e-09,1.178125e-02
1.021313e-09,1.073438e-02
1.025313e-09,1.125000e-02
1.029313e-09,1.034375e-02
1.033312e-09,1.143750e-02
1.037312e-09,1.118750e-02
1.041312e-09,1.087500e-02
1.045312e-09,1.020313e-02
1.049312e-09,1.046875e-02
1.053312e-09,1.001563e-02
1.057312e-09,9.968750e-03
1.061312e-09,1.032813e-02
1.065312e-09,1.025000e-02
1.069313e-09,1.009375e-02
1.073313e-09,9.656250e-03
1.077313e-09,9.500000e-03
1.081313e-09,9.937500e-03
1.085313e-09,9.593750e-03
1.089313e-09,1.006250e-02
1.093312e-09,1.021875e-02
1.097312e-09,1.025000e-02
1.101312e-09,9.328125e-03
1.105312e-09,1.003125e-02
1.109312e-09,9.234375e-03
1.113312e-09,1.039063e-02
1.117312e-09,1.023438e-02
1.121312e-09,1.004688e-02
1.125312e-09,9.484375e-03
1.129313e-09,9.875000e-03
1.133313e-09,9.515625e-03
1.137313e-09,9.562500e-03
1.141313e-09,1.001563e-02
1.145313e-09,1.006250e-02
1.149313e-09,9.953125e-03
1.153312e-09,9.609375e-03
1.157312e-09,9.531250e-03
1.161312e-09,1.000000e-02
1.165312e-09,9.687500e-03
1.169312e-09,1.021875e-02
1.173312e-09,1.042188e-02
1.177312e-09,1.053125e-02
1.181312e-09,9.593750e-03
1.185312e-09,1.035938e-02
1.189313e-09,9.578125e-03
1.193313e-09,1.073438e-02
1.197313e-09,1.056250e-02
1.201313e-09,1.035938e-02
1.205313e-09,9.781250e-03
1.209313e-09,1.017188e-02
1.213312e-09,9.781250e-03
1.217312e-09,9.781250e-03
1.221312e-09,1.018750e-02
1.225312e-09,1.026563e-02
1.229312e-09,1.007813e-02
1.233312e-09,9.671875e-03
1.237312e-09,9.578125e-03
1.241312e-09,9.968750e-03
1.245312e-09,9.562500e-03
1.249313e-09,1.006250e-02
1.253313e-09,1.020313e-02
1.257313e-09,1.028125e-02
1.261313e-09,9.203125e-03
1.265313e-09,9.921875e-03
1.269313e-09,9.062500e-03
1.273312e-09,1.015625e-02
1.277312e-09,9.890625e-03
1.281312e-09,9.609375e-03
1.285312e-09,8.937500e-03
1.289312e-09,9.250000e-03
1.293312e-09,8.765625e-03
1.297312e-09,8.687500e-03
1.301312e-09,9.000000e-03
1.305312e-09,9.062500e-03
1.309313e-09,8.765625e-03
1.313313e-09,8.281250e-03
1.317313e-09,8.156250e-03
1.321313e-09,8.468750e-03
1.325313e-09,7.968750e-03
1.329313e-09,8.437500e-03
1.333312e-09,8.546875e-03
1.337312e-09,8.609375e-03
1.341312e-09,7.421875e-03
1.345312e-09,8.109375e-03
1.349312e-09,7.218750e-03
1.353312e-09,8.328125e-03
1.357312e-09,8.046875e-03
1.361312e-09,7.765625e-03
1.365312e-09,7.093750e-03
1.369313e-09,7.437500e-03
1.373313e-09,7.000000e-03
1.377313e-09,6.953125e-03
1.381313e-09,7.328125e-03
1.385313e-09,7.484375e-03
1.389313e-09,7.281250e-03
1.393312e-09,6.875000e-03
1.397312e-09,6.875000e-03
1.401312e-09,7.312500e-03
1.405312e-09,6.953125e-03
1.409312e-09,7.578125e-03
1.413312e-09,7.843750e-03
1.417312e-09,8.109375e-03
1.421312e-09,7.062500e-03
1.425312e-09,7.953125e-03
1.429313e-09,7.281250e-03
1.433313e-09,8.609375e-03
1.437313e-09,8.562500e-03
1.441313e-09,8.515625e-03
1.445313e-09,8.093750e-03
1.449313e-09,8.687500e-03
1.453312e-09,8.484375e-03
1.457312e-09,8.703125e-03
1.461312e-09,9.328125e-03
1.465312e-09,9.750000e-03
1.469312e-09,9.796875e-03
1.473312e-09,9.640625e-03
1.477312e-09,9.875000e-03
1.481312e-09,1.054688e-02
1.485312e-09,1.040625e-02
1.489313e-09,1.126563e-02
1.493313e-09,1.173438e-02
1.497313e-09,1.218750e-02
1.501313e-09,1.128125e-02
1.505313e-09,1.234375e-02
1.509313e-09,1.178125e-02
1.513312e-09,1.323438e-02
1.517312e-09,1.326563e-02
1.521312e-09,1.329688e-02
1.525312e-09,1.290625e-02
1.529312e-09,1.350000e-02
1.533312e-09,1.328125e-02
1.537312e-09,1.345313e-02
1.541312e-09,1.401563e-02
1.545312e-09,1.434375e-02
1.549313e-09,1.425000e-02
1.553313e-09,1.393750e-02
1.557313e-09,1.400000e-02
1.561313e-09,1.443750e-02
1.565313e-09,1.406250e-02
1.569313e-09,1.465625e-02
1.573312e-09,1.481250e-02
1.577312e-09,1.495313e-02
1.581312e-09,1.367188e-02
1.585312e-09,1.437500e-02
1.589312e-09,1.343750e-02
1.593312e-09,1.448438e-02
1.597312e-09,1.409375e-02
1.601312e-09,1.370313e-02
1.605312e-09,1.285938e-02
1.609312e-09,1.301563e-02
1.613313e-09,1.234375e-02
1.617313e-09,1.206250e-02
1.621313e-09,1.215625e-02
1.625313e-09,1.203125e-02
1.629313e-09,1.150000e-02
1.633312e-09,1.073438e-02
1.637312e-09,1.037500e-02
1.641312e-09,1.042188e-02
1.645312e-09,9.640625e-03
1.649312e-09,9.875000e-03
1.653312e-09,9.687500e-03
1.657312e-09,9.500000e-03
1.661312e-09,7.921875e-03
1.665312e-09,8.359375e-03
1.669312e-09,7.187500e-03
1.673313e-09,8.031250e-03
1.677313e-09,7.484375e-03
1.681313e-09,6.937500e-03
1.685313e-09,6.015625e-03
1.689313e-09,6.109375e-03
1.693312e-09,5.421875e-03
1.697312e-09,5.140625e-03
1.701312e-09,5.296875e-03
1.705312e-09,5.265625e-03
1.709312e-09,4.859375e-03
1.713312e-09,4.265625e-03
1.717312e-09,4.109375e-03
1.721312e-09,4.375000e-03
1.725312e-09,3.859375e-03
1.729312e-09,4.375000e-03
1.733313e-09,4.515625e-03
1.737313e-09,4.687500e-03
1.741313e-09,3.468750e-03
1.745313e-09,4.281250e-03
1.749313e-09,3.515625e-03
1.753312e-09,4.765625e-03
1.757312e-09,4.640625e-03
