Measurements-streak-laser-independent/Photodiode-on-Tek-12bit-4GHz/Tek000_ch1_20190613132956360.csv

Model,MSO64
Waveform Type,ANALOG
Horizontal Units,s
Sample Interval,4.000000e-12
Record Length,1000
Zero Index,310.718750
Vertical Units,V

TIME,CH1
-1.242875e-09,4.890625e-03
-1.238875e-09,5.234375e-03
-1.234875e-09,5.578125e-03
-1.230875e-09,4.515625e-03
-1.226875e-09,5.484375e-03
-1.222875e-09,4.843750e-03
-1.218875e-09,6.218750e-03
-1.214875e-09,6.187500e-03
-1.210875e-09,6.156250e-03
-1.206875e-09,5.718750e-03
-1.202875e-09,6.312500e-03
-1.198875e-09,6.078125e-03
-1.194875e-09,6.250000e-03
-1.190875e-09,6.812500e-03
-1.186875e-09,7.171875e-03
-1.182875e-09,7.125000e-03
-1.178875e-09,6.875000e-03
-1.174875e-09,7.015625e-03
-1.170875e-09,7.546875e-03
-1.166875e-09,7.265625e-03
-1.162875e-09,8.000000e-03
-1.158875e-09,8.296875e-03
-1.154875e-09,8.593750e-03
-1.150875e-09,7.468750e-03
-1.146875e-09,8.343750e-03
-1.142875e-09,7.593750e-03
-1.138875e-09,8.843750e-03
-1.134875e-09,8.687500e-03
-1.130875e-09,8.500000e-03
-1.126875e-09,7.906250e-03
-1.122875e-09,8.312500e-03
-1.118875e-09,7.890625e-03
-1.114875e-09,7.875000e-03
-1.110875e-09,8.250000e-03
-1.106875e-09,8.421875e-03
-1.102875e-09,8.156250e-03
-1.098875e-09,7.703125e-03
-1.094875e-09,7.625000e-03
-1.090875e-09,7.968750e-03
-1.086875e-09,7.484375e-03
-1.082875e-09,8.015625e-03
-1.078875e-09,8.125000e-03
-1.074875e-09,8.234375e-03
-1.070875e-09,6.937500e-03
-1.066875e-09,7.656250e-03
-1.062875e-09,6.750000e-03
-1.058875e-09,7.875000e-03
-1.054875e-09,7.593750e-03
-1.050875e-09,7.312500e-03
-1.046875e-09,6.625000e-03
-1.042875e-09,6.953125e-03
-1.038875e-09,6.484375e-03
-1.034875e-09,6.421875e-03
-1.030875e-09,6.781250e-03
-1.026875e-09,6.937500e-03
-1.022875e-09,6.703125e-03
-1.018875e-09,6.265625e-03
-1.014875e-09,6.265625e-03
-1.010875e-09,6.656250e-03
-1.006875e-09,6.250000e-03
-1.002875e-09,6.875000e-03
-9.988750e-10,7.109375e-03
-9.948750e-10,7.359375e-03
-9.908750e-10,6.187500e-03
-9.868750e-10,7.062500e-03
-9.828750e-10,6.328125e-03
-9.788750e-10,7.609375e-03
-9.748750e-10,7.500000e-03
-9.708750e-10,7.390625e-03
-9.668750e-10,6.890625e-03
-9.628750e-10,7.421875e-03
-9.588750e-10,7.140625e-03
-9.548750e-10,7.265625e-03
-9.508750e-10,7.812500e-03
-9.468750e-10,8.156250e-03
-9.428750e-10,8.093750e-03
-9.388750e-10,7.843750e-03
-9.348750e-10,7.984375e-03
-9.308750e-10,8.531250e-03
-9.268750e-10,8.281250e-03
-9.228750e-10,9.031250e-03
-9.188750e-10,9.375000e-03
-9.148750e-10,9.734375e-03
-9.108750e-10,8.656250e-03
-9.068750e-10,9.593750e-03
-9.028750e-10,8.906250e-03
-8.988750e-10,1.020313e-02
-8.948750e-10,1.010938e-02
-8.908750e-10,1.001563e-02
-8.868750e-10,9.500000e-03
-8.828750e-10,9.968750e-03
-8.788750e-10,9.625000e-03
-8.748750e-10,9.687500e-03
-8.708750e-10,1.012500e-02
-8.668750e-10,1.034375e-02
-8.628750e-10,1.015625e-02
-8.588750e-10,9.750000e-03
-8.548750e-10,9.718750e-03
-8.508750e-10,1.007813e-02
-8.468750e-10,9.625000e-03
-8.428750e-10,1.015625e-02
-8.388750e-10,1.026563e-02
-8.348750e-10,1.037500e-02
-8.308750e-10,9.062500e-03
-8.268750e-10,9.734375e-03
-8.228750e-10,8.781250e-03
-8.188750e-10,9.750000e-03
-8.148750e-10,9.406250e-03
-8.108750e-10,9.015625e-03
-8.068750e-10,8.234375e-03
-8.028750e-10,8.406250e-03
-7.988750e-10,7.765625e-03
-7.948750e-10,7.562500e-03
-7.908750e-10,7.718750e-03
-7.868750e-10,7.656250e-03
-7.828750e-10,7.234375e-03
-7.788750e-10,6.546875e-03
-7.748750e-10,6.281250e-03
-7.708750e-10,6.406250e-03
-7.668750e-10,5.718750e-03
-7.628750e-10,6.046875e-03
-7.588750e-10,5.968750e-03
-7.548750e-10,5.890625e-03
-7.508750e-10,4.421875e-03
-7.468750e-10,4.968750e-03
-7.428750e-10,3.921875e-03
-7.388750e-10,4.750000e-03
-7.348750e-10,4.343750e-03
-7.308750e-10,3.906250e-03
-7.268750e-10,3.109375e-03
-7.228750e-10,3.265625e-03
-7.188750e-10,2.625000e-03
-7.148750e-10,2.484375e-03
-7.108750e-10,2.687500e-03
-7.068750e-10,2.687500e-03
-7.028750e-10,2.421875e-03
-6.988750e-10,1.859375e-03
-6.948750e-10,1.718750e-03
-6.908750e-10,2.000000e-03
-6.868750e-10,1.531250e-03
-6.828750e-10,2.046875e-03
-6.788750e-10,2.203125e-03
-6.748750e-10,2.343750e-03
-6.708750e-10,1.140625e-03
-6.668750e-10,1.953125e-03
-6.628750e-10,1.218750e-03
-6.588750e-10,2.343750e-03
-6.548750e-10,2.250000e-03
-6.508750e-10,2.140625e-03
-6.468750e-10,1.671875e-03
-6.428750e-10,2.140625e-03
-6.388750e-10,1.828125e-03
-6.348750e-10,2.015625e-03
-6.308750e-10,2.562500e-03
-6.268750e-10,2.875000e-03
-6.228750e-10,2.968750e-03
-6.188750e-10,2.734375e-03
-6.148750e-10,2.921875e-03
-6.108750e-10,3.515625e-03
-6.068750e-10,3.359375e-03
-6.028750e-10,4.156250e-03
-5.988750e-10,4.593750e-03
-5.948750e-10,5.000000e-03
-5.908750e-10,4.000000e-03
-5.868750e-10,5.046875e-03
-5.828750e-10,4.546875e-03
-5.788750e-10,5.859375e-03
-5.748750e-10,5.968750e-03
-5.708750e-10,6.000000e-03
-5.668750e-10,5.640625e-03
-5.628750e-10,6.203125e-03
-5.588750e-10,5.953125e-03
-5.548750e-10,6.187500e-03
-5.508750e-10,6.765625e-03
-5.468750e-10,7.062500e-03
-5.428750e-10,7.093750e-03
-5.388750e-10,6.812500e-03
-5.348750e-10,6.921875e-03
-5.308750e-10,7.421875e-03
-5.268750e-10,7.125000e-03
-5.228750e-10,7.781250e-03
-5.188750e-10,8.015625e-03
-5.148750e-10,8.203125e-03
-5.108750e-10,6.984375e-03
-5.068750e-10,7.750000e-03
-5.028750e-10,7.000000e-03
-4.988750e-10,8.031250e-03
-4.948750e-10,7.859375e-03
-4.908750e-10,7.546875e-03
-4.868750e-10,6.843750e-03
-4.828750e-10,7.078125e-03
-4.788750e-10,6.515625e-03
-4.748750e-10,6.359375e-03
-4.708750e-10,6.593750e-03
-4.668750e-10,6.531250e-03
-4.628750e-10,6.171875e-03
-4.588750e-10,5.531250e-03
-4.548750e-10,5.328125e-03
-4.508750e-10,5.500000e-03
-4.468750e-10,4.843750e-03
-4.428750e-10,5.203125e-03
-4.388750e-10,5.125000e-03
-4.348750e-10,5.015625e-03
-4.308750e-10,3.562500e-03
-4.268750e-10,4.031250e-03
-4.228750e-10,3.062500e-03
-4.188750e-10,3.890625e-03
-4.148750e-10,3.546875e-03
-4.108750e-10,3.046875e-03
-4.068750e-10,2.250000e-03
-4.028750e-10,2.390625e-03
-3.988750e-10,1.812500e-03
-3.948750e-10,1.578125e-03
-3.908750e-10,1.828125e-03
-3.868750e-10,1.812500e-03
-3.828750e-10,1.468750e-03
-3.788750e-10,9.531250e-04
-3.748750e-10,8.906250e-04
-3.708750e-10,1.234375e-03
-3.668750e-10,7.500000e-04
-3.628750e-10,1.328125e-03
-3.588750e-10,1.515625e-03
-3.548750e-10,1.703125e-03
-3.508750e-10,5.625000e-04
-3.468750e-10,1.328125e-03
-3.428750e-10,6.875000e-04
-3.388750e-10,1.906250e-03
-3.348750e-10,1.937500e-03
-3.308750e-10,1.843750e-03
-3.268750e-10,1.484375e-03
-3.228750e-10,2.046875e-03
-3.188750e-10,1.921875e-03
-3.148750e-10,2.093750e-03
-3.108750e-10,2.765625e-03
-3.068750e-10,3.171875e-03
-3.028750e-10,3.234375e-03
-2.988750e-10,3.171875e-03
-2.948750e-10,3.500000e-03
-2.908750e-10,4.234375e-03
-2.868750e-10,4.109375e-03
-2.828750e-10,5.015625e-03
-2.788750e-10,5.578125e-03
-2.748750e-10,6.062500e-03
-2.708750e-10,5.218750e-03
-2.668750e-10,6.234375e-03
-2.628750e-10,5.781250e-03
-2.588750e-10,7.218750e-03
-2.548750e-10,7.343750e-03
-2.508750e-10,7.406250e-03
-2.468750e-10,7.125000e-03
-2.428750e-10,7.750000e-03
-2.388750e-10,7.593750e-03
-2.348750e-10,7.765625e-03
-2.308750e-10,8.343750e-03
-2.268750e-10,8.640625e-03
-2.228750e-10,8.562500e-03
-2.188750e-10,8.359375e-03
-2.148750e-10,8.453125e-03
-2.108750e-10,8.921875e-03
-2.068750e-10,8.578125e-03
-2.028750e-10,9.171875e-03
-1.988750e-10,9.406250e-03
-1.948750e-10,9.562500e-03
-1.908750e-10,8.406250e-03
-1.868750e-10,9.062500e-03
-1.828750e-10,8.218750e-03
-1.788750e-10,9.296875e-03
-1.748750e-10,9.031250e-03
-1.708750e-10,8.718750e-03
-1.668750e-10,8.109375e-03
-1.628750e-10,8.390625e-03
-1.588750e-10,7.906250e-03
-1.548750e-10,7.796875e-03
-1.508750e-10,8.062500e-03
-1.468750e-10,8.156250e-03
-1.428750e-10,7.859375e-03
-1.388750e-10,7.500000e-03
-1.348750e-10,7.484375e-03
-1.308750e-10,7.843750e-03
-1.268750e-10,7.500000e-03
-1.228750e-10,8.156250e-03
-1.188750e-10,8.484375e-03
-1.148750e-10,8.859375e-03
-1.108750e-10,7.968750e-03
-1.068750e-10,8.968750e-03
-1.028750e-10,8.500000e-03
-9.887500e-11,1.007813e-02
-9.487500e-11,1.034375e-02
-9.087500e-11,1.068750e-02
-8.687500e-11,1.081250e-02
-8.287500e-11,1.190625e-02
-7.887500e-11,1.231250e-02
-7.487500e-11,1.318750e-02
-7.087500e-11,1.453125e-02
-6.687500e-11,1.578125e-02
-6.287500e-11,1.670313e-02
-5.887500e-11,1.764063e-02
-5.487500e-11,1.898438e-02
-5.087500e-11,2.075000e-02
-4.687500e-11,2.192188e-02
-4.287500e-11,2.417188e-02
-3.887500e-11,2.612500e-02
-3.487500e-11,2.821875e-02
-3.087500e-11,2.909375e-02
-2.687500e-11,3.187500e-02
-2.287500e-11,3.323438e-02
-1.887500e-11,3.668750e-02
-1.487500e-11,3.879688e-02
-1.087500e-11,4.109375e-02
-6.875000e-12,4.310938e-02
-2.875000e-12,4.612500e-02
1.125000e-12,4.846875e-02
5.125000e-12,5.125000e-02
9.125000e-12,5.451563e-02
1.312500e-11,5.768750e-02
1.712500e-11,6.042188e-02
2.112500e-11,6.317188e-02
2.512500e-11,6.628125e-02
2.912500e-11,6.975000e-02
3.312500e-11,7.257813e-02
3.712500e-11,7.642188e-02
4.112500e-11,7.985938e-02
4.512500e-11,8.342188e-02
4.912500e-11,8.562500e-02
5.312500e-11,8.967188e-02
5.712500e-11,9.218750e-02
6.112500e-11,9.667188e-02
6.512500e-11,9.968750e-02
6.912500e-11,1.028438e-01
7.312500e-11,1.055313e-01
7.712500e-11,1.091094e-01
8.112500e-11,1.119063e-01
8.512500e-11,1.150000e-01
8.912500e-11,1.184375e-01
9.312500e-11,1.217188e-01
9.712500e-11,1.243438e-01
1.011250e-10,1.268594e-01
1.051250e-10,1.295938e-01
1.091250e-10,1.325781e-01
1.131250e-10,1.347969e-01
1.171250e-10,1.378438e-01
1.211250e-10,1.403594e-01
1.251250e-10,1.428750e-01
1.291250e-10,1.438906e-01
1.331250e-10,1.466406e-01
1.371250e-10,1.477188e-01
1.411250e-10,1.506250e-01
1.451250e-10,1.519531e-01
1.491250e-10,1.533125e-01
1.531250e-10,1.540781e-01
1.571250e-10,1.556094e-01
1.611250e-10,1.562969e-01
1.651250e-10,1.571875e-01
1.691250e-10,1.583125e-01
1.731250e-10,1.592031e-01
1.771250e-10,1.593438e-01
1.811250e-10,1.592969e-01
1.851250e-10,1.594375e-01
1.891250e-10,1.597656e-01
1.931250e-10,1.592813e-01
1.971250e-10,1.595781e-01
2.011250e-10,1.592500e-01
2.051250e-10,1.589531e-01
2.091250e-10,1.570938e-01
2.131250e-10,1.570000e-01
2.171250e-10,1.552344e-01
2.211250e-10,1.552500e-01
2.251250e-10,1.537031e-01
2.291250e-10,1.522031e-01
2.331250e-10,1.501406e-01
2.371250e-10,1.488594e-01
2.411250e-10,1.468281e-01
2.451250e-10,1.450156e-01
2.491250e-10,1.434375e-01
2.531250e-10,1.417188e-01
2.571250e-10,1.393125e-01
2.611250e-10,1.367656e-01
2.651250e-10,1.345156e-01
2.691250e-10,1.325313e-01
2.731250e-10,1.297813e-01
2.771250e-10,1.278906e-01
2.811250e-10,1.255000e-01
2.851250e-10,1.232500e-01
2.891250e-10,1.194844e-01
2.931250e-10,1.176563e-01
2.971250e-10,1.142656e-01
3.011250e-10,1.127031e-01
3.051250e-10,1.097344e-01
3.091250e-10,1.068906e-01
3.131250e-10,1.036094e-01
3.171250e-10,1.012813e-01
3.211250e-10,9.831250e-02
3.251250e-10,9.565625e-02
3.291250e-10,9.334375e-02
3.331250e-10,9.100000e-02
3.371250e-10,8.814063e-02
3.411250e-10,8.521875e-02
3.451250e-10,8.270313e-02
3.491250e-10,8.059375e-02
3.531250e-10,7.779688e-02
3.571250e-10,7.596875e-02
3.611250e-10,7.379688e-02
3.651250e-10,7.181250e-02
3.691250e-10,6.840625e-02
3.731250e-10,6.707813e-02
3.771250e-10,6.428125e-02
3.811250e-10,6.335938e-02
3.851250e-10,6.115625e-02
3.891250e-10,5.912500e-02
3.931250e-10,5.673438e-02
3.971250e-10,5.537500e-02
4.011250e-10,5.340625e-02
4.051250e-10,5.182813e-02
4.091250e-10,5.062500e-02
4.131250e-10,4.942188e-02
4.171250e-10,4.779688e-02
4.211250e-10,4.610938e-02
4.251250e-10,4.484375e-02
4.291250e-10,4.403125e-02
4.331250e-10,4.250000e-02
4.371250e-10,4.195313e-02
4.411250e-10,4.109375e-02
4.451250e-10,4.037500e-02
4.491250e-10,3.826563e-02
4.531250e-10,3.821875e-02
4.571250e-10,3.665625e-02
4.611250e-10,3.696875e-02
4.651250e-10,3.598438e-02
4.691250e-10,3.509375e-02
4.731250e-10,3.382813e-02
4.771250e-10,3.354688e-02
4.811250e-10,3.257813e-02
4.851250e-10,3.198438e-02
4.891250e-10,3.170313e-02
4.931250e-10,3.137500e-02
4.971250e-10,3.060938e-02
5.011250e-10,2.970313e-02
5.051250e-10,2.915625e-02
5.091250e-10,2.900000e-02
5.131250e-10,2.806250e-02
5.171250e-10,2.804688e-02
5.211250e-10,2.768750e-02
5.251250e-10,2.735938e-02
5.291250e-10,2.564063e-02
5.331250e-10,2.587500e-02
5.371250e-10,2.459375e-02
5.411250e-10,2.514063e-02
5.451250e-10,2.437500e-02
5.491250e-10,2.357813e-02
5.531250e-10,2.242188e-02
5.571250e-10,2.220313e-02
5.611250e-10,2.123438e-02
5.651250e-10,2.062500e-02
5.691250e-10,2.031250e-02
5.731250e-10,1.992188e-02
5.771250e-10,1.912500e-02
5.811250e-10,1.810938e-02
5.851250e-10,1.751563e-02
5.891250e-10,1.725000e-02
5.931250e-10,1.625000e-02
5.971250e-10,1.614063e-02
6.011250e-10,1.573438e-02
6.051250e-10,1.531250e-02
6.091250e-10,1.357813e-02
6.131250e-10,1.376563e-02
6.171250e-10,1.250000e-02
6.211250e-10,1.309375e-02
6.251250e-10,1.239063e-02
6.291250e-10,1.165625e-02
6.331250e-10,1.060938e-02
6.371250e-10,1.057813e-02
6.411250e-10,9.750000e-03
6.451250e-10,9.343750e-03
6.491250e-10,9.312500e-03
6.531250e-10,9.218750e-03
6.571250e-10,8.765625e-03
6.611250e-10,8.109375e-03
6.651250e-10,7.937500e-03
6.691250e-10,8.093750e-03
6.731250e-10,7.562500e-03
6.771250e-10,7.968750e-03
6.811250e-10,8.109375e-03
6.851250e-10,8.203125e-03
6.891250e-10,7.062500e-03
6.931250e-10,7.812500e-03
6.971250e-10,7.156250e-03
7.011250e-10,8.375000e-03
7.051250e-10,8.312500e-03
7.091250e-10,8.218750e-03
7.131250e-10,7.781250e-03
7.171250e-10,8.390625e-03
7.211250e-10,8.156250e-03
7.251250e-10,8.328125e-03
7.291250e-10,8.921875e-03
7.331250e-10,9.390625e-03
7.371250e-10,9.484375e-03
7.411250e-10,9.328125e-03
7.451250e-10,9.625000e-03
7.491250e-10,1.023438e-02
7.531250e-10,1.012500e-02
7.571250e-10,1.092188e-02
7.611250e-10,1.140625e-02
7.651250e-10,1.176563e-02
7.691250e-10,1.087500e-02
7.731250e-10,1.179688e-02
7.771250e-10,1.128125e-02
7.811250e-10,1.262500e-02
7.851250e-10,1.260938e-02
7.891250e-10,1.256250e-02
7.931250e-10,1.204688e-02
7.971250e-10,1.254688e-02
8.011250e-10,1.218750e-02
8.051250e-10,1.218750e-02
8.091250e-10,1.257813e-02
8.131250e-10,1.275000e-02
8.171250e-10,1.256250e-02
8.211250e-10,1.207813e-02
8.251250e-10,1.200000e-02
8.291250e-10,1.225000e-02
8.331250e-10,1.175000e-02
8.371250e-10,1.214063e-02
8.411250e-10,1.218750e-02
8.451250e-10,1.207813e-02
8.491250e-10,1.075000e-02
8.531250e-10,1.121875e-02
8.571250e-10,1.020313e-02
8.611250e-10,1.115625e-02
8.651250e-10,1.070313e-02
8.691250e-10,1.025000e-02
8.731250e-10,9.359375e-03
8.771250e-10,9.453125e-03
8.811250e-10,8.781250e-03
8.851250e-10,8.484375e-03
8.891250e-10,8.625000e-03
8.931250e-10,8.484375e-03
8.971250e-10,8.109375e-03
9.011250e-10,7.468750e-03
9.051250e-10,7.218750e-03
9.091250e-10,7.453125e-03
9.131250e-10,6.906250e-03
9.171250e-10,7.328125e-03
9.211250e-10,7.390625e-03
9.251250e-10,7.390625e-03
9.291250e-10,6.234375e-03
9.331250e-10,6.875000e-03
9.371250e-10,6.062500e-03
9.411250e-10,7.281250e-03
9.451250e-10,7.140625e-03
9.491250e-10,6.984375e-03
9.531250e-10,6.468750e-03
9.571250e-10,6.953125e-03
9.611250e-10,6.703125e-03
9.651250e-10,6.859375e-03
9.691250e-10,7.453125e-03
9.731250e-10,7.750000e-03
9.771250e-10,7.828125e-03
9.811250e-10,7.671875e-03
9.851250e-10,7.875000e-03
9.891250e-10,8.562500e-03
9.931250e-10,8.484375e-03
9.971250e-10,9.328125e-03
1.001125e-09,9.796875e-03
1.005125e-09,1.021875e-02
1.009125e-09,9.437500e-03
1.013125e-09,1.046875e-02
1.017125e-09,9.953125e-03
1.021125e-09,1.142188e-02
1.025125e-09,1.151563e-02
1.029125e-09,1.156250e-02
1.033125e-09,1.121875e-02
1.037125e-09,1.181250e-02
1.041125e-09,1.164063e-02
1.045125e-09,1.182813e-02
1.049125e-09,1.240625e-02
1.053125e-09,1.264063e-02
1.057125e-09,1.259375e-02
1.061125e-09,1.228125e-02
1.065125e-09,1.228125e-02
1.069125e-09,1.273438e-02
1.073125e-09,1.235938e-02
1.077125e-09,1.289063e-02
1.081125e-09,1.301563e-02
1.085125e-09,1.307813e-02
1.089125e-09,1.187500e-02
1.093125e-09,1.250000e-02
1.097125e-09,1.153125e-02
1.101125e-09,1.253125e-02
1.105125e-09,1.210938e-02
1.109125e-09,1.168750e-02
1.113125e-09,1.082813e-02
1.117125e-09,1.095313e-02
1.121125e-09,1.028125e-02
1.125125e-09,1.000000e-02
1.129125e-09,1.009375e-02
1.133125e-09,9.921875e-03
1.137125e-09,9.421875e-03
1.141125e-09,8.718750e-03
1.145125e-09,8.343750e-03
1.149125e-09,8.453125e-03
1.153125e-09,7.765625e-03
1.157125e-09,8.031250e-03
1.161125e-09,7.937500e-03
1.165125e-09,7.812500e-03
1.169125e-09,6.437500e-03
1.173125e-09,6.984375e-03
1.177125e-09,5.953125e-03
1.181125e-09,6.921875e-03
1.185125e-09,6.531250e-03
1.189125e-09,6.171875e-03
1.193125e-09,5.437500e-03
1.197125e-09,5.703125e-03
1.201125e-09,5.218750e-03
1.205125e-09,5.156250e-03
1.209125e-09,5.515625e-03
1.213125e-09,5.671875e-03
1.217125e-09,5.484375e-03
1.221125e-09,5.125000e-03
1.225125e-09,5.140625e-03
1.229125e-09,5.625000e-03
1.233125e-09,5.328125e-03
1.237125e-09,6.031250e-03
1.241125e-09,6.359375e-03
1.245125e-09,6.671875e-03
1.249125e-09,5.703125e-03
1.253125e-09,6.656250e-03
1.257125e-09,6.031250e-03
1.261125e-09,7.406250e-03
1.265125e-09,7.406250e-03
1.269125e-09,7.390625e-03
1.273125e-09,6.984375e-03
1.277125e-09,7.562500e-03
1.281125e-09,7.359375e-03
1.285125e-09,7.531250e-03
1.289125e-09,8.109375e-03
1.293125e-09,8.453125e-03
1.297125e-09,8.406250e-03
1.301125e-09,8.125000e-03
1.305125e-09,8.234375e-03
1.309125e-09,8.734375e-03
1.313125e-09,8.421875e-03
1.317125e-09,9.078125e-03
1.321125e-09,9.312500e-03
1.325125e-09,9.531250e-03
1.329125e-09,8.359375e-03
1.333125e-09,9.140625e-03
1.337125e-09,8.296875e-03
1.341125e-09,9.437500e-03
1.345125e-09,9.156250e-03
1.349125e-09,8.859375e-03
1.353125e-09,8.140625e-03
1.357125e-09,8.406250e-03
1.361125e-09,7.875000e-03
1.365125e-09,7.718750e-03
1.369125e-09,7.953125e-03
1.373125e-09,7.968750e-03
1.377125e-09,7.593750e-03
1.381125e-09,7.000000e-03
1.385125e-09,6.812500e-03
1.389125e-09,7.031250e-03
1.393125e-09,6.437500e-03
1.397125e-09,6.859375e-03
1.401125e-09,6.875000e-03
1.405125e-09,6.906250e-03
1.409125e-09,5.562500e-03
1.413125e-09,6.234375e-03
1.417125e-09,5.312500e-03
1.421125e-09,6.406250e-03
1.425125e-09,6.109375e-03
1.429125e-09,5.843750e-03
1.433125e-09,5.187500e-03
1.437125e-09,5.578125e-03
1.441125e-09,5.171875e-03
1.445125e-09,5.203125e-03
1.449125e-09,5.656250e-03
1.453125e-09,5.921875e-03
1.457125e-09,5.828125e-03
1.461125e-09,5.546875e-03
1.465125e-09,5.703125e-03
1.469125e-09,6.281250e-03
1.473125e-09,6.062500e-03
1.477125e-09,6.875000e-03
1.481125e-09,7.328125e-03
1.485125e-09,7.781250e-03
1.489125e-09,6.843750e-03
1.493125e-09,7.937500e-03
1.497125e-09,7.421875e-03
1.501125e-09,8.937500e-03
1.505125e-09,9.046875e-03
1.509125e-09,9.156250e-03
1.513125e-09,8.875000e-03
1.517125e-09,9.593750e-03
1.521125e-09,9.500000e-03
1.525125e-09,9.796875e-03
1.529125e-09,1.050000e-02
1.533125e-09,1.098438e-02
1.537125e-09,1.104688e-02
1.541125e-09,1.089063e-02
1.545125e-09,1.110938e-02
1.549125e-09,1.171875e-02
1.553125e-09,1.150000e-02
1.557125e-09,1.225000e-02
1.561125e-09,1.257813e-02
1.565125e-09,1.287500e-02
1.569125e-09,1.171875e-02
1.573125e-09,1.256250e-02
1.577125e-09,1.175000e-02
1.581125e-09,1.292188e-02
1.585125e-09,1.264063e-02
1.589125e-09,1.232813e-02
1.593125e-09,1.157813e-02
1.597125e-09,1.179688e-02
1.601125e-09,1.118750e-02
1.605125e-09,1.095313e-02
1.609125e-09,1.107813e-02
1.613125e-09,1.096875e-02
1.617125e-09,1.045313e-02
1.621125e-09,9.687500e-03
1.625125e-09,9.312500e-03
1.629125e-09,9.312500e-03
1.633125e-09,8.500000e-03
1.637125e-09,8.671875e-03
1.641125e-09,8.421875e-03
1.645125e-09,8.156250e-03
1.649125e-09,6.484375e-03
1.653125e-09,6.828125e-03
1.657125e-09,5.546875e-03
1.661125e-09,6.296875e-03
1.665125e-09,5.625000e-03
1.669125e-09,4.968750e-03
1.673125e-09,3.921875e-03
1.677125e-09,3.906250e-03
1.681125e-09,3.078125e-03
1.685125e-09,2.687500e-03
1.689125e-09,2.718750e-03
1.693125e-09,2.578125e-03
1.697125e-09,2.046875e-03
1.701125e-09,1.343750e-03
1.705125e-09,1.078125e-03
1.709125e-09,1.250000e-03
1.713125e-09,6.406250e-04
1.717125e-09,1.062500e-03
1.721125e-09,1.125000e-03
1.725125e-09,1.203125e-03
1.729125e-09,-7.812500e-05
1.733125e-09,6.875000e-04
1.737125e-09,-1.406250e-04
1.741125e-09,1.093750e-03
1.745125e-09,9.375000e-04
1.749125e-09,8.125000e-04
1.753125e-09,3.125000e-04
1.757125e-09,8.593750e-04
