Measurements-streak-laser-independent/Photodiode-on-Tek-12bit-4GHz/Tek000_ch1_20190613132950443.csv

Model,MSO64
Waveform Type,ANALOG
Horizontal Units,s
Sample Interval,4.000000e-12
Record Length,1000
Zero Index,310.515625
Vertical Units,V

TIME,CH1
-1.242062e-09,4.875000e-03
-1.238062e-09,3.531250e-03
-1.234062e-09,4.187500e-03
-1.230062e-09,3.250000e-03
-1.226062e-09,4.343750e-03
-1.222062e-09,4.015625e-03
-1.218063e-09,3.703125e-03
-1.214063e-09,3.000000e-03
-1.210063e-09,3.312500e-03
-1.206063e-09,2.843750e-03
-1.202063e-09,2.781250e-03
-1.198063e-09,3.125000e-03
-1.194062e-09,3.296875e-03
-1.190062e-09,3.062500e-03
-1.186062e-09,2.640625e-03
-1.182062e-09,2.640625e-03
-1.178062e-09,3.062500e-03
-1.174062e-09,2.687500e-03
-1.170062e-09,3.343750e-03
-1.166062e-09,3.593750e-03
-1.162062e-09,3.875000e-03
-1.158063e-09,2.750000e-03
-1.154063e-09,3.656250e-03
-1.150063e-09,2.953125e-03
-1.146063e-09,4.281250e-03
-1.142063e-09,4.218750e-03
-1.138063e-09,4.156250e-03
-1.134062e-09,3.703125e-03
-1.130062e-09,4.281250e-03
-1.126062e-09,4.046875e-03
-1.122062e-09,4.218750e-03
-1.118062e-09,4.812500e-03
-1.114062e-09,5.218750e-03
-1.110062e-09,5.203125e-03
-1.106062e-09,5.000000e-03
-1.102062e-09,5.203125e-03
-1.098063e-09,5.828125e-03
-1.094063e-09,5.625000e-03
-1.090063e-09,6.437500e-03
-1.086063e-09,6.859375e-03
-1.082063e-09,7.265625e-03
-1.078063e-09,6.265625e-03
-1.074062e-09,7.265625e-03
-1.070062e-09,6.656250e-03
-1.066062e-09,8.062500e-03
-1.062062e-09,8.046875e-03
-1.058062e-09,8.031250e-03
-1.054062e-09,7.593750e-03
-1.050062e-09,8.171875e-03
-1.046062e-09,7.921875e-03
-1.042062e-09,8.078125e-03
-1.038063e-09,8.625000e-03
-1.034063e-09,8.968750e-03
-1.030063e-09,8.890625e-03
-1.026063e-09,8.609375e-03
-1.022063e-09,8.703125e-03
-1.018063e-09,9.203125e-03
-1.014062e-09,8.890625e-03
-1.010062e-09,9.578125e-03
-1.006062e-09,9.859375e-03
-1.002062e-09,1.012500e-02
-9.980625e-10,8.953125e-03
-9.940625e-10,9.812500e-03
-9.900625e-10,9.031250e-03
-9.860625e-10,1.026563e-02
-9.820625e-10,1.007813e-02
-9.780625e-10,9.890625e-03
-9.740625e-10,9.281250e-03
-9.700625e-10,9.671875e-03
-9.660625e-10,9.250000e-03
-9.620625e-10,9.234375e-03
-9.580625e-10,9.625000e-03
-9.540625e-10,9.796875e-03
-9.500625e-10,9.562500e-03
-9.460625e-10,9.109375e-03
-9.420625e-10,9.062500e-03
-9.380625e-10,9.421875e-03
-9.340625e-10,8.968750e-03
-9.300625e-10,9.515625e-03
-9.260625e-10,9.656250e-03
-9.220625e-10,9.781250e-03
-9.180625e-10,8.515625e-03
-9.140625e-10,9.250000e-03
-9.100625e-10,8.375000e-03
-9.060625e-10,9.468750e-03
-9.020625e-10,9.187500e-03
-8.980625e-10,8.906250e-03
-8.940625e-10,8.234375e-03
-8.900625e-10,8.546875e-03
-8.860625e-10,8.062500e-03
-8.820625e-10,7.984375e-03
-8.780625e-10,8.296875e-03
-8.740625e-10,8.406250e-03
-8.700625e-10,8.125000e-03
-8.660625e-10,7.625000e-03
-8.620625e-10,7.531250e-03
-8.580625e-10,7.828125e-03
-8.540625e-10,7.328125e-03
-8.500625e-10,7.828125e-03
-8.460625e-10,7.937500e-03
-8.420625e-10,8.031250e-03
-8.380625e-10,6.750000e-03
-8.340625e-10,7.468750e-03
-8.300625e-10,6.546875e-03
-8.260625e-10,7.531250e-03
-8.220625e-10,7.265625e-03
-8.180625e-10,6.953125e-03
-8.140625e-10,6.281250e-03
-8.100625e-10,6.578125e-03
-8.060625e-10,6.062500e-03
-8.020625e-10,6.000000e-03
-7.980625e-10,6.296875e-03
-7.940625e-10,6.390625e-03
-7.900625e-10,6.140625e-03
-7.860625e-10,5.625000e-03
-7.820625e-10,5.515625e-03
-7.780625e-10,5.828125e-03
-7.740625e-10,5.328125e-03
-7.700625e-10,5.843750e-03
-7.660625e-10,5.968750e-03
-7.620625e-10,6.093750e-03
-7.580625e-10,4.859375e-03
-7.540625e-10,5.609375e-03
-7.500625e-10,4.750000e-03
-7.460625e-10,5.718750e-03
-7.420625e-10,5.531250e-03
-7.380625e-10,5.296875e-03
-7.340625e-10,4.718750e-03
-7.300625e-10,5.046875e-03
-7.260625e-10,4.578125e-03
-7.220625e-10,4.640625e-03
-7.180625e-10,5.000000e-03
-7.140625e-10,5.156250e-03
-7.100625e-10,5.093750e-03
-7.060625e-10,4.656250e-03
-7.020625e-10,4.640625e-03
-6.980625e-10,5.031250e-03
-6.940625e-10,4.671875e-03
-6.900625e-10,5.265625e-03
-6.860625e-10,5.515625e-03
-6.820625e-10,5.734375e-03
-6.780625e-10,4.593750e-03
-6.740625e-10,5.468750e-03
-6.700625e-10,4.765625e-03
-6.660625e-10,5.796875e-03
-6.620625e-10,5.734375e-03
-6.580625e-10,5.625000e-03
-6.540625e-10,5.171875e-03
-6.500625e-10,5.562500e-03
-6.460625e-10,5.140625e-03
-6.420625e-10,5.312500e-03
-6.380625e-10,5.750000e-03
-6.340625e-10,5.937500e-03
-6.300625e-10,6.000000e-03
-6.260625e-10,5.609375e-03
-6.220625e-10,5.625000e-03
-6.180625e-10,6.031250e-03
-6.140625e-10,5.734375e-03
-6.100625e-10,6.343750e-03
-6.060625e-10,6.593750e-03
-6.020625e-10,6.781250e-03
-5.980625e-10,5.593750e-03
-5.940625e-10,6.437500e-03
-5.900625e-10,5.765625e-03
-5.860625e-10,6.718750e-03
-5.820625e-10,6.656250e-03
-5.780625e-10,6.484375e-03
-5.740625e-10,5.937500e-03
-5.700625e-10,6.218750e-03
-5.660625e-10,5.703125e-03
-5.620625e-10,5.781250e-03
-5.580625e-10,6.125000e-03
-5.540625e-10,6.156250e-03
-5.500625e-10,6.109375e-03
-5.460625e-10,5.593750e-03
-5.420625e-10,5.484375e-03
-5.380625e-10,5.765625e-03
-5.340625e-10,5.343750e-03
-5.300625e-10,5.828125e-03
-5.260625e-10,5.890625e-03
-5.220625e-10,5.921875e-03
-5.180625e-10,4.562500e-03
-5.140625e-10,5.218750e-03
-5.100625e-10,4.453125e-03
-5.060625e-10,5.265625e-03
-5.020625e-10,5.109375e-03
-4.980625e-10,4.750000e-03
-4.940625e-10,4.046875e-03
-4.900625e-10,4.203125e-03
-4.860625e-10,3.593750e-03
-4.820625e-10,3.500000e-03
-4.780625e-10,3.765625e-03
-4.740625e-10,3.671875e-03
-4.700625e-10,3.453125e-03
-4.660625e-10,2.859375e-03
-4.620625e-10,2.718750e-03
-4.580625e-10,2.968750e-03
-4.540625e-10,2.421875e-03
-4.500625e-10,2.890625e-03
-4.460625e-10,2.890625e-03
-4.420625e-10,2.890625e-03
-4.380625e-10,1.531250e-03
-4.340625e-10,2.109375e-03
-4.300625e-10,1.375000e-03
-4.260625e-10,2.218750e-03
-4.220625e-10,2.109375e-03
-4.180625e-10,1.750000e-03
-4.140625e-10,1.109375e-03
-4.100625e-10,1.359375e-03
-4.060625e-10,9.062500e-04
-4.020625e-10,8.125000e-04
-3.980625e-10,1.203125e-03
-3.940625e-10,1.250000e-03
-3.900625e-10,1.093750e-03
-3.860625e-10,6.718750e-04
-3.820625e-10,7.500000e-04
-3.780625e-10,1.203125e-03
-3.740625e-10,7.968750e-04
-3.700625e-10,1.484375e-03
-3.660625e-10,1.734375e-03
-3.620625e-10,1.953125e-03
-3.580625e-10,8.750000e-04
-3.540625e-10,1.640625e-03
-3.500625e-10,1.156250e-03
-3.460625e-10,2.296875e-03
-3.420625e-10,2.453125e-03
-3.380625e-10,2.359375e-03
-3.340625e-10,2.046875e-03
-3.300625e-10,2.609375e-03
-3.260625e-10,2.515625e-03
-3.220625e-10,2.671875e-03
-3.180625e-10,3.359375e-03
-3.140625e-10,3.718750e-03
-3.100625e-10,3.796875e-03
-3.060625e-10,3.734375e-03
-3.020625e-10,4.109375e-03
-2.980625e-10,4.859375e-03
-2.940625e-10,4.718750e-03
-2.900625e-10,5.625000e-03
-2.860625e-10,6.187500e-03
-2.820625e-10,6.640625e-03
-2.780625e-10,5.828125e-03
-2.740625e-10,6.765625e-03
-2.700625e-10,6.421875e-03
-2.660625e-10,7.750000e-03
-2.620625e-10,8.000000e-03
-2.580625e-10,8.015625e-03
-2.540625e-10,7.828125e-03
-2.500625e-10,8.437500e-03
-2.460625e-10,8.359375e-03
-2.420625e-10,8.484375e-03
-2.380625e-10,9.078125e-03
-2.340625e-10,9.343750e-03
-2.300625e-10,9.265625e-03
-2.260625e-10,9.093750e-03
-2.220625e-10,9.234375e-03
-2.180625e-10,9.718750e-03
-2.140625e-10,9.328125e-03
-2.100625e-10,9.890625e-03
-2.060625e-10,1.009375e-02
-2.020625e-10,1.015625e-02
-1.980625e-10,8.968750e-03
-1.940625e-10,9.453125e-03
-1.900625e-10,8.578125e-03
-1.860625e-10,9.437500e-03
-1.820625e-10,9.078125e-03
-1.780625e-10,8.593750e-03
-1.740625e-10,7.859375e-03
-1.700625e-10,7.906250e-03
-1.660625e-10,7.203125e-03
-1.620625e-10,6.796875e-03
-1.580625e-10,6.765625e-03
-1.540625e-10,6.484375e-03
-1.500625e-10,5.828125e-03
-1.460625e-10,5.171875e-03
-1.420625e-10,4.765625e-03
-1.380625e-10,4.718750e-03
-1.340625e-10,3.921875e-03
-1.300625e-10,4.109375e-03
-1.260625e-10,3.968750e-03
-1.220625e-10,3.812500e-03
-1.180625e-10,2.500000e-03
-1.140625e-10,2.875000e-03
-1.100625e-10,1.921875e-03
-1.060625e-10,2.921875e-03
-1.020625e-10,2.671875e-03
-9.806250e-11,2.484375e-03
-9.406250e-11,2.171875e-03
-9.006250e-11,2.750000e-03
-8.606250e-11,2.703125e-03
-8.206250e-11,3.093750e-03
-7.806250e-11,3.968750e-03
-7.406250e-11,4.781250e-03
-7.006250e-11,5.328125e-03
-6.606250e-11,6.031250e-03
-6.206250e-11,7.125000e-03
-5.806250e-11,8.640625e-03
-5.406250e-11,9.671875e-03
-5.006250e-11,1.182813e-02
-4.606250e-11,1.378125e-02
-4.206250e-11,1.595313e-02
-3.806250e-11,1.709375e-02
-3.406250e-11,2.004688e-02
-3.006250e-11,2.176563e-02
-2.606250e-11,2.564063e-02
-2.206250e-11,2.829688e-02
-1.806250e-11,3.126563e-02
-1.406250e-11,3.417188e-02
-1.006250e-11,3.809375e-02
-6.062500e-12,4.146875e-02
-2.062500e-12,4.539063e-02
1.937500e-12,4.989063e-02
5.937500e-12,5.445313e-02
9.937500e-12,5.868750e-02
1.393750e-11,6.318750e-02
1.793750e-11,6.806250e-02
2.193750e-11,7.335938e-02
2.593750e-11,7.825000e-02
2.993750e-11,8.423438e-02
3.393750e-11,8.996875e-02
3.793750e-11,9.596875e-02
4.193750e-11,1.008281e-01
4.593750e-11,1.074219e-01
4.993750e-11,1.126875e-01
5.393750e-11,1.200313e-01
5.793750e-11,1.259688e-01
6.193750e-11,1.322188e-01
6.593750e-11,1.381563e-01
6.993750e-11,1.449375e-01
7.393750e-11,1.510781e-01
7.793750e-11,1.575469e-01
8.193750e-11,1.644063e-01
8.593750e-11,1.711875e-01
8.993750e-11,1.773125e-01
9.393750e-11,1.834844e-01
9.793750e-11,1.898438e-01
1.019375e-10,1.963438e-01
1.059375e-10,2.022500e-01
1.099375e-10,2.089375e-01
1.139375e-10,2.150625e-01
1.179375e-10,2.212813e-01
1.219375e-10,2.260156e-01
1.259375e-10,2.322969e-01
1.299375e-10,2.369219e-01
1.339375e-10,2.433281e-01
1.379375e-10,2.480469e-01
1.419375e-10,2.528750e-01
1.459375e-10,2.570469e-01
1.499375e-10,2.617813e-01
1.539375e-10,2.657031e-01
1.579375e-10,2.696875e-01
1.619375e-10,2.737969e-01
1.659375e-10,2.776875e-01
1.699375e-10,2.805469e-01
1.739375e-10,2.832813e-01
1.779375e-10,2.860313e-01
1.819375e-10,2.887500e-01
1.859375e-10,2.907188e-01
1.899375e-10,2.932344e-01
1.939375e-10,2.949844e-01
1.979375e-10,2.967969e-01
2.019375e-10,2.969063e-01
2.059375e-10,2.985313e-01
2.099375e-10,2.984063e-01
2.139375e-10,2.998906e-01
2.179375e-10,2.996406e-01
2.219375e-10,2.994531e-01
2.259375e-10,2.985781e-01
2.299375e-10,2.982344e-01
2.339375e-10,2.971250e-01
2.379375e-10,2.960313e-01
2.419375e-10,2.950469e-01
2.459375e-10,2.939219e-01
2.499375e-10,2.917813e-01
2.539375e-10,2.895313e-01
2.579375e-10,2.874219e-01
2.619375e-10,2.853594e-01
2.659375e-10,2.825938e-01
2.699375e-10,2.804688e-01
2.739375e-10,2.776719e-01
2.779375e-10,2.750781e-01
2.819375e-10,2.708438e-01
2.859375e-10,2.683438e-01
2.899375e-10,2.642188e-01
2.939375e-10,2.617656e-01
2.979375e-10,2.577656e-01
3.019375e-10,2.539531e-01
3.059375e-10,2.495781e-01
3.099375e-10,2.459688e-01
3.139375e-10,2.417656e-01
3.179375e-10,2.377188e-01
3.219375e-10,2.338750e-01
3.259375e-10,2.300781e-01
3.299375e-10,2.254844e-01
3.339375e-10,2.208750e-01
3.379375e-10,2.165938e-01
3.419375e-10,2.125625e-01
3.459375e-10,2.078906e-01
3.499375e-10,2.040313e-01
3.539375e-10,1.997188e-01
3.579375e-10,1.957188e-01
3.619375e-10,1.901875e-01
3.659375e-10,1.866250e-01
3.699375e-10,1.815938e-01
3.739375e-10,1.782656e-01
3.779375e-10,1.736094e-01
3.819375e-10,1.692344e-01
3.859375e-10,1.644063e-01
3.899375e-10,1.605313e-01
3.939375e-10,1.561719e-01
3.979375e-10,1.520625e-01
4.019375e-10,1.482344e-01
4.059375e-10,1.445625e-01
4.099375e-10,1.402969e-01
4.139375e-10,1.360625e-01
4.179375e-10,1.322188e-01
4.219375e-10,1.287813e-01
4.259375e-10,1.247188e-01
4.299375e-10,1.215469e-01
4.339375e-10,1.180781e-01
4.379375e-10,1.149219e-01
4.419375e-10,1.103438e-01
4.459375e-10,1.078438e-01
4.499375e-10,1.039219e-01
4.539375e-10,1.017500e-01
4.579375e-10,9.837500e-02
4.619375e-10,9.523438e-02
4.659375e-10,9.175000e-02
4.699375e-10,8.926563e-02
4.739375e-10,8.629688e-02
4.779375e-10,8.367188e-02
4.819375e-10,8.132813e-02
4.859375e-10,7.914063e-02
4.899375e-10,7.651563e-02
4.939375e-10,7.389063e-02
4.979375e-10,7.165625e-02
5.019375e-10,6.985938e-02
5.059375e-10,6.743750e-02
5.099375e-10,6.587500e-02
5.139375e-10,6.412500e-02
5.179375e-10,6.257813e-02
5.219375e-10,5.967188e-02
5.259375e-10,5.881250e-02
5.299375e-10,5.654688e-02
5.339375e-10,5.601563e-02
5.379375e-10,5.431250e-02
5.419375e-10,5.270313e-02
5.459375e-10,5.082813e-02
5.499375e-10,4.987500e-02
5.539375e-10,4.835938e-02
5.579375e-10,4.718750e-02
5.619375e-10,4.625000e-02
5.659375e-10,4.542188e-02
5.699375e-10,4.420313e-02
5.739375e-10,4.284375e-02
5.779375e-10,4.189063e-02
5.819375e-10,4.128125e-02
5.859375e-10,3.998438e-02
5.899375e-10,3.950000e-02
5.939375e-10,3.879688e-02
5.979375e-10,3.815625e-02
6.019375e-10,3.618750e-02
6.059375e-10,3.612500e-02
6.099375e-10,3.468750e-02
6.139375e-10,3.490625e-02
6.179375e-10,3.392188e-02
6.219375e-10,3.289063e-02
6.259375e-10,3.154688e-02
6.299375e-10,3.117188e-02
6.339375e-10,3.001563e-02
6.379375e-10,2.920313e-02
6.419375e-10,2.867188e-02
6.459375e-10,2.815625e-02
6.499375e-10,2.721875e-02
6.539375e-10,2.606250e-02
6.579375e-10,2.535938e-02
6.619375e-10,2.487500e-02
6.659375e-10,2.371875e-02
6.699375e-10,2.335938e-02
6.739375e-10,2.281250e-02
6.779375e-10,2.215625e-02
6.819375e-10,2.029688e-02
6.859375e-10,2.023438e-02
6.899375e-10,1.887500e-02
6.939375e-10,1.917188e-02
6.979375e-10,1.828125e-02
7.019375e-10,1.729688e-02
7.059375e-10,1.600000e-02
7.099375e-10,1.575000e-02
7.139375e-10,1.465625e-02
7.179375e-10,1.392188e-02
7.219375e-10,1.356250e-02
7.259375e-10,1.323438e-02
7.299375e-10,1.253125e-02
7.339375e-10,1.154688e-02
7.379375e-10,1.112500e-02
7.419375e-10,1.092188e-02
7.459375e-10,1.009375e-02
7.499375e-10,1.012500e-02
7.539375e-10,1.001563e-02
7.579375e-10,9.687500e-03
7.619375e-10,8.343750e-03
7.659375e-10,8.703125e-03
7.699375e-10,7.859375e-03
7.739375e-10,8.750000e-03
7.779375e-10,8.421875e-03
7.819375e-10,8.093750e-03
7.859375e-10,7.375000e-03
7.899375e-10,7.765625e-03
7.939375e-10,7.296875e-03
7.979375e-10,7.218750e-03
8.019375e-10,7.593750e-03
8.059375e-10,7.875000e-03
8.099375e-10,7.875000e-03
8.139375e-10,7.562500e-03
8.179375e-10,7.796875e-03
8.219375e-10,8.296875e-03
8.259375e-10,8.140625e-03
8.299375e-10,8.859375e-03
8.339375e-10,9.359375e-03
8.379375e-10,9.625000e-03
8.419375e-10,8.875000e-03
8.459375e-10,9.750000e-03
8.499375e-10,9.359375e-03
8.539375e-10,1.079688e-02
8.579375e-10,1.092188e-02
8.619375e-10,1.103125e-02
8.659375e-10,1.067188e-02
8.699375e-10,1.134375e-02
8.739375e-10,1.117188e-02
8.779375e-10,1.135938e-02
8.819375e-10,1.196875e-02
8.859375e-10,1.228125e-02
8.899375e-10,1.242188e-02
8.939375e-10,1.215625e-02
8.979375e-10,1.231250e-02
9.019375e-10,1.284375e-02
9.059375e-10,1.264063e-02
9.099375e-10,1.326563e-02
9.139375e-10,1.354688e-02
9.179375e-10,1.360938e-02
9.219375e-10,1.265625e-02
9.259375e-10,1.325000e-02
9.299375e-10,1.250000e-02
9.339375e-10,1.365625e-02
9.379375e-10,1.343750e-02
9.419375e-10,1.315625e-02
9.459375e-10,1.243750e-02
9.499375e-10,1.265625e-02
9.539375e-10,1.209375e-02
9.579375e-10,1.190625e-02
9.619375e-10,1.212500e-02
9.659375e-10,1.192188e-02
9.699375e-10,1.164063e-02
9.739375e-10,1.098438e-02
9.779375e-10,1.067188e-02
9.819375e-10,1.085938e-02
9.859375e-10,1.028125e-02
9.899375e-10,1.053125e-02
9.939375e-10,1.043750e-02
9.979375e-10,1.020313e-02
1.001937e-09,8.984375e-03
1.005937e-09,9.343750e-03
1.009937e-09,8.296875e-03
1.013937e-09,9.234375e-03
1.017937e-09,8.843750e-03
1.021937e-09,8.390625e-03
1.025937e-09,7.578125e-03
1.029937e-09,7.703125e-03
1.033938e-09,7.125000e-03
1.037938e-09,6.937500e-03
1.041938e-09,7.187500e-03
1.045938e-09,7.000000e-03
1.049938e-09,6.765625e-03
1.053938e-09,6.234375e-03
1.057937e-09,6.015625e-03
1.061937e-09,6.375000e-03
1.065937e-09,5.968750e-03
1.069937e-09,6.406250e-03
1.073937e-09,6.531250e-03
1.077937e-09,6.562500e-03
1.081937e-09,5.609375e-03
1.085937e-09,6.296875e-03
1.089937e-09,5.515625e-03
1.093938e-09,6.703125e-03
1.097938e-09,6.593750e-03
1.101938e-09,6.437500e-03
1.105938e-09,5.921875e-03
1.109938e-09,6.375000e-03
1.113938e-09,6.093750e-03
1.117937e-09,6.203125e-03
1.121937e-09,6.734375e-03
1.125937e-09,6.875000e-03
1.129937e-09,6.859375e-03
1.133937e-09,6.609375e-03
1.137937e-09,6.640625e-03
1.141937e-09,7.218750e-03
1.145937e-09,7.000000e-03
1.149937e-09,7.640625e-03
1.153938e-09,7.968750e-03
1.157938e-09,8.187500e-03
1.161938e-09,7.343750e-03
1.165938e-09,8.218750e-03
1.169938e-09,7.531250e-03
1.173938e-09,8.812500e-03
1.177937e-09,8.750000e-03
1.181937e-09,8.656250e-03
1.185937e-09,8.171875e-03
1.189937e-09,8.656250e-03
1.193937e-09,8.375000e-03
1.197937e-09,8.468750e-03
1.201937e-09,8.968750e-03
1.205937e-09,9.140625e-03
1.209937e-09,9.046875e-03
1.213937e-09,8.734375e-03
1.217938e-09,8.718750e-03
1.221938e-09,9.203125e-03
1.225938e-09,8.890625e-03
1.229938e-09,9.468750e-03
1.233938e-09,9.703125e-03
1.237937e-09,9.875000e-03
1.241937e-09,8.875000e-03
1.245937e-09,9.671875e-03
1.249937e-09,8.890625e-03
1.253937e-09,1.007813e-02
1.257937e-09,9.906250e-03
1.261937e-09,9.718750e-03
1.265937e-09,9.140625e-03
1.269937e-09,9.546875e-03
1.273937e-09,9.171875e-03
1.277938e-09,9.187500e-03
1.281938e-09,9.609375e-03
1.285938e-09,9.750000e-03
1.289938e-09,9.578125e-03
1.293938e-09,9.203125e-03
1.297937e-09,9.171875e-03
1.301937e-09,9.593750e-03
1.305937e-09,9.218750e-03
1.309937e-09,9.796875e-03
1.313937e-09,1.000000e-02
1.317937e-09,1.017188e-02
1.321937e-09,9.078125e-03
1.325937e-09,9.875000e-03
1.329937e-09,9.078125e-03
1.333937e-09,1.028125e-02
1.337938e-09,1.007813e-02
1.341938e-09,9.890625e-03
1.345938e-09,9.296875e-03
1.349938e-09,9.703125e-03
1.353938e-09,9.312500e-03
1.357937e-09,9.312500e-03
1.361937e-09,9.734375e-03
1.365937e-09,9.906250e-03
1.369937e-09,9.703125e-03
1.373937e-09,9.312500e-03
1.377937e-09,9.281250e-03
1.381937e-09,9.687500e-03
1.385937e-09,9.281250e-03
1.389937e-09,9.859375e-03
1.393937e-09,1.004688e-02
1.397938e-09,1.021875e-02
1.401938e-09,9.062500e-03
1.405938e-09,9.828125e-03
1.409938e-09,9.015625e-03
1.413938e-09,1.018750e-02
1.417937e-09,9.953125e-03
1.421937e-09,9.734375e-03
1.425937e-09,9.109375e-03
1.429937e-09,9.484375e-03
1.433937e-09,9.062500e-03
1.437937e-09,9.031250e-03
1.441937e-09,9.406250e-03
1.445937e-09,9.578125e-03
1.449937e-09,9.359375e-03
1.453937e-09,8.921875e-03
1.457938e-09,8.890625e-03
1.461938e-09,9.281250e-03
1.465938e-09,8.859375e-03
1.469938e-09,9.437500e-03
1.473938e-09,9.625000e-03
1.477937e-09,9.796875e-03
1.481937e-09,8.609375e-03
1.485937e-09,9.406250e-03
1.489937e-09,8.593750e-03
1.493937e-09,9.796875e-03
1.497937e-09,9.593750e-03
1.501937e-09,9.406250e-03
1.505937e-09,8.812500e-03
1.509937e-09,9.218750e-03
1.513937e-09,8.828125e-03
1.517938e-09,8.859375e-03
1.521938e-09,9.281250e-03
1.525938e-09,9.500000e-03
1.529938e-09,9.328125e-03
1.533938e-09,8.953125e-03
1.537937e-09,8.984375e-03
1.541937e-09,9.406250e-03
1.545937e-09,9.046875e-03
1.549937e-09,9.687500e-03
1.553937e-09,9.921875e-03
1.557937e-09,1.015625e-02
1.561937e-09,9.000000e-03
1.565937e-09,9.843750e-03
1.569937e-09,9.078125e-03
1.573937e-09,1.031250e-02
1.577938e-09,1.014063e-02
1.581938e-09,9.968750e-03
1.585938e-09,9.390625e-03
1.589938e-09,9.828125e-03
1.593938e-09,9.437500e-03
1.597937e-09,9.468750e-03
1.601937e-09,9.875000e-03
1.605937e-09,1.009375e-02
1.609937e-09,9.890625e-03
1.613937e-09,9.484375e-03
1.617937e-09,9.484375e-03
1.621937e-09,9.875000e-03
1.625937e-09,9.453125e-03
1.629937e-09,1.003125e-02
1.633937e-09,1.021875e-02
1.637938e-09,1.037500e-02
1.641938e-09,9.140625e-03
1.645938e-09,9.906250e-03
1.649938e-09,9.046875e-03
1.653938e-09,1.020313e-02
1.657937e-09,9.953125e-03
1.661937e-09,9.687500e-03
1.665937e-09,9.015625e-03
1.669937e-09,9.343750e-03
1.673937e-09,8.875000e-03
1.677937e-09,8.812500e-03
1.681937e-09,9.125000e-03
1.685937e-09,9.250000e-03
1.689937e-09,8.968750e-03
1.693937e-09,8.500000e-03
1.697938e-09,8.406250e-03
1.701938e-09,8.734375e-03
1.705938e-09,8.250000e-03
1.709938e-09,8.781250e-03
1.713938e-09,8.906250e-03
1.717937e-09,9.031250e-03
1.721937e-09,7.765625e-03
1.725937e-09,8.500000e-03
1.729937e-09,7.625000e-03
1.733937e-09,8.781250e-03
1.737937e-09,8.515625e-03
1.741937e-09,8.265625e-03
1.745937e-09,7.609375e-03
1.749937e-09,7.968750e-03
1.753937e-09,7.531250e-03
1.757938e-09,7.500000e-03
