Measurements-streak-laser-independent/Photodiode-on-Tek-12bit-4GHz/Tek000_ch1_20190613132952749.csv

Model,MSO64
Waveform Type,ANALOG
Horizontal Units,s
Sample Interval,4.000000e-12
Record Length,1000
Zero Index,310.484375
Vertical Units,V

TIME,CH1
-1.241937e-09,2.953125e-03
-1.237937e-09,3.125000e-03
-1.233938e-09,3.296875e-03
-1.229938e-09,2.046875e-03
-1.225938e-09,2.828125e-03
-1.221938e-09,1.984375e-03
-1.217938e-09,3.171875e-03
-1.213937e-09,2.953125e-03
-1.209937e-09,2.718750e-03
-1.205937e-09,2.093750e-03
-1.201937e-09,2.484375e-03
-1.197937e-09,2.062500e-03
-1.193937e-09,2.046875e-03
-1.189937e-09,2.437500e-03
-1.185937e-09,2.609375e-03
-1.181937e-09,2.406250e-03
-1.177937e-09,1.984375e-03
-1.173938e-09,1.968750e-03
-1.169938e-09,2.375000e-03
-1.165938e-09,1.953125e-03
-1.161938e-09,2.562500e-03
-1.157938e-09,2.765625e-03
-1.153938e-09,2.953125e-03
-1.149937e-09,1.734375e-03
-1.145937e-09,2.546875e-03
-1.141937e-09,1.734375e-03
-1.137937e-09,2.953125e-03
-1.133937e-09,2.750000e-03
-1.129937e-09,2.546875e-03
-1.125937e-09,1.937500e-03
-1.121937e-09,2.359375e-03
-1.117937e-09,1.953125e-03
-1.113938e-09,1.953125e-03
-1.109938e-09,2.375000e-03
-1.105938e-09,2.578125e-03
-1.101938e-09,2.390625e-03
-1.097938e-09,2.000000e-03
-1.093938e-09,2.000000e-03
-1.089937e-09,2.421875e-03
-1.085937e-09,2.031250e-03
-1.081937e-09,2.656250e-03
-1.077937e-09,2.890625e-03
-1.073937e-09,3.109375e-03
-1.069937e-09,1.906250e-03
-1.065937e-09,2.750000e-03
-1.061937e-09,1.968750e-03
-1.057937e-09,3.218750e-03
-1.053938e-09,3.046875e-03
-1.049938e-09,2.875000e-03
-1.045938e-09,2.312500e-03
-1.041938e-09,2.765625e-03
-1.037938e-09,2.406250e-03
-1.033938e-09,2.453125e-03
-1.029937e-09,2.906250e-03
-1.025937e-09,3.171875e-03
-1.021937e-09,3.031250e-03
-1.017937e-09,2.687500e-03
-1.013937e-09,2.750000e-03
-1.009937e-09,3.234375e-03
-1.005937e-09,2.906250e-03
-1.001937e-09,3.593750e-03
-9.979375e-10,3.875000e-03
-9.939375e-10,4.156250e-03
-9.899375e-10,3.031250e-03
-9.859375e-10,3.921875e-03
-9.819375e-10,3.203125e-03
-9.779375e-10,4.500000e-03
-9.739375e-10,4.406250e-03
-9.699375e-10,4.296875e-03
-9.659375e-10,3.781250e-03
-9.619375e-10,4.281250e-03
-9.579375e-10,3.984375e-03
-9.539375e-10,4.078125e-03
-9.499375e-10,4.578125e-03
-9.459375e-10,4.875000e-03
-9.419375e-10,4.781250e-03
-9.379375e-10,4.468750e-03
-9.339375e-10,4.562500e-03
-9.299375e-10,5.046875e-03
-9.259375e-10,4.734375e-03
-9.219375e-10,5.421875e-03
-9.179375e-10,5.703125e-03
-9.139375e-10,5.984375e-03
-9.099375e-10,4.843750e-03
-9.059375e-10,5.718750e-03
-9.019375e-10,4.968750e-03
-8.979375e-10,6.187500e-03
-8.939375e-10,6.046875e-03
-8.899375e-10,5.890625e-03
-8.859375e-10,5.328125e-03
-8.819375e-10,5.765625e-03
-8.779375e-10,5.390625e-03
-8.739375e-10,5.421875e-03
-8.699375e-10,5.843750e-03
-8.659375e-10,6.046875e-03
-8.619375e-10,5.859375e-03
-8.579375e-10,5.453125e-03
-8.539375e-10,5.453125e-03
-8.499375e-10,5.843750e-03
-8.459375e-10,5.421875e-03
-8.419375e-10,6.015625e-03
-8.379375e-10,6.187500e-03
-8.339375e-10,6.375000e-03
-8.299375e-10,5.171875e-03
-8.259375e-10,5.953125e-03
-8.219375e-10,5.109375e-03
-8.179375e-10,6.156250e-03
-8.139375e-10,5.968750e-03
-8.099375e-10,5.734375e-03
-8.059375e-10,5.156250e-03
-8.019375e-10,5.515625e-03
-7.979375e-10,5.078125e-03
-7.939375e-10,5.109375e-03
-7.899375e-10,5.484375e-03
-7.859375e-10,5.671875e-03
-7.819375e-10,5.515625e-03
-7.779375e-10,5.109375e-03
-7.739375e-10,5.093750e-03
-7.699375e-10,5.500000e-03
-7.659375e-10,5.109375e-03
-7.619375e-10,5.734375e-03
-7.579375e-10,5.968750e-03
-7.539375e-10,6.203125e-03
-7.499375e-10,5.109375e-03
-7.459375e-10,5.968750e-03
-7.419375e-10,5.234375e-03
-7.379375e-10,6.281250e-03
-7.339375e-10,6.234375e-03
-7.299375e-10,6.125000e-03
-7.259375e-10,5.687500e-03
-7.219375e-10,6.140625e-03
-7.179375e-10,5.781250e-03
-7.139375e-10,5.968750e-03
-7.099375e-10,6.437500e-03
-7.059375e-10,6.703125e-03
-7.019375e-10,6.750000e-03
-6.979375e-10,6.406250e-03
-6.939375e-10,6.484375e-03
-6.899375e-10,6.953125e-03
-6.859375e-10,6.671875e-03
-6.819375e-10,7.343750e-03
-6.779375e-10,7.656250e-03
-6.739375e-10,7.906250e-03
-6.699375e-10,6.828125e-03
-6.659375e-10,7.718750e-03
-6.619375e-10,7.046875e-03
-6.579375e-10,8.046875e-03
-6.539375e-10,8.000000e-03
-6.499375e-10,7.906250e-03
-6.459375e-10,7.421875e-03
-6.419375e-10,7.765625e-03
-6.379375e-10,7.281250e-03
-6.339375e-10,7.421875e-03
-6.299375e-10,7.781250e-03
-6.259375e-10,7.875000e-03
-6.219375e-10,7.890625e-03
-6.179375e-10,7.390625e-03
-6.139375e-10,7.281250e-03
-6.099375e-10,7.578125e-03
-6.059375e-10,7.171875e-03
-6.019375e-10,7.640625e-03
-5.979375e-10,7.765625e-03
-5.939375e-10,7.812500e-03
-5.899375e-10,6.484375e-03
-5.859375e-10,7.187500e-03
-5.819375e-10,6.406250e-03
-5.779375e-10,7.187500e-03
-5.739375e-10,7.000000e-03
-5.699375e-10,6.718750e-03
-5.659375e-10,6.062500e-03
-5.619375e-10,6.218750e-03
-5.579375e-10,5.578125e-03
-5.539375e-10,5.562500e-03
-5.499375e-10,5.828125e-03
-5.459375e-10,5.765625e-03
-5.419375e-10,5.687500e-03
-5.379375e-10,5.125000e-03
-5.339375e-10,4.968750e-03
-5.299375e-10,5.234375e-03
-5.259375e-10,4.812500e-03
-5.219375e-10,5.296875e-03
-5.179375e-10,5.390625e-03
-5.139375e-10,5.468750e-03
-5.099375e-10,4.171875e-03
-5.059375e-10,4.906250e-03
-5.019375e-10,4.265625e-03
-4.979375e-10,5.156250e-03
-4.939375e-10,5.140625e-03
-4.899375e-10,4.921875e-03
-4.859375e-10,4.406250e-03
-4.819375e-10,4.718750e-03
-4.779375e-10,4.296875e-03
-4.739375e-10,4.406250e-03
-4.699375e-10,4.875000e-03
-4.659375e-10,4.984375e-03
-4.619375e-10,5.015625e-03
-4.579375e-10,4.656250e-03
-4.539375e-10,4.750000e-03
-4.499375e-10,5.250000e-03
-4.459375e-10,4.937500e-03
-4.419375e-10,5.656250e-03
-4.379375e-10,5.875000e-03
-4.339375e-10,6.109375e-03
-4.299375e-10,4.968750e-03
-4.259375e-10,5.750000e-03
-4.219375e-10,5.234375e-03
-4.179375e-10,6.234375e-03
-4.139375e-10,6.343750e-03
-4.099375e-10,6.125000e-03
-4.059375e-10,5.640625e-03
-4.019375e-10,6.000000e-03
-3.979375e-10,5.656250e-03
-3.939375e-10,5.640625e-03
-3.899375e-10,6.093750e-03
-3.859375e-10,6.156250e-03
-3.819375e-10,6.000000e-03
-3.779375e-10,5.578125e-03
-3.739375e-10,5.609375e-03
-3.699375e-10,6.015625e-03
-3.659375e-10,5.500000e-03
-3.619375e-10,6.062500e-03
-3.579375e-10,6.156250e-03
-3.539375e-10,6.203125e-03
-3.499375e-10,4.921875e-03
-3.459375e-10,5.453125e-03
-3.419375e-10,4.750000e-03
-3.379375e-10,5.578125e-03
-3.339375e-10,5.484375e-03
-3.299375e-10,5.062500e-03
-3.259375e-10,4.437500e-03
-3.219375e-10,4.640625e-03
-3.179375e-10,4.218750e-03
-3.139375e-10,4.000000e-03
-3.099375e-10,4.312500e-03
-3.059375e-10,4.265625e-03
-3.019375e-10,3.953125e-03
-2.979375e-10,3.515625e-03
-2.939375e-10,3.515625e-03
-2.899375e-10,3.906250e-03
-2.859375e-10,3.359375e-03
-2.819375e-10,3.906250e-03
-2.779375e-10,4.093750e-03
-2.739375e-10,4.187500e-03
-2.699375e-10,3.046875e-03
-2.659375e-10,3.625000e-03
-2.619375e-10,3.015625e-03
-2.579375e-10,4.015625e-03
-2.539375e-10,4.015625e-03
-2.499375e-10,3.796875e-03
-2.459375e-10,3.406250e-03
-2.419375e-10,3.812500e-03
-2.379375e-10,3.593750e-03
-2.339375e-10,3.562500e-03
-2.299375e-10,4.046875e-03
-2.259375e-10,4.218750e-03
-2.219375e-10,4.078125e-03
-2.179375e-10,3.906250e-03
-2.139375e-10,4.046875e-03
-2.099375e-10,4.562500e-03
-2.059375e-10,4.234375e-03
-2.019375e-10,4.859375e-03
-1.979375e-10,5.203125e-03
-1.939375e-10,5.390625e-03
-1.899375e-10,4.390625e-03
-1.859375e-10,5.031250e-03
-1.819375e-10,4.359375e-03
-1.779375e-10,5.421875e-03
-1.739375e-10,5.328125e-03
-1.699375e-10,5.078125e-03
-1.659375e-10,4.656250e-03
-1.619375e-10,4.968750e-03
-1.579375e-10,4.593750e-03
-1.539375e-10,4.468750e-03
-1.499375e-10,4.734375e-03
-1.459375e-10,4.750000e-03
-1.419375e-10,4.406250e-03
-1.379375e-10,4.093750e-03
-1.339375e-10,4.000000e-03
-1.299375e-10,4.250000e-03
-1.259375e-10,3.765625e-03
-1.219375e-10,4.250000e-03
-1.179375e-10,4.421875e-03
-1.139375e-10,4.546875e-03
-1.099375e-10,3.531250e-03
-1.059375e-10,4.156250e-03
-1.019375e-10,3.468750e-03
-9.793750e-11,4.718750e-03
-9.393750e-11,4.703125e-03
-8.993750e-11,4.765625e-03
-8.593750e-11,4.703125e-03
-8.193750e-11,5.500000e-03
-7.793750e-11,5.671875e-03
-7.393750e-11,6.265625e-03
-6.993750e-11,7.328125e-03
-6.593750e-11,8.328125e-03
-6.193750e-11,9.062500e-03
-5.793750e-11,1.000000e-02
-5.393750e-11,1.126563e-02
-4.993750e-11,1.296875e-02
-4.593750e-11,1.420313e-02
-4.193750e-11,1.656250e-02
-3.793750e-11,1.873438e-02
-3.393750e-11,2.112500e-02
-2.993750e-11,2.254688e-02
-2.593750e-11,2.573438e-02
-2.193750e-11,2.773438e-02
-1.793750e-11,3.190625e-02
-1.393750e-11,3.489063e-02
-9.937500e-12,3.820313e-02
-5.937500e-12,4.151563e-02
-1.937500e-12,4.582813e-02
2.062500e-12,4.965625e-02
6.062500e-12,5.404688e-02
1.006250e-11,5.903125e-02
1.406250e-11,6.414063e-02
1.806250e-11,6.893750e-02
2.206250e-11,7.406250e-02
2.606250e-11,7.959375e-02
3.006250e-11,8.556250e-02
3.406250e-11,9.117188e-02
3.806250e-11,9.792188e-02
4.206250e-11,1.044375e-01
4.606250e-11,1.112969e-01
5.006250e-11,1.170625e-01
5.406250e-11,1.245469e-01
5.806250e-11,1.307500e-01
6.206250e-11,1.390625e-01
6.606250e-11,1.459844e-01
7.006250e-11,1.532813e-01
7.406250e-11,1.602969e-01
7.806250e-11,1.681406e-01
8.206250e-11,1.753906e-01
8.606250e-11,1.829688e-01
9.006250e-11,1.909531e-01
9.406250e-11,1.988906e-01
9.806250e-11,2.061250e-01
1.020625e-10,2.134844e-01
1.060625e-10,2.209688e-01
1.100625e-10,2.285781e-01
1.140625e-10,2.356250e-01
1.180625e-10,2.434375e-01
1.220625e-10,2.506406e-01
1.260625e-10,2.579688e-01
1.300625e-10,2.637969e-01
1.340625e-10,2.710781e-01
1.380625e-10,2.767031e-01
1.420625e-10,2.840625e-01
1.460625e-10,2.896719e-01
1.500625e-10,2.954219e-01
1.540625e-10,3.004531e-01
1.580625e-10,3.059844e-01
1.620625e-10,3.106719e-01
1.660625e-10,3.153438e-01
1.700625e-10,3.200938e-01
1.740625e-10,3.246094e-01
1.780625e-10,3.279844e-01
1.820625e-10,3.312188e-01
1.860625e-10,3.344063e-01
1.900625e-10,3.374688e-01
1.940625e-10,3.397656e-01
1.980625e-10,3.425313e-01
2.020625e-10,3.444688e-01
2.060625e-10,3.464219e-01
2.100625e-10,3.466406e-01
2.140625e-10,3.482969e-01
2.180625e-10,3.481406e-01
2.220625e-10,3.495313e-01
2.260625e-10,3.491094e-01
2.300625e-10,3.487813e-01
2.340625e-10,3.476719e-01
2.380625e-10,3.470313e-01
2.420625e-10,3.456250e-01
2.460625e-10,3.441875e-01
2.500625e-10,3.427813e-01
2.540625e-10,3.412500e-01
2.580625e-10,3.386094e-01
2.620625e-10,3.358594e-01
2.660625e-10,3.332188e-01
2.700625e-10,3.305938e-01
2.740625e-10,3.272656e-01
2.780625e-10,3.245000e-01
2.820625e-10,3.210625e-01
2.860625e-10,3.178438e-01
2.900625e-10,3.129688e-01
2.940625e-10,3.097969e-01
2.980625e-10,3.050156e-01
3.020625e-10,3.018281e-01
3.060625e-10,2.970938e-01
3.100625e-10,2.926094e-01
3.140625e-10,2.875313e-01
3.180625e-10,2.831875e-01
3.220625e-10,2.782969e-01
3.260625e-10,2.735313e-01
3.300625e-10,2.689375e-01
3.340625e-10,2.644531e-01
3.380625e-10,2.591094e-01
3.420625e-10,2.537969e-01
3.460625e-10,2.487969e-01
3.500625e-10,2.440313e-01
3.540625e-10,2.386563e-01
3.580625e-10,2.340625e-01
3.620625e-10,2.290156e-01
3.660625e-10,2.243281e-01
3.700625e-10,2.180938e-01
3.740625e-10,2.138125e-01
3.780625e-10,2.080938e-01
3.820625e-10,2.040156e-01
3.860625e-10,1.986406e-01
3.900625e-10,1.935625e-01
3.940625e-10,1.880313e-01
3.980625e-10,1.834219e-01
4.020625e-10,1.783906e-01
4.060625e-10,1.735781e-01
4.100625e-10,1.690156e-01
4.140625e-10,1.646406e-01
4.180625e-10,1.596563e-01
4.220625e-10,1.547188e-01
4.260625e-10,1.501563e-01
4.300625e-10,1.460000e-01
4.340625e-10,1.412500e-01
4.380625e-10,1.373438e-01
4.420625e-10,1.331719e-01
4.460625e-10,1.293438e-01
4.500625e-10,1.240781e-01
4.540625e-10,1.209063e-01
4.580625e-10,1.163438e-01
4.620625e-10,1.134688e-01
4.660625e-10,1.094375e-01
4.700625e-10,1.056719e-01
4.740625e-10,1.015781e-01
4.780625e-10,9.846875e-02
4.820625e-10,9.495313e-02
4.860625e-10,9.176563e-02
4.900625e-10,8.884375e-02
4.940625e-10,8.615625e-02
4.980625e-10,8.303125e-02
5.020625e-10,7.993750e-02
5.060625e-10,7.726563e-02
5.100625e-10,7.504688e-02
5.140625e-10,7.225000e-02
5.180625e-10,7.029688e-02
5.220625e-10,6.820313e-02
5.260625e-10,6.635938e-02
5.300625e-10,6.320313e-02
5.340625e-10,6.210938e-02
5.380625e-10,5.968750e-02
5.420625e-10,5.893750e-02
5.460625e-10,5.710938e-02
5.500625e-10,5.539063e-02
5.540625e-10,5.345313e-02
5.580625e-10,5.245313e-02
5.620625e-10,5.093750e-02
5.660625e-10,4.978125e-02
5.700625e-10,4.885938e-02
5.740625e-10,4.810938e-02
5.780625e-10,4.696875e-02
5.820625e-10,4.573438e-02
5.860625e-10,4.490625e-02
5.900625e-10,4.443750e-02
5.940625e-10,4.329688e-02
5.980625e-10,4.295313e-02
6.020625e-10,4.242188e-02
6.060625e-10,4.195313e-02
6.100625e-10,4.020313e-02
6.140625e-10,4.031250e-02
6.180625e-10,3.909375e-02
6.220625e-10,3.945313e-02
6.260625e-10,3.865625e-02
6.300625e-10,3.778125e-02
6.340625e-10,3.660938e-02
6.380625e-10,3.635938e-02
6.420625e-10,3.534375e-02
6.460625e-10,3.462500e-02
6.500625e-10,3.412500e-02
6.540625e-10,3.368750e-02
6.580625e-10,3.281250e-02
6.620625e-10,3.165625e-02
6.660625e-10,3.096875e-02
6.700625e-10,3.040625e-02
6.740625e-10,2.918750e-02
6.780625e-10,2.871875e-02
6.820625e-10,2.803125e-02
6.860625e-10,2.720313e-02
6.900625e-10,2.517188e-02
6.940625e-10,2.487500e-02
6.980625e-10,2.331250e-02
7.020625e-10,2.332813e-02
7.060625e-10,2.214063e-02
7.100625e-10,2.084375e-02
7.140625e-10,1.920313e-02
7.180625e-10,1.862500e-02
7.220625e-10,1.714063e-02
7.260625e-10,1.600000e-02
7.300625e-10,1.523438e-02
7.340625e-10,1.448438e-02
7.380625e-10,1.337500e-02
7.420625e-10,1.198438e-02
7.460625e-10,1.115625e-02
7.500625e-10,1.048438e-02
7.540625e-10,9.250000e-03
7.580625e-10,8.843750e-03
7.620625e-10,8.343750e-03
7.660625e-10,7.593750e-03
7.700625e-10,5.890625e-03
7.740625e-10,5.859375e-03
7.780625e-10,4.703125e-03
7.820625e-10,5.250000e-03
7.860625e-10,4.640625e-03
7.900625e-10,4.031250e-03
7.940625e-10,3.062500e-03
7.980625e-10,3.234375e-03
8.020625e-10,2.578125e-03
8.060625e-10,2.328125e-03
8.100625e-10,2.562500e-03
8.140625e-10,2.750000e-03
8.180625e-10,2.718750e-03
8.220625e-10,2.375000e-03
8.260625e-10,2.593750e-03
8.300625e-10,3.125000e-03
8.340625e-10,3.046875e-03
8.380625e-10,3.843750e-03
8.420625e-10,4.484375e-03
8.460625e-10,4.859375e-03
8.500625e-10,4.328125e-03
8.540625e-10,5.375000e-03
8.580625e-10,5.234375e-03
8.620625e-10,6.921875e-03
8.660625e-10,7.328125e-03
8.700625e-10,7.718750e-03
8.740625e-10,7.640625e-03
8.780625e-10,8.609375e-03
8.820625e-10,8.750000e-03
8.860625e-10,9.250000e-03
8.900625e-10,1.018750e-02
8.940625e-10,1.081250e-02
8.980625e-10,1.128125e-02
9.020625e-10,1.134375e-02
9.060625e-10,1.179688e-02
9.100625e-10,1.262500e-02
9.140625e-10,1.271875e-02
9.180625e-10,1.360938e-02
9.220625e-10,1.415625e-02
9.260625e-10,1.443750e-02
9.300625e-10,1.375000e-02
9.340625e-10,1.451563e-02
9.380625e-10,1.393750e-02
9.420625e-10,1.526563e-02
9.460625e-10,1.520313e-02
9.500625e-10,1.506250e-02
9.540625e-10,1.443750e-02
9.580625e-10,1.471875e-02
9.620625e-10,1.421875e-02
9.660625e-10,1.406250e-02
9.700625e-10,1.429688e-02
9.740625e-10,1.404688e-02
9.780625e-10,1.375000e-02
9.820625e-10,1.306250e-02
9.860625e-10,1.267188e-02
9.900625e-10,1.279688e-02
9.940625e-10,1.215625e-02
9.980625e-10,1.228125e-02
1.002062e-09,1.207813e-02
1.006062e-09,1.170313e-02
1.010062e-09,1.040625e-02
1.014062e-09,1.062500e-02
1.018063e-09,9.453125e-03
1.022063e-09,1.028125e-02
1.026063e-09,9.765625e-03
1.030063e-09,9.218750e-03
1.034063e-09,8.312500e-03
1.038063e-09,8.328125e-03
1.042062e-09,7.671875e-03
1.046062e-09,7.437500e-03
1.050062e-09,7.640625e-03
1.054062e-09,7.390625e-03
1.058062e-09,7.140625e-03
1.062062e-09,6.625000e-03
1.066062e-09,6.406250e-03
1.070062e-09,6.812500e-03
1.074062e-09,6.500000e-03
1.078063e-09,7.000000e-03
1.082063e-09,7.218750e-03
1.086063e-09,7.343750e-03
1.090063e-09,6.578125e-03
1.094063e-09,7.406250e-03
1.098063e-09,6.812500e-03
1.102062e-09,8.203125e-03
1.106062e-09,8.312500e-03
1.110062e-09,8.375000e-03
1.114062e-09,8.125000e-03
1.118062e-09,8.812500e-03
1.122062e-09,8.796875e-03
1.126062e-09,9.187500e-03
1.130062e-09,1.000000e-02
1.134062e-09,1.039063e-02
1.138063e-09,1.065625e-02
1.142063e-09,1.068750e-02
1.146063e-09,1.096875e-02
1.150063e-09,1.181250e-02
1.154063e-09,1.187500e-02
1.158063e-09,1.275000e-02
1.162062e-09,1.329688e-02
1.166062e-09,1.371875e-02
1.170062e-09,1.312500e-02
1.174062e-09,1.415625e-02
1.178062e-09,1.364063e-02
1.182062e-09,1.504688e-02
1.186062e-09,1.509375e-02
1.190062e-09,1.509375e-02
1.194062e-09,1.465625e-02
1.198063e-09,1.517188e-02
1.202063e-09,1.489063e-02
1.206063e-09,1.496875e-02
1.210063e-09,1.542188e-02
1.214063e-09,1.548438e-02
1.218063e-09,1.528125e-02
1.222062e-09,1.481250e-02
1.226062e-09,1.462500e-02
1.230062e-09,1.490625e-02
1.234062e-09,1.437500e-02
1.238062e-09,1.470313e-02
1.242062e-09,1.465625e-02
1.246062e-09,1.451563e-02
1.250062e-09,1.323438e-02
1.254062e-09,1.370313e-02
1.258063e-09,1.256250e-02
1.262063e-09,1.337500e-02
1.266063e-09,1.282813e-02
1.270063e-09,1.226563e-02
1.274063e-09,1.128125e-02
1.278063e-09,1.129688e-02
1.282062e-09,1.051563e-02
1.286062e-09,1.014063e-02
1.290062e-09,1.017188e-02
1.294062e-09,9.937500e-03
1.298062e-09,9.375000e-03
1.302062e-09,8.625000e-03
1.306062e-09,8.234375e-03
1.310062e-09,8.328125e-03
1.314062e-09,7.625000e-03
1.318063e-09,7.890625e-03
1.322063e-09,7.796875e-03
1.326063e-09,7.703125e-03
1.330063e-09,6.390625e-03
1.334063e-09,6.984375e-03
1.338062e-09,5.984375e-03
1.342062e-09,7.015625e-03
1.346062e-09,6.687500e-03
1.350062e-09,6.375000e-03
1.354062e-09,5.703125e-03
1.358062e-09,6.046875e-03
1.362062e-09,5.625000e-03
1.366062e-09,5.640625e-03
1.370062e-09,6.062500e-03
1.374062e-09,6.281250e-03
1.378063e-09,6.156250e-03
1.382063e-09,5.859375e-03
1.386063e-09,5.937500e-03
1.390063e-09,6.484375e-03
1.394063e-09,6.234375e-03
1.398062e-09,6.968750e-03
1.402062e-09,7.343750e-03
1.406062e-09,7.703125e-03
1.410062e-09,6.765625e-03
1.414062e-09,7.750000e-03
1.418062e-09,7.156250e-03
1.422062e-09,8.546875e-03
1.426062e-09,8.562500e-03
1.430062e-09,8.562500e-03
1.434062e-09,8.171875e-03
1.438063e-09,8.765625e-03
1.442063e-09,8.562500e-03
1.446063e-09,8.750000e-03
1.450063e-09,9.343750e-03
1.454063e-09,9.687500e-03
1.458062e-09,9.656250e-03
1.462062e-09,9.406250e-03
1.466062e-09,9.531250e-03
1.470062e-09,1.004688e-02
1.474062e-09,9.765625e-03
1.478062e-09,1.045313e-02
1.482062e-09,1.071875e-02
1.486062e-09,1.098438e-02
1.490062e-09,9.859375e-03
1.494062e-09,1.068750e-02
1.498063e-09,9.906250e-03
1.502063e-09,1.110938e-02
1.506063e-09,1.089063e-02
1.510063e-09,1.067188e-02
1.514063e-09,1.003125e-02
1.518062e-09,1.039063e-02
1.522062e-09,9.937500e-03
1.526062e-09,9.875000e-03
1.530062e-09,1.018750e-02
1.534062e-09,1.031250e-02
1.538062e-09,1.001563e-02
1.542062e-09,9.515625e-03
1.546062e-09,9.406250e-03
1.550062e-09,9.703125e-03
1.554062e-09,9.203125e-03
1.558063e-09,9.687500e-03
1.562063e-09,9.765625e-03
1.566063e-09,9.843750e-03
1.570063e-09,8.546875e-03
1.574063e-09,9.250000e-03
1.578062e-09,8.343750e-03
1.582062e-09,9.437500e-03
1.586062e-09,9.125000e-03
1.590062e-09,8.828125e-03
1.594062e-09,8.140625e-03
1.598062e-09,8.453125e-03
1.602062e-09,7.953125e-03
1.606062e-09,7.875000e-03
1.610062e-09,8.203125e-03
1.614062e-09,8.343750e-03
1.618063e-09,8.078125e-03
1.622063e-09,7.609375e-03
1.626063e-09,7.562500e-03
1.630063e-09,7.906250e-03
1.634063e-09,7.468750e-03
1.638062e-09,8.015625e-03
1.642062e-09,8.187500e-03
1.646062e-09,8.343750e-03
1.650062e-09,7.109375e-03
1.654062e-09,7.890625e-03
1.658062e-09,7.046875e-03
1.662062e-09,8.234375e-03
1.666062e-09,8.000000e-03
1.670062e-09,7.765625e-03
1.674062e-09,7.140625e-03
1.678063e-09,7.515625e-03
1.682063e-09,7.078125e-03
1.686063e-09,7.046875e-03
1.690063e-09,7.421875e-03
1.694063e-09,7.578125e-03
1.698062e-09,7.343750e-03
1.702062e-09,6.906250e-03
1.706062e-09,6.859375e-03
1.710062e-09,7.218750e-03
1.714062e-09,6.781250e-03
1.718062e-09,7.328125e-03
1.722062e-09,7.484375e-03
1.726062e-09,7.640625e-03
1.730062e-09,6.375000e-03
1.734062e-09,7.125000e-03
1.738063e-09,6.265625e-03
1.742063e-09,7.421875e-03
1.746063e-09,7.156250e-03
1.750063e-09,6.906250e-03
1.754063e-09,6.250000e-03
1.758062e-09,6.593750e-03
