Measurements-streak-laser-independent/Photodiode-on-Tek-12bit-4GHz/Tek000_ch1_20190613133016718.csv

Model,MSO64
Waveform Type,ANALOG
Horizontal Units,s
Sample Interval,4.000000e-12
Record Length,1000
Zero Index,310.437500
Vertical Units,V

TIME,CH1
-1.241750e-09,3.984375e-03
-1.237750e-09,2.828125e-03
-1.233750e-09,3.687500e-03
-1.229750e-09,2.937500e-03
-1.225750e-09,4.203125e-03
-1.221750e-09,4.062500e-03
-1.217750e-09,3.937500e-03
-1.213750e-09,3.406250e-03
-1.209750e-09,3.875000e-03
-1.205750e-09,3.546875e-03
-1.201750e-09,3.640625e-03
-1.197750e-09,4.125000e-03
-1.193750e-09,4.406250e-03
-1.189750e-09,4.296875e-03
-1.185750e-09,3.968750e-03
-1.181750e-09,4.062500e-03
-1.177750e-09,4.546875e-03
-1.173750e-09,4.234375e-03
-1.169750e-09,4.921875e-03
-1.165750e-09,5.203125e-03
-1.161750e-09,5.484375e-03
-1.157750e-09,4.343750e-03
-1.153750e-09,5.234375e-03
-1.149750e-09,4.500000e-03
-1.145750e-09,5.781250e-03
-1.141750e-09,5.625000e-03
-1.137750e-09,5.484375e-03
-1.133750e-09,4.921875e-03
-1.129750e-09,5.375000e-03
-1.125750e-09,5.000000e-03
-1.121750e-09,5.031250e-03
-1.117750e-09,5.453125e-03
-1.113750e-09,5.671875e-03
-1.109750e-09,5.468750e-03
-1.105750e-09,5.062500e-03
-1.101750e-09,5.046875e-03
-1.097750e-09,5.437500e-03
-1.093750e-09,5.000000e-03
-1.089750e-09,5.578125e-03
-1.085750e-09,5.734375e-03
-1.081750e-09,5.890625e-03
-1.077750e-09,4.625000e-03
-1.073750e-09,5.375000e-03
-1.069750e-09,4.500000e-03
-1.065750e-09,5.640625e-03
-1.061750e-09,5.375000e-03
-1.057750e-09,5.093750e-03
-1.053750e-09,4.406250e-03
-1.049750e-09,4.718750e-03
-1.045750e-09,4.234375e-03
-1.041750e-09,4.156250e-03
-1.037750e-09,4.484375e-03
-1.033750e-09,4.609375e-03
-1.029750e-09,4.343750e-03
-1.025750e-09,3.859375e-03
-1.021750e-09,3.812500e-03
-1.017750e-09,4.156250e-03
-1.013750e-09,3.703125e-03
-1.009750e-09,4.265625e-03
-1.005750e-09,4.437500e-03
-1.001750e-09,4.625000e-03
-9.977500e-10,3.390625e-03
-9.937500e-10,4.203125e-03
-9.897500e-10,3.406250e-03
-9.857500e-10,4.625000e-03
-9.817500e-10,4.468750e-03
-9.777500e-10,4.312500e-03
-9.737500e-10,3.765625e-03
-9.697500e-10,4.250000e-03
-9.657500e-10,3.921875e-03
-9.617500e-10,4.015625e-03
-9.577500e-10,4.531250e-03
-9.537500e-10,4.859375e-03
-9.497500e-10,4.796875e-03
-9.457500e-10,4.531250e-03
-9.417500e-10,4.687500e-03
-9.377500e-10,5.265625e-03
-9.337500e-10,5.031250e-03
-9.297500e-10,5.812500e-03
-9.257500e-10,6.203125e-03
-9.217500e-10,6.593750e-03
-9.177500e-10,5.578125e-03
-9.137500e-10,6.578125e-03
-9.097500e-10,5.968750e-03
-9.057500e-10,7.328125e-03
-9.017500e-10,7.328125e-03
-8.977500e-10,7.312500e-03
-8.937500e-10,6.890625e-03
-8.897500e-10,7.468750e-03
-8.857500e-10,7.234375e-03
-8.817500e-10,7.390625e-03
-8.777500e-10,7.953125e-03
-8.737500e-10,8.281250e-03
-8.697500e-10,8.203125e-03
-8.657500e-10,7.906250e-03
-8.617500e-10,7.984375e-03
-8.577500e-10,8.468750e-03
-8.537500e-10,8.109375e-03
-8.497500e-10,8.750000e-03
-8.457500e-10,8.953125e-03
-8.417500e-10,9.156250e-03
-8.377500e-10,7.937500e-03
-8.337500e-10,8.703125e-03
-8.297500e-10,7.812500e-03
-8.257500e-10,8.828125e-03
-8.217500e-10,8.546875e-03
-8.177500e-10,8.203125e-03
-8.137500e-10,7.468750e-03
-8.097500e-10,7.687500e-03
-8.057500e-10,7.078125e-03
-8.017500e-10,6.906250e-03
-7.977500e-10,7.062500e-03
-7.937500e-10,7.000000e-03
-7.897500e-10,6.593750e-03
-7.857500e-10,5.890625e-03
-7.817500e-10,5.593750e-03
-7.777500e-10,5.687500e-03
-7.737500e-10,4.968750e-03
-7.697500e-10,5.265625e-03
-7.657500e-10,5.140625e-03
-7.617500e-10,5.000000e-03
-7.577500e-10,3.515625e-03
-7.537500e-10,3.984375e-03
-7.497500e-10,2.859375e-03
-7.457500e-10,3.593750e-03
-7.417500e-10,3.125000e-03
-7.377500e-10,2.625000e-03
-7.337500e-10,1.765625e-03
-7.297500e-10,1.843750e-03
-7.257500e-10,1.125000e-03
-7.217500e-10,9.375000e-04
-7.177500e-10,1.062500e-03
-7.137500e-10,9.843750e-04
-7.097500e-10,6.875000e-04
-7.057500e-10,6.250000e-05
-7.017500e-10,-1.406250e-04
-6.977500e-10,7.812500e-05
-6.937500e-10,-4.375000e-04
-6.897500e-10,1.562500e-05
-6.857500e-10,1.562500e-04
-6.817500e-10,2.500000e-04
-6.777500e-10,-9.687500e-04
-6.737500e-10,-1.718750e-04
-6.697500e-10,-9.218750e-04
-6.657500e-10,1.250000e-04
-6.617500e-10,4.687500e-05
-6.577500e-10,-4.687500e-05
-6.537500e-10,-4.843750e-04
-6.497500e-10,-1.562500e-05
-6.457500e-10,-3.437500e-04
-6.417500e-10,-9.375000e-05
-6.377500e-10,4.531250e-04
-6.337500e-10,7.812500e-04
-6.297500e-10,9.687500e-04
-6.257500e-10,7.656250e-04
-6.217500e-10,9.531250e-04
-6.177500e-10,1.578125e-03
-6.137500e-10,1.484375e-03
-6.097500e-10,2.328125e-03
-6.057500e-10,2.812500e-03
-6.017500e-10,3.265625e-03
-5.977500e-10,2.328125e-03
-5.937500e-10,3.437500e-03
-5.897500e-10,3.031250e-03
-5.857500e-10,4.328125e-03
-5.817500e-10,4.515625e-03
-5.777500e-10,4.640625e-03
-5.737500e-10,4.375000e-03
-5.697500e-10,4.984375e-03
-5.657500e-10,4.765625e-03
-5.617500e-10,5.125000e-03
-5.577500e-10,5.765625e-03
-5.537500e-10,6.109375e-03
-5.497500e-10,6.312500e-03
-5.457500e-10,6.078125e-03
-5.417500e-10,6.250000e-03
-5.377500e-10,6.828125e-03
-5.337500e-10,6.640625e-03
-5.297500e-10,7.390625e-03
-5.257500e-10,7.703125e-03
-5.217500e-10,7.968750e-03
-5.177500e-10,6.843750e-03
-5.137500e-10,7.703125e-03
-5.097500e-10,7.109375e-03
-5.057500e-10,8.156250e-03
-5.017500e-10,8.140625e-03
-4.977500e-10,7.953125e-03
-4.937500e-10,7.390625e-03
-4.897500e-10,7.703125e-03
-4.857500e-10,7.234375e-03
-4.817500e-10,7.218750e-03
-4.777500e-10,7.578125e-03
-4.737500e-10,7.593750e-03
-4.697500e-10,7.421875e-03
-4.657500e-10,6.906250e-03
-4.617500e-10,6.812500e-03
-4.577500e-10,7.109375e-03
-4.537500e-10,6.578125e-03
-4.497500e-10,7.078125e-03
-4.457500e-10,7.093750e-03
-4.417500e-10,7.093750e-03
-4.377500e-10,5.734375e-03
-4.337500e-10,6.296875e-03
-4.297500e-10,5.500000e-03
-4.257500e-10,6.359375e-03
-4.217500e-10,6.171875e-03
-4.177500e-10,5.765625e-03
-4.137500e-10,5.062500e-03
-4.097500e-10,5.265625e-03
-4.057500e-10,4.750000e-03
-4.017500e-10,4.593750e-03
-3.977500e-10,4.906250e-03
-3.937500e-10,4.890625e-03
-3.897500e-10,4.625000e-03
-3.857500e-10,4.125000e-03
-3.817500e-10,4.109375e-03
-3.777500e-10,4.484375e-03
-3.737500e-10,3.968750e-03
-3.697500e-10,4.562500e-03
-3.657500e-10,4.734375e-03
-3.617500e-10,4.875000e-03
-3.577500e-10,3.703125e-03
-3.537500e-10,4.390625e-03
-3.497500e-10,3.781250e-03
-3.457500e-10,4.859375e-03
-3.417500e-10,4.890625e-03
-3.377500e-10,4.703125e-03
-3.337500e-10,4.281250e-03
-3.297500e-10,4.750000e-03
-3.257500e-10,4.562500e-03
-3.217500e-10,4.625000e-03
-3.177500e-10,5.218750e-03
-3.137500e-10,5.484375e-03
-3.097500e-10,5.453125e-03
-3.057500e-10,5.296875e-03
-3.017500e-10,5.562500e-03
-2.977500e-10,6.218750e-03
-2.937500e-10,5.984375e-03
-2.897500e-10,6.796875e-03
-2.857500e-10,7.250000e-03
-2.817500e-10,7.625000e-03
-2.777500e-10,6.703125e-03
-2.737500e-10,7.578125e-03
-2.697500e-10,7.109375e-03
-2.657500e-10,8.375000e-03
-2.617500e-10,8.500000e-03
-2.577500e-10,8.453125e-03
-2.537500e-10,8.156250e-03
-2.497500e-10,8.671875e-03
-2.457500e-10,8.500000e-03
-2.417500e-10,8.562500e-03
-2.377500e-10,9.062500e-03
-2.337500e-10,9.281250e-03
-2.297500e-10,9.125000e-03
-2.257500e-10,8.875000e-03
-2.217500e-10,8.937500e-03
-2.177500e-10,9.343750e-03
-2.137500e-10,8.906250e-03
-2.097500e-10,9.421875e-03
-2.057500e-10,9.578125e-03
-2.017500e-10,9.625000e-03
-1.977500e-10,8.375000e-03
-1.937500e-10,8.875000e-03
-1.897500e-10,7.953125e-03
-1.857500e-10,8.828125e-03
-1.817500e-10,8.453125e-03
-1.777500e-10,7.968750e-03
-1.737500e-10,7.234375e-03
-1.697500e-10,7.312500e-03
-1.657500e-10,6.640625e-03
-1.617500e-10,6.281250e-03
-1.577500e-10,6.312500e-03
-1.537500e-10,6.093750e-03
-1.497500e-10,5.515625e-03
-1.457500e-10,4.906250e-03
-1.417500e-10,4.593750e-03
-1.377500e-10,4.625000e-03
-1.337500e-10,3.937500e-03
-1.297500e-10,4.218750e-03
-1.257500e-10,4.187500e-03
-1.217500e-10,4.156250e-03
-1.177500e-10,2.937500e-03
-1.137500e-10,3.484375e-03
-1.097500e-10,2.640625e-03
-1.057500e-10,3.781250e-03
-1.017500e-10,3.656250e-03
-9.775000e-11,3.609375e-03
-9.375000e-11,3.390625e-03
-8.975000e-11,4.093750e-03
-8.575000e-11,4.156250e-03
-8.175000e-11,4.687500e-03
-7.775000e-11,5.671875e-03
-7.375000e-11,6.609375e-03
-6.975000e-11,7.250000e-03
-6.575000e-11,8.015625e-03
-6.175000e-11,9.171875e-03
-5.775000e-11,1.076563e-02
-5.375000e-11,1.182813e-02
-4.975000e-11,1.401563e-02
-4.575000e-11,1.596875e-02
-4.175000e-11,1.812500e-02
-3.775000e-11,1.918750e-02
-3.375000e-11,2.212500e-02
-2.975000e-11,2.375000e-02
-2.575000e-11,2.753125e-02
-2.175000e-11,3.006250e-02
-1.775000e-11,3.285938e-02
-1.375000e-11,3.553125e-02
-9.750000e-12,3.923438e-02
-5.750000e-12,4.235938e-02
-1.750000e-12,4.600000e-02
2.250000e-12,5.018750e-02
6.250000e-12,5.440625e-02
1.025000e-11,5.826563e-02
1.425000e-11,6.231250e-02
1.825000e-11,6.675000e-02
2.225000e-11,7.157813e-02
2.625000e-11,7.593750e-02
3.025000e-11,8.137500e-02
3.425000e-11,8.650000e-02
3.825000e-11,9.185938e-02
4.225000e-11,9.601563e-02
4.625000e-11,1.019688e-01
5.025000e-11,1.064844e-01
5.425000e-11,1.130781e-01
5.825000e-11,1.182344e-01
6.225000e-11,1.236563e-01
6.625000e-11,1.287031e-01
7.025000e-11,1.346094e-01
7.425000e-11,1.398281e-01
7.825000e-11,1.453594e-01
8.225000e-11,1.512656e-01
8.625000e-11,1.570781e-01
9.025000e-11,1.622031e-01
9.425000e-11,1.673281e-01
9.825000e-11,1.726406e-01
1.022500e-10,1.781094e-01
1.062500e-10,1.829375e-01
1.102500e-10,1.885469e-01
1.142500e-10,1.935938e-01
1.182500e-10,1.986875e-01
1.222500e-10,2.022656e-01
1.262500e-10,2.074531e-01
1.302500e-10,2.109688e-01
1.342500e-10,2.162500e-01
1.382500e-10,2.198750e-01
1.422500e-10,2.235625e-01
1.462500e-10,2.266094e-01
1.502500e-10,2.302656e-01
1.542500e-10,2.330781e-01
1.582500e-10,2.359688e-01
1.622500e-10,2.390156e-01
1.662500e-10,2.418438e-01
1.702500e-10,2.437031e-01
1.742500e-10,2.453750e-01
1.782500e-10,2.471406e-01
1.822500e-10,2.489219e-01
1.862500e-10,2.499063e-01
1.902500e-10,2.515000e-01
1.942500e-10,2.523906e-01
1.982500e-10,2.532813e-01
2.022500e-10,2.525156e-01
2.062500e-10,2.533594e-01
2.102500e-10,2.524531e-01
2.142500e-10,2.532031e-01
2.182500e-10,2.522813e-01
2.222500e-10,2.513906e-01
2.262500e-10,2.498594e-01
2.302500e-10,2.489375e-01
2.342500e-10,2.472500e-01
2.382500e-10,2.456406e-01
2.422500e-10,2.441875e-01
2.462500e-10,2.425938e-01
2.502500e-10,2.400938e-01
2.542500e-10,2.374688e-01
2.582500e-10,2.350625e-01
2.622500e-10,2.327656e-01
2.662500e-10,2.297500e-01
2.702500e-10,2.274375e-01
2.742500e-10,2.245469e-01
2.782500e-10,2.218281e-01
2.822500e-10,2.175156e-01
2.862500e-10,2.150313e-01
2.902500e-10,2.109531e-01
2.942500e-10,2.085938e-01
2.982500e-10,2.047500e-01
3.022500e-10,2.010938e-01
3.062500e-10,1.969219e-01
3.102500e-10,1.935938e-01
3.142500e-10,1.896563e-01
3.182500e-10,1.859531e-01
3.222500e-10,1.825156e-01
3.262500e-10,1.790938e-01
3.302500e-10,1.749844e-01
3.342500e-10,1.708594e-01
3.382500e-10,1.671094e-01
3.422500e-10,1.636563e-01
3.462500e-10,1.595625e-01
3.502500e-10,1.563438e-01
3.542500e-10,1.527188e-01
3.582500e-10,1.493750e-01
3.622500e-10,1.445469e-01
3.662500e-10,1.417344e-01
3.702500e-10,1.374531e-01
3.742500e-10,1.349375e-01
3.782500e-10,1.311250e-01
3.822500e-10,1.275625e-01
3.862500e-10,1.235781e-01
3.902500e-10,1.205781e-01
3.942500e-10,1.170625e-01
3.982500e-10,1.138438e-01
4.022500e-10,1.109375e-01
4.062500e-10,1.081250e-01
4.102500e-10,1.047969e-01
4.142500e-10,1.014688e-01
4.182500e-10,9.854688e-02
4.222500e-10,9.603125e-02
4.262500e-10,9.287500e-02
4.302500e-10,9.064063e-02
4.342500e-10,8.810938e-02
4.382500e-10,8.582813e-02
4.422500e-10,8.212500e-02
4.462500e-10,8.050000e-02
4.502500e-10,7.743750e-02
4.542500e-10,7.615625e-02
4.582500e-10,7.364063e-02
4.622500e-10,7.131250e-02
4.662500e-10,6.864063e-02
4.702500e-10,6.693750e-02
4.742500e-10,6.471875e-02
4.782500e-10,6.284375e-02
4.822500e-10,6.125000e-02
4.862500e-10,5.975000e-02
4.902500e-10,5.781250e-02
4.942500e-10,5.582813e-02
4.982500e-10,5.423438e-02
5.022500e-10,5.306250e-02
5.062500e-10,5.121875e-02
5.102500e-10,5.025000e-02
5.142500e-10,4.904688e-02
5.182500e-10,4.800000e-02
5.222500e-10,4.557813e-02
5.262500e-10,4.517188e-02
5.302500e-10,4.332813e-02
5.342500e-10,4.325000e-02
5.382500e-10,4.196875e-02
5.422500e-10,4.071875e-02
5.462500e-10,3.917188e-02
5.502500e-10,3.856250e-02
5.542500e-10,3.732813e-02
5.582500e-10,3.643750e-02
5.622500e-10,3.581250e-02
5.662500e-10,3.523438e-02
5.702500e-10,3.425000e-02
5.742500e-10,3.310938e-02
5.782500e-10,3.235938e-02
5.822500e-10,3.195313e-02
5.862500e-10,3.084375e-02
5.902500e-10,3.054688e-02
5.942500e-10,3.003125e-02
5.982500e-10,2.951563e-02
6.022500e-10,2.768750e-02
6.062500e-10,2.776563e-02
6.102500e-10,2.643750e-02
6.142500e-10,2.681250e-02
6.182500e-10,2.596875e-02
6.222500e-10,2.504688e-02
6.262500e-10,2.381250e-02
6.302500e-10,2.354688e-02
6.342500e-10,2.250000e-02
6.382500e-10,2.179688e-02
6.422500e-10,2.140625e-02
6.462500e-10,2.098438e-02
6.502500e-10,2.017188e-02
6.542500e-10,1.910938e-02
6.582500e-10,1.851563e-02
6.622500e-10,1.815625e-02
6.662500e-10,1.712500e-02
6.702500e-10,1.692188e-02
6.742500e-10,1.650000e-02
6.782500e-10,1.596875e-02
6.822500e-10,1.421875e-02
6.862500e-10,1.431250e-02
6.902500e-10,1.304688e-02
6.942500e-10,1.351563e-02
6.982500e-10,1.275000e-02
7.022500e-10,1.192188e-02
7.062500e-10,1.075000e-02
7.102500e-10,1.065625e-02
7.142500e-10,9.703125e-03
7.182500e-10,9.109375e-03
7.222500e-10,8.937500e-03
7.262500e-10,8.734375e-03
7.302500e-10,8.156250e-03
7.342500e-10,7.328125e-03
7.382500e-10,7.031250e-03
7.422500e-10,7.000000e-03
7.462500e-10,6.296875e-03
7.502500e-10,6.515625e-03
7.542500e-10,6.531250e-03
7.582500e-10,6.375000e-03
7.622500e-10,5.125000e-03
7.662500e-10,5.656250e-03
7.702500e-10,4.890625e-03
7.742500e-10,5.953125e-03
7.782500e-10,5.734375e-03
7.822500e-10,5.531250e-03
7.862500e-10,4.937500e-03
7.902500e-10,5.437500e-03
7.942500e-10,5.093750e-03
7.982500e-10,5.140625e-03
8.022500e-10,5.640625e-03
8.062500e-10,6.031250e-03
8.102500e-10,6.125000e-03
8.142500e-10,5.921875e-03
8.182500e-10,6.218750e-03
8.222500e-10,6.828125e-03
8.262500e-10,6.765625e-03
8.302500e-10,7.609375e-03
8.342500e-10,8.187500e-03
8.382500e-10,8.562500e-03
8.422500e-10,7.875000e-03
8.462500e-10,8.859375e-03
8.502500e-10,8.515625e-03
8.542500e-10,1.006250e-02
8.582500e-10,1.026563e-02
8.622500e-10,1.043750e-02
8.662500e-10,1.015625e-02
8.702500e-10,1.089063e-02
8.742500e-10,1.081250e-02
8.782500e-10,1.109375e-02
8.822500e-10,1.178125e-02
8.862500e-10,1.218750e-02
8.902500e-10,1.235938e-02
8.942500e-10,1.218750e-02
8.982500e-10,1.239063e-02
9.022500e-10,1.300000e-02
9.062500e-10,1.285938e-02
9.102500e-10,1.356250e-02
9.142500e-10,1.390625e-02
9.182500e-10,1.406250e-02
9.222500e-10,1.312500e-02
9.262500e-10,1.381250e-02
9.302500e-10,1.309375e-02
9.342500e-10,1.431250e-02
9.382500e-10,1.412500e-02
9.422500e-10,1.389063e-02
9.462500e-10,1.321875e-02
9.502500e-10,1.348438e-02
9.542500e-10,1.296875e-02
9.582500e-10,1.282813e-02
9.622500e-10,1.307813e-02
9.662500e-10,1.292188e-02
9.702500e-10,1.262500e-02
9.742500e-10,1.201563e-02
9.782500e-10,1.171875e-02
9.822500e-10,1.190625e-02
9.862500e-10,1.134375e-02
9.902500e-10,1.159375e-02
9.942500e-10,1.150000e-02
9.982500e-10,1.129688e-02
1.002250e-09,1.003125e-02
1.006250e-09,1.040625e-02
1.010250e-09,9.343750e-03
1.014250e-09,1.026563e-02
1.018250e-09,9.828125e-03
1.022250e-09,9.359375e-03
1.026250e-09,8.515625e-03
1.030250e-09,8.609375e-03
1.034250e-09,7.984375e-03
1.038250e-09,7.765625e-03
1.042250e-09,7.968750e-03
1.046250e-09,7.781250e-03
1.050250e-09,7.468750e-03
1.054250e-09,6.906250e-03
1.058250e-09,6.640625e-03
1.062250e-09,6.937500e-03
1.066250e-09,6.468750e-03
1.070250e-09,6.875000e-03
1.074250e-09,6.937500e-03
1.078250e-09,6.937500e-03
1.082250e-09,5.875000e-03
1.086250e-09,6.531250e-03
1.090250e-09,5.687500e-03
1.094250e-09,6.828125e-03
1.098250e-09,6.640625e-03
1.102250e-09,6.437500e-03
1.106250e-09,5.859375e-03
1.110250e-09,6.250000e-03
1.114250e-09,5.906250e-03
1.118250e-09,5.953125e-03
1.122250e-09,6.421875e-03
1.126250e-09,6.531250e-03
1.130250e-09,6.453125e-03
1.134250e-09,6.125000e-03
1.138250e-09,6.109375e-03
1.142250e-09,6.609375e-03
1.146250e-09,6.328125e-03
1.150250e-09,6.921875e-03
1.154250e-09,7.171875e-03
1.158250e-09,7.359375e-03
1.162250e-09,6.406250e-03
1.166250e-09,7.218750e-03
1.170250e-09,6.468750e-03
1.174250e-09,7.687500e-03
1.178250e-09,7.546875e-03
1.182250e-09,7.375000e-03
1.186250e-09,6.812500e-03
1.190250e-09,7.218750e-03
1.194250e-09,6.843750e-03
1.198250e-09,6.859375e-03
1.202250e-09,7.281250e-03
1.206250e-09,7.390625e-03
1.210250e-09,7.203125e-03
1.214250e-09,6.796875e-03
1.218250e-09,6.703125e-03
1.222250e-09,7.093750e-03
1.226250e-09,6.687500e-03
1.230250e-09,7.187500e-03
1.234250e-09,7.343750e-03
1.238250e-09,7.421875e-03
1.242250e-09,6.296875e-03
1.246250e-09,7.031250e-03
1.250250e-09,6.156250e-03
1.254250e-09,7.265625e-03
1.258250e-09,7.015625e-03
1.262250e-09,6.750000e-03
1.266250e-09,6.093750e-03
1.270250e-09,6.421875e-03
1.274250e-09,5.968750e-03
1.278250e-09,5.921875e-03
1.282250e-09,6.281250e-03
1.286250e-09,6.390625e-03
1.290250e-09,6.171875e-03
1.294250e-09,5.734375e-03
1.298250e-09,5.687500e-03
1.302250e-09,6.078125e-03
1.306250e-09,5.687500e-03
1.310250e-09,6.250000e-03
1.314250e-09,6.453125e-03
1.318250e-09,6.640625e-03
1.322250e-09,5.531250e-03
1.326250e-09,6.343750e-03
1.330250e-09,5.578125e-03
1.334250e-09,6.812500e-03
1.338250e-09,6.656250e-03
1.342250e-09,6.500000e-03
1.346250e-09,5.968750e-03
1.350250e-09,6.437500e-03
1.354250e-09,6.109375e-03
1.358250e-09,6.187500e-03
1.362250e-09,6.671875e-03
1.366250e-09,6.937500e-03
1.370250e-09,6.828125e-03
1.374250e-09,6.515625e-03
1.378250e-09,6.593750e-03
1.382250e-09,7.078125e-03
1.386250e-09,6.781250e-03
1.390250e-09,7.453125e-03
1.394250e-09,7.734375e-03
1.398250e-09,8.000000e-03
1.402250e-09,6.906250e-03
1.406250e-09,7.781250e-03
1.410250e-09,7.046875e-03
1.414250e-09,8.296875e-03
1.418250e-09,8.156250e-03
1.422250e-09,8.000000e-03
1.426250e-09,7.437500e-03
1.430250e-09,7.875000e-03
1.434250e-09,7.484375e-03
1.438250e-09,7.500000e-03
1.442250e-09,7.921875e-03
1.446250e-09,8.093750e-03
1.450250e-09,7.890625e-03
1.454250e-09,7.468750e-03
1.458250e-09,7.437500e-03
1.462250e-09,7.796875e-03
1.466250e-09,7.359375e-03
1.470250e-09,7.906250e-03
1.474250e-09,8.046875e-03
1.478250e-09,8.171875e-03
1.482250e-09,6.906250e-03
1.486250e-09,7.640625e-03
1.490250e-09,6.750000e-03
1.494250e-09,7.875000e-03
1.498250e-09,7.578125e-03
1.502250e-09,7.281250e-03
1.506250e-09,6.593750e-03
1.510250e-09,6.906250e-03
1.514250e-09,6.406250e-03
1.518250e-09,6.312500e-03
1.522250e-09,6.625000e-03
1.526250e-09,6.734375e-03
1.530250e-09,6.453125e-03
1.534250e-09,5.968750e-03
1.538250e-09,5.890625e-03
1.542250e-09,6.218750e-03
1.546250e-09,5.750000e-03
1.550250e-09,6.296875e-03
1.554250e-09,6.453125e-03
1.558250e-09,6.609375e-03
1.562250e-09,5.390625e-03
1.566250e-09,6.171875e-03
1.570250e-09,5.343750e-03
1.574250e-09,6.562500e-03
1.578250e-09,6.359375e-03
1.582250e-09,6.187500e-03
1.586250e-09,5.609375e-03
1.590250e-09,6.046875e-03
1.594250e-09,5.687500e-03
1.598250e-09,5.750000e-03
1.602250e-09,6.218750e-03
1.606250e-09,6.500000e-03
1.610250e-09,6.375000e-03
1.614250e-09,6.062500e-03
1.618250e-09,6.171875e-03
1.622250e-09,6.671875e-03
1.626250e-09,6.390625e-03
1.630250e-09,7.109375e-03
1.634250e-09,7.437500e-03
1.638250e-09,7.765625e-03
1.642250e-09,6.703125e-03
1.646250e-09,7.640625e-03
1.650250e-09,6.968750e-03
1.654250e-09,8.312500e-03
1.658250e-09,8.250000e-03
1.662250e-09,8.187500e-03
1.666250e-09,7.734375e-03
1.670250e-09,8.265625e-03
1.674250e-09,8.000000e-03
1.678250e-09,8.125000e-03
1.682250e-09,8.656250e-03
1.686250e-09,8.968750e-03
1.690250e-09,8.890625e-03
1.694250e-09,8.593750e-03
1.698250e-09,8.703125e-03
1.702250e-09,9.203125e-03
1.706250e-09,8.890625e-03
1.710250e-09,9.578125e-03
1.714250e-09,9.843750e-03
1.718250e-09,1.012500e-02
1.722250e-09,8.968750e-03
1.726250e-09,9.828125e-03
1.730250e-09,9.062500e-03
1.734250e-09,1.029688e-02
1.738250e-09,1.012500e-02
1.742250e-09,9.937500e-03
1.746250e-09,9.343750e-03
1.750250e-09,9.750000e-03
1.754250e-09,9.343750e-03
1.758250e-09,9.328125e-03
