Measurements-streak-laser-independent/Photodiode-on-Tek-12bit-4GHz/Tek000_ch1_20190613132934899.csv

Model,MSO64
Waveform Type,ANALOG
Horizontal Units,s
Sample Interval,4.000000e-12
Record Length,1000
Zero Index,310.781250
Vertical Units,V

TIME,CH1
-1.243125e-09,3.671875e-03
-1.239125e-09,4.015625e-03
-1.235125e-09,3.546875e-03
-1.231125e-09,3.500000e-03
-1.227125e-09,3.843750e-03
-1.223125e-09,4.000000e-03
-1.219125e-09,3.750000e-03
-1.215125e-09,3.296875e-03
-1.211125e-09,3.250000e-03
-1.207125e-09,3.609375e-03
-1.203125e-09,3.171875e-03
-1.199125e-09,3.734375e-03
-1.195125e-09,3.906250e-03
-1.191125e-09,4.078125e-03
-1.187125e-09,2.843750e-03
-1.183125e-09,3.625000e-03
-1.179125e-09,2.796875e-03
-1.175125e-09,4.000000e-03
-1.171125e-09,3.781250e-03
-1.167125e-09,3.562500e-03
-1.163125e-09,2.953125e-03
-1.159125e-09,3.359375e-03
-1.155125e-09,2.953125e-03
-1.151125e-09,2.968750e-03
-1.147125e-09,3.375000e-03
-1.143125e-09,3.593750e-03
-1.139125e-09,3.406250e-03
-1.135125e-09,3.015625e-03
-1.131125e-09,3.031250e-03
-1.127125e-09,3.468750e-03
-1.123125e-09,3.078125e-03
-1.119125e-09,3.718750e-03
-1.115125e-09,3.968750e-03
-1.111125e-09,4.203125e-03
-1.107125e-09,3.031250e-03
-1.103125e-09,3.890625e-03
-1.099125e-09,3.125000e-03
-1.095125e-09,4.390625e-03
-1.091125e-09,4.250000e-03
-1.087125e-09,4.109375e-03
-1.083125e-09,3.562500e-03
-1.079125e-09,4.046875e-03
-1.075125e-09,3.718750e-03
-1.071125e-09,3.796875e-03
-1.067125e-09,4.281250e-03
-1.063125e-09,4.578125e-03
-1.059125e-09,4.468750e-03
-1.055125e-09,4.156250e-03
-1.051125e-09,4.265625e-03
-1.047125e-09,4.781250e-03
-1.043125e-09,4.484375e-03
-1.039125e-09,5.218750e-03
-1.035125e-09,5.546875e-03
-1.031125e-09,5.890625e-03
-1.027125e-09,4.812500e-03
-1.023125e-09,5.765625e-03
-1.019125e-09,5.093750e-03
-1.015125e-09,6.468750e-03
-1.011125e-09,6.421875e-03
-1.007125e-09,6.390625e-03
-1.003125e-09,5.937500e-03
-9.991250e-10,6.515625e-03
-9.951250e-10,6.281250e-03
-9.911250e-10,6.468750e-03
-9.871250e-10,7.046875e-03
-9.831250e-10,7.437500e-03
-9.791250e-10,7.406250e-03
-9.751250e-10,7.187500e-03
-9.711250e-10,7.375000e-03
-9.671250e-10,7.953125e-03
-9.631250e-10,7.734375e-03
-9.591250e-10,8.515625e-03
-9.551250e-10,8.890625e-03
-9.511250e-10,9.265625e-03
-9.471250e-10,8.218750e-03
-9.431250e-10,9.187500e-03
-9.391250e-10,8.531250e-03
-9.351250e-10,9.859375e-03
-9.311250e-10,9.781250e-03
-9.271250e-10,9.718750e-03
-9.231250e-10,9.234375e-03
-9.191250e-10,9.734375e-03
-9.151250e-10,9.437500e-03
-9.111250e-10,9.515625e-03
-9.071250e-10,1.000000e-02
-9.031250e-10,1.026563e-02
-8.991250e-10,1.010938e-02
-8.951250e-10,9.734375e-03
-8.911250e-10,9.750000e-03
-8.871250e-10,1.015625e-02
-8.831250e-10,9.750000e-03
-8.791250e-10,1.034375e-02
-8.751250e-10,1.050000e-02
-8.711250e-10,1.065625e-02
-8.671250e-10,9.406250e-03
-8.631250e-10,1.014063e-02
-8.591250e-10,9.250000e-03
-8.551250e-10,1.028125e-02
-8.511250e-10,9.984375e-03
-8.471250e-10,9.671875e-03
-8.431250e-10,8.953125e-03
-8.391250e-10,9.218750e-03
-8.351250e-10,8.671875e-03
-8.311250e-10,8.546875e-03
-8.271250e-10,8.796875e-03
-8.231250e-10,8.828125e-03
-8.191250e-10,8.484375e-03
-8.151250e-10,7.906250e-03
-8.111250e-10,7.734375e-03
-8.071250e-10,7.968750e-03
-8.031250e-10,7.406250e-03
-7.991250e-10,7.843750e-03
-7.951250e-10,7.875000e-03
-7.911250e-10,7.921875e-03
-7.871250e-10,6.609375e-03
-7.831250e-10,7.265625e-03
-7.791250e-10,6.328125e-03
-7.751250e-10,7.250000e-03
-7.711250e-10,6.984375e-03
-7.671250e-10,6.656250e-03
-7.631250e-10,6.015625e-03
-7.591250e-10,6.296875e-03
-7.551250e-10,5.781250e-03
-7.511250e-10,5.781250e-03
-7.471250e-10,6.093750e-03
-7.431250e-10,6.218750e-03
-7.391250e-10,6.078125e-03
-7.351250e-10,5.625000e-03
-7.311250e-10,5.578125e-03
-7.271250e-10,5.953125e-03
-7.231250e-10,5.562500e-03
-7.191250e-10,6.156250e-03
-7.151250e-10,6.390625e-03
-7.111250e-10,6.609375e-03
-7.071250e-10,5.468750e-03
-7.031250e-10,6.328125e-03
-6.991250e-10,5.609375e-03
-6.951250e-10,6.671875e-03
-6.911250e-10,6.593750e-03
-6.871250e-10,6.500000e-03
-6.831250e-10,6.031250e-03
-6.791250e-10,6.437500e-03
-6.751250e-10,6.046875e-03
-6.711250e-10,6.218750e-03
-6.671250e-10,6.656250e-03
-6.631250e-10,6.859375e-03
-6.591250e-10,6.906250e-03
-6.551250e-10,6.515625e-03
-6.511250e-10,6.531250e-03
-6.471250e-10,6.953125e-03
-6.431250e-10,6.640625e-03
-6.391250e-10,7.250000e-03
-6.351250e-10,7.515625e-03
-6.311250e-10,7.703125e-03
-6.271250e-10,6.531250e-03
-6.231250e-10,7.359375e-03
-6.191250e-10,6.671875e-03
-6.151250e-10,7.656250e-03
-6.111250e-10,7.562500e-03
-6.071250e-10,7.406250e-03
-6.031250e-10,6.859375e-03
-5.991250e-10,7.171875e-03
-5.951250e-10,6.687500e-03
-5.911250e-10,6.765625e-03
-5.871250e-10,7.125000e-03
-5.831250e-10,7.203125e-03
-5.791250e-10,7.187500e-03
-5.751250e-10,6.718750e-03
-5.711250e-10,6.656250e-03
-5.671250e-10,7.015625e-03
-5.631250e-10,6.656250e-03
-5.591250e-10,7.203125e-03
-5.551250e-10,7.375000e-03
-5.511250e-10,7.500000e-03
-5.471250e-10,6.265625e-03
-5.431250e-10,7.062500e-03
-5.391250e-10,6.406250e-03
-5.351250e-10,7.375000e-03
-5.311250e-10,7.328125e-03
-5.271250e-10,7.140625e-03
-5.231250e-10,6.625000e-03
-5.191250e-10,6.968750e-03
-5.151250e-10,6.531250e-03
-5.111250e-10,6.640625e-03
-5.071250e-10,7.093750e-03
-5.031250e-10,7.234375e-03
-4.991250e-10,7.234375e-03
-4.951250e-10,6.859375e-03
-4.911250e-10,6.921875e-03
-4.871250e-10,7.375000e-03
-4.831250e-10,7.078125e-03
-4.791250e-10,7.765625e-03
-4.751250e-10,7.968750e-03
-4.711250e-10,8.187500e-03
-4.671250e-10,7.031250e-03
-4.631250e-10,7.843750e-03
-4.591250e-10,7.265625e-03
-4.551250e-10,8.312500e-03
-4.511250e-10,8.343750e-03
-4.471250e-10,8.140625e-03
-4.431250e-10,7.625000e-03
-4.391250e-10,7.984375e-03
-4.351250e-10,7.625000e-03
-4.311250e-10,7.625000e-03
-4.271250e-10,8.078125e-03
-4.231250e-10,8.156250e-03
-4.191250e-10,8.000000e-03
-4.151250e-10,7.578125e-03
-4.111250e-10,7.593750e-03
-4.071250e-10,7.984375e-03
-4.031250e-10,7.484375e-03
-3.991250e-10,8.062500e-03
-3.951250e-10,8.156250e-03
-3.911250e-10,8.218750e-03
-3.871250e-10,6.937500e-03
-3.831250e-10,7.515625e-03
-3.791250e-10,6.781250e-03
-3.751250e-10,7.687500e-03
-3.711250e-10,7.546875e-03
-3.671250e-10,7.171875e-03
-3.631250e-10,6.515625e-03
-3.591250e-10,6.750000e-03
-3.551250e-10,6.312500e-03
-3.511250e-10,6.125000e-03
-3.471250e-10,6.468750e-03
-3.431250e-10,6.468750e-03
-3.391250e-10,6.187500e-03
-3.351250e-10,5.750000e-03
-3.311250e-10,5.765625e-03
-3.271250e-10,6.171875e-03
-3.231250e-10,5.671875e-03
-3.191250e-10,6.265625e-03
-3.151250e-10,6.484375e-03
-3.111250e-10,6.656250e-03
-3.071250e-10,5.546875e-03
-3.031250e-10,6.234375e-03
-2.991250e-10,5.656250e-03
-2.951250e-10,6.781250e-03
-2.911250e-10,6.843750e-03
-2.871250e-10,6.718750e-03
-2.831250e-10,6.406250e-03
-2.791250e-10,6.921875e-03
-2.751250e-10,6.796875e-03
-2.711250e-10,6.921875e-03
-2.671250e-10,7.562500e-03
-2.631250e-10,7.906250e-03
-2.591250e-10,7.921875e-03
-2.551250e-10,7.875000e-03
-2.511250e-10,8.187500e-03
-2.471250e-10,8.890625e-03
-2.431250e-10,8.734375e-03
-2.391250e-10,9.578125e-03
-2.351250e-10,1.009375e-02
-2.311250e-10,1.050000e-02
-2.271250e-10,9.640625e-03
-2.231250e-10,1.051563e-02
-2.191250e-10,1.004688e-02
-2.151250e-10,1.131250e-02
-2.111250e-10,1.139063e-02
-2.071250e-10,1.132813e-02
-2.031250e-10,1.101563e-02
-1.991250e-10,1.148438e-02
-1.951250e-10,1.121875e-02
-1.911250e-10,1.121875e-02
-1.871250e-10,1.159375e-02
-1.831250e-10,1.168750e-02
-1.791250e-10,1.139063e-02
-1.751250e-10,1.104688e-02
-1.711250e-10,1.092188e-02
-1.671250e-10,1.114063e-02
-1.631250e-10,1.054688e-02
-1.591250e-10,1.089063e-02
-1.551250e-10,1.085938e-02
-1.511250e-10,1.073438e-02
-1.471250e-10,9.375000e-03
-1.431250e-10,9.703125e-03
-1.391250e-10,8.593750e-03
-1.351250e-10,9.375000e-03
-1.311250e-10,8.843750e-03
-1.271250e-10,8.296875e-03
-1.231250e-10,7.515625e-03
-1.191250e-10,7.578125e-03
-1.151250e-10,6.921875e-03
-1.111250e-10,6.640625e-03
-1.071250e-10,6.765625e-03
-1.031250e-10,6.734375e-03
-9.912500e-11,6.375000e-03
-9.512500e-11,6.078125e-03
-9.112500e-11,6.109375e-03
-8.712500e-11,6.531250e-03
-8.312500e-11,6.359375e-03
-7.912500e-11,7.250000e-03
-7.512500e-11,7.875000e-03
-7.112500e-11,8.640625e-03
-6.712500e-11,8.328125e-03
-6.312500e-11,9.812500e-03
-5.912500e-11,1.001563e-02
-5.512500e-11,1.232813e-02
-5.112500e-11,1.342188e-02
-4.712500e-11,1.475000e-02
-4.312500e-11,1.601563e-02
-3.912500e-11,1.829688e-02
-3.512500e-11,2.001563e-02
-3.112500e-11,2.231250e-02
-2.712500e-11,2.515625e-02
-2.312500e-11,2.806250e-02
-1.912500e-11,3.071875e-02
-1.512500e-11,3.362500e-02
-1.112500e-11,3.696875e-02
-7.125000e-12,4.078125e-02
-3.125000e-12,4.418750e-02
8.750000e-13,4.878125e-02
4.875000e-12,5.315625e-02
8.875000e-12,5.784375e-02
1.287500e-11,6.146875e-02
1.687500e-11,6.692188e-02
2.087500e-11,7.110938e-02
2.487500e-11,7.745313e-02
2.887500e-11,8.251563e-02
3.287500e-11,8.790625e-02
3.687500e-11,9.309375e-02
4.087500e-11,9.925000e-02
4.487500e-11,1.048281e-01
4.887500e-11,1.108281e-01
5.287500e-11,1.173125e-01
5.687500e-11,1.237969e-01
6.087500e-11,1.297500e-01
6.487500e-11,1.358281e-01
6.887500e-11,1.421719e-01
7.287500e-11,1.487813e-01
7.687500e-11,1.548281e-01
8.087500e-11,1.617813e-01
8.487500e-11,1.682656e-01
8.887500e-11,1.748750e-01
9.287500e-11,1.800938e-01
9.687500e-11,1.869219e-01
1.008750e-10,1.921719e-01
1.048750e-10,1.992813e-01
1.088750e-10,2.047656e-01
1.128750e-10,2.103906e-01
1.168750e-10,2.154063e-01
1.208750e-10,2.210625e-01
1.248750e-10,2.259219e-01
1.288750e-10,2.308594e-01
1.328750e-10,2.359844e-01
1.368750e-10,2.408906e-01
1.408750e-10,2.448438e-01
1.448750e-10,2.486406e-01
1.488750e-10,2.524688e-01
1.528750e-10,2.562969e-01
1.568750e-10,2.593281e-01
1.608750e-10,2.629688e-01
1.648750e-10,2.658438e-01
1.688750e-10,2.687031e-01
1.728750e-10,2.699063e-01
1.768750e-10,2.725938e-01
1.808750e-10,2.735000e-01
1.848750e-10,2.760469e-01
1.888750e-10,2.768281e-01
1.928750e-10,2.776406e-01
1.968750e-10,2.777188e-01
2.008750e-10,2.783438e-01
2.048750e-10,2.781250e-01
2.088750e-10,2.779375e-01
2.128750e-10,2.778281e-01
2.168750e-10,2.775313e-01
2.208750e-10,2.762344e-01
2.248750e-10,2.747656e-01
2.288750e-10,2.734063e-01
2.328750e-10,2.721094e-01
2.368750e-10,2.700469e-01
2.408750e-10,2.685938e-01
2.448750e-10,2.664844e-01
2.488750e-10,2.645000e-01
2.528750e-10,2.608906e-01
2.568750e-10,2.589844e-01
2.608750e-10,2.554219e-01
2.648750e-10,2.535313e-01
2.688750e-10,2.500781e-01
2.728750e-10,2.467813e-01
2.768750e-10,2.429219e-01
2.808750e-10,2.397969e-01
2.848750e-10,2.360313e-01
2.888750e-10,2.324375e-01
2.928750e-10,2.290469e-01
2.968750e-10,2.256719e-01
3.008750e-10,2.214844e-01
3.048750e-10,2.172813e-01
3.088750e-10,2.133906e-01
3.128750e-10,2.097344e-01
3.168750e-10,2.054375e-01
3.208750e-10,2.019531e-01
3.248750e-10,1.979844e-01
3.288750e-10,1.942969e-01
3.328750e-10,1.890938e-01
3.368750e-10,1.858281e-01
3.408750e-10,1.810625e-01
3.448750e-10,1.780469e-01
3.488750e-10,1.736563e-01
3.528750e-10,1.695313e-01
3.568750e-10,1.649375e-01
3.608750e-10,1.612813e-01
3.648750e-10,1.570938e-01
3.688750e-10,1.531719e-01
3.728750e-10,1.495313e-01
3.768750e-10,1.460000e-01
3.808750e-10,1.418594e-01
3.848750e-10,1.377188e-01
3.888750e-10,1.339688e-01
3.928750e-10,1.306094e-01
3.968750e-10,1.265938e-01
4.008750e-10,1.234844e-01
4.048750e-10,1.200469e-01
4.088750e-10,1.168750e-01
4.128750e-10,1.122813e-01
4.168750e-10,1.097344e-01
4.208750e-10,1.057500e-01
4.248750e-10,1.035313e-01
4.288750e-10,1.000625e-01
4.328750e-10,9.684375e-02
4.368750e-10,9.325000e-02
4.408750e-10,9.064063e-02
4.448750e-10,8.756250e-02
4.488750e-10,8.479688e-02
4.528750e-10,8.234375e-02
4.568750e-10,8.000000e-02
4.608750e-10,7.723438e-02
4.648750e-10,7.445313e-02
4.688750e-10,7.206250e-02
4.728750e-10,7.015625e-02
4.768750e-10,6.759375e-02
4.808750e-10,6.593750e-02
4.848750e-10,6.406250e-02
4.888750e-10,6.242188e-02
4.928750e-10,5.942188e-02
4.968750e-10,5.848438e-02
5.008750e-10,5.614063e-02
5.048750e-10,5.556250e-02
5.088750e-10,5.384375e-02
5.128750e-10,5.223438e-02
5.168750e-10,5.035938e-02
5.208750e-10,4.943750e-02
5.248750e-10,4.796875e-02
5.288750e-10,4.687500e-02
5.328750e-10,4.604688e-02
5.368750e-10,4.532813e-02
5.408750e-10,4.421875e-02
5.448750e-10,4.301563e-02
5.488750e-10,4.220313e-02
5.528750e-10,4.179688e-02
5.568750e-10,4.070313e-02
5.608750e-10,4.043750e-02
5.648750e-10,3.995313e-02
5.688750e-10,3.956250e-02
5.728750e-10,3.782813e-02
5.768750e-10,3.803125e-02
5.808750e-10,3.682813e-02
5.848750e-10,3.731250e-02
5.888750e-10,3.660938e-02
5.928750e-10,3.582813e-02
5.968750e-10,3.476563e-02
6.008750e-10,3.460938e-02
6.048750e-10,3.371875e-02
6.088750e-10,3.315625e-02
6.128750e-10,3.284375e-02
6.168750e-10,3.253125e-02
6.208750e-10,3.178125e-02
6.248750e-10,3.079688e-02
6.288750e-10,3.021875e-02
6.328750e-10,2.987500e-02
6.368750e-10,2.882813e-02
6.408750e-10,2.856250e-02
6.448750e-10,2.803125e-02
6.488750e-10,2.742188e-02
6.528750e-10,2.554688e-02
6.568750e-10,2.546875e-02
6.608750e-10,2.403125e-02
6.648750e-10,2.425000e-02
6.688750e-10,2.321875e-02
6.728750e-10,2.209375e-02
6.768750e-10,2.062500e-02
6.808750e-10,2.017188e-02
6.848750e-10,1.885938e-02
6.888750e-10,1.789063e-02
6.928750e-10,1.726563e-02
6.968750e-10,1.662500e-02
7.008750e-10,1.559375e-02
7.048750e-10,1.431250e-02
7.088750e-10,1.353125e-02
7.128750e-10,1.298438e-02
7.168750e-10,1.178125e-02
7.208750e-10,1.145313e-02
7.248750e-10,1.095313e-02
7.288750e-10,1.028125e-02
7.328750e-10,8.531250e-03
7.368750e-10,8.562500e-03
7.408750e-10,7.328125e-03
7.448750e-10,7.859375e-03
7.488750e-10,7.187500e-03
7.528750e-10,6.515625e-03
7.568750e-10,5.484375e-03
7.608750e-10,5.593750e-03
7.648750e-10,4.843750e-03
7.688750e-10,4.515625e-03
7.728750e-10,4.656250e-03
7.768750e-10,4.750000e-03
7.808750e-10,4.562500e-03
7.848750e-10,4.109375e-03
7.888750e-10,4.218750e-03
7.928750e-10,4.625000e-03
7.968750e-10,4.406250e-03
8.008750e-10,5.093750e-03
8.048750e-10,5.593750e-03
8.088750e-10,5.890625e-03
8.128750e-10,5.171875e-03
8.168750e-10,6.156250e-03
8.208750e-10,5.875000e-03
8.248750e-10,7.437500e-03
8.288750e-10,7.718750e-03
8.328750e-10,8.000000e-03
8.368750e-10,7.843750e-03
8.408750e-10,8.734375e-03
8.448750e-10,8.796875e-03
8.488750e-10,9.234375e-03
8.528750e-10,1.010938e-02
8.568750e-10,1.073438e-02
8.608750e-10,1.114063e-02
8.648750e-10,1.117188e-02
8.688750e-10,1.162500e-02
8.728750e-10,1.243750e-02
8.768750e-10,1.251563e-02
8.808750e-10,1.343750e-02
8.848750e-10,1.401563e-02
8.888750e-10,1.437500e-02
8.928750e-10,1.365625e-02
8.968750e-10,1.451563e-02
9.008750e-10,1.400000e-02
9.048750e-10,1.539063e-02
9.088750e-10,1.537500e-02
9.128750e-10,1.529688e-02
9.168750e-10,1.475000e-02
9.208750e-10,1.512500e-02
9.248750e-10,1.471875e-02
9.288750e-10,1.464063e-02
9.328750e-10,1.495313e-02
9.368750e-10,1.485938e-02
9.408750e-10,1.462500e-02
9.448750e-10,1.401563e-02
9.488750e-10,1.373438e-02
9.528750e-10,1.392188e-02
9.568750e-10,1.334375e-02
9.608750e-10,1.357813e-02
9.648750e-10,1.345313e-02
9.688750e-10,1.317188e-02
9.728750e-10,1.185938e-02
9.768750e-10,1.215625e-02
9.808750e-10,1.103125e-02
9.848750e-10,1.189063e-02
9.888750e-10,1.140625e-02
9.928750e-10,1.085938e-02
9.968750e-10,9.953125e-03
1.000875e-09,9.984375e-03
1.004875e-09,9.296875e-03
1.008875e-09,9.031250e-03
1.012875e-09,9.187500e-03
1.016875e-09,8.937500e-03
1.020875e-09,8.625000e-03
1.024875e-09,8.031250e-03
1.028875e-09,7.781250e-03
1.032875e-09,8.093750e-03
1.036875e-09,7.656250e-03
1.040875e-09,8.093750e-03
1.044875e-09,8.218750e-03
1.048875e-09,8.265625e-03
1.052875e-09,7.312500e-03
1.056875e-09,8.031250e-03
1.060875e-09,7.312500e-03
1.064875e-09,8.578125e-03
1.068875e-09,8.531250e-03
1.072875e-09,8.468750e-03
1.076875e-09,8.062500e-03
1.080875e-09,8.625000e-03
1.084875e-09,8.453125e-03
1.088875e-09,8.687500e-03
1.092875e-09,9.359375e-03
1.096875e-09,9.640625e-03
1.100875e-09,9.765625e-03
1.104875e-09,9.656250e-03
1.108875e-09,9.828125e-03
1.112875e-09,1.053125e-02
1.116875e-09,1.045313e-02
1.120875e-09,1.123438e-02
1.124875e-09,1.167188e-02
1.128875e-09,1.201563e-02
1.132875e-09,1.126563e-02
1.136875e-09,1.221875e-02
1.140875e-09,1.160938e-02
1.144875e-09,1.295313e-02
1.148875e-09,1.292188e-02
1.152875e-09,1.285938e-02
1.156875e-09,1.237500e-02
1.160875e-09,1.284375e-02
1.164875e-09,1.253125e-02
1.168875e-09,1.257813e-02
1.172875e-09,1.300000e-02
1.176875e-09,1.306250e-02
1.180875e-09,1.285938e-02
1.184875e-09,1.239063e-02
1.188875e-09,1.223438e-02
1.192875e-09,1.253125e-02
1.196875e-09,1.201563e-02
1.200875e-09,1.239063e-02
1.204875e-09,1.237500e-02
1.208875e-09,1.228125e-02
1.212875e-09,1.103125e-02
1.216875e-09,1.154688e-02
1.220875e-09,1.048438e-02
1.224875e-09,1.137500e-02
1.228875e-09,1.089063e-02
1.232875e-09,1.039063e-02
1.236875e-09,9.500000e-03
1.240875e-09,9.578125e-03
1.244875e-09,8.890625e-03
1.248875e-09,8.593750e-03
1.252875e-09,8.703125e-03
1.256875e-09,8.562500e-03
1.260875e-09,8.093750e-03
1.264875e-09,7.421875e-03
1.268875e-09,7.125000e-03
1.272875e-09,7.296875e-03
1.276875e-09,6.671875e-03
1.280875e-09,7.031250e-03
1.284875e-09,7.031250e-03
1.288875e-09,7.015625e-03
1.292875e-09,5.781250e-03
1.296875e-09,6.437500e-03
1.300875e-09,5.531250e-03
1.304875e-09,6.640625e-03
1.308875e-09,6.375000e-03
1.312875e-09,6.156250e-03
1.316875e-09,5.546875e-03
1.320875e-09,5.953125e-03
1.324875e-09,5.609375e-03
1.328875e-09,5.671875e-03
1.332875e-09,6.156250e-03
1.336875e-09,6.437500e-03
1.340875e-09,6.375000e-03
1.344875e-09,6.125000e-03
1.348875e-09,6.265625e-03
1.352875e-09,6.859375e-03
1.356875e-09,6.656250e-03
1.360875e-09,7.437500e-03
1.364875e-09,7.843750e-03
1.368875e-09,8.265625e-03
1.372875e-09,7.343750e-03
1.376875e-09,8.375000e-03
1.380875e-09,7.812500e-03
1.384875e-09,9.250000e-03
1.388875e-09,9.281250e-03
1.392875e-09,9.328125e-03
1.396875e-09,8.953125e-03
1.400875e-09,9.578125e-03
1.404875e-09,9.406250e-03
1.408875e-09,9.625000e-03
1.412875e-09,1.021875e-02
1.416875e-09,1.059375e-02
1.420875e-09,1.057813e-02
1.424875e-09,1.034375e-02
1.428875e-09,1.046875e-02
1.432875e-09,1.100000e-02
1.436875e-09,1.071875e-02
1.440875e-09,1.142188e-02
1.444875e-09,1.168750e-02
1.448875e-09,1.195313e-02
1.452875e-09,1.082813e-02
1.456875e-09,1.165625e-02
1.460875e-09,1.085938e-02
1.464875e-09,1.206250e-02
1.468875e-09,1.182813e-02
1.472875e-09,1.159375e-02
1.476875e-09,1.093750e-02
1.480875e-09,1.128125e-02
1.484875e-09,1.079688e-02
1.488875e-09,1.070313e-02
1.492875e-09,1.100000e-02
1.496875e-09,1.107813e-02
1.500875e-09,1.076563e-02
1.504875e-09,1.023438e-02
1.508875e-09,1.007813e-02
1.512875e-09,1.034375e-02
1.516875e-09,9.796875e-03
1.520875e-09,1.023438e-02
1.524875e-09,1.028125e-02
1.528875e-09,1.031250e-02
1.532875e-09,8.968750e-03
1.536875e-09,9.625000e-03
1.540875e-09,8.671875e-03
1.544875e-09,9.734375e-03
1.548875e-09,9.375000e-03
1.552875e-09,9.046875e-03
1.556875e-09,8.312500e-03
1.560875e-09,8.593750e-03
1.564875e-09,8.062500e-03
1.568875e-09,7.953125e-03
1.572875e-09,8.265625e-03
1.576875e-09,8.375000e-03
1.580875e-09,8.093750e-03
1.584875e-09,7.625000e-03
1.588875e-09,7.562500e-03
1.592875e-09,7.906250e-03
1.596875e-09,7.468750e-03
1.600875e-09,8.031250e-03
1.604875e-09,8.218750e-03
1.608875e-09,8.406250e-03
1.612875e-09,7.203125e-03
1.616875e-09,8.015625e-03
1.620875e-09,7.218750e-03
1.624875e-09,8.453125e-03
1.628875e-09,8.281250e-03
1.632875e-09,8.109375e-03
1.636875e-09,7.546875e-03
1.640875e-09,8.000000e-03
1.644875e-09,7.656250e-03
1.648875e-09,7.703125e-03
1.652875e-09,8.171875e-03
1.656875e-09,8.421875e-03
1.660875e-09,8.296875e-03
1.664875e-09,7.953125e-03
1.668875e-09,8.015625e-03
1.672875e-09,8.484375e-03
1.676875e-09,8.140625e-03
1.680875e-09,8.812500e-03
1.684875e-09,9.062500e-03
1.688875e-09,9.328125e-03
1.692875e-09,8.156250e-03
1.696875e-09,9.015625e-03
1.700875e-09,8.250000e-03
1.704875e-09,9.484375e-03
1.708875e-09,9.312500e-03
1.712875e-09,9.125000e-03
1.716875e-09,8.531250e-03
1.720875e-09,8.937500e-03
1.724875e-09,8.531250e-03
1.728875e-09,8.515625e-03
1.732875e-09,8.906250e-03
1.736875e-09,9.062500e-03
1.740875e-09,8.828125e-03
1.744875e-09,8.375000e-03
1.748875e-09,8.312500e-03
1.752875e-09,8.640625e-03
1.756875e-09,8.156250e-03
