Measurements-streak-laser-independent/Photodiode-on-Tek-12bit-4GHz/Tek000_ch1_20190613133043695.csv

Model,MSO64
Waveform Type,ANALOG
Horizontal Units,s
Sample Interval,4.000000e-12
Record Length,1000
Zero Index,310.343750
Vertical Units,V

TIME,CH1
-1.241375e-09,3.421875e-03
-1.237375e-09,3.343750e-03
-1.233375e-09,3.703125e-03
-1.229375e-09,3.218750e-03
-1.225375e-09,3.765625e-03
-1.221375e-09,3.906250e-03
-1.217375e-09,4.046875e-03
-1.213375e-09,2.781250e-03
-1.209375e-09,3.531250e-03
-1.205375e-09,2.656250e-03
-1.201375e-09,3.828125e-03
-1.197375e-09,3.562500e-03
-1.193375e-09,3.312500e-03
-1.189375e-09,2.656250e-03
-1.185375e-09,3.015625e-03
-1.181375e-09,2.578125e-03
-1.177375e-09,2.531250e-03
-1.173375e-09,2.906250e-03
-1.169375e-09,3.062500e-03
-1.165375e-09,2.828125e-03
-1.161375e-09,2.390625e-03
-1.157375e-09,2.359375e-03
-1.153375e-09,2.750000e-03
-1.149375e-09,2.312500e-03
-1.145375e-09,2.890625e-03
-1.141375e-09,3.078125e-03
-1.137375e-09,3.250000e-03
-1.133375e-09,2.031250e-03
-1.129375e-09,2.812500e-03
-1.125375e-09,1.984375e-03
-1.121375e-09,3.187500e-03
-1.117375e-09,2.968750e-03
-1.113375e-09,2.750000e-03
-1.109375e-09,2.140625e-03
-1.105375e-09,2.531250e-03
-1.101375e-09,2.125000e-03
-1.097375e-09,2.109375e-03
-1.093375e-09,2.515625e-03
-1.089375e-09,2.703125e-03
-1.085375e-09,2.500000e-03
-1.081375e-09,2.109375e-03
-1.077375e-09,2.109375e-03
-1.073375e-09,2.515625e-03
-1.069375e-09,2.125000e-03
-1.065375e-09,2.734375e-03
-1.061375e-09,2.953125e-03
-1.057375e-09,3.171875e-03
-1.053375e-09,1.984375e-03
-1.049375e-09,2.828125e-03
-1.045375e-09,2.046875e-03
-1.041375e-09,3.296875e-03
-1.037375e-09,3.140625e-03
-1.033375e-09,2.984375e-03
-1.029375e-09,2.437500e-03
-1.025375e-09,2.890625e-03
-1.021375e-09,2.546875e-03
-1.017375e-09,2.625000e-03
-1.013375e-09,3.109375e-03
-1.009375e-09,3.390625e-03
-1.005375e-09,3.281250e-03
-1.001375e-09,2.968750e-03
-9.973750e-10,3.078125e-03
-9.933750e-10,3.593750e-03
-9.893750e-10,3.296875e-03
-9.853750e-10,4.031250e-03
-9.813750e-10,4.343750e-03
-9.773750e-10,4.687500e-03
-9.733750e-10,3.593750e-03
-9.693750e-10,4.546875e-03
-9.653750e-10,3.875000e-03
-9.613750e-10,5.218750e-03
-9.573750e-10,5.156250e-03
-9.533750e-10,5.109375e-03
-9.493750e-10,4.640625e-03
-9.453750e-10,5.187500e-03
-9.413750e-10,4.921875e-03
-9.373750e-10,5.062500e-03
-9.333750e-10,5.625000e-03
-9.293750e-10,5.953125e-03
-9.253750e-10,5.890625e-03
-9.213750e-10,5.625000e-03
-9.173750e-10,5.750000e-03
-9.133750e-10,6.265625e-03
-9.093750e-10,5.968750e-03
-9.053750e-10,6.687500e-03
-9.013750e-10,7.000000e-03
-8.973750e-10,7.281250e-03
-8.933750e-10,6.171875e-03
-8.893750e-10,7.062500e-03
-8.853750e-10,6.312500e-03
-8.813750e-10,7.500000e-03
-8.773750e-10,7.375000e-03
-8.733750e-10,7.203125e-03
-8.693750e-10,6.640625e-03
-8.653750e-10,7.062500e-03
-8.613750e-10,6.671875e-03
-8.573750e-10,6.687500e-03
-8.533750e-10,7.093750e-03
-8.493750e-10,7.281250e-03
-8.453750e-10,7.078125e-03
-8.413750e-10,6.640625e-03
-8.373750e-10,6.609375e-03
-8.333750e-10,6.968750e-03
-8.293750e-10,6.515625e-03
-8.253750e-10,7.078125e-03
-8.213750e-10,7.234375e-03
-8.173750e-10,7.375000e-03
-8.133750e-10,6.171875e-03
-8.093750e-10,6.921875e-03
-8.053750e-10,6.046875e-03
-8.013750e-10,7.031250e-03
-7.973750e-10,6.843750e-03
-7.933750e-10,6.578125e-03
-7.893750e-10,5.968750e-03
-7.853750e-10,6.312500e-03
-7.813750e-10,5.843750e-03
-7.773750e-10,5.859375e-03
-7.733750e-10,6.218750e-03
-7.693750e-10,6.375000e-03
-7.653750e-10,6.218750e-03
-7.613750e-10,5.765625e-03
-7.573750e-10,5.734375e-03
-7.533750e-10,6.125000e-03
-7.493750e-10,5.703125e-03
-7.453750e-10,6.296875e-03
-7.413750e-10,6.500000e-03
-7.373750e-10,6.703125e-03
-7.333750e-10,5.578125e-03
-7.293750e-10,6.406250e-03
-7.253750e-10,5.625000e-03
-7.213750e-10,6.593750e-03
-7.173750e-10,6.515625e-03
-7.133750e-10,6.343750e-03
-7.093750e-10,5.859375e-03
-7.053750e-10,6.218750e-03
-7.013750e-10,5.765625e-03
-6.973750e-10,5.890625e-03
-6.933750e-10,6.265625e-03
-6.893750e-10,6.406250e-03
-6.853750e-10,6.390625e-03
-6.813750e-10,5.937500e-03
-6.773750e-10,5.875000e-03
-6.733750e-10,6.203125e-03
-6.693750e-10,5.796875e-03
-6.653750e-10,6.312500e-03
-6.613750e-10,6.468750e-03
-6.573750e-10,6.562500e-03
-6.533750e-10,5.296875e-03
-6.493750e-10,6.031250e-03
-6.453750e-10,5.203125e-03
-6.413750e-10,5.984375e-03
-6.373750e-10,5.765625e-03
-6.333750e-10,5.468750e-03
-6.293750e-10,4.812500e-03
-6.253750e-10,4.937500e-03
-6.213750e-10,4.250000e-03
-6.173750e-10,4.218750e-03
-6.133750e-10,4.375000e-03
-6.093750e-10,4.250000e-03
-6.053750e-10,4.109375e-03
-6.013750e-10,3.421875e-03
-5.973750e-10,3.140625e-03
-5.933750e-10,3.250000e-03
-5.893750e-10,2.703125e-03
-5.853750e-10,3.015625e-03
-5.813750e-10,2.984375e-03
-5.773750e-10,2.875000e-03
-5.733750e-10,1.421875e-03
-5.693750e-10,2.015625e-03
-5.653750e-10,1.171875e-03
-5.613750e-10,1.828125e-03
-5.573750e-10,1.593750e-03
-5.533750e-10,1.250000e-03
-5.493750e-10,5.625000e-04
-5.453750e-10,6.718750e-04
-5.413750e-10,1.562500e-05
-5.373750e-10,1.562500e-05
-5.333750e-10,2.968750e-04
-5.293750e-10,2.500000e-04
-5.253750e-10,2.500000e-04
-5.213750e-10,-2.656250e-04
-5.173750e-10,-3.437500e-04
-5.133750e-10,1.562500e-05
-5.093750e-10,-2.968750e-04
-5.053750e-10,3.125000e-04
-5.013750e-10,5.156250e-04
-4.973750e-10,7.187500e-04
-4.933750e-10,-4.375000e-04
-4.893750e-10,4.218750e-04
-4.853750e-10,-3.125000e-05
-4.813750e-10,9.843750e-04
-4.773750e-10,1.171875e-03
-4.733750e-10,1.125000e-03
-4.693750e-10,7.812500e-04
-4.653750e-10,1.250000e-03
-4.613750e-10,1.000000e-03
-4.573750e-10,1.265625e-03
-4.533750e-10,1.921875e-03
-4.493750e-10,2.156250e-03
-4.453750e-10,2.343750e-03
-4.413750e-10,2.140625e-03
-4.373750e-10,2.390625e-03
-4.333750e-10,3.015625e-03
-4.293750e-10,2.812500e-03
-4.253750e-10,3.671875e-03
-4.213750e-10,3.984375e-03
-4.173750e-10,4.296875e-03
-4.133750e-10,3.250000e-03
-4.093750e-10,4.078125e-03
-4.053750e-10,3.671875e-03
-4.013750e-10,4.687500e-03
-3.973750e-10,4.859375e-03
-3.933750e-10,4.671875e-03
-3.893750e-10,4.218750e-03
-3.853750e-10,4.593750e-03
-3.813750e-10,4.281250e-03
-3.773750e-10,4.250000e-03
-3.733750e-10,4.718750e-03
-3.693750e-10,4.750000e-03
-3.653750e-10,4.578125e-03
-3.613750e-10,4.156250e-03
-3.573750e-10,4.203125e-03
-3.533750e-10,4.593750e-03
-3.493750e-10,4.046875e-03
-3.453750e-10,4.609375e-03
-3.413750e-10,4.703125e-03
-3.373750e-10,4.734375e-03
-3.333750e-10,3.484375e-03
-3.293750e-10,3.984375e-03
-3.253750e-10,3.312500e-03
-3.213750e-10,4.156250e-03
-3.173750e-10,4.109375e-03
-3.133750e-10,3.734375e-03
-3.093750e-10,3.187500e-03
-3.053750e-10,3.468750e-03
-3.013750e-10,3.125000e-03
-2.973750e-10,2.984375e-03
-2.933750e-10,3.406250e-03
-2.893750e-10,3.468750e-03
-2.853750e-10,3.265625e-03
-2.813750e-10,3.000000e-03
-2.773750e-10,3.156250e-03
-2.733750e-10,3.703125e-03
-2.693750e-10,3.328125e-03
-2.653750e-10,4.031250e-03
-2.613750e-10,4.437500e-03
-2.573750e-10,4.703125e-03
-2.533750e-10,3.796875e-03
-2.493750e-10,4.562500e-03
-2.453750e-10,4.156250e-03
-2.413750e-10,5.343750e-03
-2.373750e-10,5.562500e-03
-2.333750e-10,5.546875e-03
-2.293750e-10,5.406250e-03
-2.253750e-10,6.000000e-03
-2.213750e-10,5.968750e-03
-2.173750e-10,6.125000e-03
-2.133750e-10,6.781250e-03
-2.093750e-10,7.093750e-03
-2.053750e-10,7.109375e-03
-2.013750e-10,7.093750e-03
-1.973750e-10,7.375000e-03
-1.933750e-10,7.984375e-03
-1.893750e-10,7.750000e-03
-1.853750e-10,8.468750e-03
-1.813750e-10,8.875000e-03
-1.773750e-10,9.093750e-03
-1.733750e-10,8.156250e-03
-1.693750e-10,8.781250e-03
-1.653750e-10,8.109375e-03
-1.613750e-10,9.140625e-03
-1.573750e-10,9.015625e-03
-1.533750e-10,8.718750e-03
-1.493750e-10,8.281250e-03
-1.453750e-10,8.515625e-03
-1.413750e-10,8.062500e-03
-1.373750e-10,7.859375e-03
-1.333750e-10,8.031250e-03
-1.293750e-10,7.937500e-03
-1.253750e-10,7.515625e-03
-1.213750e-10,7.140625e-03
-1.173750e-10,6.968750e-03
-1.133750e-10,7.109375e-03
-1.093750e-10,6.578125e-03
-1.053750e-10,7.000000e-03
-1.013750e-10,7.140625e-03
-9.737500e-11,7.265625e-03
-9.337500e-11,6.312500e-03
-8.937500e-11,6.968750e-03
-8.537500e-11,6.343750e-03
-8.137500e-11,7.687500e-03
-7.737500e-11,7.812500e-03
-7.337500e-11,8.062500e-03
-6.937500e-11,8.265625e-03
-6.537500e-11,9.328125e-03
-6.137500e-11,9.812500e-03
-5.737500e-11,1.078125e-02
-5.337500e-11,1.225000e-02
-4.937500e-11,1.371875e-02
-4.537500e-11,1.496875e-02
-4.137500e-11,1.650000e-02
-3.737500e-11,1.840625e-02
-3.337500e-11,2.075000e-02
-2.937500e-11,2.273438e-02
-2.537500e-11,2.589063e-02
-2.137500e-11,2.889063e-02
-1.737500e-11,3.221875e-02
-1.337500e-11,3.462500e-02
-9.375000e-12,3.878125e-02
-5.375000e-12,4.182813e-02
-1.375000e-12,4.709375e-02
2.625000e-12,5.118750e-02
6.625000e-12,5.570313e-02
1.062500e-11,6.025000e-02
1.462500e-11,6.581250e-02
1.862500e-11,7.093750e-02
2.262500e-11,7.662500e-02
2.662500e-11,8.293750e-02
3.062500e-11,8.940625e-02
3.462500e-11,9.554688e-02
3.862500e-11,1.020625e-01
4.262500e-11,1.089688e-01
4.662500e-11,1.162656e-01
5.062500e-11,1.232656e-01
5.462500e-11,1.313750e-01
5.862500e-11,1.392188e-01
6.262500e-11,1.474219e-01
6.662500e-11,1.545156e-01
7.062500e-11,1.632500e-01
7.462500e-11,1.706875e-01
7.862500e-11,1.801875e-01
8.262500e-11,1.882500e-01
8.662500e-11,1.966719e-01
9.062500e-11,2.047656e-01
9.462500e-11,2.136094e-01
9.862500e-11,2.218281e-01
1.026250e-10,2.302813e-01
1.066250e-10,2.390938e-01
1.106250e-10,2.478281e-01
1.146250e-10,2.557188e-01
1.186250e-10,2.637188e-01
1.226250e-10,2.717656e-01
1.266250e-10,2.798438e-01
1.306250e-10,2.873281e-01
1.346250e-10,2.954688e-01
1.386250e-10,3.029219e-01
1.426250e-10,3.104844e-01
1.466250e-10,3.164375e-01
1.506250e-10,3.237656e-01
1.546250e-10,3.293750e-01
1.586250e-10,3.366250e-01
1.626250e-10,3.420625e-01
1.666250e-10,3.475938e-01
1.706250e-10,3.523594e-01
1.746250e-10,3.575000e-01
1.786250e-10,3.617969e-01
1.826250e-10,3.659844e-01
1.866250e-10,3.701875e-01
1.906250e-10,3.741406e-01
1.946250e-10,3.768438e-01
1.986250e-10,3.794063e-01
2.026250e-10,3.818594e-01
2.066250e-10,3.841250e-01
2.106250e-10,3.856250e-01
2.146250e-10,3.875156e-01
2.186250e-10,3.885313e-01
2.226250e-10,3.896094e-01
2.266250e-10,3.888906e-01
2.306250e-10,3.895625e-01
2.346250e-10,3.884375e-01
2.386250e-10,3.887813e-01
2.426250e-10,3.873125e-01
2.466250e-10,3.859375e-01
2.506250e-10,3.837813e-01
2.546250e-10,3.820625e-01
2.586250e-10,3.796094e-01
2.626250e-10,3.770781e-01
2.666250e-10,3.745781e-01
2.706250e-10,3.720000e-01
2.746250e-10,3.682500e-01
2.786250e-10,3.644219e-01
2.826250e-10,3.607344e-01
2.866250e-10,3.570156e-01
2.906250e-10,3.526250e-01
2.946250e-10,3.488125e-01
2.986250e-10,3.443125e-01
3.026250e-10,3.400938e-01
3.066250e-10,3.342188e-01
3.106250e-10,3.300469e-01
3.146250e-10,3.243125e-01
3.186250e-10,3.201250e-01
3.226250e-10,3.144219e-01
3.266250e-10,3.090156e-01
3.306250e-10,3.030469e-01
3.346250e-10,2.978125e-01
3.386250e-10,2.920938e-01
3.426250e-10,2.864844e-01
3.466250e-10,2.810625e-01
3.506250e-10,2.757969e-01
3.546250e-10,2.696719e-01
3.586250e-10,2.636250e-01
3.626250e-10,2.579219e-01
3.666250e-10,2.524531e-01
3.706250e-10,2.464375e-01
3.746250e-10,2.411875e-01
3.786250e-10,2.355313e-01
3.826250e-10,2.302969e-01
3.866250e-10,2.235313e-01
3.906250e-10,2.187500e-01
3.946250e-10,2.125781e-01
3.986250e-10,2.080313e-01
4.026250e-10,2.022188e-01
4.066250e-10,1.967813e-01
4.106250e-10,1.909219e-01
4.146250e-10,1.860000e-01
4.186250e-10,1.807188e-01
4.226250e-10,1.756719e-01
4.266250e-10,1.708750e-01
4.306250e-10,1.663281e-01
4.346250e-10,1.611875e-01
4.386250e-10,1.561563e-01
4.426250e-10,1.515156e-01
4.466250e-10,1.472969e-01
4.506250e-10,1.425156e-01
4.546250e-10,1.385938e-01
4.586250e-10,1.344375e-01
4.626250e-10,1.306719e-01
4.666250e-10,1.255000e-01
4.706250e-10,1.224063e-01
4.746250e-10,1.180000e-01
4.786250e-10,1.152188e-01
4.826250e-10,1.113438e-01
4.866250e-10,1.077656e-01
4.906250e-10,1.038594e-01
4.946250e-10,1.009375e-01
4.986250e-10,9.765625e-02
5.026250e-10,9.468750e-02
5.066250e-10,9.193750e-02
5.106250e-10,8.946875e-02
5.146250e-10,8.657813e-02
5.186250e-10,8.373438e-02
5.226250e-10,8.126563e-02
5.266250e-10,7.926563e-02
5.306250e-10,7.667188e-02
5.346250e-10,7.487500e-02
5.386250e-10,7.296875e-02
5.426250e-10,7.131250e-02
5.466250e-10,6.832813e-02
5.506250e-10,6.737500e-02
5.546250e-10,6.510938e-02
5.586250e-10,6.445313e-02
5.626250e-10,6.273438e-02
5.666250e-10,6.109375e-02
5.706250e-10,5.921875e-02
5.746250e-10,5.826563e-02
5.786250e-10,5.676563e-02
5.826250e-10,5.562500e-02
5.866250e-10,5.467188e-02
5.906250e-10,5.390625e-02
5.946250e-10,5.273438e-02
5.986250e-10,5.143750e-02
6.026250e-10,5.056250e-02
6.066250e-10,4.996875e-02
6.106250e-10,4.875000e-02
6.146250e-10,4.826563e-02
6.186250e-10,4.762500e-02
6.226250e-10,4.701563e-02
6.266250e-10,4.515625e-02
6.306250e-10,4.509375e-02
6.346250e-10,4.378125e-02
6.386250e-10,4.398438e-02
6.426250e-10,4.306250e-02
6.466250e-10,4.201563e-02
6.506250e-10,4.073438e-02
6.546250e-10,4.035938e-02
6.586250e-10,3.921875e-02
6.626250e-10,3.839063e-02
6.666250e-10,3.779688e-02
6.706250e-10,3.728125e-02
6.746250e-10,3.634375e-02
6.786250e-10,3.515625e-02
6.826250e-10,3.443750e-02
6.866250e-10,3.384375e-02
6.906250e-10,3.264063e-02
6.946250e-10,3.215625e-02
6.986250e-10,3.153125e-02
7.026250e-10,3.073438e-02
7.066250e-10,2.882813e-02
7.106250e-10,2.860938e-02
7.146250e-10,2.718750e-02
7.186250e-10,2.731250e-02
7.226250e-10,2.628125e-02
7.266250e-10,2.515625e-02
7.306250e-10,2.370313e-02
7.346250e-10,2.331250e-02
7.386250e-10,2.203125e-02
7.426250e-10,2.109375e-02
7.466250e-10,2.053125e-02
7.506250e-10,2.001563e-02
7.546250e-10,1.914063e-02
7.586250e-10,1.796875e-02
7.626250e-10,1.737500e-02
7.666250e-10,1.692188e-02
7.706250e-10,1.590625e-02
7.746250e-10,1.571875e-02
7.786250e-10,1.540625e-02
7.826250e-10,1.482813e-02
7.866250e-10,1.332813e-02
7.906250e-10,1.342188e-02
7.946250e-10,1.240625e-02
7.986250e-10,1.307813e-02
8.026250e-10,1.256250e-02
8.066250e-10,1.204688e-02
8.106250e-10,1.110938e-02
8.146250e-10,1.131250e-02
8.186250e-10,1.064063e-02
8.226250e-10,1.034375e-02
8.266250e-10,1.051563e-02
8.306250e-10,1.060938e-02
8.346250e-10,1.048438e-02
8.386250e-10,9.984375e-03
8.426250e-10,1.004688e-02
8.466250e-10,1.037500e-02
8.506250e-10,1.009375e-02
8.546250e-10,1.064063e-02
8.586250e-10,1.100000e-02
8.626250e-10,1.106250e-02
8.666250e-10,1.026563e-02
8.706250e-10,1.093750e-02
8.746250e-10,1.046875e-02
8.786250e-10,1.179688e-02
8.826250e-10,1.184375e-02
8.866250e-10,1.187500e-02
8.906250e-10,1.142188e-02
8.946250e-10,1.200000e-02
8.986250e-10,1.176563e-02
9.026250e-10,1.189063e-02
9.066250e-10,1.243750e-02
9.106250e-10,1.265625e-02
9.146250e-10,1.279688e-02
9.186250e-10,1.250000e-02
9.226250e-10,1.262500e-02
9.266250e-10,1.314063e-02
9.306250e-10,1.295313e-02
9.346250e-10,1.354688e-02
9.386250e-10,1.382813e-02
9.426250e-10,1.385938e-02
9.466250e-10,1.300000e-02
9.506250e-10,1.356250e-02
9.546250e-10,1.284375e-02
9.586250e-10,1.403125e-02
9.626250e-10,1.387500e-02
9.666250e-10,1.364063e-02
9.706250e-10,1.298438e-02
9.746250e-10,1.323438e-02
9.786250e-10,1.275000e-02
9.826250e-10,1.265625e-02
9.866250e-10,1.293750e-02
9.906250e-10,1.275000e-02
9.946250e-10,1.256250e-02
9.986250e-10,1.201563e-02
1.002625e-09,1.173438e-02
1.006625e-09,1.203125e-02
1.010625e-09,1.157813e-02
1.014625e-09,1.187500e-02
1.018625e-09,1.185938e-02
1.022625e-09,1.167188e-02
1.026625e-09,1.064063e-02
1.030625e-09,1.104688e-02
1.034625e-09,1.010938e-02
1.038625e-09,1.112500e-02
1.042625e-09,1.084375e-02
1.046625e-09,1.048438e-02
1.050625e-09,9.781250e-03
1.054625e-09,9.984375e-03
1.058625e-09,9.500000e-03
1.062625e-09,9.421875e-03
1.066625e-09,9.781250e-03
1.070625e-09,9.625000e-03
1.074625e-09,9.500000e-03
1.078625e-09,9.078125e-03
1.082625e-09,8.921875e-03
1.086625e-09,9.375000e-03
1.090625e-09,9.093750e-03
1.094625e-09,9.578125e-03
1.098625e-09,9.781250e-03
1.102625e-09,9.859375e-03
1.106625e-09,9.078125e-03
1.110625e-09,9.828125e-03
1.114625e-09,9.140625e-03
1.118625e-09,1.040625e-02
1.122625e-09,1.037500e-02
1.126625e-09,1.031250e-02
1.130625e-09,9.890625e-03
1.134625e-09,1.042188e-02
1.138625e-09,1.021875e-02
1.142625e-09,1.042188e-02
1.146625e-09,1.104688e-02
1.150625e-09,1.123438e-02
1.154625e-09,1.131250e-02
1.158625e-09,1.114063e-02
1.162625e-09,1.123438e-02
1.166625e-09,1.189063e-02
1.170625e-09,1.176563e-02
1.174625e-09,1.246875e-02
1.178625e-09,1.284375e-02
1.182625e-09,1.312500e-02
1.186625e-09,1.242188e-02
1.190625e-09,1.332813e-02
1.194625e-09,1.271875e-02
1.198625e-09,1.403125e-02
1.202625e-09,1.403125e-02
1.206625e-09,1.398438e-02
1.210625e-09,1.354688e-02
1.214625e-09,1.406250e-02
1.218625e-09,1.379688e-02
1.222625e-09,1.392188e-02
1.226625e-09,1.445313e-02
1.230625e-09,1.460938e-02
1.234625e-09,1.451563e-02
1.238625e-09,1.418750e-02
1.242625e-09,1.415625e-02
1.246625e-09,1.460938e-02
1.250625e-09,1.426563e-02
1.254625e-09,1.478125e-02
1.258625e-09,1.495313e-02
1.262625e-09,1.503125e-02
1.266625e-09,1.400000e-02
1.270625e-09,1.470313e-02
1.274625e-09,1.382813e-02
1.278625e-09,1.489063e-02
1.282625e-09,1.459375e-02
1.286625e-09,1.428125e-02
1.290625e-09,1.354688e-02
1.294625e-09,1.379688e-02
1.298625e-09,1.325000e-02
1.302625e-09,1.309375e-02
1.306625e-09,1.332813e-02
1.310625e-09,1.328125e-02
1.314625e-09,1.290625e-02
1.318625e-09,1.229688e-02
1.322625e-09,1.204688e-02
1.326625e-09,1.225000e-02
1.330625e-09,1.165625e-02
1.334625e-09,1.198438e-02
1.338625e-09,1.195313e-02
1.342625e-09,1.187500e-02
1.346625e-09,1.056250e-02
1.350625e-09,1.110938e-02
1.354625e-09,1.007813e-02
1.358625e-09,1.101563e-02
1.362625e-09,1.059375e-02
1.366625e-09,1.015625e-02
1.370625e-09,9.343750e-03
1.374625e-09,9.515625e-03
1.378625e-09,8.906250e-03
1.382625e-09,8.687500e-03
1.386625e-09,8.890625e-03
1.390625e-09,8.859375e-03
1.394625e-09,8.484375e-03
1.398625e-09,7.906250e-03
1.402625e-09,7.718750e-03
1.406625e-09,7.968750e-03
1.410625e-09,7.437500e-03
1.414625e-09,7.875000e-03
1.418625e-09,7.937500e-03
1.422625e-09,8.000000e-03
1.426625e-09,6.765625e-03
1.430625e-09,7.468750e-03
1.434625e-09,6.593750e-03
1.438625e-09,7.718750e-03
1.442625e-09,7.468750e-03
1.446625e-09,7.218750e-03
1.450625e-09,6.593750e-03
1.454625e-09,6.968750e-03
1.458625e-09,6.578125e-03
1.462625e-09,6.593750e-03
1.466625e-09,7.015625e-03
1.470625e-09,7.218750e-03
1.474625e-09,7.062500e-03
1.478625e-09,6.718750e-03
1.482625e-09,6.781250e-03
1.486625e-09,7.250000e-03
1.490625e-09,6.937500e-03
1.494625e-09,7.625000e-03
1.498625e-09,7.906250e-03
1.502625e-09,8.203125e-03
1.506625e-09,7.156250e-03
1.510625e-09,8.062500e-03
1.514625e-09,7.375000e-03
1.518625e-09,8.703125e-03
1.522625e-09,8.625000e-03
1.526625e-09,8.562500e-03
1.530625e-09,8.078125e-03
1.534625e-09,8.625000e-03
1.538625e-09,8.343750e-03
1.542625e-09,8.484375e-03
1.546625e-09,9.015625e-03
1.550625e-09,9.328125e-03
1.554625e-09,9.250000e-03
1.558625e-09,8.968750e-03
1.562625e-09,9.078125e-03
1.566625e-09,9.593750e-03
1.570625e-09,9.296875e-03
1.574625e-09,1.000000e-02
1.578625e-09,1.029688e-02
1.582625e-09,1.057813e-02
1.586625e-09,9.468750e-03
1.590625e-09,1.035938e-02
1.594625e-09,9.625000e-03
1.598625e-09,1.087500e-02
1.602625e-09,1.073438e-02
1.606625e-09,1.057813e-02
1.610625e-09,1.001563e-02
1.614625e-09,1.045313e-02
1.618625e-09,1.007813e-02
1.622625e-09,1.010938e-02
1.626625e-09,1.051563e-02
1.630625e-09,1.073438e-02
1.634625e-09,1.053125e-02
1.638625e-09,1.012500e-02
1.642625e-09,1.012500e-02
1.646625e-09,1.051563e-02
1.650625e-09,1.009375e-02
1.654625e-09,1.067188e-02
1.658625e-09,1.085938e-02
1.662625e-09,1.103125e-02
1.666625e-09,9.812500e-03
1.670625e-09,1.057813e-02
1.674625e-09,9.750000e-03
1.678625e-09,1.092188e-02
1.682625e-09,1.068750e-02
1.686625e-09,1.045313e-02
1.690625e-09,9.812500e-03
1.694625e-09,1.018750e-02
1.698625e-09,9.750000e-03
1.702625e-09,9.718750e-03
1.706625e-09,1.009375e-02
1.710625e-09,1.025000e-02
1.714625e-09,1.003125e-02
1.718625e-09,9.593750e-03
1.722625e-09,9.562500e-03
1.726625e-09,9.937500e-03
1.730625e-09,9.515625e-03
1.734625e-09,1.009375e-02
1.738625e-09,1.026563e-02
1.742625e-09,1.043750e-02
1.746625e-09,9.203125e-03
1.750625e-09,9.984375e-03
1.754625e-09,9.140625e-03
1.758625e-09,1.031250e-02
