Measurements-streak-laser-independent/Photodiode-on-Tek-12bit-4GHz/Tek000_ch1_20190613133055428.csv

Model,MSO64
Waveform Type,ANALOG
Horizontal Units,s
Sample Interval,4.000000e-12
Record Length,1000
Zero Index,310.078125
Vertical Units,V

TIME,CH1
-1.240313e-09,5.734375e-03
-1.236313e-09,6.546875e-03
-1.232313e-09,6.968750e-03
-1.228313e-09,7.390625e-03
-1.224313e-09,6.406250e-03
-1.220313e-09,7.453125e-03
-1.216312e-09,6.875000e-03
-1.212312e-09,8.343750e-03
-1.208312e-09,8.375000e-03
-1.204312e-09,8.406250e-03
-1.200312e-09,8.031250e-03
-1.196312e-09,8.671875e-03
-1.192312e-09,8.500000e-03
-1.188312e-09,8.718750e-03
-1.184312e-09,9.328125e-03
-1.180313e-09,9.750000e-03
-1.176313e-09,9.734375e-03
-1.172313e-09,9.500000e-03
-1.168313e-09,9.671875e-03
-1.164313e-09,1.023438e-02
-1.160313e-09,9.968750e-03
-1.156312e-09,1.070313e-02
-1.152312e-09,1.100000e-02
-1.148312e-09,1.129688e-02
-1.144312e-09,1.014063e-02
-1.140312e-09,1.100000e-02
-1.136312e-09,1.021875e-02
-1.132312e-09,1.143750e-02
-1.128312e-09,1.123438e-02
-1.124312e-09,1.100000e-02
-1.120313e-09,1.032813e-02
-1.116313e-09,1.067188e-02
-1.112313e-09,1.017188e-02
-1.108313e-09,1.006250e-02
-1.104313e-09,1.034375e-02
-1.100313e-09,1.040625e-02
-1.096312e-09,1.003125e-02
-1.092312e-09,9.453125e-03
-1.088312e-09,9.265625e-03
-1.084312e-09,9.468750e-03
-1.080312e-09,8.843750e-03
-1.076312e-09,9.218750e-03
-1.072312e-09,9.171875e-03
-1.068312e-09,9.140625e-03
-1.064312e-09,7.671875e-03
-1.060313e-09,8.218750e-03
-1.056313e-09,7.140625e-03
-1.052313e-09,8.093750e-03
-1.048313e-09,7.625000e-03
-1.044313e-09,7.156250e-03
-1.040313e-09,6.296875e-03
-1.036312e-09,6.453125e-03
-1.032312e-09,5.796875e-03
-1.028312e-09,5.546875e-03
-1.024312e-09,5.718750e-03
-1.020312e-09,5.703125e-03
-1.016312e-09,5.281250e-03
-1.012312e-09,4.671875e-03
-1.008312e-09,4.484375e-03
-1.004312e-09,4.718750e-03
-1.000313e-09,4.140625e-03
-9.963125e-10,4.593750e-03
-9.923125e-10,4.671875e-03
-9.883125e-10,4.750000e-03
-9.843125e-10,3.421875e-03
-9.803125e-10,4.156250e-03
-9.763125e-10,3.265625e-03
-9.723125e-10,4.406250e-03
-9.683125e-10,4.156250e-03
-9.643125e-10,3.921875e-03
-9.603125e-10,3.296875e-03
-9.563125e-10,3.703125e-03
-9.523125e-10,3.296875e-03
-9.483125e-10,3.312500e-03
-9.443125e-10,3.734375e-03
-9.403125e-10,3.968750e-03
-9.363125e-10,3.812500e-03
-9.323125e-10,3.437500e-03
-9.283125e-10,3.484375e-03
-9.243125e-10,3.937500e-03
-9.203125e-10,3.593750e-03
-9.163125e-10,4.250000e-03
-9.123125e-10,4.500000e-03
-9.083125e-10,4.750000e-03
-9.043125e-10,3.578125e-03
-9.003125e-10,4.437500e-03
-8.963125e-10,3.656250e-03
-8.923125e-10,4.812500e-03
-8.883125e-10,4.640625e-03
-8.843125e-10,4.437500e-03
-8.803125e-10,3.828125e-03
-8.763125e-10,4.218750e-03
-8.723125e-10,3.781250e-03
-8.683125e-10,3.750000e-03
-8.643125e-10,4.093750e-03
-8.603125e-10,4.234375e-03
-8.563125e-10,3.953125e-03
-8.523125e-10,3.453125e-03
-8.483125e-10,3.343750e-03
-8.443125e-10,3.625000e-03
-8.403125e-10,3.093750e-03
-8.363125e-10,3.546875e-03
-8.323125e-10,3.593750e-03
-8.283125e-10,3.625000e-03
-8.243125e-10,2.296875e-03
-8.203125e-10,2.921875e-03
-8.163125e-10,1.921875e-03
-8.123125e-10,2.796875e-03
-8.083125e-10,2.453125e-03
-8.043125e-10,2.046875e-03
-8.003125e-10,1.296875e-03
-7.963125e-10,1.500000e-03
-7.923125e-10,8.906250e-04
-7.883125e-10,7.656250e-04
-7.843125e-10,9.687500e-04
-7.803125e-10,9.843750e-04
-7.763125e-10,6.875000e-04
-7.723125e-10,1.250000e-04
-7.683125e-10,-3.125000e-05
-7.643125e-10,2.343750e-04
-7.603125e-10,-2.812500e-04
-7.563125e-10,2.187500e-04
-7.523125e-10,3.437500e-04
-7.483125e-10,4.843750e-04
-7.443125e-10,-6.875000e-04
-7.403125e-10,9.375000e-05
-7.363125e-10,-6.875000e-04
-7.323125e-10,3.125000e-04
-7.283125e-10,2.500000e-04
-7.243125e-10,1.250000e-04
-7.203125e-10,-3.125000e-04
-7.163125e-10,1.562500e-04
-7.123125e-10,-1.562500e-04
-7.083125e-10,9.375000e-05
-7.043125e-10,6.406250e-04
-7.003125e-10,9.843750e-04
-6.963125e-10,1.156250e-03
-6.923125e-10,9.375000e-04
-6.883125e-10,1.156250e-03
-6.843125e-10,1.781250e-03
-6.803125e-10,1.671875e-03
-6.763125e-10,2.531250e-03
-6.723125e-10,3.046875e-03
-6.683125e-10,3.515625e-03
-6.643125e-10,2.656250e-03
-6.603125e-10,3.796875e-03
-6.563125e-10,3.390625e-03
-6.523125e-10,4.625000e-03
-6.483125e-10,4.875000e-03
-6.443125e-10,5.031250e-03
-6.403125e-10,4.843750e-03
-6.363125e-10,5.484375e-03
-6.323125e-10,5.296875e-03
-6.283125e-10,5.734375e-03
-6.243125e-10,6.390625e-03
-6.203125e-10,6.765625e-03
-6.163125e-10,7.109375e-03
-6.123125e-10,6.906250e-03
-6.083125e-10,7.093750e-03
-6.043125e-10,7.671875e-03
-6.003125e-10,7.546875e-03
-5.963125e-10,8.296875e-03
-5.923125e-10,8.687500e-03
-5.883125e-10,8.984375e-03
-5.843125e-10,7.906250e-03
-5.803125e-10,8.843750e-03
-5.763125e-10,8.296875e-03
-5.723125e-10,9.265625e-03
-5.683125e-10,9.281250e-03
-5.643125e-10,9.171875e-03
-5.603125e-10,8.671875e-03
-5.563125e-10,8.968750e-03
-5.523125e-10,8.453125e-03
-5.483125e-10,8.546875e-03
-5.443125e-10,8.890625e-03
-5.403125e-10,8.875000e-03
-5.363125e-10,8.859375e-03
-5.323125e-10,8.296875e-03
-5.283125e-10,8.156250e-03
-5.243125e-10,8.406250e-03
-5.203125e-10,7.937500e-03
-5.163125e-10,8.375000e-03
-5.123125e-10,8.375000e-03
-5.083125e-10,8.328125e-03
-5.043125e-10,6.921875e-03
-5.003125e-10,7.500000e-03
-4.963125e-10,6.718750e-03
-4.923125e-10,7.406250e-03
-4.883125e-10,7.203125e-03
-4.843125e-10,6.781250e-03
-4.803125e-10,6.031250e-03
-4.763125e-10,6.093750e-03
-4.723125e-10,5.406250e-03
-4.683125e-10,5.234375e-03
-4.643125e-10,5.437500e-03
-4.603125e-10,5.234375e-03
-4.563125e-10,4.968750e-03
-4.523125e-10,4.296875e-03
-4.483125e-10,4.078125e-03
-4.443125e-10,4.250000e-03
-4.403125e-10,3.609375e-03
-4.363125e-10,4.015625e-03
-4.323125e-10,3.921875e-03
-4.283125e-10,3.812500e-03
-4.243125e-10,2.359375e-03
-4.203125e-10,2.812500e-03
-4.163125e-10,2.015625e-03
-4.123125e-10,2.703125e-03
-4.083125e-10,2.531250e-03
-4.043125e-10,2.031250e-03
-4.003125e-10,1.281250e-03
-3.963125e-10,1.390625e-03
-3.923125e-10,8.281250e-04
-3.883125e-10,5.937500e-04
-3.843125e-10,8.593750e-04
-3.803125e-10,7.187500e-04
-3.763125e-10,4.062500e-04
-3.723125e-10,-1.562500e-04
-3.683125e-10,-2.187500e-04
-3.643125e-10,9.375000e-05
-3.603125e-10,-5.000000e-04
-3.563125e-10,3.125000e-05
-3.523125e-10,1.093750e-04
-3.483125e-10,1.562500e-04
-3.443125e-10,-1.093750e-03
-3.403125e-10,-5.312500e-04
-3.363125e-10,-1.156250e-03
-3.323125e-10,-2.187500e-04
-3.283125e-10,-2.031250e-04
-3.243125e-10,-4.687500e-04
-3.203125e-10,-9.062500e-04
-3.163125e-10,-5.312500e-04
-3.123125e-10,-7.343750e-04
-3.083125e-10,-7.500000e-04
-3.043125e-10,-1.718750e-04
-3.003125e-10,3.125000e-05
-2.963125e-10,-1.562500e-05
-2.923125e-10,-1.562500e-04
-2.883125e-10,1.406250e-04
-2.843125e-10,8.281250e-04
-2.803125e-10,6.093750e-04
-2.763125e-10,1.453125e-03
-2.723125e-10,1.984375e-03
-2.683125e-10,2.406250e-03
-2.643125e-10,1.609375e-03
-2.603125e-10,2.500000e-03
-2.563125e-10,2.203125e-03
-2.523125e-10,3.515625e-03
-2.483125e-10,3.843750e-03
-2.443125e-10,3.921875e-03
-2.403125e-10,3.843750e-03
-2.363125e-10,4.531250e-03
-2.323125e-10,4.562500e-03
-2.283125e-10,4.796875e-03
-2.243125e-10,5.515625e-03
-2.203125e-10,5.906250e-03
-2.163125e-10,5.968750e-03
-2.123125e-10,5.984375e-03
-2.083125e-10,6.296875e-03
-2.043125e-10,6.953125e-03
-2.003125e-10,6.750000e-03
-1.963125e-10,7.468750e-03
-1.923125e-10,7.890625e-03
-1.883125e-10,8.140625e-03
-1.843125e-10,7.187500e-03
-1.803125e-10,7.843750e-03
-1.763125e-10,7.171875e-03
-1.723125e-10,8.203125e-03
-1.683125e-10,8.062500e-03
-1.643125e-10,7.765625e-03
-1.603125e-10,7.296875e-03
-1.563125e-10,7.515625e-03
-1.523125e-10,7.031250e-03
-1.483125e-10,6.796875e-03
-1.443125e-10,6.937500e-03
-1.403125e-10,6.812500e-03
-1.363125e-10,6.343750e-03
-1.323125e-10,5.890625e-03
-1.283125e-10,5.656250e-03
-1.243125e-10,5.750000e-03
-1.203125e-10,5.140625e-03
-1.163125e-10,5.468750e-03
-1.123125e-10,5.500000e-03
-1.083125e-10,5.500000e-03
-1.043125e-10,4.390625e-03
-1.003125e-10,4.906250e-03
-9.631250e-11,4.140625e-03
-9.231250e-11,5.296875e-03
-8.831250e-11,5.234375e-03
-8.431250e-11,5.250000e-03
-8.031250e-11,5.187500e-03
-7.631250e-11,6.000000e-03
-7.231250e-11,6.187500e-03
-6.831250e-11,6.859375e-03
-6.431250e-11,8.000000e-03
-6.031250e-11,9.109375e-03
-5.631250e-11,9.968750e-03
-5.231250e-11,1.107813e-02
-4.831250e-11,1.256250e-02
-4.431250e-11,1.446875e-02
-4.031250e-11,1.595313e-02
-3.631250e-11,1.860938e-02
-3.231250e-11,2.107813e-02
-2.831250e-11,2.384375e-02
-2.431250e-11,2.564063e-02
-2.031250e-11,2.921875e-02
-1.631250e-11,3.165625e-02
-1.231250e-11,3.626563e-02
-8.312500e-12,3.971875e-02
-4.312500e-12,4.354688e-02
-3.125000e-13,4.739063e-02
3.687500e-12,5.225000e-02
7.687500e-12,5.665625e-02
1.168750e-11,6.162500e-02
1.568750e-11,6.720313e-02
1.968750e-11,7.292188e-02
2.368750e-11,7.832813e-02
2.768750e-11,8.410938e-02
3.168750e-11,9.028125e-02
3.568750e-11,9.685938e-02
3.968750e-11,1.031250e-01
4.368750e-11,1.105156e-01
4.768750e-11,1.176719e-01
5.168750e-11,1.251719e-01
5.568750e-11,1.315938e-01
5.968750e-11,1.396875e-01
6.368750e-11,1.465156e-01
6.768750e-11,1.554219e-01
7.168750e-11,1.629219e-01
7.568750e-11,1.708125e-01
7.968750e-11,1.783906e-01
8.368750e-11,1.867656e-01
8.768750e-11,1.945313e-01
9.168750e-11,2.025938e-01
9.568750e-11,2.110313e-01
9.968750e-11,2.194375e-01
1.036875e-10,2.270781e-01
1.076875e-10,2.348281e-01
1.116875e-10,2.426719e-01
1.156875e-10,2.506094e-01
1.196875e-10,2.579531e-01
1.236875e-10,2.660313e-01
1.276875e-10,2.734844e-01
1.316875e-10,2.810313e-01
1.356875e-10,2.870313e-01
1.396875e-10,2.944531e-01
1.436875e-10,3.001875e-01
1.476875e-10,3.076250e-01
1.516875e-10,3.132813e-01
1.556875e-10,3.190469e-01
1.596875e-10,3.240625e-01
1.636875e-10,3.295156e-01
1.676875e-10,3.341406e-01
1.716875e-10,3.387031e-01
1.756875e-10,3.432969e-01
1.796875e-10,3.476563e-01
1.836875e-10,3.508125e-01
1.876875e-10,3.538125e-01
1.916875e-10,3.567344e-01
1.956875e-10,3.595156e-01
1.996875e-10,3.615000e-01
2.036875e-10,3.639219e-01
2.076875e-10,3.654688e-01
2.116875e-10,3.670625e-01
2.156875e-10,3.668594e-01
2.196875e-10,3.680625e-01
2.236875e-10,3.674688e-01
2.276875e-10,3.683594e-01
2.316875e-10,3.674375e-01
2.356875e-10,3.665938e-01
2.396875e-10,3.649531e-01
2.436875e-10,3.637500e-01
2.476875e-10,3.617969e-01
2.516875e-10,3.597813e-01
2.556875e-10,3.577656e-01
2.596875e-10,3.556563e-01
2.636875e-10,3.523906e-01
2.676875e-10,3.490313e-01
2.716875e-10,3.457656e-01
2.756875e-10,3.425000e-01
2.796875e-10,3.385313e-01
2.836875e-10,3.351406e-01
2.876875e-10,3.310469e-01
2.916875e-10,3.272031e-01
2.956875e-10,3.216875e-01
2.996875e-10,3.178750e-01
3.036875e-10,3.124844e-01
3.076875e-10,3.086563e-01
3.116875e-10,3.033125e-01
3.156875e-10,2.982188e-01
3.196875e-10,2.925625e-01
3.236875e-10,2.876406e-01
3.276875e-10,2.822188e-01
3.316875e-10,2.769063e-01
3.356875e-10,2.717813e-01
3.396875e-10,2.667969e-01
3.436875e-10,2.609688e-01
3.476875e-10,2.551875e-01
3.516875e-10,2.497656e-01
3.556875e-10,2.445781e-01
3.596875e-10,2.388281e-01
3.636875e-10,2.338594e-01
3.676875e-10,2.284844e-01
3.716875e-10,2.235000e-01
3.756875e-10,2.170000e-01
3.796875e-10,2.124844e-01
3.836875e-10,2.065781e-01
3.876875e-10,2.023125e-01
3.916875e-10,1.967813e-01
3.956875e-10,1.915938e-01
3.996875e-10,1.859844e-01
4.036875e-10,1.813438e-01
4.076875e-10,1.762969e-01
4.116875e-10,1.715000e-01
4.156875e-10,1.669688e-01
4.196875e-10,1.626719e-01
4.236875e-10,1.577969e-01
4.276875e-10,1.530000e-01
4.316875e-10,1.485938e-01
4.356875e-10,1.446094e-01
4.396875e-10,1.400469e-01
4.436875e-10,1.363594e-01
4.476875e-10,1.324375e-01
4.516875e-10,1.288750e-01
4.556875e-10,1.238906e-01
4.596875e-10,1.210000e-01
4.636875e-10,1.167656e-01
4.676875e-10,1.141875e-01
4.716875e-10,1.104688e-01
4.756875e-10,1.070313e-01
4.796875e-10,1.032656e-01
4.836875e-10,1.004844e-01
4.876875e-10,9.731250e-02
4.916875e-10,9.443750e-02
4.956875e-10,9.182813e-02
4.996875e-10,8.943750e-02
5.036875e-10,8.662500e-02
5.076875e-10,8.382813e-02
5.116875e-10,8.142188e-02
5.156875e-10,7.946875e-02
5.196875e-10,7.690625e-02
5.236875e-10,7.515625e-02
5.276875e-10,7.328125e-02
5.316875e-10,7.162500e-02
5.356875e-10,6.864063e-02
5.396875e-10,6.768750e-02
5.436875e-10,6.539063e-02
5.476875e-10,6.473438e-02
5.516875e-10,6.298438e-02
5.556875e-10,6.131250e-02
5.596875e-10,5.940625e-02
5.636875e-10,5.840625e-02
5.676875e-10,5.687500e-02
5.716875e-10,5.568750e-02
5.756875e-10,5.468750e-02
5.796875e-10,5.387500e-02
5.836875e-10,5.264063e-02
5.876875e-10,5.131250e-02
5.916875e-10,5.037500e-02
5.956875e-10,4.975000e-02
5.996875e-10,4.846875e-02
6.036875e-10,4.795313e-02
6.076875e-10,4.725000e-02
6.116875e-10,4.662500e-02
6.156875e-10,4.470313e-02
6.196875e-10,4.462500e-02
6.236875e-10,4.325000e-02
6.276875e-10,4.342188e-02
6.316875e-10,4.246875e-02
6.356875e-10,4.140625e-02
6.396875e-10,4.009375e-02
6.436875e-10,3.970313e-02
6.476875e-10,3.854688e-02
6.516875e-10,3.770313e-02
6.556875e-10,3.710938e-02
6.596875e-10,3.657813e-02
6.636875e-10,3.562500e-02
6.676875e-10,3.443750e-02
6.716875e-10,3.370313e-02
6.756875e-10,3.312500e-02
6.796875e-10,3.192188e-02
6.836875e-10,3.145313e-02
6.876875e-10,3.081250e-02
6.916875e-10,3.004688e-02
6.956875e-10,2.814063e-02
6.996875e-10,2.793750e-02
7.036875e-10,2.651563e-02
7.076875e-10,2.667188e-02
7.116875e-10,2.564063e-02
7.156875e-10,2.454688e-02
7.196875e-10,2.310938e-02
7.236875e-10,2.273438e-02
7.276875e-10,2.148438e-02
7.316875e-10,2.057813e-02
7.356875e-10,2.006250e-02
7.396875e-10,1.957813e-02
7.436875e-10,1.875000e-02
7.476875e-10,1.760938e-02
7.516875e-10,1.706250e-02
7.556875e-10,1.667188e-02
7.596875e-10,1.571875e-02
7.636875e-10,1.557813e-02
7.676875e-10,1.532813e-02
7.716875e-10,1.484375e-02
7.756875e-10,1.340625e-02
7.796875e-10,1.360938e-02
7.836875e-10,1.267188e-02
7.876875e-10,1.343750e-02
7.916875e-10,1.301563e-02
7.956875e-10,1.260938e-02
7.996875e-10,1.178125e-02
8.036875e-10,1.210938e-02
8.076875e-10,1.156250e-02
8.116875e-10,1.142188e-02
8.156875e-10,1.173438e-02
8.196875e-10,1.196875e-02
8.236875e-10,1.198438e-02
8.276875e-10,1.164063e-02
8.316875e-10,1.185938e-02
8.356875e-10,1.234375e-02
8.396875e-10,1.223438e-02
8.436875e-10,1.295313e-02
8.476875e-10,1.348438e-02
8.516875e-10,1.371875e-02
8.556875e-10,1.306250e-02
8.596875e-10,1.393750e-02
8.636875e-10,1.360938e-02
8.676875e-10,1.510938e-02
8.716875e-10,1.529688e-02
8.756875e-10,1.546875e-02
8.796875e-10,1.517188e-02
8.836875e-10,1.587500e-02
8.876875e-10,1.576563e-02
8.916875e-10,1.600000e-02
8.956875e-10,1.665625e-02
8.996875e-10,1.700000e-02
9.036875e-10,1.720313e-02
9.076875e-10,1.698438e-02
9.116875e-10,1.715625e-02
9.156875e-10,1.771875e-02
9.196875e-10,1.754688e-02
9.236875e-10,1.815625e-02
9.276875e-10,1.842188e-02
9.316875e-10,1.843750e-02
9.356875e-10,1.753125e-02
9.396875e-10,1.803125e-02
9.436875e-10,1.725000e-02
9.476875e-10,1.835938e-02
9.516875e-10,1.809375e-02
9.556875e-10,1.773438e-02
9.596875e-10,1.693750e-02
9.636875e-10,1.703125e-02
9.676875e-10,1.639063e-02
9.716875e-10,1.610938e-02
9.756875e-10,1.620313e-02
9.796875e-10,1.582813e-02
9.836875e-10,1.542188e-02
9.876875e-10,1.464063e-02
9.916875e-10,1.415625e-02
9.956875e-10,1.421875e-02
9.996875e-10,1.351563e-02
1.003687e-09,1.359375e-02
1.007687e-09,1.332813e-02
1.011688e-09,1.290625e-02
1.015688e-09,1.160938e-02
1.019688e-09,1.178125e-02
1.023688e-09,1.060938e-02
1.027688e-09,1.140625e-02
1.031688e-09,1.089063e-02
1.035687e-09,1.031250e-02
1.039687e-09,9.406250e-03
1.043687e-09,9.421875e-03
1.047687e-09,8.750000e-03
1.051687e-09,8.500000e-03
1.055687e-09,8.687500e-03
1.059687e-09,8.406250e-03
1.063687e-09,8.140625e-03
1.067687e-09,7.593750e-03
1.071688e-09,7.343750e-03
1.075688e-09,7.718750e-03
1.079688e-09,7.343750e-03
1.083688e-09,7.781250e-03
1.087688e-09,7.953125e-03
1.091688e-09,8.000000e-03
1.095687e-09,7.187500e-03
1.099687e-09,7.937500e-03
1.103687e-09,7.265625e-03
1.107687e-09,8.546875e-03
1.111687e-09,8.546875e-03
1.115687e-09,8.515625e-03
1.119687e-09,8.156250e-03
1.123687e-09,8.734375e-03
1.127687e-09,8.593750e-03
1.131688e-09,8.875000e-03
1.135688e-09,9.562500e-03
1.139688e-09,9.828125e-03
1.143688e-09,9.968750e-03
1.147688e-09,9.875000e-03
1.151688e-09,1.003125e-02
1.155687e-09,1.075000e-02
1.159687e-09,1.068750e-02
1.163687e-09,1.143750e-02
1.167687e-09,1.185938e-02
1.171687e-09,1.215625e-02
1.175687e-09,1.146875e-02
1.179687e-09,1.239063e-02
1.183687e-09,1.178125e-02
1.187687e-09,1.307813e-02
1.191688e-09,1.303125e-02
1.195688e-09,1.295313e-02
1.199688e-09,1.245313e-02
1.203688e-09,1.290625e-02
1.207688e-09,1.256250e-02
1.211688e-09,1.259375e-02
1.215687e-09,1.298438e-02
1.219687e-09,1.303125e-02
1.223687e-09,1.279688e-02
1.227687e-09,1.232813e-02
1.231687e-09,1.212500e-02
1.235687e-09,1.240625e-02
1.239687e-09,1.189063e-02
1.243687e-09,1.223438e-02
1.247687e-09,1.220313e-02
1.251687e-09,1.209375e-02
1.255688e-09,1.085938e-02
1.259688e-09,1.135938e-02
1.263688e-09,1.028125e-02
1.267688e-09,1.115625e-02
1.271688e-09,1.067188e-02
1.275687e-09,1.017188e-02
1.279687e-09,9.281250e-03
1.283687e-09,9.359375e-03
1.287687e-09,8.656250e-03
1.291687e-09,8.375000e-03
1.295687e-09,8.484375e-03
1.299687e-09,8.328125e-03
1.303687e-09,7.875000e-03
1.307687e-09,7.203125e-03
1.311687e-09,6.906250e-03
1.315688e-09,7.093750e-03
1.319688e-09,6.484375e-03
1.323688e-09,6.843750e-03
1.327688e-09,6.859375e-03
1.331688e-09,6.843750e-03
1.335687e-09,5.640625e-03
1.339687e-09,6.312500e-03
1.343687e-09,5.437500e-03
1.347687e-09,6.546875e-03
1.351687e-09,6.328125e-03
1.355687e-09,6.109375e-03
1.359687e-09,5.531250e-03
1.363687e-09,5.984375e-03
1.367687e-09,5.656250e-03
1.371687e-09,5.765625e-03
1.375688e-09,6.296875e-03
1.379688e-09,6.609375e-03
1.383688e-09,6.593750e-03
1.387688e-09,6.390625e-03
1.391688e-09,6.578125e-03
1.395687e-09,7.218750e-03
1.399687e-09,7.078125e-03
1.403687e-09,7.921875e-03
1.407687e-09,8.390625e-03
1.411687e-09,8.875000e-03
1.415687e-09,8.046875e-03
1.419687e-09,9.140625e-03
1.423687e-09,8.656250e-03
1.427687e-09,1.017188e-02
1.431687e-09,1.028125e-02
1.435688e-09,1.040625e-02
1.439688e-09,1.012500e-02
1.443688e-09,1.084375e-02
1.447688e-09,1.075000e-02
1.451688e-09,1.104688e-02
1.455687e-09,1.175000e-02
1.459687e-09,1.220313e-02
1.463687e-09,1.228125e-02
1.467687e-09,1.212500e-02
1.471687e-09,1.234375e-02
1.475687e-09,1.296875e-02
1.479687e-09,1.276563e-02
1.483687e-09,1.354688e-02
1.487687e-09,1.389063e-02
1.491687e-09,1.421875e-02
1.495688e-09,1.315625e-02
1.499688e-09,1.404688e-02
1.503688e-09,1.331250e-02
1.507688e-09,1.456250e-02
1.511688e-09,1.437500e-02
1.515687e-09,1.417188e-02
1.519687e-09,1.354688e-02
1.523687e-09,1.389063e-02
1.527687e-09,1.342188e-02
1.531687e-09,1.332813e-02
1.535687e-09,1.362500e-02
1.539687e-09,1.368750e-02
1.543687e-09,1.334375e-02
1.547687e-09,1.276563e-02
1.551687e-09,1.257813e-02
1.555688e-09,1.278125e-02
1.559688e-09,1.217188e-02
1.563688e-09,1.254688e-02
1.567688e-09,1.251563e-02
1.571688e-09,1.245313e-02
1.575687e-09,1.101563e-02
1.579687e-09,1.156250e-02
1.583687e-09,1.048438e-02
1.587687e-09,1.142188e-02
1.591687e-09,1.095313e-02
1.595687e-09,1.046875e-02
1.599687e-09,9.593750e-03
1.603687e-09,9.718750e-03
1.607687e-09,9.062500e-03
1.611687e-09,8.796875e-03
1.615688e-09,8.937500e-03
1.619688e-09,8.875000e-03
1.623688e-09,8.437500e-03
1.627688e-09,7.796875e-03
1.631688e-09,7.562500e-03
1.635687e-09,7.750000e-03
1.639687e-09,7.140625e-03
1.643687e-09,7.546875e-03
1.647687e-09,7.562500e-03
1.651687e-09,7.593750e-03
1.655687e-09,6.234375e-03
1.659687e-09,6.890625e-03
1.663687e-09,5.953125e-03
1.667687e-09,7.031250e-03
1.671687e-09,6.718750e-03
1.675688e-09,6.421875e-03
1.679688e-09,5.734375e-03
1.683688e-09,6.062500e-03
1.687688e-09,5.593750e-03
1.691688e-09,5.546875e-03
1.695687e-09,5.906250e-03
1.699687e-09,6.078125e-03
1.703687e-09,5.859375e-03
1.707687e-09,5.453125e-03
1.711687e-09,5.437500e-03
1.715687e-09,5.843750e-03
1.719687e-09,5.468750e-03
1.723687e-09,6.078125e-03
1.727687e-09,6.296875e-03
1.731687e-09,6.531250e-03
1.735688e-09,5.359375e-03
1.739688e-09,6.203125e-03
1.743688e-09,5.437500e-03
1.747688e-09,6.687500e-03
1.751688e-09,6.515625e-03
1.755687e-09,6.359375e-03
