Measurements-streak-laser-independent/Photodiode-on-Tek-12bit-4GHz/Tek000_ch1_20190613132947334.csv

Model,MSO64
Waveform Type,ANALOG
Horizontal Units,s
Sample Interval,4.000000e-12
Record Length,1000
Zero Index,310.046875
Vertical Units,V

TIME,CH1
-1.240188e-09,2.531250e-03
-1.236187e-09,2.015625e-03
-1.232187e-09,1.125000e-03
-1.228187e-09,1.281250e-03
-1.224187e-09,6.406250e-04
-1.220187e-09,4.375000e-04
-1.216187e-09,6.562500e-04
-1.212187e-09,7.187500e-04
-1.208187e-09,3.906250e-04
-1.204187e-09,-1.093750e-04
-1.200187e-09,-1.718750e-04
-1.196188e-09,2.031250e-04
-1.192188e-09,-2.031250e-04
-1.188188e-09,4.218750e-04
-1.184188e-09,6.718750e-04
-1.180188e-09,9.531250e-04
-1.176187e-09,-1.562500e-04
-1.172187e-09,7.812500e-04
-1.168187e-09,1.250000e-04
-1.164187e-09,1.500000e-03
-1.160187e-09,1.484375e-03
-1.156187e-09,1.484375e-03
-1.152187e-09,1.109375e-03
-1.148187e-09,1.750000e-03
-1.144187e-09,1.593750e-03
-1.140187e-09,1.843750e-03
-1.136188e-09,2.515625e-03
-1.132188e-09,2.984375e-03
-1.128188e-09,3.046875e-03
-1.124188e-09,2.921875e-03
-1.120188e-09,3.187500e-03
-1.116187e-09,3.859375e-03
-1.112187e-09,3.718750e-03
-1.108187e-09,4.562500e-03
-1.104187e-09,5.015625e-03
-1.100187e-09,5.468750e-03
-1.096187e-09,4.468750e-03
-1.092187e-09,5.500000e-03
-1.088187e-09,4.875000e-03
-1.084187e-09,6.281250e-03
-1.080187e-09,6.250000e-03
-1.076188e-09,6.203125e-03
-1.072188e-09,5.718750e-03
-1.068188e-09,6.250000e-03
-1.064188e-09,5.953125e-03
-1.060188e-09,6.031250e-03
-1.056188e-09,6.515625e-03
-1.052187e-09,6.765625e-03
-1.048187e-09,6.609375e-03
-1.044187e-09,6.234375e-03
-1.040187e-09,6.234375e-03
-1.036187e-09,6.640625e-03
-1.032187e-09,6.234375e-03
-1.028187e-09,6.812500e-03
-1.024187e-09,6.984375e-03
-1.020187e-09,7.140625e-03
-1.016188e-09,5.890625e-03
-1.012188e-09,6.656250e-03
-1.008188e-09,5.781250e-03
-1.004188e-09,6.937500e-03
-1.000188e-09,6.671875e-03
-9.961875e-10,6.406250e-03
-9.921875e-10,5.750000e-03
-9.881875e-10,6.093750e-03
-9.841875e-10,5.640625e-03
-9.801875e-10,5.593750e-03
-9.761875e-10,5.953125e-03
-9.721875e-10,6.125000e-03
-9.681875e-10,5.890625e-03
-9.641875e-10,5.453125e-03
-9.601875e-10,5.437500e-03
-9.561875e-10,5.828125e-03
-9.521875e-10,5.421875e-03
-9.481875e-10,6.046875e-03
-9.441875e-10,6.265625e-03
-9.401875e-10,6.484375e-03
-9.361875e-10,5.296875e-03
-9.321875e-10,6.140625e-03
-9.281875e-10,5.375000e-03
-9.241875e-10,6.593750e-03
-9.201875e-10,6.437500e-03
-9.161875e-10,6.296875e-03
-9.121875e-10,5.750000e-03
-9.081875e-10,6.203125e-03
-9.041875e-10,5.859375e-03
-9.001875e-10,5.921875e-03
-8.961875e-10,6.390625e-03
-8.921875e-10,6.656250e-03
-8.881875e-10,6.500000e-03
-8.841875e-10,6.140625e-03
-8.801875e-10,6.203125e-03
-8.761875e-10,6.640625e-03
-8.721875e-10,6.265625e-03
-8.681875e-10,6.906250e-03
-8.641875e-10,7.125000e-03
-8.601875e-10,7.343750e-03
-8.561875e-10,6.171875e-03
-8.521875e-10,6.968750e-03
-8.481875e-10,6.156250e-03
-8.441875e-10,7.140625e-03
-8.401875e-10,6.953125e-03
-8.361875e-10,6.703125e-03
-8.321875e-10,6.093750e-03
-8.281875e-10,6.437500e-03
-8.241875e-10,5.968750e-03
-8.201875e-10,5.953125e-03
-8.161875e-10,6.281250e-03
-8.121875e-10,6.406250e-03
-8.081875e-10,6.171875e-03
-8.041875e-10,5.687500e-03
-8.001875e-10,5.593750e-03
-7.961875e-10,5.921875e-03
-7.921875e-10,5.437500e-03
-7.881875e-10,5.953125e-03
-7.841875e-10,6.093750e-03
-7.801875e-10,6.218750e-03
-7.761875e-10,5.093750e-03
-7.721875e-10,5.859375e-03
-7.681875e-10,5.000000e-03
-7.641875e-10,5.781250e-03
-7.601875e-10,5.703125e-03
-7.561875e-10,5.484375e-03
-7.521875e-10,5.031250e-03
-7.481875e-10,5.406250e-03
-7.441875e-10,4.984375e-03
-7.401875e-10,5.171875e-03
-7.361875e-10,5.578125e-03
-7.321875e-10,5.812500e-03
-7.281875e-10,5.890625e-03
-7.241875e-10,5.531250e-03
-7.201875e-10,5.578125e-03
-7.161875e-10,6.046875e-03
-7.121875e-10,5.765625e-03
-7.081875e-10,6.453125e-03
-7.041875e-10,6.796875e-03
-7.001875e-10,7.093750e-03
-6.961875e-10,6.171875e-03
-6.921875e-10,7.125000e-03
-6.881875e-10,6.515625e-03
-6.841875e-10,7.296875e-03
-6.801875e-10,7.437500e-03
-6.761875e-10,7.421875e-03
-6.721875e-10,7.125000e-03
-6.681875e-10,7.484375e-03
-6.641875e-10,7.031250e-03
-6.601875e-10,7.359375e-03
-6.561875e-10,7.718750e-03
-6.521875e-10,7.812500e-03
-6.481875e-10,8.093750e-03
-6.441875e-10,7.578125e-03
-6.401875e-10,7.453125e-03
-6.361875e-10,7.718750e-03
-6.321875e-10,7.343750e-03
-6.281875e-10,7.750000e-03
-6.241875e-10,7.875000e-03
-6.201875e-10,7.828125e-03
-6.161875e-10,6.500000e-03
-6.121875e-10,7.156250e-03
-6.081875e-10,6.375000e-03
-6.041875e-10,6.687500e-03
-6.001875e-10,6.484375e-03
-5.961875e-10,6.140625e-03
-5.921875e-10,5.437500e-03
-5.881875e-10,5.312500e-03
-5.841875e-10,4.375000e-03
-5.801875e-10,4.343750e-03
-5.761875e-10,4.343750e-03
-5.721875e-10,3.921875e-03
-5.681875e-10,3.984375e-03
-5.641875e-10,3.109375e-03
-5.601875e-10,2.656250e-03
-5.561875e-10,2.609375e-03
-5.521875e-10,2.062500e-03
-5.481875e-10,2.250000e-03
-5.441875e-10,2.140625e-03
-5.401875e-10,1.906250e-03
-5.361875e-10,4.062500e-04
-5.321875e-10,9.843750e-04
-5.281875e-10,3.750000e-04
-5.241875e-10,7.031250e-04
-5.201875e-10,7.500000e-04
-5.161875e-10,4.843750e-04
-5.121875e-10,-1.562500e-05
-5.081875e-10,9.375000e-05
-5.041875e-10,-5.156250e-04
-5.001875e-10,-2.343750e-04
-4.961875e-10,2.343750e-04
-4.921875e-10,2.031250e-04
-4.881875e-10,6.562500e-04
-4.841875e-10,3.281250e-04
-4.801875e-10,5.000000e-04
-4.761875e-10,1.109375e-03
-4.721875e-10,1.093750e-03
-4.681875e-10,2.000000e-03
-4.641875e-10,2.406250e-03
-4.601875e-10,2.796875e-03
-4.561875e-10,1.921875e-03
-4.521875e-10,2.984375e-03
-4.481875e-10,3.046875e-03
-4.441875e-10,3.968750e-03
-4.401875e-10,4.687500e-03
-4.361875e-10,4.812500e-03
-4.321875e-10,4.765625e-03
-4.281875e-10,5.328125e-03
-4.241875e-10,5.265625e-03
-4.201875e-10,5.687500e-03
-4.161875e-10,6.500000e-03
-4.121875e-10,6.671875e-03
-4.081875e-10,7.046875e-03
-4.041875e-10,6.859375e-03
-4.001875e-10,7.187500e-03
-3.961875e-10,7.828125e-03
-3.921875e-10,7.500000e-03
-3.881875e-10,8.312500e-03
-3.841875e-10,8.437500e-03
-3.801875e-10,8.500000e-03
-3.761875e-10,7.296875e-03
-3.721875e-10,7.703125e-03
-3.681875e-10,7.281250e-03
-3.641875e-10,7.703125e-03
-3.601875e-10,7.828125e-03
-3.561875e-10,7.218750e-03
-3.521875e-10,6.500000e-03
-3.481875e-10,6.390625e-03
-3.441875e-10,5.812500e-03
-3.401875e-10,5.265625e-03
-3.361875e-10,5.375000e-03
-3.321875e-10,4.828125e-03
-3.281875e-10,4.281250e-03
-3.241875e-10,3.484375e-03
-3.201875e-10,3.250000e-03
-3.161875e-10,3.328125e-03
-3.121875e-10,2.328125e-03
-3.081875e-10,2.546875e-03
-3.041875e-10,2.359375e-03
-3.001875e-10,2.000000e-03
-2.961875e-10,5.781250e-04
-2.921875e-10,5.937500e-04
-2.881875e-10,5.551115e-17
-2.841875e-10,4.062500e-04
-2.801875e-10,4.687500e-04
-2.761875e-10,-4.687500e-05
-2.721875e-10,-4.062500e-04
-2.681875e-10,-1.875000e-04
-2.641875e-10,-3.125000e-04
-2.601875e-10,-4.843750e-04
-2.561875e-10,1.250000e-04
-2.521875e-10,2.500000e-04
-2.481875e-10,2.968750e-04
-2.441875e-10,4.531250e-04
-2.401875e-10,1.031250e-03
-2.361875e-10,1.984375e-03
-2.321875e-10,2.000000e-03
-2.281875e-10,3.062500e-03
-2.241875e-10,3.984375e-03
-2.201875e-10,4.625000e-03
-2.161875e-10,4.343750e-03
-2.121875e-10,5.343750e-03
-2.081875e-10,5.578125e-03
-2.041875e-10,7.000000e-03
-2.001875e-10,7.859375e-03
-1.961875e-10,8.234375e-03
-1.921875e-10,8.765625e-03
-1.881875e-10,9.671875e-03
-1.841875e-10,1.009375e-02
-1.801875e-10,1.050000e-02
-1.761875e-10,1.137500e-02
-1.721875e-10,1.176563e-02
-1.681875e-10,1.190625e-02
-1.641875e-10,1.220313e-02
-1.601875e-10,1.253125e-02
-1.561875e-10,1.309375e-02
-1.521875e-10,1.279688e-02
-1.481875e-10,1.328125e-02
-1.441875e-10,1.350000e-02
-1.401875e-10,1.337500e-02
-1.361875e-10,1.229688e-02
-1.321875e-10,1.228125e-02
-1.281875e-10,1.121875e-02
-1.241875e-10,1.157813e-02
-1.201875e-10,1.093750e-02
-1.161875e-10,1.004688e-02
-1.121875e-10,9.218750e-03
-1.081875e-10,8.765625e-03
-1.041875e-10,7.703125e-03
-1.001875e-10,6.843750e-03
-9.618750e-11,6.281250e-03
-9.218750e-11,5.484375e-03
-8.818750e-11,4.453125e-03
-8.418750e-11,3.781250e-03
-8.018750e-11,3.171875e-03
-7.618750e-11,2.828125e-03
-7.218750e-11,2.062500e-03
-6.818750e-11,2.343750e-03
-6.418750e-11,2.484375e-03
-6.018750e-11,2.781250e-03
-5.618750e-11,2.468750e-03
-5.218750e-11,3.437500e-03
-4.818750e-11,3.625000e-03
-4.418750e-11,5.859375e-03
-4.018750e-11,7.187500e-03
-3.618750e-11,8.968750e-03
-3.218750e-11,1.120313e-02
-2.818750e-11,1.432813e-02
-2.418750e-11,1.728125e-02
-2.018750e-11,2.096875e-02
-1.618750e-11,2.539063e-02
-1.218750e-11,3.025000e-02
-8.187500e-12,3.515625e-02
-4.187500e-12,4.103125e-02
-1.875000e-13,4.740625e-02
3.812500e-12,5.437500e-02
7.812500e-12,6.160938e-02
1.181250e-11,7.032813e-02
1.581250e-11,7.928125e-02
1.981250e-11,8.904688e-02
2.381250e-11,9.850000e-02
2.781250e-11,1.095000e-01
3.181250e-11,1.199844e-01
3.581250e-11,1.329375e-01
3.981250e-11,1.450313e-01
4.381250e-11,1.580781e-01
4.781250e-11,1.715781e-01
5.181250e-11,1.860625e-01
5.581250e-11,2.005156e-01
5.981250e-11,2.156719e-01
6.381250e-11,2.316406e-01
6.781250e-11,2.481094e-01
7.181250e-11,2.641406e-01
7.581250e-11,2.811094e-01
7.981250e-11,2.982969e-01
8.381250e-11,3.157188e-01
8.781250e-11,3.332656e-01
9.181250e-11,3.517969e-01
9.581250e-11,3.700156e-01
9.981250e-11,3.887969e-01
1.038125e-10,4.065156e-01
1.078125e-10,4.252969e-01
1.118125e-10,4.428281e-01
1.158125e-10,4.621563e-01
1.198125e-10,4.797813e-01
1.238125e-10,4.979375e-01
1.278125e-10,5.154531e-01
1.318125e-10,5.331094e-01
1.358125e-10,5.500938e-01
1.398125e-10,5.668438e-01
1.438125e-10,5.835625e-01
1.478125e-10,6.000938e-01
1.518125e-10,6.149219e-01
1.558125e-10,6.298906e-01
1.598125e-10,6.442500e-01
1.638125e-10,6.579375e-01
1.678125e-10,6.710156e-01
1.718125e-10,6.840625e-01
1.758125e-10,6.957813e-01
1.798125e-10,7.075000e-01
1.838125e-10,7.171719e-01
1.878125e-10,7.273281e-01
1.918125e-10,7.354531e-01
1.958125e-10,7.445469e-01
1.998125e-10,7.512344e-01
2.038125e-10,7.579844e-01
2.078125e-10,7.633906e-01
2.118125e-10,7.683750e-01
2.158125e-10,7.724375e-01
2.198125e-10,7.757656e-01
2.238125e-10,7.785625e-01
2.278125e-10,7.810781e-01
2.318125e-10,7.814063e-01
2.358125e-10,7.816094e-01
2.398125e-10,7.812500e-01
2.438125e-10,7.801250e-01
2.478125e-10,7.783125e-01
2.518125e-10,7.763281e-01
2.558125e-10,7.730469e-01
2.598125e-10,7.700313e-01
2.638125e-10,7.649375e-01
2.678125e-10,7.607656e-01
2.718125e-10,7.548125e-01
2.758125e-10,7.498281e-01
2.798125e-10,7.428750e-01
2.838125e-10,7.362969e-01
2.878125e-10,7.287969e-01
2.918125e-10,7.213750e-01
2.958125e-10,7.135781e-01
2.998125e-10,7.054063e-01
3.038125e-10,6.970781e-01
3.078125e-10,6.890781e-01
3.118125e-10,6.794219e-01
3.158125e-10,6.700469e-01
3.198125e-10,6.607969e-01
3.238125e-10,6.513438e-01
3.278125e-10,6.415938e-01
3.318125e-10,6.322031e-01
3.358125e-10,6.221406e-01
3.398125e-10,6.128750e-01
3.438125e-10,6.018906e-01
3.478125e-10,5.925625e-01
3.518125e-10,5.819688e-01
3.558125e-10,5.725625e-01
3.598125e-10,5.618281e-01
3.638125e-10,5.518281e-01
3.678125e-10,5.412500e-01
3.718125e-10,5.313438e-01
3.758125e-10,5.214375e-01
3.798125e-10,5.114375e-01
3.838125e-10,5.015156e-01
3.878125e-10,4.921875e-01
3.918125e-10,4.817344e-01
3.958125e-10,4.716719e-01
3.998125e-10,4.619219e-01
4.038125e-10,4.523438e-01
4.078125e-10,4.424375e-01
4.118125e-10,4.331250e-01
4.158125e-10,4.234375e-01
4.198125e-10,4.145625e-01
4.238125e-10,4.040469e-01
4.278125e-10,3.954844e-01
4.318125e-10,3.857344e-01
4.358125e-10,3.770938e-01
4.398125e-10,3.674063e-01
4.438125e-10,3.583594e-01
4.478125e-10,3.487969e-01
4.518125e-10,3.400625e-01
4.558125e-10,3.313281e-01
4.598125e-10,3.225938e-01
4.638125e-10,3.138438e-01
4.678125e-10,3.057344e-01
4.718125e-10,2.968438e-01
4.758125e-10,2.882500e-01
4.798125e-10,2.799063e-01
4.838125e-10,2.719688e-01
4.878125e-10,2.636250e-01
4.918125e-10,2.558438e-01
4.958125e-10,2.480313e-01
4.998125e-10,2.408438e-01
5.038125e-10,2.322500e-01
5.078125e-10,2.257344e-01
5.118125e-10,2.181250e-01
5.158125e-10,2.117031e-01
5.198125e-10,2.045000e-01
5.238125e-10,1.977500e-01
5.278125e-10,1.908281e-01
5.318125e-10,1.847656e-01
5.358125e-10,1.787188e-01
5.398125e-10,1.729219e-01
5.438125e-10,1.671563e-01
5.478125e-10,1.621094e-01
5.518125e-10,1.566719e-01
5.558125e-10,1.514844e-01
5.598125e-10,1.467031e-01
5.638125e-10,1.423906e-01
5.678125e-10,1.377500e-01
5.718125e-10,1.336719e-01
5.758125e-10,1.298281e-01
5.798125e-10,1.264531e-01
5.838125e-10,1.219688e-01
5.878125e-10,1.193906e-01
5.918125e-10,1.159531e-01
5.958125e-10,1.136875e-01
5.998125e-10,1.107813e-01
6.038125e-10,1.079531e-01
6.078125e-10,1.052031e-01
6.118125e-10,1.032656e-01
6.158125e-10,1.010313e-01
6.198125e-10,9.909375e-02
6.238125e-10,9.721875e-02
6.278125e-10,9.590625e-02
6.318125e-10,9.423438e-02
6.358125e-10,9.251563e-02
6.398125e-10,9.128125e-02
6.438125e-10,9.012500e-02
6.478125e-10,8.856250e-02
6.518125e-10,8.745313e-02
6.558125e-10,8.646875e-02
6.598125e-10,8.548438e-02
6.638125e-10,8.346875e-02
6.678125e-10,8.293750e-02
6.718125e-10,8.157813e-02
6.758125e-10,8.118750e-02
6.798125e-10,7.995313e-02
6.838125e-10,7.846875e-02
6.878125e-10,7.682813e-02
6.918125e-10,7.607813e-02
6.958125e-10,7.448438e-02
6.998125e-10,7.304688e-02
7.038125e-10,7.173438e-02
7.078125e-10,7.076563e-02
7.118125e-10,6.931250e-02
7.158125e-10,6.750000e-02
7.198125e-10,6.626563e-02
7.238125e-10,6.476563e-02
7.278125e-10,6.289063e-02
7.318125e-10,6.145313e-02
7.358125e-10,6.009375e-02
7.398125e-10,5.831250e-02
7.438125e-10,5.581250e-02
7.478125e-10,5.454688e-02
7.518125e-10,5.257813e-02
7.558125e-10,5.165625e-02
7.598125e-10,4.981250e-02
7.638125e-10,4.785938e-02
7.678125e-10,4.551563e-02
7.718125e-10,4.439063e-02
7.758125e-10,4.226563e-02
7.798125e-10,4.042188e-02
7.838125e-10,3.898438e-02
7.878125e-10,3.782813e-02
7.918125e-10,3.640625e-02
7.958125e-10,3.457813e-02
7.998125e-10,3.351563e-02
8.038125e-10,3.240625e-02
8.078125e-10,3.100000e-02
8.118125e-10,3.023438e-02
8.158125e-10,2.967188e-02
8.198125e-10,2.854688e-02
8.238125e-10,2.712500e-02
8.278125e-10,2.681250e-02
8.318125e-10,2.593750e-02
8.358125e-10,2.648438e-02
8.398125e-10,2.607813e-02
8.438125e-10,2.571875e-02
8.478125e-10,2.493750e-02
8.518125e-10,2.537500e-02
8.558125e-10,2.496875e-02
8.598125e-10,2.493750e-02
8.638125e-10,2.543750e-02
8.678125e-10,2.590625e-02
8.718125e-10,2.642188e-02
8.758125e-10,2.640625e-02
8.798125e-10,2.704688e-02
8.838125e-10,2.790625e-02
8.878125e-10,2.832813e-02
8.918125e-10,2.937500e-02
8.958125e-10,3.039063e-02
8.998125e-10,3.084375e-02
9.038125e-10,3.101563e-02
9.078125e-10,3.200000e-02
9.118125e-10,3.226563e-02
9.158125e-10,3.417188e-02
9.198125e-10,3.487500e-02
9.238125e-10,3.546875e-02
9.278125e-10,3.556250e-02
9.318125e-10,3.653125e-02
9.358125e-10,3.675000e-02
9.398125e-10,3.725000e-02
9.438125e-10,3.814063e-02
9.478125e-10,3.842188e-02
9.518125e-10,3.898438e-02
9.558125e-10,3.887500e-02
9.598125e-10,3.904688e-02
9.638125e-10,3.967188e-02
9.678125e-10,3.965625e-02
9.718125e-10,4.009375e-02
9.758125e-10,4.025000e-02
9.798125e-10,3.992188e-02
9.838125e-10,3.921875e-02
9.878125e-10,3.925000e-02
9.918125e-10,3.832813e-02
9.958125e-10,3.915625e-02
9.998125e-10,3.870313e-02
1.003813e-09,3.806250e-02
1.007813e-09,3.698438e-02
1.011813e-09,3.668750e-02
1.015813e-09,3.575000e-02
1.019812e-09,3.512500e-02
1.023812e-09,3.489063e-02
1.027812e-09,3.384375e-02
1.031812e-09,3.325000e-02
1.035812e-09,3.215625e-02
1.039812e-09,3.118750e-02
1.043812e-09,3.096875e-02
1.047812e-09,3.009375e-02
1.051812e-09,2.970313e-02
1.055813e-09,2.912500e-02
1.059813e-09,2.821875e-02
1.063813e-09,2.707813e-02
1.067813e-09,2.685938e-02
1.071813e-09,2.553125e-02
1.075813e-09,2.607813e-02
1.079812e-09,2.548438e-02
1.083812e-09,2.481250e-02
1.087812e-09,2.385938e-02
1.091812e-09,2.375000e-02
1.095812e-09,2.310938e-02
1.099812e-09,2.287500e-02
1.103812e-09,2.310938e-02
1.107812e-09,2.260938e-02
1.111812e-09,2.251563e-02
1.115813e-09,2.209375e-02
1.119813e-09,2.179688e-02
1.123813e-09,2.232813e-02
1.127813e-09,2.218750e-02
1.131813e-09,2.259375e-02
1.135813e-09,2.285938e-02
1.139812e-09,2.289063e-02
1.143812e-09,2.260938e-02
1.147812e-09,2.335938e-02
1.151812e-09,2.284375e-02
1.155812e-09,2.415625e-02
1.159812e-09,2.431250e-02
1.163812e-09,2.439063e-02
1.167812e-09,2.415625e-02
1.171812e-09,2.476563e-02
1.175813e-09,2.473438e-02
1.179813e-09,2.506250e-02
1.183813e-09,2.578125e-02
1.187813e-09,2.587500e-02
1.191813e-09,2.606250e-02
1.195813e-09,2.593750e-02
1.199812e-09,2.592188e-02
1.203812e-09,2.657813e-02
1.207812e-09,2.645313e-02
1.211812e-09,2.696875e-02
1.215812e-09,2.718750e-02
1.219812e-09,2.720313e-02
1.223812e-09,2.662500e-02
1.227812e-09,2.725000e-02
1.231812e-09,2.643750e-02
1.235813e-09,2.740625e-02
1.239813e-09,2.712500e-02
1.243813e-09,2.678125e-02
1.247813e-09,2.603125e-02
1.251813e-09,2.617188e-02
1.255812e-09,2.559375e-02
1.259812e-09,2.535938e-02
1.263812e-09,2.548438e-02
1.267812e-09,2.515625e-02
1.271812e-09,2.470313e-02
1.275812e-09,2.400000e-02
1.279812e-09,2.351563e-02
1.283812e-09,2.359375e-02
1.287812e-09,2.290625e-02
1.291812e-09,2.298438e-02
1.295813e-09,2.279688e-02
1.299813e-09,2.246875e-02
1.303813e-09,2.132813e-02
1.307813e-09,2.170313e-02
1.311813e-09,2.057813e-02
1.315812e-09,2.134375e-02
1.319812e-09,2.084375e-02
1.323812e-09,2.035938e-02
1.327812e-09,1.951563e-02
1.331812e-09,1.964063e-02
1.335812e-09,1.904688e-02
1.339812e-09,1.887500e-02
1.343812e-09,1.909375e-02
1.347812e-09,1.903125e-02
1.351812e-09,1.875000e-02
1.355813e-09,1.828125e-02
1.359813e-09,1.812500e-02
1.363813e-09,1.851563e-02
1.367813e-09,1.814063e-02
1.371813e-09,1.864063e-02
1.375812e-09,1.885938e-02
1.379812e-09,1.901563e-02
1.383812e-09,1.815625e-02
1.387812e-09,1.898438e-02
1.391812e-09,1.829688e-02
1.395812e-09,1.953125e-02
1.399812e-09,1.946875e-02
1.403812e-09,1.940625e-02
1.407812e-09,1.895313e-02
1.411812e-09,1.946875e-02
1.415813e-09,1.921875e-02
1.419813e-09,1.935938e-02
1.423813e-09,1.989063e-02
1.427813e-09,2.015625e-02
1.431813e-09,2.009375e-02
1.435812e-09,1.979688e-02
1.439812e-09,1.984375e-02
1.443812e-09,2.032813e-02
1.447812e-09,2.001563e-02
1.451812e-09,2.059375e-02
1.455812e-09,2.079688e-02
1.459812e-09,2.093750e-02
1.463812e-09,1.987500e-02
1.467812e-09,2.057813e-02
1.471812e-09,1.971875e-02
1.475813e-09,2.079688e-02
1.479813e-09,2.046875e-02
1.483813e-09,2.012500e-02
1.487813e-09,1.937500e-02
1.491813e-09,1.957813e-02
1.495812e-09,1.898438e-02
1.499812e-09,1.876563e-02
1.503812e-09,1.892188e-02
1.507812e-09,1.882813e-02
1.511812e-09,1.837500e-02
1.515812e-09,1.768750e-02
1.519812e-09,1.737500e-02
1.523812e-09,1.746875e-02
1.527812e-09,1.678125e-02
1.531812e-09,1.704688e-02
1.535813e-09,1.692188e-02
1.539813e-09,1.678125e-02
1.543813e-09,1.537500e-02
1.547813e-09,1.584375e-02
1.551813e-09,1.476563e-02
1.555812e-09,1.567188e-02
1.559812e-09,1.520313e-02
1.563812e-09,1.475000e-02
1.567812e-09,1.392188e-02
1.571812e-09,1.410938e-02
1.575812e-09,1.351563e-02
1.579812e-09,1.334375e-02
1.583812e-09,1.357813e-02
1.587812e-09,1.364063e-02
1.591812e-09,1.335938e-02
1.595813e-09,1.289063e-02
1.599813e-09,1.282813e-02
1.603813e-09,1.320313e-02
1.607813e-09,1.281250e-02
1.611813e-09,1.340625e-02
1.615812e-09,1.367188e-02
1.619812e-09,1.393750e-02
1.623812e-09,1.290625e-02
1.627812e-09,1.381250e-02
1.631812e-09,1.318750e-02
1.635812e-09,1.453125e-02
1.639812e-09,1.451563e-02
1.643812e-09,1.453125e-02
1.647812e-09,1.417188e-02
1.651812e-09,1.479688e-02
1.655813e-09,1.465625e-02
1.659813e-09,1.492188e-02
1.663813e-09,1.557813e-02
1.667813e-09,1.604688e-02
1.671813e-09,1.614063e-02
1.675812e-09,1.601563e-02
1.679812e-09,1.628125e-02
1.683812e-09,1.695313e-02
1.687812e-09,1.682813e-02
1.691812e-09,1.767188e-02
1.695812e-09,1.812500e-02
1.699812e-09,1.854688e-02
1.703812e-09,1.760938e-02
1.707812e-09,1.860938e-02
1.711812e-09,1.800000e-02
1.715813e-09,1.937500e-02
1.719813e-09,1.932813e-02
1.723813e-09,1.926563e-02
1.727813e-09,1.878125e-02
1.731813e-09,1.926563e-02
1.735812e-09,1.893750e-02
1.739812e-09,1.896875e-02
1.743812e-09,1.939063e-02
1.747812e-09,1.956250e-02
1.751812e-09,1.934375e-02
1.755812e-09,1.889063e-02
1.759812e-09,1.881250e-02
