Measurements-streak-laser-independent/Photodiode-on-Tek-12bit-4GHz/Tek000_ch1_20190613133019426.csv

Model,MSO64
Waveform Type,ANALOG
Horizontal Units,s
Sample Interval,4.000000e-12
Record Length,1000
Zero Index,310.437500
Vertical Units,V

TIME,CH1
-1.241750e-09,3.343750e-03
-1.237750e-09,3.781250e-03
-1.233750e-09,4.046875e-03
-1.229750e-09,3.906250e-03
-1.225750e-09,3.578125e-03
-1.221750e-09,3.656250e-03
-1.217750e-09,4.156250e-03
-1.213750e-09,3.843750e-03
-1.209750e-09,4.562500e-03
-1.205750e-09,4.890625e-03
-1.201750e-09,5.218750e-03
-1.197750e-09,4.125000e-03
-1.193750e-09,5.078125e-03
-1.189750e-09,4.390625e-03
-1.185750e-09,5.750000e-03
-1.181750e-09,5.687500e-03
-1.177750e-09,5.625000e-03
-1.173750e-09,5.156250e-03
-1.169750e-09,5.687500e-03
-1.165750e-09,5.421875e-03
-1.161750e-09,5.546875e-03
-1.157750e-09,6.078125e-03
-1.153750e-09,6.390625e-03
-1.149750e-09,6.312500e-03
-1.145750e-09,6.000000e-03
-1.141750e-09,6.109375e-03
-1.137750e-09,6.593750e-03
-1.133750e-09,6.281250e-03
-1.129750e-09,6.968750e-03
-1.125750e-09,7.234375e-03
-1.121750e-09,7.515625e-03
-1.117750e-09,6.343750e-03
-1.113750e-09,7.203125e-03
-1.109750e-09,6.437500e-03
-1.105750e-09,7.703125e-03
-1.101750e-09,7.531250e-03
-1.097750e-09,7.359375e-03
-1.093750e-09,6.765625e-03
-1.089750e-09,7.187500e-03
-1.085750e-09,6.812500e-03
-1.081750e-09,6.812500e-03
-1.077750e-09,7.234375e-03
-1.073750e-09,7.453125e-03
-1.069750e-09,7.265625e-03
-1.065750e-09,6.875000e-03
-1.061750e-09,6.890625e-03
-1.057750e-09,7.328125e-03
-1.053750e-09,6.937500e-03
-1.049750e-09,7.578125e-03
-1.045750e-09,7.812500e-03
-1.041750e-09,8.046875e-03
-1.037750e-09,6.875000e-03
-1.033750e-09,7.734375e-03
-1.029750e-09,6.968750e-03
-1.025750e-09,8.234375e-03
-1.021750e-09,8.093750e-03
-1.017750e-09,7.968750e-03
-1.013750e-09,7.421875e-03
-1.009750e-09,7.906250e-03
-1.005750e-09,7.578125e-03
-1.001750e-09,7.656250e-03
-9.977500e-10,8.140625e-03
-9.937500e-10,8.437500e-03
-9.897500e-10,8.312500e-03
-9.857500e-10,8.000000e-03
-9.817500e-10,8.078125e-03
-9.777500e-10,8.562500e-03
-9.737500e-10,8.234375e-03
-9.697500e-10,8.921875e-03
-9.657500e-10,9.187500e-03
-9.617500e-10,9.437500e-03
-9.577500e-10,8.281250e-03
-9.537500e-10,9.125000e-03
-9.497500e-10,8.343750e-03
-9.457500e-10,9.546875e-03
-9.417500e-10,9.343750e-03
-9.377500e-10,9.140625e-03
-9.337500e-10,8.500000e-03
-9.297500e-10,8.859375e-03
-9.257500e-10,8.390625e-03
-9.217500e-10,8.312500e-03
-9.177500e-10,8.609375e-03
-9.137500e-10,8.687500e-03
-9.097500e-10,8.359375e-03
-9.057500e-10,7.781250e-03
-9.017500e-10,7.609375e-03
-8.977500e-10,7.812500e-03
-8.937500e-10,7.203125e-03
-8.897500e-10,7.562500e-03
-8.857500e-10,7.515625e-03
-8.817500e-10,7.437500e-03
-8.777500e-10,5.953125e-03
-8.737500e-10,6.468750e-03
-8.697500e-10,5.343750e-03
-8.657500e-10,6.156250e-03
-8.617500e-10,5.625000e-03
-8.577500e-10,5.078125e-03
-8.537500e-10,4.125000e-03
-8.497500e-10,4.156250e-03
-8.457500e-10,3.390625e-03
-8.417500e-10,3.031250e-03
-8.377500e-10,3.062500e-03
-8.337500e-10,2.890625e-03
-8.297500e-10,2.343750e-03
-8.257500e-10,1.578125e-03
-8.217500e-10,1.218750e-03
-8.177500e-10,1.281250e-03
-8.137500e-10,5.468750e-04
-8.097500e-10,8.281250e-04
-8.057500e-10,7.187500e-04
-8.017500e-10,6.406250e-04
-7.977500e-10,-7.968750e-04
-7.937500e-10,-2.343750e-04
-7.897500e-10,-1.265625e-03
-7.857500e-10,-3.906250e-04
-7.817500e-10,-7.187500e-04
-7.777500e-10,-1.093750e-03
-7.737500e-10,-1.781250e-03
-7.697500e-10,-1.500000e-03
-7.657500e-10,-2.000000e-03
-7.617500e-10,-2.000000e-03
-7.577500e-10,-1.656250e-03
-7.537500e-10,-1.468750e-03
-7.497500e-10,-1.578125e-03
-7.457500e-10,-1.953125e-03
-7.417500e-10,-1.906250e-03
-7.377500e-10,-1.421875e-03
-7.337500e-10,-1.703125e-03
-7.297500e-10,-9.843750e-04
-7.257500e-10,-6.250000e-04
-7.217500e-10,-2.656250e-04
-7.177500e-10,-1.250000e-03
-7.137500e-10,-2.343750e-04
-7.097500e-10,-7.968750e-04
-7.057500e-10,4.687500e-04
-7.017500e-10,5.625000e-04
-6.977500e-10,6.250000e-04
-6.937500e-10,3.125000e-04
-6.897500e-10,9.218750e-04
-6.857500e-10,7.187500e-04
-6.817500e-10,1.046875e-03
-6.777500e-10,1.671875e-03
-6.737500e-10,2.062500e-03
-6.697500e-10,2.250000e-03
-6.657500e-10,2.046875e-03
-6.617500e-10,2.234375e-03
-6.577500e-10,2.812500e-03
-6.537500e-10,2.640625e-03
-6.497500e-10,3.406250e-03
-6.457500e-10,3.781250e-03
-6.417500e-10,4.109375e-03
-6.377500e-10,3.046875e-03
-6.337500e-10,4.000000e-03
-6.297500e-10,3.375000e-03
-6.257500e-10,4.484375e-03
-6.217500e-10,4.453125e-03
-6.177500e-10,4.343750e-03
-6.137500e-10,3.843750e-03
-6.097500e-10,4.203125e-03
-6.057500e-10,3.750000e-03
-6.017500e-10,3.828125e-03
-5.977500e-10,4.203125e-03
-5.937500e-10,4.296875e-03
-5.897500e-10,4.234375e-03
-5.857500e-10,3.750000e-03
-5.817500e-10,3.656250e-03
-5.777500e-10,3.968750e-03
-5.737500e-10,3.546875e-03
-5.697500e-10,4.062500e-03
-5.657500e-10,4.171875e-03
-5.617500e-10,4.234375e-03
-5.577500e-10,2.921875e-03
-5.537500e-10,3.640625e-03
-5.497500e-10,2.859375e-03
-5.457500e-10,3.796875e-03
-5.417500e-10,3.640625e-03
-5.377500e-10,3.375000e-03
-5.337500e-10,2.750000e-03
-5.297500e-10,3.015625e-03
-5.257500e-10,2.500000e-03
-5.217500e-10,2.515625e-03
-5.177500e-10,2.890625e-03
-5.137500e-10,2.953125e-03
-5.097500e-10,2.875000e-03
-5.057500e-10,2.421875e-03
-5.017500e-10,2.421875e-03
-4.977500e-10,2.843750e-03
-4.937500e-10,2.468750e-03
-4.897500e-10,3.125000e-03
-4.857500e-10,3.328125e-03
-4.817500e-10,3.531250e-03
-4.777500e-10,2.359375e-03
-4.737500e-10,3.187500e-03
-4.697500e-10,2.593750e-03
-4.657500e-10,3.703125e-03
-4.617500e-10,3.734375e-03
-4.577500e-10,3.593750e-03
-4.537500e-10,3.125000e-03
-4.497500e-10,3.562500e-03
-4.457500e-10,3.265625e-03
-4.417500e-10,3.375000e-03
-4.377500e-10,3.921875e-03
-4.337500e-10,4.125000e-03
-4.297500e-10,4.093750e-03
-4.257500e-10,3.796875e-03
-4.217500e-10,3.937500e-03
-4.177500e-10,4.468750e-03
-4.137500e-10,4.140625e-03
-4.097500e-10,4.890625e-03
-4.057500e-10,5.156250e-03
-4.017500e-10,5.406250e-03
-3.977500e-10,4.296875e-03
-3.937500e-10,5.078125e-03
-3.897500e-10,4.500000e-03
-3.857500e-10,5.625000e-03
-3.817500e-10,5.640625e-03
-3.777500e-10,5.453125e-03
-3.737500e-10,4.968750e-03
-3.697500e-10,5.390625e-03
-3.657500e-10,5.109375e-03
-3.617500e-10,5.109375e-03
-3.577500e-10,5.609375e-03
-3.537500e-10,5.781250e-03
-3.497500e-10,5.625000e-03
-3.457500e-10,5.312500e-03
-3.417500e-10,5.421875e-03
-3.377500e-10,5.937500e-03
-3.337500e-10,5.531250e-03
-3.297500e-10,6.218750e-03
-3.257500e-10,6.500000e-03
-3.217500e-10,6.718750e-03
-3.177500e-10,5.625000e-03
-3.137500e-10,6.375000e-03
-3.097500e-10,5.765625e-03
-3.057500e-10,6.906250e-03
-3.017500e-10,6.921875e-03
-2.977500e-10,6.765625e-03
-2.937500e-10,6.343750e-03
-2.897500e-10,6.796875e-03
-2.857500e-10,6.562500e-03
-2.817500e-10,6.593750e-03
-2.777500e-10,7.109375e-03
-2.737500e-10,7.343750e-03
-2.697500e-10,7.218750e-03
-2.657500e-10,6.984375e-03
-2.617500e-10,7.125000e-03
-2.577500e-10,7.656250e-03
-2.537500e-10,7.312500e-03
-2.497500e-10,7.968750e-03
-2.457500e-10,8.296875e-03
-2.417500e-10,8.515625e-03
-2.377500e-10,7.437500e-03
-2.337500e-10,8.156250e-03
-2.297500e-10,7.468750e-03
-2.257500e-10,8.578125e-03
-2.217500e-10,8.453125e-03
-2.177500e-10,8.218750e-03
-2.137500e-10,7.718750e-03
-2.097500e-10,8.031250e-03
-2.057500e-10,7.625000e-03
-2.017500e-10,7.500000e-03
-1.977500e-10,7.781250e-03
-1.937500e-10,7.796875e-03
-1.897500e-10,7.421875e-03
-1.857500e-10,6.984375e-03
-1.817500e-10,6.828125e-03
-1.777500e-10,7.031250e-03
-1.737500e-10,6.437500e-03
-1.697500e-10,6.781250e-03
-1.657500e-10,6.796875e-03
-1.617500e-10,6.734375e-03
-1.577500e-10,5.406250e-03
-1.537500e-10,5.859375e-03
-1.497500e-10,4.859375e-03
-1.457500e-10,5.765625e-03
-1.417500e-10,5.375000e-03
-1.377500e-10,4.968750e-03
-1.337500e-10,4.312500e-03
-1.297500e-10,4.546875e-03
-1.257500e-10,4.046875e-03
-1.217500e-10,3.953125e-03
-1.177500e-10,4.265625e-03
-1.137500e-10,4.421875e-03
-1.097500e-10,4.234375e-03
-1.057500e-10,4.078125e-03
-1.017500e-10,4.250000e-03
-9.775000e-11,4.828125e-03
-9.375000e-11,4.765625e-03
-8.975000e-11,5.765625e-03
-8.575000e-11,6.468750e-03
-8.175000e-11,7.281250e-03
-7.775000e-11,6.921875e-03
-7.375000e-11,8.421875e-03
-6.975000e-11,8.562500e-03
-6.575000e-11,1.078125e-02
-6.175000e-11,1.173438e-02
-5.775000e-11,1.285938e-02
-5.375000e-11,1.384375e-02
-4.975000e-11,1.581250e-02
-4.575000e-11,1.718750e-02
-4.175000e-11,1.906250e-02
-3.775000e-11,2.143750e-02
-3.375000e-11,2.382813e-02
-2.975000e-11,2.589063e-02
-2.575000e-11,2.810938e-02
-2.175000e-11,3.073438e-02
-1.775000e-11,3.381250e-02
-1.375000e-11,3.635938e-02
-9.750000e-12,4.004688e-02
-5.750000e-12,4.346875e-02
-1.750000e-12,4.712500e-02
2.250000e-12,4.960938e-02
6.250000e-12,5.396875e-02
1.025000e-11,5.696875e-02
1.425000e-11,6.207813e-02
1.825000e-11,6.587500e-02
2.225000e-11,6.990625e-02
2.625000e-11,7.370313e-02
3.025000e-11,7.845313e-02
3.425000e-11,8.257813e-02
3.825000e-11,8.712500e-02
4.225000e-11,9.214063e-02
4.625000e-11,9.710938e-02
5.025000e-11,1.015781e-01
5.425000e-11,1.060938e-01
5.825000e-11,1.109375e-01
6.225000e-11,1.160625e-01
6.625000e-11,1.205938e-01
7.025000e-11,1.260625e-01
7.425000e-11,1.310938e-01
7.825000e-11,1.362656e-01
8.225000e-11,1.400313e-01
8.625000e-11,1.455313e-01
9.025000e-11,1.494531e-01
9.425000e-11,1.553125e-01
9.825000e-11,1.595938e-01
1.022500e-10,1.640313e-01
1.062500e-10,1.679375e-01
1.102500e-10,1.725781e-01
1.142500e-10,1.764531e-01
1.182500e-10,1.805156e-01
1.222500e-10,1.848281e-01
1.262500e-10,1.889688e-01
1.302500e-10,1.922813e-01
1.342500e-10,1.954844e-01
1.382500e-10,1.988281e-01
1.422500e-10,2.022656e-01
1.462500e-10,2.049531e-01
1.502500e-10,2.083438e-01
1.542500e-10,2.110938e-01
1.582500e-10,2.138594e-01
1.622500e-10,2.150313e-01
1.662500e-10,2.178125e-01
1.702500e-10,2.188906e-01
1.742500e-10,2.216875e-01
1.782500e-10,2.227969e-01
1.822500e-10,2.239688e-01
1.862500e-10,2.244688e-01
1.902500e-10,2.256250e-01
1.942500e-10,2.259375e-01
1.982500e-10,2.263750e-01
2.022500e-10,2.269531e-01
2.062500e-10,2.273438e-01
2.102500e-10,2.268281e-01
2.142500e-10,2.261406e-01
2.182500e-10,2.256094e-01
2.222500e-10,2.251719e-01
2.262500e-10,2.239688e-01
2.302500e-10,2.234375e-01
2.342500e-10,2.222656e-01
2.382500e-10,2.211719e-01
2.422500e-10,2.184531e-01
2.462500e-10,2.174844e-01
2.502500e-10,2.148281e-01
2.542500e-10,2.138906e-01
2.582500e-10,2.113750e-01
2.622500e-10,2.089531e-01
2.662500e-10,2.059531e-01
2.702500e-10,2.037031e-01
2.742500e-10,2.007500e-01
2.782500e-10,1.979688e-01
2.822500e-10,1.953906e-01
2.862500e-10,1.927500e-01
2.902500e-10,1.893438e-01
2.942500e-10,1.858281e-01
2.982500e-10,1.826094e-01
3.022500e-10,1.796250e-01
3.062500e-10,1.759375e-01
3.102500e-10,1.730469e-01
3.142500e-10,1.696719e-01
3.182500e-10,1.664844e-01
3.222500e-10,1.617656e-01
3.262500e-10,1.589844e-01
3.302500e-10,1.546719e-01
3.342500e-10,1.521094e-01
3.382500e-10,1.481563e-01
3.422500e-10,1.443906e-01
3.462500e-10,1.401719e-01
3.502500e-10,1.368750e-01
3.542500e-10,1.330000e-01
3.582500e-10,1.294063e-01
3.622500e-10,1.261250e-01
3.662500e-10,1.228750e-01
3.702500e-10,1.190625e-01
3.742500e-10,1.152031e-01
3.782500e-10,1.117656e-01
3.822500e-10,1.087188e-01
3.862500e-10,1.050000e-01
3.902500e-10,1.022188e-01
3.942500e-10,9.910938e-02
3.982500e-10,9.623438e-02
4.022500e-10,9.195313e-02
4.062500e-10,8.973438e-02
4.102500e-10,8.607813e-02
4.142500e-10,8.423438e-02
4.182500e-10,8.115625e-02
4.222500e-10,7.828125e-02
4.262500e-10,7.506250e-02
4.302500e-10,7.285938e-02
4.342500e-10,7.014063e-02
4.382500e-10,6.778125e-02
4.422500e-10,6.576563e-02
4.462500e-10,6.384375e-02
4.502500e-10,6.150000e-02
4.542500e-10,5.914063e-02
4.582500e-10,5.721875e-02
4.622500e-10,5.575000e-02
4.662500e-10,5.364063e-02
4.702500e-10,5.245313e-02
4.742500e-10,5.104688e-02
4.782500e-10,4.982813e-02
4.822500e-10,4.726563e-02
4.862500e-10,4.676563e-02
4.902500e-10,4.482813e-02
4.942500e-10,4.471875e-02
4.982500e-10,4.340625e-02
5.022500e-10,4.220313e-02
5.062500e-10,4.070313e-02
5.102500e-10,4.017188e-02
5.142500e-10,3.904688e-02
5.182500e-10,3.828125e-02
5.222500e-10,3.782813e-02
5.262500e-10,3.742188e-02
5.302500e-10,3.659375e-02
5.342500e-10,3.565625e-02
5.382500e-10,3.510938e-02
5.422500e-10,3.495313e-02
5.462500e-10,3.407813e-02
5.502500e-10,3.406250e-02
5.542500e-10,3.378125e-02
5.582500e-10,3.354688e-02
5.622500e-10,3.196875e-02
5.662500e-10,3.231250e-02
5.702500e-10,3.120313e-02
5.742500e-10,3.182813e-02
5.782500e-10,3.121875e-02
5.822500e-10,3.053125e-02
5.862500e-10,2.953125e-02
5.902500e-10,2.943750e-02
5.942500e-10,2.859375e-02
5.982500e-10,2.807813e-02
6.022500e-10,2.782813e-02
6.062500e-10,2.753125e-02
6.102500e-10,2.679688e-02
6.142500e-10,2.584375e-02
6.182500e-10,2.528125e-02
6.222500e-10,2.498438e-02
6.262500e-10,2.395313e-02
6.302500e-10,2.373438e-02
6.342500e-10,2.325000e-02
6.382500e-10,2.268750e-02
6.422500e-10,2.082813e-02
6.462500e-10,2.081250e-02
6.502500e-10,1.939063e-02
6.542500e-10,1.968750e-02
6.582500e-10,1.871875e-02
6.622500e-10,1.768750e-02
6.662500e-10,1.629688e-02
6.702500e-10,1.592188e-02
6.742500e-10,1.471875e-02
6.782500e-10,1.385938e-02
6.822500e-10,1.337500e-02
6.862500e-10,1.284375e-02
6.902500e-10,1.193750e-02
6.942500e-10,1.078125e-02
6.982500e-10,1.014063e-02
7.022500e-10,9.750000e-03
7.062500e-10,8.718750e-03
7.102500e-10,8.562500e-03
7.142500e-10,8.203125e-03
7.182500e-10,7.734375e-03
7.222500e-10,6.109375e-03
7.262500e-10,6.328125e-03
7.302500e-10,5.234375e-03
7.342500e-10,5.953125e-03
7.382500e-10,5.421875e-03
7.422500e-10,4.906250e-03
7.462500e-10,4.046875e-03
7.502500e-10,4.281250e-03
7.542500e-10,3.687500e-03
7.582500e-10,3.515625e-03
7.622500e-10,3.812500e-03
7.662500e-10,4.031250e-03
7.702500e-10,3.937500e-03
7.742500e-10,3.609375e-03
7.782500e-10,3.796875e-03
7.822500e-10,4.312500e-03
7.862500e-10,4.156250e-03
7.902500e-10,4.937500e-03
7.942500e-10,5.500000e-03
7.982500e-10,5.890625e-03
8.022500e-10,5.187500e-03
8.062500e-10,6.250000e-03
8.102500e-10,5.968750e-03
8.142500e-10,7.578125e-03
8.182500e-10,7.875000e-03
8.222500e-10,8.156250e-03
8.262500e-10,8.015625e-03
8.302500e-10,8.921875e-03
8.342500e-10,8.984375e-03
8.382500e-10,9.421875e-03
8.422500e-10,1.029688e-02
8.462500e-10,1.093750e-02
8.502500e-10,1.129688e-02
8.542500e-10,1.132813e-02
8.582500e-10,1.178125e-02
8.622500e-10,1.257813e-02
8.662500e-10,1.264063e-02
8.702500e-10,1.356250e-02
8.742500e-10,1.414063e-02
8.782500e-10,1.453125e-02
8.822500e-10,1.378125e-02
8.862500e-10,1.470313e-02
8.902500e-10,1.418750e-02
8.942500e-10,1.559375e-02
8.982500e-10,1.560938e-02
9.022500e-10,1.556250e-02
9.062500e-10,1.504688e-02
9.102500e-10,1.548438e-02
9.142500e-10,1.510938e-02
9.182500e-10,1.510938e-02
9.222500e-10,1.548438e-02
9.262500e-10,1.550000e-02
9.302500e-10,1.531250e-02
9.342500e-10,1.478125e-02
9.382500e-10,1.460938e-02
9.422500e-10,1.487500e-02
9.462500e-10,1.435938e-02
9.502500e-10,1.470313e-02
9.542500e-10,1.468750e-02
9.582500e-10,1.453125e-02
9.622500e-10,1.328125e-02
9.662500e-10,1.368750e-02
9.702500e-10,1.267188e-02
9.742500e-10,1.362500e-02
9.782500e-10,1.321875e-02
9.822500e-10,1.276563e-02
9.862500e-10,1.193750e-02
9.902500e-10,1.206250e-02
9.942500e-10,1.145313e-02
9.982500e-10,1.125000e-02
1.002250e-09,1.148438e-02
1.006250e-09,1.134375e-02
1.010250e-09,1.104688e-02
1.014250e-09,1.050000e-02
1.018250e-09,1.029688e-02
1.022250e-09,1.064063e-02
1.026250e-09,1.021875e-02
1.030250e-09,1.067188e-02
1.034250e-09,1.079688e-02
1.038250e-09,1.087500e-02
1.042250e-09,9.859375e-03
1.046250e-09,1.056250e-02
1.050250e-09,9.796875e-03
1.054250e-09,1.104688e-02
1.058250e-09,1.093750e-02
1.062250e-09,1.081250e-02
1.066250e-09,1.032813e-02
1.070250e-09,1.081250e-02
1.074250e-09,1.056250e-02
1.078250e-09,1.070313e-02
1.082250e-09,1.126563e-02
1.086250e-09,1.146875e-02
1.090250e-09,1.146875e-02
1.094250e-09,1.123438e-02
1.098250e-09,1.129688e-02
1.102250e-09,1.187500e-02
1.106250e-09,1.165625e-02
1.110250e-09,1.232813e-02
1.114250e-09,1.262500e-02
1.118250e-09,1.284375e-02
1.122250e-09,1.192188e-02
1.126250e-09,1.275000e-02
1.130250e-09,1.200000e-02
1.134250e-09,1.320313e-02
1.138250e-09,1.303125e-02
1.142250e-09,1.282813e-02
1.146250e-09,1.221875e-02
1.150250e-09,1.254688e-02
1.154250e-09,1.209375e-02
1.158250e-09,1.201563e-02
1.162250e-09,1.231250e-02
1.166250e-09,1.226563e-02
1.170250e-09,1.193750e-02
1.174250e-09,1.135938e-02
1.178250e-09,1.107813e-02
1.182250e-09,1.126563e-02
1.186250e-09,1.064063e-02
1.190250e-09,1.092188e-02
1.194250e-09,1.081250e-02
1.198250e-09,1.064063e-02
1.202250e-09,9.265625e-03
1.206250e-09,9.703125e-03
1.210250e-09,8.562500e-03
1.214250e-09,9.375000e-03
1.218250e-09,8.812500e-03
1.222250e-09,8.250000e-03
1.226250e-09,7.281250e-03
1.230250e-09,7.328125e-03
1.234250e-09,6.562500e-03
1.238250e-09,6.218750e-03
1.242250e-09,6.281250e-03
1.246250e-09,6.109375e-03
1.250250e-09,5.593750e-03
1.254250e-09,4.906250e-03
1.258250e-09,4.578125e-03
1.262250e-09,4.718750e-03
1.266250e-09,4.093750e-03
1.270250e-09,4.437500e-03
1.274250e-09,4.421875e-03
1.278250e-09,4.421875e-03
1.282250e-09,3.156250e-03
1.286250e-09,3.828125e-03
1.290250e-09,2.937500e-03
1.294250e-09,4.062500e-03
1.298250e-09,3.828125e-03
1.302250e-09,3.625000e-03
1.306250e-09,3.046875e-03
1.310250e-09,3.500000e-03
1.314250e-09,3.187500e-03
1.318250e-09,3.296875e-03
1.322250e-09,3.843750e-03
1.326250e-09,4.187500e-03
1.330250e-09,4.187500e-03
1.334250e-09,4.000000e-03
1.338250e-09,4.218750e-03
1.342250e-09,4.875000e-03
1.346250e-09,4.750000e-03
1.350250e-09,5.640625e-03
1.354250e-09,6.140625e-03
1.358250e-09,6.656250e-03
1.362250e-09,5.828125e-03
1.366250e-09,6.953125e-03
1.370250e-09,6.500000e-03
1.374250e-09,8.046875e-03
1.378250e-09,8.187500e-03
1.382250e-09,8.328125e-03
1.386250e-09,8.078125e-03
1.390250e-09,8.812500e-03
1.394250e-09,8.750000e-03
1.398250e-09,9.078125e-03
1.402250e-09,9.796875e-03
1.406250e-09,1.028125e-02
1.410250e-09,1.037500e-02
1.414250e-09,1.025000e-02
1.418250e-09,1.048438e-02
1.422250e-09,1.112500e-02
1.426250e-09,1.093750e-02
1.430250e-09,1.173438e-02
1.434250e-09,1.209375e-02
1.438250e-09,1.243750e-02
1.442250e-09,1.139063e-02
1.446250e-09,1.229688e-02
1.450250e-09,1.157813e-02
1.454250e-09,1.282813e-02
1.458250e-09,1.267188e-02
1.462250e-09,1.248438e-02
1.466250e-09,1.185938e-02
1.470250e-09,1.223438e-02
1.474250e-09,1.178125e-02
1.478250e-09,1.170313e-02
1.482250e-09,1.201563e-02
1.486250e-09,1.210938e-02
1.490250e-09,1.178125e-02
1.494250e-09,1.123438e-02
1.498250e-09,1.107813e-02
1.502250e-09,1.131250e-02
1.506250e-09,1.075000e-02
1.510250e-09,1.115625e-02
1.514250e-09,1.115625e-02
1.518250e-09,1.115625e-02
1.522250e-09,9.750000e-03
1.526250e-09,1.034375e-02
1.530250e-09,9.328125e-03
1.534250e-09,1.031250e-02
1.538250e-09,9.906250e-03
1.542250e-09,9.484375e-03
1.546250e-09,8.671875e-03
1.550250e-09,8.859375e-03
1.554250e-09,8.250000e-03
1.558250e-09,8.062500e-03
1.562250e-09,8.265625e-03
1.566250e-09,8.281250e-03
1.570250e-09,7.906250e-03
1.574250e-09,7.328125e-03
1.578250e-09,7.171875e-03
1.582250e-09,7.437500e-03
1.586250e-09,6.890625e-03
1.590250e-09,7.359375e-03
1.594250e-09,7.437500e-03
1.598250e-09,7.515625e-03
1.602250e-09,6.203125e-03
1.606250e-09,6.906250e-03
1.610250e-09,6.015625e-03
1.614250e-09,7.156250e-03
1.618250e-09,6.875000e-03
1.622250e-09,6.593750e-03
1.626250e-09,5.937500e-03
1.630250e-09,6.281250e-03
1.634250e-09,5.828125e-03
1.638250e-09,5.765625e-03
1.642250e-09,6.125000e-03
1.646250e-09,6.281250e-03
1.650250e-09,6.046875e-03
1.654250e-09,5.593750e-03
1.658250e-09,5.562500e-03
1.662250e-09,5.921875e-03
1.666250e-09,5.484375e-03
1.670250e-09,6.046875e-03
1.674250e-09,6.203125e-03
1.678250e-09,6.343750e-03
1.682250e-09,5.093750e-03
1.686250e-09,5.843750e-03
1.690250e-09,4.968750e-03
1.694250e-09,6.125000e-03
1.698250e-09,5.859375e-03
1.702250e-09,5.593750e-03
1.706250e-09,4.906250e-03
1.710250e-09,5.234375e-03
1.714250e-09,4.750000e-03
1.718250e-09,4.671875e-03
1.722250e-09,4.984375e-03
1.726250e-09,5.093750e-03
1.730250e-09,4.812500e-03
1.734250e-09,4.312500e-03
1.738250e-09,4.218750e-03
1.742250e-09,4.531250e-03
1.746250e-09,4.031250e-03
1.750250e-09,4.546875e-03
1.754250e-09,4.656250e-03
