Measurements-streak-laser-independent/Photodiode-on-Tek-12bit-4GHz/Tek000_ch1_20190613132931990.csv

Model,MSO64
Waveform Type,ANALOG
Horizontal Units,s
Sample Interval,4.000000e-12
Record Length,1000
Zero Index,310.500000
Vertical Units,V

TIME,CH1
-1.242000e-09,2.875000e-03
-1.238000e-09,3.078125e-03
-1.234000e-09,3.687500e-03
-1.230000e-09,3.500000e-03
-1.226000e-09,4.328125e-03
-1.222000e-09,4.765625e-03
-1.218000e-09,5.203125e-03
-1.214000e-09,4.234375e-03
-1.210000e-09,5.296875e-03
-1.206000e-09,4.734375e-03
-1.202000e-09,6.187500e-03
-1.198000e-09,6.234375e-03
-1.194000e-09,6.281250e-03
-1.190000e-09,5.906250e-03
-1.186000e-09,6.546875e-03
-1.182000e-09,6.359375e-03
-1.178000e-09,6.578125e-03
-1.174000e-09,7.187500e-03
-1.170000e-09,7.578125e-03
-1.166000e-09,7.562500e-03
-1.162000e-09,7.312500e-03
-1.158000e-09,7.468750e-03
-1.154000e-09,8.015625e-03
-1.150000e-09,7.734375e-03
-1.146000e-09,8.437500e-03
-1.142000e-09,8.734375e-03
-1.138000e-09,9.000000e-03
-1.134000e-09,7.843750e-03
-1.130000e-09,8.687500e-03
-1.126000e-09,7.890625e-03
-1.122000e-09,9.109375e-03
-1.118000e-09,8.890625e-03
-1.114000e-09,8.656250e-03
-1.110000e-09,8.000000e-03
-1.106000e-09,8.343750e-03
-1.102000e-09,7.859375e-03
-1.098000e-09,7.765625e-03
-1.094000e-09,8.078125e-03
-1.090000e-09,8.156250e-03
-1.086000e-09,7.843750e-03
-1.082000e-09,7.296875e-03
-1.078000e-09,7.156250e-03
-1.074000e-09,7.421875e-03
-1.070000e-09,6.859375e-03
-1.066000e-09,7.312500e-03
-1.062000e-09,7.359375e-03
-1.058000e-09,7.406250e-03
-1.054000e-09,6.031250e-03
-1.050000e-09,6.687500e-03
-1.046000e-09,5.718750e-03
-1.042000e-09,6.781250e-03
-1.038000e-09,6.437500e-03
-1.034000e-09,6.093750e-03
-1.030000e-09,5.359375e-03
-1.026000e-09,5.656250e-03
-1.022000e-09,5.140625e-03
-1.018000e-09,5.031250e-03
-1.014000e-09,5.359375e-03
-1.010000e-09,5.484375e-03
-1.006000e-09,5.203125e-03
-1.002000e-09,4.750000e-03
-9.980000e-10,4.718750e-03
-9.940000e-10,5.093750e-03
-9.900000e-10,4.671875e-03
-9.860000e-10,5.281250e-03
-9.820000e-10,5.484375e-03
-9.780000e-10,5.718750e-03
-9.740000e-10,4.546875e-03
-9.700000e-10,5.390625e-03
-9.660000e-10,4.640625e-03
-9.620000e-10,5.906250e-03
-9.580000e-10,5.781250e-03
-9.540000e-10,5.656250e-03
-9.500000e-10,5.140625e-03
-9.460000e-10,5.640625e-03
-9.420000e-10,5.343750e-03
-9.380000e-10,5.453125e-03
-9.340000e-10,5.968750e-03
-9.300000e-10,6.281250e-03
-9.260000e-10,6.187500e-03
-9.220000e-10,5.890625e-03
-9.180000e-10,6.000000e-03
-9.140000e-10,6.515625e-03
-9.100000e-10,6.218750e-03
-9.060000e-10,6.937500e-03
-9.020000e-10,7.234375e-03
-8.980000e-10,7.531250e-03
-8.940000e-10,6.437500e-03
-8.900000e-10,7.328125e-03
-8.860000e-10,6.593750e-03
-8.820000e-10,7.828125e-03
-8.780000e-10,7.687500e-03
-8.740000e-10,7.546875e-03
-8.700000e-10,7.000000e-03
-8.660000e-10,7.437500e-03
-8.620000e-10,7.062500e-03
-8.580000e-10,7.093750e-03
-8.540000e-10,7.515625e-03
-8.500000e-10,7.718750e-03
-8.460000e-10,7.531250e-03
-8.420000e-10,7.109375e-03
-8.380000e-10,7.093750e-03
-8.340000e-10,7.468750e-03
-8.300000e-10,7.046875e-03
-8.260000e-10,7.609375e-03
-8.220000e-10,7.781250e-03
-8.180000e-10,7.937500e-03
-8.140000e-10,6.703125e-03
-8.100000e-10,7.468750e-03
-8.060000e-10,6.625000e-03
-8.020000e-10,7.687500e-03
-7.980000e-10,7.468750e-03
-7.940000e-10,7.218750e-03
-7.900000e-10,6.593750e-03
-7.860000e-10,6.937500e-03
-7.820000e-10,6.468750e-03
-7.780000e-10,6.453125e-03
-7.740000e-10,6.796875e-03
-7.700000e-10,6.953125e-03
-7.660000e-10,6.765625e-03
-7.620000e-10,6.312500e-03
-7.580000e-10,6.265625e-03
-7.540000e-10,6.640625e-03
-7.500000e-10,6.218750e-03
-7.460000e-10,6.796875e-03
-7.420000e-10,6.984375e-03
-7.380000e-10,7.156250e-03
-7.340000e-10,5.968750e-03
-7.300000e-10,6.781250e-03
-7.260000e-10,5.984375e-03
-7.220000e-10,7.062500e-03
-7.180000e-10,6.906250e-03
-7.140000e-10,6.718750e-03
-7.100000e-10,6.171875e-03
-7.060000e-10,6.546875e-03
-7.020000e-10,6.109375e-03
-6.980000e-10,6.171875e-03
-6.940000e-10,6.546875e-03
-6.900000e-10,6.718750e-03
-6.860000e-10,6.609375e-03
-6.820000e-10,6.187500e-03
-6.780000e-10,6.156250e-03
-6.740000e-10,6.515625e-03
-6.700000e-10,6.125000e-03
-6.660000e-10,6.687500e-03
-6.620000e-10,6.875000e-03
-6.580000e-10,7.031250e-03
-6.540000e-10,5.781250e-03
-6.500000e-10,6.562500e-03
-6.460000e-10,5.765625e-03
-6.420000e-10,6.781250e-03
-6.380000e-10,6.593750e-03
-6.340000e-10,6.343750e-03
-6.300000e-10,5.718750e-03
-6.260000e-10,6.015625e-03
-6.220000e-10,5.500000e-03
-6.180000e-10,5.484375e-03
-6.140000e-10,5.796875e-03
-6.100000e-10,5.859375e-03
-6.060000e-10,5.687500e-03
-6.020000e-10,5.187500e-03
-5.980000e-10,5.093750e-03
-5.940000e-10,5.390625e-03
-5.900000e-10,4.937500e-03
-5.860000e-10,5.453125e-03
-5.820000e-10,5.578125e-03
-5.780000e-10,5.671875e-03
-5.740000e-10,4.390625e-03
-5.700000e-10,5.140625e-03
-5.660000e-10,4.359375e-03
-5.620000e-10,5.390625e-03
-5.580000e-10,5.234375e-03
-5.540000e-10,5.015625e-03
-5.500000e-10,4.421875e-03
-5.460000e-10,4.781250e-03
-5.420000e-10,4.343750e-03
-5.380000e-10,4.390625e-03
-5.340000e-10,4.828125e-03
-5.300000e-10,5.000000e-03
-5.260000e-10,4.937500e-03
-5.220000e-10,4.578125e-03
-5.180000e-10,4.656250e-03
-5.140000e-10,5.140625e-03
-5.100000e-10,4.843750e-03
-5.060000e-10,5.562500e-03
-5.020000e-10,5.859375e-03
-4.980000e-10,6.156250e-03
-4.940000e-10,5.062500e-03
-4.900000e-10,5.984375e-03
-4.860000e-10,5.421875e-03
-4.820000e-10,6.656250e-03
-4.780000e-10,6.718750e-03
-4.740000e-10,6.671875e-03
-4.700000e-10,6.265625e-03
-4.660000e-10,6.796875e-03
-4.620000e-10,6.578125e-03
-4.580000e-10,6.750000e-03
-4.540000e-10,7.343750e-03
-4.500000e-10,7.656250e-03
-4.460000e-10,7.671875e-03
-4.420000e-10,7.421875e-03
-4.380000e-10,7.609375e-03
-4.340000e-10,8.187500e-03
-4.300000e-10,7.906250e-03
-4.260000e-10,8.671875e-03
-4.220000e-10,8.968750e-03
-4.180000e-10,9.250000e-03
-4.140000e-10,8.156250e-03
-4.100000e-10,8.984375e-03
-4.060000e-10,8.343750e-03
-4.020000e-10,9.500000e-03
-3.980000e-10,9.453125e-03
-3.940000e-10,9.250000e-03
-3.900000e-10,8.687500e-03
-3.860000e-10,9.062500e-03
-3.820000e-10,8.687500e-03
-3.780000e-10,8.625000e-03
-3.740000e-10,9.000000e-03
-3.700000e-10,9.078125e-03
-3.660000e-10,8.812500e-03
-3.620000e-10,8.328125e-03
-3.580000e-10,8.281250e-03
-3.540000e-10,8.593750e-03
-3.500000e-10,8.031250e-03
-3.460000e-10,8.515625e-03
-3.420000e-10,8.562500e-03
-3.380000e-10,8.578125e-03
-3.340000e-10,7.250000e-03
-3.300000e-10,7.781250e-03
-3.260000e-10,6.875000e-03
-3.220000e-10,7.812500e-03
-3.180000e-10,7.500000e-03
-3.140000e-10,7.078125e-03
-3.100000e-10,6.343750e-03
-3.060000e-10,6.515625e-03
-3.020000e-10,5.984375e-03
-2.980000e-10,5.734375e-03
-2.940000e-10,5.953125e-03
-2.900000e-10,5.906250e-03
-2.860000e-10,5.500000e-03
-2.820000e-10,4.968750e-03
-2.780000e-10,4.828125e-03
-2.740000e-10,5.078125e-03
-2.700000e-10,4.500000e-03
-2.660000e-10,4.921875e-03
-2.620000e-10,5.015625e-03
-2.580000e-10,5.031250e-03
-2.540000e-10,3.765625e-03
-2.500000e-10,4.343750e-03
-2.460000e-10,3.484375e-03
-2.420000e-10,4.515625e-03
-2.380000e-10,4.265625e-03
-2.340000e-10,3.968750e-03
-2.300000e-10,3.375000e-03
-2.260000e-10,3.687500e-03
-2.220000e-10,3.265625e-03
-2.180000e-10,3.187500e-03
-2.140000e-10,3.546875e-03
-2.100000e-10,3.671875e-03
-2.060000e-10,3.437500e-03
-2.020000e-10,3.109375e-03
-1.980000e-10,3.125000e-03
-1.940000e-10,3.531250e-03
-1.900000e-10,3.156250e-03
-1.860000e-10,3.765625e-03
-1.820000e-10,4.031250e-03
-1.780000e-10,4.281250e-03
-1.740000e-10,3.218750e-03
-1.700000e-10,4.031250e-03
-1.660000e-10,3.359375e-03
-1.620000e-10,4.640625e-03
-1.580000e-10,4.593750e-03
-1.540000e-10,4.546875e-03
-1.500000e-10,4.218750e-03
-1.460000e-10,4.796875e-03
-1.420000e-10,4.640625e-03
-1.380000e-10,4.890625e-03
-1.340000e-10,5.531250e-03
-1.300000e-10,6.015625e-03
-1.260000e-10,6.125000e-03
-1.220000e-10,6.187500e-03
-1.180000e-10,6.593750e-03
-1.140000e-10,7.406250e-03
-1.100000e-10,7.500000e-03
-1.060000e-10,8.625000e-03
-1.020000e-10,9.421875e-03
-9.800000e-11,1.026563e-02
-9.400000e-11,9.859375e-03
-9.000000e-11,1.132813e-02
-8.600000e-11,1.132813e-02
-8.200000e-11,1.339063e-02
-7.800000e-11,1.410938e-02
-7.400000e-11,1.492188e-02
-7.000000e-11,1.550000e-02
-6.600000e-11,1.704688e-02
-6.200000e-11,1.789063e-02
-5.800000e-11,1.918750e-02
-5.400000e-11,2.095313e-02
-5.000000e-11,2.262500e-02
-4.600000e-11,2.392188e-02
-4.200000e-11,2.525000e-02
-3.800000e-11,2.696875e-02
-3.400000e-11,2.907813e-02
-3.000000e-11,3.059375e-02
-2.600000e-11,3.317188e-02
-2.200000e-11,3.540625e-02
-1.800000e-11,3.779688e-02
-1.400000e-11,3.895313e-02
-1.000000e-11,4.200000e-02
-6.000000e-12,4.357813e-02
-2.000000e-12,4.726563e-02
2.000000e-12,4.957813e-02
6.000000e-12,5.206250e-02
1.000000e-11,5.425000e-02
1.400000e-11,5.742188e-02
1.800000e-11,5.989063e-02
2.200000e-11,6.279688e-02
2.600000e-11,6.614063e-02
3.000000e-11,6.942188e-02
3.400000e-11,7.221875e-02
3.800000e-11,7.501563e-02
4.200000e-11,7.817188e-02
4.600000e-11,8.165625e-02
5.000000e-11,8.450000e-02
5.400000e-11,8.831250e-02
5.800000e-11,9.173438e-02
6.200000e-11,9.525000e-02
6.600000e-11,9.740625e-02
7.000000e-11,1.013906e-01
7.400000e-11,1.038125e-01
7.800000e-11,1.082188e-01
8.200000e-11,1.111250e-01
8.600000e-11,1.141563e-01
9.000000e-11,1.167188e-01
9.400000e-11,1.201406e-01
9.800000e-11,1.227969e-01
1.020000e-10,1.257188e-01
1.060000e-10,1.289844e-01
1.100000e-10,1.320781e-01
1.140000e-10,1.345000e-01
1.180000e-10,1.368125e-01
1.220000e-10,1.393438e-01
1.260000e-10,1.420938e-01
1.300000e-10,1.440938e-01
1.340000e-10,1.469063e-01
1.380000e-10,1.491563e-01
1.420000e-10,1.514375e-01
1.460000e-10,1.521875e-01
1.500000e-10,1.547031e-01
1.540000e-10,1.555156e-01
1.580000e-10,1.581563e-01
1.620000e-10,1.592031e-01
1.660000e-10,1.602969e-01
1.700000e-10,1.607969e-01
1.740000e-10,1.620469e-01
1.780000e-10,1.624844e-01
1.820000e-10,1.630938e-01
1.860000e-10,1.639375e-01
1.900000e-10,1.645781e-01
1.940000e-10,1.644375e-01
1.980000e-10,1.641250e-01
2.020000e-10,1.640156e-01
2.060000e-10,1.640938e-01
2.100000e-10,1.633594e-01
2.140000e-10,1.633906e-01
2.180000e-10,1.628281e-01
2.220000e-10,1.623125e-01
2.260000e-10,1.602031e-01
2.300000e-10,1.599219e-01
2.340000e-10,1.579375e-01
2.380000e-10,1.577344e-01
2.420000e-10,1.560000e-01
2.460000e-10,1.542969e-01
2.500000e-10,1.520469e-01
2.540000e-10,1.505938e-01
2.580000e-10,1.483906e-01
2.620000e-10,1.464219e-01
2.660000e-10,1.446875e-01
2.700000e-10,1.428281e-01
2.740000e-10,1.402813e-01
2.780000e-10,1.375781e-01
2.820000e-10,1.352031e-01
2.860000e-10,1.330938e-01
2.900000e-10,1.302344e-01
2.940000e-10,1.282188e-01
2.980000e-10,1.257188e-01
3.020000e-10,1.233438e-01
3.060000e-10,1.194688e-01
3.100000e-10,1.175469e-01
3.140000e-10,1.140469e-01
3.180000e-10,1.123750e-01
3.220000e-10,1.093125e-01
3.260000e-10,1.063594e-01
3.300000e-10,1.029688e-01
3.340000e-10,1.005313e-01
3.380000e-10,9.745313e-02
3.420000e-10,9.468750e-02
3.460000e-10,9.225000e-02
3.500000e-10,8.978125e-02
3.540000e-10,8.679688e-02
3.580000e-10,8.373438e-02
3.620000e-10,8.109375e-02
3.660000e-10,7.885938e-02
3.700000e-10,7.590625e-02
3.740000e-10,7.392188e-02
3.780000e-10,7.159375e-02
3.820000e-10,6.945313e-02
3.860000e-10,6.589063e-02
3.900000e-10,6.440625e-02
3.940000e-10,6.142188e-02
3.980000e-10,6.032813e-02
4.020000e-10,5.795313e-02
4.060000e-10,5.573438e-02
4.100000e-10,5.317188e-02
4.140000e-10,5.162500e-02
4.180000e-10,4.948438e-02
4.220000e-10,4.773438e-02
4.260000e-10,4.634375e-02
4.300000e-10,4.496875e-02
4.340000e-10,4.318750e-02
4.380000e-10,4.134375e-02
4.420000e-10,3.992188e-02
4.460000e-10,3.895313e-02
4.500000e-10,3.729688e-02
4.540000e-10,3.660938e-02
4.580000e-10,3.564063e-02
4.620000e-10,3.481250e-02
4.660000e-10,3.262500e-02
4.700000e-10,3.248438e-02
4.740000e-10,3.087500e-02
4.780000e-10,3.114063e-02
4.820000e-10,3.014063e-02
4.860000e-10,2.923438e-02
4.900000e-10,2.798438e-02
4.940000e-10,2.773438e-02
4.980000e-10,2.682813e-02
5.020000e-10,2.629688e-02
5.060000e-10,2.610938e-02
5.100000e-10,2.587500e-02
5.140000e-10,2.526563e-02
5.180000e-10,2.450000e-02
5.220000e-10,2.412500e-02
5.260000e-10,2.414063e-02
5.300000e-10,2.343750e-02
5.340000e-10,2.360938e-02
5.380000e-10,2.350000e-02
5.420000e-10,2.343750e-02
5.460000e-10,2.198438e-02
5.500000e-10,2.250000e-02
5.540000e-10,2.151563e-02
5.580000e-10,2.235938e-02
5.620000e-10,2.190625e-02
5.660000e-10,2.140625e-02
5.700000e-10,2.056250e-02
5.740000e-10,2.067188e-02
5.780000e-10,2.001563e-02
5.820000e-10,1.970313e-02
5.860000e-10,1.970313e-02
5.900000e-10,1.962500e-02
5.940000e-10,1.912500e-02
5.980000e-10,1.839063e-02
6.020000e-10,1.806250e-02
6.060000e-10,1.804688e-02
6.100000e-10,1.728125e-02
6.140000e-10,1.739063e-02
6.180000e-10,1.718750e-02
6.220000e-10,1.693750e-02
6.260000e-10,1.534375e-02
6.300000e-10,1.567188e-02
6.340000e-10,1.450000e-02
6.380000e-10,1.517188e-02
6.420000e-10,1.451563e-02
6.460000e-10,1.379688e-02
6.500000e-10,1.273438e-02
6.540000e-10,1.265625e-02
6.580000e-10,1.176563e-02
6.620000e-10,1.125000e-02
6.660000e-10,1.109375e-02
6.700000e-10,1.084375e-02
6.740000e-10,1.020313e-02
6.780000e-10,9.328125e-03
6.820000e-10,8.921875e-03
6.860000e-10,8.812500e-03
6.900000e-10,8.000000e-03
6.940000e-10,8.093750e-03
6.980000e-10,7.921875e-03
7.020000e-10,7.671875e-03
7.060000e-10,6.171875e-03
7.100000e-10,6.546875e-03
7.140000e-10,5.531250e-03
7.180000e-10,6.375000e-03
7.220000e-10,5.921875e-03
7.260000e-10,5.453125e-03
7.300000e-10,4.609375e-03
7.340000e-10,4.843750e-03
7.380000e-10,4.250000e-03
7.420000e-10,4.046875e-03
7.460000e-10,4.296875e-03
7.500000e-10,4.421875e-03
7.540000e-10,4.203125e-03
7.580000e-10,3.734375e-03
7.620000e-10,3.765625e-03
7.660000e-10,4.125000e-03
7.700000e-10,3.781250e-03
7.740000e-10,4.406250e-03
7.780000e-10,4.718750e-03
7.820000e-10,4.921875e-03
7.860000e-10,3.937500e-03
7.900000e-10,4.796875e-03
7.940000e-10,4.234375e-03
7.980000e-10,5.593750e-03
8.020000e-10,5.609375e-03
8.060000e-10,5.625000e-03
8.100000e-10,5.218750e-03
8.140000e-10,5.859375e-03
8.180000e-10,5.656250e-03
8.220000e-10,5.859375e-03
8.260000e-10,6.484375e-03
8.300000e-10,6.906250e-03
8.340000e-10,7.000000e-03
8.380000e-10,6.828125e-03
8.420000e-10,7.062500e-03
8.460000e-10,7.687500e-03
8.500000e-10,7.546875e-03
8.540000e-10,8.328125e-03
8.580000e-10,8.750000e-03
8.620000e-10,9.046875e-03
8.660000e-10,8.140625e-03
8.700000e-10,9.015625e-03
8.740000e-10,8.406250e-03
8.780000e-10,9.765625e-03
8.820000e-10,9.734375e-03
8.860000e-10,9.656250e-03
8.900000e-10,9.140625e-03
8.940000e-10,9.609375e-03
8.980000e-10,9.265625e-03
9.020000e-10,9.312500e-03
9.060000e-10,9.750000e-03
9.100000e-10,9.875000e-03
9.140000e-10,9.750000e-03
9.180000e-10,9.312500e-03
9.220000e-10,9.250000e-03
9.260000e-10,9.625000e-03
9.300000e-10,9.218750e-03
9.340000e-10,9.703125e-03
9.380000e-10,9.812500e-03
9.420000e-10,9.828125e-03
9.460000e-10,8.640625e-03
9.500000e-10,9.234375e-03
9.540000e-10,8.312500e-03
9.580000e-10,9.390625e-03
9.620000e-10,9.078125e-03
9.660000e-10,8.734375e-03
9.700000e-10,7.984375e-03
9.740000e-10,8.203125e-03
9.780000e-10,7.656250e-03
9.820000e-10,7.500000e-03
9.860000e-10,7.765625e-03
9.900000e-10,7.687500e-03
9.940000e-10,7.375000e-03
9.980000e-10,6.828125e-03
1.002000e-09,6.625000e-03
1.006000e-09,6.906250e-03
1.010000e-09,6.406250e-03
1.014000e-09,6.812500e-03
1.018000e-09,6.859375e-03
1.022000e-09,6.843750e-03
1.026000e-09,5.656250e-03
1.030000e-09,6.265625e-03
1.034000e-09,5.343750e-03
1.038000e-09,6.421875e-03
1.042000e-09,6.156250e-03
1.046000e-09,5.843750e-03
1.050000e-09,5.156250e-03
1.054000e-09,5.453125e-03
1.058000e-09,4.984375e-03
1.062000e-09,4.921875e-03
1.066000e-09,5.281250e-03
1.070000e-09,5.312500e-03
1.074000e-09,5.078125e-03
1.078000e-09,4.640625e-03
1.082000e-09,4.531250e-03
1.086000e-09,4.921875e-03
1.090000e-09,4.500000e-03
1.094000e-09,5.015625e-03
1.098000e-09,5.171875e-03
1.102000e-09,5.281250e-03
1.106000e-09,4.156250e-03
1.110000e-09,4.890625e-03
1.114000e-09,4.062500e-03
1.118000e-09,5.218750e-03
1.122000e-09,5.000000e-03
1.126000e-09,4.765625e-03
1.130000e-09,4.140625e-03
1.134000e-09,4.515625e-03
1.138000e-09,4.109375e-03
1.142000e-09,4.093750e-03
1.146000e-09,4.484375e-03
1.150000e-09,4.593750e-03
1.154000e-09,4.406250e-03
1.158000e-09,4.000000e-03
1.162000e-09,3.937500e-03
1.166000e-09,4.343750e-03
1.170000e-09,3.953125e-03
1.174000e-09,4.515625e-03
1.178000e-09,4.718750e-03
1.182000e-09,4.875000e-03
1.186000e-09,3.781250e-03
1.190000e-09,4.593750e-03
1.194000e-09,3.796875e-03
1.198000e-09,5.015625e-03
1.202000e-09,4.843750e-03
1.206000e-09,4.687500e-03
1.210000e-09,4.125000e-03
1.214000e-09,4.578125e-03
1.218000e-09,4.234375e-03
1.222000e-09,4.312500e-03
1.226000e-09,4.796875e-03
1.230000e-09,5.046875e-03
1.234000e-09,4.953125e-03
1.238000e-09,4.656250e-03
1.242000e-09,4.734375e-03
1.246000e-09,5.265625e-03
1.250000e-09,5.000000e-03
1.254000e-09,5.703125e-03
1.258000e-09,6.046875e-03
1.262000e-09,6.375000e-03
1.266000e-09,5.390625e-03
1.270000e-09,6.343750e-03
1.274000e-09,5.703125e-03
1.278000e-09,7.062500e-03
1.282000e-09,7.046875e-03
1.286000e-09,7.031250e-03
1.290000e-09,6.609375e-03
1.294000e-09,7.187500e-03
1.298000e-09,6.968750e-03
1.302000e-09,7.156250e-03
1.306000e-09,7.750000e-03
1.310000e-09,8.109375e-03
1.314000e-09,8.093750e-03
1.318000e-09,7.859375e-03
1.322000e-09,8.015625e-03
1.326000e-09,8.593750e-03
1.330000e-09,8.343750e-03
1.334000e-09,9.093750e-03
1.338000e-09,9.437500e-03
1.342000e-09,9.750000e-03
1.346000e-09,8.703125e-03
1.350000e-09,9.609375e-03
1.354000e-09,8.906250e-03
1.358000e-09,1.020313e-02
1.362000e-09,1.007813e-02
1.366000e-09,9.937500e-03
1.370000e-09,9.375000e-03
1.374000e-09,9.812500e-03
1.378000e-09,9.437500e-03
1.382000e-09,9.453125e-03
1.386000e-09,9.843750e-03
1.390000e-09,1.003125e-02
1.394000e-09,9.812500e-03
1.398000e-09,9.359375e-03
1.402000e-09,9.312500e-03
1.406000e-09,9.656250e-03
1.410000e-09,9.187500e-03
1.414000e-09,9.703125e-03
1.418000e-09,9.812500e-03
1.422000e-09,9.921875e-03
1.426000e-09,8.625000e-03
1.430000e-09,9.328125e-03
1.434000e-09,8.406250e-03
1.438000e-09,9.500000e-03
1.442000e-09,9.187500e-03
1.446000e-09,8.875000e-03
1.450000e-09,8.156250e-03
1.454000e-09,8.437500e-03
1.458000e-09,7.921875e-03
1.462000e-09,7.828125e-03
1.466000e-09,8.125000e-03
1.470000e-09,8.234375e-03
1.474000e-09,7.937500e-03
1.478000e-09,7.453125e-03
1.482000e-09,7.390625e-03
1.486000e-09,7.718750e-03
1.490000e-09,7.281250e-03
1.494000e-09,7.828125e-03
1.498000e-09,8.000000e-03
1.502000e-09,8.187500e-03
1.506000e-09,6.968750e-03
1.510000e-09,7.781250e-03
1.514000e-09,7.000000e-03
1.518000e-09,8.218750e-03
1.522000e-09,8.062500e-03
1.526000e-09,7.906250e-03
1.530000e-09,7.343750e-03
1.534000e-09,7.828125e-03
1.538000e-09,7.484375e-03
1.542000e-09,7.562500e-03
1.546000e-09,8.062500e-03
1.550000e-09,8.359375e-03
1.554000e-09,8.250000e-03
1.558000e-09,7.937500e-03
1.562000e-09,8.046875e-03
1.566000e-09,8.546875e-03
1.570000e-09,8.250000e-03
1.574000e-09,8.953125e-03
1.578000e-09,9.250000e-03
1.582000e-09,9.531250e-03
1.586000e-09,8.406250e-03
1.590000e-09,9.296875e-03
1.594000e-09,8.546875e-03
1.598000e-09,9.812500e-03
1.602000e-09,9.656250e-03
1.606000e-09,9.484375e-03
1.610000e-09,8.890625e-03
1.614000e-09,9.296875e-03
1.618000e-09,8.890625e-03
1.622000e-09,8.859375e-03
1.626000e-09,9.218750e-03
1.630000e-09,9.343750e-03
1.634000e-09,9.062500e-03
1.638000e-09,8.562500e-03
1.642000e-09,8.437500e-03
1.646000e-09,8.718750e-03
1.650000e-09,8.156250e-03
1.654000e-09,8.593750e-03
1.658000e-09,8.593750e-03
1.662000e-09,8.609375e-03
1.666000e-09,7.171875e-03
1.670000e-09,7.750000e-03
1.674000e-09,6.703125e-03
1.678000e-09,7.656250e-03
1.682000e-09,7.187500e-03
1.686000e-09,6.703125e-03
1.690000e-09,5.812500e-03
1.694000e-09,5.937500e-03
1.698000e-09,5.250000e-03
1.702000e-09,4.953125e-03
1.706000e-09,5.062500e-03
1.710000e-09,4.968750e-03
1.714000e-09,4.484375e-03
1.718000e-09,3.796875e-03
1.722000e-09,3.515625e-03
1.726000e-09,3.656250e-03
1.730000e-09,3.000000e-03
1.734000e-09,3.359375e-03
1.738000e-09,3.328125e-03
1.742000e-09,3.312500e-03
1.746000e-09,1.906250e-03
1.750000e-09,2.531250e-03
1.754000e-09,1.562500e-03
1.758000e-09,2.625000e-03
