Measurements-streak-laser-independent/Photodiode-on-Tek-12bit-4GHz/Tek000_ch1_20190613132954153.csv

Model,MSO64
Waveform Type,ANALOG
Horizontal Units,s
Sample Interval,4.000000e-12
Record Length,1000
Zero Index,310.703125
Vertical Units,V

TIME,CH1
-1.242812e-09,3.015625e-03
-1.238812e-09,3.500000e-03
-1.234812e-09,3.593750e-03
-1.230812e-09,3.671875e-03
-1.226812e-09,2.343750e-03
-1.222813e-09,3.046875e-03
-1.218813e-09,2.125000e-03
-1.214813e-09,3.234375e-03
-1.210813e-09,2.921875e-03
-1.206813e-09,2.625000e-03
-1.202812e-09,1.921875e-03
-1.198812e-09,2.234375e-03
-1.194812e-09,1.734375e-03
-1.190812e-09,1.656250e-03
-1.186812e-09,1.968750e-03
-1.182812e-09,2.078125e-03
-1.178812e-09,1.796875e-03
-1.174812e-09,1.312500e-03
-1.170812e-09,1.234375e-03
-1.166812e-09,1.562500e-03
-1.162813e-09,1.078125e-03
-1.158813e-09,1.609375e-03
-1.154813e-09,1.750000e-03
-1.150813e-09,1.875000e-03
-1.146813e-09,5.937500e-04
-1.142813e-09,1.328125e-03
-1.138812e-09,4.531250e-04
-1.134812e-09,1.609375e-03
-1.130812e-09,1.343750e-03
-1.126812e-09,1.062500e-03
-1.122812e-09,4.062500e-04
-1.118812e-09,7.500000e-04
-1.114812e-09,2.812500e-04
-1.110812e-09,2.343750e-04
-1.106812e-09,5.937500e-04
-1.102813e-09,7.343750e-04
-1.098813e-09,4.843750e-04
-1.094813e-09,4.687500e-05
-1.090813e-09,5.551115e-17
-1.086813e-09,3.750000e-04
-1.082813e-09,-6.250000e-05
-1.078812e-09,5.312500e-04
-1.074812e-09,7.187500e-04
-1.070812e-09,9.062500e-04
-1.066812e-09,-3.125000e-04
-1.062812e-09,5.000000e-04
-1.058812e-09,-3.125000e-04
-1.054812e-09,9.375000e-04
-1.050812e-09,7.656250e-04
-1.046812e-09,5.781250e-04
-1.042813e-09,3.125000e-05
-1.038813e-09,4.843750e-04
-1.034813e-09,1.406250e-04
-1.030813e-09,2.187500e-04
-1.026813e-09,7.031250e-04
-1.022813e-09,1.000000e-03
-1.018812e-09,8.906250e-04
-1.014812e-09,6.093750e-04
-1.010812e-09,7.343750e-04
-1.006812e-09,1.265625e-03
-1.002812e-09,1.000000e-03
-9.988125e-10,1.765625e-03
-9.948125e-10,2.125000e-03
-9.908125e-10,2.500000e-03
-9.868125e-10,1.468750e-03
-9.828125e-10,2.453125e-03
-9.788125e-10,1.843750e-03
-9.748125e-10,3.250000e-03
-9.708125e-10,3.250000e-03
-9.668125e-10,3.265625e-03
-9.628125e-10,2.875000e-03
-9.588125e-10,3.500000e-03
-9.548125e-10,3.312500e-03
-9.508125e-10,3.531250e-03
-9.468125e-10,4.171875e-03
-9.428125e-10,4.609375e-03
-9.388125e-10,4.625000e-03
-9.348125e-10,4.453125e-03
-9.308125e-10,4.687500e-03
-9.268125e-10,5.296875e-03
-9.228125e-10,5.109375e-03
-9.188125e-10,5.937500e-03
-9.148125e-10,6.343750e-03
-9.108125e-10,6.750000e-03
-9.068125e-10,5.750000e-03
-9.028125e-10,6.734375e-03
-8.988125e-10,6.109375e-03
-8.948125e-10,7.421875e-03
-8.908125e-10,7.390625e-03
-8.868125e-10,7.343750e-03
-8.828125e-10,6.890625e-03
-8.788125e-10,7.437500e-03
-8.748125e-10,7.156250e-03
-8.708125e-10,7.281250e-03
-8.668125e-10,7.796875e-03
-8.628125e-10,8.093750e-03
-8.588125e-10,7.984375e-03
-8.548125e-10,7.656250e-03
-8.508125e-10,7.734375e-03
-8.468125e-10,8.187500e-03
-8.428125e-10,7.843750e-03
-8.388125e-10,8.500000e-03
-8.348125e-10,8.734375e-03
-8.308125e-10,8.968750e-03
-8.268125e-10,7.843750e-03
-8.228125e-10,8.687500e-03
-8.188125e-10,7.890625e-03
-8.148125e-10,8.921875e-03
-8.108125e-10,8.796875e-03
-8.068125e-10,8.593750e-03
-8.028125e-10,8.062500e-03
-7.988125e-10,8.453125e-03
-7.948125e-10,8.046875e-03
-7.908125e-10,8.109375e-03
-7.868125e-10,8.500000e-03
-7.828125e-10,8.703125e-03
-7.788125e-10,8.578125e-03
-7.748125e-10,8.171875e-03
-7.708125e-10,8.171875e-03
-7.668125e-10,8.562500e-03
-7.628125e-10,8.171875e-03
-7.588125e-10,8.781250e-03
-7.548125e-10,9.000000e-03
-7.508125e-10,9.203125e-03
-7.468125e-10,8.109375e-03
-7.428125e-10,8.937500e-03
-7.388125e-10,8.156250e-03
-7.348125e-10,9.062500e-03
-7.308125e-10,9.000000e-03
-7.268125e-10,8.812500e-03
-7.228125e-10,8.328125e-03
-7.188125e-10,8.671875e-03
-7.148125e-10,8.203125e-03
-7.108125e-10,8.328125e-03
-7.068125e-10,8.671875e-03
-7.028125e-10,8.796875e-03
-6.988125e-10,8.765625e-03
-6.948125e-10,8.265625e-03
-6.908125e-10,8.171875e-03
-6.868125e-10,8.468750e-03
-6.828125e-10,8.015625e-03
-6.788125e-10,8.500000e-03
-6.748125e-10,8.609375e-03
-6.708125e-10,8.656250e-03
-6.668125e-10,7.390625e-03
-6.628125e-10,8.078125e-03
-6.588125e-10,7.203125e-03
-6.548125e-10,7.875000e-03
-6.508125e-10,7.640625e-03
-6.468125e-10,7.312500e-03
-6.428125e-10,6.640625e-03
-6.388125e-10,6.718750e-03
-6.348125e-10,5.968750e-03
-6.308125e-10,5.921875e-03
-6.268125e-10,6.031250e-03
-6.228125e-10,5.859375e-03
-6.188125e-10,5.750000e-03
-6.148125e-10,5.015625e-03
-6.108125e-10,4.687500e-03
-6.068125e-10,4.765625e-03
-6.028125e-10,4.203125e-03
-5.988125e-10,4.468750e-03
-5.948125e-10,4.453125e-03
-5.908125e-10,4.328125e-03
-5.868125e-10,2.875000e-03
-5.828125e-10,3.484375e-03
-5.788125e-10,2.671875e-03
-5.748125e-10,3.265625e-03
-5.708125e-10,3.078125e-03
-5.668125e-10,2.781250e-03
-5.628125e-10,2.156250e-03
-5.588125e-10,2.296875e-03
-5.548125e-10,1.656250e-03
-5.508125e-10,1.765625e-03
-5.468125e-10,2.093750e-03
-5.428125e-10,2.078125e-03
-5.388125e-10,2.250000e-03
-5.348125e-10,1.812500e-03
-5.308125e-10,1.828125e-03
-5.268125e-10,2.265625e-03
-5.228125e-10,2.093750e-03
-5.188125e-10,2.812500e-03
-5.148125e-10,3.140625e-03
-5.108125e-10,3.437500e-03
-5.068125e-10,2.406250e-03
-5.028125e-10,3.437500e-03
-4.988125e-10,3.171875e-03
-4.948125e-10,4.234375e-03
-4.908125e-10,4.609375e-03
-4.868125e-10,4.718750e-03
-4.828125e-10,4.546875e-03
-4.788125e-10,5.125000e-03
-4.748125e-10,5.000000e-03
-4.708125e-10,5.437500e-03
-4.668125e-10,6.218750e-03
-4.628125e-10,6.546875e-03
-4.588125e-10,6.921875e-03
-4.548125e-10,6.812500e-03
-4.508125e-10,7.156250e-03
-4.468125e-10,7.875000e-03
-4.428125e-10,7.765625e-03
-4.388125e-10,8.687500e-03
-4.348125e-10,9.031250e-03
-4.308125e-10,9.359375e-03
-4.268125e-10,8.328125e-03
-4.228125e-10,9.140625e-03
-4.188125e-10,8.765625e-03
-4.148125e-10,9.671875e-03
-4.108125e-10,9.859375e-03
-4.068125e-10,9.593750e-03
-4.028125e-10,9.062500e-03
-3.988125e-10,9.281250e-03
-3.948125e-10,8.828125e-03
-3.908125e-10,8.656250e-03
-3.868125e-10,8.953125e-03
-3.828125e-10,8.750000e-03
-3.788125e-10,8.406250e-03
-3.748125e-10,7.734375e-03
-3.708125e-10,7.546875e-03
-3.668125e-10,7.687500e-03
-3.628125e-10,6.843750e-03
-3.588125e-10,7.140625e-03
-3.548125e-10,6.906250e-03
-3.508125e-10,6.593750e-03
-3.468125e-10,5.031250e-03
-3.428125e-10,5.156250e-03
-3.388125e-10,4.234375e-03
-3.348125e-10,4.640625e-03
-3.308125e-10,4.328125e-03
-3.268125e-10,3.593750e-03
-3.228125e-10,2.734375e-03
-3.188125e-10,2.656250e-03
-3.148125e-10,2.031250e-03
-3.108125e-10,1.546875e-03
-3.068125e-10,1.703125e-03
-3.028125e-10,1.437500e-03
-2.988125e-10,1.000000e-03
-2.948125e-10,4.843750e-04
-2.908125e-10,4.687500e-04
-2.868125e-10,8.281250e-04
-2.828125e-10,2.656250e-04
-2.788125e-10,8.281250e-04
-2.748125e-10,1.125000e-03
-2.708125e-10,1.281250e-03
-2.668125e-10,3.281250e-04
-2.628125e-10,1.000000e-03
-2.588125e-10,6.718750e-04
-2.548125e-10,1.812500e-03
-2.508125e-10,2.171875e-03
-2.468125e-10,2.218750e-03
-2.428125e-10,2.234375e-03
-2.388125e-10,2.968750e-03
-2.348125e-10,3.140625e-03
-2.308125e-10,3.453125e-03
-2.268125e-10,4.343750e-03
-2.228125e-10,4.875000e-03
-2.188125e-10,5.140625e-03
-2.148125e-10,5.453125e-03
-2.108125e-10,6.046875e-03
-2.068125e-10,6.984375e-03
-2.028125e-10,7.046875e-03
-1.988125e-10,8.046875e-03
-1.948125e-10,8.796875e-03
-1.908125e-10,9.312500e-03
-1.868125e-10,8.703125e-03
-1.828125e-10,9.562500e-03
-1.788125e-10,9.218750e-03
-1.748125e-10,1.043750e-02
-1.708125e-10,1.059375e-02
-1.668125e-10,1.050000e-02
-1.628125e-10,1.028125e-02
-1.588125e-10,1.065625e-02
-1.548125e-10,1.032813e-02
-1.508125e-10,1.017188e-02
-1.468125e-10,1.035938e-02
-1.428125e-10,1.021875e-02
-1.388125e-10,9.703125e-03
-1.348125e-10,9.265625e-03
-1.308125e-10,8.921875e-03
-1.268125e-10,8.859375e-03
-1.228125e-10,8.046875e-03
-1.188125e-10,8.140625e-03
-1.148125e-10,7.906250e-03
-1.108125e-10,7.578125e-03
-1.068125e-10,6.171875e-03
-1.028125e-10,6.234375e-03
-9.881250e-11,5.062500e-03
-9.481250e-11,5.734375e-03
-9.081250e-11,5.218750e-03
-8.681250e-11,4.750000e-03
-8.281250e-11,4.281250e-03
-7.881250e-11,4.562500e-03
-7.481250e-11,4.265625e-03
-7.081250e-11,4.421875e-03
-6.681250e-11,5.031250e-03
-6.281250e-11,5.640625e-03
-5.881250e-11,6.046875e-03
-5.481250e-11,6.796875e-03
-5.081250e-11,7.890625e-03
-4.681250e-11,9.421875e-03
-4.281250e-11,1.062500e-02
-3.881250e-11,1.303125e-02
-3.481250e-11,1.534375e-02
-3.081250e-11,1.801563e-02
-2.681250e-11,1.992188e-02
-2.281250e-11,2.350000e-02
-1.881250e-11,2.612500e-02
-1.481250e-11,3.100000e-02
-1.081250e-11,3.482813e-02
-6.812500e-12,3.915625e-02
-2.812500e-12,4.370313e-02
1.187500e-12,4.929688e-02
5.187500e-12,5.457813e-02
9.187500e-12,6.053125e-02
1.318750e-11,6.721875e-02
1.718750e-11,7.418750e-02
2.118750e-11,8.095313e-02
2.518750e-11,8.832813e-02
2.918750e-11,9.615625e-02
3.318750e-11,1.044688e-01
3.718750e-11,1.126719e-01
4.118750e-11,1.221094e-01
4.518750e-11,1.314375e-01
4.918750e-11,1.412813e-01
5.318750e-11,1.502188e-01
5.718750e-11,1.607969e-01
6.118750e-11,1.702656e-01
6.518750e-11,1.819063e-01
6.918750e-11,1.922344e-01
7.318750e-11,2.030938e-01
7.718750e-11,2.137656e-01
8.118750e-11,2.252188e-01
8.518750e-11,2.361875e-01
8.918750e-11,2.474531e-01
9.318750e-11,2.591406e-01
9.718750e-11,2.708750e-01
1.011875e-10,2.817813e-01
1.051875e-10,2.929531e-01
1.091875e-10,3.041563e-01
1.131875e-10,3.153438e-01
1.171875e-10,3.260625e-01
1.211875e-10,3.374531e-01
1.251875e-10,3.481406e-01
1.291875e-10,3.589688e-01
1.331875e-10,3.682500e-01
1.371875e-10,3.787344e-01
1.411875e-10,3.875156e-01
1.451875e-10,3.978906e-01
1.491875e-10,4.063750e-01
1.531875e-10,4.149844e-01
1.571875e-10,4.227344e-01
1.611875e-10,4.307188e-01
1.651875e-10,4.378281e-01
1.691875e-10,4.447188e-01
1.731875e-10,4.515000e-01
1.771875e-10,4.580000e-01
1.811875e-10,4.630156e-01
1.851875e-10,4.678750e-01
1.891875e-10,4.724531e-01
1.931875e-10,4.766563e-01
1.971875e-10,4.800781e-01
2.011875e-10,4.837031e-01
2.051875e-10,4.862813e-01
2.091875e-10,4.888750e-01
2.131875e-10,4.895625e-01
2.171875e-10,4.913750e-01
2.211875e-10,4.913125e-01
2.251875e-10,4.925469e-01
2.291875e-10,4.917969e-01
2.331875e-10,4.911250e-01
2.371875e-10,4.895313e-01
2.411875e-10,4.881406e-01
2.451875e-10,4.859844e-01
2.491875e-10,4.836094e-01
2.531875e-10,4.810938e-01
2.571875e-10,4.785156e-01
2.611875e-10,4.745000e-01
2.651875e-10,4.704219e-01
2.691875e-10,4.663438e-01
2.731875e-10,4.620938e-01
2.771875e-10,4.572031e-01
2.811875e-10,4.527188e-01
2.851875e-10,4.474531e-01
2.891875e-10,4.425156e-01
2.931875e-10,4.358438e-01
2.971875e-10,4.307500e-01
3.011875e-10,4.240781e-01
3.051875e-10,4.188438e-01
3.091875e-10,4.120625e-01
3.131875e-10,4.056250e-01
3.171875e-10,3.985781e-01
3.211875e-10,3.921719e-01
3.251875e-10,3.853594e-01
3.291875e-10,3.785938e-01
3.331875e-10,3.719531e-01
3.371875e-10,3.655625e-01
3.411875e-10,3.581563e-01
3.451875e-10,3.509219e-01
3.491875e-10,3.440156e-01
3.531875e-10,3.372969e-01
3.571875e-10,3.300938e-01
3.611875e-10,3.235938e-01
3.651875e-10,3.166719e-01
3.691875e-10,3.102813e-01
3.731875e-10,3.023281e-01
3.771875e-10,2.963281e-01
3.811875e-10,2.889844e-01
3.851875e-10,2.831562e-01
3.891875e-10,2.760781e-01
3.931875e-10,2.694844e-01
3.971875e-10,2.624063e-01
4.011875e-10,2.562656e-01
4.051875e-10,2.498438e-01
4.091875e-10,2.435781e-01
4.131875e-10,2.375156e-01
4.171875e-10,2.317969e-01
4.211875e-10,2.253906e-01
4.251875e-10,2.191406e-01
4.291875e-10,2.132656e-01
4.331875e-10,2.077500e-01
4.371875e-10,2.017344e-01
4.411875e-10,1.965156e-01
4.451875e-10,1.910469e-01
4.491875e-10,1.860469e-01
4.531875e-10,1.795781e-01
4.571875e-10,1.752031e-01
4.611875e-10,1.695156e-01
4.651875e-10,1.653438e-01
4.691875e-10,1.601094e-01
4.731875e-10,1.552344e-01
4.771875e-10,1.499844e-01
4.811875e-10,1.457031e-01
4.851875e-10,1.411563e-01
4.891875e-10,1.368594e-01
4.931875e-10,1.327188e-01
4.971875e-10,1.289531e-01
5.011875e-10,1.247188e-01
5.051875e-10,1.205781e-01
5.091875e-10,1.167969e-01
5.131875e-10,1.134844e-01
5.171875e-10,1.096250e-01
5.211875e-10,1.065313e-01
5.251875e-10,1.033594e-01
5.291875e-10,1.005156e-01
5.331875e-10,9.637500e-02
5.371875e-10,9.428125e-02
5.411875e-10,9.093750e-02
5.451875e-10,8.910938e-02
5.491875e-10,8.631250e-02
5.531875e-10,8.365625e-02
5.571875e-10,8.084375e-02
5.611875e-10,7.890625e-02
5.651875e-10,7.657813e-02
5.691875e-10,7.459375e-02
5.731875e-10,7.275000e-02
5.771875e-10,7.125000e-02
5.811875e-10,6.934375e-02
5.851875e-10,6.740625e-02
5.891875e-10,6.589063e-02
5.931875e-10,6.470313e-02
5.971875e-10,6.295313e-02
6.011875e-10,6.189063e-02
6.051875e-10,6.076563e-02
6.091875e-10,5.976563e-02
6.131875e-10,5.754688e-02
6.171875e-10,5.715625e-02
6.211875e-10,5.557813e-02
6.251875e-10,5.543750e-02
6.291875e-10,5.428125e-02
6.331875e-10,5.301563e-02
6.371875e-10,5.157813e-02
6.411875e-10,5.103125e-02
6.451875e-10,4.979688e-02
6.491875e-10,4.884375e-02
6.531875e-10,4.809375e-02
6.571875e-10,4.751563e-02
6.611875e-10,4.651563e-02
6.651875e-10,4.528125e-02
6.691875e-10,4.454688e-02
6.731875e-10,4.385938e-02
6.771875e-10,4.262500e-02
6.811875e-10,4.203125e-02
6.851875e-10,4.134375e-02
6.891875e-10,4.050000e-02
6.931875e-10,3.856250e-02
6.971875e-10,3.825000e-02
7.011875e-10,3.681250e-02
7.051875e-10,3.679688e-02
7.091875e-10,3.567188e-02
7.131875e-10,3.442188e-02
7.171875e-10,3.284375e-02
7.211875e-10,3.232813e-02
7.251875e-10,3.089063e-02
7.291875e-10,2.976563e-02
7.331875e-10,2.896875e-02
7.371875e-10,2.828125e-02
7.411875e-10,2.721875e-02
7.451875e-10,2.582813e-02
7.491875e-10,2.503125e-02
7.531875e-10,2.428125e-02
7.571875e-10,2.303125e-02
7.611875e-10,2.250000e-02
7.651875e-10,2.193750e-02
7.691875e-10,2.103125e-02
7.731875e-10,1.929688e-02
7.771875e-10,1.906250e-02
7.811875e-10,1.784375e-02
7.851875e-10,1.817188e-02
7.891875e-10,1.735938e-02
7.931875e-10,1.654688e-02
7.971875e-10,1.532813e-02
8.011875e-10,1.528125e-02
8.051875e-10,1.431250e-02
8.091875e-10,1.373438e-02
8.131875e-10,1.360938e-02
8.171875e-10,1.350000e-02
8.211875e-10,1.317188e-02
8.251875e-10,1.245313e-02
8.291875e-10,1.234375e-02
8.331875e-10,1.245313e-02
8.371875e-10,1.201563e-02
8.411875e-10,1.237500e-02
8.451875e-10,1.264063e-02
8.491875e-10,1.251563e-02
8.531875e-10,1.168750e-02
8.571875e-10,1.223438e-02
8.611875e-10,1.176563e-02
8.651875e-10,1.303125e-02
8.691875e-10,1.306250e-02
8.731875e-10,1.309375e-02
8.771875e-10,1.265625e-02
8.811875e-10,1.325000e-02
8.851875e-10,1.304688e-02
8.891875e-10,1.320313e-02
8.931875e-10,1.381250e-02
8.971875e-10,1.410938e-02
9.011875e-10,1.437500e-02
9.051875e-10,1.417188e-02
9.091875e-10,1.442188e-02
9.131875e-10,1.504688e-02
9.171875e-10,1.501563e-02
9.211875e-10,1.571875e-02
9.251875e-10,1.615625e-02
9.291875e-10,1.626563e-02
9.331875e-10,1.562500e-02
9.371875e-10,1.625000e-02
9.411875e-10,1.571875e-02
9.451875e-10,1.707813e-02
9.491875e-10,1.709375e-02
9.531875e-10,1.701563e-02
9.571875e-10,1.650000e-02
9.611875e-10,1.689063e-02
9.651875e-10,1.654688e-02
9.691875e-10,1.656250e-02
9.731875e-10,1.698438e-02
9.771875e-10,1.687500e-02
9.811875e-10,1.685938e-02
9.851875e-10,1.640625e-02
9.891875e-10,1.625000e-02
9.931875e-10,1.664063e-02
9.971875e-10,1.632813e-02
1.001187e-09,1.670313e-02
1.005187e-09,1.676563e-02
1.009187e-09,1.660938e-02
1.013187e-09,1.571875e-02
1.017187e-09,1.614063e-02
1.021187e-09,1.528125e-02
1.025187e-09,1.635938e-02
1.029188e-09,1.615625e-02
1.033188e-09,1.585938e-02
1.037188e-09,1.520313e-02
1.041188e-09,1.543750e-02
1.045188e-09,1.501563e-02
1.049188e-09,1.498438e-02
1.053187e-09,1.535938e-02
1.057187e-09,1.517188e-02
1.061187e-09,1.510938e-02
1.065187e-09,1.471875e-02
1.069187e-09,1.454688e-02
1.073187e-09,1.504688e-02
1.077187e-09,1.479688e-02
1.081187e-09,1.526563e-02
1.085187e-09,1.546875e-02
1.089188e-09,1.548438e-02
1.093188e-09,1.479688e-02
1.097188e-09,1.548438e-02
1.101188e-09,1.479688e-02
1.105188e-09,1.603125e-02
1.109188e-09,1.600000e-02
1.113187e-09,1.590625e-02
1.117187e-09,1.545313e-02
1.121187e-09,1.592188e-02
1.125187e-09,1.570313e-02
1.129187e-09,1.585938e-02
1.133187e-09,1.642188e-02
1.137187e-09,1.648438e-02
1.141187e-09,1.651563e-02
1.145187e-09,1.626563e-02
1.149188e-09,1.625000e-02
1.153188e-09,1.682813e-02
1.157188e-09,1.662500e-02
1.161188e-09,1.717188e-02
1.165188e-09,1.743750e-02
1.169188e-09,1.753125e-02
1.173187e-09,1.681250e-02
1.177187e-09,1.754688e-02
1.181187e-09,1.681250e-02
1.185187e-09,1.795313e-02
1.189187e-09,1.779688e-02
1.193187e-09,1.760938e-02
1.197187e-09,1.701563e-02
1.201187e-09,1.735938e-02
1.205187e-09,1.695313e-02
1.209188e-09,1.692188e-02
1.213188e-09,1.729688e-02
1.217188e-09,1.723438e-02
1.221188e-09,1.701563e-02
1.225188e-09,1.653125e-02
1.229188e-09,1.631250e-02
1.233187e-09,1.664063e-02
1.237187e-09,1.615625e-02
1.241187e-09,1.651563e-02
1.245187e-09,1.654688e-02
1.249187e-09,1.648438e-02
1.253187e-09,1.542188e-02
1.257187e-09,1.600000e-02
1.261187e-09,1.503125e-02
1.265187e-09,1.598438e-02
1.269188e-09,1.562500e-02
1.273188e-09,1.525000e-02
1.277188e-09,1.448438e-02
1.281188e-09,1.468750e-02
1.285188e-09,1.412500e-02
1.289188e-09,1.396875e-02
1.293187e-09,1.420313e-02
1.297187e-09,1.414063e-02
1.301187e-09,1.381250e-02
1.305187e-09,1.325000e-02
1.309187e-09,1.303125e-02
1.313187e-09,1.329688e-02
1.317187e-09,1.278125e-02
1.321187e-09,1.317188e-02
1.325187e-09,1.321875e-02
1.329188e-09,1.321875e-02
1.333188e-09,1.206250e-02
1.337188e-09,1.271875e-02
1.341188e-09,1.178125e-02
1.345188e-09,1.282813e-02
1.349188e-09,1.250000e-02
1.353187e-09,1.218750e-02
1.357187e-09,1.148438e-02
1.361187e-09,1.175000e-02
1.365187e-09,1.125000e-02
1.369187e-09,1.115625e-02
1.373187e-09,1.145313e-02
1.377187e-09,1.148438e-02
1.381187e-09,1.118750e-02
1.385187e-09,1.068750e-02
1.389188e-09,1.053125e-02
1.393188e-09,1.084375e-02
1.397188e-09,1.034375e-02
1.401188e-09,1.078125e-02
1.405188e-09,1.085938e-02
1.409187e-09,1.090625e-02
1.413187e-09,9.687500e-03
1.417187e-09,1.034375e-02
1.421187e-09,9.421875e-03
1.425187e-09,1.048438e-02
1.429187e-09,1.015625e-02
1.433187e-09,9.812500e-03
1.437187e-09,9.093750e-03
1.441187e-09,9.359375e-03
1.445187e-09,8.828125e-03
1.449188e-09,8.718750e-03
1.453188e-09,8.984375e-03
1.457188e-09,9.046875e-03
1.461188e-09,8.734375e-03
1.465188e-09,8.218750e-03
1.469187e-09,8.093750e-03
1.473187e-09,8.406250e-03
1.477187e-09,7.906250e-03
1.481187e-09,8.406250e-03
1.485187e-09,8.515625e-03
1.489187e-09,8.640625e-03
1.493187e-09,7.421875e-03
1.497187e-09,8.171875e-03
1.501187e-09,7.343750e-03
1.505187e-09,8.500000e-03
1.509188e-09,8.281250e-03
1.513188e-09,8.078125e-03
1.517188e-09,7.500000e-03
1.521188e-09,7.921875e-03
1.525188e-09,7.562500e-03
1.529187e-09,7.609375e-03
1.533187e-09,8.078125e-03
1.537187e-09,8.343750e-03
1.541187e-09,8.250000e-03
1.545187e-09,7.953125e-03
1.549187e-09,8.046875e-03
1.553187e-09,8.578125e-03
1.557187e-09,8.328125e-03
1.561187e-09,9.062500e-03
1.565187e-09,9.421875e-03
1.569188e-09,9.765625e-03
1.573188e-09,8.765625e-03
1.577188e-09,9.750000e-03
1.581188e-09,9.125000e-03
1.585188e-09,1.050000e-02
1.589187e-09,1.048438e-02
1.593187e-09,1.048438e-02
1.597187e-09,1.006250e-02
1.601187e-09,1.064063e-02
1.605187e-09,1.042188e-02
1.609187e-09,1.059375e-02
1.613187e-09,1.115625e-02
1.617187e-09,1.151563e-02
1.621187e-09,1.146875e-02
1.625187e-09,1.120313e-02
1.629188e-09,1.132813e-02
1.633188e-09,1.182813e-02
1.637188e-09,1.153125e-02
1.641188e-09,1.221875e-02
1.645188e-09,1.248438e-02
1.649187e-09,1.271875e-02
1.653187e-09,1.156250e-02
1.657187e-09,1.239063e-02
1.661187e-09,1.157813e-02
1.665187e-09,1.276563e-02
1.669187e-09,1.251563e-02
1.673187e-09,1.226563e-02
1.677187e-09,1.157813e-02
1.681187e-09,1.187500e-02
1.685187e-09,1.135938e-02
1.689188e-09,1.121875e-02
1.693188e-09,1.146875e-02
1.697188e-09,1.151563e-02
1.701188e-09,1.112500e-02
1.705188e-09,1.053125e-02
1.709187e-09,1.031250e-02
1.713187e-09,1.050000e-02
1.717187e-09,9.875000e-03
1.721187e-09,1.021875e-02
1.725187e-09,1.017188e-02
1.729187e-09,1.010938e-02
1.733187e-09,8.656250e-03
1.737187e-09,9.187500e-03
1.741187e-09,8.109375e-03
1.745187e-09,9.046875e-03
1.749188e-09,8.578125e-03
1.753188e-09,8.109375e-03
1.757188e-09,7.234375e-03
