Measurements-streak-laser-independent/Photodiode-on-Tek-12bit-4GHz/Tek000_ch1_20190613132939612.csv

Model,MSO64
Waveform Type,ANALOG
Horizontal Units,s
Sample Interval,4.000000e-12
Record Length,1000
Zero Index,310.875000
Vertical Units,V

TIME,CH1
-1.243500e-09,7.828125e-03
-1.239500e-09,7.531250e-03
-1.235500e-09,7.640625e-03
-1.231500e-09,8.140625e-03
-1.227500e-09,7.843750e-03
-1.223500e-09,8.531250e-03
-1.219500e-09,8.828125e-03
-1.215500e-09,9.093750e-03
-1.211500e-09,7.953125e-03
-1.207500e-09,8.812500e-03
-1.203500e-09,8.046875e-03
-1.199500e-09,9.296875e-03
-1.195500e-09,9.125000e-03
-1.191500e-09,8.937500e-03
-1.187500e-09,8.328125e-03
-1.183500e-09,8.703125e-03
-1.179500e-09,8.281250e-03
-1.175500e-09,8.234375e-03
-1.171500e-09,8.593750e-03
-1.167500e-09,8.718750e-03
-1.163500e-09,8.437500e-03
-1.159500e-09,7.937500e-03
-1.155500e-09,7.843750e-03
-1.151500e-09,8.125000e-03
-1.147500e-09,7.593750e-03
-1.143500e-09,8.046875e-03
-1.139500e-09,8.093750e-03
-1.135500e-09,8.140625e-03
-1.131500e-09,6.750000e-03
-1.127500e-09,7.375000e-03
-1.123500e-09,6.375000e-03
-1.119500e-09,7.390625e-03
-1.115500e-09,6.984375e-03
-1.111500e-09,6.562500e-03
-1.107500e-09,5.734375e-03
-1.103500e-09,5.921875e-03
-1.099500e-09,5.296875e-03
-1.095500e-09,5.078125e-03
-1.091500e-09,5.265625e-03
-1.087500e-09,5.250000e-03
-1.083500e-09,4.828125e-03
-1.079500e-09,4.203125e-03
-1.075500e-09,4.000000e-03
-1.071500e-09,4.203125e-03
-1.067500e-09,3.609375e-03
-1.063500e-09,4.031250e-03
-1.059500e-09,4.062500e-03
-1.055500e-09,4.093750e-03
-1.051500e-09,2.718750e-03
-1.047500e-09,3.390625e-03
-1.043500e-09,2.453125e-03
-1.039500e-09,3.546875e-03
-1.035500e-09,3.234375e-03
-1.031500e-09,2.953125e-03
-1.027500e-09,2.265625e-03
-1.023500e-09,2.609375e-03
-1.019500e-09,2.171875e-03
-1.015500e-09,2.140625e-03
-1.011500e-09,2.531250e-03
-1.007500e-09,2.734375e-03
-1.003500e-09,2.562500e-03
-9.995000e-10,2.187500e-03
-9.955000e-10,2.234375e-03
-9.915000e-10,2.703125e-03
-9.875000e-10,2.375000e-03
-9.835000e-10,3.078125e-03
-9.795000e-10,3.375000e-03
-9.755000e-10,3.687500e-03
-9.715000e-10,2.593750e-03
-9.675000e-10,3.546875e-03
-9.635000e-10,2.875000e-03
-9.595000e-10,4.218750e-03
-9.555000e-10,4.171875e-03
-9.515000e-10,4.125000e-03
-9.475000e-10,3.687500e-03
-9.435000e-10,4.250000e-03
-9.395000e-10,4.015625e-03
-9.355000e-10,4.187500e-03
-9.315000e-10,4.750000e-03
-9.275000e-10,5.125000e-03
-9.235000e-10,5.078125e-03
-9.195000e-10,4.828125e-03
-9.155000e-10,4.984375e-03
-9.115000e-10,5.531250e-03
-9.075000e-10,5.265625e-03
-9.035000e-10,6.000000e-03
-8.995000e-10,6.312500e-03
-8.955000e-10,6.625000e-03
-8.915000e-10,5.515625e-03
-8.875000e-10,6.421875e-03
-8.835000e-10,5.687500e-03
-8.795000e-10,6.890625e-03
-8.755000e-10,6.765625e-03
-8.715000e-10,6.593750e-03
-8.675000e-10,6.031250e-03
-8.635000e-10,6.437500e-03
-8.595000e-10,6.031250e-03
-8.555000e-10,6.031250e-03
-8.515000e-10,6.406250e-03
-8.475000e-10,6.562500e-03
-8.435000e-10,6.328125e-03
-8.395000e-10,5.859375e-03
-8.355000e-10,5.781250e-03
-8.315000e-10,6.109375e-03
-8.275000e-10,5.609375e-03
-8.235000e-10,6.125000e-03
-8.195000e-10,6.218750e-03
-8.155000e-10,6.296875e-03
-8.115000e-10,5.015625e-03
-8.075000e-10,5.687500e-03
-8.035000e-10,4.765625e-03
-7.995000e-10,5.734375e-03
-7.955000e-10,5.437500e-03
-7.915000e-10,5.109375e-03
-7.875000e-10,4.406250e-03
-7.835000e-10,4.671875e-03
-7.795000e-10,4.109375e-03
-7.755000e-10,4.031250e-03
-7.715000e-10,4.296875e-03
-7.675000e-10,4.375000e-03
-7.635000e-10,4.125000e-03
-7.595000e-10,3.593750e-03
-7.555000e-10,3.484375e-03
-7.515000e-10,3.781250e-03
-7.475000e-10,3.296875e-03
-7.435000e-10,3.812500e-03
-7.395000e-10,3.953125e-03
-7.355000e-10,4.078125e-03
-7.315000e-10,2.859375e-03
-7.275000e-10,3.640625e-03
-7.235000e-10,2.812500e-03
-7.195000e-10,3.859375e-03
-7.155000e-10,3.703125e-03
-7.115000e-10,3.515625e-03
-7.075000e-10,2.968750e-03
-7.035000e-10,3.359375e-03
-6.995000e-10,2.937500e-03
-6.955000e-10,3.046875e-03
-6.915000e-10,3.468750e-03
-6.875000e-10,3.671875e-03
-6.835000e-10,3.656250e-03
-6.795000e-10,3.281250e-03
-6.755000e-10,3.328125e-03
-6.715000e-10,3.781250e-03
-6.675000e-10,3.484375e-03
-6.635000e-10,4.140625e-03
-6.595000e-10,4.437500e-03
-6.555000e-10,4.703125e-03
-6.515000e-10,3.609375e-03
-6.475000e-10,4.515625e-03
-6.435000e-10,3.875000e-03
-6.395000e-10,5.000000e-03
-6.355000e-10,4.984375e-03
-6.315000e-10,4.921875e-03
-6.275000e-10,4.468750e-03
-6.235000e-10,4.921875e-03
-6.195000e-10,4.546875e-03
-6.155000e-10,4.734375e-03
-6.115000e-10,5.218750e-03
-6.075000e-10,5.453125e-03
-6.035000e-10,5.515625e-03
-5.995000e-10,5.171875e-03
-5.955000e-10,5.234375e-03
-5.915000e-10,5.687500e-03
-5.875000e-10,5.437500e-03
-5.835000e-10,6.093750e-03
-5.795000e-10,6.390625e-03
-5.755000e-10,6.625000e-03
-5.715000e-10,5.500000e-03
-5.675000e-10,6.390625e-03
-5.635000e-10,5.765625e-03
-5.595000e-10,6.859375e-03
-5.555000e-10,6.843750e-03
-5.515000e-10,6.750000e-03
-5.475000e-10,6.265625e-03
-5.435000e-10,6.671875e-03
-5.395000e-10,6.281250e-03
-5.355000e-10,6.437500e-03
-5.315000e-10,6.906250e-03
-5.275000e-10,7.093750e-03
-5.235000e-10,7.109375e-03
-5.195000e-10,6.750000e-03
-5.155000e-10,6.796875e-03
-5.115000e-10,7.265625e-03
-5.075000e-10,6.968750e-03
-5.035000e-10,7.640625e-03
-4.995000e-10,7.875000e-03
-4.955000e-10,8.093750e-03
-4.915000e-10,6.937500e-03
-4.875000e-10,7.765625e-03
-4.835000e-10,7.140625e-03
-4.795000e-10,8.218750e-03
-4.755000e-10,8.218750e-03
-4.715000e-10,8.046875e-03
-4.675000e-10,7.531250e-03
-4.635000e-10,7.906250e-03
-4.595000e-10,7.531250e-03
-4.555000e-10,7.578125e-03
-4.515000e-10,8.031250e-03
-4.475000e-10,8.140625e-03
-4.435000e-10,8.031250e-03
-4.395000e-10,7.625000e-03
-4.355000e-10,7.656250e-03
-4.315000e-10,8.078125e-03
-4.275000e-10,7.640625e-03
-4.235000e-10,8.265625e-03
-4.195000e-10,8.390625e-03
-4.155000e-10,8.515625e-03
-4.115000e-10,7.265625e-03
-4.075000e-10,7.937500e-03
-4.035000e-10,7.218750e-03
-3.995000e-10,8.187500e-03
-3.955000e-10,8.062500e-03
-3.915000e-10,7.718750e-03
-3.875000e-10,7.093750e-03
-3.835000e-10,7.343750e-03
-3.795000e-10,6.890625e-03
-3.755000e-10,6.734375e-03
-3.715000e-10,7.062500e-03
-3.675000e-10,7.062500e-03
-3.635000e-10,6.750000e-03
-3.595000e-10,6.250000e-03
-3.555000e-10,6.171875e-03
-3.515000e-10,6.484375e-03
-3.475000e-10,5.921875e-03
-3.435000e-10,6.406250e-03
-3.395000e-10,6.484375e-03
-3.355000e-10,6.500000e-03
-3.315000e-10,5.203125e-03
-3.275000e-10,5.765625e-03
-3.235000e-10,4.953125e-03
-3.195000e-10,5.890625e-03
-3.155000e-10,5.703125e-03
-3.115000e-10,5.343750e-03
-3.075000e-10,4.718750e-03
-3.035000e-10,4.968750e-03
-2.995000e-10,4.546875e-03
-2.955000e-10,4.390625e-03
-2.915000e-10,4.718750e-03
-2.875000e-10,4.765625e-03
-2.835000e-10,4.468750e-03
-2.795000e-10,4.062500e-03
-2.755000e-10,4.046875e-03
-2.715000e-10,4.437500e-03
-2.675000e-10,3.953125e-03
-2.635000e-10,4.484375e-03
-2.595000e-10,4.687500e-03
-2.555000e-10,4.796875e-03
-2.515000e-10,3.640625e-03
-2.475000e-10,4.281250e-03
-2.435000e-10,3.546875e-03
-2.395000e-10,4.593750e-03
-2.355000e-10,4.468750e-03
-2.315000e-10,4.203125e-03
-2.275000e-10,3.703125e-03
-2.235000e-10,4.046875e-03
-2.195000e-10,3.687500e-03
-2.155000e-10,3.609375e-03
-2.115000e-10,3.968750e-03
-2.075000e-10,4.062500e-03
-2.035000e-10,3.812500e-03
-1.995000e-10,3.468750e-03
-1.955000e-10,3.468750e-03
-1.915000e-10,3.812500e-03
-1.875000e-10,3.375000e-03
-1.835000e-10,3.890625e-03
-1.795000e-10,4.093750e-03
-1.755000e-10,4.218750e-03
-1.715000e-10,3.078125e-03
-1.675000e-10,3.703125e-03
-1.635000e-10,2.921875e-03
-1.595000e-10,4.015625e-03
-1.555000e-10,3.828125e-03
-1.515000e-10,3.609375e-03
-1.475000e-10,3.140625e-03
-1.435000e-10,3.531250e-03
-1.395000e-10,3.203125e-03
-1.355000e-10,3.250000e-03
-1.315000e-10,3.687500e-03
-1.275000e-10,3.937500e-03
-1.235000e-10,3.859375e-03
-1.195000e-10,3.765625e-03
-1.155000e-10,3.984375e-03
-1.115000e-10,4.593750e-03
-1.075000e-10,4.515625e-03
-1.035000e-10,5.468750e-03
-9.950000e-11,6.093750e-03
-9.550000e-11,6.781250e-03
-9.150000e-11,6.281250e-03
-8.750000e-11,7.593750e-03
-8.350000e-11,7.515625e-03
-7.950000e-11,9.468750e-03
-7.550000e-11,1.014063e-02
-7.150000e-11,1.093750e-02
-6.750000e-11,1.154688e-02
-6.350000e-11,1.310938e-02
-5.950000e-11,1.401563e-02
-5.550000e-11,1.542188e-02
-5.150000e-11,1.728125e-02
-4.750000e-11,1.909375e-02
-4.350000e-11,2.059375e-02
-3.950000e-11,2.218750e-02
-3.550000e-11,2.418750e-02
-3.150000e-11,2.659375e-02
-2.750000e-11,2.846875e-02
-2.350000e-11,3.143750e-02
-1.950000e-11,3.414063e-02
-1.550000e-11,3.703125e-02
-1.150000e-11,3.876563e-02
-7.500000e-12,4.235938e-02
-3.500000e-12,4.459375e-02
5.000000e-13,4.893750e-02
4.500000e-12,5.196875e-02
8.500000e-12,5.525000e-02
1.250000e-11,5.829688e-02
1.650000e-11,6.234375e-02
2.050000e-11,6.573438e-02
2.450000e-11,6.960938e-02
2.850000e-11,7.395313e-02
3.250000e-11,7.826563e-02
3.650000e-11,8.215625e-02
4.050000e-11,8.612500e-02
4.450000e-11,9.043750e-02
4.850000e-11,9.507813e-02
5.250000e-11,9.917188e-02
5.650000e-11,1.042656e-01
6.050000e-11,1.089688e-01
6.450000e-11,1.138281e-01
6.850000e-11,1.173906e-01
7.250000e-11,1.227031e-01
7.650000e-11,1.265313e-01
8.050000e-11,1.323281e-01
8.450000e-11,1.366406e-01
8.850000e-11,1.411250e-01
9.250000e-11,1.451719e-01
9.650000e-11,1.500313e-01
1.005000e-10,1.541563e-01
1.045000e-10,1.585313e-01
1.085000e-10,1.632344e-01
1.125000e-10,1.677969e-01
1.165000e-10,1.716250e-01
1.205000e-10,1.753906e-01
1.245000e-10,1.793281e-01
1.285000e-10,1.834375e-01
1.325000e-10,1.868281e-01
1.365000e-10,1.909844e-01
1.405000e-10,1.945469e-01
1.445000e-10,1.981563e-01
1.485000e-10,2.002188e-01
1.525000e-10,2.039375e-01
1.565000e-10,2.059531e-01
1.605000e-10,2.097500e-01
1.645000e-10,2.119063e-01
1.685000e-10,2.141094e-01
1.725000e-10,2.156875e-01
1.765000e-10,2.179063e-01
1.805000e-10,2.193281e-01
1.845000e-10,2.208438e-01
1.885000e-10,2.225469e-01
1.925000e-10,2.240469e-01
1.965000e-10,2.246406e-01
2.005000e-10,2.250781e-01
2.045000e-10,2.256406e-01
2.085000e-10,2.262969e-01
2.125000e-10,2.261563e-01
2.165000e-10,2.267031e-01
2.205000e-10,2.265625e-01
2.245000e-10,2.265000e-01
2.285000e-10,2.247969e-01
2.325000e-10,2.247813e-01
2.365000e-10,2.230625e-01
2.405000e-10,2.230469e-01
2.445000e-10,2.214219e-01
2.485000e-10,2.198438e-01
2.525000e-10,2.176719e-01
2.565000e-10,2.161875e-01
2.605000e-10,2.139688e-01
2.645000e-10,2.118906e-01
2.685000e-10,2.100000e-01
2.725000e-10,2.079844e-01
2.765000e-10,2.051406e-01
2.805000e-10,2.021875e-01
2.845000e-10,1.994844e-01
2.885000e-10,1.969531e-01
2.925000e-10,1.937031e-01
2.965000e-10,1.912188e-01
3.005000e-10,1.881719e-01
3.045000e-10,1.853125e-01
3.085000e-10,1.808750e-01
3.125000e-10,1.783281e-01
3.165000e-10,1.741875e-01
3.205000e-10,1.717969e-01
3.245000e-10,1.679688e-01
3.285000e-10,1.643125e-01
3.325000e-10,1.601563e-01
3.365000e-10,1.568750e-01
3.405000e-10,1.530000e-01
3.445000e-10,1.493750e-01
3.485000e-10,1.460313e-01
3.525000e-10,1.426875e-01
3.565000e-10,1.387344e-01
3.605000e-10,1.347500e-01
3.645000e-10,1.311406e-01
3.685000e-10,1.278906e-01
3.725000e-10,1.239688e-01
3.765000e-10,1.209531e-01
3.805000e-10,1.175625e-01
3.845000e-10,1.144375e-01
3.885000e-10,1.098594e-01
3.925000e-10,1.073125e-01
3.965000e-10,1.033125e-01
4.005000e-10,1.011250e-01
4.045000e-10,9.767188e-02
4.085000e-10,9.443750e-02
4.125000e-10,9.081250e-02
4.165000e-10,8.821875e-02
4.205000e-10,8.509375e-02
4.245000e-10,8.231250e-02
4.285000e-10,7.985938e-02
4.325000e-10,7.750000e-02
4.365000e-10,7.470313e-02
4.405000e-10,7.189063e-02
4.445000e-10,6.950000e-02
4.485000e-10,6.757813e-02
4.525000e-10,6.498438e-02
4.565000e-10,6.334375e-02
4.605000e-10,6.145313e-02
4.645000e-10,5.979688e-02
4.685000e-10,5.675000e-02
4.725000e-10,5.579688e-02
4.765000e-10,5.340625e-02
4.805000e-10,5.282813e-02
4.845000e-10,5.106250e-02
4.885000e-10,4.942188e-02
4.925000e-10,4.748438e-02
4.965000e-10,4.653125e-02
5.005000e-10,4.501563e-02
5.045000e-10,4.385938e-02
5.085000e-10,4.303125e-02
5.125000e-10,4.225000e-02
5.165000e-10,4.106250e-02
5.205000e-10,3.979688e-02
5.245000e-10,3.893750e-02
5.285000e-10,3.848438e-02
5.325000e-10,3.732813e-02
5.365000e-10,3.706250e-02
5.405000e-10,3.653125e-02
5.445000e-10,3.610938e-02
5.485000e-10,3.434375e-02
5.525000e-10,3.454688e-02
5.565000e-10,3.329688e-02
5.605000e-10,3.381250e-02
5.645000e-10,3.309375e-02
5.685000e-10,3.237500e-02
5.725000e-10,3.134375e-02
5.765000e-10,3.123438e-02
5.805000e-10,3.043750e-02
5.845000e-10,2.998438e-02
5.885000e-10,2.979688e-02
5.925000e-10,2.960938e-02
5.965000e-10,2.900000e-02
6.005000e-10,2.820313e-02
6.045000e-10,2.779688e-02
6.085000e-10,2.770313e-02
6.125000e-10,2.687500e-02
6.165000e-10,2.689063e-02
6.205000e-10,2.664063e-02
6.245000e-10,2.637500e-02
6.285000e-10,2.479688e-02
6.325000e-10,2.507813e-02
6.365000e-10,2.396875e-02
6.405000e-10,2.457813e-02
6.445000e-10,2.393750e-02
6.485000e-10,2.321875e-02
6.525000e-10,2.218750e-02
6.565000e-10,2.212500e-02
6.605000e-10,2.125000e-02
6.645000e-10,2.075000e-02
6.685000e-10,2.057813e-02
6.725000e-10,2.037500e-02
6.765000e-10,1.976563e-02
6.805000e-10,1.890625e-02
6.845000e-10,1.854688e-02
6.885000e-10,1.842188e-02
6.925000e-10,1.762500e-02
6.965000e-10,1.770313e-02
7.005000e-10,1.753125e-02
7.045000e-10,1.726563e-02
7.085000e-10,1.579688e-02
7.125000e-10,1.615625e-02
7.165000e-10,1.515625e-02
7.205000e-10,1.593750e-02
7.245000e-10,1.546875e-02
7.285000e-10,1.496875e-02
7.325000e-10,1.409375e-02
7.365000e-10,1.428125e-02
7.405000e-10,1.360938e-02
7.445000e-10,1.332813e-02
7.485000e-10,1.346875e-02
7.525000e-10,1.353125e-02
7.565000e-10,1.323438e-02
7.605000e-10,1.265625e-02
7.645000e-10,1.260938e-02
7.685000e-10,1.281250e-02
7.725000e-10,1.234375e-02
7.765000e-10,1.278125e-02
7.805000e-10,1.295313e-02
7.845000e-10,1.296875e-02
7.885000e-10,1.184375e-02
7.925000e-10,1.246875e-02
7.965000e-10,1.176563e-02
8.005000e-10,1.289063e-02
8.045000e-10,1.270313e-02
8.085000e-10,1.250000e-02
8.125000e-10,1.185938e-02
8.165000e-10,1.226563e-02
8.205000e-10,1.182813e-02
8.245000e-10,1.176563e-02
8.285000e-10,1.210938e-02
8.325000e-10,1.226563e-02
8.365000e-10,1.214063e-02
8.405000e-10,1.167188e-02
8.445000e-10,1.167188e-02
8.485000e-10,1.200000e-02
8.525000e-10,1.159375e-02
8.565000e-10,1.209375e-02
8.605000e-10,1.226563e-02
8.645000e-10,1.225000e-02
8.685000e-10,1.112500e-02
8.725000e-10,1.168750e-02
8.765000e-10,1.087500e-02
8.805000e-10,1.198438e-02
8.845000e-10,1.170313e-02
8.885000e-10,1.142188e-02
8.925000e-10,1.068750e-02
8.965000e-10,1.095313e-02
9.005000e-10,1.040625e-02
9.045000e-10,1.026563e-02
9.085000e-10,1.053125e-02
9.125000e-10,1.048438e-02
9.165000e-10,1.025000e-02
9.205000e-10,9.687500e-03
9.245000e-10,9.531250e-03
9.285000e-10,9.812500e-03
9.325000e-10,9.343750e-03
9.365000e-10,9.765625e-03
9.405000e-10,9.843750e-03
9.445000e-10,9.812500e-03
9.485000e-10,8.687500e-03
9.525000e-10,9.250000e-03
9.565000e-10,8.390625e-03
9.605000e-10,9.531250e-03
9.645000e-10,9.296875e-03
9.685000e-10,9.062500e-03
9.725000e-10,8.421875e-03
9.765000e-10,8.750000e-03
9.805000e-10,8.343750e-03
9.845000e-10,8.359375e-03
9.885000e-10,8.781250e-03
9.925000e-10,8.843750e-03
9.965000e-10,8.765625e-03
1.000500e-09,8.421875e-03
1.004500e-09,8.406250e-03
1.008500e-09,8.921875e-03
1.012500e-09,8.656250e-03
1.016500e-09,9.281250e-03
1.020500e-09,9.562500e-03
1.024500e-09,9.750000e-03
1.028500e-09,8.859375e-03
1.032500e-09,9.671875e-03
1.036500e-09,8.984375e-03
1.040500e-09,1.031250e-02
1.044500e-09,1.026563e-02
1.048500e-09,1.018750e-02
1.052500e-09,9.734375e-03
1.056500e-09,1.021875e-02
1.060500e-09,9.968750e-03
1.064500e-09,1.009375e-02
1.068500e-09,1.062500e-02
1.072500e-09,1.078125e-02
1.076500e-09,1.073438e-02
1.080500e-09,1.043750e-02
1.084500e-09,1.043750e-02
1.088500e-09,1.093750e-02
1.092500e-09,1.064063e-02
1.096500e-09,1.121875e-02
1.100500e-09,1.142188e-02
1.104500e-09,1.153125e-02
1.108500e-09,1.051563e-02
1.112500e-09,1.123438e-02
1.116500e-09,1.039063e-02
1.120500e-09,1.151563e-02
1.124500e-09,1.128125e-02
1.128500e-09,1.098438e-02
1.132500e-09,1.031250e-02
1.136500e-09,1.057813e-02
1.140500e-09,1.007813e-02
1.144500e-09,9.953125e-03
1.148500e-09,1.023438e-02
1.152500e-09,1.017188e-02
1.156500e-09,9.843750e-03
1.160500e-09,9.281250e-03
1.164500e-09,9.031250e-03
1.168500e-09,9.281250e-03
1.172500e-09,8.718750e-03
1.176500e-09,9.062500e-03
1.180500e-09,9.062500e-03
1.184500e-09,9.000000e-03
1.188500e-09,7.765625e-03
1.192500e-09,8.343750e-03
1.196500e-09,7.359375e-03
1.200500e-09,8.343750e-03
1.204500e-09,7.968750e-03
1.208500e-09,7.609375e-03
1.212500e-09,6.859375e-03
1.216500e-09,7.109375e-03
1.220500e-09,6.578125e-03
1.224500e-09,6.468750e-03
1.228500e-09,6.765625e-03
1.232500e-09,6.828125e-03
1.236500e-09,6.562500e-03
1.240500e-09,6.109375e-03
1.244500e-09,6.031250e-03
1.248500e-09,6.421875e-03
1.252500e-09,6.031250e-03
1.256500e-09,6.609375e-03
1.260500e-09,6.828125e-03
1.264500e-09,7.031250e-03
1.268500e-09,6.000000e-03
1.272500e-09,6.875000e-03
1.276500e-09,6.156250e-03
1.280500e-09,7.437500e-03
1.284500e-09,7.359375e-03
1.288500e-09,7.296875e-03
1.292500e-09,6.843750e-03
1.296500e-09,7.406250e-03
1.300500e-09,7.171875e-03
1.304500e-09,7.359375e-03
1.308500e-09,7.937500e-03
1.312500e-09,8.312500e-03
1.316500e-09,8.312500e-03
1.320500e-09,8.109375e-03
1.324500e-09,8.296875e-03
1.328500e-09,8.906250e-03
1.332500e-09,8.703125e-03
1.336500e-09,9.484375e-03
1.340500e-09,9.875000e-03
1.344500e-09,1.025000e-02
1.348500e-09,9.281250e-03
1.352500e-09,1.025000e-02
1.356500e-09,9.609375e-03
1.360500e-09,1.096875e-02
1.364500e-09,1.090625e-02
1.368500e-09,1.084375e-02
1.372500e-09,1.035938e-02
1.376500e-09,1.085938e-02
1.380500e-09,1.054688e-02
1.384500e-09,1.062500e-02
1.388500e-09,1.109375e-02
1.392500e-09,1.132813e-02
1.396500e-09,1.117188e-02
1.400500e-09,1.079688e-02
1.404500e-09,1.078125e-02
1.408500e-09,1.117188e-02
1.412500e-09,1.075000e-02
1.416500e-09,1.131250e-02
1.420500e-09,1.145313e-02
1.424500e-09,1.157813e-02
1.428500e-09,1.032813e-02
1.432500e-09,1.104688e-02
1.436500e-09,1.014063e-02
1.440500e-09,1.125000e-02
1.444500e-09,1.092188e-02
1.448500e-09,1.060938e-02
1.452500e-09,9.875000e-03
1.456500e-09,1.014063e-02
1.460500e-09,9.609375e-03
1.464500e-09,9.468750e-03
1.468500e-09,9.734375e-03
1.472500e-09,9.781250e-03
1.476500e-09,9.453125e-03
1.480500e-09,8.906250e-03
1.484500e-09,8.765625e-03
1.488500e-09,9.046875e-03
1.492500e-09,8.531250e-03
1.496500e-09,9.000000e-03
1.500500e-09,9.093750e-03
1.504500e-09,9.187500e-03
1.508500e-09,7.890625e-03
1.512500e-09,8.609375e-03
1.516500e-09,7.718750e-03
1.520500e-09,8.859375e-03
1.524500e-09,8.593750e-03
1.528500e-09,8.343750e-03
1.532500e-09,7.703125e-03
1.536500e-09,8.062500e-03
1.540500e-09,7.640625e-03
1.544500e-09,7.625000e-03
1.548500e-09,8.031250e-03
1.552500e-09,8.234375e-03
1.556500e-09,8.046875e-03
1.560500e-09,7.671875e-03
1.564500e-09,7.687500e-03
1.568500e-09,8.125000e-03
1.572500e-09,7.765625e-03
1.576500e-09,8.406250e-03
1.580500e-09,8.656250e-03
1.584500e-09,8.906250e-03
1.588500e-09,7.765625e-03
1.592500e-09,8.625000e-03
1.596500e-09,7.875000e-03
1.600500e-09,9.125000e-03
1.604500e-09,8.984375e-03
1.608500e-09,8.828125e-03
1.612500e-09,8.265625e-03
1.616500e-09,8.703125e-03
1.620500e-09,8.343750e-03
1.624500e-09,8.375000e-03
1.628500e-09,8.796875e-03
1.632500e-09,9.015625e-03
1.636500e-09,8.812500e-03
1.640500e-09,8.406250e-03
1.644500e-09,8.390625e-03
1.648500e-09,8.781250e-03
1.652500e-09,8.343750e-03
1.656500e-09,8.906250e-03
1.660500e-09,9.046875e-03
1.664500e-09,9.187500e-03
1.668500e-09,7.906250e-03
1.672500e-09,8.625000e-03
1.676500e-09,7.718750e-03
1.680500e-09,8.828125e-03
1.684500e-09,8.500000e-03
1.688500e-09,8.187500e-03
1.692500e-09,7.437500e-03
1.696500e-09,7.703125e-03
1.700500e-09,7.140625e-03
1.704500e-09,6.984375e-03
1.708500e-09,7.218750e-03
1.712500e-09,7.250000e-03
1.716500e-09,6.875000e-03
1.720500e-09,6.296875e-03
1.724500e-09,6.109375e-03
1.728500e-09,6.328125e-03
1.732500e-09,5.734375e-03
1.736500e-09,6.140625e-03
1.740500e-09,6.156250e-03
1.744500e-09,6.171875e-03
1.748500e-09,4.781250e-03
1.752500e-09,5.406250e-03
1.756500e-09,4.421875e-03
