Measurements-streak-laser-independent/Photodiode-on-Tek-12bit-4GHz/Tek000_ch1_20190613133057736.csv

Model,MSO64
Waveform Type,ANALOG
Horizontal Units,s
Sample Interval,4.000000e-12
Record Length,1000
Zero Index,310.187500
Vertical Units,V

TIME,CH1
-1.240750e-09,6.515625e-03
-1.236750e-09,6.718750e-03
-1.232750e-09,5.500000e-03
-1.228750e-09,6.328125e-03
-1.224750e-09,5.515625e-03
-1.220750e-09,6.750000e-03
-1.216750e-09,6.546875e-03
-1.212750e-09,6.359375e-03
-1.208750e-09,5.750000e-03
-1.204750e-09,6.156250e-03
-1.200750e-09,5.750000e-03
-1.196750e-09,5.750000e-03
-1.192750e-09,6.156250e-03
-1.188750e-09,6.343750e-03
-1.184750e-09,6.140625e-03
-1.180750e-09,5.718750e-03
-1.176750e-09,5.687500e-03
-1.172750e-09,6.078125e-03
-1.168750e-09,5.640625e-03
-1.164750e-09,6.218750e-03
-1.160750e-09,6.375000e-03
-1.156750e-09,6.546875e-03
-1.152750e-09,5.281250e-03
-1.148750e-09,6.031250e-03
-1.144750e-09,5.171875e-03
-1.140750e-09,6.312500e-03
-1.136750e-09,6.046875e-03
-1.132750e-09,5.781250e-03
-1.128750e-09,5.093750e-03
-1.124750e-09,5.421875e-03
-1.120750e-09,4.937500e-03
-1.116750e-09,4.843750e-03
-1.112750e-09,5.171875e-03
-1.108750e-09,5.281250e-03
-1.104750e-09,4.984375e-03
-1.100750e-09,4.484375e-03
-1.096750e-09,4.390625e-03
-1.092750e-09,4.703125e-03
-1.088750e-09,4.187500e-03
-1.084750e-09,4.703125e-03
-1.080750e-09,4.812500e-03
-1.076750e-09,4.921875e-03
-1.072750e-09,3.609375e-03
-1.068750e-09,4.328125e-03
-1.064750e-09,3.421875e-03
-1.060750e-09,4.562500e-03
-1.056750e-09,4.265625e-03
-1.052750e-09,3.984375e-03
-1.048750e-09,3.296875e-03
-1.044750e-09,3.625000e-03
-1.040750e-09,3.156250e-03
-1.036750e-09,3.093750e-03
-1.032750e-09,3.437500e-03
-1.028750e-09,3.578125e-03
-1.024750e-09,3.328125e-03
-1.020750e-09,2.875000e-03
-1.016750e-09,2.828125e-03
-1.012750e-09,3.203125e-03
-1.008750e-09,2.765625e-03
-1.004750e-09,3.343750e-03
-1.000750e-09,3.515625e-03
-9.967500e-10,3.687500e-03
-9.927500e-10,2.468750e-03
-9.887500e-10,3.265625e-03
-9.847500e-10,2.437500e-03
-9.807500e-10,3.640625e-03
-9.767500e-10,3.421875e-03
-9.727500e-10,3.218750e-03
-9.687500e-10,2.609375e-03
-9.647500e-10,3.015625e-03
-9.607500e-10,2.625000e-03
-9.567500e-10,2.625000e-03
-9.527500e-10,3.031250e-03
-9.487500e-10,3.234375e-03
-9.447500e-10,3.046875e-03
-9.407500e-10,2.640625e-03
-9.367500e-10,2.640625e-03
-9.327500e-10,3.062500e-03
-9.287500e-10,2.656250e-03
-9.247500e-10,3.265625e-03
-9.207500e-10,3.468750e-03
-9.167500e-10,3.656250e-03
-9.127500e-10,2.453125e-03
-9.087500e-10,3.250000e-03
-9.047500e-10,2.437500e-03
-9.007500e-10,3.593750e-03
-8.967500e-10,3.390625e-03
-8.927500e-10,3.171875e-03
-8.887500e-10,2.546875e-03
-8.847500e-10,2.937500e-03
-8.807500e-10,2.500000e-03
-8.767500e-10,2.484375e-03
-8.727500e-10,2.875000e-03
-8.687500e-10,3.046875e-03
-8.647500e-10,2.828125e-03
-8.607500e-10,2.390625e-03
-8.567500e-10,2.359375e-03
-8.527500e-10,2.734375e-03
-8.487500e-10,2.296875e-03
-8.447500e-10,2.875000e-03
-8.407500e-10,3.062500e-03
-8.367500e-10,3.234375e-03
-8.327500e-10,2.031250e-03
-8.287500e-10,2.828125e-03
-8.247500e-10,2.000000e-03
-8.207500e-10,3.062500e-03
-8.167500e-10,2.890625e-03
-8.127500e-10,2.687500e-03
-8.087500e-10,2.109375e-03
-8.047500e-10,2.500000e-03
-8.007500e-10,2.093750e-03
-7.967500e-10,2.140625e-03
-7.927500e-10,2.562500e-03
-7.887500e-10,2.765625e-03
-7.847500e-10,2.640625e-03
-7.807500e-10,2.265625e-03
-7.767500e-10,2.296875e-03
-7.727500e-10,2.734375e-03
-7.687500e-10,2.375000e-03
-7.647500e-10,3.031250e-03
-7.607500e-10,3.296875e-03
-7.567500e-10,3.562500e-03
-7.527500e-10,2.484375e-03
-7.487500e-10,3.375000e-03
-7.447500e-10,2.656250e-03
-7.407500e-10,3.750000e-03
-7.367500e-10,3.718750e-03
-7.327500e-10,3.625000e-03
-7.287500e-10,3.203125e-03
-7.247500e-10,3.671875e-03
-7.207500e-10,3.328125e-03
-7.167500e-10,3.515625e-03
-7.127500e-10,4.000000e-03
-7.087500e-10,4.281250e-03
-7.047500e-10,4.328125e-03
-7.007500e-10,4.000000e-03
-6.967500e-10,4.078125e-03
-6.927500e-10,4.562500e-03
-6.887500e-10,4.281250e-03
-6.847500e-10,4.968750e-03
-6.807500e-10,5.281250e-03
-6.767500e-10,5.546875e-03
-6.727500e-10,4.484375e-03
-6.687500e-10,5.390625e-03
-6.647500e-10,4.718750e-03
-6.607500e-10,5.765625e-03
-6.567500e-10,5.750000e-03
-6.527500e-10,5.656250e-03
-6.487500e-10,5.187500e-03
-6.447500e-10,5.578125e-03
-6.407500e-10,5.156250e-03
-6.367500e-10,5.312500e-03
-6.327500e-10,5.734375e-03
-6.287500e-10,5.875000e-03
-6.247500e-10,5.937500e-03
-6.207500e-10,5.500000e-03
-6.167500e-10,5.484375e-03
-6.127500e-10,5.859375e-03
-6.087500e-10,5.515625e-03
-6.047500e-10,6.093750e-03
-6.007500e-10,6.296875e-03
-5.967500e-10,6.453125e-03
-5.927500e-10,5.234375e-03
-5.887500e-10,6.031250e-03
-5.847500e-10,5.359375e-03
-5.807500e-10,6.281250e-03
-5.767500e-10,6.187500e-03
-5.727500e-10,6.015625e-03
-5.687500e-10,5.484375e-03
-5.647500e-10,5.765625e-03
-5.607500e-10,5.250000e-03
-5.567500e-10,5.359375e-03
-5.527500e-10,5.734375e-03
-5.487500e-10,5.796875e-03
-5.447500e-10,5.812500e-03
-5.407500e-10,5.359375e-03
-5.367500e-10,5.328125e-03
-5.327500e-10,5.687500e-03
-5.287500e-10,5.359375e-03
-5.247500e-10,5.937500e-03
-5.207500e-10,6.125000e-03
-5.167500e-10,6.265625e-03
-5.127500e-10,5.031250e-03
-5.087500e-10,5.828125e-03
-5.047500e-10,5.218750e-03
-5.007500e-10,6.156250e-03
-4.967500e-10,6.156250e-03
-4.927500e-10,5.968750e-03
-4.887500e-10,5.437500e-03
-4.847500e-10,5.750000e-03
-4.807500e-10,5.312500e-03
-4.767500e-10,5.390625e-03
-4.727500e-10,5.812500e-03
-4.687500e-10,5.875000e-03
-4.647500e-10,5.843750e-03
-4.607500e-10,5.406250e-03
-4.567500e-10,5.406250e-03
-4.527500e-10,5.812500e-03
-4.487500e-10,5.390625e-03
-4.447500e-10,6.000000e-03
-4.407500e-10,6.125000e-03
-4.367500e-10,6.218750e-03
-4.327500e-10,4.953125e-03
-4.287500e-10,5.609375e-03
-4.247500e-10,4.937500e-03
-4.207500e-10,5.828125e-03
-4.167500e-10,5.765625e-03
-4.127500e-10,5.406250e-03
-4.087500e-10,4.781250e-03
-4.047500e-10,5.000000e-03
-4.007500e-10,4.515625e-03
-3.967500e-10,4.375000e-03
-3.927500e-10,4.703125e-03
-3.887500e-10,4.625000e-03
-3.847500e-10,4.359375e-03
-3.807500e-10,3.828125e-03
-3.767500e-10,3.750000e-03
-3.727500e-10,4.062500e-03
-3.687500e-10,3.468750e-03
-3.647500e-10,3.968750e-03
-3.607500e-10,4.000000e-03
-3.567500e-10,4.000000e-03
-3.527500e-10,2.703125e-03
-3.487500e-10,3.218750e-03
-3.447500e-10,2.484375e-03
-3.407500e-10,3.343750e-03
-3.367500e-10,3.250000e-03
-3.327500e-10,2.875000e-03
-3.287500e-10,2.296875e-03
-3.247500e-10,2.562500e-03
-3.207500e-10,2.203125e-03
-3.167500e-10,2.078125e-03
-3.127500e-10,2.500000e-03
-3.087500e-10,2.578125e-03
-3.047500e-10,2.390625e-03
-3.007500e-10,2.078125e-03
-2.967500e-10,2.218750e-03
-2.927500e-10,2.750000e-03
-2.887500e-10,2.375000e-03
-2.847500e-10,3.078125e-03
-2.807500e-10,3.437500e-03
-2.767500e-10,3.718750e-03
-2.727500e-10,2.765625e-03
-2.687500e-10,3.562500e-03
-2.647500e-10,3.109375e-03
-2.607500e-10,4.328125e-03
-2.567500e-10,4.515625e-03
-2.527500e-10,4.484375e-03
-2.487500e-10,4.281250e-03
-2.447500e-10,4.890625e-03
-2.407500e-10,4.843750e-03
-2.367500e-10,5.015625e-03
-2.327500e-10,5.671875e-03
-2.287500e-10,6.031250e-03
-2.247500e-10,6.062500e-03
-2.207500e-10,6.046875e-03
-2.167500e-10,6.343750e-03
-2.127500e-10,7.000000e-03
-2.087500e-10,6.812500e-03
-2.047500e-10,7.593750e-03
-2.007500e-10,8.046875e-03
-1.967500e-10,8.359375e-03
-1.927500e-10,7.453125e-03
-1.887500e-10,8.218750e-03
-1.847500e-10,7.625000e-03
-1.807500e-10,8.781250e-03
-1.767500e-10,8.750000e-03
-1.727500e-10,8.578125e-03
-1.687500e-10,8.203125e-03
-1.647500e-10,8.562500e-03
-1.607500e-10,8.218750e-03
-1.567500e-10,8.140625e-03
-1.527500e-10,8.437500e-03
-1.487500e-10,8.468750e-03
-1.447500e-10,8.156250e-03
-1.407500e-10,7.828125e-03
-1.367500e-10,7.734375e-03
-1.327500e-10,7.968750e-03
-1.287500e-10,7.468750e-03
-1.247500e-10,7.921875e-03
-1.207500e-10,8.062500e-03
-1.167500e-10,8.156250e-03
-1.127500e-10,7.078125e-03
-1.087500e-10,7.671875e-03
-1.047500e-10,6.921875e-03
-1.007500e-10,8.093750e-03
-9.675000e-11,8.015625e-03
-9.275000e-11,7.984375e-03
-8.875000e-11,7.828125e-03
-8.475000e-11,8.515625e-03
-8.075000e-11,8.562500e-03
-7.675000e-11,9.031250e-03
-7.275000e-11,9.968750e-03
-6.875000e-11,1.082813e-02
-6.475000e-11,1.140625e-02
-6.075000e-11,1.214063e-02
-5.675000e-11,1.321875e-02
-5.275000e-11,1.471875e-02
-4.875000e-11,1.573438e-02
-4.475000e-11,1.785938e-02
-4.075000e-11,1.976563e-02
-3.675000e-11,2.189063e-02
-3.275000e-11,2.298438e-02
-2.875000e-11,2.587500e-02
-2.475000e-11,2.754688e-02
-2.075000e-11,3.135938e-02
-1.675000e-11,3.395313e-02
-1.275000e-11,3.685938e-02
-8.750000e-12,3.973438e-02
-4.750000e-12,4.359375e-02
-7.500000e-13,4.693750e-02
3.250000e-12,5.084375e-02
7.250000e-12,5.531250e-02
1.125000e-11,5.987500e-02
1.525000e-11,6.410938e-02
1.925000e-11,6.864063e-02
2.325000e-11,7.356250e-02
2.725000e-11,7.890625e-02
3.125000e-11,8.385938e-02
3.525000e-11,8.995313e-02
3.925000e-11,9.578125e-02
4.325000e-11,1.019219e-01
4.725000e-11,1.069531e-01
5.125000e-11,1.137188e-01
5.525000e-11,1.191719e-01
5.925000e-11,1.267344e-01
6.325000e-11,1.329219e-01
6.725000e-11,1.394375e-01
7.125000e-11,1.456719e-01
7.525000e-11,1.527500e-01
7.925000e-11,1.592344e-01
8.325000e-11,1.660313e-01
8.725000e-11,1.732656e-01
9.125000e-11,1.804375e-01
9.525000e-11,1.869375e-01
9.925000e-11,1.935469e-01
1.032500e-10,2.003281e-01
1.072500e-10,2.072500e-01
1.112500e-10,2.136094e-01
1.152500e-10,2.207656e-01
1.192500e-10,2.273438e-01
1.232500e-10,2.340625e-01
1.272500e-10,2.392813e-01
1.312500e-10,2.460156e-01
1.352500e-10,2.511250e-01
1.392500e-10,2.580000e-01
1.432500e-10,2.631719e-01
1.472500e-10,2.684844e-01
1.512500e-10,2.731250e-01
1.552500e-10,2.783125e-01
1.592500e-10,2.826875e-01
1.632500e-10,2.870938e-01
1.672500e-10,2.916094e-01
1.712500e-10,2.959063e-01
1.752500e-10,2.991406e-01
1.792500e-10,3.022500e-01
1.832500e-10,3.053438e-01
1.872500e-10,3.083750e-01
1.912500e-10,3.106406e-01
1.952500e-10,3.134375e-01
1.992500e-10,3.154375e-01
2.032500e-10,3.174688e-01
2.072500e-10,3.177969e-01
2.112500e-10,3.195938e-01
2.152500e-10,3.196094e-01
2.192500e-10,3.212188e-01
2.232500e-10,3.210469e-01
2.272500e-10,3.209375e-01
2.312500e-10,3.200938e-01
2.352500e-10,3.197500e-01
2.392500e-10,3.186250e-01
2.432500e-10,3.174844e-01
2.472500e-10,3.164063e-01
2.512500e-10,3.152031e-01
2.552500e-10,3.129219e-01
2.592500e-10,3.105156e-01
2.632500e-10,3.082344e-01
2.672500e-10,3.059688e-01
2.712500e-10,3.029688e-01
2.752500e-10,3.005781e-01
2.792500e-10,2.975000e-01
2.832500e-10,2.946250e-01
2.872500e-10,2.900781e-01
2.912500e-10,2.872344e-01
2.952500e-10,2.827813e-01
2.992500e-10,2.799219e-01
3.032500e-10,2.755313e-01
3.072500e-10,2.713281e-01
3.112500e-10,2.665469e-01
3.152500e-10,2.625000e-01
3.192500e-10,2.578750e-01
3.232500e-10,2.533750e-01
3.272500e-10,2.490625e-01
3.312500e-10,2.447969e-01
3.352500e-10,2.397188e-01
3.392500e-10,2.346250e-01
3.432500e-10,2.298594e-01
3.472500e-10,2.253281e-01
3.512500e-10,2.201719e-01
3.552500e-10,2.158125e-01
3.592500e-10,2.109844e-01
3.632500e-10,2.065000e-01
3.672500e-10,2.004844e-01
3.712500e-10,1.964219e-01
3.752500e-10,1.909063e-01
3.792500e-10,1.870781e-01
3.832500e-10,1.819375e-01
3.872500e-10,1.770781e-01
3.912500e-10,1.717813e-01
3.952500e-10,1.674531e-01
3.992500e-10,1.626563e-01
4.032500e-10,1.581094e-01
4.072500e-10,1.538438e-01
4.112500e-10,1.497500e-01
4.152500e-10,1.450781e-01
4.192500e-10,1.404531e-01
4.232500e-10,1.362344e-01
4.272500e-10,1.324219e-01
4.312500e-10,1.280156e-01
4.352500e-10,1.245000e-01
4.392500e-10,1.207188e-01
4.432500e-10,1.172813e-01
4.472500e-10,1.124375e-01
4.512500e-10,1.096719e-01
4.552500e-10,1.055313e-01
4.592500e-10,1.031250e-01
4.632500e-10,9.954688e-02
4.672500e-10,9.625000e-02
4.712500e-10,9.262500e-02
4.752500e-10,9.000000e-02
4.792500e-10,8.695313e-02
4.832500e-10,8.425000e-02
4.872500e-10,8.182813e-02
4.912500e-10,7.962500e-02
4.952500e-10,7.698438e-02
4.992500e-10,7.437500e-02
5.032500e-10,7.218750e-02
5.072500e-10,7.045313e-02
5.112500e-10,6.810938e-02
5.152500e-10,6.664063e-02
5.192500e-10,6.501563e-02
5.232500e-10,6.362500e-02
5.272500e-10,6.090625e-02
5.312500e-10,6.021875e-02
5.352500e-10,5.818750e-02
5.392500e-10,5.785938e-02
5.432500e-10,5.640625e-02
5.472500e-10,5.506250e-02
5.512500e-10,5.345313e-02
5.552500e-10,5.278125e-02
5.592500e-10,5.156250e-02
5.632500e-10,5.068750e-02
5.672500e-10,5.006250e-02
5.712500e-10,4.956250e-02
5.752500e-10,4.865625e-02
5.792500e-10,4.764063e-02
5.832500e-10,4.700000e-02
5.872500e-10,4.670313e-02
5.912500e-10,4.575000e-02
5.952500e-10,4.554688e-02
5.992500e-10,4.515625e-02
6.032500e-10,4.481250e-02
6.072500e-10,4.315625e-02
6.112500e-10,4.335938e-02
6.152500e-10,4.218750e-02
6.192500e-10,4.264063e-02
6.232500e-10,4.190625e-02
6.272500e-10,4.106250e-02
6.312500e-10,3.993750e-02
6.352500e-10,3.970313e-02
6.392500e-10,3.870313e-02
6.432500e-10,3.801563e-02
6.472500e-10,3.756250e-02
6.512500e-10,3.712500e-02
6.552500e-10,3.625000e-02
6.592500e-10,3.510938e-02
6.632500e-10,3.440625e-02
6.672500e-10,3.387500e-02
6.712500e-10,3.267188e-02
6.752500e-10,3.221875e-02
6.792500e-10,3.153125e-02
6.832500e-10,3.073438e-02
6.872500e-10,2.871875e-02
6.912500e-10,2.845313e-02
6.952500e-10,2.689063e-02
6.992500e-10,2.695313e-02
7.032500e-10,2.578125e-02
7.072500e-10,2.453125e-02
7.112500e-10,2.292188e-02
7.152500e-10,2.235938e-02
7.192500e-10,2.092188e-02
7.232500e-10,1.984375e-02
7.272500e-10,1.910938e-02
7.312500e-10,1.840625e-02
7.352500e-10,1.732813e-02
7.392500e-10,1.595313e-02
7.432500e-10,1.515625e-02
7.472500e-10,1.453125e-02
7.512500e-10,1.331250e-02
7.552500e-10,1.295313e-02
7.592500e-10,1.243750e-02
7.632500e-10,1.173438e-02
7.672500e-10,1.000000e-02
7.712500e-10,1.000000e-02
7.752500e-10,8.796875e-03
7.792500e-10,9.343750e-03
7.832500e-10,8.671875e-03
7.872500e-10,8.031250e-03
7.912500e-10,7.000000e-03
7.952500e-10,7.109375e-03
7.992500e-10,6.375000e-03
8.032500e-10,6.046875e-03
8.072500e-10,6.203125e-03
8.112500e-10,6.281250e-03
8.152500e-10,6.125000e-03
8.192500e-10,5.640625e-03
8.232500e-10,5.734375e-03
8.272500e-10,6.125000e-03
8.312500e-10,5.875000e-03
8.352500e-10,6.531250e-03
8.392500e-10,6.984375e-03
8.432500e-10,7.203125e-03
8.472500e-10,6.468750e-03
8.512500e-10,7.343750e-03
8.552500e-10,7.000000e-03
8.592500e-10,8.500000e-03
8.632500e-10,8.687500e-03
8.672500e-10,8.875000e-03
8.712500e-10,8.625000e-03
8.752500e-10,9.390625e-03
8.792500e-10,9.343750e-03
8.832500e-10,9.656250e-03
8.872500e-10,1.040625e-02
8.912500e-10,1.085938e-02
8.952500e-10,1.115625e-02
8.992500e-10,1.104688e-02
9.032500e-10,1.135938e-02
9.072500e-10,1.204688e-02
9.112500e-10,1.200000e-02
9.152500e-10,1.276563e-02
9.192500e-10,1.318750e-02
9.232500e-10,1.339063e-02
9.272500e-10,1.257813e-02
9.312500e-10,1.328125e-02
9.352500e-10,1.265625e-02
9.392500e-10,1.392188e-02
9.432500e-10,1.381250e-02
9.472500e-10,1.360938e-02
9.512500e-10,1.296875e-02
9.552500e-10,1.323438e-02
9.592500e-10,1.273438e-02
9.632500e-10,1.259375e-02
9.672500e-10,1.282813e-02
9.712500e-10,1.262500e-02
9.752500e-10,1.234375e-02
9.792500e-10,1.168750e-02
9.832500e-10,1.134375e-02
9.872500e-10,1.150000e-02
9.912500e-10,1.089063e-02
9.952500e-10,1.106250e-02
9.992500e-10,1.090625e-02
1.003250e-09,1.057813e-02
1.007250e-09,9.296875e-03
1.011250e-09,9.562500e-03
1.015250e-09,8.421875e-03
1.019250e-09,9.265625e-03
1.023250e-09,8.765625e-03
1.027250e-09,8.218750e-03
1.031250e-09,7.296875e-03
1.035250e-09,7.312500e-03
1.039250e-09,6.625000e-03
1.043250e-09,6.359375e-03
1.047250e-09,6.500000e-03
1.051250e-09,6.218750e-03
1.055250e-09,5.890625e-03
1.059250e-09,5.281250e-03
1.063250e-09,4.984375e-03
1.067250e-09,5.281250e-03
1.071250e-09,4.828125e-03
1.075250e-09,5.218750e-03
1.079250e-09,5.296875e-03
1.083250e-09,5.281250e-03
1.087250e-09,4.343750e-03
1.091250e-09,5.015625e-03
1.095250e-09,4.234375e-03
1.099250e-09,5.453125e-03
1.103250e-09,5.359375e-03
1.107250e-09,5.250000e-03
1.111250e-09,4.796875e-03
1.115250e-09,5.296875e-03
1.119250e-09,5.093750e-03
1.123250e-09,5.281250e-03
1.127250e-09,5.906250e-03
1.131250e-09,6.140625e-03
1.135250e-09,6.250000e-03
1.139250e-09,6.093750e-03
1.143250e-09,6.250000e-03
1.147250e-09,6.953125e-03
1.151250e-09,6.875000e-03
1.155250e-09,7.656250e-03
1.159250e-09,8.109375e-03
1.163250e-09,8.468750e-03
1.167250e-09,7.796875e-03
1.171250e-09,8.796875e-03
1.175250e-09,8.265625e-03
1.179250e-09,9.671875e-03
1.183250e-09,9.750000e-03
1.187250e-09,9.781250e-03
1.191250e-09,9.421875e-03
1.195250e-09,1.004688e-02
1.199250e-09,9.859375e-03
1.203250e-09,1.007813e-02
1.207250e-09,1.068750e-02
1.211250e-09,1.093750e-02
1.215250e-09,1.093750e-02
1.219250e-09,1.068750e-02
1.223250e-09,1.075000e-02
1.227250e-09,1.129688e-02
1.231250e-09,1.101563e-02
1.235250e-09,1.164063e-02
1.239250e-09,1.190625e-02
1.243250e-09,1.207813e-02
1.247250e-09,1.109375e-02
1.251250e-09,1.190625e-02
1.255250e-09,1.110938e-02
1.259250e-09,1.226563e-02
1.263250e-09,1.206250e-02
1.267250e-09,1.184375e-02
1.271250e-09,1.120313e-02
1.275250e-09,1.154688e-02
1.279250e-09,1.110938e-02
1.283250e-09,1.104688e-02
1.287250e-09,1.139063e-02
1.291250e-09,1.145313e-02
1.295250e-09,1.118750e-02
1.299250e-09,1.071875e-02
1.303250e-09,1.057813e-02
1.307250e-09,1.090625e-02
1.311250e-09,1.043750e-02
1.315250e-09,1.089063e-02
1.319250e-09,1.100000e-02
1.323250e-09,1.104688e-02
1.327250e-09,9.859375e-03
1.331250e-09,1.054688e-02
1.335250e-09,9.640625e-03
1.339250e-09,1.073438e-02
1.343250e-09,1.043750e-02
1.347250e-09,1.014063e-02
1.351250e-09,9.453125e-03
1.355250e-09,9.750000e-03
1.359250e-09,9.265625e-03
1.363250e-09,9.187500e-03
1.367250e-09,9.500000e-03
1.371250e-09,9.593750e-03
1.375250e-09,9.328125e-03
1.379250e-09,8.843750e-03
1.383250e-09,8.750000e-03
1.387250e-09,9.093750e-03
1.391250e-09,8.625000e-03
1.395250e-09,9.140625e-03
1.399250e-09,9.265625e-03
1.403250e-09,9.390625e-03
1.407250e-09,8.187500e-03
1.411250e-09,8.921875e-03
1.415250e-09,8.062500e-03
1.419250e-09,9.203125e-03
1.423250e-09,8.953125e-03
1.427250e-09,8.687500e-03
1.431250e-09,8.031250e-03
1.435250e-09,8.390625e-03
1.439250e-09,7.953125e-03
1.443250e-09,7.906250e-03
1.447250e-09,8.265625e-03
1.451250e-09,8.406250e-03
1.455250e-09,8.171875e-03
1.459250e-09,7.734375e-03
1.463250e-09,7.687500e-03
1.467250e-09,8.062500e-03
1.471250e-09,7.640625e-03
1.475250e-09,8.218750e-03
1.479250e-09,8.390625e-03
1.483250e-09,8.562500e-03
1.487250e-09,7.375000e-03
1.491250e-09,8.156250e-03
1.495250e-09,7.343750e-03
1.499250e-09,8.546875e-03
1.503250e-09,8.343750e-03
1.507250e-09,8.156250e-03
1.511250e-09,7.546875e-03
1.515250e-09,7.968750e-03
1.519250e-09,7.593750e-03
1.523250e-09,7.609375e-03
1.527250e-09,8.046875e-03
1.531250e-09,8.265625e-03
1.535250e-09,8.109375e-03
1.539250e-09,7.734375e-03
1.543250e-09,7.781250e-03
1.547250e-09,8.218750e-03
1.551250e-09,7.875000e-03
1.555250e-09,8.515625e-03
1.559250e-09,8.781250e-03
1.563250e-09,9.031250e-03
1.567250e-09,7.890625e-03
1.571250e-09,8.765625e-03
1.575250e-09,8.015625e-03
1.579250e-09,9.281250e-03
1.583250e-09,9.140625e-03
1.587250e-09,9.000000e-03
1.591250e-09,8.453125e-03
1.595250e-09,8.906250e-03
1.599250e-09,8.546875e-03
1.603250e-09,8.593750e-03
1.607250e-09,9.046875e-03
1.611250e-09,9.281250e-03
1.615250e-09,9.125000e-03
1.619250e-09,8.734375e-03
1.623250e-09,8.750000e-03
1.627250e-09,9.171875e-03
1.631250e-09,8.781250e-03
1.635250e-09,9.375000e-03
1.639250e-09,9.578125e-03
1.643250e-09,9.750000e-03
1.647250e-09,8.531250e-03
1.651250e-09,9.296875e-03
1.655250e-09,8.453125e-03
1.659250e-09,9.593750e-03
1.663250e-09,9.328125e-03
1.667250e-09,9.062500e-03
1.671250e-09,8.375000e-03
1.675250e-09,8.671875e-03
1.679250e-09,8.171875e-03
1.683250e-09,8.062500e-03
1.687250e-09,8.343750e-03
1.691250e-09,8.421875e-03
1.695250e-09,8.078125e-03
1.699250e-09,7.531250e-03
1.703250e-09,7.390625e-03
1.707250e-09,7.640625e-03
1.711250e-09,7.078125e-03
1.715250e-09,7.515625e-03
1.719250e-09,7.546875e-03
1.723250e-09,7.578125e-03
1.727250e-09,6.187500e-03
1.731250e-09,6.828125e-03
1.735250e-09,5.843750e-03
1.739250e-09,6.875000e-03
1.743250e-09,6.500000e-03
1.747250e-09,6.125000e-03
1.751250e-09,5.343750e-03
1.755250e-09,5.578125e-03
1.759250e-09,5.015625e-03
