Measurements-streak-laser-independent/Photodiode-on-Tek-12bit-4GHz/Tek000_ch1_20190613133009397.csv

Model,MSO64
Waveform Type,ANALOG
Horizontal Units,s
Sample Interval,4.000000e-12
Record Length,1000
Zero Index,310.609375
Vertical Units,V

TIME,CH1
-1.242437e-09,4.859375e-03
-1.238437e-09,4.203125e-03
-1.234437e-09,4.546875e-03
-1.230437e-09,4.093750e-03
-1.226437e-09,4.031250e-03
-1.222437e-09,4.390625e-03
-1.218438e-09,4.546875e-03
-1.214438e-09,4.281250e-03
-1.210438e-09,3.828125e-03
-1.206438e-09,3.781250e-03
-1.202438e-09,4.140625e-03
-1.198437e-09,3.687500e-03
-1.194437e-09,4.250000e-03
-1.190437e-09,4.421875e-03
-1.186437e-09,4.593750e-03
-1.182437e-09,3.343750e-03
-1.178437e-09,4.125000e-03
-1.174437e-09,3.296875e-03
-1.170437e-09,4.484375e-03
-1.166437e-09,4.281250e-03
-1.162437e-09,4.062500e-03
-1.158438e-09,3.453125e-03
-1.154438e-09,3.843750e-03
-1.150438e-09,3.437500e-03
-1.146438e-09,3.453125e-03
-1.142438e-09,3.875000e-03
-1.138437e-09,4.093750e-03
-1.134437e-09,3.906250e-03
-1.130437e-09,3.515625e-03
-1.126437e-09,3.546875e-03
-1.122437e-09,3.968750e-03
-1.118437e-09,3.593750e-03
-1.114437e-09,4.234375e-03
-1.110437e-09,4.468750e-03
-1.106437e-09,4.703125e-03
-1.102437e-09,3.531250e-03
-1.098438e-09,4.375000e-03
-1.094438e-09,3.609375e-03
-1.090438e-09,4.859375e-03
-1.086438e-09,4.703125e-03
-1.082438e-09,4.531250e-03
-1.078437e-09,3.968750e-03
-1.074437e-09,4.406250e-03
-1.070437e-09,4.046875e-03
-1.066437e-09,4.078125e-03
-1.062437e-09,4.531250e-03
-1.058437e-09,4.781250e-03
-1.054437e-09,4.609375e-03
-1.050437e-09,4.250000e-03
-1.046437e-09,4.281250e-03
-1.042437e-09,4.734375e-03
-1.038438e-09,4.359375e-03
-1.034438e-09,5.015625e-03
-1.030438e-09,5.265625e-03
-1.026438e-09,5.500000e-03
-1.022438e-09,4.328125e-03
-1.018438e-09,5.187500e-03
-1.014437e-09,4.421875e-03
-1.010437e-09,5.671875e-03
-1.006437e-09,5.515625e-03
-1.002437e-09,5.359375e-03
-9.984375e-10,4.796875e-03
-9.944375e-10,5.265625e-03
-9.904375e-10,4.906250e-03
-9.864375e-10,4.953125e-03
-9.824375e-10,5.421875e-03
-9.784375e-10,5.687500e-03
-9.744375e-10,5.531250e-03
-9.704375e-10,5.187500e-03
-9.664375e-10,5.250000e-03
-9.624375e-10,5.718750e-03
-9.584375e-10,5.375000e-03
-9.544375e-10,6.046875e-03
-9.504375e-10,6.312500e-03
-9.464375e-10,6.593750e-03
-9.424375e-10,5.437500e-03
-9.384375e-10,6.312500e-03
-9.344375e-10,5.562500e-03
-9.304375e-10,6.812500e-03
-9.264375e-10,6.671875e-03
-9.224375e-10,6.531250e-03
-9.184375e-10,5.984375e-03
-9.144375e-10,6.437500e-03
-9.104375e-10,6.078125e-03
-9.064375e-10,6.125000e-03
-9.024375e-10,6.562500e-03
-8.984375e-10,6.796875e-03
-8.944375e-10,6.609375e-03
-8.904375e-10,6.218750e-03
-8.864375e-10,6.234375e-03
-8.824375e-10,6.640625e-03
-8.784375e-10,6.218750e-03
-8.744375e-10,6.812500e-03
-8.704375e-10,7.000000e-03
-8.664375e-10,7.156250e-03
-8.624375e-10,5.921875e-03
-8.584375e-10,6.671875e-03
-8.544375e-10,5.796875e-03
-8.504375e-10,6.859375e-03
-8.464375e-10,6.593750e-03
-8.424375e-10,6.296875e-03
-8.384375e-10,5.609375e-03
-8.344375e-10,5.890625e-03
-8.304375e-10,5.359375e-03
-8.264375e-10,5.250000e-03
-8.224375e-10,5.515625e-03
-8.184375e-10,5.562500e-03
-8.144375e-10,5.234375e-03
-8.104375e-10,4.656250e-03
-8.064375e-10,4.484375e-03
-8.024375e-10,4.718750e-03
-7.984375e-10,4.140625e-03
-7.944375e-10,4.562500e-03
-7.904375e-10,4.578125e-03
-7.864375e-10,4.593750e-03
-7.824375e-10,3.234375e-03
-7.784375e-10,3.875000e-03
-7.744375e-10,2.890625e-03
-7.704375e-10,3.796875e-03
-7.664375e-10,3.468750e-03
-7.624375e-10,3.109375e-03
-7.584375e-10,2.390625e-03
-7.544375e-10,2.625000e-03
-7.504375e-10,2.046875e-03
-7.464375e-10,1.953125e-03
-7.424375e-10,2.218750e-03
-7.384375e-10,2.281250e-03
-7.344375e-10,2.046875e-03
-7.304375e-10,1.531250e-03
-7.264375e-10,1.437500e-03
-7.224375e-10,1.750000e-03
-7.184375e-10,1.296875e-03
-7.144375e-10,1.843750e-03
-7.104375e-10,2.015625e-03
-7.064375e-10,2.187500e-03
-7.024375e-10,1.000000e-03
-6.984375e-10,1.812500e-03
-6.944375e-10,1.062500e-03
-6.904375e-10,2.140625e-03
-6.864375e-10,2.046875e-03
-6.824375e-10,1.921875e-03
-6.784375e-10,1.437500e-03
-6.744375e-10,1.875000e-03
-6.704375e-10,1.500000e-03
-6.664375e-10,1.671875e-03
-6.624375e-10,2.156250e-03
-6.584375e-10,2.421875e-03
-6.544375e-10,2.468750e-03
-6.504375e-10,2.156250e-03
-6.464375e-10,2.250000e-03
-6.424375e-10,2.750000e-03
-6.384375e-10,2.515625e-03
-6.344375e-10,3.218750e-03
-6.304375e-10,3.562500e-03
-6.264375e-10,3.859375e-03
-6.224375e-10,2.765625e-03
-6.184375e-10,3.718750e-03
-6.144375e-10,3.109375e-03
-6.104375e-10,4.250000e-03
-6.064375e-10,4.250000e-03
-6.024375e-10,4.171875e-03
-5.984375e-10,3.718750e-03
-5.944375e-10,4.156250e-03
-5.904375e-10,3.781250e-03
-5.864375e-10,3.937500e-03
-5.824375e-10,4.390625e-03
-5.784375e-10,4.578125e-03
-5.744375e-10,4.593750e-03
-5.704375e-10,4.203125e-03
-5.664375e-10,4.218750e-03
-5.624375e-10,4.640625e-03
-5.584375e-10,4.296875e-03
-5.544375e-10,4.906250e-03
-5.504375e-10,5.125000e-03
-5.464375e-10,5.281250e-03
-5.424375e-10,4.062500e-03
-5.384375e-10,4.859375e-03
-5.344375e-10,4.171875e-03
-5.304375e-10,5.203125e-03
-5.264375e-10,5.109375e-03
-5.224375e-10,4.906250e-03
-5.184375e-10,4.343750e-03
-5.144375e-10,4.671875e-03
-5.104375e-10,4.234375e-03
-5.064375e-10,4.281250e-03
-5.024375e-10,4.703125e-03
-4.984375e-10,4.812500e-03
-4.944375e-10,4.750000e-03
-4.904375e-10,4.343750e-03
-4.864375e-10,4.375000e-03
-4.824375e-10,4.812500e-03
-4.784375e-10,4.468750e-03
-4.744375e-10,5.125000e-03
-4.704375e-10,5.359375e-03
-4.664375e-10,5.578125e-03
-4.624375e-10,4.437500e-03
-4.584375e-10,5.265625e-03
-4.544375e-10,4.687500e-03
-4.504375e-10,5.812500e-03
-4.464375e-10,5.875000e-03
-4.424375e-10,5.750000e-03
-4.384375e-10,5.296875e-03
-4.344375e-10,5.781250e-03
-4.304375e-10,5.515625e-03
-4.264375e-10,5.640625e-03
-4.224375e-10,6.218750e-03
-4.184375e-10,6.468750e-03
-4.144375e-10,6.468750e-03
-4.104375e-10,6.203125e-03
-4.064375e-10,6.406250e-03
-4.024375e-10,6.984375e-03
-3.984375e-10,6.687500e-03
-3.944375e-10,7.468750e-03
-3.904375e-10,7.781250e-03
-3.864375e-10,8.078125e-03
-3.824375e-10,7.015625e-03
-3.784375e-10,7.843750e-03
-3.744375e-10,7.281250e-03
-3.704375e-10,8.437500e-03
-3.664375e-10,8.468750e-03
-3.624375e-10,8.296875e-03
-3.584375e-10,7.828125e-03
-3.544375e-10,8.234375e-03
-3.504375e-10,7.937500e-03
-3.464375e-10,7.906250e-03
-3.424375e-10,8.359375e-03
-3.384375e-10,8.484375e-03
-3.344375e-10,8.281250e-03
-3.304375e-10,7.890625e-03
-3.264375e-10,7.906250e-03
-3.224375e-10,8.296875e-03
-3.184375e-10,7.781250e-03
-3.144375e-10,8.312500e-03
-3.104375e-10,8.437500e-03
-3.064375e-10,8.484375e-03
-3.024375e-10,7.203125e-03
-2.984375e-10,7.750000e-03
-2.944375e-10,6.921875e-03
-2.904375e-10,7.843750e-03
-2.864375e-10,7.578125e-03
-2.824375e-10,7.171875e-03
-2.784375e-10,6.484375e-03
-2.744375e-10,6.656250e-03
-2.704375e-10,6.125000e-03
-2.664375e-10,5.859375e-03
-2.624375e-10,6.078125e-03
-2.584375e-10,6.000000e-03
-2.544375e-10,5.562500e-03
-2.504375e-10,5.031250e-03
-2.464375e-10,4.859375e-03
-2.424375e-10,5.078125e-03
-2.384375e-10,4.453125e-03
-2.344375e-10,4.828125e-03
-2.304375e-10,4.875000e-03
-2.264375e-10,4.828125e-03
-2.224375e-10,3.515625e-03
-2.184375e-10,4.015625e-03
-2.144375e-10,3.109375e-03
-2.104375e-10,4.031250e-03
-2.064375e-10,3.750000e-03
-2.024375e-10,3.375000e-03
-1.984375e-10,2.765625e-03
-1.944375e-10,3.000000e-03
-1.904375e-10,2.531250e-03
-1.864375e-10,2.390625e-03
-1.824375e-10,2.687500e-03
-1.784375e-10,2.750000e-03
-1.744375e-10,2.453125e-03
-1.704375e-10,2.125000e-03
-1.664375e-10,2.109375e-03
-1.624375e-10,2.484375e-03
-1.584375e-10,2.093750e-03
-1.544375e-10,2.703125e-03
-1.504375e-10,3.000000e-03
-1.464375e-10,3.250000e-03
-1.424375e-10,2.281250e-03
-1.384375e-10,3.093750e-03
-1.344375e-10,2.484375e-03
-1.304375e-10,3.843750e-03
-1.264375e-10,3.890625e-03
-1.224375e-10,3.968750e-03
-1.184375e-10,3.812500e-03
-1.144375e-10,4.562500e-03
-1.104375e-10,4.593750e-03
-1.064375e-10,5.046875e-03
-1.024375e-10,5.921875e-03
-9.843750e-11,6.640625e-03
-9.443750e-11,7.031250e-03
-9.043750e-11,7.453125e-03
-8.643750e-11,8.203125e-03
-8.243750e-11,9.343750e-03
-7.843750e-11,9.859375e-03
-7.443750e-11,1.142188e-02
-7.043750e-11,1.268750e-02
-6.643750e-11,1.404688e-02
-6.243750e-11,1.421875e-02
-5.843750e-11,1.623438e-02
-5.443750e-11,1.685938e-02
-5.043750e-11,1.957813e-02
-4.643750e-11,2.096875e-02
-4.243750e-11,2.253125e-02
-3.843750e-11,2.390625e-02
-3.443750e-11,2.626563e-02
-3.043750e-11,2.798438e-02
-2.643750e-11,3.017188e-02
-2.243750e-11,3.285938e-02
-1.843750e-11,3.551563e-02
-1.443750e-11,3.781250e-02
-1.043750e-11,4.021875e-02
-6.437500e-12,4.301563e-02
-2.437500e-12,4.623438e-02
1.562500e-12,4.890625e-02
5.562500e-12,5.267188e-02
9.562500e-12,5.612500e-02
1.356250e-11,5.979688e-02
1.756250e-11,6.226563e-02
2.156250e-11,6.659375e-02
2.556250e-11,6.951563e-02
2.956250e-11,7.453125e-02
3.356250e-11,7.818750e-02
3.756250e-11,8.207813e-02
4.156250e-11,8.568750e-02
4.556250e-11,9.023438e-02
4.956250e-11,9.414063e-02
5.356250e-11,9.843750e-02
5.756250e-11,1.031875e-01
6.156250e-11,1.078750e-01
6.556250e-11,1.120156e-01
6.956250e-11,1.162188e-01
7.356250e-11,1.207031e-01
7.756250e-11,1.254844e-01
8.156250e-11,1.296406e-01
8.556250e-11,1.347188e-01
8.956250e-11,1.393281e-01
9.356250e-11,1.440625e-01
9.756250e-11,1.473906e-01
1.015625e-10,1.524375e-01
1.055625e-10,1.559063e-01
1.095625e-10,1.612656e-01
1.135625e-10,1.650625e-01
1.175625e-10,1.689688e-01
1.215625e-10,1.723438e-01
1.255625e-10,1.764531e-01
1.295625e-10,1.797656e-01
1.335625e-10,1.832656e-01
1.375625e-10,1.870000e-01
1.415625e-10,1.905313e-01
1.455625e-10,1.932500e-01
1.495625e-10,1.958125e-01
1.535625e-10,1.985313e-01
1.575625e-10,2.013281e-01
1.615625e-10,2.033438e-01
1.655625e-10,2.060781e-01
1.695625e-10,2.081406e-01
1.735625e-10,2.102031e-01
1.775625e-10,2.106563e-01
1.815625e-10,2.127344e-01
1.855625e-10,2.130781e-01
1.895625e-10,2.151563e-01
1.935625e-10,2.155313e-01
1.975625e-10,2.159531e-01
2.015625e-10,2.157188e-01
2.055625e-10,2.161250e-01
2.095625e-10,2.157188e-01
2.135625e-10,2.154063e-01
2.175625e-10,2.152500e-01
2.215625e-10,2.149063e-01
2.255625e-10,2.136719e-01
2.295625e-10,2.122813e-01
2.335625e-10,2.110625e-01
2.375625e-10,2.099688e-01
2.415625e-10,2.080938e-01
2.455625e-10,2.069219e-01
2.495625e-10,2.051563e-01
2.535625e-10,2.034688e-01
2.575625e-10,2.002031e-01
2.615625e-10,1.987188e-01
2.655625e-10,1.955781e-01
2.695625e-10,1.942031e-01
2.735625e-10,1.912813e-01
2.775625e-10,1.884844e-01
2.815625e-10,1.851563e-01
2.855625e-10,1.826563e-01
2.895625e-10,1.794688e-01
2.935625e-10,1.765000e-01
2.975625e-10,1.738125e-01
3.015625e-10,1.710781e-01
3.055625e-10,1.676563e-01
3.095625e-10,1.641563e-01
3.135625e-10,1.610313e-01
3.175625e-10,1.581875e-01
3.215625e-10,1.546719e-01
3.255625e-10,1.520156e-01
3.295625e-10,1.489375e-01
3.335625e-10,1.460781e-01
3.375625e-10,1.417344e-01
3.415625e-10,1.393906e-01
3.455625e-10,1.355313e-01
3.495625e-10,1.335000e-01
3.535625e-10,1.301094e-01
3.575625e-10,1.269375e-01
3.615625e-10,1.233438e-01
3.655625e-10,1.207031e-01
3.695625e-10,1.175000e-01
3.735625e-10,1.146094e-01
3.775625e-10,1.120469e-01
3.815625e-10,1.095156e-01
3.855625e-10,1.064688e-01
3.895625e-10,1.033750e-01
3.935625e-10,1.006875e-01
3.975625e-10,9.840625e-02
4.015625e-10,9.543750e-02
4.055625e-10,9.340625e-02
4.095625e-10,9.103125e-02
4.135625e-10,8.887500e-02
4.175625e-10,8.528125e-02
4.215625e-10,8.371875e-02
4.255625e-10,8.070313e-02
4.295625e-10,7.948438e-02
4.335625e-10,7.698438e-02
4.375625e-10,7.465625e-02
4.415625e-10,7.193750e-02
4.455625e-10,7.018750e-02
4.495625e-10,6.787500e-02
4.535625e-10,6.589063e-02
4.575625e-10,6.421875e-02
4.615625e-10,6.256250e-02
4.655625e-10,6.046875e-02
4.695625e-10,5.828125e-02
4.735625e-10,5.650000e-02
4.775625e-10,5.512500e-02
4.815625e-10,5.304688e-02
4.855625e-10,5.187500e-02
4.895625e-10,5.043750e-02
4.935625e-10,4.912500e-02
4.975625e-10,4.643750e-02
5.015625e-10,4.578125e-02
5.055625e-10,4.365625e-02
5.095625e-10,4.332813e-02
5.135625e-10,4.178125e-02
5.175625e-10,4.029688e-02
5.215625e-10,3.848438e-02
5.255625e-10,3.765625e-02
5.295625e-10,3.620313e-02
5.335625e-10,3.510938e-02
5.375625e-10,3.432813e-02
5.415625e-10,3.357813e-02
5.455625e-10,3.242188e-02
5.495625e-10,3.115625e-02
5.535625e-10,3.031250e-02
5.575625e-10,2.984375e-02
5.615625e-10,2.868750e-02
5.655625e-10,2.840625e-02
5.695625e-10,2.790625e-02
5.735625e-10,2.745313e-02
5.775625e-10,2.570313e-02
5.815625e-10,2.590625e-02
5.855625e-10,2.468750e-02
5.895625e-10,2.526563e-02
5.935625e-10,2.460938e-02
5.975625e-10,2.393750e-02
6.015625e-10,2.298438e-02
6.055625e-10,2.300000e-02
6.095625e-10,2.228125e-02
6.135625e-10,2.193750e-02
6.175625e-10,2.192188e-02
6.215625e-10,2.189063e-02
6.255625e-10,2.145313e-02
6.295625e-10,2.082813e-02
6.335625e-10,2.065625e-02
6.375625e-10,2.076563e-02
6.415625e-10,2.017188e-02
6.455625e-10,2.043750e-02
6.495625e-10,2.043750e-02
6.535625e-10,2.040625e-02
6.575625e-10,1.907813e-02
6.615625e-10,1.962500e-02
6.655625e-10,1.875000e-02
6.695625e-10,1.964063e-02
6.735625e-10,1.926563e-02
6.775625e-10,1.881250e-02
6.815625e-10,1.798438e-02
6.855625e-10,1.818750e-02
6.895625e-10,1.753125e-02
6.935625e-10,1.721875e-02
6.975625e-10,1.725000e-02
7.015625e-10,1.721875e-02
7.055625e-10,1.678125e-02
7.095625e-10,1.606250e-02
7.135625e-10,1.582813e-02
7.175625e-10,1.581250e-02
7.215625e-10,1.509375e-02
7.255625e-10,1.525000e-02
7.295625e-10,1.514063e-02
7.335625e-10,1.485938e-02
7.375625e-10,1.339063e-02
7.415625e-10,1.371875e-02
7.455625e-10,1.265625e-02
7.495625e-10,1.340625e-02
7.535625e-10,1.282813e-02
7.575625e-10,1.223438e-02
7.615625e-10,1.121875e-02
7.655625e-10,1.126563e-02
7.695625e-10,1.045313e-02
7.735625e-10,1.001563e-02
7.775625e-10,9.984375e-03
7.815625e-10,9.843750e-03
7.855625e-10,9.359375e-03
7.895625e-10,8.578125e-03
7.935625e-10,8.312500e-03
7.975625e-10,8.328125e-03
8.015625e-10,7.671875e-03
8.055625e-10,7.921875e-03
8.095625e-10,7.921875e-03
8.135625e-10,7.750000e-03
8.175625e-10,6.468750e-03
8.215625e-10,6.937500e-03
8.255625e-10,6.062500e-03
8.295625e-10,7.093750e-03
8.335625e-10,6.796875e-03
8.375625e-10,6.515625e-03
8.415625e-10,5.812500e-03
8.455625e-10,6.171875e-03
8.495625e-10,5.718750e-03
8.535625e-10,5.687500e-03
8.575625e-10,6.078125e-03
8.615625e-10,6.265625e-03
8.655625e-10,6.218750e-03
8.695625e-10,5.875000e-03
8.735625e-10,5.984375e-03
8.775625e-10,6.484375e-03
8.815625e-10,6.281250e-03
8.855625e-10,6.968750e-03
8.895625e-10,7.359375e-03
8.935625e-10,7.609375e-03
8.975625e-10,6.750000e-03
9.015625e-10,7.609375e-03
9.055625e-10,7.078125e-03
9.095625e-10,8.500000e-03
9.135625e-10,8.562500e-03
9.175625e-10,8.609375e-03
9.215625e-10,8.218750e-03
9.255625e-10,8.812500e-03
9.295625e-10,8.640625e-03
9.335625e-10,8.859375e-03
9.375625e-10,9.484375e-03
9.415625e-10,9.765625e-03
9.455625e-10,9.859375e-03
9.495625e-10,9.640625e-03
9.535625e-10,9.765625e-03
9.575625e-10,1.037500e-02
9.615625e-10,1.018750e-02
9.655625e-10,1.089063e-02
9.695625e-10,1.120313e-02
9.735625e-10,1.140625e-02
9.775625e-10,1.048438e-02
9.815625e-10,1.125000e-02
9.855625e-10,1.054688e-02
9.895625e-10,1.181250e-02
9.935625e-10,1.168750e-02
9.975625e-10,1.153125e-02
1.001562e-09,1.095313e-02
1.005562e-09,1.131250e-02
1.009562e-09,1.092188e-02
1.013562e-09,1.090625e-02
1.017562e-09,1.128125e-02
1.021562e-09,1.129688e-02
1.025562e-09,1.110938e-02
1.029562e-09,1.064063e-02
1.033563e-09,1.050000e-02
1.037563e-09,1.084375e-02
1.041563e-09,1.042188e-02
1.045563e-09,1.085938e-02
1.049563e-09,1.093750e-02
1.053563e-09,1.093750e-02
1.057562e-09,9.812500e-03
1.061562e-09,1.042188e-02
1.065562e-09,9.515625e-03
1.069562e-09,1.059375e-02
1.073562e-09,1.031250e-02
1.077562e-09,1.001563e-02
1.081562e-09,9.328125e-03
1.085562e-09,9.609375e-03
1.089562e-09,9.140625e-03
1.093563e-09,9.078125e-03
1.097563e-09,9.421875e-03
1.101563e-09,9.437500e-03
1.105563e-09,9.234375e-03
1.109563e-09,8.796875e-03
1.113562e-09,8.687500e-03
1.117562e-09,9.093750e-03
1.121562e-09,8.703125e-03
1.125562e-09,9.234375e-03
1.129562e-09,9.406250e-03
1.133562e-09,9.531250e-03
1.137562e-09,8.500000e-03
1.141562e-09,9.281250e-03
1.145562e-09,8.500000e-03
1.149562e-09,9.687500e-03
1.153563e-09,9.546875e-03
1.157563e-09,9.375000e-03
1.161563e-09,8.828125e-03
1.165563e-09,9.250000e-03
1.169563e-09,8.906250e-03
1.173562e-09,8.968750e-03
1.177562e-09,9.421875e-03
1.181562e-09,9.593750e-03
1.185562e-09,9.468750e-03
1.189562e-09,9.109375e-03
1.193562e-09,9.093750e-03
1.197562e-09,9.562500e-03
1.201562e-09,9.203125e-03
1.205562e-09,9.781250e-03
1.209562e-09,9.984375e-03
1.213563e-09,1.014063e-02
1.217563e-09,9.062500e-03
1.221563e-09,9.828125e-03
1.225563e-09,9.000000e-03
1.229563e-09,1.014063e-02
1.233562e-09,9.890625e-03
1.237562e-09,9.640625e-03
1.241562e-09,8.968750e-03
1.245562e-09,9.281250e-03
1.249562e-09,8.796875e-03
1.253562e-09,8.703125e-03
1.257562e-09,9.000000e-03
1.261562e-09,9.031250e-03
1.265562e-09,8.703125e-03
1.269562e-09,8.156250e-03
1.273563e-09,7.968750e-03
1.277563e-09,8.218750e-03
1.281563e-09,7.656250e-03
1.285563e-09,8.062500e-03
1.289563e-09,8.062500e-03
1.293562e-09,8.031250e-03
1.297562e-09,6.703125e-03
1.301562e-09,7.296875e-03
1.305562e-09,6.296875e-03
1.309562e-09,7.265625e-03
1.313562e-09,6.859375e-03
1.317562e-09,6.437500e-03
1.321562e-09,5.625000e-03
1.325562e-09,5.812500e-03
1.329562e-09,5.203125e-03
1.333563e-09,5.000000e-03
1.337563e-09,5.218750e-03
1.341563e-09,5.187500e-03
1.345563e-09,4.812500e-03
1.349563e-09,4.234375e-03
1.353562e-09,4.046875e-03
1.357562e-09,4.296875e-03
1.361562e-09,3.750000e-03
1.365562e-09,4.187500e-03
1.369562e-09,4.250000e-03
1.373562e-09,4.312500e-03
1.377562e-09,3.046875e-03
1.381562e-09,3.750000e-03
1.385562e-09,2.859375e-03
1.389562e-09,3.984375e-03
1.393563e-09,3.718750e-03
1.397563e-09,3.468750e-03
1.401563e-09,2.828125e-03
1.405563e-09,3.203125e-03
1.409563e-09,2.781250e-03
1.413562e-09,2.781250e-03
1.417562e-09,3.187500e-03
1.421562e-09,3.390625e-03
1.425562e-09,3.218750e-03
1.429562e-09,2.843750e-03
1.433562e-09,2.875000e-03
1.437562e-09,3.343750e-03
1.441562e-09,3.000000e-03
1.445562e-09,3.656250e-03
1.449562e-09,3.921875e-03
1.453563e-09,4.187500e-03
1.457563e-09,3.078125e-03
1.461563e-09,3.953125e-03
1.465563e-09,3.234375e-03
1.469563e-09,4.515625e-03
1.473562e-09,4.406250e-03
1.477562e-09,4.281250e-03
1.481562e-09,3.765625e-03
1.485562e-09,4.250000e-03
1.489562e-09,3.921875e-03
1.493562e-09,4.000000e-03
1.497562e-09,4.484375e-03
1.501562e-09,4.750000e-03
1.505562e-09,4.625000e-03
1.509562e-09,4.296875e-03
1.513563e-09,4.359375e-03
1.517563e-09,4.828125e-03
1.521563e-09,4.468750e-03
1.525563e-09,5.140625e-03
1.529563e-09,5.390625e-03
1.533562e-09,5.640625e-03
1.537562e-09,4.484375e-03
1.541562e-09,5.343750e-03
1.545562e-09,4.578125e-03
1.549562e-09,5.828125e-03
1.553562e-09,5.671875e-03
1.557562e-09,5.500000e-03
1.561562e-09,4.937500e-03
1.565562e-09,5.375000e-03
1.569562e-09,5.015625e-03
1.573563e-09,5.062500e-03
1.577563e-09,5.515625e-03
1.581563e-09,5.750000e-03
1.585563e-09,5.609375e-03
1.589563e-09,5.250000e-03
1.593562e-09,5.312500e-03
1.597562e-09,5.781250e-03
1.601562e-09,5.453125e-03
1.605562e-09,6.125000e-03
1.609562e-09,6.406250e-03
1.613562e-09,6.687500e-03
1.617562e-09,5.562500e-03
1.621562e-09,6.468750e-03
1.625562e-09,5.765625e-03
1.629562e-09,7.078125e-03
1.633563e-09,6.984375e-03
1.637563e-09,6.906250e-03
1.641563e-09,6.421875e-03
1.645563e-09,6.937500e-03
1.649563e-09,6.671875e-03
1.653562e-09,6.796875e-03
1.657562e-09,7.328125e-03
1.661562e-09,7.671875e-03
1.665562e-09,7.609375e-03
1.669562e-09,7.328125e-03
1.673562e-09,7.468750e-03
1.677562e-09,8.000000e-03
1.681562e-09,7.734375e-03
1.685562e-09,8.468750e-03
1.689562e-09,8.781250e-03
1.693563e-09,9.093750e-03
1.697563e-09,8.000000e-03
1.701563e-09,8.906250e-03
1.705563e-09,8.187500e-03
1.709563e-09,9.468750e-03
1.713562e-09,9.343750e-03
1.717562e-09,9.187500e-03
1.721562e-09,8.625000e-03
1.725562e-09,9.046875e-03
1.729562e-09,8.640625e-03
1.733562e-09,8.640625e-03
1.737562e-09,9.015625e-03
1.741562e-09,9.187500e-03
1.745562e-09,8.921875e-03
1.749562e-09,8.437500e-03
1.753563e-09,8.343750e-03
1.757563e-09,8.625000e-03
