Measurements-streak-laser-independent/Photodiode-on-Tek-12bit-4GHz/Tek000_ch1_20190613132926775.csv

Model,MSO64
Waveform Type,ANALOG
Horizontal Units,s
Sample Interval,4.000000e-12
Record Length,1000
Zero Index,310.671875
Vertical Units,V

TIME,CH1
-1.242688e-09,2.890625e-03
-1.238688e-09,3.140625e-03
-1.234688e-09,2.562500e-03
-1.230688e-09,3.000000e-03
-1.226688e-09,3.031250e-03
-1.222688e-09,3.062500e-03
-1.218687e-09,1.656250e-03
-1.214687e-09,2.281250e-03
-1.210687e-09,1.296875e-03
-1.206687e-09,2.343750e-03
-1.202687e-09,1.968750e-03
-1.198687e-09,1.578125e-03
-1.194687e-09,7.968750e-04
-1.190687e-09,1.046875e-03
-1.186687e-09,4.687500e-04
-1.182688e-09,3.125000e-04
-1.178688e-09,5.781250e-04
-1.174688e-09,6.250000e-04
-1.170688e-09,2.812500e-04
-1.166688e-09,-2.500000e-04
-1.162688e-09,-3.593750e-04
-1.158687e-09,-6.250000e-05
-1.154687e-09,-5.625000e-04
-1.150687e-09,-4.687500e-05
-1.146687e-09,7.812500e-05
-1.142687e-09,2.187500e-04
-1.138687e-09,-1.046875e-03
-1.134687e-09,-2.812500e-04
-1.130687e-09,-1.109375e-03
-1.126687e-09,9.375000e-05
-1.122688e-09,-1.093750e-04
-1.118688e-09,-3.125000e-04
-1.114688e-09,-8.906250e-04
-1.110688e-09,-4.375000e-04
-1.106688e-09,-7.812500e-04
-1.102688e-09,-7.187500e-04
-1.098687e-09,-2.343750e-04
-1.094687e-09,6.250000e-05
-1.090687e-09,-3.125000e-05
-1.086687e-09,-3.125000e-04
-1.082687e-09,-1.875000e-04
-1.078687e-09,3.593750e-04
-1.074687e-09,1.093750e-04
-1.070687e-09,8.750000e-04
-1.066687e-09,1.250000e-03
-1.062688e-09,1.625000e-03
-1.058688e-09,6.093750e-04
-1.054688e-09,1.609375e-03
-1.050688e-09,1.000000e-03
-1.046688e-09,2.421875e-03
-1.042688e-09,2.421875e-03
-1.038687e-09,2.437500e-03
-1.034687e-09,2.046875e-03
-1.030687e-09,2.671875e-03
-1.026687e-09,2.484375e-03
-1.022687e-09,2.703125e-03
-1.018687e-09,3.312500e-03
-1.014687e-09,3.734375e-03
-1.010687e-09,3.750000e-03
-1.006687e-09,3.546875e-03
-1.002688e-09,3.750000e-03
-9.986875e-10,4.359375e-03
-9.946875e-10,4.140625e-03
-9.906875e-10,4.937500e-03
-9.866875e-10,5.328125e-03
-9.826875e-10,5.703125e-03
-9.786875e-10,4.656250e-03
-9.746875e-10,5.625000e-03
-9.706875e-10,4.953125e-03
-9.666875e-10,6.296875e-03
-9.626875e-10,6.218750e-03
-9.586875e-10,6.140625e-03
-9.546875e-10,5.656250e-03
-9.506875e-10,6.156250e-03
-9.466875e-10,5.843750e-03
-9.426875e-10,5.921875e-03
-9.386875e-10,6.406250e-03
-9.346875e-10,6.687500e-03
-9.306875e-10,6.531250e-03
-9.266875e-10,6.187500e-03
-9.226875e-10,6.234375e-03
-9.186875e-10,6.671875e-03
-9.146875e-10,6.312500e-03
-9.106875e-10,6.937500e-03
-9.066875e-10,7.171875e-03
-9.026875e-10,7.390625e-03
-8.986875e-10,6.218750e-03
-8.946875e-10,7.031250e-03
-8.906875e-10,6.250000e-03
-8.866875e-10,7.406250e-03
-8.826875e-10,7.234375e-03
-8.786875e-10,7.046875e-03
-8.746875e-10,6.468750e-03
-8.706875e-10,6.890625e-03
-8.666875e-10,6.515625e-03
-8.626875e-10,6.562500e-03
-8.586875e-10,7.000000e-03
-8.546875e-10,7.250000e-03
-8.506875e-10,7.109375e-03
-8.466875e-10,6.750000e-03
-8.426875e-10,6.812500e-03
-8.386875e-10,7.281250e-03
-8.346875e-10,6.968750e-03
-8.306875e-10,7.656250e-03
-8.266875e-10,7.953125e-03
-8.226875e-10,8.265625e-03
-8.186875e-10,7.218750e-03
-8.146875e-10,8.156250e-03
-8.106875e-10,7.468750e-03
-8.066875e-10,8.656250e-03
-8.026875e-10,8.656250e-03
-7.986875e-10,8.609375e-03
-7.946875e-10,8.218750e-03
-7.906875e-10,8.781250e-03
-7.866875e-10,8.531250e-03
-7.826875e-10,8.765625e-03
-7.786875e-10,9.343750e-03
-7.746875e-10,9.718750e-03
-7.706875e-10,9.765625e-03
-7.666875e-10,9.531250e-03
-7.626875e-10,9.703125e-03
-7.586875e-10,1.028125e-02
-7.546875e-10,1.006250e-02
-7.506875e-10,1.084375e-02
-7.466875e-10,1.121875e-02
-7.426875e-10,1.157813e-02
-7.386875e-10,1.059375e-02
-7.346875e-10,1.156250e-02
-7.306875e-10,1.090625e-02
-7.266875e-10,1.198438e-02
-7.226875e-10,1.200000e-02
-7.186875e-10,1.192188e-02
-7.146875e-10,1.148438e-02
-7.106875e-10,1.190625e-02
-7.066875e-10,1.150000e-02
-7.026875e-10,1.165625e-02
-6.986875e-10,1.203125e-02
-6.946875e-10,1.218750e-02
-6.906875e-10,1.214063e-02
-6.866875e-10,1.165625e-02
-6.826875e-10,1.154688e-02
-6.786875e-10,1.182813e-02
-6.746875e-10,1.135938e-02
-6.706875e-10,1.179688e-02
-6.666875e-10,1.187500e-02
-6.626875e-10,1.187500e-02
-6.586875e-10,1.053125e-02
-6.546875e-10,1.115625e-02
-6.506875e-10,1.021875e-02
-6.466875e-10,1.089063e-02
-6.426875e-10,1.056250e-02
-6.386875e-10,1.015625e-02
-6.346875e-10,9.375000e-03
-6.306875e-10,9.390625e-03
-6.266875e-10,8.593750e-03
-6.226875e-10,8.437500e-03
-6.186875e-10,8.500000e-03
-6.146875e-10,8.265625e-03
-6.106875e-10,8.031250e-03
-6.066875e-10,7.250000e-03
-6.026875e-10,6.875000e-03
-5.986875e-10,6.906250e-03
-5.946875e-10,6.281250e-03
-5.906875e-10,6.515625e-03
-5.866875e-10,6.421875e-03
-5.826875e-10,6.281250e-03
-5.786875e-10,4.765625e-03
-5.746875e-10,5.328125e-03
-5.706875e-10,4.453125e-03
-5.666875e-10,5.093750e-03
-5.626875e-10,4.843750e-03
-5.586875e-10,4.484375e-03
-5.546875e-10,3.796875e-03
-5.506875e-10,3.921875e-03
-5.466875e-10,3.265625e-03
-5.426875e-10,3.281250e-03
-5.386875e-10,3.578125e-03
-5.346875e-10,3.546875e-03
-5.306875e-10,3.578125e-03
-5.266875e-10,3.093750e-03
-5.226875e-10,3.046875e-03
-5.186875e-10,3.437500e-03
-5.146875e-10,3.140625e-03
-5.106875e-10,3.781250e-03
-5.066875e-10,4.015625e-03
-5.026875e-10,4.234375e-03
-4.986875e-10,3.093750e-03
-4.946875e-10,3.968750e-03
-4.906875e-10,3.531250e-03
-4.866875e-10,4.546875e-03
-4.826875e-10,4.734375e-03
-4.786875e-10,4.671875e-03
-4.746875e-10,4.296875e-03
-4.706875e-10,4.750000e-03
-4.666875e-10,4.468750e-03
-4.626875e-10,4.703125e-03
-4.586875e-10,5.296875e-03
-4.546875e-10,5.484375e-03
-4.506875e-10,5.593750e-03
-4.466875e-10,5.312500e-03
-4.426875e-10,5.468750e-03
-4.386875e-10,6.015625e-03
-4.346875e-10,5.703125e-03
-4.306875e-10,6.437500e-03
-4.266875e-10,6.640625e-03
-4.226875e-10,6.828125e-03
-4.186875e-10,5.640625e-03
-4.146875e-10,6.343750e-03
-4.106875e-10,5.765625e-03
-4.066875e-10,6.625000e-03
-4.026875e-10,6.640625e-03
-3.986875e-10,6.281250e-03
-3.946875e-10,5.656250e-03
-3.906875e-10,5.859375e-03
-3.866875e-10,5.375000e-03
-3.826875e-10,5.171875e-03
-3.786875e-10,5.437500e-03
-3.746875e-10,5.296875e-03
-3.706875e-10,4.937500e-03
-3.666875e-10,4.328125e-03
-3.626875e-10,4.187500e-03
-3.586875e-10,4.406250e-03
-3.546875e-10,3.671875e-03
-3.506875e-10,4.062500e-03
-3.466875e-10,3.984375e-03
-3.426875e-10,3.859375e-03
-3.386875e-10,2.437500e-03
-3.346875e-10,2.781250e-03
-3.306875e-10,1.968750e-03
-3.266875e-10,2.671875e-03
-3.226875e-10,2.484375e-03
-3.186875e-10,1.984375e-03
-3.146875e-10,1.312500e-03
-3.106875e-10,1.468750e-03
-3.066875e-10,1.031250e-03
-3.026875e-10,7.812500e-04
-2.986875e-10,1.109375e-03
-2.946875e-10,1.093750e-03
-2.906875e-10,8.437500e-04
-2.866875e-10,5.000000e-04
-2.826875e-10,6.093750e-04
-2.786875e-10,1.109375e-03
-2.746875e-10,7.187500e-04
-2.706875e-10,1.390625e-03
-2.666875e-10,1.781250e-03
-2.626875e-10,2.046875e-03
-2.586875e-10,1.140625e-03
-2.546875e-10,1.906250e-03
-2.506875e-10,1.531250e-03
-2.466875e-10,2.750000e-03
-2.426875e-10,3.000000e-03
-2.386875e-10,3.031250e-03
-2.346875e-10,2.937500e-03
-2.306875e-10,3.578125e-03
-2.266875e-10,3.609375e-03
-2.226875e-10,3.828125e-03
-2.186875e-10,4.562500e-03
-2.146875e-10,4.953125e-03
-2.106875e-10,5.046875e-03
-2.066875e-10,5.125000e-03
-2.026875e-10,5.484375e-03
-1.986875e-10,6.187500e-03
-1.946875e-10,6.046875e-03
-1.906875e-10,6.828125e-03
-1.866875e-10,7.328125e-03
-1.826875e-10,7.640625e-03
-1.786875e-10,6.781250e-03
-1.746875e-10,7.484375e-03
-1.706875e-10,6.890625e-03
-1.666875e-10,8.000000e-03
-1.626875e-10,7.937500e-03
-1.586875e-10,7.718750e-03
-1.546875e-10,7.312500e-03
-1.506875e-10,7.609375e-03
-1.466875e-10,7.171875e-03
-1.426875e-10,7.015625e-03
-1.386875e-10,7.203125e-03
-1.346875e-10,7.125000e-03
-1.306875e-10,6.687500e-03
-1.266875e-10,6.296875e-03
-1.226875e-10,6.093750e-03
-1.186875e-10,6.203125e-03
-1.146875e-10,5.625000e-03
-1.106875e-10,6.000000e-03
-1.066875e-10,6.046875e-03
-1.026875e-10,6.078125e-03
-9.868750e-11,5.015625e-03
-9.468750e-11,5.546875e-03
-9.068750e-11,4.812500e-03
-8.668750e-11,6.000000e-03
-8.268750e-11,5.984375e-03
-7.868750e-11,6.062500e-03
-7.468750e-11,6.062500e-03
-7.068750e-11,6.937500e-03
-6.668750e-11,7.218750e-03
-6.268750e-11,7.984375e-03
-5.868750e-11,9.234375e-03
-5.468750e-11,1.046875e-02
-5.068750e-11,1.148438e-02
-4.668750e-11,1.276563e-02
-4.268750e-11,1.443750e-02
-3.868750e-11,1.654688e-02
-3.468750e-11,1.826563e-02
-3.068750e-11,2.118750e-02
-2.668750e-11,2.393750e-02
-2.268750e-11,2.701563e-02
-1.868750e-11,2.918750e-02
-1.468750e-11,3.312500e-02
-1.068750e-11,3.595313e-02
-6.687500e-12,4.101563e-02
-2.687500e-12,4.492188e-02
1.312500e-12,4.925000e-02
5.312500e-12,5.362500e-02
9.312500e-12,5.903125e-02
1.331250e-11,6.401563e-02
1.731250e-11,6.959375e-02
2.131250e-11,7.581250e-02
2.531250e-11,8.220313e-02
2.931250e-11,8.829688e-02
3.331250e-11,9.478125e-02
3.731250e-11,1.016875e-01
4.131250e-11,1.090156e-01
4.531250e-11,1.160469e-01
4.931250e-11,1.242188e-01
5.331250e-11,1.321719e-01
5.731250e-11,1.404844e-01
6.131250e-11,1.477344e-01
6.531250e-11,1.566406e-01
6.931250e-11,1.642656e-01
7.331250e-11,1.739688e-01
7.731250e-11,1.822813e-01
8.131250e-11,1.909531e-01
8.531250e-11,1.993281e-01
8.931250e-11,2.084531e-01
9.331250e-11,2.169688e-01
9.731250e-11,2.257344e-01
1.013125e-10,2.348750e-01
1.053125e-10,2.439531e-01
1.093125e-10,2.521875e-01
1.133125e-10,2.605313e-01
1.173125e-10,2.689219e-01
1.213125e-10,2.773438e-01
1.253125e-10,2.851719e-01
1.293125e-10,2.936563e-01
1.333125e-10,3.014375e-01
1.373125e-10,3.092813e-01
1.413125e-10,3.155469e-01
1.453125e-10,3.231563e-01
1.493125e-10,3.290156e-01
1.533125e-10,3.365000e-01
1.573125e-10,3.421563e-01
1.613125e-10,3.478750e-01
1.653125e-10,3.527813e-01
1.693125e-10,3.580313e-01
1.733125e-10,3.624219e-01
1.773125e-10,3.666719e-01
1.813125e-10,3.708906e-01
1.853125e-10,3.748281e-01
1.893125e-10,3.774844e-01
1.933125e-10,3.799531e-01
1.973125e-10,3.822656e-01
2.013125e-10,3.843750e-01
2.053125e-10,3.856719e-01
2.093125e-10,3.873438e-01
2.133125e-10,3.880781e-01
2.173125e-10,3.888281e-01
2.213125e-10,3.877656e-01
2.253125e-10,3.880781e-01
2.293125e-10,3.865313e-01
2.333125e-10,3.864531e-01
2.373125e-10,3.845313e-01
2.413125e-10,3.826875e-01
2.453125e-10,3.800313e-01
2.493125e-10,3.777813e-01
2.533125e-10,3.748125e-01
2.573125e-10,3.717500e-01
2.613125e-10,3.687031e-01
2.653125e-10,3.655625e-01
2.693125e-10,3.612813e-01
2.733125e-10,3.569063e-01
2.773125e-10,3.526875e-01
2.813125e-10,3.484531e-01
2.853125e-10,3.435625e-01
2.893125e-10,3.392500e-01
2.933125e-10,3.342813e-01
2.973125e-10,3.296250e-01
3.013125e-10,3.233125e-01
3.053125e-10,3.187656e-01
3.093125e-10,3.126719e-01
3.133125e-10,3.081719e-01
3.173125e-10,3.022031e-01
3.213125e-10,2.965469e-01
3.253125e-10,2.903750e-01
3.293125e-10,2.850000e-01
3.333125e-10,2.791563e-01
3.373125e-10,2.735000e-01
3.413125e-10,2.680625e-01
3.453125e-10,2.628125e-01
3.493125e-10,2.567813e-01
3.533125e-10,2.508438e-01
3.573125e-10,2.452969e-01
3.613125e-10,2.400469e-01
3.653125e-10,2.342813e-01
3.693125e-10,2.293281e-01
3.733125e-10,2.240000e-01
3.773125e-10,2.191406e-01
3.813125e-10,2.127656e-01
3.853125e-10,2.084219e-01
3.893125e-10,2.027188e-01
3.933125e-10,1.986563e-01
3.973125e-10,1.933750e-01
4.013125e-10,1.884688e-01
4.053125e-10,1.831406e-01
4.093125e-10,1.787969e-01
4.133125e-10,1.740781e-01
4.173125e-10,1.695938e-01
4.213125e-10,1.653750e-01
4.253125e-10,1.614063e-01
4.293125e-10,1.568438e-01
4.333125e-10,1.523750e-01
4.373125e-10,1.482656e-01
4.413125e-10,1.445938e-01
4.453125e-10,1.403125e-01
4.493125e-10,1.368906e-01
4.533125e-10,1.332188e-01
4.573125e-10,1.298906e-01
4.613125e-10,1.251250e-01
4.653125e-10,1.224219e-01
4.693125e-10,1.183594e-01
4.733125e-10,1.158906e-01
4.773125e-10,1.123125e-01
4.813125e-10,1.089688e-01
4.853125e-10,1.052656e-01
4.893125e-10,1.025156e-01
4.933125e-10,9.934375e-02
4.973125e-10,9.646875e-02
5.013125e-10,9.378125e-02
5.053125e-10,9.132813e-02
5.093125e-10,8.842188e-02
5.133125e-10,8.550000e-02
5.173125e-10,8.295313e-02
5.213125e-10,8.084375e-02
5.253125e-10,7.809375e-02
5.293125e-10,7.614063e-02
5.333125e-10,7.403125e-02
5.373125e-10,7.214063e-02
5.413125e-10,6.892188e-02
5.453125e-10,6.768750e-02
5.493125e-10,6.514063e-02
5.533125e-10,6.418750e-02
5.573125e-10,6.217188e-02
5.613125e-10,6.021875e-02
5.653125e-10,5.803125e-02
5.693125e-10,5.675000e-02
5.733125e-10,5.495313e-02
5.773125e-10,5.348438e-02
5.813125e-10,5.221875e-02
5.853125e-10,5.115625e-02
5.893125e-10,4.968750e-02
5.933125e-10,4.810938e-02
5.973125e-10,4.696875e-02
6.013125e-10,4.614063e-02
6.053125e-10,4.468750e-02
6.093125e-10,4.396875e-02
6.133125e-10,4.314063e-02
6.173125e-10,4.235938e-02
6.213125e-10,4.034375e-02
6.253125e-10,4.015625e-02
6.293125e-10,3.873438e-02
6.333125e-10,3.885938e-02
6.373125e-10,3.787500e-02
6.413125e-10,3.679688e-02
6.453125e-10,3.548438e-02
6.493125e-10,3.514063e-02
6.533125e-10,3.403125e-02
6.573125e-10,3.323438e-02
6.613125e-10,3.270313e-02
6.653125e-10,3.228125e-02
6.693125e-10,3.145313e-02
6.733125e-10,3.037500e-02
6.773125e-10,2.979688e-02
6.813125e-10,2.935938e-02
6.853125e-10,2.831250e-02
6.893125e-10,2.800000e-02
6.933125e-10,2.756250e-02
6.973125e-10,2.695313e-02
7.013125e-10,2.523438e-02
7.053125e-10,2.520313e-02
7.093125e-10,2.398438e-02
7.133125e-10,2.432813e-02
7.173125e-10,2.350000e-02
7.213125e-10,2.257813e-02
7.253125e-10,2.131250e-02
7.293125e-10,2.112500e-02
7.333125e-10,2.003125e-02
7.373125e-10,1.928125e-02
7.413125e-10,1.890625e-02
7.453125e-10,1.856250e-02
7.493125e-10,1.785938e-02
7.533125e-10,1.684375e-02
7.573125e-10,1.639063e-02
7.613125e-10,1.609375e-02
7.653125e-10,1.520313e-02
7.693125e-10,1.514063e-02
7.733125e-10,1.495313e-02
7.773125e-10,1.448438e-02
7.813125e-10,1.307813e-02
7.853125e-10,1.326563e-02
7.893125e-10,1.234375e-02
7.933125e-10,1.309375e-02
7.973125e-10,1.264063e-02
8.013125e-10,1.220313e-02
8.053125e-10,1.132813e-02
8.093125e-10,1.157813e-02
8.133125e-10,1.095313e-02
8.173125e-10,1.071875e-02
8.213125e-10,1.095313e-02
8.253125e-10,1.109375e-02
8.293125e-10,1.100000e-02
8.333125e-10,1.056250e-02
8.373125e-10,1.065625e-02
8.413125e-10,1.103125e-02
8.453125e-10,1.081250e-02
8.493125e-10,1.140625e-02
8.533125e-10,1.182813e-02
8.573125e-10,1.195313e-02
8.613125e-10,1.121875e-02
8.653125e-10,1.196875e-02
8.693125e-10,1.156250e-02
8.733125e-10,1.296875e-02
8.773125e-10,1.309375e-02
8.813125e-10,1.320313e-02
8.853125e-10,1.285938e-02
8.893125e-10,1.353125e-02
8.933125e-10,1.339063e-02
8.973125e-10,1.364063e-02
9.013125e-10,1.431250e-02
9.053125e-10,1.465625e-02
9.093125e-10,1.490625e-02
9.133125e-10,1.475000e-02
9.173125e-10,1.498438e-02
9.213125e-10,1.565625e-02
9.253125e-10,1.560938e-02
9.293125e-10,1.634375e-02
9.333125e-10,1.678125e-02
9.373125e-10,1.696875e-02
9.413125e-10,1.626563e-02
9.453125e-10,1.696875e-02
9.493125e-10,1.640625e-02
9.533125e-10,1.778125e-02
9.573125e-10,1.778125e-02
9.613125e-10,1.770313e-02
9.653125e-10,1.721875e-02
9.693125e-10,1.764063e-02
9.733125e-10,1.732813e-02
9.773125e-10,1.737500e-02
9.813125e-10,1.784375e-02
9.853125e-10,1.781250e-02
9.893125e-10,1.779688e-02
9.933125e-10,1.740625e-02
9.973125e-10,1.729688e-02
1.001312e-09,1.775000e-02
1.005312e-09,1.745313e-02
1.009313e-09,1.790625e-02
1.013313e-09,1.804688e-02
1.017313e-09,1.801563e-02
1.021313e-09,1.712500e-02
1.025313e-09,1.768750e-02
1.029313e-09,1.687500e-02
1.033312e-09,1.803125e-02
1.037312e-09,1.787500e-02
1.041312e-09,1.765625e-02
1.045312e-09,1.706250e-02
1.049312e-09,1.739063e-02
1.053312e-09,1.701563e-02
1.057312e-09,1.704688e-02
1.061312e-09,1.748438e-02
1.065312e-09,1.743750e-02
1.069313e-09,1.737500e-02
1.073313e-09,1.701563e-02
1.077313e-09,1.692188e-02
1.081313e-09,1.742188e-02
1.085313e-09,1.717188e-02
1.089313e-09,1.767188e-02
1.093312e-09,1.789063e-02
1.097312e-09,1.796875e-02
1.101312e-09,1.715625e-02
1.105312e-09,1.789063e-02
1.109312e-09,1.714063e-02
1.113312e-09,1.834375e-02
1.117312e-09,1.821875e-02
1.121312e-09,1.806250e-02
1.125312e-09,1.753125e-02
1.129313e-09,1.790625e-02
1.133313e-09,1.756250e-02
1.137313e-09,1.759375e-02
1.141313e-09,1.803125e-02
1.145313e-09,1.803125e-02
1.149313e-09,1.787500e-02
1.153312e-09,1.745313e-02
1.157312e-09,1.728125e-02
1.161312e-09,1.767188e-02
1.165312e-09,1.725000e-02
1.169312e-09,1.764063e-02
1.173312e-09,1.770313e-02
1.177312e-09,1.762500e-02
1.181312e-09,1.657813e-02
1.185312e-09,1.712500e-02
1.189313e-09,1.614063e-02
1.193313e-09,1.706250e-02
1.197313e-09,1.665625e-02
1.201313e-09,1.621875e-02
1.205313e-09,1.537500e-02
1.209313e-09,1.548438e-02
1.213312e-09,1.482813e-02
1.217312e-09,1.454688e-02
1.221312e-09,1.465625e-02
1.225312e-09,1.442188e-02
1.229312e-09,1.393750e-02
1.233312e-09,1.321875e-02
1.237312e-09,1.279688e-02
1.241312e-09,1.289063e-02
1.245312e-09,1.218750e-02
1.249313e-09,1.237500e-02
1.253313e-09,1.221875e-02
1.257313e-09,1.200000e-02
1.261313e-09,1.068750e-02
1.265313e-09,1.112500e-02
1.269313e-09,1.001563e-02
1.273312e-09,1.087500e-02
1.277312e-09,1.037500e-02
1.281312e-09,9.906250e-03
1.285312e-09,9.046875e-03
1.289312e-09,9.187500e-03
1.293312e-09,8.578125e-03
1.297312e-09,8.375000e-03
1.301312e-09,8.578125e-03
1.305312e-09,8.546875e-03
1.309313e-09,8.218750e-03
1.313313e-09,7.687500e-03
1.317313e-09,7.531250e-03
1.321313e-09,7.859375e-03
1.325313e-09,7.421875e-03
1.329313e-09,7.921875e-03
1.333312e-09,8.093750e-03
1.337312e-09,8.250000e-03
1.341312e-09,7.187500e-03
1.345312e-09,8.000000e-03
1.349312e-09,7.250000e-03
1.353312e-09,8.500000e-03
1.357312e-09,8.375000e-03
1.361312e-09,8.281250e-03
1.365312e-09,7.796875e-03
1.369313e-09,8.328125e-03
1.373313e-09,8.062500e-03
1.377313e-09,8.218750e-03
1.381313e-09,8.781250e-03
1.385313e-09,9.109375e-03
1.389313e-09,9.093750e-03
1.393312e-09,8.859375e-03
1.397312e-09,9.015625e-03
1.401312e-09,9.593750e-03
1.405312e-09,9.375000e-03
1.409312e-09,1.012500e-02
1.413312e-09,1.050000e-02
1.417312e-09,1.082813e-02
1.421312e-09,9.859375e-03
1.425312e-09,1.079688e-02
1.429313e-09,1.014063e-02
1.433313e-09,1.145313e-02
1.437313e-09,1.137500e-02
1.441313e-09,1.128125e-02
1.445313e-09,1.078125e-02
1.449313e-09,1.126563e-02
1.453312e-09,1.093750e-02
1.457312e-09,1.100000e-02
1.461312e-09,1.145313e-02
1.465312e-09,1.167188e-02
1.469312e-09,1.148438e-02
1.473312e-09,1.109375e-02
1.477312e-09,1.107813e-02
1.481312e-09,1.145313e-02
1.485312e-09,1.103125e-02
1.489313e-09,1.156250e-02
1.493313e-09,1.170313e-02
1.497313e-09,1.181250e-02
1.501313e-09,1.056250e-02
1.505313e-09,1.126563e-02
1.509313e-09,1.035938e-02
1.513312e-09,1.143750e-02
1.517312e-09,1.112500e-02
1.521312e-09,1.078125e-02
1.525312e-09,1.004688e-02
1.529312e-09,1.029688e-02
1.533312e-09,9.750000e-03
1.537312e-09,9.593750e-03
1.541312e-09,9.843750e-03
1.545312e-09,9.875000e-03
1.549313e-09,9.515625e-03
1.553313e-09,8.953125e-03
1.557313e-09,8.781250e-03
1.561313e-09,9.015625e-03
1.565313e-09,8.453125e-03
1.569313e-09,8.875000e-03
1.573312e-09,8.921875e-03
1.577312e-09,8.953125e-03
1.581312e-09,7.609375e-03
1.585312e-09,8.265625e-03
1.589312e-09,7.312500e-03
1.593312e-09,8.359375e-03
1.597312e-09,8.015625e-03
1.601312e-09,7.687500e-03
1.605312e-09,6.953125e-03
1.609312e-09,7.218750e-03
1.613313e-09,6.687500e-03
1.617313e-09,6.578125e-03
1.621313e-09,6.859375e-03
1.625313e-09,6.953125e-03
1.629313e-09,6.656250e-03
1.633312e-09,6.156250e-03
1.637312e-09,6.078125e-03
1.641312e-09,6.390625e-03
1.645312e-09,5.906250e-03
1.649312e-09,6.437500e-03
1.653312e-09,6.578125e-03
1.657312e-09,6.703125e-03
1.661312e-09,5.453125e-03
1.665312e-09,6.203125e-03
1.669312e-09,5.375000e-03
1.673313e-09,6.531250e-03
1.677313e-09,6.296875e-03
1.681313e-09,6.078125e-03
1.685313e-09,5.453125e-03
1.689313e-09,5.828125e-03
1.693312e-09,5.421875e-03
1.697312e-09,5.406250e-03
1.701312e-09,5.812500e-03
1.705312e-09,6.015625e-03
1.709312e-09,5.828125e-03
1.713312e-09,5.437500e-03
1.717312e-09,5.468750e-03
1.721312e-09,5.890625e-03
1.725312e-09,5.515625e-03
1.729312e-09,6.156250e-03
1.733313e-09,6.390625e-03
1.737313e-09,6.625000e-03
1.741313e-09,5.468750e-03
1.745313e-09,6.328125e-03
1.749313e-09,5.578125e-03
1.753312e-09,6.828125e-03
