Measurements-streak-laser-independent/Photodiode-on-Tek-12bit-4GHz/Tek000_ch1_20190613133059039.csv

Model,MSO64
Waveform Type,ANALOG
Horizontal Units,s
Sample Interval,4.000000e-12
Record Length,1000
Zero Index,310.703125
Vertical Units,V

TIME,CH1
-1.242812e-09,-3.281250e-04
-1.238812e-09,1.718750e-04
-1.234812e-09,-1.093750e-04
-1.230812e-09,1.562500e-05
-1.226812e-09,5.781250e-04
-1.222813e-09,9.375000e-04
-1.218813e-09,9.062500e-04
-1.214813e-09,6.875000e-04
-1.210813e-09,8.906250e-04
-1.206813e-09,1.500000e-03
-1.202812e-09,1.312500e-03
-1.198812e-09,2.156250e-03
-1.194812e-09,2.593750e-03
-1.190812e-09,3.031250e-03
-1.186812e-09,2.062500e-03
-1.182812e-09,3.125000e-03
-1.178812e-09,2.562500e-03
-1.174812e-09,4.031250e-03
-1.170812e-09,4.078125e-03
-1.166812e-09,4.140625e-03
-1.162813e-09,3.765625e-03
-1.158813e-09,4.421875e-03
-1.154813e-09,4.250000e-03
-1.150813e-09,4.484375e-03
-1.146813e-09,5.125000e-03
-1.142813e-09,5.546875e-03
-1.138812e-09,5.546875e-03
-1.134812e-09,5.343750e-03
-1.130812e-09,5.531250e-03
-1.126812e-09,6.125000e-03
-1.122812e-09,5.890625e-03
-1.118812e-09,6.656250e-03
-1.114812e-09,7.000000e-03
-1.110812e-09,7.343750e-03
-1.106812e-09,6.250000e-03
-1.102813e-09,7.171875e-03
-1.098813e-09,6.468750e-03
-1.094813e-09,7.765625e-03
-1.090813e-09,7.640625e-03
-1.086813e-09,7.500000e-03
-1.082813e-09,6.953125e-03
-1.078812e-09,7.406250e-03
-1.074812e-09,7.031250e-03
-1.070812e-09,7.062500e-03
-1.066812e-09,7.484375e-03
-1.062812e-09,7.703125e-03
-1.058812e-09,7.500000e-03
-1.054812e-09,7.093750e-03
-1.050812e-09,7.093750e-03
-1.046812e-09,7.484375e-03
-1.042813e-09,7.062500e-03
-1.038813e-09,7.656250e-03
-1.034813e-09,7.828125e-03
-1.030813e-09,8.015625e-03
-1.026813e-09,6.781250e-03
-1.022813e-09,7.562500e-03
-1.018812e-09,6.718750e-03
-1.014812e-09,7.906250e-03
-1.010812e-09,7.687500e-03
-1.006812e-09,7.453125e-03
-1.002812e-09,6.828125e-03
-9.988125e-10,7.218750e-03
-9.948125e-10,6.796875e-03
-9.908125e-10,6.781250e-03
-9.868125e-10,7.171875e-03
-9.828125e-10,7.375000e-03
-9.788125e-10,7.156250e-03
-9.748125e-10,6.750000e-03
-9.708125e-10,6.750000e-03
-9.668125e-10,7.156250e-03
-9.628125e-10,6.750000e-03
-9.588125e-10,7.359375e-03
-9.548125e-10,7.546875e-03
-9.508125e-10,7.750000e-03
-9.468125e-10,6.546875e-03
-9.428125e-10,7.343750e-03
-9.388125e-10,6.531250e-03
-9.348125e-10,7.718750e-03
-9.308125e-10,7.500000e-03
-9.268125e-10,7.281250e-03
-9.228125e-10,6.656250e-03
-9.188125e-10,7.031250e-03
-9.148125e-10,6.593750e-03
-9.108125e-10,6.562500e-03
-9.068125e-10,6.921875e-03
-9.028125e-10,7.078125e-03
-8.988125e-10,6.812500e-03
-8.948125e-10,6.328125e-03
-8.908125e-10,6.250000e-03
-8.868125e-10,6.562500e-03
-8.828125e-10,6.062500e-03
-8.788125e-10,6.562500e-03
-8.748125e-10,6.656250e-03
-8.708125e-10,6.718750e-03
-8.668125e-10,5.390625e-03
-8.628125e-10,6.062500e-03
-8.588125e-10,5.093750e-03
-8.548125e-10,6.093750e-03
-8.508125e-10,5.734375e-03
-8.468125e-10,5.375000e-03
-8.428125e-10,4.593750e-03
-8.388125e-10,4.812500e-03
-8.348125e-10,4.203125e-03
-8.308125e-10,4.031250e-03
-8.268125e-10,4.234375e-03
-8.228125e-10,4.234375e-03
-8.188125e-10,3.875000e-03
-8.148125e-10,3.250000e-03
-8.108125e-10,3.062500e-03
-8.068125e-10,3.265625e-03
-8.028125e-10,2.671875e-03
-7.988125e-10,3.093750e-03
-7.948125e-10,3.109375e-03
-7.908125e-10,3.140625e-03
-7.868125e-10,1.781250e-03
-7.828125e-10,2.437500e-03
-7.788125e-10,1.500000e-03
-7.748125e-10,2.484375e-03
-7.708125e-10,2.187500e-03
-7.668125e-10,1.875000e-03
-7.628125e-10,1.203125e-03
-7.588125e-10,1.500000e-03
-7.548125e-10,1.000000e-03
-7.508125e-10,9.843750e-04
-7.468125e-10,1.312500e-03
-7.428125e-10,1.468750e-03
-7.388125e-10,1.312500e-03
-7.348125e-10,8.750000e-04
-7.308125e-10,8.593750e-04
-7.268125e-10,1.281250e-03
-7.228125e-10,9.062500e-04
-7.188125e-10,1.546875e-03
-7.148125e-10,1.796875e-03
-7.108125e-10,2.046875e-03
-7.068125e-10,9.062500e-04
-7.028125e-10,1.812500e-03
-6.988125e-10,1.109375e-03
-6.948125e-10,2.296875e-03
-6.908125e-10,2.234375e-03
-6.868125e-10,2.156250e-03
-6.828125e-10,1.687500e-03
-6.788125e-10,2.156250e-03
-6.748125e-10,1.812500e-03
-6.708125e-10,1.968750e-03
-6.668125e-10,2.453125e-03
-6.628125e-10,2.718750e-03
-6.588125e-10,2.703125e-03
-6.548125e-10,2.359375e-03
-6.508125e-10,2.421875e-03
-6.468125e-10,2.890625e-03
-6.428125e-10,2.578125e-03
-6.388125e-10,3.234375e-03
-6.348125e-10,3.484375e-03
-6.308125e-10,3.703125e-03
-6.268125e-10,2.515625e-03
-6.228125e-10,3.359375e-03
-6.188125e-10,2.625000e-03
-6.148125e-10,3.734375e-03
-6.108125e-10,3.593750e-03
-6.068125e-10,3.390625e-03
-6.028125e-10,2.796875e-03
-5.988125e-10,3.125000e-03
-5.948125e-10,2.656250e-03
-5.908125e-10,2.656250e-03
-5.868125e-10,3.015625e-03
-5.828125e-10,3.109375e-03
-5.788125e-10,2.953125e-03
-5.748125e-10,2.468750e-03
-5.708125e-10,2.406250e-03
-5.668125e-10,2.734375e-03
-5.628125e-10,2.296875e-03
-5.588125e-10,2.843750e-03
-5.548125e-10,2.984375e-03
-5.508125e-10,3.109375e-03
-5.468125e-10,1.828125e-03
-5.428125e-10,2.593750e-03
-5.388125e-10,1.828125e-03
-5.348125e-10,2.906250e-03
-5.308125e-10,2.781250e-03
-5.268125e-10,2.562500e-03
-5.228125e-10,2.000000e-03
-5.188125e-10,2.390625e-03
-5.148125e-10,2.000000e-03
-5.108125e-10,2.062500e-03
-5.068125e-10,2.546875e-03
-5.028125e-10,2.765625e-03
-4.988125e-10,2.718750e-03
-4.948125e-10,2.406250e-03
-4.908125e-10,2.531250e-03
-4.868125e-10,3.078125e-03
-4.828125e-10,2.812500e-03
-4.788125e-10,3.593750e-03
-4.748125e-10,3.953125e-03
-4.708125e-10,4.296875e-03
-4.668125e-10,3.281250e-03
-4.628125e-10,4.234375e-03
-4.588125e-10,3.718750e-03
-4.548125e-10,5.046875e-03
-4.508125e-10,5.140625e-03
-4.468125e-10,5.140625e-03
-4.428125e-10,4.781250e-03
-4.388125e-10,5.375000e-03
-4.348125e-10,5.203125e-03
-4.308125e-10,5.406250e-03
-4.268125e-10,6.046875e-03
-4.228125e-10,6.406250e-03
-4.188125e-10,6.421875e-03
-4.148125e-10,6.218750e-03
-4.108125e-10,6.437500e-03
-4.068125e-10,7.031250e-03
-4.028125e-10,6.750000e-03
-3.988125e-10,7.515625e-03
-3.948125e-10,7.843750e-03
-3.908125e-10,8.140625e-03
-3.868125e-10,7.031250e-03
-3.828125e-10,7.843750e-03
-3.788125e-10,7.171875e-03
-3.748125e-10,8.328125e-03
-3.708125e-10,8.234375e-03
-3.668125e-10,8.000000e-03
-3.628125e-10,7.421875e-03
-3.588125e-10,7.765625e-03
-3.548125e-10,7.343750e-03
-3.508125e-10,7.218750e-03
-3.468125e-10,7.546875e-03
-3.428125e-10,7.593750e-03
-3.388125e-10,7.250000e-03
-3.348125e-10,6.734375e-03
-3.308125e-10,6.625000e-03
-3.268125e-10,6.875000e-03
-3.228125e-10,6.265625e-03
-3.188125e-10,6.687500e-03
-3.148125e-10,6.703125e-03
-3.108125e-10,6.671875e-03
-3.068125e-10,5.296875e-03
-3.028125e-10,5.796875e-03
-2.988125e-10,4.843750e-03
-2.948125e-10,5.765625e-03
-2.908125e-10,5.406250e-03
-2.868125e-10,4.968750e-03
-2.828125e-10,4.218750e-03
-2.788125e-10,4.406250e-03
-2.748125e-10,3.843750e-03
-2.708125e-10,3.625000e-03
-2.668125e-10,3.859375e-03
-2.628125e-10,3.843750e-03
-2.588125e-10,3.484375e-03
-2.548125e-10,3.000000e-03
-2.508125e-10,2.890625e-03
-2.468125e-10,3.187500e-03
-2.428125e-10,2.703125e-03
-2.388125e-10,3.203125e-03
-2.348125e-10,3.375000e-03
-2.308125e-10,3.515625e-03
-2.268125e-10,2.343750e-03
-2.228125e-10,3.062500e-03
-2.188125e-10,2.312500e-03
-2.148125e-10,3.500000e-03
-2.108125e-10,3.390625e-03
-2.068125e-10,3.250000e-03
-2.028125e-10,2.812500e-03
-1.988125e-10,3.312500e-03
-1.948125e-10,3.046875e-03
-1.908125e-10,3.171875e-03
-1.868125e-10,3.718750e-03
-1.828125e-10,4.062500e-03
-1.788125e-10,4.046875e-03
-1.748125e-10,3.921875e-03
-1.708125e-10,4.156250e-03
-1.668125e-10,4.781250e-03
-1.628125e-10,4.640625e-03
-1.588125e-10,5.515625e-03
-1.548125e-10,6.031250e-03
-1.508125e-10,6.531250e-03
-1.468125e-10,5.750000e-03
-1.428125e-10,6.843750e-03
-1.388125e-10,6.421875e-03
-1.348125e-10,8.000000e-03
-1.308125e-10,8.218750e-03
-1.268125e-10,8.484375e-03
-1.228125e-10,8.437500e-03
-1.188125e-10,9.343750e-03
-1.148125e-10,9.500000e-03
-1.108125e-10,1.006250e-02
-1.068125e-10,1.104688e-02
-1.028125e-10,1.187500e-02
-9.881250e-11,1.234375e-02
-9.481250e-11,1.273438e-02
-9.081250e-11,1.350000e-02
-8.681250e-11,1.465625e-02
-8.281250e-11,1.512500e-02
-7.881250e-11,1.665625e-02
-7.481250e-11,1.781250e-02
-7.081250e-11,1.906250e-02
-6.681250e-11,1.903125e-02
-6.281250e-11,2.092188e-02
-5.881250e-11,2.132813e-02
-5.481250e-11,2.379688e-02
-5.081250e-11,2.490625e-02
-4.681250e-11,2.615625e-02
-4.281250e-11,2.710938e-02
-3.881250e-11,2.906250e-02
-3.481250e-11,3.031250e-02
-3.081250e-11,3.203125e-02
-2.681250e-11,3.418750e-02
-2.281250e-11,3.626563e-02
-1.881250e-11,3.795313e-02
-1.481250e-11,3.962500e-02
-1.081250e-11,4.168750e-02
-6.812500e-12,4.415625e-02
-2.812500e-12,4.600000e-02
1.187500e-12,4.887500e-02
5.187500e-12,5.140625e-02
9.187500e-12,5.406250e-02
1.318750e-11,5.540625e-02
1.718750e-11,5.867188e-02
2.118750e-11,6.042188e-02
2.518750e-11,6.423438e-02
2.918750e-11,6.662500e-02
3.318750e-11,6.917188e-02
3.718750e-11,7.134375e-02
4.118750e-11,7.445313e-02
4.518750e-11,7.684375e-02
4.918750e-11,7.959375e-02
5.318750e-11,8.275000e-02
5.718750e-11,8.578125e-02
6.118750e-11,8.828125e-02
6.518750e-11,9.068750e-02
6.918750e-11,9.340625e-02
7.318750e-11,9.642188e-02
7.718750e-11,9.870313e-02
8.118750e-11,1.019063e-01
8.518750e-11,1.046406e-01
8.918750e-11,1.074063e-01
9.318750e-11,1.087031e-01
9.718750e-11,1.118281e-01
1.011875e-10,1.133125e-01
1.051875e-10,1.167031e-01
1.091875e-10,1.185313e-01
1.131875e-10,1.204219e-01
1.171875e-10,1.217656e-01
1.211875e-10,1.239375e-01
1.251875e-10,1.252656e-01
1.291875e-10,1.268281e-01
1.331875e-10,1.286719e-01
1.371875e-10,1.302969e-01
1.411875e-10,1.312188e-01
1.451875e-10,1.319531e-01
1.491875e-10,1.329063e-01
1.531875e-10,1.340625e-01
1.571875e-10,1.344063e-01
1.611875e-10,1.355625e-01
1.651875e-10,1.361250e-01
1.691875e-10,1.366875e-01
1.731875e-10,1.356875e-01
1.771875e-10,1.365000e-01
1.811875e-10,1.356094e-01
1.851875e-10,1.365469e-01
1.891875e-10,1.359219e-01
1.931875e-10,1.352969e-01
1.971875e-10,1.341250e-01
2.011875e-10,1.337656e-01
2.051875e-10,1.326094e-01
2.091875e-10,1.316719e-01
2.131875e-10,1.310000e-01
2.171875e-10,1.301563e-01
2.211875e-10,1.286406e-01
2.251875e-10,1.269375e-01
2.291875e-10,1.255469e-01
2.331875e-10,1.244063e-01
2.371875e-10,1.225000e-01
2.411875e-10,1.214531e-01
2.451875e-10,1.198750e-01
2.491875e-10,1.184063e-01
2.531875e-10,1.154219e-01
2.571875e-10,1.143594e-01
2.611875e-10,1.116875e-01
2.651875e-10,1.108906e-01
2.691875e-10,1.086406e-01
2.731875e-10,1.064688e-01
2.771875e-10,1.038594e-01
2.811875e-10,1.021719e-01
2.851875e-10,9.978125e-02
2.891875e-10,9.770313e-02
2.931875e-10,9.595313e-02
2.971875e-10,9.414063e-02
3.011875e-10,9.178125e-02
3.051875e-10,8.929688e-02
3.091875e-10,8.723438e-02
3.131875e-10,8.551563e-02
3.171875e-10,8.306250e-02
3.211875e-10,8.157813e-02
3.251875e-10,7.968750e-02
3.291875e-10,7.793750e-02
3.331875e-10,7.475000e-02
3.371875e-10,7.357813e-02
3.411875e-10,7.087500e-02
3.451875e-10,7.007813e-02
3.491875e-10,6.792188e-02
3.531875e-10,6.589063e-02
3.571875e-10,6.345313e-02
3.611875e-10,6.201563e-02
3.651875e-10,5.993750e-02
3.691875e-10,5.820313e-02
3.731875e-10,5.684375e-02
3.771875e-10,5.542188e-02
3.811875e-10,5.356250e-02
3.851875e-10,5.157813e-02
3.891875e-10,5.003125e-02
3.931875e-10,4.889063e-02
3.971875e-10,4.701563e-02
4.011875e-10,4.612500e-02
4.051875e-10,4.489063e-02
4.091875e-10,4.378125e-02
4.131875e-10,4.125000e-02
4.171875e-10,4.079688e-02
4.211875e-10,3.881250e-02
4.251875e-10,3.873438e-02
4.291875e-10,3.734375e-02
4.331875e-10,3.604688e-02
4.371875e-10,3.437500e-02
4.411875e-10,3.373438e-02
4.451875e-10,3.240625e-02
4.491875e-10,3.146875e-02
4.531875e-10,3.087500e-02
4.571875e-10,3.025000e-02
4.611875e-10,2.920313e-02
4.651875e-10,2.804688e-02
4.691875e-10,2.729688e-02
4.731875e-10,2.696875e-02
4.771875e-10,2.589063e-02
4.811875e-10,2.576563e-02
4.851875e-10,2.534375e-02
4.891875e-10,2.500000e-02
4.931875e-10,2.326563e-02
4.971875e-10,2.356250e-02
5.011875e-10,2.232813e-02
5.051875e-10,2.300000e-02
5.091875e-10,2.235938e-02
5.131875e-10,2.175000e-02
5.171875e-10,2.078125e-02
5.211875e-10,2.079688e-02
5.251875e-10,2.009375e-02
5.291875e-10,1.976563e-02
5.331875e-10,1.976563e-02
5.371875e-10,1.968750e-02
5.411875e-10,1.920313e-02
5.451875e-10,1.854688e-02
5.491875e-10,1.826563e-02
5.531875e-10,1.835938e-02
5.571875e-10,1.770313e-02
5.611875e-10,1.793750e-02
5.651875e-10,1.785938e-02
5.691875e-10,1.776563e-02
5.731875e-10,1.631250e-02
5.771875e-10,1.679688e-02
5.811875e-10,1.576563e-02
5.851875e-10,1.659375e-02
5.891875e-10,1.607813e-02
5.931875e-10,1.551563e-02
5.971875e-10,1.457813e-02
6.011875e-10,1.462500e-02
6.051875e-10,1.385938e-02
6.091875e-10,1.345313e-02
6.131875e-10,1.340625e-02
6.171875e-10,1.321875e-02
6.211875e-10,1.262500e-02
6.251875e-10,1.179688e-02
6.291875e-10,1.139063e-02
6.331875e-10,1.129688e-02
6.371875e-10,1.045313e-02
6.411875e-10,1.053125e-02
6.451875e-10,1.026563e-02
6.491875e-10,9.953125e-03
6.531875e-10,8.328125e-03
6.571875e-10,8.625000e-03
6.611875e-10,7.437500e-03
6.651875e-10,8.125000e-03
6.691875e-10,7.484375e-03
6.731875e-10,6.812500e-03
6.771875e-10,5.781250e-03
6.811875e-10,5.796875e-03
6.851875e-10,4.984375e-03
6.891875e-10,4.562500e-03
6.931875e-10,4.562500e-03
6.971875e-10,4.453125e-03
7.011875e-10,3.968750e-03
7.051875e-10,3.281250e-03
7.091875e-10,3.078125e-03
7.131875e-10,3.203125e-03
7.171875e-10,2.625000e-03
7.211875e-10,3.015625e-03
7.251875e-10,3.125000e-03
7.291875e-10,3.171875e-03
7.331875e-10,1.984375e-03
7.371875e-10,2.703125e-03
7.411875e-10,2.000000e-03
7.451875e-10,3.234375e-03
7.491875e-10,3.140625e-03
7.531875e-10,3.078125e-03
7.571875e-10,2.625000e-03
7.611875e-10,3.234375e-03
7.651875e-10,3.031250e-03
7.691875e-10,3.250000e-03
7.731875e-10,3.906250e-03
7.771875e-10,4.421875e-03
7.811875e-10,4.593750e-03
7.851875e-10,4.515625e-03
7.891875e-10,4.906250e-03
7.931875e-10,5.656250e-03
7.971875e-10,5.671875e-03
8.011875e-10,6.640625e-03
8.051875e-10,7.281250e-03
8.091875e-10,7.796875e-03
8.131875e-10,7.078125e-03
8.171875e-10,8.203125e-03
8.211875e-10,7.843750e-03
8.251875e-10,9.437500e-03
8.291875e-10,9.625000e-03
8.331875e-10,9.796875e-03
8.371875e-10,9.515625e-03
8.411875e-10,1.021875e-02
8.451875e-10,1.009375e-02
8.491875e-10,1.034375e-02
8.531875e-10,1.096875e-02
8.571875e-10,1.132813e-02
8.611875e-10,1.135938e-02
8.651875e-10,1.107813e-02
8.691875e-10,1.115625e-02
8.731875e-10,1.164063e-02
8.771875e-10,1.129688e-02
8.811875e-10,1.187500e-02
8.851875e-10,1.203125e-02
8.891875e-10,1.206250e-02
8.931875e-10,1.084375e-02
8.971875e-10,1.142188e-02
9.011875e-10,1.045313e-02
9.051875e-10,1.145313e-02
9.091875e-10,1.103125e-02
9.131875e-10,1.056250e-02
9.171875e-10,9.656250e-03
9.211875e-10,9.718750e-03
9.251875e-10,8.968750e-03
9.291875e-10,8.609375e-03
9.331875e-10,8.640625e-03
9.371875e-10,8.359375e-03
9.411875e-10,7.812500e-03
9.451875e-10,6.984375e-03
9.491875e-10,6.546875e-03
9.531875e-10,6.562500e-03
9.571875e-10,5.781250e-03
9.611875e-10,5.937500e-03
9.651875e-10,5.734375e-03
9.691875e-10,5.484375e-03
9.731875e-10,4.015625e-03
9.771875e-10,4.390625e-03
9.811875e-10,3.250000e-03
9.851875e-10,4.156250e-03
9.891875e-10,3.687500e-03
9.931875e-10,3.218750e-03
9.971875e-10,2.390625e-03
1.001187e-09,2.578125e-03
1.005187e-09,2.000000e-03
1.009187e-09,1.875000e-03
1.013187e-09,2.187500e-03
1.017187e-09,2.218750e-03
1.021187e-09,2.015625e-03
1.025187e-09,1.609375e-03
1.029188e-09,1.593750e-03
1.033188e-09,2.078125e-03
1.037188e-09,1.796875e-03
1.041188e-09,2.468750e-03
1.045188e-09,2.812500e-03
1.049188e-09,3.125000e-03
1.053187e-09,2.234375e-03
1.057187e-09,3.218750e-03
1.061187e-09,2.656250e-03
1.065187e-09,4.109375e-03
1.069187e-09,4.203125e-03
1.073187e-09,4.296875e-03
1.077187e-09,4.015625e-03
1.081187e-09,4.718750e-03
1.085187e-09,4.656250e-03
1.089188e-09,4.984375e-03
1.093188e-09,5.734375e-03
1.097188e-09,6.187500e-03
1.101188e-09,6.343750e-03
1.105188e-09,6.265625e-03
1.109188e-09,6.531250e-03
1.113187e-09,7.250000e-03
1.117187e-09,7.156250e-03
1.121187e-09,7.984375e-03
1.125187e-09,8.437500e-03
1.129187e-09,8.828125e-03
1.133187e-09,7.921875e-03
1.137187e-09,8.890625e-03
1.141187e-09,8.250000e-03
1.145187e-09,9.578125e-03
1.149188e-09,9.500000e-03
1.153188e-09,9.390625e-03
1.157188e-09,8.859375e-03
1.161188e-09,9.296875e-03
1.165188e-09,8.906250e-03
1.169188e-09,8.906250e-03
1.173187e-09,9.281250e-03
1.177187e-09,9.375000e-03
1.181187e-09,9.109375e-03
1.185187e-09,8.609375e-03
1.189187e-09,8.453125e-03
1.193187e-09,8.718750e-03
1.197187e-09,8.171875e-03
1.201187e-09,8.578125e-03
1.205187e-09,8.578125e-03
1.209188e-09,8.546875e-03
1.213188e-09,7.187500e-03
1.217188e-09,7.765625e-03
1.221188e-09,6.718750e-03
1.225188e-09,7.671875e-03
1.229188e-09,7.234375e-03
1.233187e-09,6.796875e-03
1.237187e-09,5.953125e-03
1.241187e-09,6.109375e-03
1.245187e-09,5.484375e-03
1.249187e-09,5.250000e-03
1.253187e-09,5.437500e-03
1.257187e-09,5.406250e-03
1.261187e-09,5.000000e-03
1.265187e-09,4.406250e-03
1.269188e-09,4.218750e-03
1.273188e-09,4.468750e-03
1.277188e-09,3.906250e-03
1.281188e-09,4.359375e-03
1.285188e-09,4.437500e-03
1.289188e-09,4.515625e-03
1.293187e-09,3.250000e-03
1.297187e-09,3.968750e-03
1.301187e-09,3.093750e-03
1.305187e-09,4.234375e-03
1.309187e-09,4.000000e-03
1.313187e-09,3.765625e-03
1.317187e-09,3.156250e-03
1.321187e-09,3.562500e-03
1.325187e-09,3.171875e-03
1.329188e-09,3.187500e-03
1.333188e-09,3.625000e-03
1.337188e-09,3.859375e-03
1.341188e-09,3.703125e-03
1.345188e-09,3.359375e-03
1.349188e-09,3.406250e-03
1.353187e-09,3.875000e-03
1.357187e-09,3.531250e-03
1.361187e-09,4.203125e-03
1.365187e-09,4.484375e-03
1.369187e-09,4.750000e-03
1.373187e-09,3.625000e-03
1.377187e-09,4.500000e-03
1.381187e-09,3.765625e-03
1.385187e-09,5.031250e-03
1.389188e-09,4.906250e-03
1.393188e-09,4.750000e-03
1.397188e-09,4.203125e-03
1.401188e-09,4.671875e-03
1.405188e-09,4.312500e-03
1.409187e-09,4.359375e-03
1.413187e-09,4.812500e-03
1.417187e-09,5.046875e-03
1.421187e-09,4.890625e-03
1.425187e-09,4.531250e-03
1.429187e-09,4.562500e-03
1.433187e-09,4.984375e-03
1.437187e-09,4.625000e-03
1.441187e-09,5.250000e-03
1.445187e-09,5.484375e-03
1.449188e-09,5.718750e-03
1.453188e-09,4.546875e-03
1.457188e-09,5.390625e-03
1.461188e-09,4.625000e-03
1.465188e-09,5.875000e-03
1.469187e-09,5.718750e-03
1.473187e-09,5.562500e-03
1.477187e-09,5.015625e-03
1.481187e-09,5.484375e-03
1.485187e-09,5.140625e-03
1.489187e-09,5.218750e-03
1.493187e-09,5.703125e-03
1.497187e-09,6.000000e-03
1.501187e-09,5.906250e-03
1.505187e-09,5.593750e-03
1.509188e-09,5.703125e-03
1.513188e-09,6.234375e-03
1.517188e-09,5.968750e-03
1.521188e-09,6.703125e-03
1.525188e-09,7.046875e-03
1.529187e-09,7.390625e-03
1.533187e-09,6.328125e-03
1.537187e-09,7.296875e-03
1.541187e-09,6.640625e-03
1.545187e-09,8.015625e-03
1.549187e-09,7.984375e-03
1.553187e-09,7.937500e-03
1.557187e-09,7.500000e-03
1.561187e-09,8.062500e-03
1.565187e-09,7.812500e-03
1.569188e-09,7.968750e-03
1.573188e-09,8.531250e-03
1.577188e-09,8.875000e-03
1.581188e-09,8.796875e-03
1.585188e-09,8.531250e-03
1.589187e-09,8.640625e-03
1.593187e-09,9.156250e-03
1.597187e-09,8.843750e-03
1.601187e-09,9.531250e-03
1.605187e-09,9.796875e-03
1.609187e-09,1.006250e-02
1.613187e-09,8.890625e-03
1.617187e-09,9.718750e-03
1.621187e-09,8.906250e-03
1.625187e-09,1.012500e-02
1.629188e-09,9.890625e-03
1.633188e-09,9.656250e-03
1.637188e-09,8.984375e-03
1.641188e-09,9.312500e-03
1.645188e-09,8.828125e-03
1.649187e-09,8.718750e-03
1.653187e-09,9.015625e-03
1.657187e-09,9.078125e-03
1.661187e-09,8.734375e-03
1.665187e-09,8.171875e-03
1.669187e-09,8.015625e-03
1.673187e-09,8.250000e-03
1.677187e-09,7.656250e-03
1.681187e-09,8.078125e-03
1.685187e-09,8.078125e-03
1.689188e-09,8.093750e-03
1.693188e-09,6.671875e-03
1.697188e-09,7.281250e-03
1.701188e-09,6.265625e-03
1.705188e-09,7.296875e-03
1.709187e-09,6.890625e-03
1.713187e-09,6.500000e-03
1.717187e-09,5.718750e-03
1.721187e-09,5.953125e-03
1.725187e-09,5.390625e-03
1.729187e-09,5.234375e-03
1.733187e-09,5.500000e-03
1.737187e-09,5.578125e-03
1.741187e-09,5.265625e-03
1.745187e-09,4.765625e-03
1.749188e-09,4.687500e-03
1.753188e-09,5.031250e-03
1.757188e-09,4.578125e-03
