Measurements-streak-laser-independent/Photodiode-on-Tek-12bit-4GHz/Tek000_ch1_20190613133033265.csv

Model,MSO64
Waveform Type,ANALOG
Horizontal Units,s
Sample Interval,4.000000e-12
Record Length,1000
Zero Index,310.312500
Vertical Units,V

TIME,CH1
-1.241250e-09,4.359375e-03
-1.237250e-09,4.218750e-03
-1.233250e-09,3.875000e-03
-1.229250e-09,3.937500e-03
-1.225250e-09,4.421875e-03
-1.221250e-09,4.078125e-03
-1.217250e-09,4.765625e-03
-1.213250e-09,5.046875e-03
-1.209250e-09,5.328125e-03
-1.205250e-09,4.187500e-03
-1.201250e-09,5.062500e-03
-1.197250e-09,4.312500e-03
-1.193250e-09,5.593750e-03
-1.189250e-09,5.453125e-03
-1.185250e-09,5.312500e-03
-1.181250e-09,4.750000e-03
-1.177250e-09,5.203125e-03
-1.173250e-09,4.828125e-03
-1.169250e-09,4.843750e-03
-1.165250e-09,5.281250e-03
-1.161250e-09,5.484375e-03
-1.157250e-09,5.281250e-03
-1.153250e-09,4.875000e-03
-1.149250e-09,4.843750e-03
-1.145250e-09,5.218750e-03
-1.141250e-09,4.781250e-03
-1.137250e-09,5.343750e-03
-1.133250e-09,5.484375e-03
-1.129250e-09,5.625000e-03
-1.125250e-09,4.343750e-03
-1.121250e-09,5.062500e-03
-1.117250e-09,4.156250e-03
-1.113250e-09,5.281250e-03
-1.109250e-09,4.968750e-03
-1.105250e-09,4.656250e-03
-1.101250e-09,3.937500e-03
-1.097250e-09,4.218750e-03
-1.093250e-09,3.703125e-03
-1.089250e-09,3.578125e-03
-1.085250e-09,3.859375e-03
-1.081250e-09,3.921875e-03
-1.077250e-09,3.593750e-03
-1.073250e-09,3.078125e-03
-1.069250e-09,2.953125e-03
-1.065250e-09,3.234375e-03
-1.061250e-09,2.718750e-03
-1.057250e-09,3.234375e-03
-1.053250e-09,3.328125e-03
-1.049250e-09,3.437500e-03
-1.045250e-09,2.156250e-03
-1.041250e-09,2.890625e-03
-1.037250e-09,2.015625e-03
-1.033250e-09,3.187500e-03
-1.029250e-09,2.937500e-03
-1.025250e-09,2.718750e-03
-1.021250e-09,2.093750e-03
-1.017250e-09,2.500000e-03
-1.013250e-09,2.109375e-03
-1.009250e-09,2.140625e-03
-1.005250e-09,2.593750e-03
-1.001250e-09,2.843750e-03
-9.972500e-10,2.718750e-03
-9.932500e-10,2.390625e-03
-9.892500e-10,2.500000e-03
-9.852500e-10,3.000000e-03
-9.812500e-10,2.718750e-03
-9.772500e-10,3.468750e-03
-9.732500e-10,3.828125e-03
-9.692500e-10,4.187500e-03
-9.652500e-10,3.140625e-03
-9.612500e-10,4.125000e-03
-9.572500e-10,3.515625e-03
-9.532500e-10,4.906250e-03
-9.492500e-10,4.906250e-03
-9.452500e-10,4.921875e-03
-9.412500e-10,4.515625e-03
-9.372500e-10,5.156250e-03
-9.332500e-10,4.968750e-03
-9.292500e-10,5.187500e-03
-9.252500e-10,5.828125e-03
-9.212500e-10,6.265625e-03
-9.172500e-10,6.296875e-03
-9.132500e-10,6.109375e-03
-9.092500e-10,6.343750e-03
-9.052500e-10,6.968750e-03
-9.012500e-10,6.781250e-03
-8.972500e-10,7.609375e-03
-8.932500e-10,8.015625e-03
-8.892500e-10,8.437500e-03
-8.852500e-10,7.437500e-03
-8.812500e-10,8.437500e-03
-8.772500e-10,7.812500e-03
-8.732500e-10,9.109375e-03
-8.692500e-10,9.093750e-03
-8.652500e-10,9.062500e-03
-8.612500e-10,8.625000e-03
-8.572500e-10,9.187500e-03
-8.532500e-10,8.906250e-03
-8.492500e-10,9.062500e-03
-8.452500e-10,9.593750e-03
-8.412500e-10,9.906250e-03
-8.372500e-10,9.828125e-03
-8.332500e-10,9.515625e-03
-8.292500e-10,9.609375e-03
-8.252500e-10,1.009375e-02
-8.212500e-10,9.765625e-03
-8.172500e-10,1.043750e-02
-8.132500e-10,1.070313e-02
-8.092500e-10,1.096875e-02
-8.052500e-10,9.875000e-03
-8.012500e-10,1.071875e-02
-7.972500e-10,9.953125e-03
-7.932500e-10,1.100000e-02
-7.892500e-10,1.089063e-02
-7.852500e-10,1.070313e-02
-7.812500e-10,1.018750e-02
-7.772500e-10,1.059375e-02
-7.732500e-10,1.017188e-02
-7.692500e-10,1.025000e-02
-7.652500e-10,1.062500e-02
-7.612500e-10,1.081250e-02
-7.572500e-10,1.068750e-02
-7.532500e-10,1.025000e-02
-7.492500e-10,1.020313e-02
-7.452500e-10,1.056250e-02
-7.412500e-10,1.012500e-02
-7.372500e-10,1.067188e-02
-7.332500e-10,1.084375e-02
-7.292500e-10,1.096875e-02
-7.252500e-10,9.781250e-03
-7.212500e-10,1.053125e-02
-7.172500e-10,9.671875e-03
-7.132500e-10,1.051563e-02
-7.092500e-10,1.032813e-02
-7.052500e-10,1.006250e-02
-7.012500e-10,9.453125e-03
-6.972500e-10,9.671875e-03
-6.932500e-10,9.078125e-03
-6.892500e-10,9.062500e-03
-6.852500e-10,9.281250e-03
-6.812500e-10,9.265625e-03
-6.772500e-10,9.109375e-03
-6.732500e-10,8.484375e-03
-6.692500e-10,8.265625e-03
-6.652500e-10,8.421875e-03
-6.612500e-10,7.859375e-03
-6.572500e-10,8.218750e-03
-6.532500e-10,8.218750e-03
-6.492500e-10,8.156250e-03
-6.452500e-10,6.750000e-03
-6.412500e-10,7.343750e-03
-6.372500e-10,6.421875e-03
-6.332500e-10,7.062500e-03
-6.292500e-10,6.750000e-03
-6.252500e-10,6.359375e-03
-6.212500e-10,5.625000e-03
-6.172500e-10,5.687500e-03
-6.132500e-10,4.937500e-03
-6.092500e-10,4.859375e-03
-6.052500e-10,5.000000e-03
-6.012500e-10,4.843750e-03
-5.972500e-10,4.750000e-03
-5.932500e-10,4.078125e-03
-5.892500e-10,3.812500e-03
-5.852500e-10,3.984375e-03
-5.812500e-10,3.500000e-03
-5.772500e-10,3.890625e-03
-5.732500e-10,3.968750e-03
-5.692500e-10,3.968750e-03
-5.652500e-10,2.625000e-03
-5.612500e-10,3.359375e-03
-5.572500e-10,2.687500e-03
-5.532500e-10,3.484375e-03
-5.492500e-10,3.437500e-03
-5.452500e-10,3.265625e-03
-5.412500e-10,2.765625e-03
-5.372500e-10,3.078125e-03
-5.332500e-10,2.609375e-03
-5.292500e-10,2.812500e-03
-5.252500e-10,3.296875e-03
-5.212500e-10,3.421875e-03
-5.172500e-10,3.625000e-03
-5.132500e-10,3.312500e-03
-5.092500e-10,3.421875e-03
-5.052500e-10,3.968750e-03
-5.012500e-10,3.812500e-03
-4.972500e-10,4.609375e-03
-4.932500e-10,4.937500e-03
-4.892500e-10,5.265625e-03
-4.852500e-10,4.250000e-03
-4.812500e-10,5.203125e-03
-4.772500e-10,4.859375e-03
-4.732500e-10,5.937500e-03
-4.692500e-10,6.203125e-03
-4.652500e-10,6.187500e-03
-4.612500e-10,5.859375e-03
-4.572500e-10,6.328125e-03
-4.532500e-10,6.078125e-03
-4.492500e-10,6.312500e-03
-4.452500e-10,6.906250e-03
-4.412500e-10,7.062500e-03
-4.372500e-10,7.156250e-03
-4.332500e-10,6.843750e-03
-4.292500e-10,6.984375e-03
-4.252500e-10,7.484375e-03
-4.212500e-10,7.109375e-03
-4.172500e-10,7.796875e-03
-4.132500e-10,7.937500e-03
-4.092500e-10,8.062500e-03
-4.052500e-10,6.828125e-03
-4.012500e-10,7.421875e-03
-3.972500e-10,6.812500e-03
-3.932500e-10,7.593750e-03
-3.892500e-10,7.578125e-03
-3.852500e-10,7.156250e-03
-3.812500e-10,6.500000e-03
-3.772500e-10,6.656250e-03
-3.732500e-10,6.171875e-03
-3.692500e-10,5.921875e-03
-3.652500e-10,6.203125e-03
-3.612500e-10,6.046875e-03
-3.572500e-10,5.703125e-03
-3.532500e-10,5.125000e-03
-3.492500e-10,5.062500e-03
-3.452500e-10,5.343750e-03
-3.412500e-10,4.687500e-03
-3.372500e-10,5.156250e-03
-3.332500e-10,5.203125e-03
-3.292500e-10,5.187500e-03
-3.252500e-10,3.937500e-03
-3.212500e-10,4.406250e-03
-3.172500e-10,3.781250e-03
-3.132500e-10,4.640625e-03
-3.092500e-10,4.656250e-03
-3.052500e-10,4.359375e-03
-3.012500e-10,3.937500e-03
-2.972500e-10,4.328125e-03
-2.932500e-10,4.140625e-03
-2.892500e-10,4.125000e-03
-2.852500e-10,4.703125e-03
-2.812500e-10,4.921875e-03
-2.772500e-10,4.906250e-03
-2.732500e-10,4.843750e-03
-2.692500e-10,5.203125e-03
-2.652500e-10,5.937500e-03
-2.612500e-10,5.781250e-03
-2.572500e-10,6.671875e-03
-2.532500e-10,7.281250e-03
-2.492500e-10,7.734375e-03
-2.452500e-10,7.015625e-03
-2.412500e-10,7.937500e-03
-2.372500e-10,7.687500e-03
-2.332500e-10,9.015625e-03
-2.292500e-10,9.359375e-03
-2.252500e-10,9.437500e-03
-2.212500e-10,9.406250e-03
-2.172500e-10,1.004688e-02
-2.132500e-10,1.004688e-02
-2.092500e-10,1.021875e-02
-2.052500e-10,1.082813e-02
-2.012500e-10,1.109375e-02
-1.972500e-10,1.101563e-02
-1.932500e-10,1.092188e-02
-1.892500e-10,1.104688e-02
-1.852500e-10,1.146875e-02
-1.812500e-10,1.104688e-02
-1.772500e-10,1.151563e-02
-1.732500e-10,1.167188e-02
-1.692500e-10,1.160938e-02
-1.652500e-10,1.037500e-02
-1.612500e-10,1.065625e-02
-1.572500e-10,9.625000e-03
-1.532500e-10,1.028125e-02
-1.492500e-10,9.750000e-03
-1.452500e-10,9.078125e-03
-1.412500e-10,8.218750e-03
-1.372500e-10,8.046875e-03
-1.332500e-10,7.171875e-03
-1.292500e-10,6.562500e-03
-1.252500e-10,6.312500e-03
-1.212500e-10,5.812500e-03
-1.172500e-10,5.000000e-03
-1.132500e-10,4.265625e-03
-1.092500e-10,3.734375e-03
-1.052500e-10,3.546875e-03
-1.012500e-10,2.718750e-03
-9.725000e-11,2.890625e-03
-9.325000e-11,2.796875e-03
-8.925000e-11,2.750000e-03
-8.525000e-11,1.703125e-03
-8.125000e-11,2.265625e-03
-7.725000e-11,1.625000e-03
-7.325000e-11,3.015625e-03
-6.925000e-11,3.234375e-03
-6.525000e-11,3.656250e-03
-6.125000e-11,4.093750e-03
-5.725000e-11,5.468750e-03
-5.325000e-11,6.343750e-03
-4.925000e-11,7.765625e-03
-4.525000e-11,9.750000e-03
-4.125000e-11,1.182813e-02
-3.725000e-11,1.375000e-02
-3.325000e-11,1.603125e-02
-2.925000e-11,1.876563e-02
-2.525000e-11,2.198438e-02
-2.125000e-11,2.493750e-02
-1.725000e-11,2.914063e-02
-1.325000e-11,3.325000e-02
-9.250000e-12,3.776563e-02
-5.250000e-12,4.143750e-02
-1.250000e-12,4.689063e-02
2.750000e-12,5.128125e-02
6.750000e-12,5.795313e-02
1.075000e-11,6.350000e-02
1.475000e-11,6.953125e-02
1.875000e-11,7.560938e-02
2.275000e-11,8.273438e-02
2.675000e-11,8.943750e-02
3.075000e-11,9.673438e-02
3.475000e-11,1.046719e-01
3.875000e-11,1.127813e-01
4.275000e-11,1.205313e-01
4.675000e-11,1.287031e-01
5.075000e-11,1.372031e-01
5.475000e-11,1.460781e-01
5.875000e-11,1.546563e-01
6.275000e-11,1.642813e-01
6.675000e-11,1.736250e-01
7.075000e-11,1.832969e-01
7.475000e-11,1.918125e-01
7.875000e-11,2.018750e-01
8.275000e-11,2.105938e-01
8.675000e-11,2.212969e-01
9.075000e-11,2.305000e-01
9.475000e-11,2.400156e-01
9.875000e-11,2.490938e-01
1.027500e-10,2.588125e-01
1.067500e-10,2.678438e-01
1.107500e-10,2.770156e-01
1.147500e-10,2.864375e-01
1.187500e-10,2.957344e-01
1.227500e-10,3.040156e-01
1.267500e-10,3.123594e-01
1.307500e-10,3.206250e-01
1.347500e-10,3.287969e-01
1.387500e-10,3.363281e-01
1.427500e-10,3.443906e-01
1.467500e-10,3.516250e-01
1.507500e-10,3.589063e-01
1.547500e-10,3.645000e-01
1.587500e-10,3.713594e-01
1.627500e-10,3.764063e-01
1.667500e-10,3.829688e-01
1.707500e-10,3.876406e-01
1.747500e-10,3.923594e-01
1.787500e-10,3.962188e-01
1.827500e-10,4.003438e-01
1.867500e-10,4.036094e-01
1.907500e-10,4.066875e-01
1.947500e-10,4.096875e-01
1.987500e-10,4.124375e-01
2.027500e-10,4.138438e-01
2.067500e-10,4.150625e-01
2.107500e-10,4.161563e-01
2.147500e-10,4.170156e-01
2.187500e-10,4.171094e-01
2.227500e-10,4.175469e-01
2.267500e-10,4.170781e-01
2.307500e-10,4.167031e-01
2.347500e-10,4.145156e-01
2.387500e-10,4.137031e-01
2.427500e-10,4.111250e-01
2.467500e-10,4.099688e-01
2.507500e-10,4.070469e-01
2.547500e-10,4.042500e-01
2.587500e-10,4.007031e-01
2.627500e-10,3.975938e-01
2.667500e-10,3.938281e-01
2.707500e-10,3.900000e-01
2.747500e-10,3.862188e-01
2.787500e-10,3.824219e-01
2.827500e-10,3.774844e-01
2.867500e-10,3.725313e-01
2.907500e-10,3.677500e-01
2.947500e-10,3.630000e-01
2.987500e-10,3.576406e-01
3.027500e-10,3.528750e-01
3.067500e-10,3.474844e-01
3.107500e-10,3.424688e-01
3.147500e-10,3.358125e-01
3.187500e-10,3.309219e-01
3.227500e-10,3.245313e-01
3.267500e-10,3.197188e-01
3.307500e-10,3.134531e-01
3.347500e-10,3.075313e-01
3.387500e-10,3.010938e-01
3.427500e-10,2.954531e-01
3.467500e-10,2.893906e-01
3.507500e-10,2.834531e-01
3.547500e-10,2.777344e-01
3.587500e-10,2.722188e-01
3.627500e-10,2.659063e-01
3.667500e-10,2.596875e-01
3.707500e-10,2.538281e-01
3.747500e-10,2.482656e-01
3.787500e-10,2.421406e-01
3.827500e-10,2.368281e-01
3.867500e-10,2.311406e-01
3.907500e-10,2.258906e-01
3.947500e-10,2.191250e-01
3.987500e-10,2.143750e-01
4.027500e-10,2.082500e-01
4.067500e-10,2.037188e-01
4.107500e-10,1.979688e-01
4.147500e-10,1.926094e-01
4.187500e-10,1.867969e-01
4.227500e-10,1.819531e-01
4.267500e-10,1.767656e-01
4.307500e-10,1.717969e-01
4.347500e-10,1.670469e-01
4.387500e-10,1.625781e-01
4.427500e-10,1.575313e-01
4.467500e-10,1.525781e-01
4.507500e-10,1.480000e-01
4.547500e-10,1.438594e-01
4.587500e-10,1.391406e-01
4.627500e-10,1.352500e-01
4.667500e-10,1.311563e-01
4.707500e-10,1.274375e-01
4.747500e-10,1.223125e-01
4.787500e-10,1.192813e-01
4.827500e-10,1.149063e-01
4.867500e-10,1.121563e-01
4.907500e-10,1.083125e-01
4.947500e-10,1.047500e-01
4.987500e-10,1.008906e-01
5.027500e-10,9.798438e-02
5.067500e-10,9.470313e-02
5.107500e-10,9.176563e-02
5.147500e-10,8.903125e-02
5.187500e-10,8.656250e-02
5.227500e-10,8.370313e-02
5.267500e-10,8.087500e-02
5.307500e-10,7.842188e-02
5.347500e-10,7.643750e-02
5.387500e-10,7.385938e-02
5.427500e-10,7.207813e-02
5.467500e-10,7.018750e-02
5.507500e-10,6.854688e-02
5.547500e-10,6.560938e-02
5.587500e-10,6.465625e-02
5.627500e-10,6.243750e-02
5.667500e-10,6.179688e-02
5.707500e-10,6.012500e-02
5.747500e-10,5.848438e-02
5.787500e-10,5.667188e-02
5.827500e-10,5.575000e-02
5.867500e-10,5.428125e-02
5.907500e-10,5.315625e-02
5.947500e-10,5.223438e-02
5.987500e-10,5.150000e-02
6.027500e-10,5.037500e-02
6.067500e-10,4.912500e-02
6.107500e-10,4.829688e-02
6.147500e-10,4.771875e-02
6.187500e-10,4.653125e-02
6.227500e-10,4.604688e-02
6.267500e-10,4.543750e-02
6.307500e-10,4.484375e-02
6.347500e-10,4.300000e-02
6.387500e-10,4.295313e-02
6.427500e-10,4.165625e-02
6.467500e-10,4.185938e-02
6.507500e-10,4.095313e-02
6.547500e-10,3.990625e-02
6.587500e-10,3.860938e-02
6.627500e-10,3.826563e-02
6.667500e-10,3.710938e-02
6.707500e-10,3.623438e-02
6.747500e-10,3.562500e-02
6.787500e-10,3.510938e-02
6.827500e-10,3.415625e-02
6.867500e-10,3.293750e-02
6.907500e-10,3.223438e-02
6.947500e-10,3.159375e-02
6.987500e-10,3.037500e-02
7.027500e-10,2.987500e-02
7.067500e-10,2.925000e-02
7.107500e-10,2.842188e-02
7.147500e-10,2.653125e-02
7.187500e-10,2.629688e-02
7.227500e-10,2.489063e-02
7.267500e-10,2.503125e-02
7.307500e-10,2.401563e-02
7.347500e-10,2.293750e-02
7.387500e-10,2.148438e-02
7.427500e-10,2.115625e-02
7.467500e-10,1.990625e-02
7.507500e-10,1.900000e-02
7.547500e-10,1.851563e-02
7.587500e-10,1.807813e-02
7.627500e-10,1.731250e-02
7.667500e-10,1.621875e-02
7.707500e-10,1.573438e-02
7.747500e-10,1.540625e-02
7.787500e-10,1.451563e-02
7.827500e-10,1.445313e-02
7.867500e-10,1.429688e-02
7.907500e-10,1.384375e-02
7.947500e-10,1.253125e-02
7.987500e-10,1.278125e-02
8.027500e-10,1.195313e-02
8.067500e-10,1.281250e-02
8.107500e-10,1.248438e-02
8.147500e-10,1.217188e-02
8.187500e-10,1.142188e-02
8.227500e-10,1.181250e-02
8.267500e-10,1.134375e-02
8.307500e-10,1.125000e-02
8.347500e-10,1.162500e-02
8.387500e-10,1.189063e-02
8.427500e-10,1.196875e-02
8.467500e-10,1.165625e-02
8.507500e-10,1.189063e-02
8.547500e-10,1.239063e-02
8.587500e-10,1.229688e-02
8.627500e-10,1.300000e-02
8.667500e-10,1.350000e-02
8.707500e-10,1.368750e-02
8.747500e-10,1.303125e-02
8.787500e-10,1.379688e-02
8.827500e-10,1.340625e-02
8.867500e-10,1.484375e-02
8.907500e-10,1.495313e-02
8.947500e-10,1.503125e-02
8.987500e-10,1.464063e-02
9.027500e-10,1.521875e-02
9.067500e-10,1.498438e-02
9.107500e-10,1.510938e-02
9.147500e-10,1.565625e-02
9.187500e-10,1.579688e-02
9.227500e-10,1.590625e-02
9.267500e-10,1.554688e-02
9.307500e-10,1.556250e-02
9.347500e-10,1.601563e-02
9.387500e-10,1.575000e-02
9.427500e-10,1.621875e-02
9.467500e-10,1.637500e-02
9.507500e-10,1.628125e-02
9.547500e-10,1.531250e-02
9.587500e-10,1.571875e-02
9.627500e-10,1.485938e-02
9.667500e-10,1.593750e-02
9.707500e-10,1.564063e-02
9.747500e-10,1.528125e-02
9.787500e-10,1.450000e-02
9.827500e-10,1.460938e-02
9.867500e-10,1.401563e-02
9.907500e-10,1.381250e-02
9.947500e-10,1.400000e-02
9.987500e-10,1.368750e-02
1.002750e-09,1.343750e-02
1.006750e-09,1.281250e-02
1.010750e-09,1.246875e-02
1.014750e-09,1.273438e-02
1.018750e-09,1.226563e-02
1.022750e-09,1.254688e-02
1.026750e-09,1.253125e-02
1.030750e-09,1.235938e-02
1.034750e-09,1.137500e-02
1.038750e-09,1.184375e-02
1.042750e-09,1.096875e-02
1.046750e-09,1.206250e-02
1.050750e-09,1.187500e-02
1.054750e-09,1.164063e-02
1.058750e-09,1.106250e-02
1.062750e-09,1.140625e-02
1.066750e-09,1.107813e-02
1.070750e-09,1.117188e-02
1.074750e-09,1.168750e-02
1.078750e-09,1.171875e-02
1.082750e-09,1.176563e-02
1.086750e-09,1.153125e-02
1.090750e-09,1.154688e-02
1.094750e-09,1.220313e-02
1.098750e-09,1.209375e-02
1.102750e-09,1.276563e-02
1.106750e-09,1.314063e-02
1.110750e-09,1.339063e-02
1.114750e-09,1.278125e-02
1.118750e-09,1.368750e-02
1.122750e-09,1.312500e-02
1.126750e-09,1.450000e-02
1.130750e-09,1.457813e-02
1.134750e-09,1.459375e-02
1.138750e-09,1.423438e-02
1.142750e-09,1.479688e-02
1.146750e-09,1.462500e-02
1.150750e-09,1.482813e-02
1.154750e-09,1.542188e-02
1.158750e-09,1.556250e-02
1.162750e-09,1.556250e-02
1.166750e-09,1.528125e-02
1.170750e-09,1.525000e-02
1.174750e-09,1.576563e-02
1.178750e-09,1.546875e-02
1.182750e-09,1.595313e-02
1.186750e-09,1.610938e-02
1.190750e-09,1.614063e-02
1.194750e-09,1.517188e-02
1.198750e-09,1.581250e-02
1.202750e-09,1.489063e-02
1.206750e-09,1.587500e-02
1.210750e-09,1.551563e-02
1.214750e-09,1.512500e-02
1.218750e-09,1.431250e-02
1.222750e-09,1.445313e-02
1.226750e-09,1.381250e-02
1.230750e-09,1.354688e-02
1.234750e-09,1.367188e-02
1.238750e-09,1.345313e-02
1.242750e-09,1.296875e-02
1.246750e-09,1.225000e-02
1.250750e-09,1.184375e-02
1.254750e-09,1.193750e-02
1.258750e-09,1.121875e-02
1.262750e-09,1.140625e-02
1.266750e-09,1.125000e-02
1.270750e-09,1.101563e-02
1.274750e-09,9.687500e-03
1.278750e-09,1.012500e-02
1.282750e-09,9.000000e-03
1.286750e-09,9.843750e-03
1.290750e-09,9.343750e-03
1.294750e-09,8.859375e-03
1.298750e-09,8.000000e-03
1.302750e-09,8.125000e-03
1.306750e-09,7.500000e-03
1.310750e-09,7.296875e-03
1.314750e-09,7.500000e-03
1.318750e-09,7.453125e-03
1.322750e-09,7.125000e-03
1.326750e-09,6.593750e-03
1.330750e-09,6.421875e-03
1.334750e-09,6.750000e-03
1.338750e-09,6.281250e-03
1.342750e-09,6.781250e-03
1.346750e-09,6.937500e-03
1.350750e-09,7.078125e-03
1.354750e-09,6.000000e-03
1.358750e-09,6.796875e-03
1.362750e-09,6.031250e-03
1.366750e-09,7.250000e-03
1.370750e-09,7.109375e-03
1.374750e-09,6.984375e-03
1.378750e-09,6.468750e-03
1.382750e-09,6.953125e-03
1.386750e-09,6.656250e-03
1.390750e-09,6.765625e-03
1.394750e-09,7.281250e-03
1.398750e-09,7.562500e-03
1.402750e-09,7.500000e-03
1.406750e-09,7.218750e-03
1.410750e-09,7.312500e-03
1.414750e-09,7.843750e-03
1.418750e-09,7.562500e-03
1.422750e-09,8.250000e-03
1.426750e-09,8.562500e-03
1.430750e-09,8.843750e-03
1.434750e-09,7.812500e-03
1.438750e-09,8.687500e-03
1.442750e-09,7.968750e-03
1.446750e-09,9.250000e-03
1.450750e-09,9.125000e-03
1.454750e-09,8.984375e-03
1.458750e-09,8.437500e-03
1.462750e-09,8.890625e-03
1.466750e-09,8.546875e-03
1.470750e-09,8.593750e-03
1.474750e-09,9.031250e-03
1.478750e-09,9.234375e-03
1.482750e-09,9.078125e-03
1.486750e-09,8.703125e-03
1.490750e-09,8.703125e-03
1.494750e-09,9.125000e-03
1.498750e-09,8.750000e-03
1.502750e-09,9.375000e-03
1.506750e-09,9.593750e-03
1.510750e-09,9.796875e-03
1.514750e-09,8.671875e-03
1.518750e-09,9.500000e-03
1.522750e-09,8.734375e-03
1.526750e-09,9.984375e-03
1.530750e-09,9.828125e-03
1.534750e-09,9.687500e-03
1.538750e-09,9.156250e-03
1.542750e-09,9.640625e-03
1.546750e-09,9.328125e-03
1.550750e-09,9.421875e-03
1.554750e-09,9.937500e-03
1.558750e-09,1.025000e-02
1.562750e-09,1.018750e-02
1.566750e-09,9.921875e-03
1.570750e-09,1.006250e-02
1.574750e-09,1.062500e-02
1.578750e-09,1.039063e-02
1.582750e-09,1.115625e-02
1.586750e-09,1.154688e-02
1.590750e-09,1.193750e-02
1.594750e-09,1.095313e-02
1.598750e-09,1.195313e-02
1.602750e-09,1.135938e-02
1.606750e-09,1.276563e-02
1.610750e-09,1.276563e-02
1.614750e-09,1.278125e-02
1.618750e-09,1.239063e-02
1.622750e-09,1.300000e-02
1.626750e-09,1.279688e-02
1.630750e-09,1.300000e-02
1.634750e-09,1.357813e-02
1.638750e-09,1.396875e-02
1.642750e-09,1.393750e-02
1.646750e-09,1.368750e-02
1.650750e-09,1.384375e-02
1.654750e-09,1.437500e-02
1.658750e-09,1.409375e-02
1.662750e-09,1.478125e-02
1.666750e-09,1.506250e-02
1.670750e-09,1.532813e-02
1.674750e-09,1.417188e-02
1.678750e-09,1.500000e-02
1.682750e-09,1.420313e-02
1.686750e-09,1.537500e-02
1.690750e-09,1.514063e-02
1.694750e-09,1.487500e-02
1.698750e-09,1.417188e-02
1.702750e-09,1.446875e-02
1.706750e-09,1.393750e-02
1.710750e-09,1.378125e-02
1.714750e-09,1.400000e-02
1.718750e-09,1.400000e-02
1.722750e-09,1.359375e-02
1.726750e-09,1.295313e-02
1.730750e-09,1.268750e-02
1.734750e-09,1.282813e-02
1.738750e-09,1.214063e-02
1.742750e-09,1.243750e-02
1.746750e-09,1.231250e-02
1.750750e-09,1.218750e-02
1.754750e-09,1.064063e-02
1.758750e-09,1.110938e-02
