Measurements-streak-laser-independent/Photodiode-on-Tek-12bit-4GHz/Tek000_ch1_20190613133007592.csv

Model,MSO64
Waveform Type,ANALOG
Horizontal Units,s
Sample Interval,4.000000e-12
Record Length,1000
Zero Index,310.468750
Vertical Units,V

TIME,CH1
-1.241875e-09,6.531250e-03
-1.237875e-09,6.375000e-03
-1.233875e-09,6.015625e-03
-1.229875e-09,6.046875e-03
-1.225875e-09,6.468750e-03
-1.221875e-09,6.062500e-03
-1.217875e-09,6.656250e-03
-1.213875e-09,6.828125e-03
-1.209875e-09,6.968750e-03
-1.205875e-09,5.687500e-03
-1.201875e-09,6.421875e-03
-1.197875e-09,5.515625e-03
-1.193875e-09,6.609375e-03
-1.189875e-09,6.281250e-03
-1.185875e-09,5.937500e-03
-1.181875e-09,5.171875e-03
-1.177875e-09,5.421875e-03
-1.173875e-09,4.843750e-03
-1.169875e-09,4.656250e-03
-1.165875e-09,4.859375e-03
-1.161875e-09,4.859375e-03
-1.157875e-09,4.453125e-03
-1.153875e-09,3.828125e-03
-1.149875e-09,3.609375e-03
-1.145875e-09,3.812500e-03
-1.141875e-09,3.187500e-03
-1.137875e-09,3.562500e-03
-1.133875e-09,3.562500e-03
-1.129875e-09,3.546875e-03
-1.125875e-09,2.125000e-03
-1.121875e-09,2.734375e-03
-1.117875e-09,1.734375e-03
-1.113875e-09,2.765625e-03
-1.109875e-09,2.390625e-03
-1.105875e-09,2.015625e-03
-1.101875e-09,1.265625e-03
-1.097875e-09,1.531250e-03
-1.093875e-09,1.000000e-03
-1.089875e-09,8.750000e-04
-1.085875e-09,1.187500e-03
-1.081875e-09,1.296875e-03
-1.077875e-09,1.031250e-03
-1.073875e-09,5.781250e-04
-1.069875e-09,5.312500e-04
-1.065875e-09,9.062500e-04
-1.061875e-09,5.000000e-04
-1.057875e-09,1.109375e-03
-1.053875e-09,1.328125e-03
-1.049875e-09,1.562500e-03
-1.045875e-09,3.906250e-04
-1.041875e-09,1.250000e-03
-1.037875e-09,5.000000e-04
-1.033875e-09,1.781250e-03
-1.029875e-09,1.671875e-03
-1.025875e-09,1.562500e-03
-1.021875e-09,1.046875e-03
-1.017875e-09,1.562500e-03
-1.013875e-09,1.265625e-03
-1.009875e-09,1.375000e-03
-1.005875e-09,1.890625e-03
-1.001875e-09,2.218750e-03
-9.978750e-10,2.125000e-03
-9.938750e-10,1.843750e-03
-9.898750e-10,1.968750e-03
-9.858750e-10,2.484375e-03
-9.818750e-10,2.187500e-03
-9.778750e-10,2.906250e-03
-9.738750e-10,3.218750e-03
-9.698750e-10,3.515625e-03
-9.658750e-10,2.406250e-03
-9.618750e-10,3.312500e-03
-9.578750e-10,2.578125e-03
-9.538750e-10,3.859375e-03
-9.498750e-10,3.734375e-03
-9.458750e-10,3.609375e-03
-9.418750e-10,3.062500e-03
-9.378750e-10,3.531250e-03
-9.338750e-10,3.187500e-03
-9.298750e-10,3.234375e-03
-9.258750e-10,3.687500e-03
-9.218750e-10,3.937500e-03
-9.178750e-10,3.796875e-03
-9.138750e-10,3.421875e-03
-9.098750e-10,3.468750e-03
-9.058750e-10,3.921875e-03
-9.018750e-10,3.546875e-03
-8.978750e-10,4.203125e-03
-8.938750e-10,4.453125e-03
-8.898750e-10,4.703125e-03
-8.858750e-10,3.562500e-03
-8.818750e-10,4.437500e-03
-8.778750e-10,3.687500e-03
-8.738750e-10,4.921875e-03
-8.698750e-10,4.812500e-03
-8.658750e-10,4.703125e-03
-8.618750e-10,4.218750e-03
-8.578750e-10,4.718750e-03
-8.538750e-10,4.421875e-03
-8.498750e-10,4.562500e-03
-8.458750e-10,5.093750e-03
-8.418750e-10,5.437500e-03
-8.378750e-10,5.406250e-03
-8.338750e-10,5.171875e-03
-8.298750e-10,5.343750e-03
-8.258750e-10,5.921875e-03
-8.218750e-10,5.703125e-03
-8.178750e-10,6.500000e-03
-8.138750e-10,6.906250e-03
-8.098750e-10,7.312500e-03
-8.058750e-10,6.343750e-03
-8.018750e-10,7.375000e-03
-7.978750e-10,6.796875e-03
-7.938750e-10,8.125000e-03
-7.898750e-10,8.187500e-03
-7.858750e-10,8.218750e-03
-7.818750e-10,7.859375e-03
-7.778750e-10,8.468750e-03
-7.738750e-10,8.250000e-03
-7.698750e-10,8.500000e-03
-7.658750e-10,9.093750e-03
-7.618750e-10,9.468750e-03
-7.578750e-10,9.500000e-03
-7.538750e-10,9.250000e-03
-7.498750e-10,9.406250e-03
-7.458750e-10,9.937500e-03
-7.418750e-10,9.656250e-03
-7.378750e-10,1.035938e-02
-7.338750e-10,1.065625e-02
-7.298750e-10,1.092188e-02
-7.258750e-10,9.796875e-03
-7.218750e-10,1.064063e-02
-7.178750e-10,9.875000e-03
-7.138750e-10,1.096875e-02
-7.098750e-10,1.078125e-02
-7.058750e-10,1.056250e-02
-7.018750e-10,9.937500e-03
-6.978750e-10,1.021875e-02
-6.938750e-10,9.671875e-03
-6.898750e-10,9.609375e-03
-6.858750e-10,9.859375e-03
-6.818750e-10,9.859375e-03
-6.778750e-10,9.593750e-03
-6.738750e-10,8.984375e-03
-6.698750e-10,8.750000e-03
-6.658750e-10,8.921875e-03
-6.618750e-10,8.312500e-03
-6.578750e-10,8.671875e-03
-6.538750e-10,8.625000e-03
-6.498750e-10,8.546875e-03
-6.458750e-10,7.078125e-03
-6.418750e-10,7.640625e-03
-6.378750e-10,6.625000e-03
-6.338750e-10,7.421875e-03
-6.298750e-10,7.015625e-03
-6.258750e-10,6.578125e-03
-6.218750e-10,5.765625e-03
-6.178750e-10,5.859375e-03
-6.138750e-10,5.171875e-03
-6.098750e-10,5.000000e-03
-6.058750e-10,5.171875e-03
-6.018750e-10,5.093750e-03
-5.978750e-10,4.812500e-03
-5.938750e-10,4.203125e-03
-5.898750e-10,4.000000e-03
-5.858750e-10,4.234375e-03
-5.818750e-10,3.718750e-03
-5.778750e-10,4.187500e-03
-5.738750e-10,4.281250e-03
-5.698750e-10,4.359375e-03
-5.658750e-10,3.062500e-03
-5.618750e-10,3.812500e-03
-5.578750e-10,3.046875e-03
-5.538750e-10,4.093750e-03
-5.498750e-10,3.968750e-03
-5.458750e-10,3.781250e-03
-5.418750e-10,3.250000e-03
-5.378750e-10,3.640625e-03
-5.338750e-10,3.250000e-03
-5.298750e-10,3.359375e-03
-5.258750e-10,3.843750e-03
-5.218750e-10,4.046875e-03
-5.178750e-10,4.046875e-03
-5.138750e-10,3.734375e-03
-5.098750e-10,3.828125e-03
-5.058750e-10,4.343750e-03
-5.018750e-10,4.078125e-03
-4.978750e-10,4.812500e-03
-4.938750e-10,5.109375e-03
-4.898750e-10,5.406250e-03
-4.858750e-10,4.296875e-03
-4.818750e-10,5.171875e-03
-4.778750e-10,4.593750e-03
-4.738750e-10,5.765625e-03
-4.698750e-10,5.781250e-03
-4.658750e-10,5.640625e-03
-4.618750e-10,5.156250e-03
-4.578750e-10,5.593750e-03
-4.538750e-10,5.265625e-03
-4.498750e-10,5.328125e-03
-4.458750e-10,5.796875e-03
-4.418750e-10,5.968750e-03
-4.378750e-10,5.843750e-03
-4.338750e-10,5.453125e-03
-4.298750e-10,5.484375e-03
-4.258750e-10,5.906250e-03
-4.218750e-10,5.484375e-03
-4.178750e-10,6.093750e-03
-4.138750e-10,6.250000e-03
-4.098750e-10,6.390625e-03
-4.058750e-10,5.140625e-03
-4.018750e-10,5.828125e-03
-3.978750e-10,5.078125e-03
-3.938750e-10,6.109375e-03
-3.898750e-10,5.968750e-03
-3.858750e-10,5.671875e-03
-3.818750e-10,5.046875e-03
-3.778750e-10,5.359375e-03
-3.738750e-10,4.953125e-03
-3.698750e-10,4.859375e-03
-3.658750e-10,5.234375e-03
-3.618750e-10,5.328125e-03
-3.578750e-10,5.093750e-03
-3.538750e-10,4.687500e-03
-3.498750e-10,4.703125e-03
-3.458750e-10,5.125000e-03
-3.418750e-10,4.687500e-03
-3.378750e-10,5.296875e-03
-3.338750e-10,5.515625e-03
-3.298750e-10,5.718750e-03
-3.258750e-10,4.578125e-03
-3.218750e-10,5.328125e-03
-3.178750e-10,4.671875e-03
-3.138750e-10,5.828125e-03
-3.098750e-10,5.796875e-03
-3.058750e-10,5.640625e-03
-3.018750e-10,5.203125e-03
-2.978750e-10,5.671875e-03
-2.938750e-10,5.437500e-03
-2.898750e-10,5.500000e-03
-2.858750e-10,6.015625e-03
-2.818750e-10,6.281250e-03
-2.778750e-10,6.187500e-03
-2.738750e-10,5.968750e-03
-2.698750e-10,6.140625e-03
-2.658750e-10,6.687500e-03
-2.618750e-10,6.375000e-03
-2.578750e-10,7.078125e-03
-2.538750e-10,7.437500e-03
-2.498750e-10,7.703125e-03
-2.458750e-10,6.656250e-03
-2.418750e-10,7.437500e-03
-2.378750e-10,6.781250e-03
-2.338750e-10,7.968750e-03
-2.298750e-10,7.890625e-03
-2.258750e-10,7.703125e-03
-2.218750e-10,7.234375e-03
-2.178750e-10,7.625000e-03
-2.138750e-10,7.265625e-03
-2.098750e-10,7.218750e-03
-2.058750e-10,7.562500e-03
-2.018750e-10,7.671875e-03
-1.978750e-10,7.406250e-03
-1.938750e-10,7.015625e-03
-1.898750e-10,6.953125e-03
-1.858750e-10,7.250000e-03
-1.818750e-10,6.750000e-03
-1.778750e-10,7.234375e-03
-1.738750e-10,7.343750e-03
-1.698750e-10,7.406250e-03
-1.658750e-10,6.187500e-03
-1.618750e-10,6.781250e-03
-1.578750e-10,5.906250e-03
-1.538750e-10,6.968750e-03
-1.498750e-10,6.703125e-03
-1.458750e-10,6.437500e-03
-1.418750e-10,5.890625e-03
-1.378750e-10,6.265625e-03
-1.338750e-10,5.890625e-03
-1.298750e-10,5.921875e-03
-1.258750e-10,6.375000e-03
-1.218750e-10,6.656250e-03
-1.178750e-10,6.609375e-03
-1.138750e-10,6.515625e-03
-1.098750e-10,6.781250e-03
-1.058750e-10,7.453125e-03
-1.018750e-10,7.453125e-03
-9.787500e-11,8.500000e-03
-9.387500e-11,9.218750e-03
-8.987500e-11,1.003125e-02
-8.587500e-11,9.625000e-03
-8.187500e-11,1.109375e-02
-7.787500e-11,1.115625e-02
-7.387500e-11,1.328125e-02
-6.987500e-11,1.409375e-02
-6.587500e-11,1.504688e-02
-6.187500e-11,1.578125e-02
-5.787500e-11,1.750000e-02
-5.387500e-11,1.856250e-02
-4.987500e-11,2.009375e-02
-4.587500e-11,2.210938e-02
-4.187500e-11,2.406250e-02
-3.787500e-11,2.568750e-02
-3.387500e-11,2.734375e-02
-2.987500e-11,2.940625e-02
-2.587500e-11,3.189063e-02
-2.187500e-11,3.378125e-02
-1.787500e-11,3.676563e-02
-1.387500e-11,3.942188e-02
-9.875000e-12,4.225000e-02
-5.875000e-12,4.384375e-02
-1.875000e-12,4.732813e-02
2.125000e-12,4.935938e-02
6.125000e-12,5.350000e-02
1.012500e-11,5.625000e-02
1.412500e-11,5.918750e-02
1.812500e-11,6.184375e-02
2.212500e-11,6.543750e-02
2.612500e-11,6.835938e-02
3.012500e-11,7.168750e-02
3.412500e-11,7.543750e-02
3.812500e-11,7.910938e-02
4.212500e-11,8.229688e-02
4.612500e-11,8.546875e-02
5.012500e-11,8.895313e-02
5.412500e-11,9.276563e-02
5.812500e-11,9.592188e-02
6.212500e-11,1.000313e-01
6.612500e-11,1.036875e-01
7.012500e-11,1.074531e-01
7.412500e-11,1.098281e-01
7.812500e-11,1.139844e-01
8.212500e-11,1.165625e-01
8.612500e-11,1.210938e-01
9.012500e-11,1.241094e-01
9.412500e-11,1.272188e-01
9.812500e-11,1.298438e-01
1.021250e-10,1.332813e-01
1.061250e-10,1.359375e-01
1.101250e-10,1.388438e-01
1.141250e-10,1.420469e-01
1.181250e-10,1.450625e-01
1.221250e-10,1.473906e-01
1.261250e-10,1.495781e-01
1.301250e-10,1.519688e-01
1.341250e-10,1.545625e-01
1.381250e-10,1.563906e-01
1.421250e-10,1.590000e-01
1.461250e-10,1.610313e-01
1.501250e-10,1.630938e-01
1.541250e-10,1.636094e-01
1.581250e-10,1.658594e-01
1.621250e-10,1.664063e-01
1.661250e-10,1.687813e-01
1.701250e-10,1.695313e-01
1.741250e-10,1.703438e-01
1.781250e-10,1.705469e-01
1.821250e-10,1.715000e-01
1.861250e-10,1.716406e-01
1.901250e-10,1.719531e-01
1.941250e-10,1.724844e-01
1.981250e-10,1.728281e-01
2.021250e-10,1.724063e-01
2.061250e-10,1.717969e-01
2.101250e-10,1.714063e-01
2.141250e-10,1.711875e-01
2.181250e-10,1.701719e-01
2.221250e-10,1.699375e-01
2.261250e-10,1.691094e-01
2.301250e-10,1.683281e-01
2.341250e-10,1.660000e-01
2.381250e-10,1.654688e-01
2.421250e-10,1.632656e-01
2.461250e-10,1.628438e-01
2.501250e-10,1.608906e-01
2.541250e-10,1.590000e-01
2.581250e-10,1.565781e-01
2.621250e-10,1.549688e-01
2.661250e-10,1.526250e-01
2.701250e-10,1.505000e-01
2.741250e-10,1.486250e-01
2.781250e-10,1.466563e-01
2.821250e-10,1.440000e-01
2.861250e-10,1.412188e-01
2.901250e-10,1.387656e-01
2.941250e-10,1.365781e-01
2.981250e-10,1.336563e-01
3.021250e-10,1.315938e-01
3.061250e-10,1.290625e-01
3.101250e-10,1.266875e-01
3.141250e-10,1.227969e-01
3.181250e-10,1.208750e-01
3.221250e-10,1.173906e-01
3.261250e-10,1.157500e-01
3.301250e-10,1.127031e-01
3.341250e-10,1.097969e-01
3.381250e-10,1.064688e-01
3.421250e-10,1.040781e-01
3.461250e-10,1.010781e-01
3.501250e-10,9.837500e-02
3.541250e-10,9.601563e-02
3.581250e-10,9.365625e-02
3.621250e-10,9.076563e-02
3.661250e-10,8.781250e-02
3.701250e-10,8.528125e-02
3.741250e-10,8.314063e-02
3.781250e-10,8.031250e-02
3.821250e-10,7.843750e-02
3.861250e-10,7.623438e-02
3.901250e-10,7.421875e-02
3.941250e-10,7.079688e-02
3.981250e-10,6.942188e-02
4.021250e-10,6.657813e-02
4.061250e-10,6.562500e-02
4.101250e-10,6.337500e-02
4.141250e-10,6.128125e-02
4.181250e-10,5.884375e-02
4.221250e-10,5.742188e-02
4.261250e-10,5.540625e-02
4.301250e-10,5.376563e-02
4.341250e-10,5.248438e-02
4.381250e-10,5.121875e-02
4.421250e-10,4.953125e-02
4.461250e-10,4.778125e-02
4.501250e-10,4.645313e-02
4.541250e-10,4.556250e-02
4.581250e-10,4.398438e-02
4.621250e-10,4.335938e-02
4.661250e-10,4.243750e-02
4.701250e-10,4.167188e-02
4.741250e-10,3.951563e-02
4.781250e-10,3.940625e-02
4.821250e-10,3.781250e-02
4.861250e-10,3.807813e-02
4.901250e-10,3.709375e-02
4.941250e-10,3.615625e-02
4.981250e-10,3.489063e-02
5.021250e-10,3.460938e-02
5.061250e-10,3.365625e-02
5.101250e-10,3.307813e-02
5.141250e-10,3.281250e-02
5.181250e-10,3.251563e-02
5.221250e-10,3.179688e-02
5.261250e-10,3.095313e-02
5.301250e-10,3.046875e-02
5.341250e-10,3.039063e-02
5.381250e-10,2.954688e-02
5.421250e-10,2.960938e-02
5.461250e-10,2.935938e-02
5.501250e-10,2.914063e-02
5.541250e-10,2.756250e-02
5.581250e-10,2.792188e-02
5.621250e-10,2.679688e-02
5.661250e-10,2.746875e-02
5.701250e-10,2.685938e-02
5.741250e-10,2.620313e-02
5.781250e-10,2.518750e-02
5.821250e-10,2.514063e-02
5.861250e-10,2.432813e-02
5.901250e-10,2.385938e-02
5.941250e-10,2.370313e-02
5.981250e-10,2.346875e-02
6.021250e-10,2.281250e-02
6.061250e-10,2.195313e-02
6.101250e-10,2.150000e-02
6.141250e-10,2.135938e-02
6.181250e-10,2.046875e-02
6.221250e-10,2.045313e-02
6.261250e-10,2.014063e-02
6.301250e-10,1.979688e-02
6.341250e-10,1.812500e-02
6.381250e-10,1.835938e-02
6.421250e-10,1.714063e-02
6.461250e-10,1.773438e-02
6.501250e-10,1.703125e-02
6.541250e-10,1.628125e-02
6.581250e-10,1.518750e-02
6.621250e-10,1.510938e-02
6.661250e-10,1.420313e-02
6.701250e-10,1.367188e-02
6.741250e-10,1.353125e-02
6.781250e-10,1.331250e-02
6.821250e-10,1.268750e-02
6.861250e-10,1.184375e-02
6.901250e-10,1.148438e-02
6.941250e-10,1.142188e-02
6.981250e-10,1.065625e-02
7.021250e-10,1.079688e-02
7.061250e-10,1.068750e-02
7.101250e-10,1.048438e-02
7.141250e-10,9.062500e-03
7.181250e-10,9.500000e-03
7.221250e-10,8.546875e-03
7.261250e-10,9.453125e-03
7.301250e-10,9.046875e-03
7.341250e-10,8.640625e-03
7.381250e-10,7.843750e-03
7.421250e-10,8.125000e-03
7.461250e-10,7.562500e-03
7.501250e-10,7.406250e-03
7.541250e-10,7.671875e-03
7.581250e-10,7.812500e-03
7.621250e-10,7.609375e-03
7.661250e-10,7.140625e-03
7.701250e-10,7.156250e-03
7.741250e-10,7.500000e-03
7.781250e-10,7.125000e-03
7.821250e-10,7.687500e-03
7.861250e-10,7.953125e-03
7.901250e-10,8.093750e-03
7.941250e-10,7.031250e-03
7.981250e-10,7.796875e-03
8.021250e-10,7.140625e-03
8.061250e-10,8.375000e-03
8.101250e-10,8.265625e-03
8.141250e-10,8.156250e-03
8.181250e-10,7.609375e-03
8.221250e-10,8.093750e-03
8.261250e-10,7.750000e-03
8.301250e-10,7.781250e-03
8.341250e-10,8.234375e-03
8.381250e-10,8.468750e-03
8.421250e-10,8.390625e-03
8.461250e-10,8.015625e-03
8.501250e-10,8.078125e-03
8.541250e-10,8.500000e-03
8.581250e-10,8.171875e-03
8.621250e-10,8.765625e-03
8.661250e-10,9.000000e-03
8.701250e-10,9.109375e-03
8.741250e-10,8.031250e-03
8.781250e-10,8.734375e-03
8.821250e-10,7.968750e-03
8.861250e-10,9.156250e-03
8.901250e-10,8.968750e-03
8.941250e-10,8.765625e-03
8.981250e-10,8.125000e-03
9.021250e-10,8.468750e-03
9.061250e-10,8.031250e-03
9.101250e-10,7.984375e-03
9.141250e-10,8.343750e-03
9.181250e-10,8.406250e-03
9.221250e-10,8.234375e-03
9.261250e-10,7.765625e-03
9.301250e-10,7.687500e-03
9.341250e-10,8.078125e-03
9.381250e-10,7.671875e-03
9.421250e-10,8.203125e-03
9.461250e-10,8.359375e-03
9.501250e-10,8.437500e-03
9.541250e-10,7.343750e-03
9.581250e-10,8.015625e-03
9.621250e-10,7.218750e-03
9.661250e-10,8.437500e-03
9.701250e-10,8.265625e-03
9.741250e-10,8.078125e-03
9.781250e-10,7.500000e-03
9.821250e-10,7.890625e-03
9.861250e-10,7.546875e-03
9.901250e-10,7.593750e-03
9.941250e-10,8.062500e-03
9.981250e-10,8.203125e-03
1.002125e-09,8.140625e-03
1.006125e-09,7.812500e-03
1.010125e-09,7.843750e-03
1.014125e-09,8.375000e-03
1.018125e-09,8.109375e-03
1.022125e-09,8.765625e-03
1.026125e-09,9.062500e-03
1.030125e-09,9.296875e-03
1.034125e-09,8.343750e-03
1.038125e-09,9.203125e-03
1.042125e-09,8.515625e-03
1.046125e-09,9.843750e-03
1.050125e-09,9.781250e-03
1.054125e-09,9.703125e-03
1.058125e-09,9.234375e-03
1.062125e-09,9.734375e-03
1.066125e-09,9.468750e-03
1.070125e-09,9.578125e-03
1.074125e-09,1.010938e-02
1.078125e-09,1.031250e-02
1.082125e-09,1.023438e-02
1.086125e-09,9.937500e-03
1.090125e-09,9.953125e-03
1.094125e-09,1.045313e-02
1.098125e-09,1.015625e-02
1.102125e-09,1.075000e-02
1.106125e-09,1.098438e-02
1.110125e-09,1.114063e-02
1.114125e-09,1.009375e-02
1.118125e-09,1.085938e-02
1.122125e-09,1.006250e-02
1.126125e-09,1.121875e-02
1.130125e-09,1.100000e-02
1.134125e-09,1.075000e-02
1.138125e-09,1.009375e-02
1.142125e-09,1.042188e-02
1.146125e-09,9.953125e-03
1.150125e-09,9.875000e-03
1.154125e-09,1.018750e-02
1.158125e-09,1.020313e-02
1.162125e-09,9.906250e-03
1.166125e-09,9.375000e-03
1.170125e-09,9.187500e-03
1.174125e-09,9.468750e-03
1.178125e-09,8.937500e-03
1.182125e-09,9.328125e-03
1.186125e-09,9.359375e-03
1.190125e-09,9.328125e-03
1.194125e-09,8.046875e-03
1.198125e-09,8.656250e-03
1.202125e-09,7.656250e-03
1.206125e-09,8.640625e-03
1.210125e-09,8.250000e-03
1.214125e-09,7.843750e-03
1.218125e-09,7.046875e-03
1.222125e-09,7.250000e-03
1.226125e-09,6.656250e-03
1.230125e-09,6.453125e-03
1.234125e-09,6.671875e-03
1.238125e-09,6.640625e-03
1.242125e-09,6.250000e-03
1.246125e-09,5.656250e-03
1.250125e-09,5.453125e-03
1.254125e-09,5.687500e-03
1.258125e-09,5.109375e-03
1.262125e-09,5.531250e-03
1.266125e-09,5.562500e-03
1.270125e-09,5.578125e-03
1.274125e-09,4.281250e-03
1.278125e-09,4.921875e-03
1.282125e-09,3.968750e-03
1.286125e-09,5.046875e-03
1.290125e-09,4.718750e-03
1.294125e-09,4.390625e-03
1.298125e-09,3.671875e-03
1.302125e-09,3.968750e-03
1.306125e-09,3.468750e-03
1.310125e-09,3.390625e-03
1.314125e-09,3.703125e-03
1.318125e-09,3.812500e-03
1.322125e-09,3.562500e-03
1.326125e-09,3.093750e-03
1.330125e-09,3.031250e-03
1.334125e-09,3.406250e-03
1.338125e-09,2.968750e-03
1.342125e-09,3.546875e-03
1.346125e-09,3.734375e-03
1.350125e-09,3.921875e-03
1.354125e-09,2.750000e-03
1.358125e-09,3.562500e-03
1.362125e-09,2.781250e-03
1.366125e-09,4.015625e-03
1.370125e-09,3.843750e-03
1.374125e-09,3.703125e-03
1.378125e-09,3.156250e-03
1.382125e-09,3.625000e-03
1.386125e-09,3.296875e-03
1.390125e-09,3.390625e-03
1.394125e-09,3.890625e-03
1.398125e-09,4.187500e-03
1.402125e-09,4.109375e-03
1.406125e-09,3.828125e-03
1.410125e-09,3.953125e-03
1.414125e-09,4.484375e-03
1.418125e-09,4.234375e-03
1.422125e-09,4.984375e-03
1.426125e-09,5.359375e-03
1.430125e-09,5.718750e-03
1.434125e-09,4.703125e-03
1.438125e-09,5.687500e-03
1.442125e-09,5.062500e-03
1.446125e-09,6.468750e-03
1.450125e-09,6.453125e-03
1.454125e-09,6.453125e-03
1.458125e-09,6.046875e-03
1.462125e-09,6.640625e-03
1.466125e-09,6.437500e-03
1.470125e-09,6.640625e-03
1.474125e-09,7.250000e-03
1.478125e-09,7.640625e-03
1.482125e-09,7.640625e-03
1.486125e-09,7.421875e-03
1.490125e-09,7.593750e-03
1.494125e-09,8.187500e-03
1.498125e-09,7.953125e-03
1.502125e-09,8.718750e-03
1.506125e-09,9.078125e-03
1.510125e-09,9.421875e-03
1.514125e-09,8.343750e-03
1.518125e-09,9.281250e-03
1.522125e-09,8.593750e-03
1.526125e-09,9.890625e-03
1.530125e-09,9.781250e-03
1.534125e-09,9.640625e-03
1.538125e-09,9.093750e-03
1.542125e-09,9.546875e-03
1.546125e-09,9.156250e-03
1.550125e-09,9.171875e-03
1.554125e-09,9.562500e-03
1.558125e-09,9.750000e-03
1.562125e-09,9.515625e-03
1.566125e-09,9.062500e-03
1.570125e-09,9.000000e-03
1.574125e-09,9.312500e-03
1.578125e-09,8.812500e-03
1.582125e-09,9.312500e-03
1.586125e-09,9.390625e-03
1.590125e-09,9.453125e-03
1.594125e-09,8.109375e-03
1.598125e-09,8.765625e-03
1.602125e-09,7.796875e-03
1.606125e-09,8.843750e-03
1.610125e-09,8.453125e-03
1.614125e-09,8.062500e-03
1.618125e-09,7.281250e-03
1.622125e-09,7.484375e-03
1.626125e-09,6.890625e-03
1.630125e-09,6.703125e-03
1.634125e-09,6.921875e-03
1.638125e-09,6.937500e-03
1.642125e-09,6.562500e-03
1.646125e-09,5.968750e-03
1.650125e-09,5.812500e-03
1.654125e-09,6.046875e-03
1.658125e-09,5.500000e-03
1.662125e-09,5.968750e-03
1.666125e-09,6.031250e-03
1.670125e-09,6.125000e-03
1.674125e-09,4.812500e-03
1.678125e-09,5.531250e-03
1.682125e-09,4.656250e-03
1.686125e-09,5.812500e-03
1.690125e-09,5.562500e-03
1.694125e-09,5.343750e-03
1.698125e-09,4.718750e-03
1.702125e-09,5.125000e-03
1.706125e-09,4.750000e-03
1.710125e-09,4.781250e-03
1.714125e-09,5.250000e-03
1.718125e-09,5.515625e-03
1.722125e-09,5.390625e-03
1.726125e-09,5.078125e-03
1.730125e-09,5.187500e-03
1.734125e-09,5.703125e-03
1.738125e-09,5.437500e-03
1.742125e-09,6.171875e-03
1.746125e-09,6.515625e-03
1.750125e-09,6.859375e-03
1.754125e-09,5.781250e-03
1.758125e-09,6.750000e-03
