Measurements-streak-laser-independent/Photodiode-on-Tek-12bit-4GHz/Tek000_ch1_20190613133014613.csv

Model,MSO64
Waveform Type,ANALOG
Horizontal Units,s
Sample Interval,4.000000e-12
Record Length,1000
Zero Index,310.828125
Vertical Units,V

TIME,CH1
-1.243312e-09,3.718750e-03
-1.239312e-09,2.562500e-03
-1.235312e-09,3.468750e-03
-1.231312e-09,2.765625e-03
-1.227312e-09,4.093750e-03
-1.223312e-09,4.031250e-03
-1.219312e-09,3.984375e-03
-1.215312e-09,3.546875e-03
-1.211312e-09,4.140625e-03
-1.207313e-09,3.921875e-03
-1.203313e-09,4.125000e-03
-1.199313e-09,4.750000e-03
-1.195313e-09,5.171875e-03
-1.191313e-09,5.187500e-03
-1.187312e-09,5.015625e-03
-1.183312e-09,5.250000e-03
-1.179312e-09,5.890625e-03
-1.175312e-09,5.718750e-03
-1.171312e-09,6.546875e-03
-1.167312e-09,6.968750e-03
-1.163312e-09,7.406250e-03
-1.159312e-09,6.390625e-03
-1.155312e-09,7.406250e-03
-1.151312e-09,6.781250e-03
-1.147313e-09,8.171875e-03
-1.143313e-09,8.140625e-03
-1.139313e-09,8.078125e-03
-1.135313e-09,7.609375e-03
-1.131313e-09,8.125000e-03
-1.127312e-09,7.812500e-03
-1.123312e-09,7.890625e-03
-1.119312e-09,8.359375e-03
-1.115312e-09,8.593750e-03
-1.111312e-09,8.406250e-03
-1.107312e-09,8.000000e-03
-1.103312e-09,7.984375e-03
-1.099312e-09,8.343750e-03
-1.095312e-09,7.875000e-03
-1.091312e-09,8.406250e-03
-1.087313e-09,8.515625e-03
-1.083313e-09,8.593750e-03
-1.079313e-09,7.250000e-03
-1.075313e-09,7.921875e-03
-1.071313e-09,6.953125e-03
-1.067313e-09,7.984375e-03
-1.063312e-09,7.593750e-03
-1.059312e-09,7.203125e-03
-1.055312e-09,6.390625e-03
-1.051312e-09,6.593750e-03
-1.047312e-09,5.968750e-03
-1.043312e-09,5.750000e-03
-1.039312e-09,5.937500e-03
-1.035312e-09,5.937500e-03
-1.031312e-09,5.515625e-03
-1.027313e-09,4.906250e-03
-1.023313e-09,4.703125e-03
-1.019313e-09,4.921875e-03
-1.015313e-09,4.328125e-03
-1.011313e-09,4.765625e-03
-1.007313e-09,4.812500e-03
-1.003312e-09,4.859375e-03
-9.993125e-10,3.515625e-03
-9.953125e-10,4.218750e-03
-9.913125e-10,3.312500e-03
-9.873125e-10,4.437500e-03
-9.833125e-10,4.187500e-03
-9.793125e-10,3.953125e-03
-9.753125e-10,3.328125e-03
-9.713125e-10,3.734375e-03
-9.673125e-10,3.359375e-03
-9.633125e-10,3.406250e-03
-9.593125e-10,3.875000e-03
-9.553125e-10,4.171875e-03
-9.513125e-10,4.093750e-03
-9.473125e-10,3.812500e-03
-9.433125e-10,3.953125e-03
-9.393125e-10,4.531250e-03
-9.353125e-10,4.312500e-03
-9.313125e-10,5.109375e-03
-9.273125e-10,5.515625e-03
-9.233125e-10,5.937500e-03
-9.193125e-10,4.968750e-03
-9.153125e-10,6.015625e-03
-9.113125e-10,5.453125e-03
-9.073125e-10,6.875000e-03
-9.033125e-10,6.937500e-03
-8.993125e-10,7.000000e-03
-8.953125e-10,6.656250e-03
-8.913125e-10,7.312500e-03
-8.873125e-10,7.140625e-03
-8.833125e-10,7.390625e-03
-8.793125e-10,8.031250e-03
-8.753125e-10,8.437500e-03
-8.713125e-10,8.453125e-03
-8.673125e-10,8.234375e-03
-8.633125e-10,8.406250e-03
-8.593125e-10,8.968750e-03
-8.553125e-10,8.703125e-03
-8.513125e-10,9.437500e-03
-8.473125e-10,9.734375e-03
-8.433125e-10,1.000000e-02
-8.393125e-10,8.859375e-03
-8.353125e-10,9.703125e-03
-8.313125e-10,8.890625e-03
-8.273125e-10,1.001563e-02
-8.233125e-10,9.796875e-03
-8.193125e-10,9.531250e-03
-8.153125e-10,8.843750e-03
-8.113125e-10,9.125000e-03
-8.073125e-10,8.578125e-03
-8.033125e-10,8.437500e-03
-7.993125e-10,8.656250e-03
-7.953125e-10,8.640625e-03
-7.913125e-10,8.250000e-03
-7.873125e-10,7.593750e-03
-7.833125e-10,7.328125e-03
-7.793125e-10,7.468750e-03
-7.753125e-10,6.781250e-03
-7.713125e-10,7.093750e-03
-7.673125e-10,6.984375e-03
-7.633125e-10,6.875000e-03
-7.593125e-10,5.375000e-03
-7.553125e-10,5.859375e-03
-7.513125e-10,4.750000e-03
-7.473125e-10,5.531250e-03
-7.433125e-10,5.062500e-03
-7.393125e-10,4.562500e-03
-7.353125e-10,3.703125e-03
-7.313125e-10,3.781250e-03
-7.273125e-10,3.078125e-03
-7.233125e-10,2.859375e-03
-7.193125e-10,3.000000e-03
-7.153125e-10,2.937500e-03
-7.113125e-10,2.593750e-03
-7.073125e-10,1.968750e-03
-7.033125e-10,1.781250e-03
-6.993125e-10,2.015625e-03
-6.953125e-10,1.484375e-03
-6.913125e-10,1.968750e-03
-6.873125e-10,2.078125e-03
-6.833125e-10,2.187500e-03
-6.793125e-10,9.687500e-04
-6.753125e-10,1.750000e-03
-6.713125e-10,1.000000e-03
-6.673125e-10,2.109375e-03
-6.633125e-10,2.015625e-03
-6.593125e-10,1.906250e-03
-6.553125e-10,1.437500e-03
-6.513125e-10,1.906250e-03
-6.473125e-10,1.593750e-03
-6.433125e-10,1.812500e-03
-6.393125e-10,2.375000e-03
-6.353125e-10,2.703125e-03
-6.313125e-10,2.812500e-03
-6.273125e-10,2.609375e-03
-6.233125e-10,2.796875e-03
-6.193125e-10,3.406250e-03
-6.153125e-10,3.281250e-03
-6.113125e-10,4.093750e-03
-6.073125e-10,4.546875e-03
-6.033125e-10,4.968750e-03
-5.993125e-10,3.984375e-03
-5.953125e-10,5.031250e-03
-5.913125e-10,4.531250e-03
-5.873125e-10,5.843750e-03
-5.833125e-10,5.937500e-03
-5.793125e-10,5.968750e-03
-5.753125e-10,5.593750e-03
-5.713125e-10,6.140625e-03
-5.673125e-10,5.875000e-03
-5.633125e-10,6.078125e-03
-5.593125e-10,6.625000e-03
-5.553125e-10,6.890625e-03
-5.513125e-10,6.906250e-03
-5.473125e-10,6.578125e-03
-5.433125e-10,6.640625e-03
-5.393125e-10,7.078125e-03
-5.353125e-10,6.750000e-03
-5.313125e-10,7.359375e-03
-5.273125e-10,7.546875e-03
-5.233125e-10,7.687500e-03
-5.193125e-10,6.437500e-03
-5.153125e-10,7.171875e-03
-5.113125e-10,6.390625e-03
-5.073125e-10,7.375000e-03
-5.033125e-10,7.171875e-03
-4.993125e-10,6.843750e-03
-4.953125e-10,6.140625e-03
-4.913125e-10,6.359375e-03
-4.873125e-10,5.796875e-03
-4.833125e-10,5.656250e-03
-4.793125e-10,5.906250e-03
-4.753125e-10,5.875000e-03
-4.713125e-10,5.562500e-03
-4.673125e-10,4.968750e-03
-4.633125e-10,4.812500e-03
-4.593125e-10,5.062500e-03
-4.553125e-10,4.468750e-03
-4.513125e-10,4.937500e-03
-4.473125e-10,4.937500e-03
-4.433125e-10,4.953125e-03
-4.393125e-10,3.609375e-03
-4.353125e-10,4.218750e-03
-4.313125e-10,3.375000e-03
-4.273125e-10,4.343750e-03
-4.233125e-10,4.156250e-03
-4.193125e-10,3.828125e-03
-4.153125e-10,3.187500e-03
-4.113125e-10,3.484375e-03
-4.073125e-10,3.062500e-03
-4.033125e-10,3.000000e-03
-3.993125e-10,3.406250e-03
-3.953125e-10,3.546875e-03
-3.913125e-10,3.375000e-03
-3.873125e-10,3.000000e-03
-3.833125e-10,3.093750e-03
-3.793125e-10,3.578125e-03
-3.753125e-10,3.218750e-03
-3.713125e-10,3.921875e-03
-3.673125e-10,4.218750e-03
-3.633125e-10,4.500000e-03
-3.593125e-10,3.437500e-03
-3.553125e-10,4.265625e-03
-3.513125e-10,3.687500e-03
-3.473125e-10,4.937500e-03
-3.433125e-10,4.968750e-03
-3.393125e-10,4.890625e-03
-3.353125e-10,4.484375e-03
-3.313125e-10,5.015625e-03
-3.273125e-10,4.812500e-03
-3.233125e-10,4.921875e-03
-3.193125e-10,5.484375e-03
-3.153125e-10,5.781250e-03
-3.113125e-10,5.703125e-03
-3.073125e-10,5.468750e-03
-3.033125e-10,5.640625e-03
-2.993125e-10,6.187500e-03
-2.953125e-10,5.859375e-03
-2.913125e-10,6.546875e-03
-2.873125e-10,6.859375e-03
-2.833125e-10,7.109375e-03
-2.793125e-10,6.000000e-03
-2.753125e-10,6.765625e-03
-2.713125e-10,6.062500e-03
-2.673125e-10,7.203125e-03
-2.633125e-10,7.062500e-03
-2.593125e-10,6.843750e-03
-2.553125e-10,6.296875e-03
-2.513125e-10,6.640625e-03
-2.473125e-10,6.234375e-03
-2.433125e-10,6.140625e-03
-2.393125e-10,6.468750e-03
-2.353125e-10,6.546875e-03
-2.313125e-10,6.234375e-03
-2.273125e-10,5.812500e-03
-2.233125e-10,5.718750e-03
-2.193125e-10,6.015625e-03
-2.153125e-10,5.515625e-03
-2.113125e-10,5.968750e-03
-2.073125e-10,6.093750e-03
-2.033125e-10,6.156250e-03
-1.993125e-10,4.906250e-03
-1.953125e-10,5.531250e-03
-1.913125e-10,4.656250e-03
-1.873125e-10,5.734375e-03
-1.833125e-10,5.484375e-03
-1.793125e-10,5.218750e-03
-1.753125e-10,4.671875e-03
-1.713125e-10,5.031250e-03
-1.673125e-10,4.640625e-03
-1.633125e-10,4.640625e-03
-1.593125e-10,5.062500e-03
-1.553125e-10,5.296875e-03
-1.513125e-10,5.171875e-03
-1.473125e-10,4.984375e-03
-1.433125e-10,5.156250e-03
-1.393125e-10,5.718750e-03
-1.353125e-10,5.562500e-03
-1.313125e-10,6.421875e-03
-1.273125e-10,6.937500e-03
-1.233125e-10,7.500000e-03
-1.193125e-10,6.796875e-03
-1.153125e-10,7.984375e-03
-1.113125e-10,7.687500e-03
-1.073125e-10,9.421875e-03
-1.033125e-10,9.828125e-03
-9.931250e-11,1.029688e-02
-9.531250e-11,1.051563e-02
-9.131250e-11,1.168750e-02
-8.731250e-11,1.215625e-02
-8.331250e-11,1.306250e-02
-7.931250e-11,1.439063e-02
-7.531250e-11,1.562500e-02
-7.131250e-11,1.648438e-02
-6.731250e-11,1.734375e-02
-6.331250e-11,1.856250e-02
-5.931250e-11,2.018750e-02
-5.531250e-11,2.117188e-02
-5.131250e-11,2.321875e-02
-4.731250e-11,2.490625e-02
-4.331250e-11,2.673438e-02
-3.931250e-11,2.729688e-02
-3.531250e-11,2.975000e-02
-3.131250e-11,3.073438e-02
-2.731250e-11,3.381250e-02
-2.331250e-11,3.553125e-02
-1.931250e-11,3.737500e-02
-1.531250e-11,3.895313e-02
-1.131250e-11,4.151563e-02
-7.312500e-12,4.339063e-02
-3.312500e-12,4.568750e-02
6.875000e-13,4.845313e-02
4.687500e-12,5.114063e-02
8.687500e-12,5.340625e-02
1.268750e-11,5.565625e-02
1.668750e-11,5.829688e-02
2.068750e-11,6.131250e-02
2.468750e-11,6.368750e-02
2.868750e-11,6.710938e-02
3.268750e-11,7.015625e-02
3.668750e-11,7.332813e-02
4.068750e-11,7.520313e-02
4.468750e-11,7.893750e-02
4.868750e-11,8.117188e-02
5.268750e-11,8.542188e-02
5.668750e-11,8.825000e-02
6.068750e-11,9.125000e-02
6.468750e-11,9.384375e-02
6.868750e-11,9.737500e-02
7.268750e-11,1.001719e-01
7.668750e-11,1.033125e-01
8.068750e-11,1.068438e-01
8.468750e-11,1.102656e-01
8.868750e-11,1.130938e-01
9.268750e-11,1.158594e-01
9.668750e-11,1.189219e-01
1.006875e-10,1.222500e-01
1.046875e-10,1.248750e-01
1.086875e-10,1.283750e-01
1.126875e-10,1.313906e-01
1.166875e-10,1.344688e-01
1.206875e-10,1.360781e-01
1.246875e-10,1.394531e-01
1.286875e-10,1.412031e-01
1.326875e-10,1.448125e-01
1.366875e-10,1.468750e-01
1.406875e-10,1.489844e-01
1.446875e-10,1.505469e-01
1.486875e-10,1.528594e-01
1.526875e-10,1.543750e-01
1.566875e-10,1.560938e-01
1.606875e-10,1.580313e-01
1.646875e-10,1.597813e-01
1.686875e-10,1.607500e-01
1.726875e-10,1.615313e-01
1.766875e-10,1.625000e-01
1.806875e-10,1.636250e-01
1.846875e-10,1.639375e-01
1.886875e-10,1.649844e-01
1.926875e-10,1.654063e-01
1.966875e-10,1.658281e-01
2.006875e-10,1.646406e-01
2.046875e-10,1.652188e-01
2.086875e-10,1.640469e-01
2.126875e-10,1.646406e-01
2.166875e-10,1.636250e-01
2.206875e-10,1.626250e-01
2.246875e-10,1.610000e-01
2.286875e-10,1.601250e-01
2.326875e-10,1.584219e-01
2.366875e-10,1.569063e-01
2.406875e-10,1.555938e-01
2.446875e-10,1.540938e-01
2.486875e-10,1.518438e-01
2.526875e-10,1.494063e-01
2.566875e-10,1.472188e-01
2.606875e-10,1.452500e-01
2.646875e-10,1.425000e-01
2.686875e-10,1.405469e-01
2.726875e-10,1.380469e-01
2.766875e-10,1.356563e-01
2.806875e-10,1.317031e-01
2.846875e-10,1.296719e-01
2.886875e-10,1.260313e-01
2.926875e-10,1.242188e-01
2.966875e-10,1.209531e-01
3.006875e-10,1.177969e-01
3.046875e-10,1.141719e-01
3.086875e-10,1.115000e-01
3.126875e-10,1.081563e-01
3.166875e-10,1.051250e-01
3.206875e-10,1.024219e-01
3.246875e-10,9.970313e-02
3.286875e-10,9.645313e-02
3.326875e-10,9.312500e-02
3.366875e-10,9.023438e-02
3.406875e-10,8.775000e-02
3.446875e-10,8.457813e-02
3.486875e-10,8.237500e-02
3.526875e-10,7.984375e-02
3.566875e-10,7.753125e-02
3.606875e-10,7.381250e-02
3.646875e-10,7.217188e-02
3.686875e-10,6.906250e-02
3.726875e-10,6.787500e-02
3.766875e-10,6.540625e-02
3.806875e-10,6.314063e-02
3.846875e-10,6.051563e-02
3.886875e-10,5.895313e-02
3.926875e-10,5.681250e-02
3.966875e-10,5.504688e-02
4.006875e-10,5.370313e-02
4.046875e-10,5.235938e-02
4.086875e-10,5.062500e-02
4.126875e-10,4.882813e-02
4.166875e-10,4.746875e-02
4.206875e-10,4.657813e-02
4.246875e-10,4.498438e-02
4.286875e-10,4.437500e-02
4.326875e-10,4.346875e-02
4.366875e-10,4.271875e-02
4.406875e-10,4.056250e-02
4.446875e-10,4.048438e-02
4.486875e-10,3.889063e-02
4.526875e-10,3.917188e-02
4.566875e-10,3.817188e-02
4.606875e-10,3.726563e-02
4.646875e-10,3.596875e-02
4.686875e-10,3.565625e-02
4.726875e-10,3.467188e-02
4.766875e-10,3.403125e-02
4.806875e-10,3.371875e-02
4.846875e-10,3.334375e-02
4.886875e-10,3.251563e-02
4.926875e-10,3.154688e-02
4.966875e-10,3.093750e-02
5.006875e-10,3.071875e-02
5.046875e-10,2.970313e-02
5.086875e-10,2.959375e-02
5.126875e-10,2.915625e-02
5.166875e-10,2.873438e-02
5.206875e-10,2.690625e-02
5.246875e-10,2.706250e-02
5.286875e-10,2.567188e-02
5.326875e-10,2.609375e-02
5.366875e-10,2.520313e-02
5.406875e-10,2.429688e-02
5.446875e-10,2.301563e-02
5.486875e-10,2.268750e-02
5.526875e-10,2.160938e-02
5.566875e-10,2.087500e-02
5.606875e-10,2.045313e-02
5.646875e-10,1.995313e-02
5.686875e-10,1.904688e-02
5.726875e-10,1.793750e-02
5.766875e-10,1.725000e-02
5.806875e-10,1.690625e-02
5.846875e-10,1.581250e-02
5.886875e-10,1.560938e-02
5.926875e-10,1.514063e-02
5.966875e-10,1.465625e-02
6.006875e-10,1.285938e-02
6.046875e-10,1.300000e-02
6.086875e-10,1.168750e-02
6.126875e-10,1.223438e-02
6.166875e-10,1.151563e-02
6.206875e-10,1.075000e-02
6.246875e-10,9.687500e-03
6.286875e-10,9.640625e-03
6.326875e-10,8.812500e-03
6.366875e-10,8.390625e-03
6.406875e-10,8.359375e-03
6.446875e-10,8.265625e-03
6.486875e-10,7.812500e-03
6.526875e-10,7.156250e-03
6.566875e-10,6.984375e-03
6.606875e-10,7.140625e-03
6.646875e-10,6.593750e-03
6.686875e-10,6.984375e-03
6.726875e-10,7.109375e-03
6.766875e-10,7.187500e-03
6.806875e-10,6.015625e-03
6.846875e-10,6.734375e-03
6.886875e-10,6.031250e-03
6.926875e-10,7.203125e-03
6.966875e-10,7.078125e-03
7.006875e-10,6.921875e-03
7.046875e-10,6.390625e-03
7.086875e-10,6.906250e-03
7.126875e-10,6.593750e-03
7.166875e-10,6.640625e-03
7.206875e-10,7.109375e-03
7.246875e-10,7.453125e-03
7.286875e-10,7.406250e-03
7.326875e-10,7.109375e-03
7.366875e-10,7.265625e-03
7.406875e-10,7.718750e-03
7.446875e-10,7.437500e-03
7.486875e-10,8.062500e-03
7.526875e-10,8.390625e-03
7.566875e-10,8.562500e-03
7.606875e-10,7.500000e-03
7.646875e-10,8.250000e-03
7.686875e-10,7.562500e-03
7.726875e-10,8.750000e-03
7.766875e-10,8.562500e-03
7.806875e-10,8.343750e-03
7.846875e-10,7.687500e-03
7.886875e-10,8.062500e-03
7.926875e-10,7.562500e-03
7.966875e-10,7.437500e-03
8.006875e-10,7.718750e-03
8.046875e-10,7.812500e-03
8.086875e-10,7.546875e-03
8.126875e-10,7.000000e-03
8.166875e-10,6.890625e-03
8.206875e-10,7.109375e-03
8.246875e-10,6.593750e-03
8.286875e-10,7.015625e-03
8.326875e-10,7.093750e-03
8.366875e-10,7.031250e-03
8.406875e-10,5.796875e-03
8.446875e-10,6.359375e-03
8.486875e-10,5.468750e-03
8.526875e-10,6.546875e-03
8.566875e-10,6.250000e-03
8.606875e-10,5.968750e-03
8.646875e-10,5.250000e-03
8.686875e-10,5.562500e-03
8.726875e-10,5.093750e-03
8.766875e-10,5.031250e-03
8.806875e-10,5.406250e-03
8.846875e-10,5.546875e-03
8.886875e-10,5.421875e-03
8.926875e-10,5.046875e-03
8.966875e-10,5.078125e-03
9.006875e-10,5.578125e-03
9.046875e-10,5.312500e-03
9.086875e-10,6.000000e-03
9.126875e-10,6.359375e-03
9.166875e-10,6.625000e-03
9.206875e-10,5.734375e-03
9.246875e-10,6.640625e-03
9.286875e-10,6.078125e-03
9.326875e-10,7.546875e-03
9.366875e-10,7.625000e-03
9.406875e-10,7.703125e-03
9.446875e-10,7.390625e-03
9.486875e-10,8.062500e-03
9.526875e-10,7.968750e-03
9.566875e-10,8.281250e-03
9.606875e-10,9.031250e-03
9.646875e-10,9.437500e-03
9.686875e-10,9.625000e-03
9.726875e-10,9.546875e-03
9.766875e-10,9.812500e-03
9.806875e-10,1.056250e-02
9.846875e-10,1.051563e-02
9.886875e-10,1.137500e-02
9.926875e-10,1.184375e-02
9.966875e-10,1.225000e-02
1.000688e-09,1.142188e-02
1.004688e-09,1.239063e-02
1.008687e-09,1.181250e-02
1.012687e-09,1.323438e-02
1.016687e-09,1.323438e-02
1.020687e-09,1.320313e-02
1.024687e-09,1.275000e-02
1.028687e-09,1.325000e-02
1.032687e-09,1.295313e-02
1.036687e-09,1.303125e-02
1.040687e-09,1.350000e-02
1.044688e-09,1.362500e-02
1.048688e-09,1.345313e-02
1.052688e-09,1.303125e-02
1.056688e-09,1.293750e-02
1.060688e-09,1.328125e-02
1.064688e-09,1.282813e-02
1.068687e-09,1.326563e-02
1.072687e-09,1.331250e-02
1.076687e-09,1.328125e-02
1.080687e-09,1.203125e-02
1.084687e-09,1.259375e-02
1.088687e-09,1.157813e-02
1.092687e-09,1.253125e-02
1.096687e-09,1.210938e-02
1.100687e-09,1.165625e-02
1.104688e-09,1.081250e-02
1.108688e-09,1.092188e-02
1.112688e-09,1.026563e-02
1.116688e-09,1.000000e-02
1.120688e-09,1.014063e-02
1.124688e-09,9.984375e-03
1.128687e-09,9.531250e-03
1.132687e-09,8.859375e-03
1.136687e-09,8.531250e-03
1.140687e-09,8.687500e-03
1.144687e-09,8.046875e-03
1.148687e-09,8.343750e-03
1.152687e-09,8.296875e-03
1.156687e-09,8.203125e-03
1.160687e-09,6.875000e-03
1.164688e-09,7.453125e-03
1.168688e-09,6.437500e-03
1.172688e-09,7.421875e-03
1.176688e-09,7.046875e-03
1.180688e-09,6.687500e-03
1.184687e-09,5.921875e-03
1.188687e-09,6.187500e-03
1.192687e-09,5.656250e-03
1.196687e-09,5.546875e-03
1.200687e-09,5.843750e-03
1.204687e-09,5.921875e-03
1.208687e-09,5.656250e-03
1.212687e-09,5.187500e-03
1.216687e-09,5.093750e-03
1.220687e-09,5.468750e-03
1.224688e-09,5.031250e-03
1.228688e-09,5.578125e-03
1.232688e-09,5.765625e-03
1.236688e-09,5.921875e-03
1.240688e-09,4.781250e-03
1.244687e-09,5.562500e-03
1.248687e-09,4.750000e-03
1.252687e-09,5.953125e-03
1.256687e-09,5.765625e-03
1.260687e-09,5.562500e-03
1.264687e-09,4.968750e-03
1.268687e-09,5.375000e-03
1.272687e-09,4.984375e-03
1.276687e-09,5.000000e-03
1.280687e-09,5.406250e-03
1.284688e-09,5.578125e-03
1.288688e-09,5.390625e-03
1.292688e-09,4.984375e-03
1.296688e-09,4.968750e-03
1.300688e-09,5.359375e-03
1.304687e-09,4.953125e-03
1.308687e-09,5.531250e-03
1.312687e-09,5.703125e-03
1.316687e-09,5.875000e-03
1.320687e-09,4.687500e-03
1.324687e-09,5.453125e-03
1.328687e-09,4.625000e-03
1.332687e-09,5.781250e-03
1.336687e-09,5.546875e-03
1.340687e-09,5.312500e-03
1.344688e-09,4.671875e-03
1.348688e-09,5.046875e-03
1.352688e-09,4.609375e-03
1.356688e-09,4.578125e-03
1.360688e-09,4.953125e-03
1.364687e-09,5.109375e-03
1.368687e-09,4.890625e-03
1.372687e-09,4.468750e-03
1.376687e-09,4.453125e-03
1.380687e-09,4.843750e-03
1.384687e-09,4.437500e-03
1.388687e-09,5.031250e-03
1.392687e-09,5.250000e-03
1.396687e-09,5.468750e-03
1.400687e-09,4.296875e-03
1.404688e-09,5.140625e-03
1.408688e-09,4.375000e-03
1.412688e-09,5.640625e-03
1.416688e-09,5.500000e-03
1.420688e-09,5.359375e-03
1.424687e-09,4.843750e-03
1.428687e-09,5.343750e-03
1.432687e-09,5.031250e-03
1.436687e-09,5.140625e-03
1.440687e-09,5.671875e-03
1.444687e-09,6.000000e-03
1.448687e-09,5.937500e-03
1.452687e-09,5.687500e-03
1.456687e-09,5.828125e-03
1.460687e-09,6.390625e-03
1.464688e-09,6.156250e-03
1.468688e-09,6.937500e-03
1.472688e-09,7.312500e-03
1.476688e-09,7.703125e-03
1.480688e-09,6.687500e-03
1.484687e-09,7.687500e-03
1.488687e-09,7.062500e-03
1.492687e-09,8.468750e-03
1.496687e-09,8.468750e-03
1.500687e-09,8.453125e-03
1.504687e-09,8.031250e-03
1.508687e-09,8.625000e-03
1.512687e-09,8.406250e-03
1.516687e-09,8.593750e-03
1.520687e-09,9.171875e-03
1.524688e-09,9.531250e-03
1.528688e-09,9.500000e-03
1.532688e-09,9.250000e-03
1.536688e-09,9.390625e-03
1.540688e-09,9.921875e-03
1.544687e-09,9.640625e-03
1.548687e-09,1.037500e-02
1.552687e-09,1.067188e-02
1.556687e-09,1.096875e-02
1.560687e-09,9.828125e-03
1.564687e-09,1.070313e-02
1.568687e-09,9.953125e-03
1.572687e-09,1.120313e-02
1.576687e-09,1.101563e-02
1.580687e-09,1.082813e-02
1.584688e-09,1.021875e-02
1.588688e-09,1.060938e-02
1.592688e-09,1.017188e-02
1.596688e-09,1.012500e-02
1.600688e-09,1.048438e-02
1.604687e-09,1.060938e-02
1.608687e-09,1.032813e-02
1.612687e-09,9.828125e-03
1.616687e-09,9.718750e-03
1.620687e-09,1.001563e-02
1.624687e-09,9.484375e-03
1.628687e-09,9.953125e-03
1.632687e-09,1.001563e-02
1.636687e-09,1.006250e-02
1.640687e-09,8.687500e-03
1.644688e-09,9.328125e-03
1.648688e-09,8.343750e-03
1.652688e-09,9.375000e-03
1.656688e-09,8.984375e-03
1.660688e-09,8.609375e-03
1.664687e-09,7.812500e-03
1.668687e-09,8.031250e-03
1.672687e-09,7.437500e-03
1.676687e-09,7.250000e-03
1.680687e-09,7.468750e-03
1.684687e-09,7.484375e-03
1.688687e-09,7.093750e-03
1.692687e-09,6.515625e-03
1.696687e-09,6.343750e-03
1.700687e-09,6.578125e-03
1.704688e-09,6.015625e-03
1.708688e-09,6.468750e-03
1.712688e-09,6.531250e-03
1.716688e-09,6.593750e-03
1.720688e-09,5.265625e-03
1.724687e-09,5.953125e-03
1.728687e-09,5.031250e-03
1.732687e-09,6.156250e-03
1.736687e-09,5.859375e-03
1.740687e-09,5.578125e-03
1.744687e-09,4.906250e-03
1.748687e-09,5.250000e-03
1.752687e-09,4.812500e-03
1.756687e-09,4.765625e-03
