Measurements-streak-laser-independent/Photodiode-on-Tek-12bit-4GHz/Tek000_ch1_20190613132934597.csv

Model,MSO64
Waveform Type,ANALOG
Horizontal Units,s
Sample Interval,4.000000e-12
Record Length,1000
Zero Index,310.046875
Vertical Units,V

TIME,CH1
-1.240188e-09,6.437500e-03
-1.236187e-09,5.500000e-03
-1.232187e-09,6.578125e-03
-1.228187e-09,6.015625e-03
-1.224187e-09,7.468750e-03
-1.220187e-09,7.484375e-03
-1.216187e-09,7.484375e-03
-1.212187e-09,7.062500e-03
-1.208187e-09,7.625000e-03
-1.204187e-09,7.359375e-03
-1.200187e-09,7.468750e-03
-1.196188e-09,7.968750e-03
-1.192188e-09,8.234375e-03
-1.188188e-09,8.062500e-03
-1.184188e-09,7.671875e-03
-1.180188e-09,7.640625e-03
-1.176187e-09,8.000000e-03
-1.172187e-09,7.531250e-03
-1.168187e-09,8.046875e-03
-1.164187e-09,8.125000e-03
-1.160187e-09,8.171875e-03
-1.156187e-09,6.781250e-03
-1.152187e-09,7.406250e-03
-1.148187e-09,6.390625e-03
-1.144187e-09,7.375000e-03
-1.140187e-09,6.921875e-03
-1.136188e-09,6.453125e-03
-1.132188e-09,5.562500e-03
-1.128188e-09,5.687500e-03
-1.124188e-09,4.984375e-03
-1.120188e-09,4.671875e-03
-1.116187e-09,4.781250e-03
-1.112187e-09,4.671875e-03
-1.108187e-09,4.156250e-03
-1.104187e-09,3.453125e-03
-1.100187e-09,3.140625e-03
-1.096187e-09,3.250000e-03
-1.092187e-09,2.562500e-03
-1.088187e-09,2.906250e-03
-1.084187e-09,2.859375e-03
-1.080187e-09,2.812500e-03
-1.076188e-09,1.375000e-03
-1.072188e-09,1.984375e-03
-1.068188e-09,9.843750e-04
-1.064188e-09,2.046875e-03
-1.060188e-09,1.703125e-03
-1.056188e-09,1.390625e-03
-1.052187e-09,7.031250e-04
-1.048187e-09,1.046875e-03
-1.044187e-09,6.093750e-04
-1.040187e-09,5.937500e-04
-1.036187e-09,1.031250e-03
-1.032187e-09,1.281250e-03
-1.028187e-09,1.156250e-03
-1.024187e-09,8.437500e-04
-1.020187e-09,9.687500e-04
-1.016188e-09,1.531250e-03
-1.012188e-09,1.296875e-03
-1.008188e-09,2.093750e-03
-1.004188e-09,2.515625e-03
-1.000188e-09,2.953125e-03
-9.961875e-10,1.984375e-03
-9.921875e-10,3.062500e-03
-9.881875e-10,2.531250e-03
-9.841875e-10,4.031250e-03
-9.801875e-10,4.125000e-03
-9.761875e-10,4.234375e-03
-9.721875e-10,3.937500e-03
-9.681875e-10,4.656250e-03
-9.641875e-10,4.562500e-03
-9.601875e-10,4.875000e-03
-9.561875e-10,5.593750e-03
-9.521875e-10,6.093750e-03
-9.481875e-10,6.187500e-03
-9.441875e-10,6.078125e-03
-9.401875e-10,6.343750e-03
-9.361875e-10,7.015625e-03
-9.321875e-10,6.859375e-03
-9.281875e-10,7.703125e-03
-9.241875e-10,8.109375e-03
-9.201875e-10,8.500000e-03
-9.161875e-10,7.484375e-03
-9.121875e-10,8.437500e-03
-9.081875e-10,7.765625e-03
-9.041875e-10,9.046875e-03
-9.001875e-10,8.953125e-03
-8.961875e-10,8.812500e-03
-8.921875e-10,8.265625e-03
-8.881875e-10,8.687500e-03
-8.841875e-10,8.281250e-03
-8.801875e-10,8.281250e-03
-8.761875e-10,8.640625e-03
-8.721875e-10,8.781250e-03
-8.681875e-10,8.500000e-03
-8.641875e-10,8.000000e-03
-8.601875e-10,7.875000e-03
-8.561875e-10,8.156250e-03
-8.521875e-10,7.609375e-03
-8.481875e-10,8.062500e-03
-8.441875e-10,8.093750e-03
-8.401875e-10,8.109375e-03
-8.361875e-10,6.734375e-03
-8.321875e-10,7.343750e-03
-8.281875e-10,6.343750e-03
-8.241875e-10,7.281250e-03
-8.201875e-10,6.906250e-03
-8.161875e-10,6.484375e-03
-8.121875e-10,5.703125e-03
-8.081875e-10,5.890625e-03
-8.041875e-10,5.281250e-03
-8.001875e-10,5.109375e-03
-7.961875e-10,5.312500e-03
-7.921875e-10,5.328125e-03
-7.881875e-10,4.984375e-03
-7.841875e-10,4.406250e-03
-7.801875e-10,4.250000e-03
-7.761875e-10,4.500000e-03
-7.721875e-10,3.968750e-03
-7.681875e-10,4.437500e-03
-7.641875e-10,4.531250e-03
-7.601875e-10,4.625000e-03
-7.561875e-10,3.343750e-03
-7.521875e-10,4.093750e-03
-7.481875e-10,3.234375e-03
-7.441875e-10,4.312500e-03
-7.401875e-10,4.109375e-03
-7.361875e-10,3.890625e-03
-7.321875e-10,3.296875e-03
-7.281875e-10,3.671875e-03
-7.241875e-10,3.250000e-03
-7.201875e-10,3.312500e-03
-7.161875e-10,3.718750e-03
-7.121875e-10,3.921875e-03
-7.081875e-10,3.828125e-03
-7.041875e-10,3.453125e-03
-7.001875e-10,3.484375e-03
-6.961875e-10,3.921875e-03
-6.921875e-10,3.593750e-03
-6.881875e-10,4.234375e-03
-6.841875e-10,4.500000e-03
-6.801875e-10,4.734375e-03
-6.761875e-10,3.578125e-03
-6.721875e-10,4.453125e-03
-6.681875e-10,3.734375e-03
-6.641875e-10,4.890625e-03
-6.601875e-10,4.781250e-03
-6.561875e-10,4.625000e-03
-6.521875e-10,4.078125e-03
-6.481875e-10,4.484375e-03
-6.441875e-10,4.062500e-03
-6.401875e-10,4.125000e-03
-6.361875e-10,4.531250e-03
-6.321875e-10,4.687500e-03
-6.281875e-10,4.562500e-03
-6.241875e-10,4.140625e-03
-6.201875e-10,4.093750e-03
-6.161875e-10,4.468750e-03
-6.121875e-10,4.046875e-03
-6.081875e-10,4.609375e-03
-6.041875e-10,4.765625e-03
-6.001875e-10,4.890625e-03
-5.961875e-10,3.609375e-03
-5.921875e-10,4.359375e-03
-5.881875e-10,3.531250e-03
-5.841875e-10,4.593750e-03
-5.801875e-10,4.375000e-03
-5.761875e-10,4.093750e-03
-5.721875e-10,3.437500e-03
-5.681875e-10,3.718750e-03
-5.641875e-10,3.218750e-03
-5.601875e-10,3.171875e-03
-5.561875e-10,3.500000e-03
-5.521875e-10,3.578125e-03
-5.481875e-10,3.359375e-03
-5.441875e-10,2.875000e-03
-5.401875e-10,2.812500e-03
-5.361875e-10,3.156250e-03
-5.321875e-10,2.703125e-03
-5.281875e-10,3.265625e-03
-5.241875e-10,3.406250e-03
-5.201875e-10,3.562500e-03
-5.161875e-10,2.312500e-03
-5.121875e-10,3.078125e-03
-5.081875e-10,2.328125e-03
-5.041875e-10,3.453125e-03
-5.001875e-10,3.328125e-03
-4.961875e-10,3.125000e-03
-4.921875e-10,2.578125e-03
-4.881875e-10,2.984375e-03
-4.841875e-10,2.640625e-03
-4.801875e-10,2.703125e-03
-4.761875e-10,3.187500e-03
-4.721875e-10,3.437500e-03
-4.681875e-10,3.343750e-03
-4.641875e-10,3.046875e-03
-4.601875e-10,3.187500e-03
-4.561875e-10,3.734375e-03
-4.521875e-10,3.453125e-03
-4.481875e-10,4.218750e-03
-4.441875e-10,4.562500e-03
-4.401875e-10,4.906250e-03
-4.361875e-10,3.875000e-03
-4.321875e-10,4.812500e-03
-4.281875e-10,4.265625e-03
-4.241875e-10,5.593750e-03
-4.201875e-10,5.671875e-03
-4.161875e-10,5.640625e-03
-4.121875e-10,5.281250e-03
-4.081875e-10,5.890625e-03
-4.041875e-10,5.734375e-03
-4.001875e-10,5.921875e-03
-3.961875e-10,6.562500e-03
-3.921875e-10,6.953125e-03
-3.881875e-10,6.984375e-03
-3.841875e-10,6.812500e-03
-3.801875e-10,7.078125e-03
-3.761875e-10,7.718750e-03
-3.721875e-10,7.515625e-03
-3.681875e-10,8.328125e-03
-3.641875e-10,8.750000e-03
-3.601875e-10,9.125000e-03
-3.561875e-10,8.140625e-03
-3.521875e-10,9.062500e-03
-3.481875e-10,8.484375e-03
-3.441875e-10,9.796875e-03
-3.401875e-10,9.796875e-03
-3.361875e-10,9.718750e-03
-3.321875e-10,9.281250e-03
-3.281875e-10,9.781250e-03
-3.241875e-10,9.515625e-03
-3.201875e-10,9.562500e-03
-3.161875e-10,1.003125e-02
-3.121875e-10,1.025000e-02
-3.081875e-10,1.006250e-02
-3.041875e-10,9.703125e-03
-3.001875e-10,9.718750e-03
-2.961875e-10,1.009375e-02
-2.921875e-10,9.640625e-03
-2.881875e-10,1.015625e-02
-2.841875e-10,1.029688e-02
-2.801875e-10,1.037500e-02
-2.761875e-10,9.062500e-03
-2.721875e-10,9.671875e-03
-2.681875e-10,8.734375e-03
-2.641875e-10,9.703125e-03
-2.601875e-10,9.328125e-03
-2.561875e-10,8.906250e-03
-2.521875e-10,8.125000e-03
-2.481875e-10,8.250000e-03
-2.441875e-10,7.609375e-03
-2.401875e-10,7.296875e-03
-2.361875e-10,7.406250e-03
-2.321875e-10,7.265625e-03
-2.281875e-10,6.734375e-03
-2.241875e-10,6.062500e-03
-2.201875e-10,5.750000e-03
-2.161875e-10,5.812500e-03
-2.121875e-10,5.078125e-03
-2.081875e-10,5.343750e-03
-2.041875e-10,5.234375e-03
-2.001875e-10,5.093750e-03
-1.961875e-10,3.640625e-03
-1.921875e-10,4.078125e-03
-1.881875e-10,3.000000e-03
-1.841875e-10,3.921875e-03
-1.801875e-10,3.468750e-03
-1.761875e-10,3.046875e-03
-1.721875e-10,2.312500e-03
-1.681875e-10,2.531250e-03
-1.641875e-10,2.000000e-03
-1.601875e-10,1.890625e-03
-1.561875e-10,2.218750e-03
-1.521875e-10,2.359375e-03
-1.481875e-10,2.156250e-03
-1.441875e-10,1.890625e-03
-1.401875e-10,2.000000e-03
-1.361875e-10,2.531250e-03
-1.321875e-10,2.343750e-03
-1.281875e-10,3.218750e-03
-1.241875e-10,3.765625e-03
-1.201875e-10,4.359375e-03
-1.161875e-10,3.687500e-03
-1.121875e-10,4.968750e-03
-1.081875e-10,4.750000e-03
-1.041875e-10,6.625000e-03
-1.001875e-10,7.140625e-03
-9.618750e-11,7.750000e-03
-9.218750e-11,8.093750e-03
-8.818750e-11,9.453125e-03
-8.418750e-11,1.009375e-02
-8.018750e-11,1.120313e-02
-7.618750e-11,1.276563e-02
-7.218750e-11,1.423438e-02
-6.818750e-11,1.532813e-02
-6.418750e-11,1.640625e-02
-6.018750e-11,1.787500e-02
-5.618750e-11,1.976563e-02
-5.218750e-11,2.100000e-02
-4.818750e-11,2.329688e-02
-4.418750e-11,2.525000e-02
-4.018750e-11,2.729688e-02
-3.618750e-11,2.806250e-02
-3.218750e-11,3.076563e-02
-2.818750e-11,3.195313e-02
-2.418750e-11,3.521875e-02
-2.018750e-11,3.709375e-02
-1.618750e-11,3.909375e-02
-1.218750e-11,4.075000e-02
-8.187500e-12,4.339063e-02
-4.187500e-12,4.529688e-02
-1.875000e-13,4.760938e-02
3.812500e-12,5.034375e-02
7.812500e-12,5.295313e-02
1.181250e-11,5.509375e-02
1.581250e-11,5.715625e-02
1.981250e-11,5.956250e-02
2.381250e-11,6.232813e-02
2.781250e-11,6.437500e-02
3.181250e-11,6.739063e-02
3.581250e-11,6.998438e-02
3.981250e-11,7.264063e-02
4.381250e-11,7.389063e-02
4.781250e-11,7.700000e-02
5.181250e-11,7.851563e-02
5.581250e-11,8.201563e-02
5.981250e-11,8.401563e-02
6.381250e-11,8.607813e-02
6.781250e-11,8.768750e-02
7.181250e-11,9.015625e-02
7.581250e-11,9.184375e-02
7.981250e-11,9.382813e-02
8.381250e-11,9.614063e-02
8.781250e-11,9.826563e-02
9.181250e-11,9.978125e-02
9.581250e-11,1.011250e-01
9.981250e-11,1.027500e-01
1.038125e-10,1.046406e-01
1.078125e-10,1.057344e-01
1.118125e-10,1.076875e-01
1.158125e-10,1.091094e-01
1.198125e-10,1.105469e-01
1.238125e-10,1.104844e-01
1.278125e-10,1.122344e-01
1.318125e-10,1.123125e-01
1.358125e-10,1.142656e-01
1.398125e-10,1.146563e-01
1.438125e-10,1.150781e-01
1.478125e-10,1.149531e-01
1.518125e-10,1.156563e-01
1.558125e-10,1.155469e-01
1.598125e-10,1.156719e-01
1.638125e-10,1.160781e-01
1.678125e-10,1.162813e-01
1.718125e-10,1.158125e-01
1.758125e-10,1.151563e-01
1.798125e-10,1.147656e-01
1.838125e-10,1.146250e-01
1.878125e-10,1.136875e-01
1.918125e-10,1.135781e-01
1.958125e-10,1.129375e-01
1.998125e-10,1.123281e-01
2.038125e-10,1.101875e-01
2.078125e-10,1.099375e-01
2.118125e-10,1.080156e-01
2.158125e-10,1.079688e-01
2.198125e-10,1.064063e-01
2.238125e-10,1.048906e-01
2.278125e-10,1.028750e-01
2.318125e-10,1.017500e-01
2.358125e-10,9.984375e-02
2.398125e-10,9.823438e-02
2.438125e-10,9.693750e-02
2.478125e-10,9.550000e-02
2.518125e-10,9.348438e-02
2.558125e-10,9.129688e-02
2.598125e-10,8.948438e-02
2.638125e-10,8.798438e-02
2.678125e-10,8.573438e-02
2.718125e-10,8.440625e-02
2.758125e-10,8.264063e-02
2.798125e-10,8.096875e-02
2.838125e-10,7.784375e-02
2.878125e-10,7.670313e-02
2.918125e-10,7.400000e-02
2.958125e-10,7.320313e-02
2.998125e-10,7.101563e-02
3.038125e-10,6.893750e-02
3.078125e-10,6.643750e-02
3.118125e-10,6.493750e-02
3.158125e-10,6.275000e-02
3.198125e-10,6.092188e-02
3.238125e-10,5.946875e-02
3.278125e-10,5.795313e-02
3.318125e-10,5.596875e-02
3.358125e-10,5.389063e-02
3.398125e-10,5.221875e-02
3.438125e-10,5.098438e-02
3.478125e-10,4.900000e-02
3.518125e-10,4.803125e-02
3.558125e-10,4.668750e-02
3.598125e-10,4.548438e-02
3.638125e-10,4.287500e-02
3.678125e-10,4.232813e-02
3.718125e-10,4.026563e-02
3.758125e-10,4.012500e-02
3.798125e-10,3.867188e-02
3.838125e-10,3.731250e-02
3.878125e-10,3.559375e-02
3.918125e-10,3.487500e-02
3.958125e-10,3.350000e-02
3.998125e-10,3.251563e-02
4.038125e-10,3.190625e-02
4.078125e-10,3.121875e-02
4.118125e-10,3.012500e-02
4.158125e-10,2.890625e-02
4.198125e-10,2.810938e-02
4.238125e-10,2.773438e-02
4.278125e-10,2.659375e-02
4.318125e-10,2.643750e-02
4.358125e-10,2.595313e-02
4.398125e-10,2.553125e-02
4.438125e-10,2.371875e-02
4.478125e-10,2.393750e-02
4.518125e-10,2.260938e-02
4.558125e-10,2.320313e-02
4.598125e-10,2.245313e-02
4.638125e-10,2.175000e-02
4.678125e-10,2.067188e-02
4.718125e-10,2.056250e-02
4.758125e-10,1.975000e-02
4.798125e-10,1.929688e-02
4.838125e-10,1.918750e-02
4.878125e-10,1.896875e-02
4.918125e-10,1.834375e-02
4.958125e-10,1.754688e-02
4.998125e-10,1.714063e-02
5.038125e-10,1.712500e-02
5.078125e-10,1.632813e-02
5.118125e-10,1.646875e-02
5.158125e-10,1.626563e-02
5.198125e-10,1.607813e-02
5.238125e-10,1.450000e-02
5.278125e-10,1.492188e-02
5.318125e-10,1.379688e-02
5.358125e-10,1.456250e-02
5.398125e-10,1.400000e-02
5.438125e-10,1.340625e-02
5.478125e-10,1.246875e-02
5.518125e-10,1.250000e-02
5.558125e-10,1.175000e-02
5.598125e-10,1.139063e-02
5.638125e-10,1.139063e-02
5.678125e-10,1.128125e-02
5.718125e-10,1.076563e-02
5.758125e-10,1.004688e-02
5.798125e-10,9.750000e-03
5.838125e-10,9.812500e-03
5.878125e-10,9.109375e-03
5.918125e-10,9.359375e-03
5.958125e-10,9.281250e-03
5.998125e-10,9.187500e-03
6.038125e-10,7.750000e-03
6.078125e-10,8.265625e-03
6.118125e-10,7.281250e-03
6.158125e-10,8.203125e-03
6.198125e-10,7.781250e-03
6.238125e-10,7.343750e-03
6.278125e-10,6.546875e-03
6.318125e-10,6.781250e-03
6.358125e-10,6.187500e-03
6.398125e-10,5.984375e-03
6.438125e-10,6.187500e-03
6.478125e-10,6.250000e-03
6.518125e-10,5.937500e-03
6.558125e-10,5.406250e-03
6.598125e-10,5.312500e-03
6.638125e-10,5.562500e-03
6.678125e-10,5.062500e-03
6.718125e-10,5.515625e-03
6.758125e-10,5.656250e-03
6.798125e-10,5.718750e-03
6.838125e-10,4.484375e-03
6.878125e-10,5.171875e-03
6.918125e-10,4.375000e-03
6.958125e-10,5.484375e-03
6.998125e-10,5.234375e-03
7.038125e-10,4.984375e-03
7.078125e-10,4.312500e-03
7.118125e-10,4.703125e-03
7.158125e-10,4.234375e-03
7.198125e-10,4.156250e-03
7.238125e-10,4.500000e-03
7.278125e-10,4.671875e-03
7.318125e-10,4.468750e-03
7.358125e-10,4.015625e-03
7.398125e-10,4.015625e-03
7.438125e-10,4.343750e-03
7.478125e-10,3.921875e-03
7.518125e-10,4.468750e-03
7.558125e-10,4.671875e-03
7.598125e-10,4.781250e-03
7.638125e-10,3.625000e-03
7.678125e-10,4.343750e-03
7.718125e-10,3.562500e-03
7.758125e-10,4.750000e-03
7.798125e-10,4.562500e-03
7.838125e-10,4.359375e-03
7.878125e-10,3.750000e-03
7.918125e-10,4.156250e-03
7.958125e-10,3.765625e-03
7.998125e-10,3.750000e-03
8.038125e-10,4.171875e-03
8.078125e-10,4.390625e-03
8.118125e-10,4.265625e-03
8.158125e-10,3.906250e-03
8.198125e-10,3.968750e-03
8.238125e-10,4.437500e-03
8.278125e-10,4.140625e-03
8.318125e-10,4.812500e-03
8.358125e-10,5.125000e-03
8.398125e-10,5.375000e-03
8.438125e-10,4.359375e-03
8.478125e-10,5.234375e-03
8.518125e-10,4.593750e-03
8.558125e-10,5.968750e-03
8.598125e-10,5.968750e-03
8.638125e-10,5.953125e-03
8.678125e-10,5.546875e-03
8.718125e-10,6.140625e-03
8.758125e-10,5.953125e-03
8.798125e-10,6.171875e-03
8.838125e-10,6.812500e-03
8.878125e-10,7.203125e-03
8.918125e-10,7.296875e-03
8.958125e-10,7.156250e-03
8.998125e-10,7.390625e-03
9.038125e-10,8.078125e-03
9.078125e-10,7.984375e-03
9.118125e-10,8.843750e-03
9.158125e-10,9.312500e-03
9.198125e-10,9.734375e-03
9.238125e-10,8.890625e-03
9.278125e-10,9.921875e-03
9.318125e-10,9.390625e-03
9.358125e-10,1.087500e-02
9.398125e-10,1.095313e-02
9.438125e-10,1.101563e-02
9.478125e-10,1.067188e-02
9.518125e-10,1.129688e-02
9.558125e-10,1.112500e-02
9.598125e-10,1.134375e-02
9.638125e-10,1.196875e-02
9.678125e-10,1.228125e-02
9.718125e-10,1.228125e-02
9.758125e-10,1.204688e-02
9.798125e-10,1.214063e-02
9.838125e-10,1.270313e-02
9.878125e-10,1.243750e-02
9.918125e-10,1.309375e-02
9.958125e-10,1.334375e-02
9.998125e-10,1.353125e-02
1.003813e-09,1.245313e-02
1.007813e-09,1.321875e-02
1.011813e-09,1.239063e-02
1.015813e-09,1.356250e-02
1.019812e-09,1.331250e-02
1.023812e-09,1.303125e-02
1.027812e-09,1.234375e-02
1.031812e-09,1.260938e-02
1.035812e-09,1.209375e-02
1.039812e-09,1.195313e-02
1.043812e-09,1.220313e-02
1.047812e-09,1.215625e-02
1.051812e-09,1.178125e-02
1.055813e-09,1.117188e-02
1.059813e-09,1.090625e-02
1.063813e-09,1.109375e-02
1.067813e-09,1.046875e-02
1.071813e-09,1.079688e-02
1.075813e-09,1.073438e-02
1.079812e-09,1.062500e-02
1.083812e-09,9.250000e-03
1.087812e-09,9.750000e-03
1.091812e-09,8.671875e-03
1.095812e-09,9.593750e-03
1.099812e-09,9.140625e-03
1.103812e-09,8.671875e-03
1.107812e-09,7.796875e-03
1.111812e-09,7.953125e-03
1.115813e-09,7.312500e-03
1.119813e-09,7.078125e-03
1.123813e-09,7.265625e-03
1.127813e-09,7.203125e-03
1.131813e-09,6.812500e-03
1.135813e-09,6.218750e-03
1.139812e-09,6.015625e-03
1.143812e-09,6.265625e-03
1.147812e-09,5.734375e-03
1.151812e-09,6.187500e-03
1.155812e-09,6.265625e-03
1.159812e-09,6.343750e-03
1.163812e-09,5.125000e-03
1.167812e-09,5.859375e-03
1.171812e-09,5.000000e-03
1.175813e-09,6.156250e-03
1.179813e-09,5.937500e-03
1.183813e-09,5.750000e-03
1.187813e-09,5.156250e-03
1.191813e-09,5.593750e-03
1.195813e-09,5.250000e-03
1.199812e-09,5.312500e-03
1.203812e-09,5.796875e-03
1.207812e-09,6.062500e-03
1.211812e-09,5.968750e-03
1.215812e-09,5.671875e-03
1.219812e-09,5.781250e-03
1.223812e-09,6.312500e-03
1.227812e-09,6.046875e-03
1.231812e-09,6.781250e-03
1.235813e-09,7.125000e-03
1.239813e-09,7.453125e-03
1.243813e-09,6.421875e-03
1.247813e-09,7.375000e-03
1.251813e-09,6.718750e-03
1.255812e-09,8.062500e-03
1.259812e-09,8.000000e-03
1.263812e-09,7.937500e-03
1.267812e-09,7.468750e-03
1.271812e-09,7.984375e-03
1.275812e-09,7.703125e-03
1.279812e-09,7.812500e-03
1.283812e-09,8.312500e-03
1.287812e-09,8.578125e-03
1.291812e-09,8.453125e-03
1.295813e-09,8.109375e-03
1.299813e-09,8.156250e-03
1.303813e-09,8.593750e-03
1.307813e-09,8.218750e-03
1.311813e-09,8.812500e-03
1.315812e-09,9.000000e-03
1.319812e-09,9.171875e-03
1.323812e-09,7.953125e-03
1.327812e-09,8.703125e-03
1.331812e-09,7.828125e-03
1.335812e-09,8.953125e-03
1.339812e-09,8.656250e-03
1.343812e-09,8.343750e-03
1.347812e-09,7.609375e-03
1.351812e-09,7.875000e-03
1.355813e-09,7.328125e-03
1.359813e-09,7.171875e-03
1.363813e-09,7.406250e-03
1.367813e-09,7.421875e-03
1.371813e-09,7.046875e-03
1.375812e-09,6.453125e-03
1.379812e-09,6.250000e-03
1.383812e-09,6.453125e-03
1.387812e-09,5.843750e-03
1.391812e-09,6.234375e-03
1.395812e-09,6.218750e-03
1.399812e-09,6.218750e-03
1.403812e-09,4.796875e-03
1.407812e-09,5.406250e-03
1.411812e-09,4.406250e-03
1.415813e-09,5.406250e-03
1.419813e-09,5.015625e-03
1.423813e-09,4.625000e-03
1.427813e-09,3.843750e-03
1.431813e-09,4.078125e-03
1.435812e-09,3.531250e-03
1.439812e-09,3.375000e-03
1.443812e-09,3.656250e-03
1.447812e-09,3.734375e-03
1.451812e-09,3.437500e-03
1.455812e-09,2.937500e-03
1.459812e-09,2.859375e-03
1.463812e-09,3.203125e-03
1.467812e-09,2.750000e-03
1.471812e-09,3.328125e-03
1.475813e-09,3.515625e-03
1.479813e-09,3.734375e-03
1.483813e-09,2.546875e-03
1.487813e-09,3.390625e-03
1.491813e-09,2.640625e-03
1.495812e-09,3.921875e-03
1.499812e-09,3.796875e-03
1.503812e-09,3.703125e-03
1.507812e-09,3.203125e-03
1.511812e-09,3.750000e-03
1.515812e-09,3.484375e-03
1.519812e-09,3.640625e-03
1.523812e-09,4.203125e-03
1.527812e-09,4.593750e-03
1.531812e-09,4.578125e-03
1.535813e-09,4.359375e-03
1.539813e-09,4.562500e-03
1.543813e-09,5.171875e-03
1.547813e-09,4.984375e-03
1.551813e-09,5.812500e-03
1.555812e-09,6.234375e-03
1.559812e-09,6.656250e-03
1.563812e-09,5.656250e-03
1.567812e-09,6.687500e-03
1.571812e-09,6.093750e-03
1.575812e-09,7.515625e-03
1.579812e-09,7.515625e-03
1.583812e-09,7.515625e-03
1.587812e-09,7.093750e-03
1.591812e-09,7.687500e-03
1.595813e-09,7.453125e-03
1.599813e-09,7.593750e-03
1.603813e-09,8.156250e-03
1.607813e-09,8.484375e-03
1.611813e-09,8.406250e-03
1.615812e-09,8.093750e-03
1.619812e-09,8.187500e-03
1.623812e-09,8.671875e-03
1.627812e-09,8.312500e-03
1.631812e-09,8.968750e-03
1.635812e-09,9.187500e-03
1.639812e-09,9.390625e-03
1.643812e-09,8.156250e-03
1.647812e-09,8.937500e-03
1.651812e-09,8.078125e-03
1.655813e-09,9.218750e-03
1.659813e-09,8.937500e-03
1.663813e-09,8.625000e-03
1.667813e-09,7.906250e-03
1.671813e-09,8.171875e-03
1.675812e-09,7.625000e-03
1.679812e-09,7.453125e-03
1.683812e-09,7.687500e-03
1.687812e-09,7.703125e-03
1.691812e-09,7.296875e-03
1.695812e-09,6.687500e-03
1.699812e-09,6.468750e-03
1.703812e-09,6.640625e-03
1.707812e-09,6.015625e-03
1.711812e-09,6.375000e-03
1.715813e-09,6.328125e-03
1.719813e-09,6.281250e-03
1.723813e-09,4.828125e-03
1.727813e-09,5.390625e-03
1.731813e-09,4.328125e-03
1.735812e-09,5.312500e-03
1.739812e-09,4.859375e-03
1.743812e-09,4.421875e-03
1.747812e-09,3.593750e-03
1.751812e-09,3.765625e-03
1.755812e-09,3.156250e-03
1.759812e-09,2.953125e-03
