Measurements-streak-laser-independent/Photodiode-on-Tek-12bit-4GHz/Tek000_ch1_20190613132927276.csv

Model,MSO64
Waveform Type,ANALOG
Horizontal Units,s
Sample Interval,4.000000e-12
Record Length,1000
Zero Index,310.265625
Vertical Units,V

TIME,CH1
-1.241063e-09,5.843750e-03
-1.237063e-09,5.875000e-03
-1.233063e-09,6.312500e-03
-1.229063e-09,6.531250e-03
-1.225062e-09,6.328125e-03
-1.221062e-09,5.921875e-03
-1.217062e-09,5.906250e-03
-1.213062e-09,6.296875e-03
-1.209062e-09,5.859375e-03
-1.205062e-09,6.421875e-03
-1.201062e-09,6.562500e-03
-1.197062e-09,6.703125e-03
-1.193062e-09,5.406250e-03
-1.189062e-09,6.125000e-03
-1.185063e-09,5.218750e-03
-1.181063e-09,6.312500e-03
-1.177063e-09,6.000000e-03
-1.173063e-09,5.656250e-03
-1.169063e-09,4.906250e-03
-1.165062e-09,5.171875e-03
-1.161062e-09,4.609375e-03
-1.157062e-09,4.453125e-03
-1.153062e-09,4.687500e-03
-1.149062e-09,4.718750e-03
-1.145062e-09,4.343750e-03
-1.141062e-09,3.765625e-03
-1.137062e-09,3.593750e-03
-1.133062e-09,3.812500e-03
-1.129062e-09,3.234375e-03
-1.125063e-09,3.671875e-03
-1.121063e-09,3.703125e-03
-1.117063e-09,3.750000e-03
-1.113063e-09,2.375000e-03
-1.109063e-09,3.031250e-03
-1.105063e-09,2.078125e-03
-1.101062e-09,3.156250e-03
-1.097062e-09,2.828125e-03
-1.093062e-09,2.515625e-03
-1.089062e-09,1.812500e-03
-1.085062e-09,2.125000e-03
-1.081062e-09,1.640625e-03
-1.077062e-09,1.578125e-03
-1.073062e-09,1.937500e-03
-1.069062e-09,2.109375e-03
-1.065063e-09,1.875000e-03
-1.061063e-09,1.468750e-03
-1.057063e-09,1.468750e-03
-1.053063e-09,1.906250e-03
-1.049063e-09,1.531250e-03
-1.045063e-09,2.171875e-03
-1.041062e-09,2.437500e-03
-1.037062e-09,2.718750e-03
-1.033062e-09,1.578125e-03
-1.029062e-09,2.484375e-03
-1.025062e-09,1.781250e-03
-1.021062e-09,3.093750e-03
-1.017062e-09,3.000000e-03
-1.013062e-09,2.937500e-03
-1.009062e-09,2.453125e-03
-1.005063e-09,3.000000e-03
-1.001063e-09,2.718750e-03
-9.970625e-10,2.859375e-03
-9.930625e-10,3.406250e-03
-9.890625e-10,3.750000e-03
-9.850625e-10,3.687500e-03
-9.810625e-10,3.421875e-03
-9.770625e-10,3.562500e-03
-9.730625e-10,4.093750e-03
-9.690625e-10,3.812500e-03
-9.650625e-10,4.531250e-03
-9.610625e-10,4.843750e-03
-9.570625e-10,5.156250e-03
-9.530625e-10,4.031250e-03
-9.490625e-10,4.937500e-03
-9.450625e-10,4.203125e-03
-9.410625e-10,5.468750e-03
-9.370625e-10,5.312500e-03
-9.330625e-10,5.171875e-03
-9.290625e-10,4.593750e-03
-9.250625e-10,5.031250e-03
-9.210625e-10,4.640625e-03
-9.170625e-10,4.656250e-03
-9.130625e-10,5.062500e-03
-9.090625e-10,5.250000e-03
-9.050625e-10,5.031250e-03
-9.010625e-10,4.593750e-03
-8.970625e-10,4.562500e-03
-8.930625e-10,4.937500e-03
-8.890625e-10,4.484375e-03
-8.850625e-10,5.046875e-03
-8.810625e-10,5.187500e-03
-8.770625e-10,5.343750e-03
-8.730625e-10,4.093750e-03
-8.690625e-10,4.843750e-03
-8.650625e-10,3.968750e-03
-8.610625e-10,5.062500e-03
-8.570625e-10,4.843750e-03
-8.530625e-10,4.593750e-03
-8.490625e-10,3.953125e-03
-8.450625e-10,4.328125e-03
-8.410625e-10,3.890625e-03
-8.370625e-10,3.875000e-03
-8.330625e-10,4.265625e-03
-8.290625e-10,4.468750e-03
-8.250625e-10,4.296875e-03
-8.210625e-10,3.890625e-03
-8.170625e-10,3.921875e-03
-8.130625e-10,4.359375e-03
-8.090625e-10,4.000000e-03
-8.050625e-10,4.656250e-03
-8.010625e-10,4.937500e-03
-7.970625e-10,5.203125e-03
-7.930625e-10,4.125000e-03
-7.890625e-10,5.046875e-03
-7.850625e-10,4.343750e-03
-7.810625e-10,5.562500e-03
-7.770625e-10,5.546875e-03
-7.730625e-10,5.484375e-03
-7.690625e-10,5.078125e-03
-7.650625e-10,5.609375e-03
-7.610625e-10,5.359375e-03
-7.570625e-10,5.578125e-03
-7.530625e-10,6.140625e-03
-7.490625e-10,6.500000e-03
-7.450625e-10,6.546875e-03
-7.410625e-10,6.312500e-03
-7.370625e-10,6.484375e-03
-7.330625e-10,7.046875e-03
-7.290625e-10,6.828125e-03
-7.250625e-10,7.609375e-03
-7.210625e-10,7.984375e-03
-7.170625e-10,8.343750e-03
-7.130625e-10,7.328125e-03
-7.090625e-10,8.296875e-03
-7.050625e-10,7.656250e-03
-7.010625e-10,8.843750e-03
-6.970625e-10,8.828125e-03
-6.930625e-10,8.765625e-03
-6.890625e-10,8.328125e-03
-6.850625e-10,8.781250e-03
-6.810625e-10,8.406250e-03
-6.770625e-10,8.546875e-03
-6.730625e-10,8.984375e-03
-6.690625e-10,9.171875e-03
-6.650625e-10,9.140625e-03
-6.610625e-10,8.718750e-03
-6.570625e-10,8.687500e-03
-6.530625e-10,9.046875e-03
-6.490625e-10,8.640625e-03
-6.450625e-10,9.187500e-03
-6.410625e-10,9.343750e-03
-6.370625e-10,9.437500e-03
-6.330625e-10,8.156250e-03
-6.290625e-10,8.890625e-03
-6.250625e-10,8.062500e-03
-6.210625e-10,8.984375e-03
-6.170625e-10,8.734375e-03
-6.130625e-10,8.437500e-03
-6.090625e-10,7.765625e-03
-6.050625e-10,7.953125e-03
-6.010625e-10,7.359375e-03
-5.970625e-10,7.281250e-03
-5.930625e-10,7.515625e-03
-5.890625e-10,7.484375e-03
-5.850625e-10,7.296875e-03
-5.810625e-10,6.703125e-03
-5.770625e-10,6.515625e-03
-5.730625e-10,6.734375e-03
-5.690625e-10,6.234375e-03
-5.650625e-10,6.656250e-03
-5.610625e-10,6.703125e-03
-5.570625e-10,6.718750e-03
-5.530625e-10,5.343750e-03
-5.490625e-10,6.015625e-03
-5.450625e-10,5.187500e-03
-5.410625e-10,6.078125e-03
-5.370625e-10,5.875000e-03
-5.330625e-10,5.562500e-03
-5.290625e-10,4.890625e-03
-5.250625e-10,5.125000e-03
-5.210625e-10,4.578125e-03
-5.170625e-10,4.531250e-03
-5.130625e-10,4.859375e-03
-5.090625e-10,4.890625e-03
-5.050625e-10,4.734375e-03
-5.010625e-10,4.234375e-03
-4.970625e-10,4.171875e-03
-4.930625e-10,4.500000e-03
-4.890625e-10,4.062500e-03
-4.850625e-10,4.625000e-03
-4.810625e-10,4.734375e-03
-4.770625e-10,4.843750e-03
-4.730625e-10,3.578125e-03
-4.690625e-10,4.296875e-03
-4.650625e-10,3.578125e-03
-4.610625e-10,4.562500e-03
-4.570625e-10,4.453125e-03
-4.530625e-10,4.187500e-03
-4.490625e-10,3.578125e-03
-4.450625e-10,3.875000e-03
-4.410625e-10,3.437500e-03
-4.370625e-10,3.390625e-03
-4.330625e-10,3.781250e-03
-4.290625e-10,3.828125e-03
-4.250625e-10,3.656250e-03
-4.210625e-10,3.187500e-03
-4.170625e-10,3.187500e-03
-4.130625e-10,3.562500e-03
-4.090625e-10,3.093750e-03
-4.050625e-10,3.671875e-03
-4.010625e-10,3.796875e-03
-3.970625e-10,3.921875e-03
-3.930625e-10,2.687500e-03
-3.890625e-10,3.359375e-03
-3.850625e-10,2.656250e-03
-3.810625e-10,3.671875e-03
-3.770625e-10,3.578125e-03
-3.730625e-10,3.312500e-03
-3.690625e-10,2.750000e-03
-3.650625e-10,3.109375e-03
-3.610625e-10,2.750000e-03
-3.570625e-10,2.718750e-03
-3.530625e-10,3.171875e-03
-3.490625e-10,3.312500e-03
-3.450625e-10,3.171875e-03
-3.410625e-10,2.843750e-03
-3.370625e-10,2.968750e-03
-3.330625e-10,3.484375e-03
-3.290625e-10,3.125000e-03
-3.250625e-10,3.828125e-03
-3.210625e-10,4.156250e-03
-3.170625e-10,4.437500e-03
-3.130625e-10,3.421875e-03
-3.090625e-10,4.250000e-03
-3.050625e-10,3.718750e-03
-3.010625e-10,4.968750e-03
-2.970625e-10,5.062500e-03
-2.930625e-10,5.015625e-03
-2.890625e-10,4.703125e-03
-2.850625e-10,5.281250e-03
-2.810625e-10,5.171875e-03
-2.770625e-10,5.328125e-03
-2.730625e-10,5.968750e-03
-2.690625e-10,6.328125e-03
-2.650625e-10,6.343750e-03
-2.610625e-10,6.250000e-03
-2.570625e-10,6.531250e-03
-2.530625e-10,7.187500e-03
-2.490625e-10,6.984375e-03
-2.450625e-10,7.796875e-03
-2.410625e-10,8.250000e-03
-2.370625e-10,8.609375e-03
-2.330625e-10,7.671875e-03
-2.290625e-10,8.531250e-03
-2.250625e-10,7.984375e-03
-2.210625e-10,9.234375e-03
-2.170625e-10,9.250000e-03
-2.130625e-10,9.156250e-03
-2.090625e-10,8.781250e-03
-2.050625e-10,9.234375e-03
-2.010625e-10,8.953125e-03
-1.970625e-10,8.953125e-03
-1.930625e-10,9.375000e-03
-1.890625e-10,9.515625e-03
-1.850625e-10,9.281250e-03
-1.810625e-10,8.968750e-03
-1.770625e-10,8.937500e-03
-1.730625e-10,9.265625e-03
-1.690625e-10,8.796875e-03
-1.650625e-10,9.281250e-03
-1.610625e-10,9.421875e-03
-1.570625e-10,9.500000e-03
-1.530625e-10,8.296875e-03
-1.490625e-10,8.875000e-03
-1.450625e-10,8.000000e-03
-1.410625e-10,9.046875e-03
-1.370625e-10,8.781250e-03
-1.330625e-10,8.500000e-03
-1.290625e-10,7.968750e-03
-1.250625e-10,8.328125e-03
-1.210625e-10,7.953125e-03
-1.170625e-10,7.968750e-03
-1.130625e-10,8.406250e-03
-1.090625e-10,8.671875e-03
-1.050625e-10,8.609375e-03
-1.010625e-10,8.546875e-03
-9.706250e-11,8.828125e-03
-9.306250e-11,9.500000e-03
-8.906250e-11,9.546875e-03
-8.506250e-11,1.062500e-02
-8.106250e-11,1.140625e-02
-7.706250e-11,1.228125e-02
-7.306250e-11,1.200000e-02
-6.906250e-11,1.354688e-02
-6.506250e-11,1.371875e-02
-6.106250e-11,1.596875e-02
-5.706250e-11,1.693750e-02
-5.306250e-11,1.807813e-02
-4.906250e-11,1.904688e-02
-4.506250e-11,2.100000e-02
-4.106250e-11,2.232813e-02
-3.706250e-11,2.415625e-02
-3.306250e-11,2.646875e-02
-2.906250e-11,2.876563e-02
-2.506250e-11,3.073438e-02
-2.106250e-11,3.282813e-02
-1.706250e-11,3.532813e-02
-1.306250e-11,3.825000e-02
-9.062500e-12,4.065625e-02
-5.062500e-12,4.415625e-02
-1.062500e-12,4.737500e-02
2.937500e-12,5.079688e-02
6.937500e-12,5.304688e-02
1.093750e-11,5.714063e-02
1.493750e-11,5.987500e-02
1.893750e-11,6.470313e-02
2.293750e-11,6.818750e-02
2.693750e-11,7.190625e-02
3.093750e-11,7.535938e-02
3.493750e-11,7.978125e-02
3.893750e-11,8.354688e-02
4.293750e-11,8.771875e-02
4.693750e-11,9.234375e-02
5.093750e-11,9.692188e-02
5.493750e-11,1.009844e-01
5.893750e-11,1.051094e-01
6.293750e-11,1.095313e-01
6.693750e-11,1.142500e-01
7.093750e-11,1.183594e-01
7.493750e-11,1.234063e-01
7.893750e-11,1.280156e-01
8.293750e-11,1.327500e-01
8.693750e-11,1.361094e-01
9.093750e-11,1.411875e-01
9.493750e-11,1.446875e-01
9.893750e-11,1.501406e-01
1.029375e-10,1.540313e-01
1.069375e-10,1.580469e-01
1.109375e-10,1.615781e-01
1.149375e-10,1.658438e-01
1.189375e-10,1.693594e-01
1.229375e-10,1.730625e-01
1.269375e-10,1.770469e-01
1.309375e-10,1.808438e-01
1.349375e-10,1.838750e-01
1.389375e-10,1.867813e-01
1.429375e-10,1.898438e-01
1.469375e-10,1.930313e-01
1.509375e-10,1.954688e-01
1.549375e-10,1.986563e-01
1.589375e-10,2.012031e-01
1.629375e-10,2.037813e-01
1.669375e-10,2.047813e-01
1.709375e-10,2.074375e-01
1.749375e-10,2.083906e-01
1.789375e-10,2.110938e-01
1.829375e-10,2.121406e-01
1.869375e-10,2.132500e-01
1.909375e-10,2.137344e-01
1.949375e-10,2.148594e-01
1.989375e-10,2.152031e-01
2.029375e-10,2.156719e-01
2.069375e-10,2.162969e-01
2.109375e-10,2.167656e-01
2.149375e-10,2.163438e-01
2.189375e-10,2.157813e-01
2.229375e-10,2.153750e-01
2.269375e-10,2.151094e-01
2.309375e-10,2.140625e-01
2.349375e-10,2.137188e-01
2.389375e-10,2.127656e-01
2.429375e-10,2.118906e-01
2.469375e-10,2.094375e-01
2.509375e-10,2.087188e-01
2.549375e-10,2.063438e-01
2.589375e-10,2.056875e-01
2.629375e-10,2.034844e-01
2.669375e-10,2.013750e-01
2.709375e-10,1.987031e-01
2.749375e-10,1.967969e-01
2.789375e-10,1.941875e-01
2.829375e-10,1.917656e-01
2.869375e-10,1.895781e-01
2.909375e-10,1.873125e-01
2.949375e-10,1.842813e-01
2.989375e-10,1.811719e-01
3.029375e-10,1.783594e-01
3.069375e-10,1.757813e-01
3.109375e-10,1.725000e-01
3.149375e-10,1.700313e-01
3.189375e-10,1.670781e-01
3.229375e-10,1.643125e-01
3.269375e-10,1.600313e-01
3.309375e-10,1.576563e-01
3.349375e-10,1.537500e-01
3.389375e-10,1.516250e-01
3.429375e-10,1.480938e-01
3.469375e-10,1.447344e-01
3.509375e-10,1.409219e-01
3.549375e-10,1.380313e-01
3.589375e-10,1.345469e-01
3.629375e-10,1.313438e-01
3.669375e-10,1.284375e-01
3.709375e-10,1.255625e-01
3.749375e-10,1.220938e-01
3.789375e-10,1.186094e-01
3.829375e-10,1.155000e-01
3.869375e-10,1.127656e-01
3.909375e-10,1.093594e-01
3.949375e-10,1.068750e-01
3.989375e-10,1.040469e-01
4.029375e-10,1.014531e-01
4.069375e-10,9.740625e-02
4.109375e-10,9.542188e-02
4.149375e-10,9.196875e-02
4.189375e-10,9.032813e-02
4.229375e-10,8.742188e-02
4.269375e-10,8.471875e-02
4.309375e-10,8.162500e-02
4.349375e-10,7.954688e-02
4.389375e-10,7.692188e-02
4.429375e-10,7.464063e-02
4.469375e-10,7.268750e-02
4.509375e-10,7.079688e-02
4.549375e-10,6.846875e-02
4.589375e-10,6.610938e-02
4.629375e-10,6.415625e-02
4.669375e-10,6.265625e-02
4.709375e-10,6.046875e-02
4.749375e-10,5.921875e-02
4.789375e-10,5.771875e-02
4.829375e-10,5.639063e-02
4.869375e-10,5.368750e-02
4.909375e-10,5.304688e-02
4.949375e-10,5.095313e-02
4.989375e-10,5.067188e-02
5.029375e-10,4.918750e-02
5.069375e-10,4.778125e-02
5.109375e-10,4.607813e-02
5.149375e-10,4.532813e-02
5.189375e-10,4.400000e-02
5.229375e-10,4.301563e-02
5.269375e-10,4.232813e-02
5.309375e-10,4.168750e-02
5.349375e-10,4.064063e-02
5.389375e-10,3.946875e-02
5.429375e-10,3.868750e-02
5.469375e-10,3.829688e-02
5.509375e-10,3.720313e-02
5.549375e-10,3.696875e-02
5.589375e-10,3.646875e-02
5.629375e-10,3.603125e-02
5.669375e-10,3.425000e-02
5.709375e-10,3.440625e-02
5.749375e-10,3.312500e-02
5.789375e-10,3.359375e-02
5.829375e-10,3.281250e-02
5.869375e-10,3.200000e-02
5.909375e-10,3.085938e-02
5.949375e-10,3.065625e-02
5.989375e-10,2.971875e-02
6.029375e-10,2.910938e-02
6.069375e-10,2.879688e-02
6.109375e-10,2.845313e-02
6.149375e-10,2.767188e-02
6.189375e-10,2.668750e-02
6.229375e-10,2.610938e-02
6.269375e-10,2.582813e-02
6.309375e-10,2.481250e-02
6.349375e-10,2.462500e-02
6.389375e-10,2.417188e-02
6.429375e-10,2.367188e-02
6.469375e-10,2.185938e-02
6.509375e-10,2.192188e-02
6.549375e-10,2.057813e-02
6.589375e-10,2.096875e-02
6.629375e-10,2.009375e-02
6.669375e-10,1.914063e-02
6.709375e-10,1.785938e-02
6.749375e-10,1.757813e-02
6.789375e-10,1.646875e-02
6.829375e-10,1.571875e-02
6.869375e-10,1.532813e-02
6.909375e-10,1.489063e-02
6.949375e-10,1.406250e-02
6.989375e-10,1.298438e-02
7.029375e-10,1.240625e-02
7.069375e-10,1.207813e-02
7.109375e-10,1.107813e-02
7.149375e-10,1.096875e-02
7.189375e-10,1.062500e-02
7.229375e-10,1.017188e-02
7.269375e-10,8.546875e-03
7.309375e-10,8.734375e-03
7.349375e-10,7.593750e-03
7.389375e-10,8.265625e-03
7.429375e-10,7.671875e-03
7.469375e-10,7.062500e-03
7.509375e-10,6.093750e-03
7.549375e-10,6.203125e-03
7.589375e-10,5.468750e-03
7.629375e-10,5.140625e-03
7.669375e-10,5.250000e-03
7.709375e-10,5.281250e-03
7.749375e-10,4.984375e-03
7.789375e-10,4.437500e-03
7.829375e-10,4.390625e-03
7.869375e-10,4.656250e-03
7.909375e-10,4.250000e-03
7.949375e-10,4.750000e-03
7.989375e-10,5.031250e-03
8.029375e-10,5.140625e-03
8.069375e-10,4.140625e-03
8.109375e-10,4.906250e-03
8.149375e-10,4.328125e-03
8.189375e-10,5.640625e-03
8.229375e-10,5.625000e-03
8.269375e-10,5.609375e-03
8.309375e-10,5.171875e-03
8.349375e-10,5.781250e-03
8.389375e-10,5.562500e-03
8.429375e-10,5.734375e-03
8.469375e-10,6.328125e-03
8.509375e-10,6.718750e-03
8.549375e-10,6.843750e-03
8.589375e-10,6.640625e-03
8.629375e-10,6.875000e-03
8.669375e-10,7.484375e-03
8.709375e-10,7.359375e-03
8.749375e-10,8.125000e-03
8.789375e-10,8.546875e-03
8.829375e-10,8.812500e-03
8.869375e-10,7.968750e-03
8.909375e-10,8.796875e-03
8.949375e-10,8.218750e-03
8.989375e-10,9.578125e-03
9.029375e-10,9.562500e-03
9.069375e-10,9.500000e-03
9.109375e-10,9.000000e-03
9.149375e-10,9.484375e-03
9.189375e-10,9.156250e-03
9.229375e-10,9.218750e-03
9.269375e-10,9.671875e-03
9.309375e-10,9.796875e-03
9.349375e-10,9.718750e-03
9.389375e-10,9.328125e-03
9.429375e-10,9.296875e-03
9.469375e-10,9.703125e-03
9.509375e-10,9.343750e-03
9.549375e-10,9.859375e-03
9.589375e-10,1.001563e-02
9.629375e-10,1.004688e-02
9.669375e-10,8.968750e-03
9.709375e-10,9.578125e-03
9.749375e-10,8.750000e-03
9.789375e-10,9.890625e-03
9.829375e-10,9.656250e-03
9.869375e-10,9.390625e-03
9.909375e-10,8.750000e-03
9.949375e-10,9.031250e-03
9.989375e-10,8.593750e-03
1.002937e-09,8.531250e-03
1.006938e-09,8.906250e-03
1.010938e-09,8.906250e-03
1.014938e-09,8.734375e-03
1.018938e-09,8.312500e-03
1.022938e-09,8.203125e-03
1.026938e-09,8.625000e-03
1.030937e-09,8.281250e-03
1.034937e-09,8.812500e-03
1.038937e-09,8.984375e-03
1.042937e-09,9.093750e-03
1.046937e-09,8.109375e-03
1.050937e-09,8.843750e-03
1.054937e-09,8.093750e-03
1.058937e-09,9.343750e-03
1.062937e-09,9.218750e-03
1.066938e-09,9.093750e-03
1.070938e-09,8.578125e-03
1.074938e-09,9.031250e-03
1.078938e-09,8.750000e-03
1.082938e-09,8.859375e-03
1.086938e-09,9.390625e-03
1.090937e-09,9.562500e-03
1.094937e-09,9.531250e-03
1.098937e-09,9.250000e-03
1.102937e-09,9.296875e-03
1.106937e-09,9.859375e-03
1.110937e-09,9.625000e-03
1.114937e-09,1.028125e-02
1.118937e-09,1.059375e-02
1.122937e-09,1.081250e-02
1.126938e-09,9.906250e-03
1.130938e-09,1.076563e-02
1.134938e-09,1.007813e-02
1.138938e-09,1.134375e-02
1.142938e-09,1.126563e-02
1.146938e-09,1.115625e-02
1.150937e-09,1.064063e-02
1.154937e-09,1.110938e-02
1.158937e-09,1.078125e-02
1.162937e-09,1.085938e-02
1.166937e-09,1.132813e-02
1.170937e-09,1.146875e-02
1.174937e-09,1.132813e-02
1.178937e-09,1.096875e-02
1.182937e-09,1.092188e-02
1.186938e-09,1.134375e-02
1.190938e-09,1.096875e-02
1.194938e-09,1.150000e-02
1.198938e-09,1.167188e-02
1.202938e-09,1.176563e-02
1.206938e-09,1.065625e-02
1.210937e-09,1.137500e-02
1.214937e-09,1.050000e-02
1.218937e-09,1.159375e-02
1.222937e-09,1.131250e-02
1.226937e-09,1.101563e-02
1.230937e-09,1.031250e-02
1.234937e-09,1.059375e-02
1.238937e-09,1.007813e-02
1.242937e-09,9.968750e-03
1.246938e-09,1.023438e-02
1.250938e-09,1.025000e-02
1.254938e-09,9.921875e-03
1.258938e-09,9.375000e-03
1.262938e-09,9.187500e-03
1.266937e-09,9.437500e-03
1.270937e-09,8.890625e-03
1.274937e-09,9.296875e-03
1.278937e-09,9.328125e-03
1.282937e-09,9.328125e-03
1.286937e-09,8.046875e-03
1.290937e-09,8.671875e-03
1.294937e-09,7.687500e-03
1.298937e-09,8.703125e-03
1.302937e-09,8.343750e-03
1.306938e-09,7.968750e-03
1.310938e-09,7.203125e-03
1.314938e-09,7.437500e-03
1.318938e-09,6.890625e-03
1.322938e-09,6.750000e-03
1.326937e-09,7.000000e-03
1.330937e-09,7.031250e-03
1.334937e-09,6.687500e-03
1.338937e-09,6.156250e-03
1.342937e-09,6.015625e-03
1.346937e-09,6.312500e-03
1.350937e-09,5.812500e-03
1.354937e-09,6.281250e-03
1.358937e-09,6.390625e-03
1.362937e-09,6.500000e-03
1.366938e-09,5.265625e-03
1.370938e-09,6.000000e-03
1.374938e-09,5.140625e-03
1.378938e-09,6.296875e-03
1.382938e-09,6.062500e-03
1.386937e-09,5.828125e-03
1.390937e-09,5.218750e-03
1.394937e-09,5.625000e-03
1.398937e-09,5.234375e-03
1.402937e-09,5.265625e-03
1.406937e-09,5.703125e-03
1.410937e-09,5.937500e-03
1.414937e-09,5.796875e-03
1.418937e-09,5.468750e-03
1.422937e-09,5.546875e-03
1.426938e-09,6.046875e-03
1.430938e-09,5.750000e-03
1.434938e-09,6.468750e-03
1.438938e-09,6.796875e-03
1.442938e-09,7.125000e-03
1.446937e-09,6.093750e-03
1.450937e-09,7.046875e-03
1.454937e-09,6.406250e-03
1.458937e-09,7.781250e-03
1.462937e-09,7.750000e-03
1.466937e-09,7.734375e-03
1.470937e-09,7.312500e-03
1.474937e-09,7.906250e-03
1.478937e-09,7.703125e-03
1.482937e-09,7.890625e-03
1.486938e-09,8.484375e-03
1.490938e-09,8.875000e-03
1.494938e-09,8.875000e-03
1.498938e-09,8.656250e-03
1.502938e-09,8.828125e-03
1.506937e-09,9.421875e-03
1.510937e-09,9.187500e-03
1.514937e-09,9.953125e-03
1.518937e-09,1.031250e-02
1.522937e-09,1.064063e-02
1.526937e-09,9.578125e-03
1.530937e-09,1.051563e-02
1.534937e-09,9.812500e-03
1.538937e-09,1.112500e-02
1.542937e-09,1.100000e-02
1.546938e-09,1.085938e-02
1.550938e-09,1.031250e-02
1.554938e-09,1.075000e-02
1.558938e-09,1.035938e-02
1.562938e-09,1.035938e-02
1.566937e-09,1.075000e-02
1.570937e-09,1.092188e-02
1.574937e-09,1.067188e-02
1.578937e-09,1.020313e-02
1.582937e-09,1.010938e-02
1.586937e-09,1.042188e-02
1.590937e-09,9.906250e-03
1.594937e-09,1.037500e-02
1.598937e-09,1.043750e-02
1.602937e-09,1.048438e-02
1.606938e-09,9.125000e-03
1.610938e-09,9.750000e-03
1.614938e-09,8.750000e-03
1.618938e-09,9.765625e-03
1.622938e-09,9.375000e-03
1.626937e-09,8.953125e-03
1.630937e-09,8.140625e-03
1.634937e-09,8.343750e-03
1.638937e-09,7.718750e-03
1.642937e-09,7.500000e-03
1.646937e-09,7.703125e-03
1.650937e-09,7.703125e-03
1.654937e-09,7.296875e-03
1.658937e-09,6.703125e-03
1.662937e-09,6.515625e-03
1.666938e-09,6.734375e-03
1.670938e-09,6.171875e-03
1.674938e-09,6.625000e-03
1.678938e-09,6.687500e-03
1.682938e-09,6.765625e-03
1.686937e-09,5.453125e-03
1.690937e-09,6.171875e-03
1.694937e-09,5.296875e-03
1.698937e-09,6.453125e-03
1.702937e-09,6.203125e-03
1.706937e-09,5.984375e-03
1.710937e-09,5.375000e-03
1.714937e-09,5.796875e-03
1.718937e-09,5.437500e-03
1.722937e-09,5.500000e-03
1.726938e-09,5.968750e-03
1.730938e-09,6.265625e-03
1.734938e-09,6.171875e-03
1.738938e-09,5.890625e-03
1.742938e-09,6.031250e-03
1.746937e-09,6.578125e-03
1.750937e-09,6.343750e-03
1.754937e-09,7.125000e-03
1.758937e-09,7.515625e-03
