Measurements-streak-laser-independent/Photodiode-on-Tek-12bit-4GHz/Tek000_ch1_20190613132923265.csv

Model,MSO64
Waveform Type,ANALOG
Horizontal Units,s
Sample Interval,4.000000e-12
Record Length,1000
Zero Index,310.984375
Vertical Units,V

TIME,CH1
-1.243937e-09,5.687500e-03
-1.239937e-09,4.437500e-03
-1.235938e-09,5.234375e-03
-1.231938e-09,4.406250e-03
-1.227938e-09,5.609375e-03
-1.223938e-09,5.390625e-03
-1.219938e-09,5.187500e-03
-1.215938e-09,4.562500e-03
-1.211937e-09,4.968750e-03
-1.207937e-09,4.578125e-03
-1.203937e-09,4.578125e-03
-1.199937e-09,4.984375e-03
-1.195937e-09,5.203125e-03
-1.191937e-09,5.015625e-03
-1.187937e-09,4.609375e-03
-1.183937e-09,4.625000e-03
-1.179937e-09,5.046875e-03
-1.175938e-09,4.656250e-03
-1.171938e-09,5.281250e-03
-1.167938e-09,5.500000e-03
-1.163938e-09,5.734375e-03
-1.159938e-09,4.531250e-03
-1.155938e-09,5.359375e-03
-1.151937e-09,4.562500e-03
-1.147937e-09,5.812500e-03
-1.143937e-09,5.625000e-03
-1.139937e-09,5.437500e-03
-1.135937e-09,4.859375e-03
-1.131937e-09,5.281250e-03
-1.127937e-09,4.906250e-03
-1.123937e-09,4.921875e-03
-1.119937e-09,5.359375e-03
-1.115938e-09,5.593750e-03
-1.111938e-09,5.421875e-03
-1.107938e-09,5.046875e-03
-1.103938e-09,5.078125e-03
-1.099938e-09,5.515625e-03
-1.095938e-09,5.156250e-03
-1.091937e-09,5.796875e-03
-1.087937e-09,6.046875e-03
-1.083937e-09,6.281250e-03
-1.079937e-09,5.109375e-03
-1.075937e-09,5.968750e-03
-1.071937e-09,5.203125e-03
-1.067937e-09,6.468750e-03
-1.063937e-09,6.312500e-03
-1.059937e-09,6.156250e-03
-1.055938e-09,5.593750e-03
-1.051938e-09,6.046875e-03
-1.047938e-09,5.687500e-03
-1.043938e-09,5.734375e-03
-1.039938e-09,6.171875e-03
-1.035938e-09,6.421875e-03
-1.031937e-09,6.250000e-03
-1.027937e-09,5.875000e-03
-1.023937e-09,5.906250e-03
-1.019937e-09,6.328125e-03
-1.015937e-09,5.937500e-03
-1.011937e-09,6.562500e-03
-1.007937e-09,6.765625e-03
-1.003937e-09,6.968750e-03
-9.999375e-10,5.734375e-03
-9.959375e-10,6.531250e-03
-9.919375e-10,5.687500e-03
-9.879375e-10,6.859375e-03
-9.839375e-10,6.609375e-03
-9.799375e-10,6.359375e-03
-9.759375e-10,5.687500e-03
-9.719375e-10,6.015625e-03
-9.679375e-10,5.531250e-03
-9.639375e-10,5.437500e-03
-9.599375e-10,5.750000e-03
-9.559375e-10,5.843750e-03
-9.519375e-10,5.531250e-03
-9.479375e-10,4.984375e-03
-9.439375e-10,4.859375e-03
-9.399375e-10,5.125000e-03
-9.359375e-10,4.578125e-03
-9.319375e-10,5.031250e-03
-9.279375e-10,5.078125e-03
-9.239375e-10,5.125000e-03
-9.199375e-10,3.750000e-03
-9.159375e-10,4.390625e-03
-9.119375e-10,3.421875e-03
-9.079375e-10,4.437500e-03
-9.039375e-10,4.078125e-03
-8.999375e-10,3.703125e-03
-8.959375e-10,2.953125e-03
-8.919375e-10,3.203125e-03
-8.879375e-10,2.640625e-03
-8.839375e-10,2.515625e-03
-8.799375e-10,2.781250e-03
-8.759375e-10,2.859375e-03
-8.719375e-10,2.546875e-03
-8.679375e-10,2.031250e-03
-8.639375e-10,1.937500e-03
-8.599375e-10,2.250000e-03
-8.559375e-10,1.781250e-03
-8.519375e-10,2.328125e-03
-8.479375e-10,2.484375e-03
-8.439375e-10,2.656250e-03
-8.399375e-10,1.453125e-03
-8.359375e-10,2.250000e-03
-8.319375e-10,1.453125e-03
-8.279375e-10,2.625000e-03
-8.239375e-10,2.484375e-03
-8.199375e-10,2.328125e-03
-8.159375e-10,1.812500e-03
-8.119375e-10,2.281250e-03
-8.079375e-10,1.953125e-03
-8.039375e-10,2.078125e-03
-7.999375e-10,2.578125e-03
-7.959375e-10,2.875000e-03
-7.919375e-10,2.828125e-03
-7.879375e-10,2.546875e-03
-7.839375e-10,2.656250e-03
-7.799375e-10,3.187500e-03
-7.759375e-10,2.921875e-03
-7.719375e-10,3.656250e-03
-7.679375e-10,4.000000e-03
-7.639375e-10,4.328125e-03
-7.599375e-10,3.265625e-03
-7.559375e-10,4.203125e-03
-7.519375e-10,3.515625e-03
-7.479375e-10,4.750000e-03
-7.439375e-10,4.687500e-03
-7.399375e-10,4.593750e-03
-7.359375e-10,4.109375e-03
-7.319375e-10,4.562500e-03
-7.279375e-10,4.187500e-03
-7.239375e-10,4.281250e-03
-7.199375e-10,4.703125e-03
-7.159375e-10,4.906250e-03
-7.119375e-10,4.796875e-03
-7.079375e-10,4.375000e-03
-7.039375e-10,4.328125e-03
-6.999375e-10,4.687500e-03
-6.959375e-10,4.265625e-03
-6.919375e-10,4.796875e-03
-6.879375e-10,4.937500e-03
-6.839375e-10,5.046875e-03
-6.799375e-10,3.750000e-03
-6.759375e-10,4.468750e-03
-6.719375e-10,3.593750e-03
-6.679375e-10,4.593750e-03
-6.639375e-10,4.328125e-03
-6.599375e-10,4.015625e-03
-6.559375e-10,3.328125e-03
-6.519375e-10,3.562500e-03
-6.479375e-10,3.000000e-03
-6.439375e-10,2.937500e-03
-6.399375e-10,3.203125e-03
-6.359375e-10,3.250000e-03
-6.319375e-10,3.046875e-03
-6.279375e-10,2.531250e-03
-6.239375e-10,2.421875e-03
-6.199375e-10,2.734375e-03
-6.159375e-10,2.296875e-03
-6.119375e-10,2.843750e-03
-6.079375e-10,3.000000e-03
-6.039375e-10,3.156250e-03
-5.999375e-10,1.937500e-03
-5.959375e-10,2.750000e-03
-5.919375e-10,2.046875e-03
-5.879375e-10,3.203125e-03
-5.839375e-10,3.125000e-03
-5.799375e-10,3.015625e-03
-5.759375e-10,2.546875e-03
-5.719375e-10,3.031250e-03
-5.679375e-10,2.718750e-03
-5.639375e-10,2.906250e-03
-5.599375e-10,3.500000e-03
-5.559375e-10,3.812500e-03
-5.519375e-10,3.890625e-03
-5.479375e-10,3.687500e-03
-5.439375e-10,3.890625e-03
-5.399375e-10,4.531250e-03
-5.359375e-10,4.375000e-03
-5.319375e-10,5.218750e-03
-5.279375e-10,5.640625e-03
-5.239375e-10,6.062500e-03
-5.199375e-10,5.078125e-03
-5.159375e-10,6.109375e-03
-5.119375e-10,5.609375e-03
-5.079375e-10,6.937500e-03
-5.039375e-10,7.046875e-03
-4.999375e-10,7.031250e-03
-4.959375e-10,6.640625e-03
-4.919375e-10,7.187500e-03
-4.879375e-10,6.937500e-03
-4.839375e-10,7.078125e-03
-4.799375e-10,7.625000e-03
-4.759375e-10,7.859375e-03
-4.719375e-10,7.781250e-03
-4.679375e-10,7.406250e-03
-4.639375e-10,7.453125e-03
-4.599375e-10,7.875000e-03
-4.559375e-10,7.437500e-03
-4.519375e-10,8.000000e-03
-4.479375e-10,8.109375e-03
-4.439375e-10,8.171875e-03
-4.399375e-10,6.828125e-03
-4.359375e-10,7.421875e-03
-4.319375e-10,6.500000e-03
-4.279375e-10,7.406250e-03
-4.239375e-10,7.046875e-03
-4.199375e-10,6.562500e-03
-4.159375e-10,5.703125e-03
-4.119375e-10,5.781250e-03
-4.079375e-10,5.093750e-03
-4.039375e-10,4.718750e-03
-3.999375e-10,4.796875e-03
-3.959375e-10,4.593750e-03
-3.919375e-10,4.031250e-03
-3.879375e-10,3.265625e-03
-3.839375e-10,2.921875e-03
-3.799375e-10,2.984375e-03
-3.759375e-10,2.171875e-03
-3.719375e-10,2.406250e-03
-3.679375e-10,2.250000e-03
-3.639375e-10,2.062500e-03
-3.599375e-10,5.312500e-04
-3.559375e-10,9.218750e-04
-3.519375e-10,-1.250000e-04
-3.479375e-10,7.031250e-04
-3.439375e-10,2.812500e-04
-3.399375e-10,-2.031250e-04
-3.359375e-10,-1.000000e-03
-3.319375e-10,-8.281250e-04
-3.279375e-10,-1.390625e-03
-3.239375e-10,-1.593750e-03
-3.199375e-10,-1.312500e-03
-3.159375e-10,-1.281250e-03
-3.119375e-10,-1.562500e-03
-3.079375e-10,-1.984375e-03
-3.039375e-10,-1.984375e-03
-2.999375e-10,-1.562500e-03
-2.959375e-10,-1.953125e-03
-2.919375e-10,-1.312500e-03
-2.879375e-10,-1.000000e-03
-2.839375e-10,-7.187500e-04
-2.799375e-10,-1.765625e-03
-2.759375e-10,-8.906250e-04
-2.719375e-10,-1.468750e-03
-2.679375e-10,-1.406250e-04
-2.639375e-10,-9.375000e-05
-2.599375e-10,-9.375000e-05
-2.559375e-10,-3.906250e-04
-2.519375e-10,2.343750e-04
-2.479375e-10,1.093750e-04
-2.439375e-10,3.281250e-04
-2.399375e-10,9.843750e-04
-2.359375e-10,1.406250e-03
-2.319375e-10,1.437500e-03
-2.279375e-10,1.359375e-03
-2.239375e-10,1.625000e-03
-2.199375e-10,2.265625e-03
-2.159375e-10,2.109375e-03
-2.119375e-10,2.921875e-03
-2.079375e-10,3.375000e-03
-2.039375e-10,3.781250e-03
-1.999375e-10,2.828125e-03
-1.959375e-10,3.765625e-03
-1.919375e-10,3.156250e-03
-1.879375e-10,4.500000e-03
-1.839375e-10,4.484375e-03
-1.799375e-10,4.437500e-03
-1.759375e-10,4.062500e-03
-1.719375e-10,4.593750e-03
-1.679375e-10,4.343750e-03
-1.639375e-10,4.468750e-03
-1.599375e-10,4.984375e-03
-1.559375e-10,5.296875e-03
-1.519375e-10,5.203125e-03
-1.479375e-10,5.031250e-03
-1.439375e-10,5.187500e-03
-1.399375e-10,5.718750e-03
-1.359375e-10,5.515625e-03
-1.319375e-10,6.312500e-03
-1.279375e-10,6.750000e-03
-1.239375e-10,7.218750e-03
-1.199375e-10,6.406250e-03
-1.159375e-10,7.468750e-03
-1.119375e-10,7.046875e-03
-1.079375e-10,8.656250e-03
-1.039375e-10,8.921875e-03
-9.993750e-11,9.265625e-03
-9.593750e-11,9.328125e-03
-9.193750e-11,1.037500e-02
-8.793750e-11,1.071875e-02
-8.393750e-11,1.150000e-02
-7.993750e-11,1.275000e-02
-7.593750e-11,1.389063e-02
-7.193750e-11,1.467188e-02
-6.793750e-11,1.545313e-02
-6.393750e-11,1.664063e-02
-5.993750e-11,1.825000e-02
-5.593750e-11,1.921875e-02
-5.193750e-11,2.128125e-02
-4.793750e-11,2.301563e-02
-4.393750e-11,2.487500e-02
-3.993750e-11,2.550000e-02
-3.593750e-11,2.806250e-02
-3.193750e-11,2.914063e-02
-2.793750e-11,3.234375e-02
-2.393750e-11,3.418750e-02
-1.993750e-11,3.620313e-02
-1.593750e-11,3.792188e-02
-1.193750e-11,4.064063e-02
-7.937500e-12,4.267188e-02
-3.937500e-12,4.515625e-02
6.250000e-14,4.809375e-02
4.062500e-12,5.095313e-02
8.062500e-12,5.337500e-02
1.206250e-11,5.578125e-02
1.606250e-11,5.854688e-02
2.006250e-11,6.168750e-02
2.406250e-11,6.417188e-02
2.806250e-11,6.767188e-02
3.206250e-11,7.076563e-02
3.606250e-11,7.395313e-02
4.006250e-11,7.578125e-02
4.406250e-11,7.946875e-02
4.806250e-11,8.159375e-02
5.206250e-11,8.573438e-02
5.606250e-11,8.839063e-02
6.006250e-11,9.114063e-02
6.406250e-11,9.343750e-02
6.806250e-11,9.662500e-02
7.206250e-11,9.903125e-02
7.606250e-11,1.017344e-01
8.006250e-11,1.047813e-01
8.406250e-11,1.076563e-01
8.806250e-11,1.099063e-01
9.206250e-11,1.120000e-01
9.606250e-11,1.143594e-01
1.000625e-10,1.169531e-01
1.040625e-10,1.187813e-01
1.080625e-10,1.214375e-01
1.120625e-10,1.235781e-01
1.160625e-10,1.257031e-01
1.200625e-10,1.263125e-01
1.240625e-10,1.287188e-01
1.280625e-10,1.294375e-01
1.320625e-10,1.320156e-01
1.360625e-10,1.330000e-01
1.400625e-10,1.340156e-01
1.440625e-10,1.344531e-01
1.480625e-10,1.356875e-01
1.520625e-10,1.360781e-01
1.560625e-10,1.367031e-01
1.600625e-10,1.375625e-01
1.640625e-10,1.382188e-01
1.680625e-10,1.381563e-01
1.720625e-10,1.378906e-01
1.760625e-10,1.378594e-01
1.800625e-10,1.380469e-01
1.840625e-10,1.374219e-01
1.880625e-10,1.375938e-01
1.920625e-10,1.372031e-01
1.960625e-10,1.368438e-01
2.000625e-10,1.349219e-01
2.040625e-10,1.348281e-01
2.080625e-10,1.330625e-01
2.120625e-10,1.331406e-01
2.160625e-10,1.316719e-01
2.200625e-10,1.302344e-01
2.240625e-10,1.282813e-01
2.280625e-10,1.271563e-01
2.320625e-10,1.252813e-01
2.360625e-10,1.236406e-01
2.400625e-10,1.222813e-01
2.440625e-10,1.207969e-01
2.480625e-10,1.186406e-01
2.520625e-10,1.163594e-01
2.560625e-10,1.143906e-01
2.600625e-10,1.127188e-01
2.640625e-10,1.102813e-01
2.680625e-10,1.087344e-01
2.720625e-10,1.067031e-01
2.760625e-10,1.047813e-01
2.800625e-10,1.013750e-01
2.840625e-10,9.992188e-02
2.880625e-10,9.687500e-02
2.920625e-10,9.571875e-02
2.960625e-10,9.314063e-02
3.000625e-10,9.067188e-02
3.040625e-10,8.776563e-02
3.080625e-10,8.581250e-02
3.120625e-10,8.318750e-02
3.160625e-10,8.089063e-02
3.200625e-10,7.895313e-02
3.240625e-10,7.693750e-02
3.280625e-10,7.442188e-02
3.320625e-10,7.181250e-02
3.360625e-10,6.960938e-02
3.400625e-10,6.779688e-02
3.440625e-10,6.526563e-02
3.480625e-10,6.371875e-02
3.520625e-10,6.179688e-02
3.560625e-10,6.004688e-02
3.600625e-10,5.684375e-02
3.640625e-10,5.573438e-02
3.680625e-10,5.309375e-02
3.720625e-10,5.237500e-02
3.760625e-10,5.032813e-02
3.800625e-10,4.842188e-02
3.840625e-10,4.614063e-02
3.880625e-10,4.490625e-02
3.920625e-10,4.301563e-02
3.960625e-10,4.151563e-02
4.000625e-10,4.040625e-02
4.040625e-10,3.925000e-02
4.080625e-10,3.770313e-02
4.120625e-10,3.606250e-02
4.160625e-10,3.484375e-02
4.200625e-10,3.406250e-02
4.240625e-10,3.257813e-02
4.280625e-10,3.207813e-02
4.320625e-10,3.128125e-02
4.360625e-10,3.059375e-02
4.400625e-10,2.851563e-02
4.440625e-10,2.853125e-02
4.480625e-10,2.701563e-02
4.520625e-10,2.740625e-02
4.560625e-10,2.651563e-02
4.600625e-10,2.570313e-02
4.640625e-10,2.453125e-02
4.680625e-10,2.437500e-02
4.720625e-10,2.351563e-02
4.760625e-10,2.306250e-02
4.800625e-10,2.293750e-02
4.840625e-10,2.276563e-02
4.880625e-10,2.218750e-02
4.920625e-10,2.146875e-02
4.960625e-10,2.112500e-02
5.000625e-10,2.118750e-02
5.040625e-10,2.050000e-02
5.080625e-10,2.071875e-02
5.120625e-10,2.064063e-02
5.160625e-10,2.057813e-02
5.200625e-10,1.912500e-02
5.240625e-10,1.965625e-02
5.280625e-10,1.865625e-02
5.320625e-10,1.951563e-02
5.360625e-10,1.904688e-02
5.400625e-10,1.854688e-02
5.440625e-10,1.767188e-02
5.480625e-10,1.776563e-02
5.520625e-10,1.707813e-02
5.560625e-10,1.675000e-02
5.600625e-10,1.673438e-02
5.640625e-10,1.662500e-02
5.680625e-10,1.607813e-02
5.720625e-10,1.531250e-02
5.760625e-10,1.493750e-02
5.800625e-10,1.489063e-02
5.840625e-10,1.407813e-02
5.880625e-10,1.415625e-02
5.920625e-10,1.390625e-02
5.960625e-10,1.362500e-02
6.000625e-10,1.196875e-02
6.040625e-10,1.225000e-02
6.080625e-10,1.103125e-02
6.120625e-10,1.167188e-02
6.160625e-10,1.096875e-02
6.200625e-10,1.023438e-02
6.240625e-10,9.125000e-03
6.280625e-10,9.031250e-03
6.320625e-10,8.109375e-03
6.360625e-10,7.578125e-03
6.400625e-10,7.421875e-03
6.440625e-10,7.171875e-03
6.480625e-10,6.531250e-03
6.520625e-10,5.656250e-03
6.560625e-10,5.265625e-03
6.600625e-10,5.203125e-03
6.640625e-10,4.406250e-03
6.680625e-10,4.578125e-03
6.720625e-10,4.453125e-03
6.760625e-10,4.281250e-03
6.800625e-10,2.843750e-03
6.840625e-10,3.328125e-03
6.880625e-10,2.390625e-03
6.920625e-10,3.375000e-03
6.960625e-10,3.031250e-03
7.000625e-10,2.703125e-03
7.040625e-10,2.000000e-03
7.080625e-10,2.390625e-03
7.120625e-10,1.968750e-03
7.160625e-10,1.953125e-03
7.200625e-10,2.390625e-03
7.240625e-10,2.703125e-03
7.280625e-10,2.687500e-03
7.320625e-10,2.437500e-03
7.360625e-10,2.687500e-03
7.400625e-10,3.281250e-03
7.440625e-10,3.156250e-03
7.480625e-10,4.000000e-03
7.520625e-10,4.562500e-03
7.560625e-10,5.031250e-03
7.600625e-10,4.250000e-03
7.640625e-10,5.359375e-03
7.680625e-10,5.015625e-03
7.720625e-10,6.609375e-03
7.760625e-10,6.843750e-03
7.800625e-10,7.078125e-03
7.840625e-10,6.875000e-03
7.880625e-10,7.718750e-03
7.920625e-10,7.718750e-03
7.960625e-10,8.109375e-03
8.000625e-10,8.906250e-03
8.040625e-10,9.484375e-03
8.080625e-10,9.703125e-03
8.120625e-10,9.640625e-03
8.160625e-10,1.000000e-02
8.200625e-10,1.070313e-02
8.240625e-10,1.062500e-02
8.280625e-10,1.145313e-02
8.320625e-10,1.190625e-02
8.360625e-10,1.223438e-02
8.400625e-10,1.128125e-02
8.440625e-10,1.214063e-02
8.480625e-10,1.146875e-02
8.520625e-10,1.273438e-02
8.560625e-10,1.259375e-02
8.600625e-10,1.239063e-02
8.640625e-10,1.173438e-02
8.680625e-10,1.203125e-02
8.720625e-10,1.150000e-02
8.760625e-10,1.132813e-02
8.800625e-10,1.154688e-02
8.840625e-10,1.145313e-02
8.880625e-10,1.104688e-02
8.920625e-10,1.032813e-02
8.960625e-10,9.984375e-03
9.000625e-10,1.006250e-02
9.040625e-10,9.328125e-03
9.080625e-10,9.500000e-03
9.120625e-10,9.265625e-03
9.160625e-10,8.968750e-03
9.200625e-10,7.406250e-03
9.240625e-10,7.656250e-03
9.280625e-10,6.390625e-03
9.320625e-10,7.125000e-03
9.360625e-10,6.468750e-03
9.400625e-10,5.781250e-03
9.440625e-10,4.687500e-03
9.480625e-10,4.593750e-03
9.520625e-10,3.718750e-03
9.560625e-10,3.265625e-03
9.600625e-10,3.234375e-03
9.640625e-10,2.906250e-03
9.680625e-10,2.343750e-03
9.720625e-10,1.531250e-03
9.760625e-10,1.125000e-03
9.800625e-10,1.203125e-03
9.840625e-10,5.156250e-04
9.880625e-10,7.812500e-04
9.920625e-10,6.875000e-04
9.960625e-10,5.937500e-04
1.000062e-09,-7.187500e-04
1.004062e-09,-1.406250e-04
1.008062e-09,-1.093750e-03
1.012062e-09,-1.562500e-05
1.016063e-09,-2.812500e-04
1.020063e-09,-5.312500e-04
1.024063e-09,-1.140625e-03
1.028063e-09,-7.500000e-04
1.032063e-09,-1.093750e-03
1.036063e-09,-1.015625e-03
1.040062e-09,-5.000000e-04
1.044062e-09,-2.656250e-04
1.048062e-09,-2.812500e-04
1.052062e-09,-5.000000e-04
1.056062e-09,-3.437500e-04
1.060062e-09,2.968750e-04
1.064062e-09,1.562500e-04
1.068062e-09,9.687500e-04
1.072062e-09,1.421875e-03
1.076063e-09,1.843750e-03
1.080063e-09,1.031250e-03
1.084063e-09,2.109375e-03
1.088063e-09,1.593750e-03
1.092063e-09,3.078125e-03
1.096063e-09,3.203125e-03
1.100062e-09,3.296875e-03
1.104062e-09,3.000000e-03
1.108062e-09,3.687500e-03
1.112062e-09,3.578125e-03
1.116062e-09,3.859375e-03
1.120062e-09,4.546875e-03
1.124062e-09,4.953125e-03
1.128062e-09,5.015625e-03
1.132062e-09,4.843750e-03
1.136063e-09,5.015625e-03
1.140063e-09,5.640625e-03
1.144063e-09,5.437500e-03
1.148063e-09,6.171875e-03
1.152063e-09,6.515625e-03
1.156063e-09,6.812500e-03
1.160062e-09,5.796875e-03
1.164062e-09,6.687500e-03
1.168062e-09,5.937500e-03
1.172062e-09,7.187500e-03
1.176062e-09,7.031250e-03
1.180062e-09,6.859375e-03
1.184062e-09,6.250000e-03
1.188062e-09,6.640625e-03
1.192062e-09,6.218750e-03
1.196063e-09,6.187500e-03
1.200063e-09,6.546875e-03
1.204063e-09,6.656250e-03
1.208063e-09,6.406250e-03
1.212063e-09,5.921875e-03
1.216063e-09,5.812500e-03
1.220062e-09,6.140625e-03
1.224062e-09,5.656250e-03
1.228062e-09,6.140625e-03
1.232062e-09,6.250000e-03
1.236062e-09,6.328125e-03
1.240062e-09,5.078125e-03
1.244062e-09,5.781250e-03
1.248062e-09,4.890625e-03
1.252062e-09,6.000000e-03
1.256063e-09,5.718750e-03
1.260063e-09,5.437500e-03
1.264063e-09,4.781250e-03
1.268063e-09,5.125000e-03
1.272063e-09,4.671875e-03
1.276063e-09,4.640625e-03
1.280062e-09,5.015625e-03
1.284062e-09,5.187500e-03
1.288062e-09,4.984375e-03
1.292062e-09,4.578125e-03
1.296062e-09,4.593750e-03
1.300062e-09,5.031250e-03
1.304062e-09,4.656250e-03
1.308062e-09,5.312500e-03
1.312062e-09,5.562500e-03
1.316063e-09,5.828125e-03
1.320063e-09,4.718750e-03
1.324063e-09,5.593750e-03
1.328063e-09,4.875000e-03
1.332063e-09,6.187500e-03
1.336063e-09,6.078125e-03
1.340062e-09,5.968750e-03
1.344062e-09,5.484375e-03
1.348062e-09,6.000000e-03
1.352062e-09,5.703125e-03
1.356062e-09,5.812500e-03
1.360062e-09,6.328125e-03
1.364062e-09,6.625000e-03
1.368062e-09,6.531250e-03
1.372062e-09,6.234375e-03
1.376063e-09,6.328125e-03
1.380063e-09,6.828125e-03
1.384063e-09,6.500000e-03
1.388063e-09,7.187500e-03
1.392063e-09,7.453125e-03
1.396063e-09,7.718750e-03
1.400062e-09,6.562500e-03
1.404062e-09,7.406250e-03
1.408062e-09,6.625000e-03
1.412062e-09,7.859375e-03
1.416062e-09,7.656250e-03
1.420062e-09,7.453125e-03
1.424062e-09,6.812500e-03
1.428062e-09,7.203125e-03
1.432062e-09,6.750000e-03
1.436062e-09,6.703125e-03
1.440063e-09,7.046875e-03
1.444063e-09,7.171875e-03
1.448063e-09,6.890625e-03
1.452063e-09,6.390625e-03
1.456063e-09,6.281250e-03
1.460062e-09,6.578125e-03
1.464062e-09,6.046875e-03
1.468062e-09,6.531250e-03
1.472062e-09,6.593750e-03
1.476062e-09,6.656250e-03
1.480062e-09,5.312500e-03
1.484062e-09,5.968750e-03
1.488062e-09,5.015625e-03
1.492062e-09,6.078125e-03
1.496062e-09,5.718750e-03
1.500063e-09,5.359375e-03
1.504063e-09,4.593750e-03
1.508063e-09,4.843750e-03
1.512063e-09,4.296875e-03
1.516063e-09,4.156250e-03
1.520062e-09,4.406250e-03
1.524062e-09,4.484375e-03
1.528062e-09,4.140625e-03
1.532062e-09,3.609375e-03
1.536062e-09,3.484375e-03
1.540062e-09,3.781250e-03
1.544062e-09,3.281250e-03
1.548062e-09,3.781250e-03
1.552062e-09,3.906250e-03
1.556062e-09,4.015625e-03
1.560063e-09,2.734375e-03
1.564063e-09,3.484375e-03
1.568063e-09,2.609375e-03
1.572063e-09,3.781250e-03
1.576063e-09,3.546875e-03
1.580062e-09,3.312500e-03
1.584062e-09,2.687500e-03
1.588062e-09,3.078125e-03
1.592062e-09,2.671875e-03
1.596062e-09,2.687500e-03
1.600062e-09,3.109375e-03
1.604062e-09,3.328125e-03
1.608062e-09,3.140625e-03
1.612062e-09,2.781250e-03
1.616062e-09,2.812500e-03
1.620063e-09,3.265625e-03
1.624063e-09,2.906250e-03
1.628063e-09,3.562500e-03
1.632063e-09,3.828125e-03
1.636063e-09,4.093750e-03
1.640062e-09,2.937500e-03
1.644062e-09,3.812500e-03
1.648062e-09,3.062500e-03
1.652062e-09,4.343750e-03
1.656062e-09,4.218750e-03
1.660062e-09,4.078125e-03
1.664062e-09,3.546875e-03
1.668062e-09,4.031250e-03
1.672062e-09,3.687500e-03
1.676062e-09,3.765625e-03
1.680063e-09,4.234375e-03
1.684063e-09,4.500000e-03
1.688063e-09,4.375000e-03
1.692063e-09,4.031250e-03
1.696063e-09,4.093750e-03
1.700062e-09,4.562500e-03
1.704062e-09,4.218750e-03
1.708062e-09,4.890625e-03
1.712062e-09,5.156250e-03
1.716062e-09,5.421875e-03
1.720062e-09,4.265625e-03
1.724062e-09,5.125000e-03
1.728062e-09,4.375000e-03
1.732062e-09,5.640625e-03
1.736062e-09,5.484375e-03
1.740063e-09,5.343750e-03
1.744063e-09,4.781250e-03
1.748063e-09,5.250000e-03
1.752063e-09,4.890625e-03
