Measurements-streak-laser-independent/Photodiode-on-Tek-12bit-4GHz/Tek000_ch1_20190613133045902.csv

Model,MSO64
Waveform Type,ANALOG
Horizontal Units,s
Sample Interval,4.000000e-12
Record Length,1000
Zero Index,310.406250
Vertical Units,V

TIME,CH1
-1.241625e-09,6.312500e-03
-1.237625e-09,6.031250e-03
-1.233625e-09,6.140625e-03
-1.229625e-09,6.671875e-03
-1.225625e-09,6.390625e-03
-1.221625e-09,7.109375e-03
-1.217625e-09,7.421875e-03
-1.213625e-09,7.718750e-03
-1.209625e-09,6.593750e-03
-1.205625e-09,7.500000e-03
-1.201625e-09,6.765625e-03
-1.197625e-09,8.062500e-03
-1.193625e-09,7.921875e-03
-1.189625e-09,7.781250e-03
-1.185625e-09,7.218750e-03
-1.181625e-09,7.656250e-03
-1.177625e-09,7.281250e-03
-1.173625e-09,7.312500e-03
-1.169625e-09,7.718750e-03
-1.165625e-09,7.921875e-03
-1.161625e-09,7.703125e-03
-1.157625e-09,7.281250e-03
-1.153625e-09,7.234375e-03
-1.149625e-09,7.609375e-03
-1.145625e-09,7.140625e-03
-1.141625e-09,7.687500e-03
-1.137625e-09,7.796875e-03
-1.133625e-09,7.921875e-03
-1.129625e-09,6.593750e-03
-1.125625e-09,7.296875e-03
-1.121625e-09,6.375000e-03
-1.117625e-09,7.453125e-03
-1.113625e-09,7.109375e-03
-1.109625e-09,6.765625e-03
-1.105625e-09,6.000000e-03
-1.101625e-09,6.250000e-03
-1.097625e-09,5.671875e-03
-1.093625e-09,5.500000e-03
-1.089625e-09,5.734375e-03
-1.085625e-09,5.765625e-03
-1.081625e-09,5.375000e-03
-1.077625e-09,4.781250e-03
-1.073625e-09,4.593750e-03
-1.069625e-09,4.828125e-03
-1.065625e-09,4.234375e-03
-1.061625e-09,4.656250e-03
-1.057625e-09,4.687500e-03
-1.053625e-09,4.703125e-03
-1.049625e-09,3.328125e-03
-1.045625e-09,3.968750e-03
-1.041625e-09,3.000000e-03
-1.037625e-09,4.062500e-03
-1.033625e-09,3.718750e-03
-1.029625e-09,3.375000e-03
-1.025625e-09,2.640625e-03
-1.021625e-09,2.937500e-03
-1.017625e-09,2.421875e-03
-1.013625e-09,2.328125e-03
-1.009625e-09,2.640625e-03
-1.005625e-09,2.781250e-03
-1.001625e-09,2.515625e-03
-9.976250e-10,2.046875e-03
-9.936250e-10,2.015625e-03
-9.896250e-10,2.390625e-03
-9.856250e-10,1.968750e-03
-9.816250e-10,2.578125e-03
-9.776250e-10,2.781250e-03
-9.736250e-10,3.000000e-03
-9.696250e-10,1.812500e-03
-9.656250e-10,2.656250e-03
-9.616250e-10,1.906250e-03
-9.576250e-10,3.156250e-03
-9.536250e-10,3.015625e-03
-9.496250e-10,2.890625e-03
-9.456250e-10,2.343750e-03
-9.416250e-10,2.843750e-03
-9.376250e-10,2.531250e-03
-9.336250e-10,2.609375e-03
-9.296250e-10,3.109375e-03
-9.256250e-10,3.421875e-03
-9.216250e-10,3.312500e-03
-9.176250e-10,3.015625e-03
-9.136250e-10,3.109375e-03
-9.096250e-10,3.609375e-03
-9.056250e-10,3.312500e-03
-9.016250e-10,4.015625e-03
-8.976250e-10,4.312500e-03
-8.936250e-10,4.593750e-03
-8.896250e-10,3.484375e-03
-8.856250e-10,4.375000e-03
-8.816250e-10,3.640625e-03
-8.776250e-10,4.843750e-03
-8.736250e-10,4.718750e-03
-8.696250e-10,4.578125e-03
-8.656250e-10,4.031250e-03
-8.616250e-10,4.484375e-03
-8.576250e-10,4.109375e-03
-8.536250e-10,4.156250e-03
-8.496250e-10,4.593750e-03
-8.456250e-10,4.812500e-03
-8.416250e-10,4.640625e-03
-8.376250e-10,4.234375e-03
-8.336250e-10,4.234375e-03
-8.296250e-10,4.640625e-03
-8.256250e-10,4.234375e-03
-8.216250e-10,4.828125e-03
-8.176250e-10,5.015625e-03
-8.136250e-10,5.203125e-03
-8.096250e-10,4.031250e-03
-8.056250e-10,4.828125e-03
-8.016250e-10,3.984375e-03
-7.976250e-10,5.000000e-03
-7.936250e-10,4.859375e-03
-7.896250e-10,4.625000e-03
-7.856250e-10,4.078125e-03
-7.816250e-10,4.437500e-03
-7.776250e-10,4.000000e-03
-7.736250e-10,4.062500e-03
-7.696250e-10,4.437500e-03
-7.656250e-10,4.625000e-03
-7.616250e-10,4.515625e-03
-7.576250e-10,4.093750e-03
-7.536250e-10,4.093750e-03
-7.496250e-10,4.500000e-03
-7.456250e-10,4.109375e-03
-7.416250e-10,4.734375e-03
-7.376250e-10,4.968750e-03
-7.336250e-10,5.187500e-03
-7.296250e-10,4.093750e-03
-7.256250e-10,4.953125e-03
-7.216250e-10,4.203125e-03
-7.176250e-10,5.218750e-03
-7.136250e-10,5.156250e-03
-7.096250e-10,5.031250e-03
-7.056250e-10,4.578125e-03
-7.016250e-10,4.968750e-03
-6.976250e-10,4.562500e-03
-6.936250e-10,4.734375e-03
-6.896250e-10,5.156250e-03
-6.856250e-10,5.343750e-03
-6.816250e-10,5.390625e-03
-6.776250e-10,4.984375e-03
-6.736250e-10,4.984375e-03
-6.696250e-10,5.390625e-03
-6.656250e-10,5.062500e-03
-6.616250e-10,5.640625e-03
-6.576250e-10,5.890625e-03
-6.536250e-10,6.062500e-03
-6.496250e-10,4.906250e-03
-6.456250e-10,5.734375e-03
-6.416250e-10,5.031250e-03
-6.376250e-10,5.937500e-03
-6.336250e-10,5.828125e-03
-6.296250e-10,5.671875e-03
-6.256250e-10,5.140625e-03
-6.216250e-10,5.406250e-03
-6.176250e-10,4.875000e-03
-6.136250e-10,4.968750e-03
-6.096250e-10,5.296875e-03
-6.056250e-10,5.328125e-03
-6.016250e-10,5.343750e-03
-5.976250e-10,4.828125e-03
-5.936250e-10,4.718750e-03
-5.896250e-10,5.015625e-03
-5.856250e-10,4.625000e-03
-5.816250e-10,5.125000e-03
-5.776250e-10,5.265625e-03
-5.736250e-10,5.343750e-03
-5.696250e-10,4.062500e-03
-5.656250e-10,4.828125e-03
-5.616250e-10,4.156250e-03
-5.576250e-10,5.000000e-03
-5.536250e-10,4.921875e-03
-5.496250e-10,4.734375e-03
-5.456250e-10,4.187500e-03
-5.416250e-10,4.453125e-03
-5.376250e-10,3.937500e-03
-5.336250e-10,4.062500e-03
-5.296250e-10,4.468750e-03
-5.256250e-10,4.515625e-03
-5.216250e-10,4.593750e-03
-5.176250e-10,4.171875e-03
-5.136250e-10,4.187500e-03
-5.096250e-10,4.609375e-03
-5.056250e-10,4.328125e-03
-5.016250e-10,4.984375e-03
-4.976250e-10,5.187500e-03
-4.936250e-10,5.390625e-03
-4.896250e-10,4.234375e-03
-4.856250e-10,5.062500e-03
-4.816250e-10,4.546875e-03
-4.776250e-10,5.531250e-03
-4.736250e-10,5.640625e-03
-4.696250e-10,5.484375e-03
-4.656250e-10,5.031250e-03
-4.616250e-10,5.390625e-03
-4.576250e-10,5.031250e-03
-4.536250e-10,5.125000e-03
-4.496250e-10,5.625000e-03
-4.456250e-10,5.703125e-03
-4.416250e-10,5.687500e-03
-4.376250e-10,5.281250e-03
-4.336250e-10,5.343750e-03
-4.296250e-10,5.781250e-03
-4.256250e-10,5.343750e-03
-4.216250e-10,5.984375e-03
-4.176250e-10,6.078125e-03
-4.136250e-10,6.156250e-03
-4.096250e-10,4.890625e-03
-4.056250e-10,5.484375e-03
-4.016250e-10,4.812500e-03
-3.976250e-10,5.625000e-03
-3.936250e-10,5.562500e-03
-3.896250e-10,5.140625e-03
-3.856250e-10,4.468750e-03
-3.816250e-10,4.625000e-03
-3.776250e-10,4.125000e-03
-3.736250e-10,3.890625e-03
-3.696250e-10,4.171875e-03
-3.656250e-10,4.031250e-03
-3.616250e-10,3.687500e-03
-3.576250e-10,3.109375e-03
-3.536250e-10,3.015625e-03
-3.496250e-10,3.296875e-03
-3.456250e-10,2.625000e-03
-3.416250e-10,3.093750e-03
-3.376250e-10,3.125000e-03
-3.336250e-10,3.093750e-03
-3.296250e-10,1.812500e-03
-3.256250e-10,2.281250e-03
-3.216250e-10,1.578125e-03
-3.176250e-10,2.437500e-03
-3.136250e-10,2.390625e-03
-3.096250e-10,2.046875e-03
-3.056250e-10,1.562500e-03
-3.016250e-10,1.890625e-03
-2.976250e-10,1.640625e-03
-2.936250e-10,1.562500e-03
-2.896250e-10,2.078125e-03
-2.856250e-10,2.250000e-03
-2.816250e-10,2.171875e-03
-2.776250e-10,2.031250e-03
-2.736250e-10,2.296875e-03
-2.696250e-10,2.968750e-03
-2.656250e-10,2.765625e-03
-2.616250e-10,3.593750e-03
-2.576250e-10,4.140625e-03
-2.536250e-10,4.562500e-03
-2.496250e-10,3.781250e-03
-2.456250e-10,4.703125e-03
-2.416250e-10,4.406250e-03
-2.376250e-10,5.734375e-03
-2.336250e-10,6.062500e-03
-2.296250e-10,6.156250e-03
-2.256250e-10,6.125000e-03
-2.216250e-10,6.812500e-03
-2.176250e-10,6.843750e-03
-2.136250e-10,7.078125e-03
-2.096250e-10,7.765625e-03
-2.056250e-10,8.140625e-03
-2.016250e-10,8.171875e-03
-1.976250e-10,8.187500e-03
-1.936250e-10,8.437500e-03
-1.896250e-10,9.015625e-03
-1.856250e-10,8.765625e-03
-1.816250e-10,9.406250e-03
-1.776250e-10,9.750000e-03
-1.736250e-10,9.906250e-03
-1.696250e-10,8.859375e-03
-1.656250e-10,9.406250e-03
-1.616250e-10,8.593750e-03
-1.576250e-10,9.500000e-03
-1.536250e-10,9.218750e-03
-1.496250e-10,8.781250e-03
-1.456250e-10,8.156250e-03
-1.416250e-10,8.250000e-03
-1.376250e-10,7.593750e-03
-1.336250e-10,7.250000e-03
-1.296250e-10,7.250000e-03
-1.256250e-10,7.000000e-03
-1.216250e-10,6.406250e-03
-1.176250e-10,5.859375e-03
-1.136250e-10,5.515625e-03
-1.096250e-10,5.500000e-03
-1.056250e-10,4.843750e-03
-1.016250e-10,5.156250e-03
-9.762500e-11,5.171875e-03
-9.362500e-11,5.218750e-03
-8.962500e-11,4.171875e-03
-8.562500e-11,4.796875e-03
-8.162500e-11,4.156250e-03
-7.762500e-11,5.500000e-03
-7.362500e-11,5.640625e-03
-6.962500e-11,5.953125e-03
-6.562500e-11,6.203125e-03
-6.162500e-11,7.390625e-03
-5.762500e-11,8.015625e-03
-5.362500e-11,9.171875e-03
-4.962500e-11,1.084375e-02
-4.562500e-11,1.256250e-02
-4.162500e-11,1.407813e-02
-3.762500e-11,1.590625e-02
-3.362500e-11,1.814063e-02
-2.962500e-11,2.085938e-02
-2.562500e-11,2.323438e-02
-2.162500e-11,2.682813e-02
-1.762500e-11,3.029688e-02
-1.362500e-11,3.412500e-02
-9.625000e-12,3.703125e-02
-5.625000e-12,4.175000e-02
-1.625000e-12,4.535938e-02
2.375000e-12,5.121875e-02
6.375000e-12,5.590625e-02
1.037500e-11,6.104688e-02
1.437500e-11,6.620313e-02
1.837500e-11,7.240625e-02
2.237500e-11,7.815625e-02
2.637500e-11,8.450000e-02
3.037500e-11,9.146875e-02
3.437500e-11,9.857813e-02
3.837500e-11,1.053438e-01
4.237500e-11,1.124688e-01
4.637500e-11,1.199688e-01
5.037500e-11,1.278594e-01
5.437500e-11,1.354063e-01
5.837500e-11,1.440469e-01
6.237500e-11,1.523906e-01
6.637500e-11,1.610469e-01
7.037500e-11,1.685313e-01
7.437500e-11,1.776563e-01
7.837500e-11,1.854219e-01
8.237500e-11,1.951875e-01
8.637500e-11,2.034688e-01
9.037500e-11,2.120625e-01
9.437500e-11,2.202500e-01
9.837500e-11,2.291094e-01
1.023750e-10,2.372969e-01
1.063750e-10,2.456563e-01
1.103750e-10,2.542969e-01
1.143750e-10,2.627969e-01
1.183750e-10,2.703750e-01
1.223750e-10,2.779688e-01
1.263750e-10,2.855625e-01
1.303750e-10,2.931250e-01
1.343750e-10,3.000000e-01
1.383750e-10,3.074531e-01
1.423750e-10,3.141563e-01
1.463750e-10,3.208594e-01
1.503750e-10,3.258906e-01
1.543750e-10,3.322656e-01
1.583750e-10,3.368438e-01
1.623750e-10,3.429844e-01
1.663750e-10,3.472500e-01
1.703750e-10,3.515469e-01
1.743750e-10,3.550000e-01
1.783750e-10,3.587969e-01
1.823750e-10,3.617031e-01
1.863750e-10,3.644688e-01
1.903750e-10,3.671875e-01
1.943750e-10,3.696406e-01
1.983750e-10,3.708125e-01
2.023750e-10,3.717813e-01
2.063750e-10,3.726563e-01
2.103750e-10,3.733438e-01
2.143750e-10,3.732344e-01
2.183750e-10,3.735156e-01
2.223750e-10,3.729219e-01
2.263750e-10,3.723750e-01
2.303750e-10,3.700313e-01
2.343750e-10,3.691406e-01
2.383750e-10,3.664688e-01
2.423750e-10,3.652813e-01
2.463750e-10,3.623281e-01
2.503750e-10,3.594844e-01
2.543750e-10,3.559063e-01
2.583750e-10,3.528281e-01
2.623750e-10,3.490625e-01
2.663750e-10,3.452813e-01
2.703750e-10,3.415781e-01
2.743750e-10,3.378438e-01
2.783750e-10,3.330469e-01
2.823750e-10,3.282031e-01
2.863750e-10,3.235938e-01
2.903750e-10,3.190313e-01
2.943750e-10,3.138594e-01
2.983750e-10,3.093438e-01
3.023750e-10,3.042344e-01
3.063750e-10,2.994688e-01
3.103750e-10,2.931094e-01
3.143750e-10,2.885781e-01
3.183750e-10,2.825313e-01
3.223750e-10,2.781406e-01
3.263750e-10,2.723281e-01
3.303750e-10,2.668281e-01
3.343750e-10,2.608594e-01
3.383750e-10,2.557344e-01
3.423750e-10,2.501719e-01
3.463750e-10,2.447969e-01
3.503750e-10,2.396719e-01
3.543750e-10,2.347500e-01
3.583750e-10,2.290625e-01
3.623750e-10,2.235000e-01
3.663750e-10,2.183125e-01
3.703750e-10,2.134531e-01
3.743750e-10,2.080313e-01
3.783750e-10,2.034688e-01
3.823750e-10,1.985469e-01
3.863750e-10,1.940313e-01
3.903750e-10,1.880313e-01
3.943750e-10,1.840625e-01
3.983750e-10,1.787188e-01
4.023750e-10,1.750313e-01
4.063750e-10,1.700938e-01
4.103750e-10,1.655313e-01
4.143750e-10,1.605313e-01
4.183750e-10,1.565000e-01
4.223750e-10,1.520938e-01
4.263750e-10,1.479219e-01
4.303750e-10,1.440000e-01
4.343750e-10,1.403125e-01
4.383750e-10,1.360625e-01
4.423750e-10,1.318594e-01
4.463750e-10,1.280469e-01
4.503750e-10,1.246563e-01
4.543750e-10,1.206563e-01
4.583750e-10,1.175000e-01
4.623750e-10,1.141250e-01
4.663750e-10,1.110625e-01
4.703750e-10,1.065781e-01
4.743750e-10,1.041875e-01
4.783750e-10,1.004219e-01
4.823750e-10,9.829688e-02
4.863750e-10,9.503125e-02
4.903750e-10,9.201563e-02
4.943750e-10,8.867188e-02
4.983750e-10,8.629688e-02
5.023750e-10,8.346875e-02
5.063750e-10,8.098438e-02
5.103750e-10,7.873438e-02
5.143750e-10,7.668750e-02
5.183750e-10,7.423438e-02
5.223750e-10,7.176563e-02
5.263750e-10,6.968750e-02
5.303750e-10,6.806250e-02
5.343750e-10,6.581250e-02
5.383750e-10,6.437500e-02
5.423750e-10,6.279688e-02
5.463750e-10,6.143750e-02
5.503750e-10,5.876563e-02
5.543750e-10,5.809375e-02
5.583750e-10,5.609375e-02
5.623750e-10,5.573438e-02
5.663750e-10,5.429688e-02
5.703750e-10,5.289063e-02
5.743750e-10,5.128125e-02
5.783750e-10,5.057813e-02
5.823750e-10,4.929688e-02
5.863750e-10,4.837500e-02
5.903750e-10,4.768750e-02
5.943750e-10,4.714063e-02
5.983750e-10,4.618750e-02
6.023750e-10,4.510938e-02
6.063750e-10,4.445313e-02
6.103750e-10,4.407813e-02
6.143750e-10,4.306250e-02
6.183750e-10,4.278125e-02
6.223750e-10,4.234375e-02
6.263750e-10,4.192188e-02
6.303750e-10,4.023438e-02
6.343750e-10,4.034375e-02
6.383750e-10,3.917188e-02
6.423750e-10,3.956250e-02
6.463750e-10,3.878125e-02
6.503750e-10,3.789063e-02
6.543750e-10,3.671875e-02
6.583750e-10,3.648438e-02
6.623750e-10,3.542188e-02
6.663750e-10,3.467188e-02
6.703750e-10,3.418750e-02
6.743750e-10,3.375000e-02
6.783750e-10,3.285938e-02
6.823750e-10,3.170313e-02
6.863750e-10,3.103125e-02
6.903750e-10,3.045313e-02
6.943750e-10,2.925000e-02
6.983750e-10,2.879688e-02
7.023750e-10,2.815625e-02
7.063750e-10,2.732813e-02
7.103750e-10,2.537500e-02
7.143750e-10,2.510938e-02
7.183750e-10,2.362500e-02
7.223750e-10,2.371875e-02
7.263750e-10,2.260938e-02
7.303750e-10,2.143750e-02
7.343750e-10,1.985938e-02
7.383750e-10,1.940625e-02
7.423750e-10,1.803125e-02
7.463750e-10,1.700000e-02
7.503750e-10,1.637500e-02
7.543750e-10,1.576563e-02
7.583750e-10,1.481250e-02
7.623750e-10,1.354688e-02
7.663750e-10,1.287500e-02
7.703750e-10,1.237500e-02
7.743750e-10,1.129688e-02
7.783750e-10,1.106250e-02
7.823750e-10,1.071875e-02
7.863750e-10,1.009375e-02
7.903750e-10,8.562500e-03
7.943750e-10,8.656250e-03
7.983750e-10,7.640625e-03
8.023750e-10,8.343750e-03
8.063750e-10,7.843750e-03
8.103750e-10,7.390625e-03
8.143750e-10,6.500000e-03
8.183750e-10,6.765625e-03
8.223750e-10,6.187500e-03
8.263750e-10,6.015625e-03
8.303750e-10,6.312500e-03
8.343750e-10,6.515625e-03
8.383750e-10,6.515625e-03
8.423750e-10,6.171875e-03
8.463750e-10,6.375000e-03
8.503750e-10,6.906250e-03
8.543750e-10,6.796875e-03
8.583750e-10,7.546875e-03
8.623750e-10,8.093750e-03
8.663750e-10,8.375000e-03
8.703750e-10,7.765625e-03
8.743750e-10,8.656250e-03
8.783750e-10,8.343750e-03
8.823750e-10,9.906250e-03
8.863750e-10,1.015625e-02
8.903750e-10,1.035938e-02
8.943750e-10,1.012500e-02
8.983750e-10,1.085938e-02
9.023750e-10,1.081250e-02
9.063750e-10,1.110938e-02
9.103750e-10,1.184375e-02
9.143750e-10,1.218750e-02
9.183750e-10,1.243750e-02
9.223750e-10,1.228125e-02
9.263750e-10,1.246875e-02
9.303750e-10,1.310938e-02
9.343750e-10,1.298438e-02
9.383750e-10,1.364063e-02
9.423750e-10,1.395313e-02
9.463750e-10,1.403125e-02
9.503750e-10,1.315625e-02
9.543750e-10,1.371875e-02
9.583750e-10,1.296875e-02
9.623750e-10,1.412500e-02
9.663750e-10,1.392188e-02
9.703750e-10,1.360938e-02
9.743750e-10,1.289063e-02
9.783750e-10,1.304688e-02
9.823750e-10,1.246875e-02
9.863750e-10,1.226563e-02
9.903750e-10,1.245313e-02
9.943750e-10,1.214063e-02
9.983750e-10,1.181250e-02
1.002375e-09,1.114063e-02
1.006375e-09,1.073438e-02
1.010375e-09,1.090625e-02
1.014375e-09,1.031250e-02
1.018375e-09,1.050000e-02
1.022375e-09,1.037500e-02
1.026375e-09,1.009375e-02
1.030375e-09,8.937500e-03
1.034375e-09,9.281250e-03
1.038375e-09,8.250000e-03
1.042375e-09,9.187500e-03
1.046375e-09,8.843750e-03
1.050375e-09,8.437500e-03
1.054375e-09,7.703125e-03
1.058375e-09,7.921875e-03
1.062375e-09,7.437500e-03
1.066375e-09,7.390625e-03
1.070375e-09,7.765625e-03
1.074375e-09,7.703125e-03
1.078375e-09,7.625000e-03
1.082375e-09,7.296875e-03
1.086375e-09,7.250000e-03
1.090375e-09,7.828125e-03
1.094375e-09,7.656250e-03
1.098375e-09,8.312500e-03
1.102375e-09,8.671875e-03
1.106375e-09,8.937500e-03
1.110375e-09,8.312500e-03
1.114375e-09,9.281250e-03
1.118375e-09,8.781250e-03
1.122375e-09,1.023438e-02
1.126375e-09,1.040625e-02
1.130375e-09,1.054688e-02
1.134375e-09,1.032813e-02
1.138375e-09,1.106250e-02
1.142375e-09,1.106250e-02
1.146375e-09,1.145313e-02
1.150375e-09,1.226563e-02
1.154375e-09,1.265625e-02
1.158375e-09,1.287500e-02
1.162375e-09,1.285938e-02
1.166375e-09,1.309375e-02
1.170375e-09,1.387500e-02
1.174375e-09,1.384375e-02
1.178375e-09,1.464063e-02
1.182375e-09,1.509375e-02
1.186375e-09,1.543750e-02
1.190375e-09,1.473438e-02
1.194375e-09,1.567188e-02
1.198375e-09,1.503125e-02
1.202375e-09,1.632813e-02
1.206375e-09,1.625000e-02
1.210375e-09,1.614063e-02
1.214375e-09,1.559375e-02
1.218375e-09,1.601563e-02
1.222375e-09,1.562500e-02
1.226375e-09,1.559375e-02
1.230375e-09,1.595313e-02
1.234375e-09,1.595313e-02
1.238375e-09,1.567188e-02
1.242375e-09,1.512500e-02
1.246375e-09,1.489063e-02
1.250375e-09,1.512500e-02
1.254375e-09,1.454688e-02
1.258375e-09,1.485938e-02
1.262375e-09,1.479688e-02
1.266375e-09,1.467188e-02
1.270375e-09,1.337500e-02
1.274375e-09,1.387500e-02
1.278375e-09,1.278125e-02
1.282375e-09,1.365625e-02
1.286375e-09,1.317188e-02
1.290375e-09,1.267188e-02
1.294375e-09,1.178125e-02
1.298375e-09,1.189063e-02
1.302375e-09,1.123438e-02
1.306375e-09,1.096875e-02
1.310375e-09,1.112500e-02
1.314375e-09,1.103125e-02
1.318375e-09,1.062500e-02
1.322375e-09,1.001563e-02
1.326375e-09,9.796875e-03
1.330375e-09,1.003125e-02
1.334375e-09,9.500000e-03
1.338375e-09,9.937500e-03
1.342375e-09,1.003125e-02
1.346375e-09,1.010938e-02
1.350375e-09,8.953125e-03
1.354375e-09,9.703125e-03
1.358375e-09,8.890625e-03
1.362375e-09,1.007813e-02
1.366375e-09,9.906250e-03
1.370375e-09,9.750000e-03
1.374375e-09,9.218750e-03
1.378375e-09,9.703125e-03
1.382375e-09,9.406250e-03
1.386375e-09,9.531250e-03
1.390375e-09,1.006250e-02
1.394375e-09,1.037500e-02
1.398375e-09,1.034375e-02
1.402375e-09,1.009375e-02
1.406375e-09,1.025000e-02
1.410375e-09,1.082813e-02
1.414375e-09,1.060938e-02
1.418375e-09,1.135938e-02
1.422375e-09,1.173438e-02
1.426375e-09,1.209375e-02
1.430375e-09,1.110938e-02
1.434375e-09,1.206250e-02
1.438375e-09,1.139063e-02
1.442375e-09,1.271875e-02
1.446375e-09,1.265625e-02
1.450375e-09,1.256250e-02
1.454375e-09,1.204688e-02
1.458375e-09,1.251563e-02
1.462375e-09,1.218750e-02
1.466375e-09,1.221875e-02
1.470375e-09,1.265625e-02
1.474375e-09,1.284375e-02
1.478375e-09,1.262500e-02
1.482375e-09,1.218750e-02
1.486375e-09,1.210938e-02
1.490375e-09,1.243750e-02
1.494375e-09,1.193750e-02
1.498375e-09,1.240625e-02
1.502375e-09,1.246875e-02
1.506375e-09,1.250000e-02
1.510375e-09,1.115625e-02
1.514375e-09,1.176563e-02
1.518375e-09,1.075000e-02
1.522375e-09,1.173438e-02
1.526375e-09,1.129688e-02
1.530375e-09,1.084375e-02
1.534375e-09,9.984375e-03
1.538375e-09,1.012500e-02
1.542375e-09,9.453125e-03
1.546375e-09,9.171875e-03
1.550375e-09,9.296875e-03
1.554375e-09,9.203125e-03
1.558375e-09,8.718750e-03
1.562375e-09,8.031250e-03
1.566375e-09,7.750000e-03
1.570375e-09,7.875000e-03
1.574375e-09,7.203125e-03
1.578375e-09,7.531250e-03
1.582375e-09,7.484375e-03
1.586375e-09,7.421875e-03
1.590375e-09,6.000000e-03
1.594375e-09,6.578125e-03
1.598375e-09,5.562500e-03
1.602375e-09,6.562500e-03
1.606375e-09,6.171875e-03
1.610375e-09,5.796875e-03
1.614375e-09,5.031250e-03
1.618375e-09,5.296875e-03
1.622375e-09,4.765625e-03
1.626375e-09,4.640625e-03
1.630375e-09,4.937500e-03
1.634375e-09,5.062500e-03
1.638375e-09,4.796875e-03
1.642375e-09,4.328125e-03
1.646375e-09,4.281250e-03
1.650375e-09,4.656250e-03
1.654375e-09,4.234375e-03
1.658375e-09,4.828125e-03
1.662375e-09,5.046875e-03
1.666375e-09,5.250000e-03
1.670375e-09,4.078125e-03
1.674375e-09,4.906250e-03
1.678375e-09,4.156250e-03
1.682375e-09,5.406250e-03
1.686375e-09,5.265625e-03
1.690375e-09,5.109375e-03
1.694375e-09,4.562500e-03
1.698375e-09,5.031250e-03
1.702375e-09,4.703125e-03
1.706375e-09,4.765625e-03
1.710375e-09,5.234375e-03
1.714375e-09,5.484375e-03
1.718375e-09,5.359375e-03
1.722375e-09,5.015625e-03
1.726375e-09,5.078125e-03
1.730375e-09,5.531250e-03
1.734375e-09,5.187500e-03
1.738375e-09,5.828125e-03
1.742375e-09,6.078125e-03
1.746375e-09,6.312500e-03
1.750375e-09,5.140625e-03
1.754375e-09,5.968750e-03
1.758375e-09,5.171875e-03
