Measurements-streak-laser-independent/Photodiode-on-Tek-12bit-4GHz/Tek000_ch1_20190613133014411.csv

Model,MSO64
Waveform Type,ANALOG
Horizontal Units,s
Sample Interval,4.000000e-12
Record Length,1000
Zero Index,310.968750
Vertical Units,V

TIME,CH1
-1.243875e-09,8.031250e-03
-1.239875e-09,8.140625e-03
-1.235875e-09,6.828125e-03
-1.231875e-09,7.531250e-03
-1.227875e-09,6.609375e-03
-1.223875e-09,7.703125e-03
-1.219875e-09,7.375000e-03
-1.215875e-09,7.046875e-03
-1.211875e-09,6.296875e-03
-1.207875e-09,6.562500e-03
-1.203875e-09,6.015625e-03
-1.199875e-09,5.875000e-03
-1.195875e-09,6.125000e-03
-1.191875e-09,6.171875e-03
-1.187875e-09,5.828125e-03
-1.183875e-09,5.265625e-03
-1.179875e-09,5.109375e-03
-1.175875e-09,5.359375e-03
-1.171875e-09,4.781250e-03
-1.167875e-09,5.250000e-03
-1.163875e-09,5.296875e-03
-1.159875e-09,5.343750e-03
-1.155875e-09,3.968750e-03
-1.151875e-09,4.640625e-03
-1.147875e-09,3.687500e-03
-1.143875e-09,4.765625e-03
-1.139875e-09,4.421875e-03
-1.135875e-09,4.093750e-03
-1.131875e-09,3.375000e-03
-1.127875e-09,3.656250e-03
-1.123875e-09,3.156250e-03
-1.119875e-09,3.046875e-03
-1.115875e-09,3.375000e-03
-1.111875e-09,3.500000e-03
-1.107875e-09,3.218750e-03
-1.103875e-09,2.750000e-03
-1.099875e-09,2.703125e-03
-1.095875e-09,3.062500e-03
-1.091875e-09,2.625000e-03
-1.087875e-09,3.218750e-03
-1.083875e-09,3.406250e-03
-1.079875e-09,3.625000e-03
-1.075875e-09,2.406250e-03
-1.071875e-09,3.250000e-03
-1.067875e-09,2.468750e-03
-1.063875e-09,3.734375e-03
-1.059875e-09,3.593750e-03
-1.055875e-09,3.453125e-03
-1.051875e-09,2.906250e-03
-1.047875e-09,3.406250e-03
-1.043875e-09,3.093750e-03
-1.039875e-09,3.187500e-03
-1.035875e-09,3.703125e-03
-1.031875e-09,4.015625e-03
-1.027875e-09,3.921875e-03
-1.023875e-09,3.640625e-03
-1.019875e-09,3.765625e-03
-1.015875e-09,4.312500e-03
-1.011875e-09,4.031250e-03
-1.007875e-09,4.765625e-03
-1.003875e-09,5.109375e-03
-9.998750e-10,5.437500e-03
-9.958750e-10,4.343750e-03
-9.918750e-10,5.281250e-03
-9.878750e-10,4.593750e-03
-9.838750e-10,5.906250e-03
-9.798750e-10,5.812500e-03
-9.758750e-10,5.703125e-03
-9.718750e-10,5.187500e-03
-9.678750e-10,5.671875e-03
-9.638750e-10,5.343750e-03
-9.598750e-10,5.390625e-03
-9.558750e-10,5.843750e-03
-9.518750e-10,6.078125e-03
-9.478750e-10,5.906250e-03
-9.438750e-10,5.500000e-03
-9.398750e-10,5.500000e-03
-9.358750e-10,5.875000e-03
-9.318750e-10,5.437500e-03
-9.278750e-10,6.000000e-03
-9.238750e-10,6.125000e-03
-9.198750e-10,6.250000e-03
-9.158750e-10,4.953125e-03
-9.118750e-10,5.656250e-03
-9.078750e-10,4.734375e-03
-9.038750e-10,5.765625e-03
-8.998750e-10,5.437500e-03
-8.958750e-10,5.062500e-03
-8.918750e-10,4.312500e-03
-8.878750e-10,4.531250e-03
-8.838750e-10,3.953125e-03
-8.798750e-10,3.765625e-03
-8.758750e-10,3.968750e-03
-8.718750e-10,3.968750e-03
-8.678750e-10,3.578125e-03
-8.638750e-10,2.968750e-03
-8.598750e-10,2.765625e-03
-8.558750e-10,2.968750e-03
-8.518750e-10,2.359375e-03
-8.478750e-10,2.765625e-03
-8.438750e-10,2.765625e-03
-8.398750e-10,2.781250e-03
-8.358750e-10,1.421875e-03
-8.318750e-10,2.062500e-03
-8.278750e-10,1.093750e-03
-8.238750e-10,2.078125e-03
-8.198750e-10,1.781250e-03
-8.158750e-10,1.453125e-03
-8.118750e-10,7.812500e-04
-8.078750e-10,1.078125e-03
-8.038750e-10,5.937500e-04
-7.998750e-10,5.781250e-04
-7.958750e-10,9.375000e-04
-7.918750e-10,1.109375e-03
-7.878750e-10,9.531250e-04
-7.838750e-10,5.625000e-04
-7.798750e-10,5.937500e-04
-7.758750e-10,1.046875e-03
-7.718750e-10,7.187500e-04
-7.678750e-10,1.406250e-03
-7.638750e-10,1.718750e-03
-7.598750e-10,2.046875e-03
-7.558750e-10,1.015625e-03
-7.518750e-10,1.984375e-03
-7.478750e-10,1.359375e-03
-7.438750e-10,2.625000e-03
-7.398750e-10,2.671875e-03
-7.358750e-10,2.687500e-03
-7.318750e-10,2.343750e-03
-7.278750e-10,2.937500e-03
-7.238750e-10,2.734375e-03
-7.198750e-10,3.031250e-03
-7.158750e-10,3.656250e-03
-7.118750e-10,4.062500e-03
-7.078750e-10,4.218750e-03
-7.038750e-10,4.031250e-03
-6.998750e-10,4.250000e-03
-6.958750e-10,4.859375e-03
-6.918750e-10,4.703125e-03
-6.878750e-10,5.531250e-03
-6.838750e-10,5.953125e-03
-6.798750e-10,6.343750e-03
-6.758750e-10,5.359375e-03
-6.718750e-10,6.375000e-03
-6.678750e-10,5.781250e-03
-6.638750e-10,7.000000e-03
-6.598750e-10,7.031250e-03
-6.558750e-10,7.000000e-03
-6.518750e-10,6.578125e-03
-6.478750e-10,7.062500e-03
-6.438750e-10,6.703125e-03
-6.398750e-10,6.875000e-03
-6.358750e-10,7.343750e-03
-6.318750e-10,7.546875e-03
-6.278750e-10,7.546875e-03
-6.238750e-10,7.156250e-03
-6.198750e-10,7.156250e-03
-6.158750e-10,7.546875e-03
-6.118750e-10,7.203125e-03
-6.078750e-10,7.781250e-03
-6.038750e-10,7.968750e-03
-5.998750e-10,8.125000e-03
-5.958750e-10,6.875000e-03
-5.918750e-10,7.671875e-03
-5.878750e-10,6.921875e-03
-5.838750e-10,7.906250e-03
-5.798750e-10,7.765625e-03
-5.758750e-10,7.531250e-03
-5.718750e-10,6.937500e-03
-5.678750e-10,7.234375e-03
-5.638750e-10,6.734375e-03
-5.598750e-10,6.750000e-03
-5.558750e-10,7.109375e-03
-5.518750e-10,7.187500e-03
-5.478750e-10,7.109375e-03
-5.438750e-10,6.640625e-03
-5.398750e-10,6.609375e-03
-5.358750e-10,6.984375e-03
-5.318750e-10,6.593750e-03
-5.278750e-10,7.187500e-03
-5.238750e-10,7.375000e-03
-5.198750e-10,7.531250e-03
-5.158750e-10,6.312500e-03
-5.118750e-10,7.125000e-03
-5.078750e-10,6.453125e-03
-5.038750e-10,7.515625e-03
-4.998750e-10,7.468750e-03
-4.958750e-10,7.281250e-03
-4.918750e-10,6.765625e-03
-4.878750e-10,7.140625e-03
-4.838750e-10,6.750000e-03
-4.798750e-10,6.812500e-03
-4.758750e-10,7.281250e-03
-4.718750e-10,7.437500e-03
-4.678750e-10,7.359375e-03
-4.638750e-10,6.968750e-03
-4.598750e-10,7.015625e-03
-4.558750e-10,7.468750e-03
-4.518750e-10,7.078125e-03
-4.478750e-10,7.718750e-03
-4.438750e-10,7.890625e-03
-4.398750e-10,8.062500e-03
-4.358750e-10,6.843750e-03
-4.318750e-10,7.562500e-03
-4.278750e-10,6.859375e-03
-4.238750e-10,7.875000e-03
-4.198750e-10,7.765625e-03
-4.158750e-10,7.468750e-03
-4.118750e-10,6.843750e-03
-4.078750e-10,7.109375e-03
-4.038750e-10,6.656250e-03
-3.998750e-10,6.531250e-03
-3.958750e-10,6.859375e-03
-3.918750e-10,6.875000e-03
-3.878750e-10,6.562500e-03
-3.838750e-10,6.046875e-03
-3.798750e-10,5.968750e-03
-3.758750e-10,6.250000e-03
-3.718750e-10,5.671875e-03
-3.678750e-10,6.140625e-03
-3.638750e-10,6.171875e-03
-3.598750e-10,6.187500e-03
-3.558750e-10,4.843750e-03
-3.518750e-10,5.390625e-03
-3.478750e-10,4.546875e-03
-3.438750e-10,5.453125e-03
-3.398750e-10,5.234375e-03
-3.358750e-10,4.828125e-03
-3.318750e-10,4.156250e-03
-3.278750e-10,4.390625e-03
-3.238750e-10,3.937500e-03
-3.198750e-10,3.750000e-03
-3.158750e-10,4.078125e-03
-3.118750e-10,4.109375e-03
-3.078750e-10,3.812500e-03
-3.038750e-10,3.390625e-03
-2.998750e-10,3.375000e-03
-2.958750e-10,3.765625e-03
-2.918750e-10,3.296875e-03
-2.878750e-10,3.875000e-03
-2.838750e-10,4.093750e-03
-2.798750e-10,4.265625e-03
-2.758750e-10,3.140625e-03
-2.718750e-10,3.843750e-03
-2.678750e-10,3.171875e-03
-2.638750e-10,4.312500e-03
-2.598750e-10,4.265625e-03
-2.558750e-10,4.109375e-03
-2.518750e-10,3.687500e-03
-2.478750e-10,4.156250e-03
-2.438750e-10,3.906250e-03
-2.398750e-10,3.937500e-03
-2.358750e-10,4.437500e-03
-2.318750e-10,4.687500e-03
-2.278750e-10,4.562500e-03
-2.238750e-10,4.359375e-03
-2.198750e-10,4.500000e-03
-2.158750e-10,5.000000e-03
-2.118750e-10,4.703125e-03
-2.078750e-10,5.375000e-03
-2.038750e-10,5.703125e-03
-1.998750e-10,5.953125e-03
-1.958750e-10,4.921875e-03
-1.918750e-10,5.687500e-03
-1.878750e-10,5.015625e-03
-1.838750e-10,6.203125e-03
-1.798750e-10,6.109375e-03
-1.758750e-10,5.953125e-03
-1.718750e-10,5.531250e-03
-1.678750e-10,5.953125e-03
-1.638750e-10,5.640625e-03
-1.598750e-10,5.656250e-03
-1.558750e-10,6.078125e-03
-1.518750e-10,6.281250e-03
-1.478750e-10,6.109375e-03
-1.438750e-10,5.890625e-03
-1.398750e-10,5.968750e-03
-1.358750e-10,6.421875e-03
-1.318750e-10,6.140625e-03
-1.278750e-10,6.843750e-03
-1.238750e-10,7.218750e-03
-1.198750e-10,7.593750e-03
-1.158750e-10,6.734375e-03
-1.118750e-10,7.671875e-03
-1.078750e-10,7.187500e-03
-1.038750e-10,8.687500e-03
-9.987500e-11,8.890625e-03
-9.587500e-11,9.156250e-03
-9.187500e-11,9.187500e-03
-8.787500e-11,1.017188e-02
-8.387500e-11,1.045313e-02
-7.987500e-11,1.118750e-02
-7.587500e-11,1.235938e-02
-7.187500e-11,1.343750e-02
-6.787500e-11,1.418750e-02
-6.387500e-11,1.500000e-02
-5.987500e-11,1.617188e-02
-5.587500e-11,1.776563e-02
-5.187500e-11,1.878125e-02
-4.787500e-11,2.087500e-02
-4.387500e-11,2.267188e-02
-3.987500e-11,2.464063e-02
-3.587500e-11,2.543750e-02
-3.187500e-11,2.809375e-02
-2.787500e-11,2.939063e-02
-2.387500e-11,3.278125e-02
-1.987500e-11,3.487500e-02
-1.587500e-11,3.718750e-02
-1.187500e-11,3.928125e-02
-7.875000e-12,4.237500e-02
-3.875000e-12,4.484375e-02
1.250000e-13,4.779688e-02
4.125000e-12,5.123438e-02
8.125000e-12,5.465625e-02
1.212500e-11,5.768750e-02
1.612500e-11,6.081250e-02
2.012500e-11,6.431250e-02
2.412500e-11,6.818750e-02
2.812500e-11,7.153125e-02
3.212500e-11,7.590625e-02
3.612500e-11,7.995313e-02
4.012500e-11,8.417188e-02
4.412500e-11,8.712500e-02
4.812500e-11,9.190625e-02
5.212500e-11,9.523438e-02
5.612500e-11,1.005938e-01
6.012500e-11,1.045313e-01
6.412500e-11,1.086563e-01
6.812500e-11,1.124063e-01
7.212500e-11,1.170313e-01
7.612500e-11,1.209688e-01
8.012500e-11,1.252031e-01
8.412500e-11,1.298438e-01
8.812500e-11,1.343594e-01
9.212500e-11,1.382500e-01
9.612500e-11,1.420938e-01
1.001250e-10,1.461875e-01
1.041250e-10,1.504844e-01
1.081250e-10,1.541250e-01
1.121250e-10,1.585781e-01
1.161250e-10,1.625156e-01
1.201250e-10,1.665156e-01
1.241250e-10,1.690313e-01
1.281250e-10,1.732188e-01
1.321250e-10,1.757813e-01
1.361250e-10,1.801719e-01
1.401250e-10,1.829531e-01
1.441250e-10,1.857969e-01
1.481250e-10,1.880625e-01
1.521250e-10,1.910313e-01
1.561250e-10,1.931875e-01
1.601250e-10,1.955000e-01
1.641250e-10,1.980000e-01
1.681250e-10,2.003125e-01
1.721250e-10,2.017656e-01
1.761250e-10,2.030625e-01
1.801250e-10,2.045156e-01
1.841250e-10,2.060625e-01
1.881250e-10,2.068125e-01
1.921250e-10,2.082656e-01
1.961250e-10,2.090625e-01
2.001250e-10,2.098906e-01
2.041250e-10,2.090938e-01
2.081250e-10,2.099844e-01
2.121250e-10,2.091563e-01
2.161250e-10,2.100625e-01
2.201250e-10,2.093125e-01
2.241250e-10,2.086250e-01
2.281250e-10,2.072969e-01
2.321250e-10,2.066719e-01
2.361250e-10,2.052656e-01
2.401250e-10,2.039844e-01
2.441250e-10,2.028906e-01
2.481250e-10,2.016406e-01
2.521250e-10,1.995469e-01
2.561250e-10,1.973125e-01
2.601250e-10,1.952969e-01
2.641250e-10,1.934531e-01
2.681250e-10,1.908594e-01
2.721250e-10,1.890000e-01
2.761250e-10,1.865625e-01
2.801250e-10,1.842656e-01
2.841250e-10,1.803906e-01
2.881250e-10,1.783438e-01
2.921250e-10,1.746875e-01
2.961250e-10,1.727969e-01
3.001250e-10,1.694063e-01
3.041250e-10,1.661563e-01
3.081250e-10,1.624063e-01
3.121250e-10,1.595000e-01
3.161250e-10,1.559531e-01
3.201250e-10,1.526406e-01
3.241250e-10,1.495938e-01
3.281250e-10,1.465469e-01
3.321250e-10,1.428438e-01
3.361250e-10,1.390938e-01
3.401250e-10,1.357031e-01
3.441250e-10,1.326406e-01
3.481250e-10,1.289063e-01
3.521250e-10,1.260625e-01
3.561250e-10,1.228281e-01
3.601250e-10,1.198125e-01
3.641250e-10,1.153594e-01
3.681250e-10,1.129219e-01
3.721250e-10,1.090000e-01
3.761250e-10,1.069063e-01
3.801250e-10,1.035000e-01
3.841250e-10,1.003281e-01
3.881250e-10,9.675000e-02
3.921250e-10,9.418750e-02
3.961250e-10,9.107813e-02
4.001250e-10,8.831250e-02
4.041250e-10,8.589063e-02
4.081250e-10,8.354688e-02
4.121250e-10,8.073438e-02
4.161250e-10,7.790625e-02
4.201250e-10,7.551563e-02
4.241250e-10,7.356250e-02
4.281250e-10,7.096875e-02
4.321250e-10,6.931250e-02
4.361250e-10,6.740625e-02
4.401250e-10,6.570313e-02
4.441250e-10,6.262500e-02
4.481250e-10,6.162500e-02
4.521250e-10,5.918750e-02
4.561250e-10,5.857813e-02
4.601250e-10,5.675000e-02
4.641250e-10,5.507813e-02
4.681250e-10,5.307813e-02
4.721250e-10,5.207813e-02
4.761250e-10,5.050000e-02
4.801250e-10,4.929688e-02
4.841250e-10,4.840625e-02
4.881250e-10,4.756250e-02
4.921250e-10,4.631250e-02
4.961250e-10,4.496875e-02
5.001250e-10,4.401563e-02
5.041250e-10,4.348438e-02
5.081250e-10,4.225000e-02
5.121250e-10,4.190625e-02
5.161250e-10,4.129688e-02
5.201250e-10,4.078125e-02
5.241250e-10,3.890625e-02
5.281250e-10,3.901563e-02
5.321250e-10,3.764063e-02
5.361250e-10,3.804688e-02
5.401250e-10,3.720313e-02
5.441250e-10,3.637500e-02
5.481250e-10,3.520313e-02
5.521250e-10,3.496875e-02
5.561250e-10,3.401563e-02
5.601250e-10,3.342188e-02
5.641250e-10,3.310938e-02
5.681250e-10,3.275000e-02
5.721250e-10,3.196875e-02
5.761250e-10,3.100000e-02
5.801250e-10,3.040625e-02
5.841250e-10,3.014063e-02
5.881250e-10,2.914063e-02
5.921250e-10,2.898438e-02
5.961250e-10,2.853125e-02
6.001250e-10,2.807813e-02
6.041250e-10,2.628125e-02
6.081250e-10,2.637500e-02
6.121250e-10,2.503125e-02
6.161250e-10,2.545313e-02
6.201250e-10,2.459375e-02
6.241250e-10,2.367188e-02
6.281250e-10,2.243750e-02
6.321250e-10,2.215625e-02
6.361250e-10,2.109375e-02
6.401250e-10,2.039063e-02
6.441250e-10,2.003125e-02
6.481250e-10,1.962500e-02
6.521250e-10,1.881250e-02
6.561250e-10,1.778125e-02
6.601250e-10,1.723438e-02
6.641250e-10,1.695313e-02
6.681250e-10,1.598438e-02
6.721250e-10,1.590625e-02
6.761250e-10,1.559375e-02
6.801250e-10,1.520313e-02
6.841250e-10,1.359375e-02
6.881250e-10,1.385938e-02
6.921250e-10,1.276563e-02
6.961250e-10,1.346875e-02
7.001250e-10,1.290625e-02
7.041250e-10,1.234375e-02
7.081250e-10,1.142188e-02
7.121250e-10,1.157813e-02
7.161250e-10,1.090625e-02
7.201250e-10,1.064063e-02
7.241250e-10,1.078125e-02
7.281250e-10,1.087500e-02
7.321250e-10,1.060938e-02
7.361250e-10,1.010938e-02
7.401250e-10,1.010938e-02
7.441250e-10,1.040625e-02
7.481250e-10,1.003125e-02
7.521250e-10,1.056250e-02
7.561250e-10,1.085938e-02
7.601250e-10,1.101563e-02
7.641250e-10,1.001563e-02
7.681250e-10,1.081250e-02
7.721250e-10,1.025000e-02
7.761250e-10,1.151563e-02
7.801250e-10,1.148438e-02
7.841250e-10,1.143750e-02
7.881250e-10,1.096875e-02
7.921250e-10,1.154688e-02
7.961250e-10,1.126563e-02
8.001250e-10,1.135938e-02
8.041250e-10,1.185938e-02
8.081250e-10,1.218750e-02
8.121250e-10,1.218750e-02
8.161250e-10,1.185938e-02
8.201250e-10,1.198438e-02
8.241250e-10,1.242188e-02
8.281250e-10,1.210938e-02
8.321250e-10,1.270313e-02
8.361250e-10,1.293750e-02
8.401250e-10,1.300000e-02
8.441250e-10,1.190625e-02
8.481250e-10,1.250000e-02
8.521250e-10,1.170313e-02
8.561250e-10,1.278125e-02
8.601250e-10,1.246875e-02
8.641250e-10,1.214063e-02
8.681250e-10,1.132813e-02
8.721250e-10,1.150000e-02
8.761250e-10,1.085938e-02
8.801250e-10,1.056250e-02
8.841250e-10,1.067188e-02
8.881250e-10,1.050000e-02
8.921250e-10,1.006250e-02
8.961250e-10,9.312500e-03
9.001250e-10,8.953125e-03
9.041250e-10,9.000000e-03
9.081250e-10,8.281250e-03
9.121250e-10,8.453125e-03
9.161250e-10,8.281250e-03
9.201250e-10,7.968750e-03
9.241250e-10,6.546875e-03
9.281250e-10,6.828125e-03
9.321250e-10,5.703125e-03
9.361250e-10,6.546875e-03
9.401250e-10,6.031250e-03
9.441250e-10,5.500000e-03
9.481250e-10,4.578125e-03
9.521250e-10,4.640625e-03
9.561250e-10,3.968750e-03
9.601250e-10,3.718750e-03
9.641250e-10,3.890625e-03
9.681250e-10,3.734375e-03
9.721250e-10,3.437500e-03
9.761250e-10,2.890625e-03
9.801250e-10,2.703125e-03
9.841250e-10,3.046875e-03
9.881250e-10,2.656250e-03
9.921250e-10,3.156250e-03
9.961250e-10,3.343750e-03
1.000125e-09,3.468750e-03
1.004125e-09,2.500000e-03
1.008125e-09,3.281250e-03
1.012125e-09,2.609375e-03
1.016125e-09,3.968750e-03
1.020125e-09,3.968750e-03
1.024125e-09,3.968750e-03
1.028125e-09,3.609375e-03
1.032125e-09,4.234375e-03
1.036125e-09,4.125000e-03
1.040125e-09,4.421875e-03
1.044125e-09,5.140625e-03
1.048125e-09,5.515625e-03
1.052125e-09,5.703125e-03
1.056125e-09,5.656250e-03
1.060125e-09,5.921875e-03
1.064125e-09,6.718750e-03
1.068125e-09,6.703125e-03
1.072125e-09,7.593750e-03
1.076125e-09,8.109375e-03
1.080125e-09,8.562500e-03
1.084125e-09,7.859375e-03
1.088125e-09,8.906250e-03
1.092125e-09,8.406250e-03
1.096125e-09,9.859375e-03
1.100125e-09,9.953125e-03
1.104125e-09,1.000000e-02
1.108125e-09,9.625000e-03
1.112125e-09,1.021875e-02
1.116125e-09,1.001563e-02
1.120125e-09,1.018750e-02
1.124125e-09,1.075000e-02
1.128125e-09,1.095313e-02
1.132125e-09,1.087500e-02
1.136125e-09,1.054688e-02
1.140125e-09,1.051563e-02
1.144125e-09,1.095313e-02
1.148125e-09,1.056250e-02
1.152125e-09,1.107813e-02
1.156125e-09,1.120313e-02
1.160125e-09,1.125000e-02
1.164125e-09,1.009375e-02
1.168125e-09,1.075000e-02
1.172125e-09,9.796875e-03
1.176125e-09,1.081250e-02
1.180125e-09,1.045313e-02
1.184125e-09,1.007813e-02
1.188125e-09,9.281250e-03
1.192125e-09,9.484375e-03
1.196125e-09,8.875000e-03
1.200125e-09,8.687500e-03
1.204125e-09,8.890625e-03
1.208125e-09,8.812500e-03
1.212125e-09,8.437500e-03
1.216125e-09,7.828125e-03
1.220125e-09,7.593750e-03
1.224125e-09,7.828125e-03
1.228125e-09,7.265625e-03
1.232125e-09,7.656250e-03
1.236125e-09,7.703125e-03
1.240125e-09,7.718750e-03
1.244125e-09,6.500000e-03
1.248125e-09,7.187500e-03
1.252125e-09,6.296875e-03
1.256125e-09,7.406250e-03
1.260125e-09,7.156250e-03
1.264125e-09,6.921875e-03
1.268125e-09,6.312500e-03
1.272125e-09,6.718750e-03
1.276125e-09,6.343750e-03
1.280125e-09,6.390625e-03
1.284125e-09,6.875000e-03
1.288125e-09,7.125000e-03
1.292125e-09,7.031250e-03
1.296125e-09,6.750000e-03
1.300125e-09,6.875000e-03
1.304125e-09,7.437500e-03
1.308125e-09,7.203125e-03
1.312125e-09,7.953125e-03
1.316125e-09,8.343750e-03
1.320125e-09,8.718750e-03
1.324125e-09,7.781250e-03
1.328125e-09,8.781250e-03
1.332125e-09,8.187500e-03
1.336125e-09,9.593750e-03
1.340125e-09,9.609375e-03
1.344125e-09,9.625000e-03
1.348125e-09,9.234375e-03
1.352125e-09,9.843750e-03
1.356125e-09,9.640625e-03
1.360125e-09,9.828125e-03
1.364125e-09,1.043750e-02
1.368125e-09,1.078125e-02
1.372125e-09,1.075000e-02
1.376125e-09,1.050000e-02
1.380125e-09,1.062500e-02
1.384125e-09,1.115625e-02
1.388125e-09,1.087500e-02
1.392125e-09,1.156250e-02
1.396125e-09,1.182813e-02
1.400125e-09,1.207813e-02
1.404125e-09,1.093750e-02
1.408125e-09,1.176563e-02
1.412125e-09,1.096875e-02
1.416125e-09,1.215625e-02
1.420125e-09,1.192188e-02
1.424125e-09,1.167188e-02
1.428125e-09,1.100000e-02
1.432125e-09,1.131250e-02
1.436125e-09,1.081250e-02
1.440125e-09,1.070313e-02
1.444125e-09,1.096875e-02
1.448125e-09,1.101563e-02
1.452125e-09,1.065625e-02
1.456125e-09,1.009375e-02
1.460125e-09,9.906250e-03
1.464125e-09,1.012500e-02
1.468125e-09,9.515625e-03
1.472125e-09,9.906250e-03
1.476125e-09,9.890625e-03
1.480125e-09,9.875000e-03
1.484125e-09,8.453125e-03
1.488125e-09,9.031250e-03
1.492125e-09,8.000000e-03
1.496125e-09,8.968750e-03
1.500125e-09,8.531250e-03
1.504125e-09,8.109375e-03
1.508125e-09,7.281250e-03
1.512125e-09,7.453125e-03
1.516125e-09,6.843750e-03
1.520125e-09,6.625000e-03
1.524125e-09,6.828125e-03
1.528125e-09,6.828125e-03
1.532125e-09,6.437500e-03
1.536125e-09,5.843750e-03
1.540125e-09,5.671875e-03
1.544125e-09,5.906250e-03
1.548125e-09,5.359375e-03
1.552125e-09,5.812500e-03
1.556125e-09,5.875000e-03
1.560125e-09,5.953125e-03
1.564125e-09,4.656250e-03
1.568125e-09,5.359375e-03
1.572125e-09,4.468750e-03
1.576125e-09,5.593750e-03
1.580125e-09,5.328125e-03
1.584125e-09,5.078125e-03
1.588125e-09,4.437500e-03
1.592125e-09,4.812500e-03
1.596125e-09,4.390625e-03
1.600125e-09,4.375000e-03
1.604125e-09,4.796875e-03
1.608125e-09,5.000000e-03
1.612125e-09,4.828125e-03
1.616125e-09,4.468750e-03
1.620125e-09,4.515625e-03
1.624125e-09,4.968750e-03
1.628125e-09,4.625000e-03
1.632125e-09,5.296875e-03
1.636125e-09,5.578125e-03
1.640125e-09,5.859375e-03
1.644125e-09,4.750000e-03
1.648125e-09,5.656250e-03
1.652125e-09,4.953125e-03
1.656125e-09,6.265625e-03
1.660125e-09,6.171875e-03
1.664125e-09,6.093750e-03
1.668125e-09,5.609375e-03
1.672125e-09,6.125000e-03
1.676125e-09,5.843750e-03
1.680125e-09,5.968750e-03
1.684125e-09,6.500000e-03
1.688125e-09,6.812500e-03
1.692125e-09,6.750000e-03
1.696125e-09,6.468750e-03
1.700125e-09,6.578125e-03
1.704125e-09,7.093750e-03
1.708125e-09,6.812500e-03
1.712125e-09,7.515625e-03
1.716125e-09,7.828125e-03
1.720125e-09,8.125000e-03
1.724125e-09,7.000000e-03
1.728125e-09,7.906250e-03
1.732125e-09,7.171875e-03
1.736125e-09,8.453125e-03
1.740125e-09,8.328125e-03
1.744125e-09,8.187500e-03
1.748125e-09,7.625000e-03
1.752125e-09,8.078125e-03
1.756125e-09,7.703125e-03
