Measurements-streak-laser-independent/Photodiode-on-Tek-12bit-4GHz/Tek000_ch1_20190613133057837.csv

Model,MSO64
Waveform Type,ANALOG
Horizontal Units,s
Sample Interval,4.000000e-12
Record Length,1000
Zero Index,310.265625
Vertical Units,V

TIME,CH1
-1.241063e-09,2.328125e-03
-1.237063e-09,2.703125e-03
-1.233063e-09,1.687500e-03
-1.229063e-09,2.718750e-03
-1.225062e-09,2.140625e-03
-1.221062e-09,3.593750e-03
-1.217062e-09,3.656250e-03
-1.213062e-09,3.718750e-03
-1.209062e-09,3.375000e-03
-1.205062e-09,4.062500e-03
-1.201062e-09,3.937500e-03
-1.197062e-09,4.218750e-03
-1.193062e-09,4.906250e-03
-1.189062e-09,5.375000e-03
-1.185063e-09,5.453125e-03
-1.181063e-09,5.312500e-03
-1.177063e-09,5.562500e-03
-1.173063e-09,6.203125e-03
-1.169063e-09,6.015625e-03
-1.165062e-09,6.843750e-03
-1.161062e-09,7.234375e-03
-1.157062e-09,7.609375e-03
-1.153062e-09,6.546875e-03
-1.149062e-09,7.484375e-03
-1.145062e-09,6.781250e-03
-1.141062e-09,8.078125e-03
-1.137062e-09,7.937500e-03
-1.133062e-09,7.781250e-03
-1.129062e-09,7.187500e-03
-1.125063e-09,7.578125e-03
-1.121063e-09,7.140625e-03
-1.117063e-09,7.078125e-03
-1.113063e-09,7.406250e-03
-1.109063e-09,7.515625e-03
-1.105063e-09,7.187500e-03
-1.101062e-09,6.640625e-03
-1.097062e-09,6.468750e-03
-1.093062e-09,6.703125e-03
-1.089062e-09,6.109375e-03
-1.085062e-09,6.515625e-03
-1.081062e-09,6.484375e-03
-1.077062e-09,6.468750e-03
-1.073062e-09,5.015625e-03
-1.069062e-09,5.578125e-03
-1.065063e-09,4.515625e-03
-1.061063e-09,5.484375e-03
-1.057063e-09,5.031250e-03
-1.053063e-09,4.578125e-03
-1.049063e-09,3.718750e-03
-1.045063e-09,3.890625e-03
-1.041062e-09,3.250000e-03
-1.037062e-09,3.031250e-03
-1.033062e-09,3.218750e-03
-1.029062e-09,3.218750e-03
-1.025062e-09,2.828125e-03
-1.021062e-09,2.250000e-03
-1.017062e-09,2.078125e-03
-1.013062e-09,2.343750e-03
-1.009062e-09,1.812500e-03
-1.005063e-09,2.312500e-03
-1.001063e-09,2.421875e-03
-9.970625e-10,2.562500e-03
-9.930625e-10,1.296875e-03
-9.890625e-10,2.078125e-03
-9.850625e-10,1.250000e-03
-9.810625e-10,2.453125e-03
-9.770625e-10,2.281250e-03
-9.730625e-10,2.109375e-03
-9.690625e-10,1.562500e-03
-9.650625e-10,2.031250e-03
-9.610625e-10,1.718750e-03
-9.570625e-10,1.812500e-03
-9.530625e-10,2.328125e-03
-9.490625e-10,2.640625e-03
-9.450625e-10,2.578125e-03
-9.410625e-10,2.312500e-03
-9.370625e-10,2.453125e-03
-9.330625e-10,3.000000e-03
-9.290625e-10,2.750000e-03
-9.250625e-10,3.515625e-03
-9.210625e-10,3.875000e-03
-9.170625e-10,4.234375e-03
-9.130625e-10,3.187500e-03
-9.090625e-10,4.140625e-03
-9.050625e-10,3.484375e-03
-9.010625e-10,4.796875e-03
-8.970625e-10,4.734375e-03
-8.930625e-10,4.671875e-03
-8.890625e-10,4.187500e-03
-8.850625e-10,4.703125e-03
-8.810625e-10,4.406250e-03
-8.770625e-10,4.515625e-03
-8.730625e-10,5.000000e-03
-8.690625e-10,5.281250e-03
-8.650625e-10,5.156250e-03
-8.610625e-10,4.812500e-03
-8.570625e-10,4.859375e-03
-8.530625e-10,5.296875e-03
-8.490625e-10,4.937500e-03
-8.450625e-10,5.562500e-03
-8.410625e-10,5.781250e-03
-8.370625e-10,6.000000e-03
-8.330625e-10,4.828125e-03
-8.290625e-10,5.656250e-03
-8.250625e-10,4.843750e-03
-8.210625e-10,5.953125e-03
-8.170625e-10,5.781250e-03
-8.130625e-10,5.578125e-03
-8.090625e-10,5.000000e-03
-8.050625e-10,5.406250e-03
-8.010625e-10,4.984375e-03
-7.970625e-10,5.046875e-03
-7.930625e-10,5.453125e-03
-7.890625e-10,5.671875e-03
-7.850625e-10,5.531250e-03
-7.810625e-10,5.156250e-03
-7.770625e-10,5.187500e-03
-7.730625e-10,5.640625e-03
-7.690625e-10,5.296875e-03
-7.650625e-10,5.968750e-03
-7.610625e-10,6.250000e-03
-7.570625e-10,6.531250e-03
-7.530625e-10,5.468750e-03
-7.490625e-10,6.375000e-03
-7.450625e-10,5.687500e-03
-7.410625e-10,6.859375e-03
-7.370625e-10,6.859375e-03
-7.330625e-10,6.812500e-03
-7.290625e-10,6.406250e-03
-7.250625e-10,6.921875e-03
-7.210625e-10,6.640625e-03
-7.170625e-10,6.875000e-03
-7.130625e-10,7.406250e-03
-7.090625e-10,7.734375e-03
-7.050625e-10,7.812500e-03
-7.010625e-10,7.546875e-03
-6.970625e-10,7.687500e-03
-6.930625e-10,8.218750e-03
-6.890625e-10,7.984375e-03
-6.850625e-10,8.703125e-03
-6.810625e-10,9.062500e-03
-6.770625e-10,9.359375e-03
-6.730625e-10,8.296875e-03
-6.690625e-10,9.218750e-03
-6.650625e-10,8.562500e-03
-6.610625e-10,9.671875e-03
-6.570625e-10,9.609375e-03
-6.530625e-10,9.500000e-03
-6.490625e-10,9.015625e-03
-6.450625e-10,9.375000e-03
-6.410625e-10,8.921875e-03
-6.370625e-10,9.015625e-03
-6.330625e-10,9.390625e-03
-6.290625e-10,9.484375e-03
-6.250625e-10,9.421875e-03
-6.210625e-10,8.921875e-03
-6.170625e-10,8.812500e-03
-6.130625e-10,9.093750e-03
-6.090625e-10,8.656250e-03
-6.050625e-10,9.109375e-03
-6.010625e-10,9.203125e-03
-5.970625e-10,9.234375e-03
-5.930625e-10,7.875000e-03
-5.890625e-10,8.546875e-03
-5.850625e-10,7.703125e-03
-5.810625e-10,8.546875e-03
-5.770625e-10,8.296875e-03
-5.730625e-10,7.968750e-03
-5.690625e-10,7.265625e-03
-5.650625e-10,7.437500e-03
-5.610625e-10,6.796875e-03
-5.570625e-10,6.734375e-03
-5.530625e-10,6.984375e-03
-5.490625e-10,6.937500e-03
-5.450625e-10,6.781250e-03
-5.410625e-10,6.218750e-03
-5.370625e-10,6.062500e-03
-5.330625e-10,6.343750e-03
-5.290625e-10,5.875000e-03
-5.250625e-10,6.375000e-03
-5.210625e-10,6.468750e-03
-5.170625e-10,6.546875e-03
-5.130625e-10,5.250000e-03
-5.090625e-10,5.984375e-03
-5.050625e-10,5.281250e-03
-5.010625e-10,6.234375e-03
-4.970625e-10,6.171875e-03
-4.930625e-10,5.937500e-03
-4.890625e-10,5.375000e-03
-4.850625e-10,5.703125e-03
-4.810625e-10,5.265625e-03
-4.770625e-10,5.312500e-03
-4.730625e-10,5.750000e-03
-4.690625e-10,5.843750e-03
-4.650625e-10,5.781250e-03
-4.610625e-10,5.375000e-03
-4.570625e-10,5.406250e-03
-4.530625e-10,5.828125e-03
-4.490625e-10,5.437500e-03
-4.450625e-10,6.062500e-03
-4.410625e-10,6.218750e-03
-4.370625e-10,6.359375e-03
-4.330625e-10,5.125000e-03
-4.290625e-10,5.812500e-03
-4.250625e-10,5.125000e-03
-4.210625e-10,6.093750e-03
-4.170625e-10,6.000000e-03
-4.130625e-10,5.671875e-03
-4.090625e-10,5.031250e-03
-4.050625e-10,5.265625e-03
-4.010625e-10,4.781250e-03
-3.970625e-10,4.625000e-03
-3.930625e-10,4.921875e-03
-3.890625e-10,4.859375e-03
-3.850625e-10,4.546875e-03
-3.810625e-10,3.968750e-03
-3.770625e-10,3.859375e-03
-3.730625e-10,4.109375e-03
-3.690625e-10,3.453125e-03
-3.650625e-10,3.890625e-03
-3.610625e-10,3.875000e-03
-3.570625e-10,3.812500e-03
-3.530625e-10,2.421875e-03
-3.490625e-10,2.890625e-03
-3.450625e-10,2.031250e-03
-3.410625e-10,2.859375e-03
-3.370625e-10,2.625000e-03
-3.330625e-10,2.171875e-03
-3.290625e-10,1.484375e-03
-3.250625e-10,1.671875e-03
-3.210625e-10,1.203125e-03
-3.170625e-10,1.000000e-03
-3.130625e-10,1.312500e-03
-3.090625e-10,1.312500e-03
-3.050625e-10,1.031250e-03
-3.010625e-10,6.250000e-04
-2.970625e-10,6.718750e-04
-2.930625e-10,1.109375e-03
-2.890625e-10,6.718750e-04
-2.850625e-10,1.296875e-03
-2.810625e-10,1.609375e-03
-2.770625e-10,1.828125e-03
-2.730625e-10,8.125000e-04
-2.690625e-10,1.593750e-03
-2.650625e-10,1.062500e-03
-2.610625e-10,2.296875e-03
-2.570625e-10,2.406250e-03
-2.530625e-10,2.375000e-03
-2.490625e-10,2.140625e-03
-2.450625e-10,2.750000e-03
-2.410625e-10,2.687500e-03
-2.370625e-10,2.875000e-03
-2.330625e-10,3.562500e-03
-2.290625e-10,3.953125e-03
-2.250625e-10,4.015625e-03
-2.210625e-10,4.015625e-03
-2.170625e-10,4.343750e-03
-2.130625e-10,5.031250e-03
-2.090625e-10,4.906250e-03
-2.050625e-10,5.734375e-03
-2.010625e-10,6.250000e-03
-1.970625e-10,6.640625e-03
-1.930625e-10,5.781250e-03
-1.890625e-10,6.656250e-03
-1.850625e-10,6.125000e-03
-1.810625e-10,7.390625e-03
-1.770625e-10,7.421875e-03
-1.730625e-10,7.343750e-03
-1.690625e-10,7.015625e-03
-1.650625e-10,7.484375e-03
-1.610625e-10,7.203125e-03
-1.570625e-10,7.234375e-03
-1.530625e-10,7.640625e-03
-1.490625e-10,7.796875e-03
-1.450625e-10,7.578125e-03
-1.410625e-10,7.328125e-03
-1.370625e-10,7.328125e-03
-1.330625e-10,7.671875e-03
-1.290625e-10,7.281250e-03
-1.250625e-10,7.843750e-03
-1.210625e-10,8.078125e-03
-1.170625e-10,8.296875e-03
-1.130625e-10,7.281250e-03
-1.090625e-10,8.031250e-03
-1.050625e-10,7.375000e-03
-1.010625e-10,8.671875e-03
-9.706250e-11,8.687500e-03
-9.306250e-11,8.750000e-03
-8.906250e-11,8.640625e-03
-8.506250e-11,9.421875e-03
-8.106250e-11,9.546875e-03
-7.706250e-11,1.010938e-02
-7.306250e-11,1.112500e-02
-6.906250e-11,1.206250e-02
-6.506250e-11,1.270313e-02
-6.106250e-11,1.345313e-02
-5.706250e-11,1.456250e-02
-5.306250e-11,1.610938e-02
-4.906250e-11,1.712500e-02
-4.506250e-11,1.926563e-02
-4.106250e-11,2.114063e-02
-3.706250e-11,2.321875e-02
-3.306250e-11,2.421875e-02
-2.906250e-11,2.706250e-02
-2.506250e-11,2.859375e-02
-2.106250e-11,3.229688e-02
-1.706250e-11,3.473438e-02
-1.306250e-11,3.745313e-02
-9.062500e-12,4.004688e-02
-5.062500e-12,4.365625e-02
-1.062500e-12,4.668750e-02
2.937500e-12,5.025000e-02
6.937500e-12,5.435938e-02
1.093750e-11,5.850000e-02
1.493750e-11,6.229688e-02
1.893750e-11,6.628125e-02
2.293750e-11,7.065625e-02
2.693750e-11,7.543750e-02
3.093750e-11,7.973438e-02
3.493750e-11,8.514063e-02
3.893750e-11,9.021875e-02
4.293750e-11,9.554688e-02
4.693750e-11,9.967188e-02
5.093750e-11,1.055781e-01
5.493750e-11,1.100781e-01
5.893750e-11,1.166563e-01
6.293750e-11,1.217813e-01
6.693750e-11,1.271719e-01
7.093750e-11,1.322031e-01
7.493750e-11,1.380938e-01
7.893750e-11,1.432813e-01
8.293750e-11,1.487969e-01
8.693750e-11,1.546875e-01
9.093750e-11,1.604531e-01
9.493750e-11,1.655469e-01
9.893750e-11,1.706406e-01
1.029375e-10,1.759219e-01
1.069375e-10,1.813594e-01
1.109375e-10,1.861406e-01
1.149375e-10,1.917031e-01
1.189375e-10,1.966875e-01
1.229375e-10,2.017344e-01
1.269375e-10,2.052500e-01
1.309375e-10,2.103750e-01
1.349375e-10,2.138281e-01
1.389375e-10,2.190469e-01
1.429375e-10,2.225938e-01
1.469375e-10,2.262031e-01
1.509375e-10,2.291719e-01
1.549375e-10,2.327500e-01
1.589375e-10,2.355000e-01
1.629375e-10,2.383281e-01
1.669375e-10,2.412969e-01
1.709375e-10,2.440313e-01
1.749375e-10,2.458281e-01
1.789375e-10,2.474375e-01
1.829375e-10,2.491406e-01
1.869375e-10,2.508594e-01
1.909375e-10,2.517969e-01
1.949375e-10,2.533438e-01
1.989375e-10,2.541719e-01
2.029375e-10,2.550469e-01
2.069375e-10,2.542656e-01
2.109375e-10,2.550781e-01
2.149375e-10,2.541563e-01
2.189375e-10,2.549063e-01
2.229375e-10,2.539844e-01
2.269375e-10,2.531250e-01
2.309375e-10,2.516094e-01
2.349375e-10,2.507188e-01
2.389375e-10,2.490781e-01
2.429375e-10,2.475313e-01
2.469375e-10,2.461250e-01
2.509375e-10,2.445938e-01
2.549375e-10,2.421719e-01
2.589375e-10,2.396094e-01
2.629375e-10,2.372813e-01
2.669375e-10,2.350781e-01
2.709375e-10,2.321406e-01
2.749375e-10,2.299219e-01
2.789375e-10,2.271094e-01
2.829375e-10,2.244844e-01
2.869375e-10,2.202656e-01
2.909375e-10,2.178594e-01
2.949375e-10,2.138594e-01
2.989375e-10,2.115625e-01
3.029375e-10,2.077969e-01
3.069375e-10,2.041875e-01
3.109375e-10,2.000625e-01
3.149375e-10,1.967656e-01
3.189375e-10,1.928750e-01
3.229375e-10,1.891719e-01
3.269375e-10,1.857188e-01
3.309375e-10,1.822813e-01
3.349375e-10,1.781406e-01
3.389375e-10,1.739688e-01
3.429375e-10,1.701406e-01
3.469375e-10,1.666094e-01
3.509375e-10,1.624219e-01
3.549375e-10,1.590781e-01
3.589375e-10,1.553125e-01
3.629375e-10,1.518125e-01
3.669375e-10,1.468125e-01
3.709375e-10,1.438125e-01
3.749375e-10,1.393281e-01
3.789375e-10,1.365938e-01
3.829375e-10,1.325469e-01
3.869375e-10,1.287344e-01
3.909375e-10,1.244844e-01
3.949375e-10,1.212188e-01
3.989375e-10,1.174219e-01
4.029375e-10,1.139063e-01
4.069375e-10,1.107188e-01
4.109375e-10,1.076094e-01
4.149375e-10,1.039844e-01
4.189375e-10,1.003438e-01
4.229375e-10,9.712500e-02
4.269375e-10,9.431250e-02
4.309375e-10,9.087500e-02
4.349375e-10,8.834375e-02
4.389375e-10,8.553125e-02
4.429375e-10,8.298438e-02
4.469375e-10,7.903125e-02
4.509375e-10,7.717188e-02
4.549375e-10,7.389063e-02
4.589375e-10,7.239063e-02
4.629375e-10,6.970313e-02
4.669375e-10,6.720313e-02
4.709375e-10,6.439063e-02
4.749375e-10,6.259375e-02
4.789375e-10,6.026563e-02
4.829375e-10,5.831250e-02
4.869375e-10,5.668750e-02
4.909375e-10,5.515625e-02
4.949375e-10,5.325000e-02
4.989375e-10,5.129688e-02
5.029375e-10,4.975000e-02
5.069375e-10,4.868750e-02
5.109375e-10,4.695313e-02
5.149375e-10,4.610938e-02
5.189375e-10,4.507813e-02
5.229375e-10,4.420313e-02
5.269375e-10,4.200000e-02
5.309375e-10,4.182813e-02
5.349375e-10,4.023438e-02
5.389375e-10,4.040625e-02
5.429375e-10,3.940625e-02
5.469375e-10,3.846875e-02
5.509375e-10,3.723438e-02
5.549375e-10,3.695313e-02
5.589375e-10,3.604688e-02
5.629375e-10,3.550000e-02
5.669375e-10,3.521875e-02
5.709375e-10,3.498438e-02
5.749375e-10,3.434375e-02
5.789375e-10,3.356250e-02
5.829375e-10,3.315625e-02
5.869375e-10,3.309375e-02
5.909375e-10,3.231250e-02
5.949375e-10,3.235938e-02
5.989375e-10,3.214063e-02
6.029375e-10,3.195313e-02
6.069375e-10,3.042188e-02
6.109375e-10,3.076563e-02
6.149375e-10,2.970313e-02
6.189375e-10,3.034375e-02
6.229375e-10,2.971875e-02
6.269375e-10,2.903125e-02
6.309375e-10,2.800000e-02
6.349375e-10,2.790625e-02
6.389375e-10,2.703125e-02
6.429375e-10,2.646875e-02
6.469375e-10,2.620313e-02
6.509375e-10,2.589063e-02
6.549375e-10,2.517188e-02
6.589375e-10,2.418750e-02
6.629375e-10,2.365625e-02
6.669375e-10,2.334375e-02
6.709375e-10,2.234375e-02
6.749375e-10,2.215625e-02
6.789375e-10,2.173438e-02
6.829375e-10,2.118750e-02
6.869375e-10,1.943750e-02
6.909375e-10,1.948438e-02
6.949375e-10,1.818750e-02
6.989375e-10,1.862500e-02
7.029375e-10,1.779688e-02
7.069375e-10,1.692188e-02
7.109375e-10,1.570313e-02
7.149375e-10,1.553125e-02
7.189375e-10,1.451563e-02
7.229375e-10,1.387500e-02
7.269375e-10,1.364063e-02
7.309375e-10,1.335938e-02
7.349375e-10,1.273438e-02
7.389375e-10,1.184375e-02
7.429375e-10,1.150000e-02
7.469375e-10,1.140625e-02
7.509375e-10,1.067188e-02
7.549375e-10,1.082813e-02
7.589375e-10,1.079688e-02
7.629375e-10,1.059375e-02
7.669375e-10,9.312500e-03
7.709375e-10,9.796875e-03
7.749375e-10,9.000000e-03
7.789375e-10,1.000000e-02
7.829375e-10,9.765625e-03
7.869375e-10,9.515625e-03
7.909375e-10,8.875000e-03
7.949375e-10,9.328125e-03
7.989375e-10,8.921875e-03
8.029375e-10,8.921875e-03
8.069375e-10,9.359375e-03
8.109375e-10,9.671875e-03
8.149375e-10,9.687500e-03
8.189375e-10,9.390625e-03
8.229375e-10,9.578125e-03
8.269375e-10,1.009375e-02
8.309375e-10,9.906250e-03
8.349375e-10,1.059375e-02
8.389375e-10,1.101563e-02
8.429375e-10,1.121875e-02
8.469375e-10,1.034375e-02
8.509375e-10,1.112500e-02
8.549375e-10,1.056250e-02
8.589375e-10,1.187500e-02
8.629375e-10,1.182813e-02
8.669375e-10,1.173438e-02
8.709375e-10,1.117188e-02
8.749375e-10,1.160938e-02
8.789375e-10,1.121875e-02
8.829375e-10,1.118750e-02
8.869375e-10,1.154688e-02
8.909375e-10,1.159375e-02
8.949375e-10,1.142188e-02
8.989375e-10,1.089063e-02
9.029375e-10,1.075000e-02
9.069375e-10,1.100000e-02
9.109375e-10,1.048438e-02
9.149375e-10,1.081250e-02
9.189375e-10,1.079688e-02
9.229375e-10,1.060938e-02
9.269375e-10,9.328125e-03
9.309375e-10,9.687500e-03
9.349375e-10,8.640625e-03
9.389375e-10,9.546875e-03
9.429375e-10,9.093750e-03
9.469375e-10,8.578125e-03
9.509375e-10,7.656250e-03
9.549375e-10,7.703125e-03
9.589375e-10,7.000000e-03
9.629375e-10,6.687500e-03
9.669375e-10,6.796875e-03
9.709375e-10,6.546875e-03
9.749375e-10,6.187500e-03
9.789375e-10,5.515625e-03
9.829375e-10,5.218750e-03
9.869375e-10,5.453125e-03
9.909375e-10,4.937500e-03
9.949375e-10,5.281250e-03
9.989375e-10,5.343750e-03
1.002937e-09,5.296875e-03
1.006938e-09,4.234375e-03
1.010938e-09,4.843750e-03
1.014938e-09,4.046875e-03
1.018938e-09,5.265625e-03
1.022938e-09,5.156250e-03
1.026938e-09,5.046875e-03
1.030937e-09,4.578125e-03
1.034937e-09,5.093750e-03
1.038937e-09,4.875000e-03
1.042937e-09,5.109375e-03
1.046937e-09,5.765625e-03
1.050937e-09,6.031250e-03
1.054937e-09,6.187500e-03
1.058937e-09,6.109375e-03
1.062937e-09,6.328125e-03
1.066938e-09,7.109375e-03
1.070938e-09,7.109375e-03
1.074938e-09,7.968750e-03
1.078938e-09,8.500000e-03
1.082938e-09,8.953125e-03
1.086938e-09,8.312500e-03
1.090937e-09,9.375000e-03
1.094937e-09,8.921875e-03
1.098937e-09,1.042188e-02
1.102937e-09,1.056250e-02
1.106937e-09,1.065625e-02
1.110937e-09,1.034375e-02
1.114937e-09,1.098438e-02
1.118937e-09,1.082813e-02
1.122937e-09,1.104688e-02
1.126938e-09,1.164063e-02
1.130938e-09,1.184375e-02
1.134938e-09,1.181250e-02
1.138938e-09,1.150000e-02
1.142938e-09,1.146875e-02
1.146938e-09,1.190625e-02
1.150937e-09,1.153125e-02
1.154937e-09,1.200000e-02
1.158937e-09,1.209375e-02
1.162937e-09,1.207813e-02
1.166937e-09,1.090625e-02
1.170937e-09,1.146875e-02
1.174937e-09,1.043750e-02
1.178937e-09,1.135938e-02
1.182937e-09,1.089063e-02
1.186938e-09,1.039063e-02
1.190938e-09,9.468750e-03
1.194938e-09,9.531250e-03
1.198938e-09,8.781250e-03
1.202938e-09,8.437500e-03
1.206938e-09,8.484375e-03
1.210937e-09,8.218750e-03
1.214937e-09,7.671875e-03
1.218937e-09,6.906250e-03
1.222937e-09,6.484375e-03
1.226937e-09,6.546875e-03
1.230937e-09,5.828125e-03
1.234937e-09,6.046875e-03
1.238937e-09,5.937500e-03
1.242937e-09,5.781250e-03
1.246938e-09,4.453125e-03
1.250938e-09,5.000000e-03
1.254938e-09,3.984375e-03
1.258938e-09,4.984375e-03
1.262938e-09,4.640625e-03
1.266937e-09,4.328125e-03
1.270937e-09,3.656250e-03
1.274937e-09,4.015625e-03
1.278937e-09,3.625000e-03
1.282937e-09,3.656250e-03
1.286937e-09,4.140625e-03
1.290937e-09,4.421875e-03
1.294937e-09,4.375000e-03
1.298937e-09,4.171875e-03
1.302937e-09,4.359375e-03
1.306938e-09,5.031250e-03
1.310938e-09,4.921875e-03
1.314938e-09,5.812500e-03
1.318938e-09,6.359375e-03
1.322938e-09,6.906250e-03
1.326937e-09,6.171875e-03
1.330937e-09,7.359375e-03
1.334937e-09,6.968750e-03
1.338937e-09,8.593750e-03
1.342937e-09,8.843750e-03
1.346937e-09,9.093750e-03
1.350937e-09,8.937500e-03
1.354937e-09,9.781250e-03
1.358937e-09,9.828125e-03
1.362937e-09,1.026563e-02
1.366938e-09,1.109375e-02
1.370938e-09,1.168750e-02
1.374938e-09,1.187500e-02
1.378938e-09,1.185938e-02
1.382938e-09,1.218750e-02
1.386937e-09,1.292188e-02
1.390937e-09,1.281250e-02
1.394937e-09,1.367188e-02
1.398937e-09,1.410938e-02
1.402937e-09,1.450000e-02
1.406937e-09,1.350000e-02
1.410937e-09,1.442188e-02
1.414937e-09,1.371875e-02
1.418937e-09,1.496875e-02
1.422937e-09,1.479688e-02
1.426938e-09,1.457813e-02
1.430938e-09,1.392188e-02
1.434938e-09,1.423438e-02
1.438938e-09,1.373438e-02
1.442938e-09,1.357813e-02
1.446937e-09,1.381250e-02
1.450937e-09,1.378125e-02
1.454937e-09,1.335938e-02
1.458937e-09,1.268750e-02
1.462937e-09,1.240625e-02
1.466937e-09,1.251563e-02
1.470937e-09,1.179688e-02
1.474937e-09,1.206250e-02
1.478937e-09,1.192188e-02
1.482937e-09,1.176563e-02
1.486938e-09,1.023438e-02
1.490938e-09,1.067188e-02
1.494938e-09,9.515625e-03
1.498938e-09,1.035938e-02
1.502938e-09,9.812500e-03
1.506937e-09,9.265625e-03
1.510937e-09,8.328125e-03
1.514937e-09,8.406250e-03
1.518937e-09,7.703125e-03
1.522937e-09,7.421875e-03
1.526937e-09,7.562500e-03
1.530937e-09,7.500000e-03
1.534937e-09,7.078125e-03
1.538937e-09,6.468750e-03
1.542937e-09,6.281250e-03
1.546938e-09,6.531250e-03
1.550938e-09,6.000000e-03
1.554938e-09,6.484375e-03
1.558938e-09,6.609375e-03
1.562938e-09,6.734375e-03
1.566937e-09,5.500000e-03
1.570937e-09,6.296875e-03
1.574937e-09,5.500000e-03
1.578937e-09,6.718750e-03
1.582937e-09,6.562500e-03
1.586937e-09,6.421875e-03
1.590937e-09,5.906250e-03
1.594937e-09,6.390625e-03
1.598937e-09,6.093750e-03
1.602937e-09,6.203125e-03
1.606938e-09,6.734375e-03
1.610938e-09,7.046875e-03
1.614938e-09,6.984375e-03
1.618938e-09,6.718750e-03
1.622938e-09,6.843750e-03
1.626937e-09,7.375000e-03
1.630937e-09,7.093750e-03
1.634937e-09,7.812500e-03
1.638937e-09,8.125000e-03
1.642937e-09,8.421875e-03
1.646937e-09,7.312500e-03
1.650937e-09,8.187500e-03
1.654937e-09,7.437500e-03
1.658937e-09,8.687500e-03
1.662937e-09,8.515625e-03
1.666938e-09,8.343750e-03
1.670938e-09,7.718750e-03
1.674938e-09,8.109375e-03
1.678938e-09,7.671875e-03
1.682938e-09,7.625000e-03
1.686937e-09,7.953125e-03
1.690937e-09,8.062500e-03
1.694937e-09,7.765625e-03
1.698937e-09,7.250000e-03
1.702937e-09,7.125000e-03
1.706937e-09,7.375000e-03
1.710937e-09,6.828125e-03
1.714937e-09,7.265625e-03
1.718937e-09,7.312500e-03
1.722937e-09,7.328125e-03
1.726938e-09,5.953125e-03
1.730938e-09,6.578125e-03
1.734938e-09,5.593750e-03
1.738938e-09,6.625000e-03
1.742938e-09,6.250000e-03
1.746937e-09,5.875000e-03
1.750937e-09,5.109375e-03
1.754937e-09,5.359375e-03
1.758937e-09,4.828125e-03
