Measurements-streak-laser-independent/Photodiode-on-Tek-12bit-4GHz/Tek000_ch1_20190613132941918.csv

Model,MSO64
Waveform Type,ANALOG
Horizontal Units,s
Sample Interval,4.000000e-12
Record Length,1000
Zero Index,310.796875
Vertical Units,V

TIME,CH1
-1.243187e-09,6.734375e-03
-1.239187e-09,8.000000e-03
-1.235187e-09,7.859375e-03
-1.231187e-09,7.703125e-03
-1.227188e-09,7.125000e-03
-1.223188e-09,7.546875e-03
-1.219188e-09,7.140625e-03
-1.215188e-09,7.140625e-03
-1.211188e-09,7.531250e-03
-1.207188e-09,7.703125e-03
-1.203187e-09,7.468750e-03
-1.199187e-09,7.015625e-03
-1.195187e-09,6.953125e-03
-1.191187e-09,7.281250e-03
-1.187187e-09,6.796875e-03
-1.183187e-09,7.312500e-03
-1.179187e-09,7.406250e-03
-1.175187e-09,7.484375e-03
-1.171187e-09,6.156250e-03
-1.167188e-09,6.828125e-03
-1.163188e-09,5.875000e-03
-1.159188e-09,6.937500e-03
-1.155188e-09,6.593750e-03
-1.151188e-09,6.218750e-03
-1.147188e-09,5.437500e-03
-1.143187e-09,5.671875e-03
-1.139187e-09,5.093750e-03
-1.135187e-09,4.921875e-03
-1.131187e-09,5.140625e-03
-1.127187e-09,5.156250e-03
-1.123187e-09,4.781250e-03
-1.119187e-09,4.187500e-03
-1.115187e-09,4.015625e-03
-1.111187e-09,4.234375e-03
-1.107188e-09,3.656250e-03
-1.103188e-09,4.109375e-03
-1.099188e-09,4.140625e-03
-1.095188e-09,4.187500e-03
-1.091188e-09,2.828125e-03
-1.087188e-09,3.500000e-03
-1.083187e-09,2.562500e-03
-1.079187e-09,3.656250e-03
-1.075187e-09,3.343750e-03
-1.071187e-09,3.046875e-03
-1.067187e-09,2.343750e-03
-1.063187e-09,2.687500e-03
-1.059187e-09,2.218750e-03
-1.055187e-09,2.171875e-03
-1.051187e-09,2.546875e-03
-1.047188e-09,2.718750e-03
-1.043188e-09,2.515625e-03
-1.039188e-09,2.125000e-03
-1.035188e-09,2.156250e-03
-1.031188e-09,2.593750e-03
-1.027188e-09,2.250000e-03
-1.023187e-09,2.921875e-03
-1.019187e-09,3.218750e-03
-1.015187e-09,3.515625e-03
-1.011187e-09,2.406250e-03
-1.007187e-09,3.343750e-03
-1.003187e-09,2.671875e-03
-9.991875e-10,4.015625e-03
-9.951875e-10,3.968750e-03
-9.911875e-10,3.953125e-03
-9.871875e-10,3.515625e-03
-9.831875e-10,4.109375e-03
-9.791875e-10,3.906250e-03
-9.751875e-10,4.093750e-03
-9.711875e-10,4.718750e-03
-9.671875e-10,5.125000e-03
-9.631875e-10,5.140625e-03
-9.591875e-10,4.953125e-03
-9.551875e-10,5.171875e-03
-9.511875e-10,5.796875e-03
-9.471875e-10,5.609375e-03
-9.431875e-10,6.437500e-03
-9.391875e-10,6.843750e-03
-9.351875e-10,7.250000e-03
-9.311875e-10,6.250000e-03
-9.271875e-10,7.250000e-03
-9.231875e-10,6.625000e-03
-9.191875e-10,7.984375e-03
-9.151875e-10,7.968750e-03
-9.111875e-10,7.921875e-03
-9.071875e-10,7.468750e-03
-9.031875e-10,8.000000e-03
-8.991875e-10,7.718750e-03
-8.951875e-10,7.828125e-03
-8.911875e-10,8.328125e-03
-8.871875e-10,8.593750e-03
-8.831875e-10,8.468750e-03
-8.791875e-10,8.109375e-03
-8.751875e-10,8.125000e-03
-8.711875e-10,8.546875e-03
-8.671875e-10,8.140625e-03
-8.631875e-10,8.734375e-03
-8.591875e-10,8.890625e-03
-8.551875e-10,9.031250e-03
-8.511875e-10,7.781250e-03
-8.471875e-10,8.500000e-03
-8.431875e-10,7.593750e-03
-8.391875e-10,8.609375e-03
-8.351875e-10,8.312500e-03
-8.311875e-10,7.953125e-03
-8.271875e-10,7.218750e-03
-8.231875e-10,7.453125e-03
-8.191875e-10,6.859375e-03
-8.151875e-10,6.703125e-03
-8.111875e-10,6.890625e-03
-8.071875e-10,6.890625e-03
-8.031875e-10,6.500000e-03
-7.991875e-10,5.875000e-03
-7.951875e-10,5.640625e-03
-7.911875e-10,5.828125e-03
-7.871875e-10,5.187500e-03
-7.831875e-10,5.562500e-03
-7.791875e-10,5.531250e-03
-7.751875e-10,5.500000e-03
-7.711875e-10,4.109375e-03
-7.671875e-10,4.703125e-03
-7.631875e-10,3.687500e-03
-7.591875e-10,4.578125e-03
-7.551875e-10,4.218750e-03
-7.511875e-10,3.828125e-03
-7.471875e-10,3.093750e-03
-7.431875e-10,3.296875e-03
-7.391875e-10,2.718750e-03
-7.351875e-10,2.625000e-03
-7.311875e-10,2.890625e-03
-7.271875e-10,2.953125e-03
-7.231875e-10,2.734375e-03
-7.191875e-10,2.218750e-03
-7.151875e-10,2.140625e-03
-7.111875e-10,2.468750e-03
-7.071875e-10,2.046875e-03
-7.031875e-10,2.625000e-03
-6.991875e-10,2.843750e-03
-6.951875e-10,3.046875e-03
-6.911875e-10,1.890625e-03
-6.871875e-10,2.765625e-03
-6.831875e-10,2.062500e-03
-6.791875e-10,3.234375e-03
-6.751875e-10,3.187500e-03
-6.711875e-10,3.140625e-03
-6.671875e-10,2.718750e-03
-6.631875e-10,3.234375e-03
-6.591875e-10,2.953125e-03
-6.551875e-10,3.187500e-03
-6.511875e-10,3.781250e-03
-6.471875e-10,4.125000e-03
-6.431875e-10,4.265625e-03
-6.391875e-10,4.062500e-03
-6.351875e-10,4.265625e-03
-6.311875e-10,4.890625e-03
-6.271875e-10,4.765625e-03
-6.231875e-10,5.593750e-03
-6.191875e-10,6.046875e-03
-6.151875e-10,6.468750e-03
-6.111875e-10,5.515625e-03
-6.071875e-10,6.578125e-03
-6.031875e-10,6.093750e-03
-5.991875e-10,7.390625e-03
-5.951875e-10,7.515625e-03
-5.911875e-10,7.562500e-03
-5.871875e-10,7.218750e-03
-5.831875e-10,7.781250e-03
-5.791875e-10,7.531250e-03
-5.751875e-10,7.781250e-03
-5.711875e-10,8.359375e-03
-5.671875e-10,8.656250e-03
-5.631875e-10,8.718750e-03
-5.591875e-10,8.421875e-03
-5.551875e-10,8.531250e-03
-5.511875e-10,9.015625e-03
-5.471875e-10,8.718750e-03
-5.431875e-10,9.390625e-03
-5.391875e-10,9.609375e-03
-5.351875e-10,9.796875e-03
-5.311875e-10,8.578125e-03
-5.271875e-10,9.359375e-03
-5.231875e-10,8.609375e-03
-5.191875e-10,9.625000e-03
-5.151875e-10,9.437500e-03
-5.111875e-10,9.140625e-03
-5.071875e-10,8.453125e-03
-5.031875e-10,8.671875e-03
-4.991875e-10,8.109375e-03
-4.951875e-10,7.968750e-03
-4.911875e-10,8.203125e-03
-4.871875e-10,8.140625e-03
-4.831875e-10,7.812500e-03
-4.791875e-10,7.187500e-03
-4.751875e-10,6.968750e-03
-4.711875e-10,7.140625e-03
-4.671875e-10,6.500000e-03
-4.631875e-10,6.875000e-03
-4.591875e-10,6.796875e-03
-4.551875e-10,6.703125e-03
-4.511875e-10,5.234375e-03
-4.471875e-10,5.734375e-03
-4.431875e-10,4.781250e-03
-4.391875e-10,5.609375e-03
-4.351875e-10,5.281250e-03
-4.311875e-10,4.812500e-03
-4.271875e-10,4.015625e-03
-4.231875e-10,4.171875e-03
-4.191875e-10,3.593750e-03
-4.151875e-10,3.375000e-03
-4.111875e-10,3.640625e-03
-4.071875e-10,3.609375e-03
-4.031875e-10,3.296875e-03
-3.991875e-10,2.781250e-03
-3.951875e-10,2.734375e-03
-3.911875e-10,3.078125e-03
-3.871875e-10,2.593750e-03
-3.831875e-10,3.187500e-03
-3.791875e-10,3.375000e-03
-3.751875e-10,3.562500e-03
-3.711875e-10,2.406250e-03
-3.671875e-10,3.187500e-03
-3.631875e-10,2.562500e-03
-3.591875e-10,3.765625e-03
-3.551875e-10,3.796875e-03
-3.511875e-10,3.703125e-03
-3.471875e-10,3.328125e-03
-3.431875e-10,3.890625e-03
-3.391875e-10,3.750000e-03
-3.351875e-10,3.906250e-03
-3.311875e-10,4.578125e-03
-3.271875e-10,4.968750e-03
-3.231875e-10,5.015625e-03
-3.191875e-10,4.937500e-03
-3.151875e-10,5.250000e-03
-3.111875e-10,5.984375e-03
-3.071875e-10,5.828125e-03
-3.031875e-10,6.718750e-03
-2.991875e-10,7.234375e-03
-2.951875e-10,7.687500e-03
-2.911875e-10,6.812500e-03
-2.871875e-10,7.781250e-03
-2.831875e-10,7.312500e-03
-2.791875e-10,8.671875e-03
-2.751875e-10,8.781250e-03
-2.711875e-10,8.765625e-03
-2.671875e-10,8.437500e-03
-2.631875e-10,8.984375e-03
-2.591875e-10,8.781250e-03
-2.551875e-10,8.843750e-03
-2.511875e-10,9.343750e-03
-2.471875e-10,9.546875e-03
-2.431875e-10,9.359375e-03
-2.391875e-10,9.031250e-03
-2.351875e-10,9.031250e-03
-2.311875e-10,9.375000e-03
-2.271875e-10,8.875000e-03
-2.231875e-10,9.328125e-03
-2.191875e-10,9.406250e-03
-2.151875e-10,9.375000e-03
-2.111875e-10,8.031250e-03
-2.071875e-10,8.484375e-03
-2.031875e-10,7.453125e-03
-1.991875e-10,8.296875e-03
-1.951875e-10,7.796875e-03
-1.911875e-10,7.250000e-03
-1.871875e-10,6.390625e-03
-1.831875e-10,6.390625e-03
-1.791875e-10,5.625000e-03
-1.751875e-10,5.218750e-03
-1.711875e-10,5.187500e-03
-1.671875e-10,4.953125e-03
-1.631875e-10,4.328125e-03
-1.591875e-10,3.640625e-03
-1.551875e-10,3.265625e-03
-1.511875e-10,3.281250e-03
-1.471875e-10,2.562500e-03
-1.431875e-10,2.843750e-03
-1.391875e-10,2.796875e-03
-1.351875e-10,2.765625e-03
-1.311875e-10,1.484375e-03
-1.271875e-10,2.062500e-03
-1.231875e-10,1.218750e-03
-1.191875e-10,2.375000e-03
-1.151875e-10,2.234375e-03
-1.111875e-10,2.171875e-03
-1.071875e-10,1.890625e-03
-1.031875e-10,2.593750e-03
-9.918750e-11,2.593750e-03
-9.518750e-11,3.078125e-03
-9.118750e-11,4.015625e-03
-8.718750e-11,4.875000e-03
-8.318750e-11,5.421875e-03
-7.918750e-11,6.015625e-03
-7.518750e-11,7.015625e-03
-7.118750e-11,8.453125e-03
-6.718750e-11,9.296875e-03
-6.318750e-11,1.123438e-02
-5.918750e-11,1.290625e-02
-5.518750e-11,1.471875e-02
-5.118750e-11,1.534375e-02
-4.718750e-11,1.789063e-02
-4.318750e-11,1.904688e-02
-3.918750e-11,2.231250e-02
-3.518750e-11,2.426563e-02
-3.118750e-11,2.640625e-02
-2.718750e-11,2.834375e-02
-2.318750e-11,3.128125e-02
-1.918750e-11,3.356250e-02
-1.518750e-11,3.631250e-02
-1.118750e-11,3.954688e-02
-7.187500e-12,4.273438e-02
-3.187500e-12,4.553125e-02
8.125000e-13,4.837500e-02
4.812500e-12,5.159375e-02
8.812500e-12,5.520313e-02
1.281250e-11,5.818750e-02
1.681250e-11,6.223438e-02
2.081250e-11,6.590625e-02
2.481250e-11,6.971875e-02
2.881250e-11,7.223438e-02
3.281250e-11,7.659375e-02
3.681250e-11,7.943750e-02
4.081250e-11,8.431250e-02
4.481250e-11,8.773438e-02
4.881250e-11,9.131250e-02
5.281250e-11,9.448438e-02
5.681250e-11,9.854688e-02
6.081250e-11,1.018594e-01
6.481250e-11,1.055000e-01
6.881250e-11,1.095000e-01
7.281250e-11,1.133594e-01
7.681250e-11,1.166094e-01
8.081250e-11,1.197813e-01
8.481250e-11,1.231875e-01
8.881250e-11,1.268438e-01
9.281250e-11,1.297656e-01
9.681250e-11,1.335625e-01
1.008125e-10,1.368281e-01
1.048125e-10,1.401250e-01
1.088125e-10,1.419531e-01
1.128125e-10,1.455156e-01
1.168125e-10,1.474219e-01
1.208125e-10,1.512031e-01
1.248125e-10,1.533750e-01
1.288125e-10,1.556406e-01
1.328125e-10,1.573281e-01
1.368125e-10,1.597656e-01
1.408125e-10,1.614063e-01
1.448125e-10,1.632344e-01
1.488125e-10,1.653125e-01
1.528125e-10,1.672031e-01
1.568125e-10,1.683125e-01
1.608125e-10,1.692813e-01
1.648125e-10,1.704375e-01
1.688125e-10,1.717500e-01
1.728125e-10,1.722969e-01
1.768125e-10,1.735938e-01
1.808125e-10,1.742969e-01
1.848125e-10,1.750469e-01
1.888125e-10,1.742188e-01
1.928125e-10,1.751563e-01
1.968125e-10,1.744063e-01
2.008125e-10,1.754375e-01
2.048125e-10,1.748906e-01
2.088125e-10,1.744063e-01
2.128125e-10,1.733438e-01
2.168125e-10,1.730313e-01
2.208125e-10,1.719531e-01
2.248125e-10,1.710625e-01
2.288125e-10,1.704219e-01
2.328125e-10,1.696094e-01
2.368125e-10,1.680625e-01
2.408125e-10,1.663594e-01
2.448125e-10,1.649219e-01
2.488125e-10,1.637031e-01
2.528125e-10,1.617188e-01
2.568125e-10,1.605313e-01
2.608125e-10,1.587969e-01
2.648125e-10,1.571719e-01
2.688125e-10,1.540000e-01
2.728125e-10,1.526875e-01
2.768125e-10,1.497656e-01
2.808125e-10,1.486406e-01
2.848125e-10,1.460313e-01
2.888125e-10,1.435313e-01
2.928125e-10,1.405313e-01
2.968125e-10,1.383906e-01
3.008125e-10,1.355625e-01
3.048125e-10,1.330000e-01
3.088125e-10,1.307031e-01
3.128125e-10,1.283594e-01
3.168125e-10,1.253750e-01
3.208125e-10,1.222969e-01
3.248125e-10,1.195781e-01
3.288125e-10,1.171719e-01
3.328125e-10,1.140625e-01
3.368125e-10,1.118281e-01
3.408125e-10,1.091875e-01
3.448125e-10,1.067031e-01
3.488125e-10,1.027500e-01
3.528125e-10,1.008125e-01
3.568125e-10,9.732813e-02
3.608125e-10,9.568750e-02
3.648125e-10,9.271875e-02
3.688125e-10,8.989063e-02
3.728125e-10,8.665625e-02
3.768125e-10,8.440625e-02
3.808125e-10,8.154688e-02
3.848125e-10,7.903125e-02
3.888125e-10,7.685938e-02
3.928125e-10,7.468750e-02
3.968125e-10,7.206250e-02
4.008125e-10,6.935938e-02
4.048125e-10,6.707813e-02
4.088125e-10,6.523438e-02
4.128125e-10,6.268750e-02
4.168125e-10,6.110938e-02
4.208125e-10,5.921875e-02
4.248125e-10,5.753125e-02
4.288125e-10,5.443750e-02
4.328125e-10,5.342188e-02
4.368125e-10,5.093750e-02
4.408125e-10,5.031250e-02
4.448125e-10,4.843750e-02
4.488125e-10,4.671875e-02
4.528125e-10,4.464063e-02
4.568125e-10,4.357813e-02
4.608125e-10,4.192188e-02
4.648125e-10,4.064063e-02
4.688125e-10,3.971875e-02
4.728125e-10,3.879688e-02
4.768125e-10,3.748438e-02
4.808125e-10,3.607813e-02
4.848125e-10,3.507813e-02
4.888125e-10,3.453125e-02
4.928125e-10,3.326563e-02
4.968125e-10,3.292188e-02
5.008125e-10,3.231250e-02
5.048125e-10,3.181250e-02
5.088125e-10,2.992188e-02
5.128125e-10,3.006250e-02
5.168125e-10,2.871875e-02
5.208125e-10,2.921875e-02
5.248125e-10,2.843750e-02
5.288125e-10,2.768750e-02
5.328125e-10,2.659375e-02
5.368125e-10,2.646875e-02
5.408125e-10,2.565625e-02
5.448125e-10,2.518750e-02
5.488125e-10,2.503125e-02
5.528125e-10,2.481250e-02
5.568125e-10,2.418750e-02
5.608125e-10,2.339063e-02
5.648125e-10,2.296875e-02
5.688125e-10,2.290625e-02
5.728125e-10,2.207813e-02
5.768125e-10,2.212500e-02
5.808125e-10,2.187500e-02
5.848125e-10,2.162500e-02
5.888125e-10,2.000000e-02
5.928125e-10,2.031250e-02
5.968125e-10,1.914063e-02
6.008125e-10,1.976563e-02
6.048125e-10,1.907813e-02
6.088125e-10,1.834375e-02
6.128125e-10,1.726563e-02
6.168125e-10,1.715625e-02
6.208125e-10,1.623438e-02
6.248125e-10,1.568750e-02
6.288125e-10,1.545313e-02
6.328125e-10,1.515625e-02
6.368125e-10,1.443750e-02
6.408125e-10,1.350000e-02
6.448125e-10,1.300000e-02
6.488125e-10,1.279688e-02
6.528125e-10,1.187500e-02
6.568125e-10,1.184375e-02
6.608125e-10,1.153125e-02
6.648125e-10,1.114063e-02
6.688125e-10,9.500000e-03
6.728125e-10,9.734375e-03
6.768125e-10,8.562500e-03
6.808125e-10,9.218750e-03
6.848125e-10,8.578125e-03
6.888125e-10,7.906250e-03
6.928125e-10,6.890625e-03
6.968125e-10,6.937500e-03
7.008125e-10,6.140625e-03
7.048125e-10,5.734375e-03
7.088125e-10,5.750000e-03
7.128125e-10,5.687500e-03
7.168125e-10,5.265625e-03
7.208125e-10,4.609375e-03
7.248125e-10,4.453125e-03
7.288125e-10,4.593750e-03
7.328125e-10,4.046875e-03
7.368125e-10,4.453125e-03
7.408125e-10,4.593750e-03
7.448125e-10,4.625000e-03
7.488125e-10,3.468750e-03
7.528125e-10,4.156250e-03
7.568125e-10,3.453125e-03
7.608125e-10,4.640625e-03
7.648125e-10,4.515625e-03
7.688125e-10,4.406250e-03
7.728125e-10,3.875000e-03
7.768125e-10,4.421875e-03
7.808125e-10,4.125000e-03
7.848125e-10,4.234375e-03
7.888125e-10,4.765625e-03
7.928125e-10,5.156250e-03
7.968125e-10,5.203125e-03
8.008125e-10,4.984375e-03
8.048125e-10,5.234375e-03
8.088125e-10,5.812500e-03
8.128125e-10,5.656250e-03
8.168125e-10,6.453125e-03
8.208125e-10,6.906250e-03
8.248125e-10,7.234375e-03
8.288125e-10,6.375000e-03
8.328125e-10,7.281250e-03
8.368125e-10,6.781250e-03
8.408125e-10,8.203125e-03
8.448125e-10,8.234375e-03
8.488125e-10,8.265625e-03
8.528125e-10,7.843750e-03
8.568125e-10,8.437500e-03
8.608125e-10,8.203125e-03
8.648125e-10,8.359375e-03
8.688125e-10,8.906250e-03
8.728125e-10,9.203125e-03
8.768125e-10,9.218750e-03
8.808125e-10,8.937500e-03
8.848125e-10,9.046875e-03
8.888125e-10,9.562500e-03
8.928125e-10,9.312500e-03
8.968125e-10,9.968750e-03
9.008125e-10,1.025000e-02
9.048125e-10,1.042188e-02
9.088125e-10,9.406250e-03
9.128125e-10,1.015625e-02
9.168125e-10,9.437500e-03
9.208125e-10,1.070313e-02
9.248125e-10,1.056250e-02
9.288125e-10,1.040625e-02
9.328125e-10,9.843750e-03
9.368125e-10,1.023438e-02
9.408125e-10,9.859375e-03
9.448125e-10,9.875000e-03
9.488125e-10,1.031250e-02
9.528125e-10,1.040625e-02
9.568125e-10,1.029688e-02
9.608125e-10,9.906250e-03
9.648125e-10,9.859375e-03
9.688125e-10,1.031250e-02
9.728125e-10,9.968750e-03
9.768125e-10,1.054688e-02
9.808125e-10,1.073438e-02
9.848125e-10,1.085938e-02
9.888125e-10,9.812500e-03
9.928125e-10,1.054688e-02
9.968125e-10,9.765625e-03
1.000812e-09,1.098438e-02
1.004812e-09,1.082813e-02
1.008812e-09,1.062500e-02
1.012812e-09,1.006250e-02
1.016812e-09,1.043750e-02
1.020812e-09,1.006250e-02
1.024813e-09,1.007813e-02
1.028813e-09,1.050000e-02
1.032813e-09,1.057813e-02
1.036813e-09,1.042188e-02
1.040813e-09,1.001563e-02
1.044813e-09,9.937500e-03
1.048812e-09,1.034375e-02
1.052812e-09,9.953125e-03
1.056812e-09,1.046875e-02
1.060812e-09,1.060938e-02
1.064812e-09,1.068750e-02
1.068812e-09,9.562500e-03
1.072812e-09,1.023438e-02
1.076812e-09,9.359375e-03
1.080812e-09,1.045313e-02
1.084813e-09,1.018750e-02
1.088813e-09,9.875000e-03
1.092813e-09,9.156250e-03
1.096813e-09,9.437500e-03
1.100813e-09,8.921875e-03
1.104813e-09,8.796875e-03
1.108812e-09,9.078125e-03
1.112812e-09,9.031250e-03
1.116812e-09,8.703125e-03
1.120812e-09,8.156250e-03
1.124812e-09,7.937500e-03
1.128812e-09,8.203125e-03
1.132812e-09,7.656250e-03
1.136812e-09,8.062500e-03
1.140812e-09,8.078125e-03
1.144813e-09,8.046875e-03
1.148813e-09,6.812500e-03
1.152813e-09,7.421875e-03
1.156813e-09,6.453125e-03
1.160813e-09,7.484375e-03
1.164813e-09,7.140625e-03
1.168812e-09,6.812500e-03
1.172812e-09,6.078125e-03
1.176812e-09,6.359375e-03
1.180812e-09,5.859375e-03
1.184812e-09,5.765625e-03
1.188812e-09,6.093750e-03
1.192812e-09,6.156250e-03
1.196812e-09,5.921875e-03
1.200812e-09,5.468750e-03
1.204813e-09,5.406250e-03
1.208813e-09,5.812500e-03
1.212813e-09,5.421875e-03
1.216813e-09,6.000000e-03
1.220813e-09,6.234375e-03
1.224813e-09,6.437500e-03
1.228812e-09,5.375000e-03
1.232812e-09,6.250000e-03
1.236812e-09,5.515625e-03
1.240812e-09,6.796875e-03
1.244812e-09,6.703125e-03
1.248812e-09,6.625000e-03
1.252812e-09,6.156250e-03
1.256812e-09,6.703125e-03
1.260812e-09,6.453125e-03
1.264813e-09,6.609375e-03
1.268813e-09,7.171875e-03
1.272813e-09,7.515625e-03
1.276813e-09,7.484375e-03
1.280813e-09,7.250000e-03
1.284813e-09,7.406250e-03
1.288812e-09,7.984375e-03
1.292812e-09,7.750000e-03
1.296812e-09,8.500000e-03
1.300812e-09,8.859375e-03
1.304812e-09,9.187500e-03
1.308812e-09,8.187500e-03
1.312812e-09,9.125000e-03
1.316812e-09,8.437500e-03
1.320812e-09,9.734375e-03
1.324813e-09,9.640625e-03
1.328813e-09,9.515625e-03
1.332813e-09,9.000000e-03
1.336813e-09,9.453125e-03
1.340813e-09,9.093750e-03
1.344813e-09,9.125000e-03
1.348812e-09,9.531250e-03
1.352812e-09,9.703125e-03
1.356812e-09,9.500000e-03
1.360812e-09,9.046875e-03
1.364812e-09,8.984375e-03
1.368812e-09,9.312500e-03
1.372812e-09,8.843750e-03
1.376812e-09,9.328125e-03
1.380812e-09,9.406250e-03
1.384813e-09,9.484375e-03
1.388813e-09,8.156250e-03
1.392813e-09,8.812500e-03
1.396813e-09,7.843750e-03
1.400813e-09,8.875000e-03
1.404813e-09,8.500000e-03
1.408812e-09,8.109375e-03
1.412812e-09,7.312500e-03
1.416812e-09,7.531250e-03
1.420812e-09,6.921875e-03
1.424812e-09,6.734375e-03
1.428812e-09,6.937500e-03
1.432812e-09,6.937500e-03
1.436812e-09,6.546875e-03
1.440812e-09,5.968750e-03
1.444813e-09,5.781250e-03
1.448813e-09,6.015625e-03
1.452813e-09,5.453125e-03
1.456813e-09,5.906250e-03
1.460813e-09,5.953125e-03
1.464813e-09,6.031250e-03
1.468812e-09,4.718750e-03
1.472812e-09,5.421875e-03
1.476812e-09,4.531250e-03
1.480812e-09,5.671875e-03
1.484812e-09,5.406250e-03
1.488812e-09,5.171875e-03
1.492812e-09,4.546875e-03
1.496812e-09,4.937500e-03
1.500812e-09,4.546875e-03
1.504813e-09,4.578125e-03
1.508813e-09,5.031250e-03
1.512813e-09,5.281250e-03
1.516813e-09,5.156250e-03
1.520813e-09,4.843750e-03
1.524813e-09,4.953125e-03
1.528812e-09,5.468750e-03
1.532812e-09,5.203125e-03
1.536812e-09,5.953125e-03
1.540812e-09,6.296875e-03
1.544812e-09,6.671875e-03
1.548812e-09,5.640625e-03
1.552812e-09,6.625000e-03
1.556812e-09,6.000000e-03
1.560812e-09,7.406250e-03
1.564813e-09,7.390625e-03
1.568813e-09,7.390625e-03
1.572813e-09,6.968750e-03
1.576813e-09,7.578125e-03
1.580813e-09,7.375000e-03
1.584813e-09,7.562500e-03
1.588812e-09,8.156250e-03
1.592812e-09,8.531250e-03
1.596812e-09,8.515625e-03
1.600812e-09,8.281250e-03
1.604812e-09,8.437500e-03
1.608812e-09,9.000000e-03
1.612812e-09,8.734375e-03
1.616812e-09,9.468750e-03
1.620812e-09,9.796875e-03
1.624813e-09,1.010938e-02
1.628813e-09,9.000000e-03
1.632813e-09,9.890625e-03
1.636813e-09,9.156250e-03
1.640813e-09,1.042188e-02
1.644813e-09,1.026563e-02
1.648812e-09,1.009375e-02
1.652812e-09,9.515625e-03
1.656812e-09,9.921875e-03
1.660812e-09,9.515625e-03
1.664812e-09,9.484375e-03
1.668812e-09,9.859375e-03
1.672812e-09,1.001563e-02
1.676812e-09,9.765625e-03
1.680812e-09,9.281250e-03
1.684813e-09,9.218750e-03
1.688813e-09,9.531250e-03
1.692813e-09,9.031250e-03
1.696813e-09,9.546875e-03
1.700813e-09,9.625000e-03
1.704813e-09,9.718750e-03
1.708812e-09,8.375000e-03
1.712812e-09,9.062500e-03
1.716812e-09,8.125000e-03
1.720812e-09,9.187500e-03
1.724812e-09,8.859375e-03
1.728812e-09,8.500000e-03
1.732812e-09,7.750000e-03
1.736812e-09,8.015625e-03
1.740812e-09,7.468750e-03
1.744812e-09,7.312500e-03
1.748813e-09,7.578125e-03
1.752813e-09,7.625000e-03
1.756813e-09,7.281250e-03
