Measurements-streak-laser-independent/Photodiode-on-Tek-12bit-4GHz/Tek000_ch1_20190613133040085.csv

Model,MSO64
Waveform Type,ANALOG
Horizontal Units,s
Sample Interval,4.000000e-12
Record Length,1000
Zero Index,310.921875
Vertical Units,V

TIME,CH1
-1.243687e-09,6.968750e-03
-1.239687e-09,6.203125e-03
-1.235687e-09,6.453125e-03
-1.231687e-09,5.890625e-03
-1.227687e-09,5.750000e-03
-1.223687e-09,6.000000e-03
-1.219687e-09,6.062500e-03
-1.215687e-09,5.718750e-03
-1.211688e-09,5.171875e-03
-1.207688e-09,5.046875e-03
-1.203688e-09,5.328125e-03
-1.199688e-09,4.812500e-03
-1.195688e-09,5.296875e-03
-1.191688e-09,5.390625e-03
-1.187687e-09,5.500000e-03
-1.183687e-09,4.203125e-03
-1.179687e-09,4.921875e-03
-1.175687e-09,4.046875e-03
-1.171687e-09,5.187500e-03
-1.167687e-09,4.921875e-03
-1.163687e-09,4.671875e-03
-1.159687e-09,4.015625e-03
-1.155687e-09,4.390625e-03
-1.151688e-09,3.953125e-03
-1.147688e-09,3.921875e-03
-1.143688e-09,4.312500e-03
-1.139688e-09,4.500000e-03
-1.135688e-09,4.281250e-03
-1.131688e-09,3.875000e-03
-1.127687e-09,3.890625e-03
-1.123687e-09,4.296875e-03
-1.119687e-09,3.890625e-03
-1.115687e-09,4.515625e-03
-1.111687e-09,4.734375e-03
-1.107687e-09,4.953125e-03
-1.103687e-09,3.765625e-03
-1.099687e-09,4.593750e-03
-1.095687e-09,3.796875e-03
-1.091688e-09,5.031250e-03
-1.087688e-09,4.859375e-03
-1.083688e-09,4.687500e-03
-1.079688e-09,4.093750e-03
-1.075688e-09,4.515625e-03
-1.071688e-09,4.140625e-03
-1.067687e-09,4.140625e-03
-1.063687e-09,4.562500e-03
-1.059687e-09,4.781250e-03
-1.055687e-09,4.593750e-03
-1.051687e-09,4.187500e-03
-1.047687e-09,4.203125e-03
-1.043687e-09,4.609375e-03
-1.039687e-09,4.203125e-03
-1.035687e-09,4.812500e-03
-1.031688e-09,5.000000e-03
-1.027688e-09,5.187500e-03
-1.023688e-09,3.968750e-03
-1.019688e-09,4.765625e-03
-1.015688e-09,3.937500e-03
-1.011688e-09,5.125000e-03
-1.007687e-09,4.890625e-03
-1.003687e-09,4.671875e-03
-9.996875e-10,4.031250e-03
-9.956875e-10,4.390625e-03
-9.916875e-10,3.953125e-03
-9.876875e-10,3.921875e-03
-9.836875e-10,4.281250e-03
-9.796875e-10,4.437500e-03
-9.756875e-10,4.187500e-03
-9.716875e-10,3.734375e-03
-9.676875e-10,3.687500e-03
-9.636875e-10,4.046875e-03
-9.596875e-10,3.593750e-03
-9.556875e-10,4.140625e-03
-9.516875e-10,4.281250e-03
-9.476875e-10,4.421875e-03
-9.436875e-10,3.140625e-03
-9.396875e-10,3.890625e-03
-9.356875e-10,3.015625e-03
-9.316875e-10,4.125000e-03
-9.276875e-10,3.859375e-03
-9.236875e-10,3.593750e-03
-9.196875e-10,2.906250e-03
-9.156875e-10,3.250000e-03
-9.116875e-10,2.750000e-03
-9.076875e-10,2.687500e-03
-9.036875e-10,3.000000e-03
-8.996875e-10,3.125000e-03
-8.956875e-10,2.843750e-03
-8.916875e-10,2.343750e-03
-8.876875e-10,2.265625e-03
-8.836875e-10,2.578125e-03
-8.796875e-10,2.078125e-03
-8.756875e-10,2.593750e-03
-8.716875e-10,2.703125e-03
-8.676875e-10,2.812500e-03
-8.636875e-10,1.531250e-03
-8.596875e-10,2.250000e-03
-8.556875e-10,1.343750e-03
-8.516875e-10,2.375000e-03
-8.476875e-10,2.109375e-03
-8.436875e-10,1.796875e-03
-8.396875e-10,1.140625e-03
-8.356875e-10,1.453125e-03
-8.316875e-10,9.531250e-04
-8.276875e-10,8.906250e-04
-8.236875e-10,1.203125e-03
-8.196875e-10,1.328125e-03
-8.156875e-10,1.078125e-03
-8.116875e-10,5.937500e-04
-8.076875e-10,5.312500e-04
-8.036875e-10,8.750000e-04
-7.996875e-10,4.062500e-04
-7.956875e-10,9.687500e-04
-7.916875e-10,1.125000e-03
-7.876875e-10,1.296875e-03
-7.836875e-10,1.093750e-04
-7.796875e-10,8.906250e-04
-7.756875e-10,7.812500e-05
-7.716875e-10,1.156250e-03
-7.676875e-10,1.015625e-03
-7.636875e-10,8.281250e-04
-7.596875e-10,3.125000e-04
-7.556875e-10,7.343750e-04
-7.516875e-10,3.593750e-04
-7.476875e-10,4.843750e-04
-7.436875e-10,9.375000e-04
-7.396875e-10,1.203125e-03
-7.356875e-10,1.187500e-03
-7.316875e-10,8.593750e-04
-7.276875e-10,9.687500e-04
-7.236875e-10,1.468750e-03
-7.196875e-10,1.218750e-03
-7.156875e-10,1.953125e-03
-7.116875e-10,2.328125e-03
-7.076875e-10,2.671875e-03
-7.036875e-10,1.687500e-03
-6.996875e-10,2.687500e-03
-6.956875e-10,2.109375e-03
-6.916875e-10,3.328125e-03
-6.876875e-10,3.421875e-03
-6.836875e-10,3.468750e-03
-6.796875e-10,3.156250e-03
-6.756875e-10,3.734375e-03
-6.716875e-10,3.515625e-03
-6.676875e-10,3.843750e-03
-6.636875e-10,4.468750e-03
-6.596875e-10,4.875000e-03
-6.556875e-10,5.093750e-03
-6.516875e-10,4.906250e-03
-6.476875e-10,5.125000e-03
-6.436875e-10,5.750000e-03
-6.396875e-10,5.656250e-03
-6.356875e-10,6.484375e-03
-6.316875e-10,6.953125e-03
-6.276875e-10,7.359375e-03
-6.236875e-10,6.406250e-03
-6.196875e-10,7.484375e-03
-6.156875e-10,7.000000e-03
-6.116875e-10,8.234375e-03
-6.076875e-10,8.359375e-03
-6.036875e-10,8.421875e-03
-5.996875e-10,8.093750e-03
-5.956875e-10,8.625000e-03
-5.916875e-10,8.343750e-03
-5.876875e-10,8.625000e-03
-5.836875e-10,9.203125e-03
-5.796875e-10,9.468750e-03
-5.756875e-10,9.625000e-03
-5.716875e-10,9.328125e-03
-5.676875e-10,9.421875e-03
-5.636875e-10,9.921875e-03
-5.596875e-10,9.687500e-03
-5.556875e-10,1.037500e-02
-5.516875e-10,1.062500e-02
-5.476875e-10,1.085938e-02
-5.436875e-10,9.671875e-03
-5.396875e-10,1.051563e-02
-5.356875e-10,9.875000e-03
-5.316875e-10,1.087500e-02
-5.276875e-10,1.081250e-02
-5.236875e-10,1.059375e-02
-5.196875e-10,1.001563e-02
-5.156875e-10,1.028125e-02
-5.116875e-10,9.765625e-03
-5.076875e-10,9.765625e-03
-5.036875e-10,1.009375e-02
-4.996875e-10,1.006250e-02
-4.956875e-10,9.890625e-03
-4.916875e-10,9.328125e-03
-4.876875e-10,9.187500e-03
-4.836875e-10,9.437500e-03
-4.796875e-10,8.890625e-03
-4.756875e-10,9.343750e-03
-4.716875e-10,9.296875e-03
-4.676875e-10,9.250000e-03
-4.636875e-10,7.812500e-03
-4.596875e-10,8.343750e-03
-4.556875e-10,7.484375e-03
-4.516875e-10,8.250000e-03
-4.476875e-10,7.984375e-03
-4.436875e-10,7.500000e-03
-4.396875e-10,6.687500e-03
-4.356875e-10,6.765625e-03
-4.316875e-10,6.125000e-03
-4.276875e-10,5.875000e-03
-4.236875e-10,6.062500e-03
-4.196875e-10,5.890625e-03
-4.156875e-10,5.515625e-03
-4.116875e-10,4.859375e-03
-4.076875e-10,4.671875e-03
-4.036875e-10,4.875000e-03
-3.996875e-10,4.218750e-03
-3.956875e-10,4.640625e-03
-3.916875e-10,4.593750e-03
-3.876875e-10,4.562500e-03
-3.836875e-10,3.187500e-03
-3.796875e-10,3.703125e-03
-3.756875e-10,2.906250e-03
-3.716875e-10,3.781250e-03
-3.676875e-10,3.625000e-03
-3.636875e-10,3.250000e-03
-3.596875e-10,2.625000e-03
-3.556875e-10,2.906250e-03
-3.516875e-10,2.515625e-03
-3.476875e-10,2.406250e-03
-3.436875e-10,2.828125e-03
-3.396875e-10,2.937500e-03
-3.356875e-10,2.765625e-03
-3.316875e-10,2.437500e-03
-3.276875e-10,2.562500e-03
-3.236875e-10,3.093750e-03
-3.196875e-10,2.718750e-03
-3.156875e-10,3.437500e-03
-3.116875e-10,3.781250e-03
-3.076875e-10,4.078125e-03
-3.036875e-10,3.078125e-03
-2.996875e-10,3.890625e-03
-2.956875e-10,3.390625e-03
-2.916875e-10,4.625000e-03
-2.876875e-10,4.750000e-03
-2.836875e-10,4.687500e-03
-2.796875e-10,4.390625e-03
-2.756875e-10,4.953125e-03
-2.716875e-10,4.828125e-03
-2.676875e-10,4.953125e-03
-2.636875e-10,5.546875e-03
-2.596875e-10,5.843750e-03
-2.556875e-10,5.796875e-03
-2.516875e-10,5.656250e-03
-2.476875e-10,5.843750e-03
-2.436875e-10,6.421875e-03
-2.396875e-10,6.109375e-03
-2.356875e-10,6.781250e-03
-2.316875e-10,7.109375e-03
-2.276875e-10,7.312500e-03
-2.236875e-10,6.234375e-03
-2.196875e-10,6.890625e-03
-2.156875e-10,6.156250e-03
-2.116875e-10,7.187500e-03
-2.076875e-10,7.000000e-03
-2.036875e-10,6.671875e-03
-1.996875e-10,6.093750e-03
-1.956875e-10,6.296875e-03
-1.916875e-10,5.781250e-03
-1.876875e-10,5.531250e-03
-1.836875e-10,5.656250e-03
-1.796875e-10,5.531250e-03
-1.756875e-10,5.031250e-03
-1.716875e-10,4.453125e-03
-1.676875e-10,4.156250e-03
-1.636875e-10,4.218750e-03
-1.596875e-10,3.500000e-03
-1.556875e-10,3.718750e-03
-1.516875e-10,3.609375e-03
-1.476875e-10,3.437500e-03
-1.436875e-10,2.046875e-03
-1.396875e-10,2.390625e-03
-1.356875e-10,1.328125e-03
-1.316875e-10,2.187500e-03
-1.276875e-10,1.781250e-03
-1.236875e-10,1.359375e-03
-1.196875e-10,7.656250e-04
-1.156875e-10,1.046875e-03
-1.116875e-10,6.250000e-04
-1.076875e-10,6.406250e-04
-1.036875e-10,1.062500e-03
-9.968750e-11,1.390625e-03
-9.568750e-11,1.406250e-03
-9.168750e-11,1.484375e-03
-8.768750e-11,1.937500e-03
-8.368750e-11,2.781250e-03
-7.968750e-11,3.062500e-03
-7.568750e-11,4.421875e-03
-7.168750e-11,5.531250e-03
-6.768750e-11,6.781250e-03
-6.368750e-11,6.937500e-03
-5.968750e-11,8.921875e-03
-5.568750e-11,9.593750e-03
-5.168750e-11,1.239063e-02
-4.768750e-11,1.393750e-02
-4.368750e-11,1.570313e-02
-3.968750e-11,1.737500e-02
-3.568750e-11,2.004688e-02
-3.168750e-11,2.214063e-02
-2.768750e-11,2.475000e-02
-2.368750e-11,2.790625e-02
-1.968750e-11,3.109375e-02
-1.568750e-11,3.396875e-02
-1.168750e-11,3.704688e-02
-7.687500e-12,4.053125e-02
-3.687500e-12,4.443750e-02
3.125000e-13,4.787500e-02
4.312500e-12,5.246875e-02
8.312500e-12,5.678125e-02
1.231250e-11,6.134375e-02
1.631250e-11,6.478125e-02
2.031250e-11,7.003125e-02
2.431250e-11,7.395313e-02
2.831250e-11,7.996875e-02
3.231250e-11,8.465625e-02
3.631250e-11,8.962500e-02
4.031250e-11,9.432813e-02
4.431250e-11,9.996875e-02
4.831250e-11,1.049844e-01
5.231250e-11,1.103750e-01
5.631250e-11,1.162500e-01
6.031250e-11,1.220625e-01
6.431250e-11,1.273281e-01
6.831250e-11,1.326719e-01
7.231250e-11,1.382813e-01
7.631250e-11,1.441406e-01
8.031250e-11,1.494063e-01
8.431250e-11,1.555938e-01
8.831250e-11,1.612969e-01
9.231250e-11,1.671094e-01
9.631250e-11,1.715313e-01
1.003125e-10,1.776094e-01
1.043125e-10,1.821094e-01
1.083125e-10,1.884844e-01
1.123125e-10,1.932500e-01
1.163125e-10,1.981719e-01
1.203125e-10,2.025313e-01
1.243125e-10,2.075625e-01
1.283125e-10,2.118125e-01
1.323125e-10,2.162031e-01
1.363125e-10,2.208125e-01
1.403125e-10,2.252344e-01
1.443125e-10,2.287500e-01
1.483125e-10,2.321563e-01
1.523125e-10,2.356563e-01
1.563125e-10,2.392031e-01
1.603125e-10,2.420000e-01
1.643125e-10,2.454375e-01
1.683125e-10,2.481719e-01
1.723125e-10,2.509375e-01
1.763125e-10,2.520625e-01
1.803125e-10,2.547656e-01
1.843125e-10,2.557188e-01
1.883125e-10,2.583438e-01
1.923125e-10,2.592500e-01
1.963125e-10,2.602188e-01
2.003125e-10,2.604844e-01
2.043125e-10,2.613281e-01
2.083125e-10,2.613594e-01
2.123125e-10,2.614375e-01
2.163125e-10,2.616406e-01
2.203125e-10,2.616563e-01
2.243125e-10,2.607031e-01
2.283125e-10,2.595625e-01
2.323125e-10,2.585781e-01
2.363125e-10,2.576406e-01
2.403125e-10,2.559219e-01
2.443125e-10,2.548594e-01
2.483125e-10,2.531094e-01
2.523125e-10,2.514688e-01
2.563125e-10,2.481719e-01
2.603125e-10,2.465938e-01
2.643125e-10,2.433438e-01
2.683125e-10,2.417656e-01
2.723125e-10,2.386094e-01
2.763125e-10,2.355625e-01
2.803125e-10,2.319219e-01
2.843125e-10,2.290156e-01
2.883125e-10,2.254375e-01
2.923125e-10,2.220156e-01
2.963125e-10,2.187813e-01
3.003125e-10,2.155000e-01
3.043125e-10,2.114375e-01
3.083125e-10,2.072969e-01
3.123125e-10,2.034688e-01
3.163125e-10,1.998438e-01
3.203125e-10,1.955625e-01
3.243125e-10,1.920781e-01
3.283125e-10,1.880938e-01
3.323125e-10,1.843750e-01
3.363125e-10,1.791094e-01
3.403125e-10,1.757969e-01
3.443125e-10,1.709688e-01
3.483125e-10,1.678906e-01
3.523125e-10,1.634375e-01
3.563125e-10,1.592188e-01
3.603125e-10,1.545625e-01
3.643125e-10,1.508438e-01
3.683125e-10,1.465938e-01
3.723125e-10,1.426250e-01
3.763125e-10,1.389531e-01
3.803125e-10,1.353750e-01
3.843125e-10,1.312188e-01
3.883125e-10,1.270781e-01
3.923125e-10,1.233438e-01
3.963125e-10,1.200156e-01
4.003125e-10,1.160625e-01
4.043125e-10,1.130156e-01
4.083125e-10,1.096719e-01
4.123125e-10,1.066250e-01
4.163125e-10,1.021406e-01
4.203125e-10,9.975000e-02
4.243125e-10,9.593750e-02
4.283125e-10,9.390625e-02
4.323125e-10,9.065625e-02
4.363125e-10,8.765625e-02
4.403125e-10,8.428125e-02
4.443125e-10,8.195313e-02
4.483125e-10,7.910938e-02
4.523125e-10,7.662500e-02
4.563125e-10,7.445313e-02
4.603125e-10,7.240625e-02
4.643125e-10,6.992188e-02
4.683125e-10,6.743750e-02
4.723125e-10,6.535938e-02
4.763125e-10,6.373438e-02
4.803125e-10,6.146875e-02
4.843125e-10,6.010938e-02
4.883125e-10,5.851563e-02
4.923125e-10,5.714063e-02
4.963125e-10,5.439063e-02
5.003125e-10,5.370313e-02
5.043125e-10,5.157813e-02
5.083125e-10,5.123438e-02
5.123125e-10,4.970313e-02
5.163125e-10,4.828125e-02
5.203125e-10,4.654688e-02
5.243125e-10,4.578125e-02
5.283125e-10,4.442188e-02
5.323125e-10,4.342188e-02
5.363125e-10,4.268750e-02
5.403125e-10,4.203125e-02
5.443125e-10,4.096875e-02
5.483125e-10,3.978125e-02
5.523125e-10,3.898438e-02
5.563125e-10,3.856250e-02
5.603125e-10,3.743750e-02
5.643125e-10,3.715625e-02
5.683125e-10,3.662500e-02
5.723125e-10,3.618750e-02
5.763125e-10,3.439063e-02
5.803125e-10,3.451563e-02
5.843125e-10,3.323438e-02
5.883125e-10,3.367188e-02
5.923125e-10,3.287500e-02
5.963125e-10,3.203125e-02
6.003125e-10,3.090625e-02
6.043125e-10,3.070313e-02
6.083125e-10,2.975000e-02
6.123125e-10,2.915625e-02
6.163125e-10,2.882813e-02
6.203125e-10,2.851563e-02
6.243125e-10,2.778125e-02
6.283125e-10,2.682813e-02
6.323125e-10,2.631250e-02
6.363125e-10,2.603125e-02
6.403125e-10,2.507813e-02
6.443125e-10,2.493750e-02
6.483125e-10,2.456250e-02
6.523125e-10,2.412500e-02
6.563125e-10,2.242188e-02
6.603125e-10,2.256250e-02
6.643125e-10,2.134375e-02
6.683125e-10,2.182813e-02
6.723125e-10,2.106250e-02
6.763125e-10,2.025000e-02
6.803125e-10,1.909375e-02
6.843125e-10,1.895313e-02
6.883125e-10,1.796875e-02
6.923125e-10,1.735938e-02
6.963125e-10,1.710938e-02
7.003125e-10,1.684375e-02
7.043125e-10,1.617188e-02
7.083125e-10,1.526563e-02
7.123125e-10,1.485938e-02
7.163125e-10,1.467188e-02
7.203125e-10,1.384375e-02
7.243125e-10,1.387500e-02
7.283125e-10,1.370313e-02
7.323125e-10,1.337500e-02
7.363125e-10,1.192188e-02
7.403125e-10,1.225000e-02
7.443125e-10,1.128125e-02
7.483125e-10,1.206250e-02
7.523125e-10,1.160938e-02
7.563125e-10,1.112500e-02
7.603125e-10,1.025000e-02
7.643125e-10,1.048438e-02
7.683125e-10,9.843750e-03
7.723125e-10,9.593750e-03
7.763125e-10,9.765625e-03
7.803125e-10,9.859375e-03
7.843125e-10,9.640625e-03
7.883125e-10,9.109375e-03
7.923125e-10,9.109375e-03
7.963125e-10,9.390625e-03
8.003125e-10,9.000000e-03
8.043125e-10,9.515625e-03
8.083125e-10,9.781250e-03
8.123125e-10,9.843750e-03
8.163125e-10,8.843750e-03
8.203125e-10,9.531250e-03
8.243125e-10,8.937500e-03
8.283125e-10,1.018750e-02
8.323125e-10,1.010938e-02
8.363125e-10,1.003125e-02
8.403125e-10,9.500000e-03
8.443125e-10,1.003125e-02
8.483125e-10,9.718750e-03
8.523125e-10,9.781250e-03
8.563125e-10,1.029688e-02
8.603125e-10,1.056250e-02
8.643125e-10,1.059375e-02
8.683125e-10,1.028125e-02
8.723125e-10,1.042188e-02
8.763125e-10,1.092188e-02
8.803125e-10,1.068750e-02
8.843125e-10,1.134375e-02
8.883125e-10,1.167188e-02
8.923125e-10,1.181250e-02
8.963125e-10,1.087500e-02
9.003125e-10,1.159375e-02
9.043125e-10,1.092188e-02
9.083125e-10,1.220313e-02
9.123125e-10,1.210938e-02
9.163125e-10,1.196875e-02
9.203125e-10,1.139063e-02
9.243125e-10,1.178125e-02
9.283125e-10,1.140625e-02
9.323125e-10,1.139063e-02
9.363125e-10,1.179688e-02
9.403125e-10,1.182813e-02
9.443125e-10,1.171875e-02
9.483125e-10,1.126563e-02
9.523125e-10,1.117188e-02
9.563125e-10,1.156250e-02
9.603125e-10,1.117188e-02
9.643125e-10,1.162500e-02
9.683125e-10,1.173438e-02
9.723125e-10,1.170313e-02
9.763125e-10,1.062500e-02
9.803125e-10,1.117188e-02
9.843125e-10,1.029688e-02
9.883125e-10,1.139063e-02
9.923125e-10,1.112500e-02
9.963125e-10,1.081250e-02
1.000313e-09,1.010938e-02
1.004312e-09,1.032813e-02
1.008312e-09,9.828125e-03
1.012312e-09,9.718750e-03
1.016312e-09,1.001563e-02
1.020312e-09,9.906250e-03
1.024312e-09,9.671875e-03
1.028312e-09,9.156250e-03
1.032312e-09,8.937500e-03
1.036312e-09,9.265625e-03
1.040313e-09,8.812500e-03
1.044313e-09,9.218750e-03
1.048313e-09,9.281250e-03
1.052313e-09,9.234375e-03
1.056313e-09,8.156250e-03
1.060313e-09,8.734375e-03
1.064312e-09,7.828125e-03
1.068312e-09,8.921875e-03
1.072312e-09,8.656250e-03
1.076312e-09,8.359375e-03
1.080312e-09,7.687500e-03
1.084312e-09,7.968750e-03
1.088312e-09,7.515625e-03
1.092312e-09,7.468750e-03
1.096312e-09,7.812500e-03
1.100313e-09,7.796875e-03
1.104313e-09,7.593750e-03
1.108313e-09,7.156250e-03
1.112313e-09,7.031250e-03
1.116313e-09,7.421875e-03
1.120313e-09,7.031250e-03
1.124312e-09,7.515625e-03
1.128312e-09,7.656250e-03
1.132312e-09,7.734375e-03
1.136312e-09,6.718750e-03
1.140312e-09,7.437500e-03
1.144312e-09,6.609375e-03
1.148312e-09,7.765625e-03
1.152312e-09,7.562500e-03
1.156312e-09,7.359375e-03
1.160313e-09,6.750000e-03
1.164313e-09,7.140625e-03
1.168313e-09,6.750000e-03
1.172313e-09,6.765625e-03
1.176313e-09,7.187500e-03
1.180313e-09,7.296875e-03
1.184312e-09,7.140625e-03
1.188312e-09,6.765625e-03
1.192312e-09,6.718750e-03
1.196312e-09,7.156250e-03
1.200312e-09,6.812500e-03
1.204312e-09,7.375000e-03
1.208312e-09,7.593750e-03
1.212312e-09,7.750000e-03
1.216312e-09,6.734375e-03
1.220313e-09,7.531250e-03
1.224313e-09,6.750000e-03
1.228313e-09,7.953125e-03
1.232313e-09,7.781250e-03
1.236313e-09,7.625000e-03
1.240313e-09,7.046875e-03
1.244312e-09,7.468750e-03
1.248312e-09,7.109375e-03
1.252312e-09,7.156250e-03
1.256312e-09,7.593750e-03
1.260312e-09,7.781250e-03
1.264312e-09,7.625000e-03
1.268312e-09,7.265625e-03
1.272312e-09,7.250000e-03
1.276312e-09,7.703125e-03
1.280313e-09,7.343750e-03
1.284313e-09,7.953125e-03
1.288313e-09,8.187500e-03
1.292313e-09,8.375000e-03
1.296313e-09,7.312500e-03
1.300313e-09,8.125000e-03
1.304312e-09,7.343750e-03
1.308312e-09,8.562500e-03
1.312312e-09,8.406250e-03
1.316312e-09,8.234375e-03
1.320312e-09,7.656250e-03
1.324312e-09,8.078125e-03
1.328312e-09,7.703125e-03
1.332312e-09,7.734375e-03
1.336312e-09,8.171875e-03
1.340313e-09,8.375000e-03
1.344313e-09,8.203125e-03
1.348313e-09,7.828125e-03
1.352313e-09,7.843750e-03
1.356313e-09,8.281250e-03
1.360313e-09,7.906250e-03
1.364312e-09,8.515625e-03
1.368312e-09,8.750000e-03
1.372312e-09,8.953125e-03
1.376312e-09,7.843750e-03
1.380312e-09,8.671875e-03
1.384312e-09,7.890625e-03
1.388312e-09,9.125000e-03
1.392312e-09,8.953125e-03
1.396312e-09,8.781250e-03
1.400313e-09,8.218750e-03
1.404313e-09,8.656250e-03
1.408313e-09,8.296875e-03
1.412313e-09,8.343750e-03
1.416313e-09,8.796875e-03
1.420313e-09,9.031250e-03
1.424312e-09,8.875000e-03
1.428312e-09,8.531250e-03
1.432312e-09,8.562500e-03
1.436312e-09,9.031250e-03
1.440312e-09,8.687500e-03
1.444312e-09,9.343750e-03
1.448312e-09,9.609375e-03
1.452312e-09,9.859375e-03
1.456312e-09,8.750000e-03
1.460313e-09,9.625000e-03
1.464313e-09,8.890625e-03
1.468313e-09,1.015625e-02
1.472313e-09,1.003125e-02
1.476313e-09,9.906250e-03
1.480312e-09,9.375000e-03
1.484312e-09,9.843750e-03
1.488312e-09,9.515625e-03
1.492312e-09,9.593750e-03
1.496312e-09,1.007813e-02
1.500312e-09,1.034375e-02
1.504312e-09,1.020313e-02
1.508312e-09,9.875000e-03
1.512312e-09,9.937500e-03
1.516312e-09,1.040625e-02
1.520313e-09,1.006250e-02
1.524313e-09,1.070313e-02
1.528313e-09,1.095313e-02
1.532313e-09,1.120313e-02
1.536313e-09,1.004688e-02
1.540312e-09,1.087500e-02
1.544312e-09,1.009375e-02
1.548312e-09,1.131250e-02
1.552312e-09,1.112500e-02
1.556312e-09,1.092188e-02
1.560312e-09,1.029688e-02
1.564312e-09,1.068750e-02
1.568312e-09,1.025000e-02
1.572312e-09,1.021875e-02
1.576312e-09,1.056250e-02
1.580313e-09,1.070313e-02
1.584313e-09,1.043750e-02
1.588313e-09,9.937500e-03
1.592313e-09,9.843750e-03
1.596313e-09,1.014063e-02
1.600312e-09,9.625000e-03
1.604312e-09,1.009375e-02
1.608312e-09,1.015625e-02
1.612312e-09,1.020313e-02
1.616312e-09,8.828125e-03
1.620312e-09,9.468750e-03
1.624312e-09,8.468750e-03
1.628312e-09,9.484375e-03
1.632312e-09,9.078125e-03
1.636312e-09,8.671875e-03
1.640313e-09,7.843750e-03
1.644313e-09,8.015625e-03
1.648313e-09,7.375000e-03
1.652313e-09,7.125000e-03
1.656313e-09,7.281250e-03
1.660312e-09,7.234375e-03
1.664312e-09,6.781250e-03
1.668312e-09,6.109375e-03
1.672312e-09,5.859375e-03
1.676312e-09,6.000000e-03
1.680312e-09,5.343750e-03
1.684312e-09,5.687500e-03
1.688312e-09,5.625000e-03
1.692312e-09,5.578125e-03
1.696312e-09,4.125000e-03
1.700313e-09,4.687500e-03
1.704313e-09,3.640625e-03
1.708313e-09,4.625000e-03
1.712313e-09,4.203125e-03
1.716313e-09,3.781250e-03
1.720312e-09,2.984375e-03
1.724312e-09,3.203125e-03
1.728312e-09,2.625000e-03
1.732312e-09,2.453125e-03
1.736312e-09,2.718750e-03
1.740312e-09,2.765625e-03
1.744312e-09,2.453125e-03
1.748312e-09,1.937500e-03
1.752312e-09,1.843750e-03
1.756312e-09,2.171875e-03
