Measurements-streak-laser-independent/Photodiode-on-Tek-12bit-4GHz/Tek000_ch1_20190613132955056.csv

Model,MSO64
Waveform Type,ANALOG
Horizontal Units,s
Sample Interval,4.000000e-12
Record Length,1000
Zero Index,310.187500
Vertical Units,V

TIME,CH1
-1.240750e-09,7.453125e-03
-1.236750e-09,7.484375e-03
-1.232750e-09,7.921875e-03
-1.228750e-09,8.140625e-03
-1.224750e-09,7.937500e-03
-1.220750e-09,7.531250e-03
-1.216750e-09,7.515625e-03
-1.212750e-09,7.890625e-03
-1.208750e-09,7.437500e-03
-1.204750e-09,7.984375e-03
-1.200750e-09,8.125000e-03
-1.196750e-09,8.234375e-03
-1.192750e-09,6.937500e-03
-1.188750e-09,7.640625e-03
-1.184750e-09,6.718750e-03
-1.180750e-09,7.812500e-03
-1.176750e-09,7.468750e-03
-1.172750e-09,7.125000e-03
-1.168750e-09,6.375000e-03
-1.164750e-09,6.625000e-03
-1.160750e-09,6.062500e-03
-1.156750e-09,5.890625e-03
-1.152750e-09,6.125000e-03
-1.148750e-09,6.156250e-03
-1.144750e-09,5.781250e-03
-1.140750e-09,5.203125e-03
-1.136750e-09,5.031250e-03
-1.132750e-09,5.265625e-03
-1.128750e-09,4.687500e-03
-1.124750e-09,5.125000e-03
-1.120750e-09,5.156250e-03
-1.116750e-09,5.203125e-03
-1.112750e-09,3.843750e-03
-1.108750e-09,4.500000e-03
-1.104750e-09,3.546875e-03
-1.100750e-09,4.640625e-03
-1.096750e-09,4.312500e-03
-1.092750e-09,4.000000e-03
-1.088750e-09,3.281250e-03
-1.084750e-09,3.609375e-03
-1.080750e-09,3.125000e-03
-1.076750e-09,3.062500e-03
-1.072750e-09,3.406250e-03
-1.068750e-09,3.562500e-03
-1.064750e-09,3.328125e-03
-1.060750e-09,2.906250e-03
-1.056750e-09,2.890625e-03
-1.052750e-09,3.296875e-03
-1.048750e-09,2.906250e-03
-1.044750e-09,3.546875e-03
-1.040750e-09,3.796875e-03
-1.036750e-09,4.046875e-03
-1.032750e-09,2.890625e-03
-1.028750e-09,3.765625e-03
-1.024750e-09,3.031250e-03
-1.020750e-09,4.328125e-03
-1.016750e-09,4.218750e-03
-1.012750e-09,4.109375e-03
-1.008750e-09,3.609375e-03
-1.004750e-09,4.125000e-03
-1.000750e-09,3.843750e-03
-9.967500e-10,3.953125e-03
-9.927500e-10,4.484375e-03
-9.887500e-10,4.812500e-03
-9.847500e-10,4.734375e-03
-9.807500e-10,4.468750e-03
-9.767500e-10,4.593750e-03
-9.727500e-10,5.109375e-03
-9.687500e-10,4.843750e-03
-9.647500e-10,5.562500e-03
-9.607500e-10,5.890625e-03
-9.567500e-10,6.203125e-03
-9.527500e-10,5.109375e-03
-9.487500e-10,6.031250e-03
-9.447500e-10,5.328125e-03
-9.407500e-10,6.609375e-03
-9.367500e-10,6.515625e-03
-9.327500e-10,6.406250e-03
-9.287500e-10,5.890625e-03
-9.247500e-10,6.359375e-03
-9.207500e-10,6.031250e-03
-9.167500e-10,6.109375e-03
-9.127500e-10,6.578125e-03
-9.087500e-10,6.828125e-03
-9.047500e-10,6.687500e-03
-9.007500e-10,6.328125e-03
-8.967500e-10,6.375000e-03
-8.927500e-10,6.812500e-03
-8.887500e-10,6.437500e-03
-8.847500e-10,7.078125e-03
-8.807500e-10,7.312500e-03
-8.767500e-10,7.531250e-03
-8.727500e-10,6.359375e-03
-8.687500e-10,7.187500e-03
-8.647500e-10,6.390625e-03
-8.607500e-10,7.546875e-03
-8.567500e-10,7.390625e-03
-8.527500e-10,7.187500e-03
-8.487500e-10,6.609375e-03
-8.447500e-10,7.015625e-03
-8.407500e-10,6.625000e-03
-8.367500e-10,6.656250e-03
-8.327500e-10,7.062500e-03
-8.287500e-10,7.265625e-03
-8.247500e-10,7.093750e-03
-8.207500e-10,6.687500e-03
-8.167500e-10,6.703125e-03
-8.127500e-10,7.109375e-03
-8.087500e-10,6.703125e-03
-8.047500e-10,7.328125e-03
-8.007500e-10,7.531250e-03
-7.967500e-10,7.750000e-03
-7.927500e-10,6.578125e-03
-7.887500e-10,7.390625e-03
-7.847500e-10,6.609375e-03
-7.807500e-10,7.718750e-03
-7.767500e-10,7.562500e-03
-7.727500e-10,7.375000e-03
-7.687500e-10,6.812500e-03
-7.647500e-10,7.203125e-03
-7.607500e-10,6.796875e-03
-7.567500e-10,6.843750e-03
-7.527500e-10,7.234375e-03
-7.487500e-10,7.406250e-03
-7.447500e-10,7.281250e-03
-7.407500e-10,6.843750e-03
-7.367500e-10,6.828125e-03
-7.327500e-10,7.203125e-03
-7.287500e-10,6.796875e-03
-7.247500e-10,7.375000e-03
-7.207500e-10,7.562500e-03
-7.167500e-10,7.734375e-03
-7.127500e-10,6.515625e-03
-7.087500e-10,7.296875e-03
-7.047500e-10,6.500000e-03
-7.007500e-10,7.531250e-03
-6.967500e-10,7.343750e-03
-6.927500e-10,7.125000e-03
-6.887500e-10,6.531250e-03
-6.847500e-10,6.843750e-03
-6.807500e-10,6.359375e-03
-6.767500e-10,6.375000e-03
-6.727500e-10,6.718750e-03
-6.687500e-10,6.828125e-03
-6.647500e-10,6.687500e-03
-6.607500e-10,6.218750e-03
-6.567500e-10,6.140625e-03
-6.527500e-10,6.484375e-03
-6.487500e-10,6.062500e-03
-6.447500e-10,6.593750e-03
-6.407500e-10,6.750000e-03
-6.367500e-10,6.890625e-03
-6.327500e-10,5.640625e-03
-6.287500e-10,6.406250e-03
-6.247500e-10,5.625000e-03
-6.207500e-10,6.656250e-03
-6.167500e-10,6.484375e-03
-6.127500e-10,6.281250e-03
-6.087500e-10,5.687500e-03
-6.047500e-10,6.015625e-03
-6.007500e-10,5.531250e-03
-5.967500e-10,5.578125e-03
-5.927500e-10,5.953125e-03
-5.887500e-10,6.062500e-03
-5.847500e-10,5.968750e-03
-5.807500e-10,5.515625e-03
-5.767500e-10,5.484375e-03
-5.727500e-10,5.843750e-03
-5.687500e-10,5.468750e-03
-5.647500e-10,6.031250e-03
-5.607500e-10,6.203125e-03
-5.567500e-10,6.343750e-03
-5.527500e-10,5.093750e-03
-5.487500e-10,5.859375e-03
-5.447500e-10,5.125000e-03
-5.407500e-10,6.140625e-03
-5.367500e-10,6.000000e-03
-5.327500e-10,5.750000e-03
-5.287500e-10,5.125000e-03
-5.247500e-10,5.421875e-03
-5.207500e-10,4.921875e-03
-5.167500e-10,4.890625e-03
-5.127500e-10,5.218750e-03
-5.087500e-10,5.265625e-03
-5.047500e-10,5.062500e-03
-5.007500e-10,4.546875e-03
-4.967500e-10,4.453125e-03
-4.927500e-10,4.750000e-03
-4.887500e-10,4.234375e-03
-4.847500e-10,4.718750e-03
-4.807500e-10,4.765625e-03
-4.767500e-10,4.796875e-03
-4.727500e-10,3.437500e-03
-4.687500e-10,4.062500e-03
-4.647500e-10,3.218750e-03
-4.607500e-10,4.140625e-03
-4.567500e-10,3.890625e-03
-4.527500e-10,3.515625e-03
-4.487500e-10,2.796875e-03
-4.447500e-10,3.000000e-03
-4.407500e-10,2.468750e-03
-4.367500e-10,2.312500e-03
-4.327500e-10,2.593750e-03
-4.287500e-10,2.593750e-03
-4.247500e-10,2.312500e-03
-4.207500e-10,1.796875e-03
-4.167500e-10,1.734375e-03
-4.127500e-10,2.062500e-03
-4.087500e-10,1.562500e-03
-4.047500e-10,2.125000e-03
-4.007500e-10,2.265625e-03
-3.967500e-10,2.406250e-03
-3.927500e-10,1.203125e-03
-3.887500e-10,1.921875e-03
-3.847500e-10,1.250000e-03
-3.807500e-10,2.375000e-03
-3.767500e-10,2.359375e-03
-3.727500e-10,2.203125e-03
-3.687500e-10,1.765625e-03
-3.647500e-10,2.265625e-03
-3.607500e-10,2.062500e-03
-3.567500e-10,2.203125e-03
-3.527500e-10,2.828125e-03
-3.487500e-10,3.187500e-03
-3.447500e-10,3.218750e-03
-3.407500e-10,3.109375e-03
-3.367500e-10,3.437500e-03
-3.327500e-10,4.156250e-03
-3.287500e-10,4.046875e-03
-3.247500e-10,4.968750e-03
-3.207500e-10,5.546875e-03
-3.167500e-10,6.062500e-03
-3.127500e-10,5.265625e-03
-3.087500e-10,6.343750e-03
-3.047500e-10,6.000000e-03
-3.007500e-10,7.484375e-03
-2.967500e-10,7.765625e-03
-2.927500e-10,7.906250e-03
-2.887500e-10,7.765625e-03
-2.847500e-10,8.515625e-03
-2.807500e-10,8.546875e-03
-2.767500e-10,8.843750e-03
-2.727500e-10,9.593750e-03
-2.687500e-10,1.007813e-02
-2.647500e-10,1.017188e-02
-2.607500e-10,1.014063e-02
-2.567500e-10,1.043750e-02
-2.527500e-10,1.110938e-02
-2.487500e-10,1.092188e-02
-2.447500e-10,1.171875e-02
-2.407500e-10,1.212500e-02
-2.367500e-10,1.243750e-02
-2.327500e-10,1.140625e-02
-2.287500e-10,1.220313e-02
-2.247500e-10,1.151563e-02
-2.207500e-10,1.265625e-02
-2.167500e-10,1.250000e-02
-2.127500e-10,1.225000e-02
-2.087500e-10,1.168750e-02
-2.047500e-10,1.196875e-02
-2.007500e-10,1.146875e-02
-1.967500e-10,1.129688e-02
-1.927500e-10,1.150000e-02
-1.887500e-10,1.145313e-02
-1.847500e-10,1.101563e-02
-1.807500e-10,1.045313e-02
-1.767500e-10,1.021875e-02
-1.727500e-10,1.032813e-02
-1.687500e-10,9.671875e-03
-1.647500e-10,9.968750e-03
-1.607500e-10,9.906250e-03
-1.567500e-10,9.812500e-03
-1.527500e-10,8.437500e-03
-1.487500e-10,8.890625e-03
-1.447500e-10,7.875000e-03
-1.407500e-10,8.828125e-03
-1.367500e-10,8.437500e-03
-1.327500e-10,8.093750e-03
-1.287500e-10,7.468750e-03
-1.247500e-10,7.781250e-03
-1.207500e-10,7.375000e-03
-1.167500e-10,7.406250e-03
-1.127500e-10,7.843750e-03
-1.087500e-10,8.171875e-03
-1.047500e-10,8.156250e-03
-1.007500e-10,8.125000e-03
-9.675000e-11,8.484375e-03
-9.275000e-11,9.265625e-03
-8.875000e-11,9.406250e-03
-8.475000e-11,1.059375e-02
-8.075000e-11,1.150000e-02
-7.675000e-11,1.251563e-02
-7.275000e-11,1.232813e-02
-6.875000e-11,1.404688e-02
-6.475000e-11,1.434375e-02
-6.075000e-11,1.675000e-02
-5.675000e-11,1.784375e-02
-5.275000e-11,1.909375e-02
-4.875000e-11,2.014063e-02
-4.475000e-11,2.218750e-02
-4.075000e-11,2.357813e-02
-3.675000e-11,2.545313e-02
-3.275000e-11,2.781250e-02
-2.875000e-11,3.012500e-02
-2.475000e-11,3.209375e-02
-2.075000e-11,3.409375e-02
-1.675000e-11,3.651563e-02
-1.275000e-11,3.932813e-02
-8.750000e-12,4.156250e-02
-4.750000e-12,4.487500e-02
-7.500000e-13,4.785938e-02
3.250000e-12,5.100000e-02
7.250000e-12,5.290625e-02
1.125000e-11,5.667188e-02
1.525000e-11,5.898438e-02
1.925000e-11,6.335938e-02
2.325000e-11,6.635938e-02
2.725000e-11,6.951563e-02
3.125000e-11,7.235938e-02
3.525000e-11,7.614063e-02
3.925000e-11,7.921875e-02
4.325000e-11,8.267188e-02
4.725000e-11,8.654688e-02
5.125000e-11,9.031250e-02
5.525000e-11,9.354688e-02
5.925000e-11,9.675000e-02
6.325000e-11,1.002656e-01
6.725000e-11,1.040625e-01
7.125000e-11,1.071875e-01
7.525000e-11,1.112344e-01
7.925000e-11,1.148125e-01
8.325000e-11,1.184844e-01
8.725000e-11,1.207344e-01
9.125000e-11,1.247500e-01
9.525000e-11,1.271563e-01
9.925000e-11,1.315000e-01
1.032500e-10,1.342969e-01
1.072500e-10,1.371875e-01
1.112500e-10,1.395625e-01
1.152500e-10,1.427344e-01
1.192500e-10,1.451250e-01
1.232500e-10,1.477500e-01
1.272500e-10,1.506406e-01
1.312500e-10,1.533594e-01
1.352500e-10,1.553438e-01
1.392500e-10,1.572031e-01
1.432500e-10,1.592500e-01
1.472500e-10,1.615000e-01
1.512500e-10,1.629688e-01
1.552500e-10,1.652031e-01
1.592500e-10,1.668750e-01
1.632500e-10,1.685625e-01
1.672500e-10,1.687031e-01
1.712500e-10,1.705625e-01
1.752500e-10,1.707500e-01
1.792500e-10,1.727344e-01
1.832500e-10,1.731094e-01
1.872500e-10,1.735313e-01
1.912500e-10,1.733750e-01
1.952500e-10,1.739375e-01
1.992500e-10,1.737188e-01
2.032500e-10,1.736719e-01
2.072500e-10,1.738438e-01
2.112500e-10,1.738281e-01
2.152500e-10,1.730313e-01
2.192500e-10,1.720781e-01
2.232500e-10,1.713438e-01
2.272500e-10,1.707969e-01
2.312500e-10,1.694531e-01
2.352500e-10,1.688750e-01
2.392500e-10,1.677344e-01
2.432500e-10,1.666563e-01
2.472500e-10,1.640000e-01
2.512500e-10,1.631719e-01
2.552500e-10,1.606875e-01
2.592500e-10,1.599688e-01
2.632500e-10,1.577344e-01
2.672500e-10,1.555781e-01
2.712500e-10,1.528750e-01
2.752500e-10,1.510000e-01
2.792500e-10,1.484063e-01
2.832500e-10,1.460313e-01
2.872500e-10,1.439219e-01
2.912500e-10,1.417188e-01
2.952500e-10,1.388438e-01
2.992500e-10,1.358438e-01
3.032500e-10,1.331875e-01
3.072500e-10,1.307969e-01
3.112500e-10,1.276875e-01
3.152500e-10,1.254375e-01
3.192500e-10,1.227188e-01
3.232500e-10,1.201719e-01
3.272500e-10,1.161250e-01
3.312500e-10,1.140625e-01
3.352500e-10,1.104375e-01
3.392500e-10,1.086563e-01
3.432500e-10,1.054844e-01
3.472500e-10,1.024844e-01
3.512500e-10,9.904688e-02
3.552500e-10,9.657813e-02
3.592500e-10,9.350000e-02
3.632500e-10,9.073438e-02
3.672500e-10,8.831250e-02
3.712500e-10,8.590625e-02
3.752500e-10,8.300000e-02
3.792500e-10,8.003125e-02
3.832500e-10,7.748438e-02
3.872500e-10,7.535938e-02
3.912500e-10,7.254688e-02
3.952500e-10,7.070313e-02
3.992500e-10,6.854688e-02
4.032500e-10,6.657813e-02
4.072500e-10,6.321875e-02
4.112500e-10,6.193750e-02
4.152500e-10,5.918750e-02
4.192500e-10,5.832813e-02
4.232500e-10,5.620313e-02
4.272500e-10,5.425000e-02
4.312500e-10,5.193750e-02
4.352500e-10,5.067188e-02
4.392500e-10,4.881250e-02
4.432500e-10,4.734375e-02
4.472500e-10,4.625000e-02
4.512500e-10,4.517188e-02
4.552500e-10,4.368750e-02
4.592500e-10,4.215625e-02
4.632500e-10,4.103125e-02
4.672500e-10,4.037500e-02
4.712500e-10,3.900000e-02
4.752500e-10,3.860938e-02
4.792500e-10,3.792188e-02
4.832500e-10,3.739063e-02
4.872500e-10,3.548438e-02
4.912500e-10,3.562500e-02
4.952500e-10,3.428125e-02
4.992500e-10,3.479688e-02
5.032500e-10,3.404688e-02
5.072500e-10,3.337500e-02
5.112500e-10,3.235938e-02
5.152500e-10,3.231250e-02
5.192500e-10,3.160938e-02
5.232500e-10,3.126563e-02
5.272500e-10,3.123438e-02
5.312500e-10,3.117188e-02
5.352500e-10,3.070313e-02
5.392500e-10,3.007813e-02
5.432500e-10,2.982813e-02
5.472500e-10,2.995313e-02
5.512500e-10,2.932813e-02
5.552500e-10,2.957813e-02
5.592500e-10,2.953125e-02
5.632500e-10,2.950000e-02
5.672500e-10,2.810938e-02
5.712500e-10,2.864063e-02
5.752500e-10,2.768750e-02
5.792500e-10,2.853125e-02
5.832500e-10,2.806250e-02
5.872500e-10,2.754688e-02
5.912500e-10,2.668750e-02
5.952500e-10,2.676563e-02
5.992500e-10,2.606250e-02
6.032500e-10,2.570313e-02
6.072500e-10,2.565625e-02
6.112500e-10,2.551563e-02
6.152500e-10,2.495313e-02
6.192500e-10,2.417188e-02
6.232500e-10,2.379688e-02
6.272500e-10,2.370313e-02
6.312500e-10,2.287500e-02
6.352500e-10,2.290625e-02
6.392500e-10,2.265625e-02
6.432500e-10,2.232813e-02
6.472500e-10,2.068750e-02
6.512500e-10,2.093750e-02
6.552500e-10,1.973438e-02
6.592500e-10,2.032813e-02
6.632500e-10,1.962500e-02
6.672500e-10,1.885938e-02
6.712500e-10,1.773438e-02
6.752500e-10,1.762500e-02
6.792500e-10,1.668750e-02
6.832500e-10,1.610938e-02
6.872500e-10,1.590625e-02
6.912500e-10,1.562500e-02
6.952500e-10,1.495313e-02
6.992500e-10,1.403125e-02
7.032500e-10,1.357813e-02
7.072500e-10,1.342188e-02
7.112500e-10,1.256250e-02
7.152500e-10,1.260938e-02
7.192500e-10,1.239063e-02
7.232500e-10,1.206250e-02
7.272500e-10,1.051563e-02
7.312500e-10,1.081250e-02
7.352500e-10,9.718750e-03
7.392500e-10,1.046875e-02
7.432500e-10,9.921875e-03
7.472500e-10,9.359375e-03
7.512500e-10,8.406250e-03
7.552500e-10,8.515625e-03
7.592500e-10,7.781250e-03
7.632500e-10,7.437500e-03
7.672500e-10,7.515625e-03
7.712500e-10,7.468750e-03
7.752500e-10,7.078125e-03
7.792500e-10,6.421875e-03
7.832500e-10,6.250000e-03
7.872500e-10,6.406250e-03
7.912500e-10,5.843750e-03
7.952500e-10,6.218750e-03
7.992500e-10,6.281250e-03
8.032500e-10,6.234375e-03
8.072500e-10,5.000000e-03
8.112500e-10,5.578125e-03
8.152500e-10,4.734375e-03
8.192500e-10,5.812500e-03
8.232500e-10,5.546875e-03
8.272500e-10,5.281250e-03
8.312500e-10,4.578125e-03
8.352500e-10,4.921875e-03
8.392500e-10,4.453125e-03
8.432500e-10,4.375000e-03
8.472500e-10,4.718750e-03
8.512500e-10,4.843750e-03
8.552500e-10,4.703125e-03
8.592500e-10,4.265625e-03
8.632500e-10,4.250000e-03
8.672500e-10,4.656250e-03
8.712500e-10,4.296875e-03
8.752500e-10,4.875000e-03
8.792500e-10,5.109375e-03
8.832500e-10,5.234375e-03
8.872500e-10,4.187500e-03
8.912500e-10,4.937500e-03
8.952500e-10,4.218750e-03
8.992500e-10,5.500000e-03
9.032500e-10,5.390625e-03
9.072500e-10,5.281250e-03
9.112500e-10,4.765625e-03
9.152500e-10,5.234375e-03
9.192500e-10,4.937500e-03
9.232500e-10,5.031250e-03
9.272500e-10,5.562500e-03
9.312500e-10,5.781250e-03
9.352500e-10,5.781250e-03
9.392500e-10,5.515625e-03
9.432500e-10,5.609375e-03
9.472500e-10,6.187500e-03
9.512500e-10,6.000000e-03
9.552500e-10,6.703125e-03
9.592500e-10,7.062500e-03
9.632500e-10,7.328125e-03
9.672500e-10,6.437500e-03
9.712500e-10,7.312500e-03
9.752500e-10,6.687500e-03
9.792500e-10,8.078125e-03
9.832500e-10,8.078125e-03
9.872500e-10,8.046875e-03
9.912500e-10,7.625000e-03
9.952500e-10,8.156250e-03
9.992500e-10,7.937500e-03
1.003250e-09,8.093750e-03
1.007250e-09,8.671875e-03
1.011250e-09,8.890625e-03
1.015250e-09,8.890625e-03
1.019250e-09,8.609375e-03
1.023250e-09,8.671875e-03
1.027250e-09,9.218750e-03
1.031250e-09,8.953125e-03
1.035250e-09,9.578125e-03
1.039250e-09,9.828125e-03
1.043250e-09,1.000000e-02
1.047250e-09,8.984375e-03
1.051250e-09,9.750000e-03
1.055250e-09,8.953125e-03
1.059250e-09,1.014063e-02
1.063250e-09,9.937500e-03
1.067250e-09,9.687500e-03
1.071250e-09,9.046875e-03
1.075250e-09,9.359375e-03
1.079250e-09,8.890625e-03
1.083250e-09,8.796875e-03
1.087250e-09,9.109375e-03
1.091250e-09,9.078125e-03
1.095250e-09,8.765625e-03
1.099250e-09,8.218750e-03
1.103250e-09,8.000000e-03
1.107250e-09,8.250000e-03
1.111250e-09,7.687500e-03
1.115250e-09,8.046875e-03
1.119250e-09,8.031250e-03
1.123250e-09,7.953125e-03
1.127250e-09,6.671875e-03
1.131250e-09,7.218750e-03
1.135250e-09,6.203125e-03
1.139250e-09,7.156250e-03
1.143250e-09,6.750000e-03
1.147250e-09,6.328125e-03
1.151250e-09,5.515625e-03
1.155250e-09,5.703125e-03
1.159250e-09,5.109375e-03
1.163250e-09,4.921875e-03
1.167250e-09,5.140625e-03
1.171250e-09,5.109375e-03
1.175250e-09,4.765625e-03
1.179250e-09,4.218750e-03
1.183250e-09,4.046875e-03
1.187250e-09,4.343750e-03
1.191250e-09,3.859375e-03
1.195250e-09,4.343750e-03
1.199250e-09,4.468750e-03
1.203250e-09,4.578125e-03
1.207250e-09,3.437500e-03
1.211250e-09,4.203125e-03
1.215250e-09,3.406250e-03
1.219250e-09,4.625000e-03
1.223250e-09,4.468750e-03
1.227250e-09,4.328125e-03
1.231250e-09,3.796875e-03
1.235250e-09,4.296875e-03
1.239250e-09,4.015625e-03
1.243250e-09,4.140625e-03
1.247250e-09,4.703125e-03
1.251250e-09,5.031250e-03
1.255250e-09,5.015625e-03
1.259250e-09,4.812500e-03
1.263250e-09,4.984375e-03
1.267250e-09,5.609375e-03
1.271250e-09,5.421875e-03
1.275250e-09,6.234375e-03
1.279250e-09,6.671875e-03
1.283250e-09,7.093750e-03
1.287250e-09,6.187500e-03
1.291250e-09,7.218750e-03
1.295250e-09,6.656250e-03
1.299250e-09,8.093750e-03
1.303250e-09,8.140625e-03
1.307250e-09,8.171875e-03
1.311250e-09,7.796875e-03
1.315250e-09,8.421875e-03
1.319250e-09,8.234375e-03
1.323250e-09,8.437500e-03
1.327250e-09,9.046875e-03
1.331250e-09,9.406250e-03
1.335250e-09,9.375000e-03
1.339250e-09,9.140625e-03
1.343250e-09,9.265625e-03
1.347250e-09,9.812500e-03
1.351250e-09,9.531250e-03
1.355250e-09,1.021875e-02
1.359250e-09,1.050000e-02
1.363250e-09,1.075000e-02
1.367250e-09,9.640625e-03
1.371250e-09,1.046875e-02
1.375250e-09,9.671875e-03
1.379250e-09,1.087500e-02
1.383250e-09,1.065625e-02
1.387250e-09,1.042188e-02
1.391250e-09,9.781250e-03
1.395250e-09,1.010938e-02
1.399250e-09,9.640625e-03
1.403250e-09,9.546875e-03
1.407250e-09,9.859375e-03
1.411250e-09,9.937500e-03
1.415250e-09,9.609375e-03
1.419250e-09,9.062500e-03
1.423250e-09,8.921875e-03
1.427250e-09,9.171875e-03
1.431250e-09,8.609375e-03
1.435250e-09,9.046875e-03
1.439250e-09,9.078125e-03
1.443250e-09,9.093750e-03
1.447250e-09,7.718750e-03
1.451250e-09,8.343750e-03
1.455250e-09,7.359375e-03
1.459250e-09,8.375000e-03
1.463250e-09,8.000000e-03
1.467250e-09,7.609375e-03
1.471250e-09,6.843750e-03
1.475250e-09,7.062500e-03
1.479250e-09,6.500000e-03
1.483250e-09,6.328125e-03
1.487250e-09,6.578125e-03
1.491250e-09,6.625000e-03
1.495250e-09,6.281250e-03
1.499250e-09,5.734375e-03
1.503250e-09,5.593750e-03
1.507250e-09,5.875000e-03
1.511250e-09,5.375000e-03
1.515250e-09,5.859375e-03
1.519250e-09,5.968750e-03
1.523250e-09,6.078125e-03
1.527250e-09,4.812500e-03
1.531250e-09,5.546875e-03
1.535250e-09,4.671875e-03
1.539250e-09,5.843750e-03
1.543250e-09,5.593750e-03
1.547250e-09,5.359375e-03
1.551250e-09,4.734375e-03
1.555250e-09,5.125000e-03
1.559250e-09,4.718750e-03
1.563250e-09,4.718750e-03
1.567250e-09,5.140625e-03
1.571250e-09,5.359375e-03
1.575250e-09,5.187500e-03
1.579250e-09,4.828125e-03
1.583250e-09,4.859375e-03
1.587250e-09,5.312500e-03
1.591250e-09,4.968750e-03
1.595250e-09,5.625000e-03
1.599250e-09,5.890625e-03
1.603250e-09,6.171875e-03
1.607250e-09,5.031250e-03
1.611250e-09,5.921875e-03
1.615250e-09,5.203125e-03
1.619250e-09,6.500000e-03
1.623250e-09,6.375000e-03
1.627250e-09,6.281250e-03
1.631250e-09,5.765625e-03
1.635250e-09,6.265625e-03
1.639250e-09,5.953125e-03
1.643250e-09,6.062500e-03
1.647250e-09,6.562500e-03
1.651250e-09,6.859375e-03
1.655250e-09,6.765625e-03
1.659250e-09,6.468750e-03
1.663250e-09,6.562500e-03
1.667250e-09,7.062500e-03
1.671250e-09,6.750000e-03
1.675250e-09,7.468750e-03
1.679250e-09,7.765625e-03
1.683250e-09,8.062500e-03
1.687250e-09,6.937500e-03
1.691250e-09,7.843750e-03
1.695250e-09,7.125000e-03
1.699250e-09,8.421875e-03
1.703250e-09,8.296875e-03
1.707250e-09,8.187500e-03
1.711250e-09,7.656250e-03
1.715250e-09,8.125000e-03
1.719250e-09,7.796875e-03
1.723250e-09,7.859375e-03
1.727250e-09,8.328125e-03
1.731250e-09,8.593750e-03
1.735250e-09,8.453125e-03
1.739250e-09,8.093750e-03
1.743250e-09,8.140625e-03
1.747250e-09,8.593750e-03
1.751250e-09,8.218750e-03
1.755250e-09,8.875000e-03
1.759250e-09,9.093750e-03
