Measurements-streak-laser-independent/Photodiode-on-Tek-12bit-4GHz/Tek000_ch1_20190613132958566.csv

Model,MSO64
Waveform Type,ANALOG
Horizontal Units,s
Sample Interval,4.000000e-12
Record Length,1000
Zero Index,310.265625
Vertical Units,V

TIME,CH1
-1.241063e-09,5.609375e-03
-1.237063e-09,5.593750e-03
-1.233063e-09,5.984375e-03
-1.229063e-09,5.593750e-03
-1.225062e-09,6.218750e-03
-1.221062e-09,6.453125e-03
-1.217062e-09,6.703125e-03
-1.213062e-09,5.546875e-03
-1.209062e-09,6.437500e-03
-1.205062e-09,5.718750e-03
-1.201062e-09,7.031250e-03
-1.197062e-09,6.921875e-03
-1.193062e-09,6.843750e-03
-1.189062e-09,6.359375e-03
-1.185063e-09,6.906250e-03
-1.181063e-09,6.640625e-03
-1.177063e-09,6.796875e-03
-1.173063e-09,7.343750e-03
-1.169063e-09,7.703125e-03
-1.165062e-09,7.656250e-03
-1.161062e-09,7.406250e-03
-1.157062e-09,7.562500e-03
-1.153062e-09,8.109375e-03
-1.149062e-09,7.859375e-03
-1.145062e-09,8.593750e-03
-1.141062e-09,8.937500e-03
-1.137062e-09,9.265625e-03
-1.133062e-09,8.156250e-03
-1.129062e-09,9.062500e-03
-1.125063e-09,8.343750e-03
-1.121063e-09,9.625000e-03
-1.117063e-09,9.484375e-03
-1.113063e-09,9.328125e-03
-1.109063e-09,8.734375e-03
-1.105063e-09,9.156250e-03
-1.101062e-09,8.734375e-03
-1.097062e-09,8.703125e-03
-1.093062e-09,9.062500e-03
-1.089062e-09,9.203125e-03
-1.085062e-09,8.921875e-03
-1.081062e-09,8.406250e-03
-1.077062e-09,8.296875e-03
-1.073062e-09,8.562500e-03
-1.069062e-09,8.015625e-03
-1.065063e-09,8.453125e-03
-1.061063e-09,8.468750e-03
-1.057063e-09,8.500000e-03
-1.053063e-09,7.078125e-03
-1.049063e-09,7.687500e-03
-1.045063e-09,6.656250e-03
-1.041062e-09,7.656250e-03
-1.037062e-09,7.218750e-03
-1.033062e-09,6.796875e-03
-1.029062e-09,5.953125e-03
-1.025062e-09,6.140625e-03
-1.021062e-09,5.515625e-03
-1.017062e-09,5.296875e-03
-1.013062e-09,5.484375e-03
-1.009062e-09,5.484375e-03
-1.005063e-09,5.093750e-03
-1.001063e-09,4.500000e-03
-9.970625e-10,4.328125e-03
-9.930625e-10,4.578125e-03
-9.890625e-10,4.031250e-03
-9.850625e-10,4.515625e-03
-9.810625e-10,4.609375e-03
-9.770625e-10,4.718750e-03
-9.730625e-10,3.421875e-03
-9.690625e-10,4.187500e-03
-9.650625e-10,3.343750e-03
-9.610625e-10,4.515625e-03
-9.570625e-10,4.312500e-03
-9.530625e-10,4.125000e-03
-9.490625e-10,3.546875e-03
-9.450625e-10,4.000000e-03
-9.410625e-10,3.671875e-03
-9.370625e-10,3.750000e-03
-9.330625e-10,4.250000e-03
-9.290625e-10,4.546875e-03
-9.250625e-10,4.468750e-03
-9.210625e-10,4.187500e-03
-9.170625e-10,4.312500e-03
-9.130625e-10,4.859375e-03
-9.090625e-10,4.593750e-03
-9.050625e-10,5.343750e-03
-9.010625e-10,5.687500e-03
-8.970625e-10,6.031250e-03
-8.930625e-10,4.968750e-03
-8.890625e-10,5.906250e-03
-8.850625e-10,5.234375e-03
-8.810625e-10,6.468750e-03
-8.770625e-10,6.390625e-03
-8.730625e-10,6.296875e-03
-8.690625e-10,5.781250e-03
-8.650625e-10,6.265625e-03
-8.610625e-10,5.906250e-03
-8.570625e-10,5.968750e-03
-8.530625e-10,6.406250e-03
-8.490625e-10,6.609375e-03
-8.450625e-10,6.421875e-03
-8.410625e-10,6.000000e-03
-8.370625e-10,5.953125e-03
-8.330625e-10,6.296875e-03
-8.290625e-10,5.828125e-03
-8.250625e-10,6.343750e-03
-8.210625e-10,6.437500e-03
-8.170625e-10,6.531250e-03
-8.130625e-10,5.265625e-03
-8.090625e-10,5.921875e-03
-8.050625e-10,4.968750e-03
-8.010625e-10,5.796875e-03
-7.970625e-10,5.500000e-03
-7.930625e-10,5.125000e-03
-7.890625e-10,4.421875e-03
-7.850625e-10,4.625000e-03
-7.810625e-10,4.031250e-03
-7.770625e-10,3.921875e-03
-7.730625e-10,4.125000e-03
-7.690625e-10,4.140625e-03
-7.650625e-10,3.875000e-03
-7.610625e-10,3.296875e-03
-7.570625e-10,3.125000e-03
-7.530625e-10,3.375000e-03
-7.490625e-10,2.843750e-03
-7.450625e-10,3.328125e-03
-7.410625e-10,3.437500e-03
-7.370625e-10,3.531250e-03
-7.330625e-10,2.359375e-03
-7.290625e-10,3.125000e-03
-7.250625e-10,2.296875e-03
-7.210625e-10,3.156250e-03
-7.170625e-10,3.078125e-03
-7.130625e-10,2.906250e-03
-7.090625e-10,2.453125e-03
-7.050625e-10,2.828125e-03
-7.010625e-10,2.406250e-03
-6.970625e-10,2.625000e-03
-6.930625e-10,3.062500e-03
-6.890625e-10,3.281250e-03
-6.850625e-10,3.421875e-03
-6.810625e-10,3.062500e-03
-6.770625e-10,3.125000e-03
-6.730625e-10,3.593750e-03
-6.690625e-10,3.359375e-03
-6.650625e-10,4.031250e-03
-6.610625e-10,4.375000e-03
-6.570625e-10,4.640625e-03
-6.530625e-10,3.593750e-03
-6.490625e-10,4.546875e-03
-6.450625e-10,3.937500e-03
-6.410625e-10,4.843750e-03
-6.370625e-10,4.875000e-03
-6.330625e-10,4.828125e-03
-6.290625e-10,4.406250e-03
-6.250625e-10,4.718750e-03
-6.210625e-10,4.218750e-03
-6.170625e-10,4.421875e-03
-6.130625e-10,4.765625e-03
-6.090625e-10,4.796875e-03
-6.050625e-10,4.937500e-03
-6.010625e-10,4.406250e-03
-5.970625e-10,4.250000e-03
-5.930625e-10,4.500000e-03
-5.890625e-10,4.093750e-03
-5.850625e-10,4.515625e-03
-5.810625e-10,4.593750e-03
-5.770625e-10,4.562500e-03
-5.730625e-10,3.187500e-03
-5.690625e-10,3.843750e-03
-5.650625e-10,3.109375e-03
-5.610625e-10,3.703125e-03
-5.570625e-10,3.531250e-03
-5.530625e-10,3.218750e-03
-5.490625e-10,2.546875e-03
-5.450625e-10,2.609375e-03
-5.410625e-10,1.890625e-03
-5.370625e-10,1.890625e-03
-5.330625e-10,2.125000e-03
-5.290625e-10,1.968750e-03
-5.250625e-10,2.000000e-03
-5.210625e-10,1.406250e-03
-5.170625e-10,1.250000e-03
-5.130625e-10,1.515625e-03
-5.090625e-10,1.140625e-03
-5.050625e-10,1.671875e-03
-5.010625e-10,1.781250e-03
-4.970625e-10,1.875000e-03
-4.930625e-10,6.562500e-04
-4.890625e-10,1.437500e-03
-4.850625e-10,1.000000e-03
-4.810625e-10,1.843750e-03
-4.770625e-10,2.062500e-03
-4.730625e-10,1.968750e-03
-4.690625e-10,1.609375e-03
-4.650625e-10,2.031250e-03
-4.610625e-10,1.750000e-03
-4.570625e-10,2.046875e-03
-4.530625e-10,2.718750e-03
-4.490625e-10,2.921875e-03
-4.450625e-10,3.203125e-03
-4.410625e-10,3.031250e-03
-4.370625e-10,3.328125e-03
-4.330625e-10,4.031250e-03
-4.290625e-10,3.906250e-03
-4.250625e-10,4.843750e-03
-4.210625e-10,5.234375e-03
-4.170625e-10,5.625000e-03
-4.130625e-10,4.687500e-03
-4.090625e-10,5.578125e-03
-4.050625e-10,5.343750e-03
-4.010625e-10,6.375000e-03
-3.970625e-10,6.750000e-03
-3.930625e-10,6.656250e-03
-3.890625e-10,6.343750e-03
-3.850625e-10,6.781250e-03
-3.810625e-10,6.593750e-03
-3.770625e-10,6.656250e-03
-3.730625e-10,7.218750e-03
-3.690625e-10,7.281250e-03
-3.650625e-10,7.218750e-03
-3.610625e-10,6.843750e-03
-3.570625e-10,6.984375e-03
-3.530625e-10,7.437500e-03
-3.490625e-10,6.890625e-03
-3.450625e-10,7.484375e-03
-3.410625e-10,7.562500e-03
-3.370625e-10,7.562500e-03
-3.330625e-10,6.296875e-03
-3.290625e-10,6.687500e-03
-3.250625e-10,6.031250e-03
-3.210625e-10,6.718750e-03
-3.170625e-10,6.656250e-03
-3.130625e-10,6.140625e-03
-3.090625e-10,5.515625e-03
-3.050625e-10,5.625000e-03
-3.010625e-10,5.187500e-03
-2.970625e-10,4.843750e-03
-2.930625e-10,5.125000e-03
-2.890625e-10,4.953125e-03
-2.850625e-10,4.578125e-03
-2.810625e-10,4.125000e-03
-2.770625e-10,4.125000e-03
-2.730625e-10,4.484375e-03
-2.690625e-10,3.906250e-03
-2.650625e-10,4.375000e-03
-2.610625e-10,4.593750e-03
-2.570625e-10,4.625000e-03
-2.530625e-10,3.531250e-03
-2.490625e-10,4.015625e-03
-2.450625e-10,3.468750e-03
-2.410625e-10,4.375000e-03
-2.370625e-10,4.453125e-03
-2.330625e-10,4.234375e-03
-2.290625e-10,3.968750e-03
-2.250625e-10,4.359375e-03
-2.210625e-10,4.187500e-03
-2.170625e-10,4.156250e-03
-2.130625e-10,4.640625e-03
-2.090625e-10,4.781250e-03
-2.050625e-10,4.625000e-03
-2.010625e-10,4.546875e-03
-1.970625e-10,4.703125e-03
-1.930625e-10,5.218750e-03
-1.890625e-10,4.875000e-03
-1.850625e-10,5.437500e-03
-1.810625e-10,5.765625e-03
-1.770625e-10,5.875000e-03
-1.730625e-10,4.890625e-03
-1.690625e-10,5.359375e-03
-1.650625e-10,4.625000e-03
-1.610625e-10,5.500000e-03
-1.570625e-10,5.312500e-03
-1.530625e-10,4.921875e-03
-1.490625e-10,4.453125e-03
-1.450625e-10,4.578125e-03
-1.410625e-10,4.031250e-03
-1.370625e-10,3.718750e-03
-1.330625e-10,3.750000e-03
-1.290625e-10,3.515625e-03
-1.250625e-10,2.953125e-03
-1.210625e-10,2.500000e-03
-1.170625e-10,2.203125e-03
-1.130625e-10,2.187500e-03
-1.090625e-10,1.531250e-03
-1.050625e-10,1.796875e-03
-1.010625e-10,1.796875e-03
-9.706250e-11,1.765625e-03
-9.306250e-11,7.343750e-04
-8.906250e-11,1.187500e-03
-8.506250e-11,4.687500e-04
-8.106250e-11,1.656250e-03
-7.706250e-11,1.687500e-03
-7.306250e-11,1.843750e-03
-6.906250e-11,2.046875e-03
-6.506250e-11,3.078125e-03
-6.106250e-11,3.562500e-03
-5.706250e-11,4.562500e-03
-5.306250e-11,6.062500e-03
-4.906250e-11,7.609375e-03
-4.506250e-11,8.984375e-03
-4.106250e-11,1.076563e-02
-3.706250e-11,1.292188e-02
-3.306250e-11,1.553125e-02
-2.906250e-11,1.787500e-02
-2.506250e-11,2.146875e-02
-2.106250e-11,2.498438e-02
-1.706250e-11,2.890625e-02
-1.306250e-11,3.207813e-02
-9.062500e-12,3.695313e-02
-5.062500e-12,4.085938e-02
-1.062500e-12,4.706250e-02
2.937500e-12,5.218750e-02
6.937500e-12,5.787500e-02
1.093750e-11,6.373438e-02
1.493750e-11,7.065625e-02
1.893750e-11,7.726563e-02
2.293750e-11,8.453125e-02
2.693750e-11,9.251563e-02
3.093750e-11,1.007813e-01
3.493750e-11,1.087969e-01
3.893750e-11,1.174063e-01
4.293750e-11,1.264219e-01
4.693750e-11,1.358750e-01
5.093750e-11,1.452188e-01
5.493750e-11,1.557500e-01
5.893750e-11,1.661094e-01
6.293750e-11,1.769531e-01
6.693750e-11,1.868438e-01
7.093750e-11,1.982969e-01
7.493750e-11,2.085781e-01
7.893750e-11,2.209844e-01
8.293750e-11,2.320000e-01
8.693750e-11,2.435000e-01
9.093750e-11,2.547344e-01
9.493750e-11,2.666563e-01
9.893750e-11,2.780469e-01
1.029375e-10,2.896563e-01
1.069375e-10,3.016250e-01
1.109375e-10,3.135781e-01
1.149375e-10,3.245781e-01
1.189375e-10,3.357813e-01
1.229375e-10,3.469375e-01
1.269375e-10,3.580156e-01
1.309375e-10,3.685625e-01
1.349375e-10,3.796875e-01
1.389375e-10,3.900000e-01
1.429375e-10,4.004375e-01
1.469375e-10,4.092344e-01
1.509375e-10,4.191563e-01
1.549375e-10,4.273125e-01
1.589375e-10,4.369844e-01
1.629375e-10,4.446875e-01
1.669375e-10,4.524844e-01
1.709375e-10,4.593594e-01
1.749375e-10,4.663906e-01
1.789375e-10,4.725156e-01
1.829375e-10,4.783594e-01
1.869375e-10,4.840469e-01
1.909375e-10,4.894375e-01
1.949375e-10,4.932656e-01
1.989375e-10,4.969063e-01
2.029375e-10,5.002656e-01
2.069375e-10,5.032031e-01
2.109375e-10,5.053281e-01
2.149375e-10,5.076563e-01
2.189375e-10,5.088906e-01
2.229375e-10,5.101563e-01
2.269375e-10,5.094688e-01
2.309375e-10,5.099375e-01
2.349375e-10,5.085313e-01
2.389375e-10,5.084063e-01
2.429375e-10,5.062969e-01
2.469375e-10,5.042969e-01
2.509375e-10,5.013594e-01
2.549375e-10,4.986719e-01
2.589375e-10,4.952500e-01
2.629375e-10,4.916094e-01
2.669375e-10,4.878594e-01
2.709375e-10,4.840625e-01
2.749375e-10,4.788594e-01
2.789375e-10,4.736406e-01
2.829375e-10,4.684531e-01
2.869375e-10,4.631406e-01
2.909375e-10,4.572031e-01
2.949375e-10,4.517188e-01
2.989375e-10,4.455000e-01
3.029375e-10,4.396563e-01
3.069375e-10,4.320938e-01
3.109375e-10,4.261875e-01
3.149375e-10,4.187500e-01
3.189375e-10,4.127656e-01
3.229375e-10,4.052813e-01
3.269375e-10,3.981875e-01
3.309375e-10,3.905313e-01
3.349375e-10,3.835625e-01
3.389375e-10,3.762500e-01
3.429375e-10,3.690000e-01
3.469375e-10,3.619063e-01
3.509375e-10,3.551094e-01
3.549375e-10,3.473438e-01
3.589375e-10,3.397813e-01
3.629375e-10,3.325781e-01
3.669375e-10,3.256094e-01
3.709375e-10,3.181563e-01
3.749375e-10,3.114531e-01
3.789375e-10,3.043594e-01
3.829375e-10,2.978281e-01
3.869375e-10,2.897500e-01
3.909375e-10,2.836563e-01
3.949375e-10,2.762500e-01
3.989375e-10,2.703594e-01
4.029375e-10,2.632500e-01
4.069375e-10,2.566250e-01
4.109375e-10,2.495469e-01
4.149375e-10,2.434063e-01
4.189375e-10,2.370156e-01
4.229375e-10,2.307813e-01
4.269375e-10,2.247500e-01
4.309375e-10,2.190625e-01
4.349375e-10,2.127188e-01
4.389375e-10,2.065469e-01
4.429375e-10,2.007188e-01
4.469375e-10,1.952813e-01
4.509375e-10,1.893281e-01
4.549375e-10,1.841563e-01
4.589375e-10,1.787656e-01
4.629375e-10,1.738438e-01
4.669375e-10,1.674688e-01
4.709375e-10,1.631563e-01
4.749375e-10,1.575781e-01
4.789375e-10,1.534688e-01
4.829375e-10,1.483125e-01
4.869375e-10,1.435156e-01
4.909375e-10,1.383750e-01
4.949375e-10,1.341875e-01
4.989375e-10,1.297188e-01
5.029375e-10,1.255156e-01
5.069375e-10,1.214688e-01
5.109375e-10,1.177969e-01
5.149375e-10,1.136719e-01
5.189375e-10,1.096406e-01
5.229375e-10,1.059844e-01
5.269375e-10,1.027969e-01
5.309375e-10,9.906250e-02
5.349375e-10,9.607813e-02
5.389375e-10,9.304688e-02
5.429375e-10,9.034375e-02
5.469375e-10,8.637500e-02
5.509375e-10,8.440625e-02
5.549375e-10,8.125000e-02
5.589375e-10,7.957813e-02
5.629375e-10,7.698438e-02
5.669375e-10,7.450000e-02
5.709375e-10,7.189063e-02
5.749375e-10,7.017188e-02
5.789375e-10,6.803125e-02
5.829375e-10,6.625000e-02
5.869375e-10,6.462500e-02
5.909375e-10,6.334375e-02
5.949375e-10,6.168750e-02
5.989375e-10,6.000000e-02
6.029375e-10,5.873438e-02
6.069375e-10,5.776563e-02
6.109375e-10,5.626563e-02
6.149375e-10,5.543750e-02
6.189375e-10,5.457813e-02
6.229375e-10,5.381250e-02
6.269375e-10,5.185938e-02
6.309375e-10,5.168750e-02
6.349375e-10,5.037500e-02
6.389375e-10,5.046875e-02
6.429375e-10,4.956250e-02
6.469375e-10,4.853125e-02
6.509375e-10,4.731250e-02
6.549375e-10,4.701563e-02
6.589375e-10,4.596875e-02
6.629375e-10,4.521875e-02
6.669375e-10,4.465625e-02
6.709375e-10,4.429688e-02
6.749375e-10,4.350000e-02
6.789375e-10,4.243750e-02
6.829375e-10,4.187500e-02
6.869375e-10,4.134375e-02
6.909375e-10,4.025000e-02
6.949375e-10,3.979688e-02
6.989375e-10,3.926563e-02
7.029375e-10,3.851563e-02
7.069375e-10,3.671875e-02
7.109375e-10,3.648438e-02
7.149375e-10,3.517188e-02
7.189375e-10,3.525000e-02
7.229375e-10,3.421875e-02
7.269375e-10,3.306250e-02
7.309375e-10,3.154688e-02
7.349375e-10,3.112500e-02
7.389375e-10,2.975000e-02
7.429375e-10,2.867188e-02
7.469375e-10,2.793750e-02
7.509375e-10,2.732813e-02
7.549375e-10,2.634375e-02
7.589375e-10,2.501563e-02
7.629375e-10,2.428125e-02
7.669375e-10,2.360938e-02
7.709375e-10,2.243750e-02
7.749375e-10,2.198438e-02
7.789375e-10,2.151563e-02
7.829375e-10,2.067188e-02
7.869375e-10,1.904688e-02
7.909375e-10,1.890625e-02
7.949375e-10,1.778125e-02
7.989375e-10,1.823438e-02
8.029375e-10,1.756250e-02
8.069375e-10,1.689063e-02
8.109375e-10,1.579688e-02
8.149375e-10,1.589063e-02
8.189375e-10,1.507813e-02
8.229375e-10,1.465625e-02
8.269375e-10,1.471875e-02
8.309375e-10,1.475000e-02
8.349375e-10,1.460938e-02
8.389375e-10,1.406250e-02
8.429375e-10,1.414063e-02
8.469375e-10,1.445313e-02
8.509375e-10,1.421875e-02
8.549375e-10,1.478125e-02
8.589375e-10,1.523438e-02
8.629375e-10,1.529688e-02
8.669375e-10,1.467188e-02
8.709375e-10,1.537500e-02
8.749375e-10,1.507813e-02
8.789375e-10,1.653125e-02
8.829375e-10,1.675000e-02
8.869375e-10,1.693750e-02
8.909375e-10,1.665625e-02
8.949375e-10,1.737500e-02
8.989375e-10,1.731250e-02
9.029375e-10,1.757813e-02
9.069375e-10,1.829688e-02
9.109375e-10,1.864063e-02
9.149375e-10,1.898438e-02
9.189375e-10,1.884375e-02
9.229375e-10,1.909375e-02
9.269375e-10,1.975000e-02
9.309375e-10,1.971875e-02
9.349375e-10,2.037500e-02
9.389375e-10,2.075000e-02
9.429375e-10,2.078125e-02
9.469375e-10,2.006250e-02
9.509375e-10,2.056250e-02
9.549375e-10,1.990625e-02
9.589375e-10,2.109375e-02
9.629375e-10,2.093750e-02
9.669375e-10,2.065625e-02
9.709375e-10,1.993750e-02
9.749375e-10,2.007813e-02
9.789375e-10,1.950000e-02
9.829375e-10,1.926563e-02
9.869375e-10,1.942188e-02
9.909375e-10,1.898438e-02
9.949375e-10,1.867188e-02
9.989375e-10,1.790625e-02
1.002937e-09,1.740625e-02
1.006938e-09,1.750000e-02
1.010938e-09,1.684375e-02
1.014938e-09,1.687500e-02
1.018938e-09,1.659375e-02
1.022938e-09,1.607813e-02
1.026938e-09,1.489063e-02
1.030937e-09,1.496875e-02
1.034937e-09,1.376563e-02
1.038937e-09,1.451563e-02
1.042937e-09,1.400000e-02
1.046937e-09,1.339063e-02
1.050937e-09,1.245313e-02
1.054937e-09,1.239063e-02
1.058937e-09,1.170313e-02
1.062937e-09,1.142188e-02
1.066938e-09,1.156250e-02
1.070938e-09,1.114063e-02
1.074938e-09,1.087500e-02
1.078938e-09,1.029688e-02
1.082938e-09,9.953125e-03
1.086938e-09,1.029688e-02
1.090937e-09,9.921875e-03
1.094937e-09,1.026563e-02
1.098937e-09,1.037500e-02
1.102937e-09,1.031250e-02
1.106937e-09,9.593750e-03
1.110937e-09,1.025000e-02
1.114937e-09,9.531250e-03
1.118937e-09,1.075000e-02
1.122937e-09,1.071875e-02
1.126938e-09,1.065625e-02
1.130938e-09,1.026563e-02
1.134938e-09,1.078125e-02
1.138938e-09,1.062500e-02
1.142938e-09,1.087500e-02
1.146938e-09,1.153125e-02
1.150937e-09,1.168750e-02
1.154937e-09,1.181250e-02
1.158937e-09,1.168750e-02
1.162937e-09,1.176563e-02
1.166937e-09,1.246875e-02
1.170937e-09,1.239063e-02
1.174937e-09,1.306250e-02
1.178937e-09,1.343750e-02
1.182937e-09,1.367188e-02
1.186938e-09,1.304688e-02
1.190938e-09,1.392188e-02
1.194938e-09,1.328125e-02
1.198938e-09,1.453125e-02
1.202938e-09,1.446875e-02
1.206938e-09,1.435938e-02
1.210937e-09,1.385938e-02
1.214937e-09,1.428125e-02
1.218937e-09,1.393750e-02
1.222937e-09,1.396875e-02
1.226937e-09,1.439063e-02
1.230937e-09,1.439063e-02
1.234937e-09,1.418750e-02
1.238937e-09,1.375000e-02
1.242937e-09,1.354688e-02
1.246938e-09,1.389063e-02
1.250938e-09,1.342188e-02
1.254938e-09,1.378125e-02
1.258938e-09,1.381250e-02
1.262938e-09,1.375000e-02
1.266937e-09,1.267188e-02
1.270937e-09,1.325000e-02
1.274937e-09,1.226563e-02
1.278937e-09,1.321875e-02
1.282937e-09,1.284375e-02
1.286937e-09,1.246875e-02
1.290937e-09,1.170313e-02
1.294937e-09,1.190625e-02
1.298937e-09,1.135938e-02
1.302937e-09,1.121875e-02
1.306938e-09,1.146875e-02
1.310938e-09,1.145313e-02
1.314938e-09,1.115625e-02
1.318938e-09,1.065625e-02
1.322938e-09,1.050000e-02
1.326937e-09,1.084375e-02
1.330937e-09,1.042188e-02
1.334937e-09,1.090625e-02
1.338937e-09,1.107813e-02
1.342937e-09,1.120313e-02
1.346937e-09,1.020313e-02
1.350937e-09,1.101563e-02
1.354937e-09,1.025000e-02
1.358937e-09,1.148438e-02
1.362937e-09,1.137500e-02
1.366938e-09,1.126563e-02
1.370938e-09,1.078125e-02
1.374938e-09,1.129688e-02
1.378938e-09,1.104688e-02
1.382938e-09,1.120313e-02
1.386937e-09,1.176563e-02
1.390937e-09,1.209375e-02
1.394937e-09,1.207813e-02
1.398937e-09,1.185938e-02
1.402937e-09,1.201563e-02
1.406937e-09,1.260938e-02
1.410937e-09,1.240625e-02
1.414937e-09,1.315625e-02
1.418937e-09,1.353125e-02
1.422937e-09,1.387500e-02
1.426938e-09,1.295313e-02
1.430938e-09,1.389063e-02
1.434938e-09,1.325000e-02
1.438938e-09,1.457813e-02
1.442938e-09,1.451563e-02
1.446937e-09,1.443750e-02
1.450937e-09,1.395313e-02
1.454937e-09,1.445313e-02
1.458937e-09,1.414063e-02
1.462937e-09,1.421875e-02
1.466937e-09,1.467188e-02
1.470937e-09,1.489063e-02
1.474937e-09,1.473438e-02
1.478937e-09,1.434375e-02
1.482937e-09,1.432813e-02
1.486938e-09,1.471875e-02
1.490938e-09,1.431250e-02
1.494938e-09,1.485938e-02
1.498938e-09,1.500000e-02
1.502938e-09,1.512500e-02
1.506937e-09,1.390625e-02
1.510937e-09,1.462500e-02
1.514937e-09,1.373438e-02
1.518937e-09,1.484375e-02
1.522937e-09,1.453125e-02
1.526937e-09,1.423438e-02
1.530937e-09,1.351563e-02
1.534937e-09,1.381250e-02
1.538937e-09,1.329688e-02
1.542937e-09,1.318750e-02
1.546938e-09,1.346875e-02
1.550938e-09,1.354688e-02
1.554938e-09,1.325000e-02
1.558938e-09,1.273438e-02
1.562938e-09,1.262500e-02
1.566937e-09,1.292188e-02
1.570937e-09,1.242188e-02
1.574937e-09,1.292188e-02
1.578937e-09,1.303125e-02
1.582937e-09,1.314063e-02
1.586937e-09,1.187500e-02
1.590937e-09,1.260938e-02
1.594937e-09,1.173438e-02
1.598937e-09,1.285938e-02
1.602937e-09,1.259375e-02
1.606938e-09,1.232813e-02
1.610938e-09,1.167188e-02
1.614938e-09,1.201563e-02
1.618938e-09,1.156250e-02
1.622938e-09,1.150000e-02
1.626937e-09,1.184375e-02
1.630937e-09,1.198438e-02
1.634937e-09,1.173438e-02
1.638937e-09,1.126563e-02
1.642937e-09,1.120313e-02
1.646937e-09,1.153125e-02
1.650937e-09,1.106250e-02
1.654937e-09,1.157813e-02
1.658937e-09,1.168750e-02
1.662937e-09,1.179688e-02
1.666938e-09,1.050000e-02
1.670938e-09,1.118750e-02
1.674938e-09,1.026563e-02
1.678938e-09,1.134375e-02
1.682938e-09,1.100000e-02
1.686937e-09,1.064063e-02
1.690937e-09,9.875000e-03
1.694937e-09,1.010938e-02
1.698937e-09,9.531250e-03
1.702937e-09,9.343750e-03
1.706937e-09,9.546875e-03
1.710937e-09,9.531250e-03
1.714937e-09,9.125000e-03
1.718937e-09,8.500000e-03
1.722937e-09,8.281250e-03
1.726938e-09,8.453125e-03
1.730938e-09,7.812500e-03
1.734938e-09,8.171875e-03
1.738938e-09,8.125000e-03
1.742938e-09,8.078125e-03
1.746937e-09,6.640625e-03
1.750937e-09,7.203125e-03
1.754937e-09,6.171875e-03
1.758937e-09,7.140625e-03
