Measurements-streak-laser-independent/Photodiode-on-Tek-12bit-4GHz/Tek000_ch1_20190613133022835.csv

Model,MSO64
Waveform Type,ANALOG
Horizontal Units,s
Sample Interval,4.000000e-12
Record Length,1000
Zero Index,310.343750
Vertical Units,V

TIME,CH1
-1.241375e-09,7.015625e-03
-1.237375e-09,7.203125e-03
-1.233375e-09,7.781250e-03
-1.229375e-09,7.531250e-03
-1.225375e-09,8.296875e-03
-1.221375e-09,8.640625e-03
-1.217375e-09,8.984375e-03
-1.213375e-09,7.890625e-03
-1.209375e-09,8.812500e-03
-1.205375e-09,8.093750e-03
-1.201375e-09,9.406250e-03
-1.197375e-09,9.265625e-03
-1.193375e-09,9.125000e-03
-1.189375e-09,8.562500e-03
-1.185375e-09,9.000000e-03
-1.181375e-09,8.625000e-03
-1.177375e-09,8.625000e-03
-1.173375e-09,9.031250e-03
-1.169375e-09,9.234375e-03
-1.165375e-09,9.000000e-03
-1.161375e-09,8.562500e-03
-1.157375e-09,8.531250e-03
-1.153375e-09,8.875000e-03
-1.149375e-09,8.421875e-03
-1.145375e-09,8.968750e-03
-1.141375e-09,9.093750e-03
-1.137375e-09,9.218750e-03
-1.133375e-09,7.921875e-03
-1.129375e-09,8.656250e-03
-1.125375e-09,7.765625e-03
-1.121375e-09,8.890625e-03
-1.117375e-09,8.593750e-03
-1.113375e-09,8.312500e-03
-1.109375e-09,7.609375e-03
-1.105375e-09,7.937500e-03
-1.101375e-09,7.437500e-03
-1.097375e-09,7.359375e-03
-1.093375e-09,7.687500e-03
-1.089375e-09,7.828125e-03
-1.085375e-09,7.546875e-03
-1.081375e-09,7.078125e-03
-1.077375e-09,7.015625e-03
-1.073375e-09,7.359375e-03
-1.069375e-09,6.906250e-03
-1.065375e-09,7.468750e-03
-1.061375e-09,7.625000e-03
-1.057375e-09,7.796875e-03
-1.053375e-09,6.546875e-03
-1.049375e-09,7.328125e-03
-1.045375e-09,6.484375e-03
-1.041375e-09,7.687500e-03
-1.037375e-09,7.453125e-03
-1.033375e-09,7.234375e-03
-1.029375e-09,6.593750e-03
-1.025375e-09,6.984375e-03
-1.021375e-09,6.562500e-03
-1.017375e-09,6.531250e-03
-1.013375e-09,6.921875e-03
-1.009375e-09,7.093750e-03
-1.005375e-09,6.859375e-03
-1.001375e-09,6.406250e-03
-9.973750e-10,6.375000e-03
-9.933750e-10,6.718750e-03
-9.893750e-10,6.265625e-03
-9.853750e-10,6.796875e-03
-9.813750e-10,6.921875e-03
-9.773750e-10,7.046875e-03
-9.733750e-10,5.734375e-03
-9.693750e-10,6.437500e-03
-9.653750e-10,5.500000e-03
-9.613750e-10,6.578125e-03
-9.573750e-10,6.234375e-03
-9.533750e-10,5.890625e-03
-9.493750e-10,5.109375e-03
-9.453750e-10,5.343750e-03
-9.413750e-10,4.750000e-03
-9.373750e-10,4.562500e-03
-9.333750e-10,4.765625e-03
-9.293750e-10,4.750000e-03
-9.253750e-10,4.328125e-03
-9.213750e-10,3.687500e-03
-9.173750e-10,3.453125e-03
-9.133750e-10,3.609375e-03
-9.093750e-10,2.953125e-03
-9.053750e-10,3.312500e-03
-9.013750e-10,3.265625e-03
-8.973750e-10,3.203125e-03
-8.933750e-10,1.750000e-03
-8.893750e-10,2.312500e-03
-8.853750e-10,1.250000e-03
-8.813750e-10,2.156250e-03
-8.773750e-10,1.734375e-03
-8.733750e-10,1.296875e-03
-8.693750e-10,4.687500e-04
-8.653750e-10,6.562500e-04
-8.613750e-10,4.687500e-05
-8.573750e-10,-1.250000e-04
-8.533750e-10,9.375000e-05
-8.493750e-10,1.406250e-04
-8.453750e-10,-2.031250e-04
-8.413750e-10,-7.343750e-04
-8.373750e-10,-8.593750e-04
-8.333750e-10,-5.468750e-04
-8.293750e-10,-1.031250e-03
-8.253750e-10,-5.000000e-04
-8.213750e-10,-3.437500e-04
-8.173750e-10,-1.562500e-04
-8.133750e-10,-1.359375e-03
-8.093750e-10,-5.312500e-04
-8.053750e-10,-1.312500e-03
-8.013750e-10,-1.406250e-04
-7.973750e-10,-2.343750e-04
-7.933750e-10,-3.593750e-04
-7.893750e-10,-8.281250e-04
-7.853750e-10,-3.281250e-04
-7.813750e-10,-6.250000e-04
-7.773750e-10,-4.531250e-04
-7.733750e-10,7.812500e-05
-7.693750e-10,4.218750e-04
-7.653750e-10,4.375000e-04
-7.613750e-10,1.875000e-04
-7.573750e-10,3.593750e-04
-7.533750e-10,9.218750e-04
-7.493750e-10,7.031250e-04
-7.453750e-10,1.468750e-03
-7.413750e-10,1.859375e-03
-7.373750e-10,2.218750e-03
-7.333750e-10,1.203125e-03
-7.293750e-10,2.171875e-03
-7.253750e-10,1.546875e-03
-7.213750e-10,2.781250e-03
-7.173750e-10,2.765625e-03
-7.133750e-10,2.703125e-03
-7.093750e-10,2.234375e-03
-7.053750e-10,2.718750e-03
-7.013750e-10,2.359375e-03
-6.973750e-10,2.484375e-03
-6.933750e-10,2.921875e-03
-6.893750e-10,3.125000e-03
-6.853750e-10,3.062500e-03
-6.813750e-10,2.640625e-03
-6.773750e-10,2.609375e-03
-6.733750e-10,2.968750e-03
-6.693750e-10,2.546875e-03
-6.653750e-10,3.093750e-03
-6.613750e-10,3.234375e-03
-6.573750e-10,3.343750e-03
-6.533750e-10,2.046875e-03
-6.493750e-10,2.781250e-03
-6.453750e-10,1.921875e-03
-6.413750e-10,2.890625e-03
-6.373750e-10,2.640625e-03
-6.333750e-10,2.328125e-03
-6.293750e-10,1.656250e-03
-6.253750e-10,1.890625e-03
-6.213750e-10,1.312500e-03
-6.173750e-10,1.250000e-03
-6.133750e-10,1.531250e-03
-6.093750e-10,1.562500e-03
-6.053750e-10,1.390625e-03
-6.013750e-10,8.593750e-04
-5.973750e-10,7.656250e-04
-5.933750e-10,1.078125e-03
-5.893750e-10,6.562500e-04
-5.853750e-10,1.187500e-03
-5.813750e-10,1.359375e-03
-5.773750e-10,1.515625e-03
-5.733750e-10,2.968750e-04
-5.693750e-10,1.125000e-03
-5.653750e-10,4.375000e-04
-5.613750e-10,1.562500e-03
-5.573750e-10,1.531250e-03
-5.533750e-10,1.421875e-03
-5.493750e-10,9.531250e-04
-5.453750e-10,1.437500e-03
-5.413750e-10,1.140625e-03
-5.373750e-10,1.343750e-03
-5.333750e-10,1.921875e-03
-5.293750e-10,2.234375e-03
-5.253750e-10,2.343750e-03
-5.213750e-10,2.125000e-03
-5.173750e-10,2.359375e-03
-5.133750e-10,2.984375e-03
-5.093750e-10,2.843750e-03
-5.053750e-10,3.703125e-03
-5.013750e-10,4.125000e-03
-4.973750e-10,4.546875e-03
-4.933750e-10,3.578125e-03
-4.893750e-10,4.609375e-03
-4.853750e-10,4.140625e-03
-4.813750e-10,5.468750e-03
-4.773750e-10,5.625000e-03
-4.733750e-10,5.625000e-03
-4.693750e-10,5.265625e-03
-4.653750e-10,5.843750e-03
-4.613750e-10,5.625000e-03
-4.573750e-10,5.812500e-03
-4.533750e-10,6.406250e-03
-4.493750e-10,6.687500e-03
-4.453750e-10,6.671875e-03
-4.413750e-10,6.375000e-03
-4.373750e-10,6.500000e-03
-4.333750e-10,7.015625e-03
-4.293750e-10,6.656250e-03
-4.253750e-10,7.328125e-03
-4.213750e-10,7.531250e-03
-4.173750e-10,7.718750e-03
-4.133750e-10,6.500000e-03
-4.093750e-10,7.203125e-03
-4.053750e-10,6.453125e-03
-4.013750e-10,7.500000e-03
-3.973750e-10,7.328125e-03
-3.933750e-10,7.000000e-03
-3.893750e-10,6.343750e-03
-3.853750e-10,6.593750e-03
-3.813750e-10,6.125000e-03
-3.773750e-10,5.953125e-03
-3.733750e-10,6.250000e-03
-3.693750e-10,6.250000e-03
-3.653750e-10,5.921875e-03
-3.613750e-10,5.390625e-03
-3.573750e-10,5.296875e-03
-3.533750e-10,5.593750e-03
-3.493750e-10,5.031250e-03
-3.453750e-10,5.515625e-03
-3.413750e-10,5.609375e-03
-3.373750e-10,5.671875e-03
-3.333750e-10,4.390625e-03
-3.293750e-10,5.000000e-03
-3.253750e-10,4.203125e-03
-3.213750e-10,5.234375e-03
-3.173750e-10,5.062500e-03
-3.133750e-10,4.781250e-03
-3.093750e-10,4.218750e-03
-3.053750e-10,4.578125e-03
-3.013750e-10,4.218750e-03
-2.973750e-10,4.171875e-03
-2.933750e-10,4.593750e-03
-2.893750e-10,4.765625e-03
-2.853750e-10,4.593750e-03
-2.813750e-10,4.281250e-03
-2.773750e-10,4.375000e-03
-2.733750e-10,4.859375e-03
-2.693750e-10,4.515625e-03
-2.653750e-10,5.171875e-03
-2.613750e-10,5.484375e-03
-2.573750e-10,5.718750e-03
-2.533750e-10,4.656250e-03
-2.493750e-10,5.437500e-03
-2.453750e-10,4.750000e-03
-2.413750e-10,5.953125e-03
-2.373750e-10,5.875000e-03
-2.333750e-10,5.703125e-03
-2.293750e-10,5.234375e-03
-2.253750e-10,5.640625e-03
-2.213750e-10,5.296875e-03
-2.173750e-10,5.281250e-03
-2.133750e-10,5.656250e-03
-2.093750e-10,5.796875e-03
-2.053750e-10,5.531250e-03
-2.013750e-10,5.171875e-03
-1.973750e-10,5.109375e-03
-1.933750e-10,5.437500e-03
-1.893750e-10,4.937500e-03
-1.853750e-10,5.421875e-03
-1.813750e-10,5.531250e-03
-1.773750e-10,5.578125e-03
-1.733750e-10,4.328125e-03
-1.693750e-10,4.906250e-03
-1.653750e-10,4.000000e-03
-1.613750e-10,5.015625e-03
-1.573750e-10,4.703125e-03
-1.533750e-10,4.375000e-03
-1.493750e-10,3.750000e-03
-1.453750e-10,4.031250e-03
-1.413750e-10,3.578125e-03
-1.373750e-10,3.515625e-03
-1.333750e-10,3.859375e-03
-1.293750e-10,4.031250e-03
-1.253750e-10,3.843750e-03
-1.213750e-10,3.625000e-03
-1.173750e-10,3.750000e-03
-1.133750e-10,4.281250e-03
-1.093750e-10,4.125000e-03
-1.053750e-10,5.015625e-03
-1.013750e-10,5.593750e-03
-9.737500e-11,6.250000e-03
-9.337500e-11,5.671875e-03
-8.937500e-11,7.000000e-03
-8.537500e-11,6.890625e-03
-8.137500e-11,8.859375e-03
-7.737500e-11,9.515625e-03
-7.337500e-11,1.031250e-02
-6.937500e-11,1.089063e-02
-6.537500e-11,1.248438e-02
-6.137500e-11,1.340625e-02
-5.737500e-11,1.482813e-02
-5.337500e-11,1.671875e-02
-4.937500e-11,1.857813e-02
-4.537500e-11,2.009375e-02
-4.137500e-11,2.167188e-02
-3.737500e-11,2.365625e-02
-3.337500e-11,2.607813e-02
-2.937500e-11,2.792188e-02
-2.537500e-11,3.085938e-02
-2.137500e-11,3.350000e-02
-1.737500e-11,3.629688e-02
-1.337500e-11,3.787500e-02
-9.375000e-12,4.137500e-02
-5.375000e-12,4.343750e-02
-1.375000e-12,4.759375e-02
2.625000e-12,5.039063e-02
6.625000e-12,5.337500e-02
1.062500e-11,5.607813e-02
1.462500e-11,5.975000e-02
1.862500e-11,6.275000e-02
2.262500e-11,6.615625e-02
2.662500e-11,7.000000e-02
3.062500e-11,7.376563e-02
3.462500e-11,7.704688e-02
3.862500e-11,8.031250e-02
4.262500e-11,8.390625e-02
4.662500e-11,8.781250e-02
5.062500e-11,9.106250e-02
5.462500e-11,9.526563e-02
5.862500e-11,9.903125e-02
6.262500e-11,1.028906e-01
6.662500e-11,1.053281e-01
7.062500e-11,1.095781e-01
7.462500e-11,1.122188e-01
7.862500e-11,1.168281e-01
8.262500e-11,1.198906e-01
8.662500e-11,1.230469e-01
9.062500e-11,1.257031e-01
9.462500e-11,1.291719e-01
9.862500e-11,1.318438e-01
1.026250e-10,1.347500e-01
1.066250e-10,1.379375e-01
1.106250e-10,1.409531e-01
1.146250e-10,1.432344e-01
1.186250e-10,1.453906e-01
1.226250e-10,1.477344e-01
1.266250e-10,1.502656e-01
1.306250e-10,1.520156e-01
1.346250e-10,1.545469e-01
1.386250e-10,1.565000e-01
1.426250e-10,1.584688e-01
1.466250e-10,1.588750e-01
1.506250e-10,1.610156e-01
1.546250e-10,1.614531e-01
1.586250e-10,1.637188e-01
1.626250e-10,1.643594e-01
1.666250e-10,1.650469e-01
1.706250e-10,1.651406e-01
1.746250e-10,1.659844e-01
1.786250e-10,1.660000e-01
1.826250e-10,1.662188e-01
1.866250e-10,1.666563e-01
1.906250e-10,1.669063e-01
1.946250e-10,1.663906e-01
1.986250e-10,1.657031e-01
2.026250e-10,1.652656e-01
2.066250e-10,1.650000e-01
2.106250e-10,1.639531e-01
2.146250e-10,1.636875e-01
2.186250e-10,1.628594e-01
2.226250e-10,1.620938e-01
2.266250e-10,1.597813e-01
2.306250e-10,1.592813e-01
2.346250e-10,1.571406e-01
2.386250e-10,1.568125e-01
2.426250e-10,1.549531e-01
2.466250e-10,1.531719e-01
2.506250e-10,1.508750e-01
2.546250e-10,1.494063e-01
2.586250e-10,1.472031e-01
2.626250e-10,1.452500e-01
2.666250e-10,1.435781e-01
2.706250e-10,1.418125e-01
2.746250e-10,1.393594e-01
2.786250e-10,1.368125e-01
2.826250e-10,1.345938e-01
2.866250e-10,1.326406e-01
2.906250e-10,1.299688e-01
2.946250e-10,1.281719e-01
2.986250e-10,1.259063e-01
3.026250e-10,1.237813e-01
3.066250e-10,1.201563e-01
3.106250e-10,1.185000e-01
3.146250e-10,1.152656e-01
3.186250e-10,1.138906e-01
3.226250e-10,1.110938e-01
3.266250e-10,1.084375e-01
3.306250e-10,1.053281e-01
3.346250e-10,1.031719e-01
3.386250e-10,1.003594e-01
3.426250e-10,9.785938e-02
3.466250e-10,9.567188e-02
3.506250e-10,9.346875e-02
3.546250e-10,9.071875e-02
3.586250e-10,8.789063e-02
3.626250e-10,8.545313e-02
3.666250e-10,8.339063e-02
3.706250e-10,8.062500e-02
3.746250e-10,7.879688e-02
3.786250e-10,7.660938e-02
3.826250e-10,7.457813e-02
3.866250e-10,7.110938e-02
3.906250e-10,6.970313e-02
3.946250e-10,6.676563e-02
3.986250e-10,6.571875e-02
4.026250e-10,6.334375e-02
4.066250e-10,6.110938e-02
4.106250e-10,5.850000e-02
4.146250e-10,5.690625e-02
4.186250e-10,5.468750e-02
4.226250e-10,5.282813e-02
4.266250e-10,5.132813e-02
4.306250e-10,4.981250e-02
4.346250e-10,4.787500e-02
4.386250e-10,4.587500e-02
4.426250e-10,4.426563e-02
4.466250e-10,4.310938e-02
4.506250e-10,4.125000e-02
4.546250e-10,4.034375e-02
4.586250e-10,3.914063e-02
4.626250e-10,3.809375e-02
4.666250e-10,3.567188e-02
4.706250e-10,3.529688e-02
4.746250e-10,3.345313e-02
4.786250e-10,3.348438e-02
4.826250e-10,3.225000e-02
4.866250e-10,3.110938e-02
4.906250e-10,2.964063e-02
4.946250e-10,2.917188e-02
4.986250e-10,2.806250e-02
5.026250e-10,2.732813e-02
5.066250e-10,2.695313e-02
5.106250e-10,2.656250e-02
5.146250e-10,2.578125e-02
5.186250e-10,2.487500e-02
5.226250e-10,2.437500e-02
5.266250e-10,2.429688e-02
5.306250e-10,2.348438e-02
5.346250e-10,2.359375e-02
5.386250e-10,2.343750e-02
5.426250e-10,2.332813e-02
5.466250e-10,2.187500e-02
5.506250e-10,2.240625e-02
5.546250e-10,2.145313e-02
5.586250e-10,2.234375e-02
5.626250e-10,2.195313e-02
5.666250e-10,2.154688e-02
5.706250e-10,2.081250e-02
5.746250e-10,2.104688e-02
5.786250e-10,2.053125e-02
5.826250e-10,2.039063e-02
5.866250e-10,2.056250e-02
5.906250e-10,2.067188e-02
5.946250e-10,2.035938e-02
5.986250e-10,1.984375e-02
6.026250e-10,1.975000e-02
6.066250e-10,1.995313e-02
6.106250e-10,1.942188e-02
6.146250e-10,1.976563e-02
6.186250e-10,1.979688e-02
6.226250e-10,1.979688e-02
6.266250e-10,1.845313e-02
6.306250e-10,1.901563e-02
6.346250e-10,1.809375e-02
6.386250e-10,1.898438e-02
6.426250e-10,1.856250e-02
6.466250e-10,1.806250e-02
6.506250e-10,1.720313e-02
6.546250e-10,1.732813e-02
6.586250e-10,1.660938e-02
6.626250e-10,1.626563e-02
6.666250e-10,1.625000e-02
6.706250e-10,1.615625e-02
6.746250e-10,1.564063e-02
6.786250e-10,1.485938e-02
6.826250e-10,1.453125e-02
6.866250e-10,1.448438e-02
6.906250e-10,1.370313e-02
6.946250e-10,1.382813e-02
6.986250e-10,1.365625e-02
7.026250e-10,1.337500e-02
7.066250e-10,1.184375e-02
7.106250e-10,1.215625e-02
7.146250e-10,1.106250e-02
7.186250e-10,1.179688e-02
7.226250e-10,1.121875e-02
7.266250e-10,1.060938e-02
7.306250e-10,9.609375e-03
7.346250e-10,9.656250e-03
7.386250e-10,8.859375e-03
7.426250e-10,8.453125e-03
7.466250e-10,8.468750e-03
7.506250e-10,8.375000e-03
7.546250e-10,7.906250e-03
7.586250e-10,7.187500e-03
7.626250e-10,6.953125e-03
7.666250e-10,7.046875e-03
7.706250e-10,6.421875e-03
7.746250e-10,6.750000e-03
7.786250e-10,6.796875e-03
7.826250e-10,6.718750e-03
7.866250e-10,5.453125e-03
7.906250e-10,6.015625e-03
7.946250e-10,5.171875e-03
7.986250e-10,6.265625e-03
8.026250e-10,6.015625e-03
8.066250e-10,5.765625e-03
8.106250e-10,5.109375e-03
8.146250e-10,5.500000e-03
8.186250e-10,5.078125e-03
8.226250e-10,5.062500e-03
8.266250e-10,5.468750e-03
8.306250e-10,5.687500e-03
8.346250e-10,5.625000e-03
8.386250e-10,5.265625e-03
8.426250e-10,5.359375e-03
8.466250e-10,5.828125e-03
8.506250e-10,5.578125e-03
8.546250e-10,6.234375e-03
8.586250e-10,6.578125e-03
8.626250e-10,6.781250e-03
8.666250e-10,5.812500e-03
8.706250e-10,6.625000e-03
8.746250e-10,5.984375e-03
8.786250e-10,7.296875e-03
8.826250e-10,7.234375e-03
8.866250e-10,7.156250e-03
8.906250e-10,6.640625e-03
8.946250e-10,7.109375e-03
8.986250e-10,6.781250e-03
9.026250e-10,6.843750e-03
9.066250e-10,7.312500e-03
9.106250e-10,7.468750e-03
9.146250e-10,7.375000e-03
9.186250e-10,6.968750e-03
9.226250e-10,6.953125e-03
9.266250e-10,7.359375e-03
9.306250e-10,6.984375e-03
9.346250e-10,7.500000e-03
9.386250e-10,7.640625e-03
9.426250e-10,7.671875e-03
9.466250e-10,6.515625e-03
9.506250e-10,7.109375e-03
9.546250e-10,6.218750e-03
9.586250e-10,7.296875e-03
9.626250e-10,6.984375e-03
9.666250e-10,6.625000e-03
9.706250e-10,5.859375e-03
9.746250e-10,6.062500e-03
9.786250e-10,5.484375e-03
9.826250e-10,5.296875e-03
9.866250e-10,5.515625e-03
9.906250e-10,5.390625e-03
9.946250e-10,5.031250e-03
9.986250e-10,4.421875e-03
1.002625e-09,4.140625e-03
1.006625e-09,4.359375e-03
1.010625e-09,3.796875e-03
1.014625e-09,4.125000e-03
1.018625e-09,4.093750e-03
1.022625e-09,4.000000e-03
1.026625e-09,2.734375e-03
1.030625e-09,3.281250e-03
1.034625e-09,2.281250e-03
1.038625e-09,3.296875e-03
1.042625e-09,2.968750e-03
1.046625e-09,2.593750e-03
1.050625e-09,1.875000e-03
1.054625e-09,2.125000e-03
1.058625e-09,1.625000e-03
1.062625e-09,1.531250e-03
1.066625e-09,1.859375e-03
1.070625e-09,1.890625e-03
1.074625e-09,1.687500e-03
1.078625e-09,1.250000e-03
1.082625e-09,1.187500e-03
1.086625e-09,1.609375e-03
1.090625e-09,1.250000e-03
1.094625e-09,1.843750e-03
1.098625e-09,2.078125e-03
1.102625e-09,2.265625e-03
1.106625e-09,1.281250e-03
1.110625e-09,2.125000e-03
1.114625e-09,1.421875e-03
1.118625e-09,2.718750e-03
1.122625e-09,2.671875e-03
1.126625e-09,2.593750e-03
1.130625e-09,2.156250e-03
1.134625e-09,2.703125e-03
1.138625e-09,2.468750e-03
1.142625e-09,2.640625e-03
1.146625e-09,3.234375e-03
1.150625e-09,3.546875e-03
1.154625e-09,3.546875e-03
1.158625e-09,3.343750e-03
1.162625e-09,3.484375e-03
1.166625e-09,4.078125e-03
1.170625e-09,3.875000e-03
1.174625e-09,4.625000e-03
1.178625e-09,5.000000e-03
1.182625e-09,5.312500e-03
1.186625e-09,4.375000e-03
1.190625e-09,5.328125e-03
1.194625e-09,4.671875e-03
1.198625e-09,5.984375e-03
1.202625e-09,5.921875e-03
1.206625e-09,5.843750e-03
1.210625e-09,5.359375e-03
1.214625e-09,5.859375e-03
1.218625e-09,5.562500e-03
1.222625e-09,5.640625e-03
1.226625e-09,6.125000e-03
1.230625e-09,6.343750e-03
1.234625e-09,6.218750e-03
1.238625e-09,5.859375e-03
1.242625e-09,5.875000e-03
1.246625e-09,6.296875e-03
1.250625e-09,5.921875e-03
1.254625e-09,6.515625e-03
1.258625e-09,6.718750e-03
1.262625e-09,6.875000e-03
1.266625e-09,5.718750e-03
1.270625e-09,6.500000e-03
1.274625e-09,5.671875e-03
1.278625e-09,6.828125e-03
1.282625e-09,6.593750e-03
1.286625e-09,6.359375e-03
1.290625e-09,5.718750e-03
1.294625e-09,6.093750e-03
1.298625e-09,5.640625e-03
1.302625e-09,5.609375e-03
1.306625e-09,5.984375e-03
1.310625e-09,6.140625e-03
1.314625e-09,5.906250e-03
1.318625e-09,5.484375e-03
1.322625e-09,5.453125e-03
1.326625e-09,5.843750e-03
1.330625e-09,5.437500e-03
1.334625e-09,6.015625e-03
1.338625e-09,6.218750e-03
1.342625e-09,6.421875e-03
1.346625e-09,5.265625e-03
1.350625e-09,6.078125e-03
1.354625e-09,5.296875e-03
1.358625e-09,6.546875e-03
1.362625e-09,6.390625e-03
1.366625e-09,6.234375e-03
1.370625e-09,5.687500e-03
1.374625e-09,6.156250e-03
1.378625e-09,5.828125e-03
1.382625e-09,5.906250e-03
1.386625e-09,6.406250e-03
1.390625e-09,6.687500e-03
1.394625e-09,6.578125e-03
1.398625e-09,6.281250e-03
1.402625e-09,6.375000e-03
1.406625e-09,6.890625e-03
1.410625e-09,6.593750e-03
1.414625e-09,7.312500e-03
1.418625e-09,7.625000e-03
1.422625e-09,7.953125e-03
1.426625e-09,6.890625e-03
1.430625e-09,7.812500e-03
1.434625e-09,7.125000e-03
1.438625e-09,8.453125e-03
1.442625e-09,8.375000e-03
1.446625e-09,8.296875e-03
1.450625e-09,7.812500e-03
1.454625e-09,8.343750e-03
1.458625e-09,8.062500e-03
1.462625e-09,8.187500e-03
1.466625e-09,8.703125e-03
1.470625e-09,9.015625e-03
1.474625e-09,8.937500e-03
1.478625e-09,8.640625e-03
1.482625e-09,8.750000e-03
1.486625e-09,9.265625e-03
1.490625e-09,8.968750e-03
1.494625e-09,9.671875e-03
1.498625e-09,9.968750e-03
1.502625e-09,1.028125e-02
1.506625e-09,9.171875e-03
1.510625e-09,1.007813e-02
1.514625e-09,9.375000e-03
1.518625e-09,1.067188e-02
1.522625e-09,1.056250e-02
1.526625e-09,1.046875e-02
1.530625e-09,9.953125e-03
1.534625e-09,1.045313e-02
1.538625e-09,1.014063e-02
1.542625e-09,1.023438e-02
1.546625e-09,1.073438e-02
1.550625e-09,1.103125e-02
1.554625e-09,1.092188e-02
1.558625e-09,1.062500e-02
1.562625e-09,1.070313e-02
1.566625e-09,1.120313e-02
1.570625e-09,1.090625e-02
1.574625e-09,1.159375e-02
1.578625e-09,1.189063e-02
1.582625e-09,1.217188e-02
1.586625e-09,1.106250e-02
1.590625e-09,1.195313e-02
1.594625e-09,1.121875e-02
1.598625e-09,1.251563e-02
1.602625e-09,1.239063e-02
1.606625e-09,1.225000e-02
1.610625e-09,1.171875e-02
1.614625e-09,1.217188e-02
1.618625e-09,1.182813e-02
1.622625e-09,1.187500e-02
1.626625e-09,1.231250e-02
1.630625e-09,1.254688e-02
1.634625e-09,1.235938e-02
1.638625e-09,1.196875e-02
1.642625e-09,1.195313e-02
1.646625e-09,1.234375e-02
1.650625e-09,1.192188e-02
1.654625e-09,1.248438e-02
1.658625e-09,1.264063e-02
1.662625e-09,1.278125e-02
1.666625e-09,1.148438e-02
1.670625e-09,1.220313e-02
1.674625e-09,1.129688e-02
1.678625e-09,1.237500e-02
1.682625e-09,1.204688e-02
1.686625e-09,1.168750e-02
1.690625e-09,1.092188e-02
1.694625e-09,1.114063e-02
1.698625e-09,1.054688e-02
1.702625e-09,1.034375e-02
1.706625e-09,1.053125e-02
1.710625e-09,1.050000e-02
1.714625e-09,1.006250e-02
1.718625e-09,9.406250e-03
1.722625e-09,9.140625e-03
1.726625e-09,9.281250e-03
1.730625e-09,8.593750e-03
1.734625e-09,8.921875e-03
1.738625e-09,8.828125e-03
1.742625e-09,8.750000e-03
1.746625e-09,7.250000e-03
1.750625e-09,7.765625e-03
1.754625e-09,6.656250e-03
