Measurements-streak-laser-independent/Photodiode-on-Tek-12bit-4GHz/Tek000_ch1_20190613132931488.csv

Model,MSO64
Waveform Type,ANALOG
Horizontal Units,s
Sample Interval,4.000000e-12
Record Length,1000
Zero Index,310.421875
Vertical Units,V

TIME,CH1
-1.241687e-09,1.112500e-02
-1.237687e-09,1.132813e-02
-1.233687e-09,1.192188e-02
-1.229687e-09,1.229688e-02
-1.225687e-09,1.223438e-02
-1.221687e-09,1.196875e-02
-1.217687e-09,1.209375e-02
-1.213688e-09,1.259375e-02
-1.209688e-09,1.226563e-02
-1.205688e-09,1.293750e-02
-1.201688e-09,1.317188e-02
-1.197688e-09,1.339063e-02
-1.193688e-09,1.217188e-02
-1.189687e-09,1.293750e-02
-1.185687e-09,1.206250e-02
-1.181687e-09,1.320313e-02
-1.177687e-09,1.289063e-02
-1.173687e-09,1.256250e-02
-1.169687e-09,1.179688e-02
-1.165687e-09,1.201563e-02
-1.161687e-09,1.140625e-02
-1.157687e-09,1.118750e-02
-1.153688e-09,1.134375e-02
-1.149688e-09,1.128125e-02
-1.145688e-09,1.079688e-02
-1.141688e-09,1.007813e-02
-1.137688e-09,9.765625e-03
-1.133688e-09,9.828125e-03
-1.129687e-09,9.078125e-03
-1.125687e-09,9.312500e-03
-1.121687e-09,9.156250e-03
-1.117687e-09,8.968750e-03
-1.113687e-09,7.375000e-03
-1.109687e-09,7.781250e-03
-1.105687e-09,6.578125e-03
-1.101687e-09,7.406250e-03
-1.097687e-09,6.796875e-03
-1.093688e-09,6.203125e-03
-1.089688e-09,5.218750e-03
-1.085688e-09,5.250000e-03
-1.081688e-09,4.484375e-03
-1.077688e-09,4.125000e-03
-1.073688e-09,4.187500e-03
-1.069687e-09,4.062500e-03
-1.065687e-09,3.546875e-03
-1.061687e-09,2.859375e-03
-1.057687e-09,2.578125e-03
-1.053687e-09,2.734375e-03
-1.049687e-09,2.093750e-03
-1.045687e-09,2.500000e-03
-1.041687e-09,2.515625e-03
-1.037687e-09,2.562500e-03
-1.033688e-09,1.203125e-03
-1.029688e-09,1.906250e-03
-1.025688e-09,1.000000e-03
-1.021688e-09,2.156250e-03
-1.017688e-09,1.906250e-03
-1.013688e-09,1.687500e-03
-1.009687e-09,1.093750e-03
-1.005687e-09,1.531250e-03
-1.001687e-09,1.171875e-03
-9.976875e-10,1.250000e-03
-9.936875e-10,1.750000e-03
-9.896875e-10,2.046875e-03
-9.856875e-10,1.968750e-03
-9.816875e-10,1.703125e-03
-9.776875e-10,1.843750e-03
-9.736875e-10,2.406250e-03
-9.696875e-10,2.171875e-03
-9.656875e-10,2.953125e-03
-9.616875e-10,3.328125e-03
-9.576875e-10,3.718750e-03
-9.536875e-10,2.687500e-03
-9.496875e-10,3.687500e-03
-9.456875e-10,3.046875e-03
-9.416875e-10,4.406250e-03
-9.376875e-10,4.375000e-03
-9.336875e-10,4.328125e-03
-9.296875e-10,3.859375e-03
-9.256875e-10,4.406250e-03
-9.216875e-10,4.125000e-03
-9.176875e-10,4.250000e-03
-9.136875e-10,4.750000e-03
-9.096875e-10,5.031250e-03
-9.056875e-10,4.890625e-03
-9.016875e-10,4.546875e-03
-8.976875e-10,4.562500e-03
-8.936875e-10,4.984375e-03
-8.896875e-10,4.578125e-03
-8.856875e-10,5.171875e-03
-8.816875e-10,5.343750e-03
-8.776875e-10,5.500000e-03
-8.736875e-10,4.234375e-03
-8.696875e-10,4.968750e-03
-8.656875e-10,4.078125e-03
-8.616875e-10,5.046875e-03
-8.576875e-10,4.765625e-03
-8.536875e-10,4.437500e-03
-8.496875e-10,3.734375e-03
-8.456875e-10,4.015625e-03
-8.416875e-10,3.468750e-03
-8.376875e-10,3.359375e-03
-8.336875e-10,3.640625e-03
-8.296875e-10,3.703125e-03
-8.256875e-10,3.406250e-03
-8.216875e-10,2.890625e-03
-8.176875e-10,2.781250e-03
-8.136875e-10,3.078125e-03
-8.096875e-10,2.593750e-03
-8.056875e-10,3.125000e-03
-8.016875e-10,3.281250e-03
-7.976875e-10,3.437500e-03
-7.936875e-10,2.312500e-03
-7.896875e-10,3.125000e-03
-7.856875e-10,2.343750e-03
-7.816875e-10,3.328125e-03
-7.776875e-10,3.312500e-03
-7.736875e-10,3.187500e-03
-7.696875e-10,2.812500e-03
-7.656875e-10,3.328125e-03
-7.616875e-10,3.062500e-03
-7.576875e-10,3.359375e-03
-7.536875e-10,3.937500e-03
-7.496875e-10,4.359375e-03
-7.456875e-10,4.546875e-03
-7.416875e-10,4.390625e-03
-7.376875e-10,4.656250e-03
-7.336875e-10,5.343750e-03
-7.296875e-10,5.250000e-03
-7.256875e-10,6.171875e-03
-7.216875e-10,6.718750e-03
-7.176875e-10,7.250000e-03
-7.136875e-10,6.515625e-03
-7.096875e-10,7.671875e-03
-7.056875e-10,7.265625e-03
-7.016875e-10,8.421875e-03
-6.976875e-10,8.718750e-03
-6.936875e-10,8.890625e-03
-6.896875e-10,8.750000e-03
-6.856875e-10,9.375000e-03
-6.816875e-10,9.156250e-03
-6.776875e-10,9.609375e-03
-6.736875e-10,1.018750e-02
-6.696875e-10,1.053125e-02
-6.656875e-10,1.084375e-02
-6.616875e-10,1.053125e-02
-6.576875e-10,1.060938e-02
-6.536875e-10,1.104688e-02
-6.496875e-10,1.078125e-02
-6.456875e-10,1.135938e-02
-6.416875e-10,1.160938e-02
-6.376875e-10,1.171875e-02
-6.336875e-10,1.048438e-02
-6.296875e-10,1.123438e-02
-6.256875e-10,1.045313e-02
-6.216875e-10,1.103125e-02
-6.176875e-10,1.081250e-02
-6.136875e-10,1.048438e-02
-6.096875e-10,9.765625e-03
-6.056875e-10,9.734375e-03
-6.016875e-10,8.859375e-03
-5.976875e-10,8.750000e-03
-5.936875e-10,8.734375e-03
-5.896875e-10,8.375000e-03
-5.856875e-10,8.218750e-03
-5.816875e-10,7.328125e-03
-5.776875e-10,6.812500e-03
-5.736875e-10,6.718750e-03
-5.696875e-10,6.015625e-03
-5.656875e-10,6.109375e-03
-5.616875e-10,5.890625e-03
-5.576875e-10,5.546875e-03
-5.536875e-10,3.890625e-03
-5.496875e-10,4.312500e-03
-5.456875e-10,3.390625e-03
-5.416875e-10,3.703125e-03
-5.376875e-10,3.406250e-03
-5.336875e-10,2.921875e-03
-5.296875e-10,2.140625e-03
-5.256875e-10,2.062500e-03
-5.216875e-10,1.250000e-03
-5.176875e-10,1.203125e-03
-5.136875e-10,1.390625e-03
-5.096875e-10,1.156250e-03
-5.056875e-10,1.203125e-03
-5.016875e-10,6.093750e-04
-4.976875e-10,4.843750e-04
-4.936875e-10,7.812500e-04
-4.896875e-10,4.531250e-04
-4.856875e-10,1.062500e-03
-4.816875e-10,1.203125e-03
-4.776875e-10,1.343750e-03
-4.736875e-10,1.875000e-04
-4.696875e-10,1.015625e-03
-4.656875e-10,6.718750e-04
-4.616875e-10,1.515625e-03
-4.576875e-10,1.859375e-03
-4.536875e-10,1.781250e-03
-4.496875e-10,1.484375e-03
-4.456875e-10,1.906250e-03
-4.416875e-10,1.656250e-03
-4.376875e-10,1.937500e-03
-4.336875e-10,2.593750e-03
-4.296875e-10,2.734375e-03
-4.256875e-10,2.968750e-03
-4.216875e-10,2.718750e-03
-4.176875e-10,2.968750e-03
-4.136875e-10,3.578125e-03
-4.096875e-10,3.312500e-03
-4.056875e-10,4.140625e-03
-4.016875e-10,4.359375e-03
-3.976875e-10,4.562500e-03
-3.936875e-10,3.468750e-03
-3.896875e-10,4.125000e-03
-3.856875e-10,3.750000e-03
-3.816875e-10,4.515625e-03
-3.776875e-10,4.734375e-03
-3.736875e-10,4.406250e-03
-3.696875e-10,3.906250e-03
-3.656875e-10,4.140625e-03
-3.616875e-10,3.796875e-03
-3.576875e-10,3.625000e-03
-3.536875e-10,4.031250e-03
-3.496875e-10,3.890625e-03
-3.456875e-10,3.687500e-03
-3.416875e-10,3.203125e-03
-3.376875e-10,3.250000e-03
-3.336875e-10,3.656250e-03
-3.296875e-10,3.031250e-03
-3.256875e-10,3.593750e-03
-3.216875e-10,3.703125e-03
-3.176875e-10,3.703125e-03
-3.136875e-10,2.546875e-03
-3.096875e-10,2.984375e-03
-3.056875e-10,2.531250e-03
-3.016875e-10,3.296875e-03
-2.976875e-10,3.484375e-03
-2.936875e-10,3.218750e-03
-2.896875e-10,2.921875e-03
-2.856875e-10,3.312500e-03
-2.816875e-10,3.234375e-03
-2.776875e-10,3.218750e-03
-2.736875e-10,3.890625e-03
-2.696875e-10,4.109375e-03
-2.656875e-10,4.156250e-03
-2.616875e-10,4.203125e-03
-2.576875e-10,4.656250e-03
-2.536875e-10,5.515625e-03
-2.496875e-10,5.406250e-03
-2.456875e-10,6.343750e-03
-2.416875e-10,7.062500e-03
-2.376875e-10,7.562500e-03
-2.336875e-10,6.984375e-03
-2.296875e-10,7.875000e-03
-2.256875e-10,7.796875e-03
-2.216875e-10,9.078125e-03
-2.176875e-10,9.578125e-03
-2.136875e-10,9.703125e-03
-2.096875e-10,9.843750e-03
-2.056875e-10,1.050000e-02
-2.016875e-10,1.060938e-02
-1.976875e-10,1.078125e-02
-1.936875e-10,1.142188e-02
-1.896875e-10,1.165625e-02
-1.856875e-10,1.157813e-02
-1.816875e-10,1.156250e-02
-1.776875e-10,1.170313e-02
-1.736875e-10,1.210938e-02
-1.696875e-10,1.165625e-02
-1.656875e-10,1.204688e-02
-1.616875e-10,1.214063e-02
-1.576875e-10,1.198438e-02
-1.536875e-10,1.075000e-02
-1.496875e-10,1.081250e-02
-1.456875e-10,9.718750e-03
-1.416875e-10,1.017188e-02
-1.376875e-10,9.546875e-03
-1.336875e-10,8.703125e-03
-1.296875e-10,7.812500e-03
-1.256875e-10,7.453125e-03
-1.216875e-10,6.437500e-03
-1.176875e-10,5.656250e-03
-1.136875e-10,5.203125e-03
-1.096875e-10,4.500000e-03
-1.056875e-10,3.515625e-03
-1.016875e-10,2.734375e-03
-9.768750e-11,2.093750e-03
-9.368750e-11,1.750000e-03
-8.968750e-11,8.437500e-04
-8.568750e-11,9.531250e-04
-8.168750e-11,8.437500e-04
-7.768750e-11,8.125000e-04
-7.368750e-11,-6.250000e-05
-6.968750e-11,5.156250e-04
-6.568750e-11,6.250000e-05
-6.168750e-11,1.625000e-03
-5.768750e-11,2.125000e-03
-5.368750e-11,2.921875e-03
-4.968750e-11,3.906250e-03
-4.568750e-11,5.781250e-03
-4.168750e-11,7.281250e-03
-3.768750e-11,9.390625e-03
-3.368750e-11,1.212500e-02
-2.968750e-11,1.507813e-02
-2.568750e-11,1.793750e-02
-2.168750e-11,2.143750e-02
-1.768750e-11,2.537500e-02
-1.368750e-11,2.982813e-02
-9.687500e-12,3.423438e-02
-5.687500e-12,3.995313e-02
-1.687500e-12,4.575000e-02
2.312500e-12,5.207813e-02
6.312500e-12,5.781250e-02
1.031250e-11,6.520313e-02
1.431250e-11,7.178125e-02
1.831250e-11,8.070313e-02
2.231250e-11,8.862500e-02
2.631250e-11,9.723438e-02
3.031250e-11,1.060781e-01
3.431250e-11,1.159531e-01
3.831250e-11,1.255781e-01
4.231250e-11,1.358594e-01
4.631250e-11,1.468594e-01
5.031250e-11,1.581875e-01
5.431250e-11,1.691563e-01
5.831250e-11,1.807969e-01
6.231250e-11,1.927500e-01
6.631250e-11,2.050313e-01
7.031250e-11,2.172344e-01
7.431250e-11,2.305156e-01
7.831250e-11,2.435156e-01
8.231250e-11,2.569844e-01
8.631250e-11,2.694063e-01
9.031250e-11,2.831719e-01
9.431250e-11,2.956875e-01
9.831250e-11,3.101875e-01
1.023125e-10,3.231250e-01
1.063125e-10,3.365156e-01
1.103125e-10,3.494531e-01
1.143125e-10,3.628438e-01
1.183125e-10,3.756250e-01
1.223125e-10,3.884219e-01
1.263125e-10,4.014063e-01
1.303125e-10,4.142813e-01
1.343125e-10,4.259219e-01
1.383125e-10,4.377031e-01
1.423125e-10,4.492188e-01
1.463125e-10,4.604531e-01
1.503125e-10,4.710781e-01
1.543125e-10,4.820625e-01
1.583125e-10,4.920469e-01
1.623125e-10,5.021094e-01
1.663125e-10,5.103594e-01
1.703125e-10,5.195469e-01
1.743125e-10,5.268750e-01
1.783125e-10,5.355313e-01
1.823125e-10,5.420938e-01
1.863125e-10,5.487344e-01
1.903125e-10,5.543281e-01
1.943125e-10,5.599219e-01
1.983125e-10,5.646250e-01
2.023125e-10,5.689063e-01
2.063125e-10,5.729375e-01
2.103125e-10,5.767031e-01
2.143125e-10,5.787500e-01
2.183125e-10,5.806563e-01
2.223125e-10,5.822188e-01
2.263125e-10,5.833125e-01
2.303125e-10,5.836562e-01
2.343125e-10,5.840938e-01
2.383125e-10,5.834531e-01
2.423125e-10,5.829531e-01
2.463125e-10,5.805000e-01
2.503125e-10,5.791875e-01
2.543125e-10,5.760625e-01
2.583125e-10,5.741406e-01
2.623125e-10,5.703125e-01
2.663125e-10,5.667031e-01
2.703125e-10,5.622187e-01
2.743125e-10,5.579688e-01
2.783125e-10,5.531406e-01
2.823125e-10,5.480625e-01
2.863125e-10,5.429063e-01
2.903125e-10,5.378438e-01
2.943125e-10,5.313438e-01
2.983125e-10,5.249375e-01
3.023125e-10,5.186250e-01
3.063125e-10,5.121719e-01
3.103125e-10,5.052344e-01
3.143125e-10,4.987188e-01
3.183125e-10,4.915313e-01
3.223125e-10,4.848438e-01
3.263125e-10,4.764688e-01
3.303125e-10,4.697344e-01
3.343125e-10,4.615781e-01
3.383125e-10,4.547656e-01
3.423125e-10,4.465313e-01
3.463125e-10,4.387969e-01
3.503125e-10,4.304688e-01
3.543125e-10,4.228438e-01
3.583125e-10,4.149531e-01
3.623125e-10,4.070781e-01
3.663125e-10,3.993125e-01
3.703125e-10,3.919219e-01
3.743125e-10,3.835313e-01
3.783125e-10,3.753750e-01
3.823125e-10,3.675313e-01
3.863125e-10,3.598906e-01
3.903125e-10,3.518125e-01
3.943125e-10,3.444219e-01
3.983125e-10,3.366250e-01
4.023125e-10,3.294375e-01
4.063125e-10,3.206719e-01
4.103125e-10,3.138750e-01
4.143125e-10,3.057969e-01
4.183125e-10,2.990781e-01
4.223125e-10,2.912031e-01
4.263125e-10,2.838438e-01
4.303125e-10,2.760000e-01
4.343125e-10,2.690469e-01
4.383125e-10,2.619375e-01
4.423125e-10,2.549219e-01
4.463125e-10,2.480313e-01
4.503125e-10,2.415781e-01
4.543125e-10,2.344375e-01
4.583125e-10,2.275000e-01
4.623125e-10,2.208906e-01
4.663125e-10,2.146875e-01
4.703125e-10,2.080156e-01
4.743125e-10,2.020469e-01
4.783125e-10,1.959375e-01
4.823125e-10,1.903281e-01
4.863125e-10,1.833281e-01
4.903125e-10,1.784063e-01
4.943125e-10,1.722656e-01
4.983125e-10,1.675313e-01
5.023125e-10,1.618594e-01
5.063125e-10,1.565625e-01
5.103125e-10,1.510156e-01
5.143125e-10,1.463750e-01
5.183125e-10,1.415781e-01
5.223125e-10,1.370625e-01
5.263125e-10,1.326563e-01
5.303125e-10,1.287656e-01
5.343125e-10,1.244531e-01
5.383125e-10,1.202969e-01
5.423125e-10,1.165313e-01
5.463125e-10,1.132344e-01
5.503125e-10,1.094688e-01
5.543125e-10,1.064063e-01
5.583125e-10,1.033906e-01
5.623125e-10,1.007500e-01
5.663125e-10,9.689063e-02
5.703125e-10,9.501563e-02
5.743125e-10,9.204688e-02
5.783125e-10,9.046875e-02
5.823125e-10,8.804688e-02
5.863125e-10,8.571875e-02
5.903125e-10,8.332813e-02
5.943125e-10,8.179688e-02
5.983125e-10,7.987500e-02
6.023125e-10,7.826563e-02
6.063125e-10,7.678125e-02
6.103125e-10,7.570313e-02
6.143125e-10,7.423438e-02
6.183125e-10,7.271875e-02
6.223125e-10,7.164063e-02
6.263125e-10,7.075000e-02
6.303125e-10,6.937500e-02
6.343125e-10,6.857813e-02
6.383125e-10,6.778125e-02
6.423125e-10,6.701563e-02
6.463125e-10,6.510938e-02
6.503125e-10,6.487500e-02
6.543125e-10,6.357813e-02
6.583125e-10,6.353125e-02
6.623125e-10,6.251563e-02
6.663125e-10,6.132813e-02
6.703125e-10,5.993750e-02
6.743125e-10,5.945313e-02
6.783125e-10,5.817188e-02
6.823125e-10,5.710938e-02
6.863125e-10,5.623438e-02
6.903125e-10,5.557813e-02
6.943125e-10,5.445313e-02
6.983125e-10,5.303125e-02
7.023125e-10,5.214063e-02
7.063125e-10,5.117188e-02
7.103125e-10,4.968750e-02
7.143125e-10,4.878125e-02
7.183125e-10,4.784375e-02
7.223125e-10,4.660938e-02
7.263125e-10,4.443750e-02
7.303125e-10,4.373438e-02
7.343125e-10,4.206250e-02
7.383125e-10,4.167188e-02
7.423125e-10,4.023438e-02
7.463125e-10,3.868750e-02
7.503125e-10,3.676563e-02
7.543125e-10,3.596875e-02
7.583125e-10,3.423438e-02
7.623125e-10,3.278125e-02
7.663125e-10,3.171875e-02
7.703125e-10,3.081250e-02
7.743125e-10,2.957813e-02
7.783125e-10,2.798438e-02
7.823125e-10,2.704688e-02
7.863125e-10,2.614063e-02
7.903125e-10,2.481250e-02
7.943125e-10,2.418750e-02
7.983125e-10,2.360938e-02
8.023125e-10,2.260938e-02
8.063125e-10,2.100000e-02
8.103125e-10,2.071875e-02
8.143125e-10,1.962500e-02
8.183125e-10,2.006250e-02
8.223125e-10,1.942188e-02
8.263125e-10,1.879688e-02
8.303125e-10,1.776563e-02
8.343125e-10,1.790625e-02
8.383125e-10,1.718750e-02
8.423125e-10,1.684375e-02
8.463125e-10,1.700000e-02
8.503125e-10,1.712500e-02
8.543125e-10,1.714063e-02
8.583125e-10,1.671875e-02
8.623125e-10,1.692188e-02
8.663125e-10,1.735938e-02
8.703125e-10,1.728125e-02
8.743125e-10,1.793750e-02
8.783125e-10,1.851563e-02
8.823125e-10,1.865625e-02
8.863125e-10,1.821875e-02
8.903125e-10,1.895313e-02
8.943125e-10,1.875000e-02
8.983125e-10,2.029688e-02
9.023125e-10,2.059375e-02
9.063125e-10,2.082813e-02
9.103125e-10,2.059375e-02
9.143125e-10,2.132813e-02
9.183125e-10,2.128125e-02
9.223125e-10,2.156250e-02
9.263125e-10,2.226563e-02
9.303125e-10,2.253125e-02
9.343125e-10,2.287500e-02
9.383125e-10,2.268750e-02
9.423125e-10,2.285938e-02
9.463125e-10,2.346875e-02
9.503125e-10,2.340625e-02
9.543125e-10,2.395313e-02
9.583125e-10,2.423438e-02
9.623125e-10,2.414063e-02
9.663125e-10,2.343750e-02
9.703125e-10,2.379688e-02
9.743125e-10,2.306250e-02
9.783125e-10,2.417188e-02
9.823125e-10,2.395313e-02
9.863125e-10,2.360938e-02
9.903125e-10,2.284375e-02
9.943125e-10,2.293750e-02
9.983125e-10,2.232813e-02
1.002312e-09,2.207813e-02
1.006312e-09,2.221875e-02
1.010312e-09,2.171875e-02
1.014312e-09,2.146875e-02
1.018312e-09,2.076563e-02
1.022312e-09,2.026563e-02
1.026312e-09,2.043750e-02
1.030312e-09,1.990625e-02
1.034312e-09,2.000000e-02
1.038313e-09,1.984375e-02
1.042313e-09,1.943750e-02
1.046313e-09,1.848438e-02
1.050313e-09,1.871875e-02
1.054313e-09,1.771875e-02
1.058313e-09,1.865625e-02
1.062312e-09,1.835938e-02
1.066312e-09,1.798438e-02
1.070312e-09,1.731250e-02
1.074312e-09,1.750000e-02
1.078312e-09,1.706250e-02
1.082312e-09,1.706250e-02
1.086312e-09,1.748438e-02
1.090312e-09,1.729688e-02
1.094312e-09,1.732813e-02
1.098313e-09,1.703125e-02
1.102313e-09,1.693750e-02
1.106313e-09,1.756250e-02
1.110313e-09,1.746875e-02
1.114313e-09,1.803125e-02
1.118313e-09,1.837500e-02
1.122312e-09,1.853125e-02
1.126312e-09,1.810938e-02
1.130312e-09,1.895313e-02
1.134312e-09,1.843750e-02
1.138312e-09,1.981250e-02
1.142312e-09,1.995313e-02
1.146312e-09,2.001563e-02
1.150312e-09,1.975000e-02
1.154312e-09,2.035938e-02
1.158313e-09,2.028125e-02
1.162313e-09,2.057813e-02
1.166313e-09,2.128125e-02
1.170313e-09,2.142188e-02
1.174313e-09,2.156250e-02
1.178313e-09,2.140625e-02
1.182312e-09,2.142188e-02
1.186312e-09,2.204688e-02
1.190312e-09,2.189063e-02
1.194312e-09,2.243750e-02
1.198312e-09,2.268750e-02
1.202312e-09,2.276563e-02
1.206312e-09,2.204688e-02
1.210312e-09,2.273438e-02
1.214312e-09,2.192188e-02
1.218313e-09,2.296875e-02
1.222313e-09,2.271875e-02
1.226313e-09,2.242188e-02
1.230313e-09,2.170313e-02
1.234313e-09,2.192188e-02
1.238313e-09,2.137500e-02
1.242312e-09,2.118750e-02
1.246312e-09,2.139063e-02
1.250312e-09,2.117188e-02
1.254312e-09,2.078125e-02
1.258312e-09,2.014063e-02
1.262312e-09,1.975000e-02
1.266312e-09,1.990625e-02
1.270312e-09,1.926563e-02
1.274312e-09,1.945313e-02
1.278313e-09,1.934375e-02
1.282313e-09,1.910938e-02
1.286313e-09,1.793750e-02
1.290313e-09,1.839063e-02
1.294313e-09,1.732813e-02
1.298313e-09,1.817188e-02
1.302312e-09,1.771875e-02
1.306312e-09,1.728125e-02
1.310312e-09,1.645313e-02
1.314312e-09,1.662500e-02
1.318312e-09,1.603125e-02
1.322312e-09,1.585938e-02
1.326312e-09,1.610938e-02
1.330312e-09,1.606250e-02
1.334312e-09,1.578125e-02
1.338312e-09,1.528125e-02
1.342313e-09,1.512500e-02
1.346313e-09,1.546875e-02
1.350313e-09,1.506250e-02
1.354313e-09,1.554688e-02
1.358313e-09,1.571875e-02
1.362312e-09,1.584375e-02
1.366312e-09,1.484375e-02
1.370312e-09,1.564063e-02
1.374312e-09,1.487500e-02
1.378312e-09,1.604688e-02
1.382312e-09,1.590625e-02
1.386312e-09,1.575000e-02
1.390312e-09,1.520313e-02
1.394312e-09,1.562500e-02
1.398312e-09,1.528125e-02
1.402313e-09,1.532813e-02
1.406313e-09,1.575000e-02
1.410313e-09,1.592188e-02
1.414313e-09,1.575000e-02
1.418313e-09,1.535938e-02
1.422312e-09,1.531250e-02
1.426312e-09,1.568750e-02
1.430312e-09,1.525000e-02
1.434312e-09,1.575000e-02
1.438312e-09,1.584375e-02
1.442312e-09,1.590625e-02
1.446312e-09,1.468750e-02
1.450312e-09,1.531250e-02
1.454312e-09,1.434375e-02
1.458312e-09,1.532813e-02
1.462313e-09,1.492188e-02
1.466313e-09,1.448438e-02
1.470313e-09,1.362500e-02
1.474313e-09,1.375000e-02
1.478313e-09,1.307813e-02
1.482312e-09,1.276563e-02
1.486312e-09,1.284375e-02
1.490312e-09,1.268750e-02
1.494312e-09,1.214063e-02
1.498312e-09,1.139063e-02
1.502312e-09,1.101563e-02
1.506312e-09,1.106250e-02
1.510312e-09,1.029688e-02
1.514312e-09,1.051563e-02
1.518312e-09,1.034375e-02
1.522313e-09,1.015625e-02
1.526313e-09,8.656250e-03
1.530313e-09,9.109375e-03
1.534313e-09,7.968750e-03
1.538313e-09,8.843750e-03
1.542312e-09,8.343750e-03
1.546312e-09,7.843750e-03
1.550312e-09,6.984375e-03
1.554312e-09,7.140625e-03
1.558312e-09,6.515625e-03
1.562312e-09,6.312500e-03
1.566312e-09,6.546875e-03
1.570312e-09,6.578125e-03
1.574312e-09,6.265625e-03
1.578312e-09,5.781250e-03
1.582313e-09,5.703125e-03
1.586313e-09,6.062500e-03
1.590313e-09,5.656250e-03
1.594313e-09,6.250000e-03
1.598313e-09,6.500000e-03
1.602312e-09,6.750000e-03
1.606312e-09,5.671875e-03
1.610312e-09,6.578125e-03
1.614312e-09,5.921875e-03
1.618312e-09,7.265625e-03
1.622312e-09,7.250000e-03
1.626312e-09,7.234375e-03
1.630312e-09,6.843750e-03
1.634312e-09,7.468750e-03
1.638312e-09,7.296875e-03
1.642313e-09,7.531250e-03
1.646313e-09,8.156250e-03
1.650313e-09,8.593750e-03
1.654313e-09,8.656250e-03
1.658313e-09,8.500000e-03
1.662312e-09,8.734375e-03
1.666312e-09,9.359375e-03
1.670312e-09,9.187500e-03
1.674312e-09,9.984375e-03
1.678312e-09,1.039063e-02
1.682312e-09,1.076563e-02
1.686312e-09,9.765625e-03
1.690312e-09,1.071875e-02
1.694312e-09,1.004688e-02
1.698312e-09,1.135938e-02
1.702313e-09,1.125000e-02
1.706313e-09,1.112500e-02
1.710313e-09,1.057813e-02
1.714313e-09,1.100000e-02
1.718313e-09,1.060938e-02
1.722312e-09,1.059375e-02
1.726312e-09,1.093750e-02
1.730312e-09,1.107813e-02
1.734312e-09,1.079688e-02
1.738312e-09,1.028125e-02
1.742312e-09,1.015625e-02
1.746312e-09,1.042188e-02
1.750312e-09,9.859375e-03
1.754312e-09,1.028125e-02
1.758312e-09,1.029688e-02
