Measurements-streak-laser-independent/Photodiode-on-Tek-12bit-4GHz/Tek000_ch1_20190613132935901.csv

Model,MSO64
Waveform Type,ANALOG
Horizontal Units,s
Sample Interval,4.000000e-12
Record Length,1000
Zero Index,310.140625
Vertical Units,V

TIME,CH1
-1.240563e-09,5.437500e-03
-1.236562e-09,6.281250e-03
-1.232562e-09,5.484375e-03
-1.228562e-09,6.734375e-03
-1.224562e-09,6.562500e-03
-1.220562e-09,6.390625e-03
-1.216562e-09,5.812500e-03
-1.212562e-09,6.250000e-03
-1.208562e-09,5.875000e-03
-1.204562e-09,5.921875e-03
-1.200563e-09,6.359375e-03
-1.196563e-09,6.593750e-03
-1.192563e-09,6.437500e-03
-1.188563e-09,6.062500e-03
-1.184563e-09,6.093750e-03
-1.180563e-09,6.531250e-03
-1.176562e-09,6.156250e-03
-1.172562e-09,6.796875e-03
-1.168562e-09,7.015625e-03
-1.164562e-09,7.250000e-03
-1.160562e-09,6.046875e-03
-1.156562e-09,6.859375e-03
-1.152562e-09,6.062500e-03
-1.148562e-09,7.281250e-03
-1.144562e-09,7.078125e-03
-1.140563e-09,6.859375e-03
-1.136563e-09,6.250000e-03
-1.132563e-09,6.625000e-03
-1.128563e-09,6.203125e-03
-1.124563e-09,6.171875e-03
-1.120563e-09,6.546875e-03
-1.116562e-09,6.703125e-03
-1.112562e-09,6.453125e-03
-1.108562e-09,5.984375e-03
-1.104562e-09,5.937500e-03
-1.100562e-09,6.281250e-03
-1.096562e-09,5.796875e-03
-1.092562e-09,6.328125e-03
-1.088562e-09,6.453125e-03
-1.084562e-09,6.578125e-03
-1.080563e-09,5.265625e-03
-1.076563e-09,5.984375e-03
-1.072563e-09,5.078125e-03
-1.068563e-09,6.187500e-03
-1.064563e-09,5.875000e-03
-1.060563e-09,5.562500e-03
-1.056562e-09,4.843750e-03
-1.052562e-09,5.140625e-03
-1.048562e-09,4.625000e-03
-1.044562e-09,4.500000e-03
-1.040562e-09,4.781250e-03
-1.036562e-09,4.875000e-03
-1.032562e-09,4.546875e-03
-1.028562e-09,4.015625e-03
-1.024562e-09,3.890625e-03
-1.020563e-09,4.187500e-03
-1.016563e-09,3.656250e-03
-1.012563e-09,4.140625e-03
-1.008563e-09,4.234375e-03
-1.004563e-09,4.312500e-03
-1.000563e-09,2.984375e-03
-9.965625e-10,3.687500e-03
-9.925625e-10,2.765625e-03
-9.885625e-10,3.859375e-03
-9.845625e-10,3.546875e-03
-9.805625e-10,3.250000e-03
-9.765625e-10,2.546875e-03
-9.725625e-10,2.859375e-03
-9.685625e-10,2.359375e-03
-9.645625e-10,2.281250e-03
-9.605625e-10,2.593750e-03
-9.565625e-10,2.718750e-03
-9.525625e-10,2.453125e-03
-9.485625e-10,1.984375e-03
-9.445625e-10,1.921875e-03
-9.405625e-10,2.265625e-03
-9.365625e-10,1.812500e-03
-9.325625e-10,2.375000e-03
-9.285625e-10,2.531250e-03
-9.245625e-10,2.703125e-03
-9.205625e-10,1.468750e-03
-9.165625e-10,2.250000e-03
-9.125625e-10,1.437500e-03
-9.085625e-10,2.593750e-03
-9.045625e-10,2.406250e-03
-9.005625e-10,2.203125e-03
-8.965625e-10,1.609375e-03
-8.925625e-10,2.031250e-03
-8.885625e-10,1.640625e-03
-8.845625e-10,1.671875e-03
-8.805625e-10,2.109375e-03
-8.765625e-10,2.328125e-03
-8.725625e-10,2.187500e-03
-8.685625e-10,1.828125e-03
-8.645625e-10,1.875000e-03
-8.605625e-10,2.328125e-03
-8.565625e-10,1.984375e-03
-8.525625e-10,2.656250e-03
-8.485625e-10,2.921875e-03
-8.445625e-10,3.187500e-03
-8.405625e-10,2.062500e-03
-8.365625e-10,2.953125e-03
-8.325625e-10,2.218750e-03
-8.285625e-10,3.437500e-03
-8.245625e-10,3.343750e-03
-8.205625e-10,3.218750e-03
-8.165625e-10,2.734375e-03
-8.125625e-10,3.203125e-03
-8.085625e-10,2.875000e-03
-8.045625e-10,2.984375e-03
-8.005625e-10,3.453125e-03
-7.965625e-10,3.734375e-03
-7.925625e-10,3.640625e-03
-7.885625e-10,3.312500e-03
-7.845625e-10,3.375000e-03
-7.805625e-10,3.843750e-03
-7.765625e-10,3.500000e-03
-7.725625e-10,4.171875e-03
-7.685625e-10,4.437500e-03
-7.645625e-10,4.687500e-03
-7.605625e-10,3.546875e-03
-7.565625e-10,4.406250e-03
-7.525625e-10,3.656250e-03
-7.485625e-10,4.812500e-03
-7.445625e-10,4.687500e-03
-7.405625e-10,4.515625e-03
-7.365625e-10,3.968750e-03
-7.325625e-10,4.375000e-03
-7.285625e-10,3.968750e-03
-7.245625e-10,4.015625e-03
-7.205625e-10,4.406250e-03
-7.165625e-10,4.593750e-03
-7.125625e-10,4.468750e-03
-7.085625e-10,4.046875e-03
-7.045625e-10,4.031250e-03
-7.005625e-10,4.406250e-03
-6.965625e-10,4.015625e-03
-6.925625e-10,4.593750e-03
-6.885625e-10,4.796875e-03
-6.845625e-10,4.968750e-03
-6.805625e-10,3.750000e-03
-6.765625e-10,4.546875e-03
-6.725625e-10,3.765625e-03
-6.685625e-10,4.875000e-03
-6.645625e-10,4.703125e-03
-6.605625e-10,4.515625e-03
-6.565625e-10,3.953125e-03
-6.525625e-10,4.328125e-03
-6.485625e-10,3.890625e-03
-6.445625e-10,3.953125e-03
-6.405625e-10,4.359375e-03
-6.365625e-10,4.546875e-03
-6.325625e-10,4.468750e-03
-6.285625e-10,4.078125e-03
-6.245625e-10,4.109375e-03
-6.205625e-10,4.546875e-03
-6.165625e-10,4.234375e-03
-6.125625e-10,4.890625e-03
-6.085625e-10,5.156250e-03
-6.045625e-10,5.421875e-03
-6.005625e-10,4.281250e-03
-5.965625e-10,5.171875e-03
-5.925625e-10,4.531250e-03
-5.885625e-10,5.750000e-03
-5.845625e-10,5.718750e-03
-5.805625e-10,5.640625e-03
-5.765625e-10,5.171875e-03
-5.725625e-10,5.671875e-03
-5.685625e-10,5.359375e-03
-5.645625e-10,5.531250e-03
-5.605625e-10,6.062500e-03
-5.565625e-10,6.359375e-03
-5.525625e-10,6.359375e-03
-5.485625e-10,6.078125e-03
-5.445625e-10,6.218750e-03
-5.405625e-10,6.750000e-03
-5.365625e-10,6.484375e-03
-5.325625e-10,7.234375e-03
-5.285625e-10,7.546875e-03
-5.245625e-10,7.843750e-03
-5.205625e-10,6.734375e-03
-5.165625e-10,7.625000e-03
-5.125625e-10,6.984375e-03
-5.085625e-10,8.203125e-03
-5.045625e-10,8.156250e-03
-5.005625e-10,8.015625e-03
-4.965625e-10,7.500000e-03
-4.925625e-10,7.921875e-03
-4.885625e-10,7.562500e-03
-4.845625e-10,7.593750e-03
-4.805625e-10,8.031250e-03
-4.765625e-10,8.187500e-03
-4.725625e-10,8.015625e-03
-4.685625e-10,7.593750e-03
-4.645625e-10,7.593750e-03
-4.605625e-10,7.968750e-03
-4.565625e-10,7.500000e-03
-4.525625e-10,8.062500e-03
-4.485625e-10,8.171875e-03
-4.445625e-10,8.281250e-03
-4.405625e-10,6.984375e-03
-4.365625e-10,7.640625e-03
-4.325625e-10,6.796875e-03
-4.285625e-10,7.812500e-03
-4.245625e-10,7.578125e-03
-4.205625e-10,7.218750e-03
-4.165625e-10,6.515625e-03
-4.125625e-10,6.765625e-03
-4.085625e-10,6.265625e-03
-4.045625e-10,6.109375e-03
-4.005625e-10,6.390625e-03
-3.965625e-10,6.421875e-03
-3.925625e-10,6.093750e-03
-3.885625e-10,5.578125e-03
-3.845625e-10,5.500000e-03
-3.805625e-10,5.812500e-03
-3.765625e-10,5.281250e-03
-3.725625e-10,5.796875e-03
-3.685625e-10,5.921875e-03
-3.645625e-10,6.015625e-03
-3.605625e-10,4.765625e-03
-3.565625e-10,5.453125e-03
-3.525625e-10,4.656250e-03
-3.485625e-10,5.765625e-03
-3.445625e-10,5.609375e-03
-3.405625e-10,5.375000e-03
-3.365625e-10,4.828125e-03
-3.325625e-10,5.218750e-03
-3.285625e-10,4.890625e-03
-3.245625e-10,4.890625e-03
-3.205625e-10,5.359375e-03
-3.165625e-10,5.578125e-03
-3.125625e-10,5.437500e-03
-3.085625e-10,5.156250e-03
-3.045625e-10,5.281250e-03
-3.005625e-10,5.812500e-03
-2.965625e-10,5.500000e-03
-2.925625e-10,6.203125e-03
-2.885625e-10,6.546875e-03
-2.845625e-10,6.843750e-03
-2.805625e-10,5.812500e-03
-2.765625e-10,6.671875e-03
-2.725625e-10,6.031250e-03
-2.685625e-10,7.312500e-03
-2.645625e-10,7.281250e-03
-2.605625e-10,7.187500e-03
-2.565625e-10,6.765625e-03
-2.525625e-10,7.250000e-03
-2.485625e-10,6.984375e-03
-2.445625e-10,7.046875e-03
-2.405625e-10,7.515625e-03
-2.365625e-10,7.750000e-03
-2.325625e-10,7.609375e-03
-2.285625e-10,7.312500e-03
-2.245625e-10,7.359375e-03
-2.205625e-10,7.781250e-03
-2.165625e-10,7.390625e-03
-2.125625e-10,7.968750e-03
-2.085625e-10,8.187500e-03
-2.045625e-10,8.343750e-03
-2.005625e-10,7.156250e-03
-1.965625e-10,7.859375e-03
-1.925625e-10,7.031250e-03
-1.885625e-10,8.140625e-03
-1.845625e-10,7.890625e-03
-1.805625e-10,7.625000e-03
-1.765625e-10,7.031250e-03
-1.725625e-10,7.359375e-03
-1.685625e-10,6.921875e-03
-1.645625e-10,6.859375e-03
-1.605625e-10,7.187500e-03
-1.565625e-10,7.343750e-03
-1.525625e-10,7.109375e-03
-1.485625e-10,6.765625e-03
-1.445625e-10,6.796875e-03
-1.405625e-10,7.203125e-03
-1.365625e-10,6.890625e-03
-1.325625e-10,7.593750e-03
-1.285625e-10,7.937500e-03
-1.245625e-10,8.328125e-03
-1.205625e-10,7.437500e-03
-1.165625e-10,8.453125e-03
-1.125625e-10,7.984375e-03
-1.085625e-10,9.562500e-03
-1.045625e-10,9.781250e-03
-1.005625e-10,1.009375e-02
-9.656250e-11,1.014063e-02
-9.256250e-11,1.117188e-02
-8.856250e-11,1.150000e-02
-8.456250e-11,1.228125e-02
-8.056250e-11,1.353125e-02
-7.656250e-11,1.467188e-02
-7.256250e-11,1.545313e-02
-6.856250e-11,1.621875e-02
-6.456250e-11,1.740625e-02
-6.056250e-11,1.900000e-02
-5.656250e-11,1.996875e-02
-5.256250e-11,2.200000e-02
-4.856250e-11,2.371875e-02
-4.456250e-11,2.554688e-02
-4.056250e-11,2.612500e-02
-3.656250e-11,2.864063e-02
-3.256250e-11,2.967188e-02
-2.856250e-11,3.281250e-02
-2.456250e-11,3.457813e-02
-2.056250e-11,3.648438e-02
-1.656250e-11,3.809375e-02
-1.256250e-11,4.071875e-02
-8.562500e-12,4.262500e-02
-4.562500e-12,4.495313e-02
-5.625000e-13,4.773438e-02
3.437500e-12,5.042188e-02
7.437500e-12,5.267188e-02
1.143750e-11,5.485938e-02
1.543750e-11,5.743750e-02
1.943750e-11,6.035938e-02
2.343750e-11,6.259375e-02
2.743750e-11,6.582813e-02
3.143750e-11,6.865625e-02
3.543750e-11,7.157813e-02
3.943750e-11,7.309375e-02
4.343750e-11,7.650000e-02
4.743750e-11,7.831250e-02
5.143750e-11,8.212500e-02
5.543750e-11,8.443750e-02
5.943750e-11,8.684375e-02
6.343750e-11,8.879688e-02
6.743750e-11,9.162500e-02
7.143750e-11,9.367188e-02
7.543750e-11,9.601563e-02
7.943750e-11,9.868750e-02
8.343750e-11,1.011719e-01
8.743750e-11,1.030469e-01
9.143750e-11,1.047500e-01
9.543750e-11,1.067344e-01
9.943750e-11,1.089531e-01
1.034375e-10,1.103906e-01
1.074375e-10,1.126875e-01
1.114375e-10,1.144375e-01
1.154375e-10,1.162031e-01
1.194375e-10,1.164531e-01
1.234375e-10,1.185000e-01
1.274375e-10,1.188750e-01
1.314375e-10,1.211094e-01
1.354375e-10,1.217813e-01
1.394375e-10,1.224688e-01
1.434375e-10,1.225938e-01
1.474375e-10,1.235469e-01
1.514375e-10,1.236563e-01
1.554375e-10,1.240156e-01
1.594375e-10,1.246250e-01
1.634375e-10,1.250469e-01
1.674375e-10,1.247656e-01
1.714375e-10,1.242969e-01
1.754375e-10,1.240938e-01
1.794375e-10,1.241250e-01
1.834375e-10,1.233438e-01
1.874375e-10,1.233906e-01
1.914375e-10,1.229063e-01
1.954375e-10,1.224375e-01
1.994375e-10,1.204531e-01
2.034375e-10,1.203281e-01
2.074375e-10,1.185313e-01
2.114375e-10,1.186094e-01
2.154375e-10,1.171719e-01
2.194375e-10,1.157656e-01
2.234375e-10,1.138594e-01
2.274375e-10,1.128281e-01
2.314375e-10,1.110313e-01
2.354375e-10,1.095313e-01
2.394375e-10,1.083125e-01
2.434375e-10,1.069688e-01
2.474375e-10,1.050156e-01
2.514375e-10,1.029063e-01
2.554375e-10,1.011563e-01
2.594375e-10,9.971875e-02
2.634375e-10,9.751563e-02
2.674375e-10,9.621875e-02
2.714375e-10,9.448438e-02
2.754375e-10,9.284375e-02
2.794375e-10,8.971875e-02
2.834375e-10,8.859375e-02
2.874375e-10,8.587500e-02
2.914375e-10,8.504688e-02
2.954375e-10,8.281250e-02
2.994375e-10,8.068750e-02
3.034375e-10,7.812500e-02
3.074375e-10,7.654688e-02
3.114375e-10,7.426563e-02
3.154375e-10,7.232813e-02
3.194375e-10,7.075000e-02
3.234375e-10,6.910938e-02
3.274375e-10,6.695313e-02
3.314375e-10,6.470313e-02
3.354375e-10,6.285938e-02
3.394375e-10,6.140625e-02
3.434375e-10,5.923438e-02
3.474375e-10,5.801563e-02
3.514375e-10,5.643750e-02
3.554375e-10,5.500000e-02
3.594375e-10,5.212500e-02
3.634375e-10,5.131250e-02
3.674375e-10,4.895313e-02
3.714375e-10,4.853125e-02
3.754375e-10,4.675000e-02
3.794375e-10,4.510938e-02
3.834375e-10,4.307813e-02
3.874375e-10,4.206250e-02
3.914375e-10,4.039063e-02
3.954375e-10,3.909375e-02
3.994375e-10,3.817188e-02
4.034375e-10,3.718750e-02
4.074375e-10,3.579688e-02
4.114375e-10,3.429688e-02
4.154375e-10,3.321875e-02
4.194375e-10,3.256250e-02
4.234375e-10,3.118750e-02
4.274375e-10,3.078125e-02
4.314375e-10,3.006250e-02
4.354375e-10,2.943750e-02
4.394375e-10,2.743750e-02
4.434375e-10,2.746875e-02
4.474375e-10,2.600000e-02
4.514375e-10,2.643750e-02
4.554375e-10,2.556250e-02
4.594375e-10,2.476563e-02
4.634375e-10,2.360938e-02
4.674375e-10,2.345313e-02
4.714375e-10,2.259375e-02
4.754375e-10,2.214063e-02
4.794375e-10,2.203125e-02
4.834375e-10,2.184375e-02
4.874375e-10,2.126563e-02
4.914375e-10,2.053125e-02
4.954375e-10,2.018750e-02
4.994375e-10,2.026563e-02
5.034375e-10,1.957813e-02
5.074375e-10,1.981250e-02
5.114375e-10,1.975000e-02
5.154375e-10,1.970313e-02
5.194375e-10,1.828125e-02
5.234375e-10,1.884375e-02
5.274375e-10,1.787500e-02
5.314375e-10,1.879688e-02
5.354375e-10,1.837500e-02
5.394375e-10,1.795313e-02
5.434375e-10,1.715625e-02
5.474375e-10,1.731250e-02
5.514375e-10,1.671875e-02
5.554375e-10,1.648438e-02
5.594375e-10,1.657813e-02
5.634375e-10,1.656250e-02
5.674375e-10,1.612500e-02
5.714375e-10,1.548438e-02
5.754375e-10,1.523438e-02
5.794375e-10,1.531250e-02
5.834375e-10,1.462500e-02
5.874375e-10,1.484375e-02
5.914375e-10,1.473438e-02
5.954375e-10,1.457813e-02
5.994375e-10,1.306250e-02
6.034375e-10,1.348438e-02
6.074375e-10,1.237500e-02
6.114375e-10,1.314063e-02
6.154375e-10,1.256250e-02
6.194375e-10,1.193750e-02
6.234375e-10,1.093750e-02
6.274375e-10,1.093750e-02
6.314375e-10,1.009375e-02
6.354375e-10,9.640625e-03
6.394375e-10,9.562500e-03
6.434375e-10,9.359375e-03
6.474375e-10,8.750000e-03
6.514375e-10,7.906250e-03
6.554375e-10,7.515625e-03
6.594375e-10,7.453125e-03
6.634375e-10,6.640625e-03
6.674375e-10,6.781250e-03
6.714375e-10,6.609375e-03
6.754375e-10,6.359375e-03
6.794375e-10,4.843750e-03
6.834375e-10,5.234375e-03
6.874375e-10,4.156250e-03
6.914375e-10,5.000000e-03
6.954375e-10,4.500000e-03
6.994375e-10,4.015625e-03
7.034375e-10,3.125000e-03
7.074375e-10,3.328125e-03
7.114375e-10,2.687500e-03
7.154375e-10,2.453125e-03
7.194375e-10,2.656250e-03
7.234375e-10,2.718750e-03
7.274375e-10,2.437500e-03
7.314375e-10,1.921875e-03
7.354375e-10,1.890625e-03
7.394375e-10,2.218750e-03
7.434375e-10,1.812500e-03
7.474375e-10,2.375000e-03
7.514375e-10,2.640625e-03
7.554375e-10,2.828125e-03
7.594375e-10,1.750000e-03
7.634375e-10,2.593750e-03
7.674375e-10,1.953125e-03
7.714375e-10,3.281250e-03
7.754375e-10,3.250000e-03
7.794375e-10,3.218750e-03
7.834375e-10,2.781250e-03
7.874375e-10,3.375000e-03
7.914375e-10,3.156250e-03
7.954375e-10,3.343750e-03
7.994375e-10,3.937500e-03
8.034375e-10,4.343750e-03
8.074375e-10,4.406250e-03
8.114375e-10,4.203125e-03
8.154375e-10,4.421875e-03
8.194375e-10,5.031250e-03
8.234375e-10,4.859375e-03
8.274375e-10,5.656250e-03
8.314375e-10,6.062500e-03
8.354375e-10,6.375000e-03
8.394375e-10,5.421875e-03
8.434375e-10,6.312500e-03
8.474375e-10,5.687500e-03
8.514375e-10,7.031250e-03
8.554375e-10,6.984375e-03
8.594375e-10,6.890625e-03
8.634375e-10,6.359375e-03
8.674375e-10,6.828125e-03
8.714375e-10,6.468750e-03
8.754375e-10,6.500000e-03
8.794375e-10,6.937500e-03
8.834375e-10,7.062500e-03
8.874375e-10,6.906250e-03
8.914375e-10,6.468750e-03
8.954375e-10,6.390625e-03
8.994375e-10,6.750000e-03
9.034375e-10,6.312500e-03
9.074375e-10,6.796875e-03
9.114375e-10,6.906250e-03
9.154375e-10,6.921875e-03
9.194375e-10,5.687500e-03
9.234375e-10,6.296875e-03
9.274375e-10,5.359375e-03
9.314375e-10,6.437500e-03
9.354375e-10,6.125000e-03
9.394375e-10,5.765625e-03
9.434375e-10,5.031250e-03
9.474375e-10,5.265625e-03
9.514375e-10,4.718750e-03
9.554375e-10,4.593750e-03
9.594375e-10,4.859375e-03
9.634375e-10,4.843750e-03
9.674375e-10,4.578125e-03
9.714375e-10,4.062500e-03
9.754375e-10,3.921875e-03
9.794375e-10,4.250000e-03
9.834375e-10,3.812500e-03
9.874375e-10,4.312500e-03
9.914375e-10,4.437500e-03
9.954375e-10,4.546875e-03
9.994375e-10,3.406250e-03
1.003438e-09,4.156250e-03
1.007438e-09,3.343750e-03
1.011438e-09,4.562500e-03
1.015437e-09,4.421875e-03
1.019437e-09,4.250000e-03
1.023437e-09,3.718750e-03
1.027437e-09,4.187500e-03
1.031437e-09,3.875000e-03
1.035437e-09,3.968750e-03
1.039437e-09,4.500000e-03
1.043437e-09,4.734375e-03
1.047437e-09,4.687500e-03
1.051438e-09,4.437500e-03
1.055438e-09,4.531250e-03
1.059438e-09,5.109375e-03
1.063438e-09,4.875000e-03
1.067438e-09,5.609375e-03
1.071438e-09,5.953125e-03
1.075437e-09,6.265625e-03
1.079437e-09,5.312500e-03
1.083437e-09,6.250000e-03
1.087437e-09,5.578125e-03
1.091437e-09,6.921875e-03
1.095437e-09,6.875000e-03
1.099437e-09,6.796875e-03
1.103437e-09,6.328125e-03
1.107437e-09,6.843750e-03
1.111438e-09,6.546875e-03
1.115438e-09,6.656250e-03
1.119438e-09,7.156250e-03
1.123438e-09,7.375000e-03
1.127438e-09,7.250000e-03
1.131438e-09,6.906250e-03
1.135437e-09,6.906250e-03
1.139437e-09,7.343750e-03
1.143437e-09,6.968750e-03
1.147437e-09,7.546875e-03
1.151437e-09,7.718750e-03
1.155437e-09,7.859375e-03
1.159437e-09,6.687500e-03
1.163437e-09,7.437500e-03
1.167437e-09,6.562500e-03
1.171438e-09,7.671875e-03
1.175438e-09,7.390625e-03
1.179438e-09,7.109375e-03
1.183438e-09,6.406250e-03
1.187438e-09,6.703125e-03
1.191438e-09,6.187500e-03
1.195437e-09,6.078125e-03
1.199437e-09,6.375000e-03
1.203437e-09,6.421875e-03
1.207437e-09,6.125000e-03
1.211437e-09,5.593750e-03
1.215437e-09,5.468750e-03
1.219437e-09,5.765625e-03
1.223437e-09,5.250000e-03
1.227437e-09,5.734375e-03
1.231438e-09,5.843750e-03
1.235438e-09,5.937500e-03
1.239438e-09,4.703125e-03
1.243438e-09,5.421875e-03
1.247438e-09,4.562500e-03
1.251438e-09,5.703125e-03
1.255437e-09,5.468750e-03
1.259437e-09,5.234375e-03
1.263437e-09,4.609375e-03
1.267437e-09,5.015625e-03
1.271437e-09,4.625000e-03
1.275437e-09,4.640625e-03
1.279437e-09,5.093750e-03
1.283437e-09,5.312500e-03
1.287437e-09,5.187500e-03
1.291438e-09,4.859375e-03
1.295438e-09,4.921875e-03
1.299438e-09,5.437500e-03
1.303438e-09,5.140625e-03
1.307438e-09,5.843750e-03
1.311438e-09,6.171875e-03
1.315437e-09,6.500000e-03
1.319437e-09,5.453125e-03
1.323437e-09,6.406250e-03
1.327437e-09,5.750000e-03
1.331437e-09,7.109375e-03
1.335437e-09,7.078125e-03
1.339437e-09,7.031250e-03
1.343437e-09,6.593750e-03
1.347437e-09,7.156250e-03
1.351438e-09,6.906250e-03
1.355438e-09,7.078125e-03
1.359438e-09,7.640625e-03
1.363438e-09,7.984375e-03
1.367438e-09,7.921875e-03
1.371438e-09,7.671875e-03
1.375437e-09,7.796875e-03
1.379437e-09,8.328125e-03
1.383437e-09,8.031250e-03
1.387437e-09,8.750000e-03
1.391437e-09,9.046875e-03
1.395437e-09,9.328125e-03
1.399437e-09,8.203125e-03
1.403437e-09,9.078125e-03
1.407437e-09,8.328125e-03
1.411438e-09,9.578125e-03
1.415438e-09,9.406250e-03
1.419438e-09,9.218750e-03
1.423438e-09,8.609375e-03
1.427438e-09,9.000000e-03
1.431438e-09,8.578125e-03
1.435437e-09,8.562500e-03
1.439437e-09,8.921875e-03
1.443437e-09,9.078125e-03
1.447437e-09,8.812500e-03
1.451437e-09,8.328125e-03
1.455437e-09,8.250000e-03
1.459437e-09,8.578125e-03
1.463437e-09,8.078125e-03
1.467437e-09,8.578125e-03
1.471438e-09,8.671875e-03
1.475438e-09,8.765625e-03
1.479438e-09,7.453125e-03
1.483438e-09,8.140625e-03
1.487438e-09,7.218750e-03
1.491438e-09,8.312500e-03
1.495437e-09,7.984375e-03
1.499437e-09,7.656250e-03
1.503437e-09,6.937500e-03
1.507437e-09,7.218750e-03
1.511437e-09,6.703125e-03
1.515437e-09,6.593750e-03
1.519437e-09,6.875000e-03
1.523437e-09,6.984375e-03
1.527437e-09,6.671875e-03
1.531438e-09,6.171875e-03
1.535438e-09,6.078125e-03
1.539438e-09,6.406250e-03
1.543438e-09,5.921875e-03
1.547438e-09,6.453125e-03
1.551437e-09,6.593750e-03
1.555437e-09,6.734375e-03
1.559437e-09,5.468750e-03
1.563437e-09,6.234375e-03
1.567437e-09,5.375000e-03
1.571437e-09,6.562500e-03
1.575437e-09,6.328125e-03
1.579437e-09,6.093750e-03
1.583437e-09,5.468750e-03
1.587437e-09,5.859375e-03
1.591438e-09,5.453125e-03
1.595438e-09,5.453125e-03
1.599438e-09,5.843750e-03
1.603438e-09,6.062500e-03
1.607438e-09,5.859375e-03
1.611437e-09,5.453125e-03
1.615437e-09,5.468750e-03
1.619437e-09,5.890625e-03
1.623437e-09,5.484375e-03
1.627437e-09,6.109375e-03
1.631437e-09,6.312500e-03
1.635437e-09,6.531250e-03
1.639437e-09,5.328125e-03
1.643437e-09,6.140625e-03
1.647437e-09,5.343750e-03
1.651438e-09,6.546875e-03
1.655438e-09,6.343750e-03
1.659438e-09,6.140625e-03
1.663438e-09,5.531250e-03
1.667438e-09,5.921875e-03
1.671437e-09,5.500000e-03
1.675437e-09,5.484375e-03
1.679437e-09,5.875000e-03
1.683437e-09,6.046875e-03
1.687437e-09,5.812500e-03
1.691437e-09,5.375000e-03
1.695437e-09,5.328125e-03
1.699437e-09,5.687500e-03
1.703437e-09,5.234375e-03
1.707437e-09,5.796875e-03
1.711438e-09,5.937500e-03
1.715438e-09,6.093750e-03
1.719438e-09,4.812500e-03
1.723438e-09,5.562500e-03
1.727438e-09,4.687500e-03
1.731437e-09,5.828125e-03
1.735437e-09,5.546875e-03
1.739437e-09,5.281250e-03
1.743437e-09,4.593750e-03
1.747437e-09,4.937500e-03
1.751437e-09,4.453125e-03
1.755437e-09,4.375000e-03
1.759437e-09,4.703125e-03
