Measurements-streak-laser-independent/Photodiode-on-Tek-12bit-4GHz/Tek000_ch1_20190613132947635.csv

Model,MSO64
Waveform Type,ANALOG
Horizontal Units,s
Sample Interval,4.000000e-12
Record Length,1000
Zero Index,310.062500
Vertical Units,V

TIME,CH1
-1.240250e-09,3.671875e-03
-1.236250e-09,3.109375e-03
-1.232250e-09,3.562500e-03
-1.228250e-09,3.218750e-03
-1.224250e-09,3.296875e-03
-1.220250e-09,3.796875e-03
-1.216250e-09,4.125000e-03
-1.212250e-09,4.046875e-03
-1.208250e-09,3.781250e-03
-1.204250e-09,3.921875e-03
-1.200250e-09,4.500000e-03
-1.196250e-09,4.250000e-03
-1.192250e-09,5.031250e-03
-1.188250e-09,5.421875e-03
-1.184250e-09,5.812500e-03
-1.180250e-09,4.781250e-03
-1.176250e-09,5.781250e-03
-1.172250e-09,5.156250e-03
-1.168250e-09,6.546875e-03
-1.164250e-09,6.515625e-03
-1.160250e-09,6.484375e-03
-1.156250e-09,6.031250e-03
-1.152250e-09,6.578125e-03
-1.148250e-09,6.296875e-03
-1.144250e-09,6.421875e-03
-1.140250e-09,6.921875e-03
-1.136250e-09,7.218750e-03
-1.132250e-09,7.078125e-03
-1.128250e-09,6.718750e-03
-1.124250e-09,6.750000e-03
-1.120250e-09,7.156250e-03
-1.116250e-09,6.734375e-03
-1.112250e-09,7.296875e-03
-1.108250e-09,7.437500e-03
-1.104250e-09,7.578125e-03
-1.100250e-09,6.250000e-03
-1.096250e-09,6.953125e-03
-1.092250e-09,6.000000e-03
-1.088250e-09,7.062500e-03
-1.084250e-09,6.687500e-03
-1.080250e-09,6.296875e-03
-1.076250e-09,5.484375e-03
-1.072250e-09,5.671875e-03
-1.068250e-09,5.046875e-03
-1.064250e-09,4.812500e-03
-1.060250e-09,4.968750e-03
-1.056250e-09,4.937500e-03
-1.052250e-09,4.500000e-03
-1.048250e-09,3.843750e-03
-1.044250e-09,3.593750e-03
-1.040250e-09,3.765625e-03
-1.036250e-09,3.125000e-03
-1.032250e-09,3.515625e-03
-1.028250e-09,3.500000e-03
-1.024250e-09,3.500000e-03
-1.020250e-09,2.109375e-03
-1.016250e-09,2.750000e-03
-1.012250e-09,1.796875e-03
-1.008250e-09,2.890625e-03
-1.004250e-09,2.578125e-03
-1.000250e-09,2.296875e-03
-9.962500e-10,1.625000e-03
-9.922500e-10,2.000000e-03
-9.882500e-10,1.578125e-03
-9.842500e-10,1.593750e-03
-9.802500e-10,2.031250e-03
-9.762500e-10,2.296875e-03
-9.722500e-10,2.187500e-03
-9.682500e-10,1.890625e-03
-9.642500e-10,2.031250e-03
-9.602500e-10,2.593750e-03
-9.562500e-10,2.359375e-03
-9.522500e-10,3.156250e-03
-9.482500e-10,3.578125e-03
-9.442500e-10,4.015625e-03
-9.402500e-10,3.031250e-03
-9.362500e-10,4.093750e-03
-9.322500e-10,3.562500e-03
-9.282500e-10,5.000000e-03
-9.242500e-10,5.062500e-03
-9.202500e-10,5.156250e-03
-9.162500e-10,4.812500e-03
-9.122500e-10,5.500000e-03
-9.082500e-10,5.359375e-03
-9.042500e-10,5.625000e-03
-9.002500e-10,6.281250e-03
-8.962500e-10,6.718750e-03
-8.922500e-10,6.750000e-03
-8.882500e-10,6.562500e-03
-8.842500e-10,6.750000e-03
-8.802500e-10,7.328125e-03
-8.762500e-10,7.078125e-03
-8.722500e-10,7.828125e-03
-8.682500e-10,8.140625e-03
-8.642500e-10,8.421875e-03
-8.602500e-10,7.312500e-03
-8.562500e-10,8.156250e-03
-8.522500e-10,7.359375e-03
-8.482500e-10,8.375000e-03
-8.442500e-10,8.187500e-03
-8.402500e-10,7.906250e-03
-8.362500e-10,7.265625e-03
-8.322500e-10,7.546875e-03
-8.282500e-10,7.015625e-03
-8.242500e-10,6.906250e-03
-8.202500e-10,7.156250e-03
-8.162500e-10,7.156250e-03
-8.122500e-10,6.812500e-03
-8.082500e-10,6.187500e-03
-8.042500e-10,5.953125e-03
-8.002500e-10,6.140625e-03
-7.962500e-10,5.500000e-03
-7.922500e-10,5.859375e-03
-7.882500e-10,5.812500e-03
-7.842500e-10,5.781250e-03
-7.802500e-10,4.468750e-03
-7.762500e-10,5.046875e-03
-7.722500e-10,4.000000e-03
-7.682500e-10,4.656250e-03
-7.642500e-10,4.390625e-03
-7.602500e-10,4.000000e-03
-7.562500e-10,3.343750e-03
-7.522500e-10,3.546875e-03
-7.482500e-10,2.968750e-03
-7.442500e-10,2.984375e-03
-7.402500e-10,3.234375e-03
-7.362500e-10,3.312500e-03
-7.322500e-10,3.234375e-03
-7.282500e-10,2.750000e-03
-7.242500e-10,2.687500e-03
-7.202500e-10,3.046875e-03
-7.162500e-10,2.671875e-03
-7.122500e-10,3.265625e-03
-7.082500e-10,3.531250e-03
-7.042500e-10,3.765625e-03
-7.002500e-10,2.765625e-03
-6.962500e-10,3.671875e-03
-6.922500e-10,3.031250e-03
-6.882500e-10,3.859375e-03
-6.842500e-10,3.968750e-03
-6.802500e-10,3.953125e-03
-6.762500e-10,3.656250e-03
-6.722500e-10,4.062500e-03
-6.682500e-10,3.656250e-03
-6.642500e-10,4.015625e-03
-6.602500e-10,4.468750e-03
-6.562500e-10,4.656250e-03
-6.522500e-10,4.968750e-03
-6.482500e-10,4.578125e-03
-6.442500e-10,4.578125e-03
-6.402500e-10,4.968750e-03
-6.362500e-10,4.703125e-03
-6.322500e-10,5.265625e-03
-6.282500e-10,5.531250e-03
-6.242500e-10,5.656250e-03
-6.202500e-10,4.468750e-03
-6.162500e-10,5.296875e-03
-6.122500e-10,4.656250e-03
-6.082500e-10,5.234375e-03
-6.042500e-10,5.187500e-03
-6.002500e-10,5.000000e-03
-5.962500e-10,4.468750e-03
-5.922500e-10,4.546875e-03
-5.882500e-10,3.812500e-03
-5.842500e-10,3.921875e-03
-5.802500e-10,4.109375e-03
-5.762500e-10,3.890625e-03
-5.722500e-10,4.046875e-03
-5.682500e-10,3.343750e-03
-5.642500e-10,3.062500e-03
-5.602500e-10,3.187500e-03
-5.562500e-10,2.765625e-03
-5.522500e-10,3.093750e-03
-5.482500e-10,3.093750e-03
-5.442500e-10,2.984375e-03
-5.402500e-10,1.578125e-03
-5.362500e-10,2.234375e-03
-5.322500e-10,1.640625e-03
-5.282500e-10,2.125000e-03
-5.242500e-10,2.156250e-03
-5.202500e-10,1.906250e-03
-5.162500e-10,1.390625e-03
-5.122500e-10,1.515625e-03
-5.082500e-10,9.062500e-04
-5.042500e-10,1.109375e-03
-5.002500e-10,1.515625e-03
-4.962500e-10,1.453125e-03
-4.922500e-10,1.734375e-03
-4.882500e-10,1.328125e-03
-4.842500e-10,1.375000e-03
-4.802500e-10,1.843750e-03
-4.762500e-10,1.656250e-03
-4.722500e-10,2.421875e-03
-4.682500e-10,2.656250e-03
-4.642500e-10,2.875000e-03
-4.602500e-10,1.796875e-03
-4.562500e-10,2.656250e-03
-4.522500e-10,2.453125e-03
-4.482500e-10,3.250000e-03
-4.442500e-10,3.687500e-03
-4.402500e-10,3.578125e-03
-4.362500e-10,3.281250e-03
-4.322500e-10,3.656250e-03
-4.282500e-10,3.375000e-03
-4.242500e-10,3.578125e-03
-4.202500e-10,4.171875e-03
-4.162500e-10,4.171875e-03
-4.122500e-10,4.312500e-03
-4.082500e-10,3.953125e-03
-4.042500e-10,4.109375e-03
-4.002500e-10,4.593750e-03
-3.962500e-10,4.125000e-03
-3.922500e-10,4.812500e-03
-3.882500e-10,4.875000e-03
-3.842500e-10,4.875000e-03
-3.802500e-10,3.609375e-03
-3.762500e-10,4.015625e-03
-3.722500e-10,3.546875e-03
-3.682500e-10,4.062500e-03
-3.642500e-10,4.171875e-03
-3.602500e-10,3.656250e-03
-3.562500e-10,3.015625e-03
-3.522500e-10,3.062500e-03
-3.482500e-10,2.625000e-03
-3.442500e-10,2.265625e-03
-3.402500e-10,2.562500e-03
-3.362500e-10,2.281250e-03
-3.322500e-10,1.968750e-03
-3.282500e-10,1.453125e-03
-3.242500e-10,1.484375e-03
-3.202500e-10,1.859375e-03
-3.162500e-10,1.203125e-03
-3.122500e-10,1.750000e-03
-3.082500e-10,1.921875e-03
-3.042500e-10,1.953125e-03
-3.002500e-10,8.750000e-04
-2.962500e-10,1.328125e-03
-2.922500e-10,1.046875e-03
-2.882500e-10,1.890625e-03
-2.842500e-10,2.281250e-03
-2.802500e-10,2.156250e-03
-2.762500e-10,2.109375e-03
-2.722500e-10,2.687500e-03
-2.682500e-10,2.859375e-03
-2.642500e-10,3.031250e-03
-2.602500e-10,3.937500e-03
-2.562500e-10,4.359375e-03
-2.522500e-10,4.656250e-03
-2.482500e-10,5.000000e-03
-2.442500e-10,5.734375e-03
-2.402500e-10,6.843750e-03
-2.362500e-10,6.984375e-03
-2.322500e-10,8.140625e-03
-2.282500e-10,9.109375e-03
-2.242500e-10,9.781250e-03
-2.202500e-10,9.453125e-03
-2.162500e-10,1.043750e-02
-2.122500e-10,1.053125e-02
-2.082500e-10,1.189063e-02
-2.042500e-10,1.251563e-02
-2.002500e-10,1.271875e-02
-1.962500e-10,1.293750e-02
-1.922500e-10,1.359375e-02
-1.882500e-10,1.367188e-02
-1.842500e-10,1.376563e-02
-1.802500e-10,1.426563e-02
-1.762500e-10,1.431250e-02
-1.722500e-10,1.403125e-02
-1.682500e-10,1.387500e-02
-1.642500e-10,1.373438e-02
-1.602500e-10,1.382813e-02
-1.562500e-10,1.304688e-02
-1.522500e-10,1.306250e-02
-1.482500e-10,1.278125e-02
-1.442500e-10,1.218750e-02
-1.402500e-10,1.057813e-02
-1.362500e-10,1.014063e-02
-1.322500e-10,8.562500e-03
-1.282500e-10,8.515625e-03
-1.242500e-10,7.406250e-03
-1.202500e-10,6.078125e-03
-1.162500e-10,4.781250e-03
-1.122500e-10,3.968750e-03
-1.082500e-10,2.531250e-03
-1.042500e-10,1.359375e-03
-1.002500e-10,5.000000e-04
-9.625000e-11,-5.468750e-04
-9.225000e-11,-1.812500e-03
-8.825000e-11,-2.750000e-03
-8.425000e-11,-3.531250e-03
-8.025000e-11,-4.015625e-03
-7.625000e-11,-4.906250e-03
-7.225000e-11,-4.703125e-03
-6.825000e-11,-4.640625e-03
-6.425000e-11,-4.359375e-03
-6.025000e-11,-4.750000e-03
-5.625000e-11,-3.718750e-03
-5.225000e-11,-3.531250e-03
-4.825000e-11,-1.218750e-03
-4.425000e-11,1.562500e-04
-4.025000e-11,2.000000e-03
-3.625000e-11,4.218750e-03
-3.225000e-11,7.421875e-03
-2.825000e-11,1.039063e-02
-2.425000e-11,1.410938e-02
-2.025000e-11,1.857813e-02
-1.625000e-11,2.343750e-02
-1.225000e-11,2.832813e-02
-8.250000e-12,3.407813e-02
-4.250000e-12,4.034375e-02
-2.500000e-13,4.720313e-02
3.750000e-12,5.423438e-02
7.750000e-12,6.268750e-02
1.175000e-11,7.134375e-02
1.575000e-11,8.070313e-02
1.975000e-11,8.962500e-02
2.375000e-11,1.001563e-01
2.775000e-11,1.100156e-01
3.175000e-11,1.223125e-01
3.575000e-11,1.336406e-01
3.975000e-11,1.458125e-01
4.375000e-11,1.582969e-01
4.775000e-11,1.717500e-01
5.175000e-11,1.850625e-01
5.575000e-11,1.989844e-01
5.975000e-11,2.136406e-01
6.375000e-11,2.286875e-01
6.775000e-11,2.432500e-01
7.175000e-11,2.585625e-01
7.575000e-11,2.740625e-01
7.975000e-11,2.897813e-01
8.375000e-11,3.054531e-01
8.775000e-11,3.220781e-01
9.175000e-11,3.382969e-01
9.575000e-11,3.549844e-01
9.975000e-11,3.705000e-01
1.037500e-10,3.871406e-01
1.077500e-10,4.024219e-01
1.117500e-10,4.195000e-01
1.157500e-10,4.348438e-01
1.197500e-10,4.506094e-01
1.237500e-10,4.657031e-01
1.277500e-10,4.809844e-01
1.317500e-10,4.955625e-01
1.357500e-10,5.099375e-01
1.397500e-10,5.242656e-01
1.437500e-10,5.384063e-01
1.477500e-10,5.509531e-01
1.517500e-10,5.635625e-01
1.557500e-10,5.756719e-01
1.597500e-10,5.872188e-01
1.637500e-10,5.981094e-01
1.677500e-10,6.090781e-01
1.717500e-10,6.188125e-01
1.757500e-10,6.285469e-01
1.797500e-10,6.363125e-01
1.837500e-10,6.447344e-01
1.877500e-10,6.511875e-01
1.917500e-10,6.587344e-01
1.957500e-10,6.640156e-01
1.997500e-10,6.693438e-01
2.037500e-10,6.734688e-01
2.077500e-10,6.773594e-01
2.117500e-10,6.803750e-01
2.157500e-10,6.827969e-01
2.197500e-10,6.848281e-01
2.237500e-10,6.866406e-01
2.277500e-10,6.864844e-01
2.317500e-10,6.862031e-01
2.357500e-10,6.855313e-01
2.397500e-10,6.842656e-01
2.437500e-10,6.823125e-01
2.477500e-10,6.803438e-01
2.517500e-10,6.772500e-01
2.557500e-10,6.743906e-01
2.597500e-10,6.695625e-01
2.637500e-10,6.658281e-01
2.677500e-10,6.603438e-01
2.717500e-10,6.559844e-01
2.757500e-10,6.497500e-01
2.797500e-10,6.438438e-01
2.837500e-10,6.370938e-01
2.877500e-10,6.305781e-01
2.917500e-10,6.236250e-01
2.957500e-10,6.164063e-01
2.997500e-10,6.091094e-01
3.037500e-10,6.020781e-01
3.077500e-10,5.935469e-01
3.117500e-10,5.852500e-01
3.157500e-10,5.770938e-01
3.197500e-10,5.688125e-01
3.237500e-10,5.601563e-01
3.277500e-10,5.519375e-01
3.317500e-10,5.430781e-01
3.357500e-10,5.349063e-01
3.397500e-10,5.250156e-01
3.437500e-10,5.168438e-01
3.477500e-10,5.073281e-01
3.517500e-10,4.990938e-01
3.557500e-10,4.895156e-01
3.597500e-10,4.805313e-01
3.637500e-10,4.709844e-01
3.677500e-10,4.621406e-01
3.717500e-10,4.531875e-01
3.757500e-10,4.441719e-01
3.797500e-10,4.352656e-01
3.837500e-10,4.268281e-01
3.877500e-10,4.173438e-01
3.917500e-10,4.081719e-01
3.957500e-10,3.992969e-01
3.997500e-10,3.906250e-01
4.037500e-10,3.815313e-01
4.077500e-10,3.730938e-01
4.117500e-10,3.642813e-01
4.157500e-10,3.561563e-01
4.197500e-10,3.464063e-01
4.237500e-10,3.386406e-01
4.277500e-10,3.296250e-01
4.317500e-10,3.218594e-01
4.357500e-10,3.129844e-01
4.397500e-10,3.046719e-01
4.437500e-10,2.958750e-01
4.477500e-10,2.879375e-01
4.517500e-10,2.799219e-01
4.557500e-10,2.719688e-01
4.597500e-10,2.640625e-01
4.637500e-10,2.567031e-01
4.677500e-10,2.486563e-01
4.717500e-10,2.408438e-01
4.757500e-10,2.333281e-01
4.797500e-10,2.262500e-01
4.837500e-10,2.187188e-01
4.877500e-10,2.118594e-01
4.917500e-10,2.049219e-01
4.957500e-10,1.985625e-01
4.997500e-10,1.908281e-01
5.037500e-10,1.851875e-01
5.077500e-10,1.784219e-01
5.117500e-10,1.729531e-01
5.157500e-10,1.666719e-01
5.197500e-10,1.607813e-01
5.237500e-10,1.547344e-01
5.277500e-10,1.495625e-01
5.317500e-10,1.443438e-01
5.357500e-10,1.394063e-01
5.397500e-10,1.345625e-01
5.437500e-10,1.303438e-01
5.477500e-10,1.257344e-01
5.517500e-10,1.213281e-01
5.557500e-10,1.173594e-01
5.597500e-10,1.138594e-01
5.637500e-10,1.099531e-01
5.677500e-10,1.066875e-01
5.717500e-10,1.035938e-01
5.757500e-10,1.008906e-01
5.797500e-10,9.703125e-02
5.837500e-10,9.512500e-02
5.877500e-10,9.223438e-02
5.917500e-10,9.064063e-02
5.957500e-10,8.829688e-02
5.997500e-10,8.600000e-02
6.037500e-10,8.373438e-02
6.077500e-10,8.229688e-02
6.117500e-10,8.048438e-02
6.157500e-10,7.896875e-02
6.197500e-10,7.754688e-02
6.237500e-10,7.659375e-02
6.277500e-10,7.526563e-02
6.317500e-10,7.385938e-02
6.357500e-10,7.290625e-02
6.397500e-10,7.206250e-02
6.437500e-10,7.076563e-02
6.477500e-10,6.998438e-02
6.517500e-10,6.925000e-02
6.557500e-10,6.850000e-02
6.597500e-10,6.665625e-02
6.637500e-10,6.637500e-02
6.677500e-10,6.515625e-02
6.717500e-10,6.503125e-02
6.757500e-10,6.398438e-02
6.797500e-10,6.271875e-02
6.837500e-10,6.123438e-02
6.877500e-10,6.070313e-02
6.917500e-10,5.928125e-02
6.957500e-10,5.806250e-02
6.997500e-10,5.701563e-02
7.037500e-10,5.625000e-02
7.077500e-10,5.500000e-02
7.117500e-10,5.340625e-02
7.157500e-10,5.237500e-02
7.197500e-10,5.118750e-02
7.237500e-10,4.954688e-02
7.277500e-10,4.843750e-02
7.317500e-10,4.735938e-02
7.357500e-10,4.589063e-02
7.397500e-10,4.362500e-02
7.437500e-10,4.270313e-02
7.477500e-10,4.096875e-02
7.517500e-10,4.042188e-02
7.557500e-10,3.887500e-02
7.597500e-10,3.723438e-02
7.637500e-10,3.521875e-02
7.677500e-10,3.439063e-02
7.717500e-10,3.257813e-02
7.757500e-10,3.107813e-02
7.797500e-10,3.000000e-02
7.837500e-10,2.912500e-02
7.877500e-10,2.798438e-02
7.917500e-10,2.642188e-02
7.957500e-10,2.560938e-02
7.997500e-10,2.479688e-02
8.037500e-10,2.362500e-02
8.077500e-10,2.312500e-02
8.117500e-10,2.276563e-02
8.157500e-10,2.189063e-02
8.197500e-10,2.057813e-02
8.237500e-10,2.046875e-02
8.277500e-10,1.967188e-02
8.317500e-10,2.039063e-02
8.357500e-10,2.006250e-02
8.397500e-10,1.976563e-02
8.437500e-10,1.903125e-02
8.477500e-10,1.950000e-02
8.517500e-10,1.909375e-02
8.557500e-10,1.909375e-02
8.597500e-10,1.959375e-02
8.637500e-10,2.000000e-02
8.677500e-10,2.042188e-02
8.717500e-10,2.034375e-02
8.757500e-10,2.087500e-02
8.797500e-10,2.164063e-02
8.837500e-10,2.193750e-02
8.877500e-10,2.289063e-02
8.917500e-10,2.376563e-02
8.957500e-10,2.414063e-02
8.997500e-10,2.407813e-02
9.037500e-10,2.498438e-02
9.077500e-10,2.506250e-02
9.117500e-10,2.685938e-02
9.157500e-10,2.740625e-02
9.197500e-10,2.784375e-02
9.237500e-10,2.781250e-02
9.277500e-10,2.868750e-02
9.317500e-10,2.879688e-02
9.357500e-10,2.920313e-02
9.397500e-10,3.003125e-02
9.437500e-10,3.029688e-02
9.477500e-10,3.076563e-02
9.517500e-10,3.064063e-02
9.557500e-10,3.081250e-02
9.597500e-10,3.145313e-02
9.637500e-10,3.143750e-02
9.677500e-10,3.195313e-02
9.717500e-10,3.218750e-02
9.757500e-10,3.200000e-02
9.797500e-10,3.132813e-02
9.837500e-10,3.156250e-02
9.877500e-10,3.075000e-02
9.917500e-10,3.176563e-02
9.957500e-10,3.146875e-02
9.997500e-10,3.103125e-02
1.003750e-09,3.017188e-02
1.007750e-09,3.010938e-02
1.011750e-09,2.940625e-02
1.015750e-09,2.903125e-02
1.019750e-09,2.906250e-02
1.023750e-09,2.835938e-02
1.027750e-09,2.798438e-02
1.031750e-09,2.715625e-02
1.035750e-09,2.648438e-02
1.039750e-09,2.653125e-02
1.043750e-09,2.589063e-02
1.047750e-09,2.579688e-02
1.051750e-09,2.548438e-02
1.055750e-09,2.487500e-02
1.059750e-09,2.389063e-02
1.063750e-09,2.393750e-02
1.067750e-09,2.281250e-02
1.071750e-09,2.356250e-02
1.075750e-09,2.312500e-02
1.079750e-09,2.260938e-02
1.083750e-09,2.179688e-02
1.087750e-09,2.182813e-02
1.091750e-09,2.126563e-02
1.095750e-09,2.110938e-02
1.099750e-09,2.139063e-02
1.103750e-09,2.100000e-02
1.107750e-09,2.087500e-02
1.111750e-09,2.042188e-02
1.115750e-09,2.012500e-02
1.119750e-09,2.059375e-02
1.123750e-09,2.035938e-02
1.127750e-09,2.071875e-02
1.131750e-09,2.087500e-02
1.135750e-09,2.081250e-02
1.139750e-09,2.029688e-02
1.143750e-09,2.093750e-02
1.147750e-09,2.023438e-02
1.151750e-09,2.139063e-02
1.155750e-09,2.132813e-02
1.159750e-09,2.120313e-02
1.163750e-09,2.073438e-02
1.167750e-09,2.115625e-02
1.171750e-09,2.087500e-02
1.175750e-09,2.098438e-02
1.179750e-09,2.146875e-02
1.183750e-09,2.139063e-02
1.187750e-09,2.132813e-02
1.191750e-09,2.098438e-02
1.195750e-09,2.079688e-02
1.199750e-09,2.123438e-02
1.203750e-09,2.089063e-02
1.207750e-09,2.125000e-02
1.211750e-09,2.131250e-02
1.215750e-09,2.120313e-02
1.219750e-09,2.037500e-02
1.223750e-09,2.090625e-02
1.227750e-09,1.993750e-02
1.231750e-09,2.082813e-02
1.235750e-09,2.043750e-02
1.239750e-09,2.001563e-02
1.243750e-09,1.918750e-02
1.247750e-09,1.929688e-02
1.251750e-09,1.867188e-02
1.255750e-09,1.840625e-02
1.259750e-09,1.853125e-02
1.263750e-09,1.823438e-02
1.267750e-09,1.778125e-02
1.271750e-09,1.710938e-02
1.275750e-09,1.667188e-02
1.279750e-09,1.679688e-02
1.283750e-09,1.615625e-02
1.287750e-09,1.631250e-02
1.291750e-09,1.620313e-02
1.295750e-09,1.596875e-02
1.299750e-09,1.485938e-02
1.303750e-09,1.534375e-02
1.307750e-09,1.429688e-02
1.311750e-09,1.517188e-02
1.315750e-09,1.476563e-02
1.319750e-09,1.437500e-02
1.323750e-09,1.360938e-02
1.327750e-09,1.384375e-02
1.331750e-09,1.332813e-02
1.335750e-09,1.321875e-02
1.339750e-09,1.353125e-02
1.343750e-09,1.356250e-02
1.347750e-09,1.335938e-02
1.351750e-09,1.295313e-02
1.355750e-09,1.287500e-02
1.359750e-09,1.331250e-02
1.363750e-09,1.298438e-02
1.367750e-09,1.354688e-02
1.371750e-09,1.381250e-02
1.375750e-09,1.403125e-02
1.379750e-09,1.314063e-02
1.383750e-09,1.403125e-02
1.387750e-09,1.335938e-02
1.391750e-09,1.464063e-02
1.395750e-09,1.459375e-02
1.399750e-09,1.454688e-02
1.403750e-09,1.412500e-02
1.407750e-09,1.465625e-02
1.411750e-09,1.443750e-02
1.415750e-09,1.460938e-02
1.419750e-09,1.515625e-02
1.423750e-09,1.546875e-02
1.427750e-09,1.543750e-02
1.431750e-09,1.518750e-02
1.435750e-09,1.529688e-02
1.439750e-09,1.582813e-02
1.443750e-09,1.556250e-02
1.447750e-09,1.623438e-02
1.451750e-09,1.651563e-02
1.455750e-09,1.676563e-02
1.459750e-09,1.575000e-02
1.463750e-09,1.657813e-02
1.467750e-09,1.582813e-02
1.471750e-09,1.703125e-02
1.475750e-09,1.684375e-02
1.479750e-09,1.664063e-02
1.483750e-09,1.603125e-02
1.487750e-09,1.640625e-02
1.491750e-09,1.596875e-02
1.495750e-09,1.592188e-02
1.499750e-09,1.625000e-02
1.503750e-09,1.635938e-02
1.507750e-09,1.607813e-02
1.511750e-09,1.559375e-02
1.515750e-09,1.548438e-02
1.519750e-09,1.578125e-02
1.523750e-09,1.528125e-02
1.527750e-09,1.575000e-02
1.531750e-09,1.582813e-02
1.535750e-09,1.589063e-02
1.539750e-09,1.464063e-02
1.543750e-09,1.531250e-02
1.547750e-09,1.440625e-02
1.551750e-09,1.546875e-02
1.555750e-09,1.515625e-02
1.559750e-09,1.485938e-02
1.563750e-09,1.415625e-02
1.567750e-09,1.445313e-02
1.571750e-09,1.396875e-02
1.575750e-09,1.389063e-02
1.579750e-09,1.420313e-02
1.583750e-09,1.432813e-02
1.587750e-09,1.406250e-02
1.591750e-09,1.360938e-02
1.595750e-09,1.354688e-02
1.599750e-09,1.390625e-02
1.603750e-09,1.348438e-02
1.607750e-09,1.403125e-02
1.611750e-09,1.420313e-02
1.615750e-09,1.435938e-02
1.619750e-09,1.317188e-02
1.623750e-09,1.395313e-02
1.627750e-09,1.315625e-02
1.631750e-09,1.432813e-02
1.635750e-09,1.412500e-02
1.639750e-09,1.390625e-02
1.643750e-09,1.329688e-02
1.647750e-09,1.367188e-02
1.651750e-09,1.325000e-02
1.655750e-09,1.323438e-02
1.659750e-09,1.359375e-02
1.663750e-09,1.375000e-02
1.667750e-09,1.351563e-02
1.671750e-09,1.306250e-02
1.675750e-09,1.300000e-02
1.679750e-09,1.334375e-02
1.683750e-09,1.285938e-02
1.687750e-09,1.335938e-02
1.691750e-09,1.345313e-02
1.695750e-09,1.353125e-02
1.699750e-09,1.223438e-02
1.703750e-09,1.289063e-02
1.707750e-09,1.193750e-02
1.711750e-09,1.298438e-02
1.715750e-09,1.260938e-02
1.719750e-09,1.221875e-02
1.723750e-09,1.140625e-02
1.727750e-09,1.159375e-02
1.731750e-09,1.098438e-02
1.735750e-09,1.075000e-02
1.739750e-09,1.090625e-02
1.743750e-09,1.084375e-02
1.747750e-09,1.037500e-02
1.751750e-09,9.718750e-03
1.755750e-09,9.437500e-03
1.759750e-09,9.562500e-03
