Measurements-streak-laser-independent/Photodiode-on-Tek-12bit-4GHz/Tek000_ch1_20190613133006689.csv

Model,MSO64
Waveform Type,ANALOG
Horizontal Units,s
Sample Interval,4.000000e-12
Record Length,1000
Zero Index,310.718750
Vertical Units,V

TIME,CH1
-1.242875e-09,4.453125e-03
-1.238875e-09,3.953125e-03
-1.234875e-09,3.875000e-03
-1.230875e-09,4.203125e-03
-1.226875e-09,3.718750e-03
-1.222875e-09,4.250000e-03
-1.218875e-09,4.390625e-03
-1.214875e-09,4.531250e-03
-1.210875e-09,3.265625e-03
-1.206875e-09,4.031250e-03
-1.202875e-09,3.187500e-03
-1.198875e-09,4.359375e-03
-1.194875e-09,4.125000e-03
-1.190875e-09,3.906250e-03
-1.186875e-09,3.265625e-03
-1.182875e-09,3.656250e-03
-1.178875e-09,3.250000e-03
-1.174875e-09,3.234375e-03
-1.170875e-09,3.625000e-03
-1.166875e-09,3.812500e-03
-1.162875e-09,3.609375e-03
-1.158875e-09,3.203125e-03
-1.154875e-09,3.187500e-03
-1.150875e-09,3.593750e-03
-1.146875e-09,3.171875e-03
-1.142875e-09,3.781250e-03
-1.138875e-09,3.968750e-03
-1.134875e-09,4.156250e-03
-1.130875e-09,2.921875e-03
-1.126875e-09,3.718750e-03
-1.122875e-09,2.890625e-03
-1.118875e-09,4.078125e-03
-1.114875e-09,3.843750e-03
-1.110875e-09,3.609375e-03
-1.106875e-09,2.968750e-03
-1.102875e-09,3.328125e-03
-1.098875e-09,2.875000e-03
-1.094875e-09,2.828125e-03
-1.090875e-09,3.187500e-03
-1.086875e-09,3.328125e-03
-1.082875e-09,3.078125e-03
-1.078875e-09,2.609375e-03
-1.074875e-09,2.546875e-03
-1.070875e-09,2.890625e-03
-1.066875e-09,2.421875e-03
-1.062875e-09,2.953125e-03
-1.058875e-09,3.093750e-03
-1.054875e-09,3.234375e-03
-1.050875e-09,1.953125e-03
-1.046875e-09,2.703125e-03
-1.042875e-09,1.828125e-03
-1.038875e-09,2.984375e-03
-1.034875e-09,2.734375e-03
-1.030875e-09,2.484375e-03
-1.026875e-09,1.828125e-03
-1.022875e-09,2.187500e-03
-1.018875e-09,1.750000e-03
-1.014875e-09,1.718750e-03
-1.010875e-09,2.109375e-03
-1.006875e-09,2.296875e-03
-1.002875e-09,2.093750e-03
-9.988750e-10,1.687500e-03
-9.948750e-10,1.687500e-03
-9.908750e-10,2.109375e-03
-9.868750e-10,1.734375e-03
-9.828750e-10,2.375000e-03
-9.788750e-10,2.625000e-03
-9.748750e-10,2.875000e-03
-9.708750e-10,1.718750e-03
-9.668750e-10,2.593750e-03
-9.628750e-10,1.843750e-03
-9.588750e-10,3.125000e-03
-9.548750e-10,3.015625e-03
-9.508750e-10,2.906250e-03
-9.468750e-10,2.390625e-03
-9.428750e-10,2.906250e-03
-9.388750e-10,2.593750e-03
-9.348750e-10,2.718750e-03
-9.308750e-10,3.234375e-03
-9.268750e-10,3.562500e-03
-9.228750e-10,3.468750e-03
-9.188750e-10,3.187500e-03
-9.148750e-10,3.312500e-03
-9.108750e-10,3.843750e-03
-9.068750e-10,3.546875e-03
-9.028750e-10,4.281250e-03
-8.988750e-10,4.609375e-03
-8.948750e-10,4.921875e-03
-8.908750e-10,3.843750e-03
-8.868750e-10,4.765625e-03
-8.828750e-10,4.062500e-03
-8.788750e-10,5.312500e-03
-8.748750e-10,5.234375e-03
-8.708750e-10,5.125000e-03
-8.668750e-10,4.609375e-03
-8.628750e-10,5.109375e-03
-8.588750e-10,4.781250e-03
-8.548750e-10,4.875000e-03
-8.508750e-10,5.343750e-03
-8.468750e-10,5.609375e-03
-8.428750e-10,5.484375e-03
-8.388750e-10,5.140625e-03
-8.348750e-10,5.203125e-03
-8.308750e-10,5.656250e-03
-8.268750e-10,5.281250e-03
-8.228750e-10,5.937500e-03
-8.188750e-10,6.187500e-03
-8.148750e-10,6.437500e-03
-8.108750e-10,5.312500e-03
-8.068750e-10,6.156250e-03
-8.028750e-10,5.390625e-03
-7.988750e-10,6.515625e-03
-7.948750e-10,6.406250e-03
-7.908750e-10,6.250000e-03
-7.868750e-10,5.734375e-03
-7.828750e-10,6.171875e-03
-7.788750e-10,5.812500e-03
-7.748750e-10,5.906250e-03
-7.708750e-10,6.359375e-03
-7.668750e-10,6.625000e-03
-7.628750e-10,6.546875e-03
-7.588750e-10,6.203125e-03
-7.548750e-10,6.281250e-03
-7.508750e-10,6.750000e-03
-7.468750e-10,6.437500e-03
-7.428750e-10,7.125000e-03
-7.388750e-10,7.437500e-03
-7.348750e-10,7.718750e-03
-7.308750e-10,6.656250e-03
-7.268750e-10,7.578125e-03
-7.228750e-10,6.906250e-03
-7.188750e-10,8.062500e-03
-7.148750e-10,8.031250e-03
-7.108750e-10,7.968750e-03
-7.068750e-10,7.531250e-03
-7.028750e-10,8.015625e-03
-6.988750e-10,7.671875e-03
-6.948750e-10,7.859375e-03
-6.908750e-10,8.343750e-03
-6.868750e-10,8.593750e-03
-6.828750e-10,8.625000e-03
-6.788750e-10,8.281250e-03
-6.748750e-10,8.328125e-03
-6.708750e-10,8.765625e-03
-6.668750e-10,8.453125e-03
-6.628750e-10,9.078125e-03
-6.588750e-10,9.343750e-03
-6.548750e-10,9.531250e-03
-6.508750e-10,8.343750e-03
-6.468750e-10,9.156250e-03
-6.428750e-10,8.406250e-03
-6.388750e-10,9.390625e-03
-6.348750e-10,9.234375e-03
-6.308750e-10,9.000000e-03
-6.268750e-10,8.390625e-03
-6.228750e-10,8.625000e-03
-6.188750e-10,8.046875e-03
-6.148750e-10,8.015625e-03
-6.108750e-10,8.265625e-03
-6.068750e-10,8.218750e-03
-6.028750e-10,8.031250e-03
-5.988750e-10,7.406250e-03
-5.948750e-10,7.171875e-03
-5.908750e-10,7.343750e-03
-5.868750e-10,6.781250e-03
-5.828750e-10,7.125000e-03
-5.788750e-10,7.078125e-03
-5.748750e-10,6.968750e-03
-5.708750e-10,5.484375e-03
-5.668750e-10,6.031250e-03
-5.628750e-10,5.078125e-03
-5.588750e-10,5.796875e-03
-5.548750e-10,5.437500e-03
-5.508750e-10,4.968750e-03
-5.468750e-10,4.140625e-03
-5.428750e-10,4.187500e-03
-5.388750e-10,3.453125e-03
-5.348750e-10,3.265625e-03
-5.308750e-10,3.406250e-03
-5.268750e-10,3.234375e-03
-5.228750e-10,2.937500e-03
-5.188750e-10,2.265625e-03
-5.148750e-10,2.031250e-03
-5.108750e-10,2.203125e-03
-5.068750e-10,1.625000e-03
-5.028750e-10,2.031250e-03
-4.988750e-10,2.015625e-03
-4.948750e-10,2.000000e-03
-4.908750e-10,6.250000e-04
-4.868750e-10,1.250000e-03
-4.828750e-10,4.687500e-04
-4.788750e-10,1.375000e-03
-4.748750e-10,1.250000e-03
-4.708750e-10,9.375000e-04
-4.668750e-10,3.281250e-04
-4.628750e-10,6.250000e-04
-4.588750e-10,1.875000e-04
-4.548750e-10,1.875000e-04
-4.508750e-10,6.250000e-04
-4.468750e-10,7.500000e-04
-4.428750e-10,6.718750e-04
-4.388750e-10,2.968750e-04
-4.348750e-10,3.906250e-04
-4.308750e-10,8.906250e-04
-4.268750e-10,5.625000e-04
-4.228750e-10,1.296875e-03
-4.188750e-10,1.562500e-03
-4.148750e-10,1.843750e-03
-4.108750e-10,7.656250e-04
-4.068750e-10,1.609375e-03
-4.028750e-10,1.109375e-03
-3.988750e-10,2.265625e-03
-3.948750e-10,2.390625e-03
-3.908750e-10,2.296875e-03
-3.868750e-10,1.906250e-03
-3.828750e-10,2.437500e-03
-3.788750e-10,2.250000e-03
-3.748750e-10,2.375000e-03
-3.708750e-10,3.000000e-03
-3.668750e-10,3.281250e-03
-3.628750e-10,3.281250e-03
-3.588750e-10,3.093750e-03
-3.548750e-10,3.343750e-03
-3.508750e-10,3.968750e-03
-3.468750e-10,3.703125e-03
-3.428750e-10,4.515625e-03
-3.388750e-10,4.906250e-03
-3.348750e-10,5.250000e-03
-3.308750e-10,4.265625e-03
-3.268750e-10,5.125000e-03
-3.228750e-10,4.656250e-03
-3.188750e-10,5.875000e-03
-3.148750e-10,6.000000e-03
-3.108750e-10,5.937500e-03
-3.068750e-10,5.609375e-03
-3.028750e-10,6.156250e-03
-2.988750e-10,6.000000e-03
-2.948750e-10,6.093750e-03
-2.908750e-10,6.687500e-03
-2.868750e-10,6.984375e-03
-2.828750e-10,6.937500e-03
-2.788750e-10,6.765625e-03
-2.748750e-10,6.968750e-03
-2.708750e-10,7.562500e-03
-2.668750e-10,7.281250e-03
-2.628750e-10,8.000000e-03
-2.588750e-10,8.375000e-03
-2.548750e-10,8.640625e-03
-2.508750e-10,7.625000e-03
-2.468750e-10,8.390625e-03
-2.428750e-10,7.781250e-03
-2.388750e-10,8.921875e-03
-2.348750e-10,8.890625e-03
-2.308750e-10,8.703125e-03
-2.268750e-10,8.265625e-03
-2.228750e-10,8.656250e-03
-2.188750e-10,8.312500e-03
-2.148750e-10,8.234375e-03
-2.108750e-10,8.578125e-03
-2.068750e-10,8.656250e-03
-2.028750e-10,8.359375e-03
-1.988750e-10,7.968750e-03
-1.948750e-10,7.890625e-03
-1.908750e-10,8.156250e-03
-1.868750e-10,7.609375e-03
-1.828750e-10,8.000000e-03
-1.788750e-10,8.062500e-03
-1.748750e-10,8.015625e-03
-1.708750e-10,6.718750e-03
-1.668750e-10,7.171875e-03
-1.628750e-10,6.187500e-03
-1.588750e-10,7.062500e-03
-1.548750e-10,6.671875e-03
-1.508750e-10,6.218750e-03
-1.468750e-10,5.515625e-03
-1.428750e-10,5.671875e-03
-1.388750e-10,5.078125e-03
-1.348750e-10,4.859375e-03
-1.308750e-10,5.031250e-03
-1.268750e-10,5.015625e-03
-1.228750e-10,4.656250e-03
-1.188750e-10,4.281250e-03
-1.148750e-10,4.250000e-03
-1.108750e-10,4.562500e-03
-1.068750e-10,4.234375e-03
-1.028750e-10,4.921875e-03
-9.887500e-11,5.296875e-03
-9.487500e-11,5.750000e-03
-9.087500e-11,5.031250e-03
-8.687500e-11,6.125000e-03
-8.287500e-11,5.843750e-03
-7.887500e-11,7.625000e-03
-7.487500e-11,8.140625e-03
-7.087500e-11,8.781250e-03
-6.687500e-11,9.296875e-03
-6.287500e-11,1.078125e-02
-5.887500e-11,1.164063e-02
-5.487500e-11,1.300000e-02
-5.087500e-11,1.485938e-02
-4.687500e-11,1.671875e-02
-4.287500e-11,1.828125e-02
-3.887500e-11,1.998438e-02
-3.487500e-11,2.210938e-02
-3.087500e-11,2.468750e-02
-2.687500e-11,2.676563e-02
-2.287500e-11,2.998438e-02
-1.887500e-11,3.296875e-02
-1.487500e-11,3.618750e-02
-1.087500e-11,3.831250e-02
-6.875000e-12,4.228125e-02
-2.875000e-12,4.495313e-02
1.125000e-12,4.978125e-02
5.125000e-12,5.331250e-02
9.125000e-12,5.714063e-02
1.312500e-11,6.079688e-02
1.712500e-11,6.543750e-02
2.112500e-11,6.950000e-02
2.512500e-11,7.401563e-02
2.912500e-11,7.906250e-02
3.312500e-11,8.410938e-02
3.712500e-11,8.871875e-02
4.112500e-11,9.345313e-02
4.512500e-11,9.853125e-02
4.912500e-11,1.039688e-01
5.312500e-11,1.088594e-01
5.712500e-11,1.147500e-01
6.112500e-11,1.202500e-01
6.512500e-11,1.259375e-01
6.912500e-11,1.303125e-01
7.312500e-11,1.364063e-01
7.712500e-11,1.410156e-01
8.112500e-11,1.475781e-01
8.512500e-11,1.526406e-01
8.912500e-11,1.578750e-01
9.312500e-11,1.626406e-01
9.712500e-11,1.681563e-01
1.011250e-10,1.729375e-01
1.051250e-10,1.779375e-01
1.091250e-10,1.832031e-01
1.131250e-10,1.883125e-01
1.171250e-10,1.926250e-01
1.211250e-10,1.968594e-01
1.251250e-10,2.012031e-01
1.291250e-10,2.056563e-01
1.331250e-10,2.093750e-01
1.371250e-10,2.137813e-01
1.411250e-10,2.175469e-01
1.451250e-10,2.213281e-01
1.491250e-10,2.235000e-01
1.531250e-10,2.272500e-01
1.571250e-10,2.292656e-01
1.611250e-10,2.330156e-01
1.651250e-10,2.350313e-01
1.691250e-10,2.370938e-01
1.731250e-10,2.384688e-01
1.771250e-10,2.404375e-01
1.811250e-10,2.415625e-01
1.851250e-10,2.427500e-01
1.891250e-10,2.440469e-01
1.931250e-10,2.451250e-01
1.971250e-10,2.452500e-01
2.011250e-10,2.452031e-01
2.051250e-10,2.452500e-01
2.091250e-10,2.453281e-01
2.131250e-10,2.446406e-01
2.171250e-10,2.445781e-01
2.211250e-10,2.438281e-01
2.251250e-10,2.431563e-01
2.291250e-10,2.408438e-01
2.331250e-10,2.401875e-01
2.371250e-10,2.378438e-01
2.411250e-10,2.371875e-01
2.451250e-10,2.349219e-01
2.491250e-10,2.327500e-01
2.531250e-10,2.299688e-01
2.571250e-10,2.279063e-01
2.611250e-10,2.251406e-01
2.651250e-10,2.225313e-01
2.691250e-10,2.201094e-01
2.731250e-10,2.176250e-01
2.771250e-10,2.143281e-01
2.811250e-10,2.109375e-01
2.851250e-10,2.078594e-01
2.891250e-10,2.049844e-01
2.931250e-10,2.014219e-01
2.971250e-10,1.986406e-01
3.011250e-10,1.953750e-01
3.051250e-10,1.923281e-01
3.091250e-10,1.877500e-01
3.131250e-10,1.850781e-01
3.171250e-10,1.808906e-01
3.211250e-10,1.784531e-01
3.251250e-10,1.746250e-01
3.291250e-10,1.710000e-01
3.331250e-10,1.669219e-01
3.371250e-10,1.637656e-01
3.411250e-10,1.600469e-01
3.451250e-10,1.565938e-01
3.491250e-10,1.534375e-01
3.531250e-10,1.503438e-01
3.571250e-10,1.466406e-01
3.611250e-10,1.429219e-01
3.651250e-10,1.396094e-01
3.691250e-10,1.366563e-01
3.731250e-10,1.330469e-01
3.771250e-10,1.303438e-01
3.811250e-10,1.272813e-01
3.851250e-10,1.245000e-01
3.891250e-10,1.202500e-01
3.931250e-10,1.180313e-01
3.971250e-10,1.143750e-01
4.011250e-10,1.124844e-01
4.051250e-10,1.093125e-01
4.091250e-10,1.063750e-01
4.131250e-10,1.030313e-01
4.171250e-10,1.006719e-01
4.211250e-10,9.778125e-02
4.251250e-10,9.520313e-02
4.291250e-10,9.292188e-02
4.331250e-10,9.073438e-02
4.371250e-10,8.806250e-02
4.411250e-10,8.534375e-02
4.451250e-10,8.301563e-02
4.491250e-10,8.112500e-02
4.531250e-10,7.856250e-02
4.571250e-10,7.689063e-02
4.611250e-10,7.493750e-02
4.651250e-10,7.318750e-02
4.691250e-10,7.003125e-02
4.731250e-10,6.892188e-02
4.771250e-10,6.637500e-02
4.811250e-10,6.559375e-02
4.851250e-10,6.357813e-02
4.891250e-10,6.170313e-02
4.931250e-10,5.948438e-02
4.971250e-10,5.821875e-02
5.011250e-10,5.637500e-02
5.051250e-10,5.490625e-02
5.091250e-10,5.368750e-02
5.131250e-10,5.253125e-02
5.171250e-10,5.096875e-02
5.211250e-10,4.931250e-02
5.251250e-10,4.803125e-02
5.291250e-10,4.715625e-02
5.331250e-10,4.557813e-02
5.371250e-10,4.485938e-02
5.411250e-10,4.390625e-02
5.451250e-10,4.306250e-02
5.491250e-10,4.084375e-02
5.531250e-10,4.062500e-02
5.571250e-10,3.896875e-02
5.611250e-10,3.904688e-02
5.651250e-10,3.792188e-02
5.691250e-10,3.678125e-02
5.731250e-10,3.535938e-02
5.771250e-10,3.487500e-02
5.811250e-10,3.370313e-02
5.851250e-10,3.287500e-02
5.891250e-10,3.234375e-02
5.931250e-10,3.181250e-02
5.971250e-10,3.089063e-02
6.011250e-10,2.978125e-02
6.051250e-10,2.909375e-02
6.091250e-10,2.870313e-02
6.131250e-10,2.762500e-02
6.171250e-10,2.737500e-02
6.211250e-10,2.687500e-02
6.251250e-10,2.639063e-02
6.291250e-10,2.459375e-02
6.331250e-10,2.467188e-02
6.371250e-10,2.339063e-02
6.411250e-10,2.381250e-02
6.451250e-10,2.300000e-02
6.491250e-10,2.212500e-02
6.531250e-10,2.093750e-02
6.571250e-10,2.075000e-02
6.611250e-10,1.976563e-02
6.651250e-10,1.912500e-02
6.691250e-10,1.882813e-02
6.731250e-10,1.851563e-02
6.771250e-10,1.781250e-02
6.811250e-10,1.687500e-02
6.851250e-10,1.642188e-02
6.891250e-10,1.621875e-02
6.931250e-10,1.534375e-02
6.971250e-10,1.532813e-02
7.011250e-10,1.509375e-02
7.051250e-10,1.475000e-02
7.091250e-10,1.323438e-02
7.131250e-10,1.351563e-02
7.171250e-10,1.248438e-02
7.211250e-10,1.320313e-02
7.251250e-10,1.268750e-02
7.291250e-10,1.214063e-02
7.331250e-10,1.121875e-02
7.371250e-10,1.137500e-02
7.411250e-10,1.068750e-02
7.451250e-10,1.035938e-02
7.491250e-10,1.046875e-02
7.531250e-10,1.051563e-02
7.571250e-10,1.021875e-02
7.611250e-10,9.640625e-03
7.651250e-10,9.578125e-03
7.691250e-10,9.781250e-03
7.731250e-10,9.328125e-03
7.771250e-10,9.781250e-03
7.811250e-10,9.984375e-03
7.851250e-10,1.001563e-02
7.891250e-10,8.937500e-03
7.931250e-10,9.609375e-03
7.971250e-10,8.953125e-03
8.011250e-10,1.014063e-02
8.051250e-10,1.001563e-02
8.091250e-10,9.890625e-03
8.131250e-10,9.328125e-03
8.171250e-10,9.828125e-03
8.211250e-10,9.468750e-03
8.251250e-10,9.500000e-03
8.291250e-10,9.937500e-03
8.331250e-10,1.020313e-02
8.371250e-10,1.018750e-02
8.411250e-10,9.843750e-03
8.451250e-10,9.937500e-03
8.491250e-10,1.039063e-02
8.531250e-10,1.010938e-02
8.571250e-10,1.071875e-02
8.611250e-10,1.101563e-02
8.651250e-10,1.110938e-02
8.691250e-10,1.012500e-02
8.731250e-10,1.078125e-02
8.771250e-10,1.009375e-02
8.811250e-10,1.129688e-02
8.851250e-10,1.114063e-02
8.891250e-10,1.095313e-02
8.931250e-10,1.031250e-02
8.971250e-10,1.065625e-02
9.011250e-10,1.020313e-02
9.051250e-10,1.012500e-02
9.091250e-10,1.045313e-02
9.131250e-10,1.045313e-02
9.171250e-10,1.028125e-02
9.211250e-10,9.765625e-03
9.251250e-10,9.625000e-03
9.291250e-10,9.921875e-03
9.331250e-10,9.484375e-03
9.371250e-10,9.890625e-03
9.411250e-10,9.953125e-03
9.451250e-10,9.875000e-03
9.491250e-10,8.750000e-03
9.531250e-10,9.250000e-03
9.571250e-10,8.343750e-03
9.611250e-10,9.437500e-03
9.651250e-10,9.156250e-03
9.691250e-10,8.828125e-03
9.731250e-10,8.125000e-03
9.771250e-10,8.375000e-03
9.811250e-10,7.875000e-03
9.851250e-10,7.781250e-03
9.891250e-10,8.125000e-03
9.931250e-10,8.062500e-03
9.971250e-10,7.906250e-03
1.001125e-09,7.453125e-03
1.005125e-09,7.328125e-03
1.009125e-09,7.750000e-03
1.013125e-09,7.390625e-03
1.017125e-09,7.921875e-03
1.021125e-09,8.109375e-03
1.025125e-09,8.203125e-03
1.029125e-09,7.250000e-03
1.033125e-09,7.984375e-03
1.037125e-09,7.250000e-03
1.041125e-09,8.500000e-03
1.045125e-09,8.421875e-03
1.049125e-09,8.312500e-03
1.053125e-09,7.843750e-03
1.057125e-09,8.328125e-03
1.061125e-09,8.062500e-03
1.065125e-09,8.218750e-03
1.069125e-09,8.781250e-03
1.073125e-09,8.968750e-03
1.077125e-09,8.984375e-03
1.081125e-09,8.765625e-03
1.085125e-09,8.843750e-03
1.089125e-09,9.437500e-03
1.093125e-09,9.265625e-03
1.097125e-09,9.953125e-03
1.101125e-09,1.031250e-02
1.105125e-09,1.057813e-02
1.109125e-09,9.750000e-03
1.113125e-09,1.064063e-02
1.117125e-09,1.000000e-02
1.121125e-09,1.132813e-02
1.125125e-09,1.129688e-02
1.129125e-09,1.125000e-02
1.133125e-09,1.079688e-02
1.137125e-09,1.132813e-02
1.141125e-09,1.106250e-02
1.145125e-09,1.120313e-02
1.149125e-09,1.175000e-02
1.153125e-09,1.195313e-02
1.157125e-09,1.189063e-02
1.161125e-09,1.160938e-02
1.165125e-09,1.164063e-02
1.169125e-09,1.215625e-02
1.173125e-09,1.187500e-02
1.177125e-09,1.248438e-02
1.181125e-09,1.275000e-02
1.185125e-09,1.293750e-02
1.189125e-09,1.196875e-02
1.193125e-09,1.278125e-02
1.197125e-09,1.203125e-02
1.201125e-09,1.323438e-02
1.205125e-09,1.307813e-02
1.209125e-09,1.292188e-02
1.213125e-09,1.235938e-02
1.217125e-09,1.276563e-02
1.221125e-09,1.240625e-02
1.225125e-09,1.243750e-02
1.229125e-09,1.287500e-02
1.233125e-09,1.301563e-02
1.237125e-09,1.284375e-02
1.241125e-09,1.246875e-02
1.245125e-09,1.243750e-02
1.249125e-09,1.285938e-02
1.253125e-09,1.248438e-02
1.257125e-09,1.304688e-02
1.261125e-09,1.323438e-02
1.265125e-09,1.339063e-02
1.269125e-09,1.228125e-02
1.273125e-09,1.306250e-02
1.277125e-09,1.223438e-02
1.281125e-09,1.339063e-02
1.285125e-09,1.317188e-02
1.289125e-09,1.293750e-02
1.293125e-09,1.229688e-02
1.297125e-09,1.265625e-02
1.301125e-09,1.220313e-02
1.305125e-09,1.215625e-02
1.309125e-09,1.250000e-02
1.313125e-09,1.259375e-02
1.317125e-09,1.232813e-02
1.321125e-09,1.184375e-02
1.325125e-09,1.171875e-02
1.329125e-09,1.203125e-02
1.333125e-09,1.153125e-02
1.337125e-09,1.200000e-02
1.341125e-09,1.206250e-02
1.345125e-09,1.210938e-02
1.349125e-09,1.082813e-02
1.353125e-09,1.146875e-02
1.357125e-09,1.050000e-02
1.361125e-09,1.153125e-02
1.365125e-09,1.115625e-02
1.369125e-09,1.076563e-02
1.373125e-09,9.984375e-03
1.377125e-09,1.018750e-02
1.381125e-09,9.609375e-03
1.385125e-09,9.406250e-03
1.389125e-09,9.609375e-03
1.393125e-09,9.593750e-03
1.397125e-09,9.187500e-03
1.401125e-09,8.578125e-03
1.405125e-09,8.359375e-03
1.409125e-09,8.562500e-03
1.413125e-09,7.968750e-03
1.417125e-09,8.359375e-03
1.421125e-09,8.359375e-03
1.425125e-09,8.375000e-03
1.429125e-09,7.015625e-03
1.433125e-09,7.640625e-03
1.437125e-09,6.671875e-03
1.441125e-09,7.718750e-03
1.445125e-09,7.375000e-03
1.449125e-09,7.031250e-03
1.453125e-09,6.296875e-03
1.457125e-09,6.593750e-03
1.461125e-09,6.093750e-03
1.465125e-09,6.000000e-03
1.469125e-09,6.328125e-03
1.473125e-09,6.453125e-03
1.477125e-09,6.203125e-03
1.481125e-09,5.765625e-03
1.485125e-09,5.734375e-03
1.489125e-09,6.140625e-03
1.493125e-09,5.734375e-03
1.497125e-09,6.343750e-03
1.501125e-09,6.578125e-03
1.505125e-09,6.812500e-03
1.509125e-09,5.671875e-03
1.513125e-09,6.531250e-03
1.517125e-09,5.796875e-03
1.521125e-09,7.062500e-03
1.525125e-09,6.953125e-03
1.529125e-09,6.843750e-03
1.533125e-09,6.343750e-03
1.537125e-09,6.843750e-03
1.541125e-09,6.546875e-03
1.545125e-09,6.656250e-03
1.549125e-09,7.156250e-03
1.553125e-09,7.468750e-03
1.557125e-09,7.390625e-03
1.561125e-09,7.093750e-03
1.565125e-09,7.187500e-03
1.569125e-09,7.703125e-03
1.573125e-09,7.406250e-03
1.577125e-09,8.093750e-03
1.581125e-09,8.390625e-03
1.585125e-09,8.671875e-03
1.589125e-09,7.546875e-03
1.593125e-09,8.421875e-03
1.597125e-09,7.671875e-03
1.601125e-09,8.937500e-03
1.605125e-09,8.781250e-03
1.609125e-09,8.609375e-03
1.613125e-09,8.031250e-03
1.617125e-09,8.453125e-03
1.621125e-09,8.062500e-03
1.625125e-09,8.062500e-03
1.629125e-09,8.453125e-03
1.633125e-09,8.640625e-03
1.637125e-09,8.421875e-03
1.641125e-09,7.984375e-03
1.645125e-09,7.953125e-03
1.649125e-09,8.312500e-03
1.653125e-09,7.859375e-03
1.657125e-09,8.406250e-03
1.661125e-09,8.546875e-03
1.665125e-09,8.687500e-03
1.669125e-09,7.421875e-03
1.673125e-09,8.171875e-03
1.677125e-09,7.296875e-03
1.681125e-09,8.437500e-03
1.685125e-09,8.187500e-03
1.689125e-09,7.921875e-03
1.693125e-09,7.250000e-03
1.697125e-09,7.593750e-03
1.701125e-09,7.140625e-03
1.705125e-09,7.093750e-03
1.709125e-09,7.453125e-03
1.713125e-09,7.609375e-03
1.717125e-09,7.375000e-03
1.721125e-09,6.953125e-03
1.725125e-09,6.921875e-03
1.729125e-09,7.312500e-03
1.733125e-09,6.906250e-03
1.737125e-09,7.500000e-03
1.741125e-09,7.703125e-03
1.745125e-09,7.906250e-03
1.749125e-09,6.718750e-03
1.753125e-09,7.546875e-03
1.757125e-09,6.765625e-03
