Measurements-streak-laser-independent/Photodiode-on-Tek-12bit-4GHz/Tek000_ch1_20190613132926474.csv

Model,MSO64
Waveform Type,ANALOG
Horizontal Units,s
Sample Interval,4.000000e-12
Record Length,1000
Zero Index,310.921875
Vertical Units,V

TIME,CH1
-1.243687e-09,6.015625e-03
-1.239687e-09,6.781250e-03
-1.235687e-09,5.906250e-03
-1.231687e-09,7.062500e-03
-1.227687e-09,6.796875e-03
-1.223687e-09,6.531250e-03
-1.219687e-09,5.843750e-03
-1.215687e-09,6.171875e-03
-1.211688e-09,5.703125e-03
-1.207688e-09,5.625000e-03
-1.203688e-09,5.953125e-03
-1.199688e-09,6.078125e-03
-1.195688e-09,5.796875e-03
-1.191688e-09,5.312500e-03
-1.187687e-09,5.250000e-03
-1.183687e-09,5.593750e-03
-1.179687e-09,5.125000e-03
-1.175687e-09,5.671875e-03
-1.171687e-09,5.812500e-03
-1.167687e-09,5.968750e-03
-1.163687e-09,4.703125e-03
-1.159687e-09,5.484375e-03
-1.155687e-09,4.640625e-03
-1.151688e-09,5.828125e-03
-1.147688e-09,5.609375e-03
-1.143688e-09,5.406250e-03
-1.139688e-09,4.781250e-03
-1.135688e-09,5.187500e-03
-1.131688e-09,4.796875e-03
-1.127687e-09,4.812500e-03
-1.123687e-09,5.234375e-03
-1.119687e-09,5.468750e-03
-1.115687e-09,5.296875e-03
-1.111687e-09,4.921875e-03
-1.107687e-09,4.968750e-03
-1.103687e-09,5.421875e-03
-1.099687e-09,5.062500e-03
-1.095687e-09,5.718750e-03
-1.091688e-09,5.968750e-03
-1.087688e-09,6.234375e-03
-1.083688e-09,5.062500e-03
-1.079688e-09,5.937500e-03
-1.075688e-09,5.171875e-03
-1.071688e-09,6.437500e-03
-1.067687e-09,6.296875e-03
-1.063687e-09,6.140625e-03
-1.059687e-09,5.578125e-03
-1.055687e-09,6.015625e-03
-1.051687e-09,5.640625e-03
-1.047687e-09,5.671875e-03
-1.043687e-09,6.109375e-03
-1.039687e-09,6.312500e-03
-1.035687e-09,6.125000e-03
-1.031688e-09,5.718750e-03
-1.027688e-09,5.718750e-03
-1.023688e-09,6.109375e-03
-1.019688e-09,5.687500e-03
-1.015688e-09,6.265625e-03
-1.011688e-09,6.421875e-03
-1.007687e-09,6.578125e-03
-1.003687e-09,5.312500e-03
-9.996875e-10,6.062500e-03
-9.956875e-10,5.171875e-03
-9.916875e-10,6.312500e-03
-9.876875e-10,6.031250e-03
-9.836875e-10,5.734375e-03
-9.796875e-10,5.031250e-03
-9.756875e-10,5.328125e-03
-9.716875e-10,4.812500e-03
-9.676875e-10,4.703125e-03
-9.636875e-10,5.000000e-03
-9.596875e-10,5.078125e-03
-9.556875e-10,4.765625e-03
-9.516875e-10,4.234375e-03
-9.476875e-10,4.125000e-03
-9.436875e-10,4.406250e-03
-9.396875e-10,3.890625e-03
-9.356875e-10,4.390625e-03
-9.316875e-10,4.484375e-03
-9.276875e-10,4.578125e-03
-9.236875e-10,3.265625e-03
-9.196875e-10,3.984375e-03
-9.156875e-10,3.093750e-03
-9.116875e-10,4.187500e-03
-9.076875e-10,3.921875e-03
-9.036875e-10,3.656250e-03
-8.996875e-10,3.000000e-03
-8.956875e-10,3.375000e-03
-8.916875e-10,2.937500e-03
-8.876875e-10,2.921875e-03
-8.836875e-10,3.328125e-03
-8.796875e-10,3.531250e-03
-8.756875e-10,3.343750e-03
-8.716875e-10,2.968750e-03
-8.676875e-10,3.015625e-03
-8.636875e-10,3.468750e-03
-8.596875e-10,3.125000e-03
-8.556875e-10,3.812500e-03
-8.516875e-10,4.093750e-03
-8.476875e-10,4.390625e-03
-8.436875e-10,3.312500e-03
-8.396875e-10,4.234375e-03
-8.356875e-10,3.546875e-03
-8.316875e-10,4.796875e-03
-8.276875e-10,4.765625e-03
-8.236875e-10,4.703125e-03
-8.196875e-10,4.281250e-03
-8.156875e-10,4.828125e-03
-8.116875e-10,4.578125e-03
-8.076875e-10,4.765625e-03
-8.036875e-10,5.312500e-03
-7.996875e-10,5.671875e-03
-7.956875e-10,5.671875e-03
-7.916875e-10,5.406250e-03
-7.876875e-10,5.546875e-03
-7.836875e-10,6.093750e-03
-7.796875e-10,5.828125e-03
-7.756875e-10,6.562500e-03
-7.716875e-10,6.890625e-03
-7.676875e-10,7.203125e-03
-7.636875e-10,6.140625e-03
-7.596875e-10,7.046875e-03
-7.556875e-10,6.328125e-03
-7.516875e-10,7.453125e-03
-7.476875e-10,7.375000e-03
-7.436875e-10,7.218750e-03
-7.396875e-10,6.703125e-03
-7.356875e-10,7.093750e-03
-7.316875e-10,6.656250e-03
-7.276875e-10,6.703125e-03
-7.236875e-10,7.046875e-03
-7.196875e-10,7.171875e-03
-7.156875e-10,7.015625e-03
-7.116875e-10,6.515625e-03
-7.076875e-10,6.390625e-03
-7.036875e-10,6.671875e-03
-6.996875e-10,6.171875e-03
-6.956875e-10,6.625000e-03
-6.916875e-10,6.687500e-03
-6.876875e-10,6.703125e-03
-6.836875e-10,5.359375e-03
-6.796875e-10,6.015625e-03
-6.756875e-10,5.062500e-03
-6.716875e-10,5.890625e-03
-6.676875e-10,5.578125e-03
-6.636875e-10,5.203125e-03
-6.596875e-10,4.468750e-03
-6.556875e-10,4.609375e-03
-6.516875e-10,3.937500e-03
-6.476875e-10,3.828125e-03
-6.436875e-10,4.015625e-03
-6.396875e-10,3.953125e-03
-6.356875e-10,3.750000e-03
-6.316875e-10,3.125000e-03
-6.276875e-10,2.921875e-03
-6.236875e-10,3.125000e-03
-6.196875e-10,2.625000e-03
-6.156875e-10,3.062500e-03
-6.116875e-10,3.156250e-03
-6.076875e-10,3.203125e-03
-6.036875e-10,1.906250e-03
-5.996875e-10,2.656250e-03
-5.956875e-10,1.890625e-03
-5.916875e-10,2.843750e-03
-5.876875e-10,2.734375e-03
-5.836875e-10,2.562500e-03
-5.796875e-10,2.046875e-03
-5.756875e-10,2.421875e-03
-5.716875e-10,2.000000e-03
-5.676875e-10,2.171875e-03
-5.636875e-10,2.671875e-03
-5.596875e-10,2.890625e-03
-5.556875e-10,3.000000e-03
-5.516875e-10,2.718750e-03
-5.476875e-10,2.859375e-03
-5.436875e-10,3.421875e-03
-5.396875e-10,3.281250e-03
-5.356875e-10,4.078125e-03
-5.316875e-10,4.484375e-03
-5.276875e-10,4.875000e-03
-5.236875e-10,3.890625e-03
-5.196875e-10,4.937500e-03
-5.156875e-10,4.531250e-03
-5.116875e-10,5.781250e-03
-5.076875e-10,5.984375e-03
-5.036875e-10,6.046875e-03
-4.996875e-10,5.750000e-03
-4.956875e-10,6.328125e-03
-4.916875e-10,6.140625e-03
-4.876875e-10,6.437500e-03
-4.836875e-10,7.093750e-03
-4.796875e-10,7.406250e-03
-4.756875e-10,7.562500e-03
-4.716875e-10,7.328125e-03
-4.676875e-10,7.531250e-03
-4.636875e-10,8.109375e-03
-4.596875e-10,7.875000e-03
-4.556875e-10,8.625000e-03
-4.516875e-10,8.906250e-03
-4.476875e-10,9.156250e-03
-4.436875e-10,8.015625e-03
-4.396875e-10,8.796875e-03
-4.356875e-10,8.187500e-03
-4.316875e-10,9.187500e-03
-4.276875e-10,9.156250e-03
-4.236875e-10,8.875000e-03
-4.196875e-10,8.265625e-03
-4.156875e-10,8.515625e-03
-4.116875e-10,8.046875e-03
-4.076875e-10,7.906250e-03
-4.036875e-10,8.218750e-03
-3.996875e-10,8.156250e-03
-3.956875e-10,7.843750e-03
-3.916875e-10,7.265625e-03
-3.876875e-10,7.125000e-03
-3.836875e-10,7.359375e-03
-3.796875e-10,6.703125e-03
-3.756875e-10,7.109375e-03
-3.716875e-10,7.062500e-03
-3.676875e-10,6.984375e-03
-3.636875e-10,5.562500e-03
-3.596875e-10,6.015625e-03
-3.556875e-10,5.125000e-03
-3.516875e-10,5.921875e-03
-3.476875e-10,5.656250e-03
-3.436875e-10,5.187500e-03
-3.396875e-10,4.453125e-03
-3.356875e-10,4.609375e-03
-3.316875e-10,4.093750e-03
-3.276875e-10,3.843750e-03
-3.236875e-10,4.125000e-03
-3.196875e-10,4.093750e-03
-3.156875e-10,3.765625e-03
-3.116875e-10,3.296875e-03
-3.076875e-10,3.281250e-03
-3.036875e-10,3.656250e-03
-2.996875e-10,3.156250e-03
-2.956875e-10,3.718750e-03
-2.916875e-10,3.937500e-03
-2.876875e-10,4.078125e-03
-2.836875e-10,2.953125e-03
-2.796875e-10,3.640625e-03
-2.756875e-10,3.015625e-03
-2.716875e-10,4.125000e-03
-2.676875e-10,4.140625e-03
-2.636875e-10,3.984375e-03
-2.596875e-10,3.609375e-03
-2.556875e-10,4.062500e-03
-2.516875e-10,3.859375e-03
-2.476875e-10,3.906250e-03
-2.436875e-10,4.437500e-03
-2.396875e-10,4.656250e-03
-2.356875e-10,4.562500e-03
-2.316875e-10,4.375000e-03
-2.276875e-10,4.531250e-03
-2.236875e-10,5.062500e-03
-2.196875e-10,4.734375e-03
-2.156875e-10,5.390625e-03
-2.116875e-10,5.718750e-03
-2.076875e-10,5.921875e-03
-2.036875e-10,4.859375e-03
-1.996875e-10,5.546875e-03
-1.956875e-10,4.843750e-03
-1.916875e-10,5.921875e-03
-1.876875e-10,5.781250e-03
-1.836875e-10,5.515625e-03
-1.796875e-10,5.015625e-03
-1.756875e-10,5.312500e-03
-1.716875e-10,4.875000e-03
-1.676875e-10,4.750000e-03
-1.636875e-10,5.000000e-03
-1.596875e-10,5.015625e-03
-1.556875e-10,4.656250e-03
-1.516875e-10,4.265625e-03
-1.476875e-10,4.140625e-03
-1.436875e-10,4.375000e-03
-1.396875e-10,3.875000e-03
-1.356875e-10,4.328125e-03
-1.316875e-10,4.468750e-03
-1.276875e-10,4.562500e-03
-1.236875e-10,3.453125e-03
-1.196875e-10,4.093750e-03
-1.156875e-10,3.359375e-03
-1.116875e-10,4.562500e-03
-1.076875e-10,4.484375e-03
-1.036875e-10,4.468750e-03
-9.968750e-11,4.265625e-03
-9.568750e-11,4.953125e-03
-9.168750e-11,4.968750e-03
-8.768750e-11,5.437500e-03
-8.368750e-11,6.343750e-03
-7.968750e-11,7.156250e-03
-7.568750e-11,7.671875e-03
-7.168750e-11,8.281250e-03
-6.768750e-11,9.250000e-03
-6.368750e-11,1.065625e-02
-5.968750e-11,1.150000e-02
-5.568750e-11,1.343750e-02
-5.168750e-11,1.512500e-02
-4.768750e-11,1.698438e-02
-4.368750e-11,1.773438e-02
-3.968750e-11,2.032813e-02
-3.568750e-11,2.160938e-02
-3.168750e-11,2.501563e-02
-2.768750e-11,2.717188e-02
-2.368750e-11,2.956250e-02
-1.968750e-11,3.182813e-02
-1.568750e-11,3.509375e-02
-1.168750e-11,3.778125e-02
-7.687500e-12,4.096875e-02
-3.687500e-12,4.468750e-02
3.125000e-13,4.840625e-02
4.312500e-12,5.179688e-02
8.312500e-12,5.537500e-02
1.231250e-11,5.932813e-02
1.631250e-11,6.368750e-02
2.031250e-11,6.754688e-02
2.431250e-11,7.251563e-02
2.831250e-11,7.717188e-02
3.231250e-11,8.206250e-02
3.631250e-11,8.578125e-02
4.031250e-11,9.126563e-02
4.431250e-11,9.535938e-02
4.831250e-11,1.015469e-01
5.231250e-11,1.063281e-01
5.631250e-11,1.113594e-01
6.031250e-11,1.160625e-01
6.431250e-11,1.216563e-01
6.831250e-11,1.265938e-01
7.231250e-11,1.318594e-01
7.631250e-11,1.375313e-01
8.031250e-11,1.431250e-01
8.431250e-11,1.480938e-01
8.831250e-11,1.531094e-01
9.231250e-11,1.583438e-01
9.631250e-11,1.637813e-01
1.003125e-10,1.685781e-01
1.043125e-10,1.742500e-01
1.083125e-10,1.793750e-01
1.123125e-10,1.845938e-01
1.163125e-10,1.883750e-01
1.203125e-10,1.937656e-01
1.243125e-10,1.975469e-01
1.283125e-10,2.031719e-01
1.323125e-10,2.071563e-01
1.363125e-10,2.112656e-01
1.403125e-10,2.147656e-01
1.443125e-10,2.189375e-01
1.483125e-10,2.223125e-01
1.523125e-10,2.258125e-01
1.563125e-10,2.295000e-01
1.603125e-10,2.330000e-01
1.643125e-10,2.355781e-01
1.683125e-10,2.380469e-01
1.723125e-10,2.405938e-01
1.763125e-10,2.432031e-01
1.803125e-10,2.450469e-01
1.843125e-10,2.475469e-01
1.883125e-10,2.493594e-01
1.923125e-10,2.512031e-01
1.963125e-10,2.514219e-01
2.003125e-10,2.532344e-01
2.043125e-10,2.533281e-01
2.083125e-10,2.550938e-01
2.123125e-10,2.551719e-01
2.163125e-10,2.553281e-01
2.203125e-10,2.548125e-01
2.243125e-10,2.549219e-01
2.283125e-10,2.542344e-01
2.323125e-10,2.536406e-01
2.363125e-10,2.531719e-01
2.403125e-10,2.525625e-01
2.443125e-10,2.510156e-01
2.483125e-10,2.493281e-01
2.523125e-10,2.478125e-01
2.563125e-10,2.463906e-01
2.603125e-10,2.442188e-01
2.643125e-10,2.427188e-01
2.683125e-10,2.405938e-01
2.723125e-10,2.386094e-01
2.763125e-10,2.350000e-01
2.803125e-10,2.331406e-01
2.843125e-10,2.296406e-01
2.883125e-10,2.278438e-01
2.923125e-10,2.245000e-01
2.963125e-10,2.212969e-01
3.003125e-10,2.175313e-01
3.043125e-10,2.145313e-01
3.083125e-10,2.108906e-01
3.123125e-10,2.074375e-01
3.163125e-10,2.041719e-01
3.203125e-10,2.009063e-01
3.243125e-10,1.968906e-01
3.283125e-10,1.928125e-01
3.323125e-10,1.890469e-01
3.363125e-10,1.855469e-01
3.403125e-10,1.813594e-01
3.443125e-10,1.780156e-01
3.483125e-10,1.742031e-01
3.523125e-10,1.706406e-01
3.563125e-10,1.655625e-01
3.603125e-10,1.624688e-01
3.643125e-10,1.578594e-01
3.683125e-10,1.550000e-01
3.723125e-10,1.508125e-01
3.763125e-10,1.468594e-01
3.803125e-10,1.424531e-01
3.843125e-10,1.390156e-01
3.883125e-10,1.350625e-01
3.923125e-10,1.313906e-01
3.963125e-10,1.280313e-01
4.003125e-10,1.247656e-01
4.043125e-10,1.209531e-01
4.083125e-10,1.171563e-01
4.123125e-10,1.137656e-01
4.163125e-10,1.107969e-01
4.203125e-10,1.071875e-01
4.243125e-10,1.045156e-01
4.283125e-10,1.015469e-01
4.323125e-10,9.885938e-02
4.363125e-10,9.476563e-02
4.403125e-10,9.276563e-02
4.443125e-10,8.934375e-02
4.483125e-10,8.770313e-02
4.523125e-10,8.485938e-02
4.563125e-10,8.225000e-02
4.603125e-10,7.929688e-02
4.643125e-10,7.734375e-02
4.683125e-10,7.490625e-02
4.723125e-10,7.281250e-02
4.763125e-10,7.103125e-02
4.803125e-10,6.937500e-02
4.843125e-10,6.729688e-02
4.883125e-10,6.520313e-02
4.923125e-10,6.350000e-02
4.963125e-10,6.225000e-02
5.003125e-10,6.034375e-02
5.043125e-10,5.934375e-02
5.083125e-10,5.809375e-02
5.123125e-10,5.703125e-02
5.163125e-10,5.460938e-02
5.203125e-10,5.421875e-02
5.243125e-10,5.240625e-02
5.283125e-10,5.232813e-02
5.323125e-10,5.106250e-02
5.363125e-10,4.985938e-02
5.403125e-10,4.835938e-02
5.443125e-10,4.778125e-02
5.483125e-10,4.659375e-02
5.523125e-10,4.573438e-02
5.563125e-10,4.514063e-02
5.603125e-10,4.459375e-02
5.643125e-10,4.360938e-02
5.683125e-10,4.248438e-02
5.723125e-10,4.173438e-02
5.763125e-10,4.131250e-02
5.803125e-10,4.018750e-02
5.843125e-10,3.985938e-02
5.883125e-10,3.928125e-02
5.923125e-10,3.873438e-02
5.963125e-10,3.682813e-02
6.003125e-10,3.682813e-02
6.043125e-10,3.540625e-02
6.083125e-10,3.565625e-02
6.123125e-10,3.467188e-02
6.163125e-10,3.362500e-02
6.203125e-10,3.225000e-02
6.243125e-10,3.179688e-02
6.283125e-10,3.059375e-02
6.323125e-10,2.970313e-02
6.363125e-10,2.909375e-02
6.403125e-10,2.848438e-02
6.443125e-10,2.745313e-02
6.483125e-10,2.617188e-02
6.523125e-10,2.534375e-02
6.563125e-10,2.475000e-02
6.603125e-10,2.346875e-02
6.643125e-10,2.301563e-02
6.683125e-10,2.234375e-02
6.723125e-10,2.157813e-02
6.763125e-10,1.957813e-02
6.803125e-10,1.940625e-02
6.843125e-10,1.790625e-02
6.883125e-10,1.812500e-02
6.923125e-10,1.710938e-02
6.963125e-10,1.604688e-02
7.003125e-10,1.465625e-02
7.043125e-10,1.431250e-02
7.083125e-10,1.314063e-02
7.123125e-10,1.234375e-02
7.163125e-10,1.195313e-02
7.203125e-10,1.153125e-02
7.243125e-10,1.078125e-02
7.283125e-10,9.765625e-03
7.323125e-10,9.296875e-03
7.363125e-10,9.078125e-03
7.403125e-10,8.218750e-03
7.443125e-10,8.265625e-03
7.483125e-10,8.109375e-03
7.523125e-10,7.812500e-03
7.563125e-10,6.437500e-03
7.603125e-10,6.812500e-03
7.643125e-10,5.937500e-03
7.683125e-10,6.843750e-03
7.723125e-10,6.531250e-03
7.763125e-10,6.187500e-03
7.803125e-10,5.468750e-03
7.843125e-10,5.859375e-03
7.883125e-10,5.390625e-03
7.923125e-10,5.328125e-03
7.963125e-10,5.687500e-03
8.003125e-10,5.968750e-03
8.043125e-10,5.937500e-03
8.083125e-10,5.593750e-03
8.123125e-10,5.781250e-03
8.163125e-10,6.250000e-03
8.203125e-10,6.046875e-03
8.243125e-10,6.734375e-03
8.283125e-10,7.156250e-03
8.323125e-10,7.375000e-03
8.363125e-10,6.515625e-03
8.403125e-10,7.328125e-03
8.443125e-10,6.828125e-03
8.483125e-10,8.187500e-03
8.523125e-10,8.203125e-03
8.563125e-10,8.187500e-03
8.603125e-10,7.718750e-03
8.643125e-10,8.265625e-03
8.683125e-10,7.984375e-03
8.723125e-10,8.046875e-03
8.763125e-10,8.531250e-03
8.803125e-10,8.750000e-03
8.843125e-10,8.718750e-03
8.883125e-10,8.343750e-03
8.923125e-10,8.375000e-03
8.963125e-10,8.796875e-03
9.003125e-10,8.453125e-03
9.043125e-10,8.968750e-03
9.083125e-10,9.156250e-03
9.123125e-10,9.140625e-03
9.163125e-10,8.062500e-03
9.203125e-10,8.609375e-03
9.243125e-10,7.781250e-03
9.283125e-10,8.875000e-03
9.323125e-10,8.609375e-03
9.363125e-10,8.296875e-03
9.403125e-10,7.562500e-03
9.443125e-10,7.796875e-03
9.483125e-10,7.250000e-03
9.523125e-10,7.109375e-03
9.563125e-10,7.375000e-03
9.603125e-10,7.281250e-03
9.643125e-10,7.062500e-03
9.683125e-10,6.515625e-03
9.723125e-10,6.343750e-03
9.763125e-10,6.671875e-03
9.803125e-10,6.250000e-03
9.843125e-10,6.687500e-03
9.883125e-10,6.812500e-03
9.923125e-10,6.812500e-03
9.963125e-10,5.781250e-03
1.000313e-09,6.406250e-03
1.004312e-09,5.625000e-03
1.008312e-09,6.843750e-03
1.012312e-09,6.734375e-03
1.016312e-09,6.593750e-03
1.020312e-09,6.093750e-03
1.024312e-09,6.546875e-03
1.028312e-09,6.281250e-03
1.032312e-09,6.421875e-03
1.036312e-09,7.015625e-03
1.040313e-09,7.203125e-03
1.044313e-09,7.281250e-03
1.048313e-09,7.093750e-03
1.052313e-09,7.234375e-03
1.056313e-09,7.921875e-03
1.060313e-09,7.843750e-03
1.064312e-09,8.609375e-03
1.068312e-09,9.046875e-03
1.072312e-09,9.406250e-03
1.076312e-09,8.703125e-03
1.080312e-09,9.687500e-03
1.084312e-09,9.156250e-03
1.088312e-09,1.062500e-02
1.092312e-09,1.071875e-02
1.096312e-09,1.079688e-02
1.100313e-09,1.046875e-02
1.104313e-09,1.109375e-02
1.108313e-09,1.095313e-02
1.112313e-09,1.120313e-02
1.116313e-09,1.184375e-02
1.120313e-09,1.209375e-02
1.124312e-09,1.212500e-02
1.128312e-09,1.190625e-02
1.132312e-09,1.196875e-02
1.136312e-09,1.253125e-02
1.140312e-09,1.229688e-02
1.144312e-09,1.290625e-02
1.148312e-09,1.315625e-02
1.152312e-09,1.329688e-02
1.156312e-09,1.231250e-02
1.160313e-09,1.306250e-02
1.164313e-09,1.223438e-02
1.168313e-09,1.334375e-02
1.172313e-09,1.309375e-02
1.176313e-09,1.281250e-02
1.180313e-09,1.210938e-02
1.184312e-09,1.237500e-02
1.188312e-09,1.185938e-02
1.192312e-09,1.171875e-02
1.196312e-09,1.196875e-02
1.200312e-09,1.190625e-02
1.204312e-09,1.156250e-02
1.208312e-09,1.098438e-02
1.212312e-09,1.071875e-02
1.216312e-09,1.095313e-02
1.220313e-09,1.037500e-02
1.224313e-09,1.073438e-02
1.228313e-09,1.071875e-02
1.232313e-09,1.067188e-02
1.236313e-09,9.437500e-03
1.240313e-09,1.003125e-02
1.244312e-09,9.062500e-03
1.248312e-09,1.007813e-02
1.252312e-09,9.734375e-03
1.256312e-09,9.406250e-03
1.260312e-09,8.687500e-03
1.264312e-09,8.984375e-03
1.268312e-09,8.500000e-03
1.272312e-09,8.453125e-03
1.276312e-09,8.812500e-03
1.280313e-09,8.937500e-03
1.284313e-09,8.750000e-03
1.288313e-09,8.375000e-03
1.292313e-09,8.375000e-03
1.296313e-09,8.843750e-03
1.300313e-09,8.531250e-03
1.304312e-09,9.187500e-03
1.308312e-09,9.500000e-03
1.312312e-09,9.796875e-03
1.316312e-09,8.843750e-03
1.320312e-09,9.781250e-03
1.324312e-09,9.156250e-03
1.328312e-09,1.053125e-02
1.332312e-09,1.053125e-02
1.336312e-09,1.054688e-02
1.340313e-09,1.015625e-02
1.344313e-09,1.078125e-02
1.348313e-09,1.062500e-02
1.352313e-09,1.085938e-02
1.356313e-09,1.150000e-02
1.360313e-09,1.190625e-02
1.364312e-09,1.193750e-02
1.368312e-09,1.178125e-02
1.372312e-09,1.198438e-02
1.376312e-09,1.260938e-02
1.380312e-09,1.242188e-02
1.384312e-09,1.320313e-02
1.388312e-09,1.357813e-02
1.392312e-09,1.393750e-02
1.396312e-09,1.293750e-02
1.400313e-09,1.387500e-02
1.404313e-09,1.318750e-02
1.408313e-09,1.450000e-02
1.412313e-09,1.437500e-02
1.416313e-09,1.425000e-02
1.420313e-09,1.368750e-02
1.424312e-09,1.410938e-02
1.428312e-09,1.371875e-02
1.432312e-09,1.371875e-02
1.436312e-09,1.407813e-02
1.440312e-09,1.421875e-02
1.444312e-09,1.393750e-02
1.448312e-09,1.343750e-02
1.452312e-09,1.331250e-02
1.456312e-09,1.359375e-02
1.460313e-09,1.304688e-02
1.464313e-09,1.348438e-02
1.468313e-09,1.350000e-02
1.472313e-09,1.350000e-02
1.476313e-09,1.210938e-02
1.480312e-09,1.268750e-02
1.484312e-09,1.165625e-02
1.488312e-09,1.262500e-02
1.492312e-09,1.217188e-02
1.496312e-09,1.171875e-02
1.500312e-09,1.084375e-02
1.504312e-09,1.100000e-02
1.508312e-09,1.032813e-02
1.512312e-09,1.007813e-02
1.516312e-09,1.020313e-02
1.520313e-09,1.015625e-02
1.524313e-09,9.687500e-03
1.528313e-09,9.031250e-03
1.532313e-09,8.781250e-03
1.536313e-09,8.953125e-03
1.540312e-09,8.312500e-03
1.544312e-09,8.687500e-03
1.548312e-09,8.687500e-03
1.552312e-09,8.671875e-03
1.556312e-09,7.296875e-03
1.560312e-09,7.921875e-03
1.564312e-09,6.953125e-03
1.568312e-09,8.000000e-03
1.572312e-09,7.656250e-03
1.576312e-09,7.312500e-03
1.580313e-09,6.593750e-03
1.584313e-09,6.890625e-03
1.588313e-09,6.406250e-03
1.592313e-09,6.328125e-03
1.596313e-09,6.656250e-03
1.600312e-09,6.796875e-03
1.604312e-09,6.562500e-03
1.608312e-09,6.125000e-03
1.612312e-09,6.093750e-03
1.616312e-09,6.468750e-03
1.620312e-09,6.062500e-03
1.624312e-09,6.656250e-03
1.628312e-09,6.875000e-03
1.632312e-09,7.093750e-03
1.636312e-09,5.906250e-03
1.640313e-09,6.734375e-03
1.644313e-09,5.953125e-03
1.648313e-09,7.187500e-03
1.652313e-09,7.015625e-03
1.656313e-09,6.843750e-03
1.660312e-09,6.281250e-03
1.664312e-09,6.718750e-03
1.668312e-09,6.343750e-03
1.672312e-09,6.375000e-03
1.676312e-09,6.796875e-03
1.680312e-09,7.031250e-03
1.684312e-09,6.859375e-03
1.688312e-09,6.468750e-03
1.692312e-09,6.484375e-03
1.696312e-09,6.890625e-03
1.700313e-09,6.500000e-03
1.704313e-09,7.109375e-03
1.708313e-09,7.312500e-03
1.712313e-09,7.500000e-03
1.716313e-09,6.281250e-03
1.720312e-09,7.078125e-03
1.724312e-09,6.250000e-03
1.728312e-09,7.437500e-03
1.732312e-09,7.203125e-03
1.736312e-09,6.984375e-03
1.740312e-09,6.343750e-03
1.744312e-09,6.703125e-03
1.748312e-09,6.265625e-03
1.752312e-09,6.218750e-03
1.756312e-09,6.578125e-03
