Measurements-streak-laser-independent/Old-photodiode-on-Tek/SaveOnEvent_ch1_20190613112409683.csv

Model,MSO64
Waveform Type,ANALOG
Horizontal Units,s
Sample Interval,4.000000e-11
Record Length,1000
Zero Index,219.976562
Vertical Units,V

TIME,CH1
-8.799062e-09,-1.356250e-02
-8.759062e-09,-1.178125e-02
-8.719063e-09,-8.312500e-03
-8.679062e-09,-5.687500e-03
-8.639062e-09,-5.656250e-03
-8.599062e-09,-7.843750e-03
-8.559062e-09,-1.040625e-02
-8.519063e-09,-1.153125e-02
-8.479062e-09,-1.071875e-02
-8.439062e-09,-8.718750e-03
-8.399062e-09,-6.656250e-03
-8.359062e-09,-5.250000e-03
-8.319062e-09,-4.562500e-03
-8.279062e-09,-4.718750e-03
-8.239063e-09,-5.906250e-03
-8.199062e-09,-8.250000e-03
-8.159062e-09,-1.118750e-02
-8.119062e-09,-1.328125e-02
-8.079062e-09,-1.325000e-02
-8.039063e-09,-1.100000e-02
-7.999062e-09,-7.937500e-03
-7.959062e-09,-6.062500e-03
-7.919062e-09,-6.437500e-03
-7.879062e-09,-8.343750e-03
-7.839062e-09,-9.718750e-03
-7.799062e-09,-9.062500e-03
-7.759063e-09,-6.468750e-03
-7.719062e-09,-3.843750e-03
-7.679062e-09,-3.187500e-03
-7.639062e-09,-5.250000e-03
-7.599062e-09,-8.875000e-03
-7.559063e-09,-1.196875e-02
-7.519062e-09,-1.296875e-02
-7.479062e-09,-1.168750e-02
-7.439062e-09,-9.125000e-03
-7.399062e-09,-6.468750e-03
-7.359062e-09,-4.406250e-03
-7.319062e-09,-3.187500e-03
-7.279062e-09,-2.906250e-03
-7.239062e-09,-3.812500e-03
-7.199062e-09,-6.187500e-03
-7.159062e-09,-9.531250e-03
-7.119062e-09,-1.275000e-02
-7.079062e-09,-1.434375e-02
-7.039062e-09,-1.350000e-02
-6.999062e-09,-1.056250e-02
-6.959062e-09,-7.156250e-03
-6.919062e-09,-5.250000e-03
-6.879062e-09,-6.125000e-03
-6.839062e-09,-9.500000e-03
-6.799062e-09,-1.365625e-02
-6.759062e-09,-1.615625e-02
-6.719062e-09,-1.550000e-02
-6.679062e-09,-1.196875e-02
-6.639062e-09,-7.625000e-03
-6.599062e-09,-5.312500e-03
-6.559062e-09,-6.593750e-03
-6.519062e-09,-1.081250e-02
-6.479062e-09,-1.521875e-02
-6.439062e-09,-1.681250e-02
-6.399062e-09,-1.421875e-02
-6.359062e-09,-8.843750e-03
-6.319062e-09,-3.937500e-03
-6.279062e-09,-2.468750e-03
-6.239062e-09,-5.125000e-03
-6.199062e-09,-9.875000e-03
-6.159062e-09,-1.321875e-02
-6.119062e-09,-1.256250e-02
-6.079062e-09,-7.968750e-03
-6.039062e-09,-2.062500e-03
-5.999062e-09,1.406250e-03
-5.959062e-09,6.250000e-05
-5.919063e-09,-5.718750e-03
-5.879062e-09,-1.287500e-02
-5.839062e-09,-1.746875e-02
-5.799062e-09,-1.703125e-02
-5.759062e-09,-1.218750e-02
-5.719062e-09,-6.156250e-03
-5.679063e-09,-2.812500e-03
-5.639062e-09,-4.218750e-03
-5.599062e-09,-9.281250e-03
-5.559062e-09,-1.450000e-02
-5.519062e-09,-1.628125e-02
-5.479062e-09,-1.340625e-02
-5.439063e-09,-7.562500e-03
-5.399062e-09,-2.093750e-03
-5.359062e-09,4.062500e-04
-5.319062e-09,-4.375000e-04
-5.279062e-09,-2.906250e-03
-5.239062e-09,-4.781250e-03
-5.199063e-09,-5.187500e-03
-5.159062e-09,-4.875000e-03
-5.119062e-09,-5.187500e-03
-5.079062e-09,-6.718750e-03
-5.039062e-09,-8.750000e-03
-4.999062e-09,-9.937500e-03
-4.959063e-09,-9.437500e-03
-4.919062e-09,-7.593750e-03
-4.879062e-09,-5.593750e-03
-4.839062e-09,-4.468750e-03
-4.799062e-09,-4.406250e-03
-4.759062e-09,-4.843750e-03
-4.719063e-09,-5.187500e-03
-4.679062e-09,-5.500000e-03
-4.639062e-09,-6.343750e-03
-4.599062e-09,-8.125000e-03
-4.559062e-09,-1.059375e-02
-4.519062e-09,-1.293750e-02
-4.479063e-09,-1.421875e-02
-4.439062e-09,-1.431250e-02
-4.399062e-09,-1.368750e-02
-4.359062e-09,-1.296875e-02
-4.319062e-09,-1.218750e-02
-4.279062e-09,-1.075000e-02
-4.239063e-09,-8.187500e-03
-4.199063e-09,-4.906250e-03
-4.159062e-09,-2.375000e-03
-4.119062e-09,-2.093750e-03
-4.079062e-09,-4.375000e-03
-4.039062e-09,-7.750000e-03
-3.999063e-09,-9.968750e-03
-3.959063e-09,-9.500000e-03
-3.919062e-09,-7.062500e-03
-3.879062e-09,-4.906250e-03
-3.839062e-09,-5.343750e-03
-3.799062e-09,-8.656250e-03
-3.759063e-09,-1.268750e-02
-3.719062e-09,-1.434375e-02
-3.679062e-09,-1.190625e-02
-3.639062e-09,-6.531250e-03
-3.599062e-09,-1.343750e-03
-3.559062e-09,7.500000e-04
-3.519062e-09,-8.125000e-04
-3.479062e-09,-4.031250e-03
-3.439062e-09,-6.093750e-03
-3.399062e-09,-5.687500e-03
-3.359062e-09,-3.937500e-03
-3.319062e-09,-3.250000e-03
-3.279062e-09,-5.218750e-03
-3.239062e-09,-9.125000e-03
-3.199062e-09,-1.271875e-02
-3.159062e-09,-1.396875e-02
-3.119062e-09,-1.259375e-02
-3.079062e-09,-1.018750e-02
-3.039063e-09,-8.593750e-03
-2.999062e-09,-8.500000e-03
-2.959062e-09,-9.125000e-03
-2.919063e-09,-9.281250e-03
-2.879062e-09,-8.500000e-03
-2.839062e-09,-7.656250e-03
-2.799063e-09,-7.812500e-03
-2.759062e-09,-9.093750e-03
-2.719062e-09,-1.056250e-02
-2.679063e-09,-1.084375e-02
-2.639062e-09,-9.343750e-03
-2.599062e-09,-6.875000e-03
-2.559063e-09,-4.968750e-03
-2.519062e-09,-4.750000e-03
-2.479062e-09,-6.125000e-03
-2.439063e-09,-8.062500e-03
-2.399062e-09,-9.437500e-03
-2.359062e-09,-9.687500e-03
-2.319063e-09,-8.968750e-03
-2.279062e-09,-7.718750e-03
-2.239062e-09,-6.406250e-03
-2.199063e-09,-5.406250e-03
-2.159062e-09,-5.093750e-03
-2.119062e-09,-5.687500e-03
-2.079063e-09,-7.156250e-03
-2.039062e-09,-8.875000e-03
-1.999062e-09,-9.781250e-03
-1.959063e-09,-9.156250e-03
-1.919062e-09,-7.093750e-03
-1.879062e-09,-4.656250e-03
-1.839062e-09,-3.093750e-03
-1.799062e-09,-3.062500e-03
-1.759062e-09,-4.062500e-03
-1.719062e-09,-4.906250e-03
-1.679062e-09,-4.562500e-03
-1.639062e-09,-2.843750e-03
-1.599062e-09,-7.187500e-04
-1.559062e-09,6.562500e-04
-1.519062e-09,6.875000e-04
-1.479062e-09,-6.250000e-05
-1.439062e-09,-4.375000e-04
-1.399062e-09,6.562500e-04
-1.359062e-09,3.093750e-03
-1.319062e-09,5.906250e-03
-1.279062e-09,7.812500e-03
-1.239062e-09,8.312500e-03
-1.199062e-09,7.812500e-03
-1.159062e-09,7.468750e-03
-1.119063e-09,8.062500e-03
-1.079062e-09,9.812500e-03
-1.039062e-09,1.243750e-02
-9.990625e-10,1.600000e-02
-9.590625e-10,2.078125e-02
-9.190625e-10,2.721875e-02
-8.790625e-10,3.453125e-02
-8.390625e-10,4.115625e-02
-7.990625e-10,4.518750e-02
-7.590625e-10,4.634375e-02
-7.190625e-10,4.634375e-02
-6.790625e-10,4.856250e-02
-6.390625e-10,5.521875e-02
-5.990625e-10,6.637500e-02
-5.590625e-10,7.893750e-02
-5.190625e-10,8.946875e-02
-4.790625e-10,9.590625e-02
-4.390625e-10,9.971875e-02
-3.990625e-10,1.039375e-01
-3.590625e-10,1.116875e-01
-3.190625e-10,1.231250e-01
-2.790625e-10,1.362187e-01
-2.390625e-10,1.477813e-01
-1.990625e-10,1.565625e-01
-1.590625e-10,1.630938e-01
-1.190625e-10,1.696875e-01
-7.906250e-11,1.775938e-01
-3.906250e-11,1.869688e-01
9.375000e-13,1.962500e-01
4.093750e-11,2.044063e-01
8.093750e-11,2.113438e-01
1.209375e-10,2.184375e-01
1.609375e-10,2.267813e-01
2.009375e-10,2.367813e-01
2.409375e-10,2.472500e-01
2.809375e-10,2.572187e-01
3.209375e-10,2.656875e-01
3.609375e-10,2.730313e-01
4.009375e-10,2.795000e-01
4.409375e-10,2.853438e-01
4.809375e-10,2.900000e-01
5.209375e-10,2.934062e-01
5.609375e-10,2.958125e-01
6.009375e-10,2.986875e-01
6.409375e-10,3.030000e-01
6.809375e-10,3.092500e-01
7.209375e-10,3.162813e-01
7.609375e-10,3.228437e-01
8.009375e-10,3.280625e-01
8.409375e-10,3.328750e-01
8.809375e-10,3.389062e-01
9.209375e-10,3.476875e-01
9.609375e-10,3.586875e-01
1.000937e-09,3.697813e-01
1.040937e-09,3.779375e-01
1.080938e-09,3.817813e-01
1.120937e-09,3.820625e-01
1.160937e-09,3.817500e-01
1.200938e-09,3.836562e-01
1.240937e-09,3.890625e-01
1.280937e-09,3.964063e-01
1.320938e-09,4.030625e-01
1.360937e-09,4.067500e-01
1.400937e-09,4.075313e-01
1.440937e-09,4.074375e-01
1.480937e-09,4.090625e-01
1.520937e-09,4.135937e-01
1.560937e-09,4.200312e-01
1.600937e-09,4.258437e-01
1.640937e-09,4.287813e-01
1.680937e-09,4.282813e-01
1.720937e-09,4.256875e-01
1.760937e-09,4.229688e-01
1.800937e-09,4.216563e-01
1.840937e-09,4.219688e-01
1.880937e-09,4.230312e-01
1.920937e-09,4.239062e-01
1.960938e-09,4.240625e-01
2.000937e-09,4.233750e-01
2.040937e-09,4.219062e-01
2.080937e-09,4.196875e-01
2.120937e-09,4.168125e-01
2.160937e-09,4.136563e-01
2.200937e-09,4.107187e-01
2.240937e-09,4.084062e-01
2.280937e-09,4.064687e-01
2.320937e-09,4.040937e-01
2.360937e-09,4.003437e-01
2.400937e-09,3.952188e-01
2.440937e-09,3.894375e-01
2.480937e-09,3.843750e-01
2.520937e-09,3.805625e-01
2.560937e-09,3.777187e-01
2.600937e-09,3.745000e-01
2.640937e-09,3.699375e-01
2.680937e-09,3.638750e-01
2.720937e-09,3.576875e-01
2.760937e-09,3.527500e-01
2.800937e-09,3.499375e-01
2.840937e-09,3.485000e-01
2.880937e-09,3.468438e-01
2.920937e-09,3.431875e-01
2.960937e-09,3.370000e-01
3.000937e-09,3.287500e-01
3.040937e-09,3.197813e-01
3.080937e-09,3.108437e-01
3.120937e-09,3.024688e-01
3.160937e-09,2.944688e-01
3.200937e-09,2.870000e-01
3.240937e-09,2.801875e-01
3.280937e-09,2.744687e-01
3.320937e-09,2.693437e-01
3.360937e-09,2.641875e-01
3.400937e-09,2.580625e-01
3.440937e-09,2.510000e-01
3.480937e-09,2.435938e-01
3.520937e-09,2.371250e-01
3.560937e-09,2.316563e-01
3.600937e-09,2.264688e-01
3.640937e-09,2.195625e-01
3.680937e-09,2.099375e-01
3.720937e-09,1.977500e-01
3.760937e-09,1.852813e-01
3.800937e-09,1.749375e-01
3.840937e-09,1.684063e-01
3.880938e-09,1.650313e-01
3.920937e-09,1.628750e-01
3.960937e-09,1.593125e-01
4.000937e-09,1.532813e-01
4.040937e-09,1.449688e-01
4.080937e-09,1.361563e-01
4.120938e-09,1.282500e-01
4.160937e-09,1.221562e-01
4.200937e-09,1.168125e-01
4.240937e-09,1.108438e-01
4.280937e-09,1.025625e-01
4.320937e-09,9.178125e-02
4.360938e-09,7.962500e-02
4.400937e-09,6.856250e-02
4.440937e-09,6.040625e-02
4.480937e-09,5.593750e-02
4.520937e-09,5.340625e-02
4.560937e-09,5.034375e-02
4.600938e-09,4.437500e-02
4.640937e-09,3.568750e-02
4.680937e-09,2.625000e-02
4.720937e-09,1.915625e-02
4.760937e-09,1.587500e-02
4.800937e-09,1.553125e-02
4.840938e-09,1.468750e-02
4.880937e-09,1.037500e-02
4.920937e-09,1.281250e-03
4.960937e-09,-1.053125e-02
5.000937e-09,-2.168750e-02
5.040937e-09,-2.912500e-02
5.080938e-09,-3.243750e-02
5.120937e-09,-3.328125e-02
5.160937e-09,-3.443750e-02
5.200937e-09,-3.721875e-02
5.240937e-09,-4.137500e-02
5.280937e-09,-4.515625e-02
5.320938e-09,-4.771875e-02
5.360937e-09,-4.959375e-02
5.400937e-09,-5.281250e-02
5.440937e-09,-5.896875e-02
5.480937e-09,-6.793750e-02
5.520937e-09,-7.721875e-02
5.560938e-09,-8.381250e-02
5.600937e-09,-8.575000e-02
5.640937e-09,-8.393750e-02
5.680937e-09,-8.115625e-02
5.720937e-09,-8.050000e-02
5.760937e-09,-8.312500e-02
5.800938e-09,-8.800000e-02
5.840937e-09,-9.278125e-02
5.880937e-09,-9.568750e-02
5.920937e-09,-9.662500e-02
5.960937e-09,-9.684375e-02
6.000937e-09,-9.746875e-02
6.040937e-09,-9.875000e-02
6.080937e-09,-9.996875e-02
6.120937e-09,-1.004687e-01
6.160937e-09,-1.004063e-01
6.200937e-09,-1.009375e-01
6.240937e-09,-1.030000e-01
6.280937e-09,-1.066875e-01
6.320937e-09,-1.110000e-01
6.360937e-09,-1.145000e-01
6.400937e-09,-1.163437e-01
6.440937e-09,-1.165937e-01
6.480937e-09,-1.158750e-01
6.520937e-09,-1.150000e-01
6.560937e-09,-1.144062e-01
6.600937e-09,-1.142813e-01
6.640937e-09,-1.146875e-01
6.680937e-09,-1.153125e-01
6.720937e-09,-1.155937e-01
6.760937e-09,-1.147500e-01
6.800937e-09,-1.124062e-01
6.840937e-09,-1.093750e-01
6.880937e-09,-1.073750e-01
6.920937e-09,-1.079688e-01
6.960937e-09,-1.113125e-01
7.000937e-09,-1.155313e-01
7.040937e-09,-1.178750e-01
7.080937e-09,-1.165313e-01
7.120937e-09,-1.120000e-01
7.160937e-09,-1.069375e-01
7.200937e-09,-1.041562e-01
7.240937e-09,-1.046250e-01
7.280937e-09,-1.068750e-01
7.320937e-09,-1.081562e-01
7.360937e-09,-1.066562e-01
7.400937e-09,-1.025000e-01
7.440937e-09,-9.762500e-02
7.480937e-09,-9.393750e-02
7.520937e-09,-9.212500e-02
7.560937e-09,-9.134375e-02
7.600937e-09,-9.046875e-02
7.640938e-09,-8.893750e-02
7.680937e-09,-8.712500e-02
7.720938e-09,-8.556250e-02
7.760937e-09,-8.440625e-02
7.800937e-09,-8.312500e-02
7.840937e-09,-8.128125e-02
7.880937e-09,-7.890625e-02
7.920938e-09,-7.671875e-02
7.960937e-09,-7.531250e-02
8.000937e-09,-7.459375e-02
8.040937e-09,-7.365625e-02
8.080937e-09,-7.168750e-02
8.120938e-09,-6.859375e-02
8.160937e-09,-6.525000e-02
8.200938e-09,-6.259375e-02
8.240937e-09,-6.093750e-02
8.280937e-09,-5.962500e-02
8.320937e-09,-5.768750e-02
8.360937e-09,-5.459375e-02
8.400938e-09,-5.096875e-02
8.440937e-09,-4.775000e-02
8.480937e-09,-4.571875e-02
8.520937e-09,-4.456250e-02
8.560937e-09,-4.343750e-02
8.600937e-09,-4.146875e-02
8.640937e-09,-3.875000e-02
8.680938e-09,-3.593750e-02
8.720937e-09,-3.403125e-02
8.760937e-09,-3.312500e-02
8.800937e-09,-3.268750e-02
8.840937e-09,-3.162500e-02
8.880938e-09,-2.953125e-02
8.920937e-09,-2.653125e-02
8.960937e-09,-2.346875e-02
9.000937e-09,-2.100000e-02
9.040937e-09,-1.937500e-02
9.080937e-09,-1.825000e-02
9.120937e-09,-1.703125e-02
9.160938e-09,-1.515625e-02
9.200937e-09,-1.243750e-02
9.240937e-09,-8.906250e-03
9.280937e-09,-5.031250e-03
9.320937e-09,-1.468750e-03
9.360938e-09,7.812500e-04
9.400937e-09,1.156250e-03
9.440937e-09,-4.687500e-04
9.480937e-09,-3.187500e-03
9.520937e-09,-5.625000e-03
9.560937e-09,-6.437500e-03
9.600937e-09,-5.125000e-03
9.640938e-09,-2.156250e-03
9.680937e-09,1.281250e-03
9.720937e-09,4.218750e-03
9.760937e-09,6.187500e-03
9.800937e-09,7.562500e-03
9.840938e-09,8.875000e-03
9.880937e-09,1.050000e-02
9.920937e-09,1.231250e-02
9.960937e-09,1.396875e-02
1.000094e-08,1.503125e-02
1.004094e-08,1.550000e-02
1.008094e-08,1.565625e-02
1.012094e-08,1.618750e-02
1.016094e-08,1.753125e-02
1.020094e-08,1.990625e-02
1.024094e-08,2.284375e-02
1.028094e-08,2.543750e-02
1.032094e-08,2.665625e-02
1.036094e-08,2.600000e-02
1.040094e-08,2.375000e-02
1.044094e-08,2.121875e-02
1.048094e-08,1.990625e-02
1.052094e-08,2.065625e-02
1.056094e-08,2.296875e-02
1.060094e-08,2.537500e-02
1.064094e-08,2.625000e-02
1.068094e-08,2.525000e-02
1.072094e-08,2.346875e-02
1.076094e-08,2.281250e-02
1.080094e-08,2.462500e-02
1.084094e-08,2.846875e-02
1.088094e-08,3.221875e-02
1.092094e-08,3.340625e-02
1.096094e-08,3.093750e-02
1.100094e-08,2.600000e-02
1.104094e-08,2.143750e-02
1.108094e-08,2.012500e-02
1.112094e-08,2.312500e-02
1.116094e-08,2.915625e-02
1.120094e-08,3.521875e-02
1.124094e-08,3.853125e-02
1.128094e-08,3.781250e-02
1.132094e-08,3.371875e-02
1.136094e-08,2.837500e-02
1.140094e-08,2.412500e-02
1.144094e-08,2.253125e-02
1.148094e-08,2.378125e-02
1.152094e-08,2.675000e-02
1.156094e-08,2.965625e-02
1.160094e-08,3.081250e-02
1.164094e-08,2.950000e-02
1.168094e-08,2.656250e-02
1.172094e-08,2.384375e-02
1.176094e-08,2.315625e-02
1.180094e-08,2.500000e-02
1.184094e-08,2.815625e-02
1.188094e-08,3.043750e-02
1.192094e-08,3.034375e-02
1.196094e-08,2.781250e-02
1.200094e-08,2.437500e-02
1.204094e-08,2.187500e-02
1.208094e-08,2.125000e-02
1.212094e-08,2.203125e-02
1.216094e-08,2.296875e-02
1.220094e-08,2.318750e-02
1.224094e-08,2.265625e-02
1.228094e-08,2.187500e-02
1.232094e-08,2.128125e-02
1.236094e-08,2.096875e-02
1.240094e-08,2.071875e-02
1.244094e-08,2.050000e-02
1.248094e-08,2.059375e-02
1.252094e-08,2.103125e-02
1.256094e-08,2.150000e-02
1.260094e-08,2.118750e-02
1.264094e-08,1.968750e-02
1.268094e-08,1.728125e-02
1.272094e-08,1.506250e-02
1.276094e-08,1.409375e-02
1.280094e-08,1.459375e-02
1.284094e-08,1.568750e-02
1.288094e-08,1.615625e-02
1.292094e-08,1.509375e-02
1.296094e-08,1.275000e-02
1.300094e-08,1.009375e-02
1.304094e-08,8.093750e-03
1.308094e-08,7.093750e-03
1.312094e-08,6.781250e-03
1.316094e-08,6.375000e-03
1.320094e-08,5.406250e-03
1.324094e-08,4.000000e-03
1.328094e-08,2.718750e-03
1.332094e-08,2.031250e-03
1.336094e-08,2.250000e-03
1.340094e-08,3.125000e-03
1.344094e-08,4.156250e-03
1.348094e-08,4.781250e-03
1.352094e-08,4.718750e-03
1.356094e-08,4.000000e-03
1.360094e-08,3.062500e-03
1.364094e-08,2.343750e-03
1.368094e-08,2.093750e-03
1.372094e-08,2.218750e-03
1.376094e-08,2.281250e-03
1.380094e-08,1.968750e-03
1.384094e-08,1.281250e-03
1.388094e-08,3.750000e-04
1.392094e-08,-4.687500e-04
1.396094e-08,-1.375000e-03
1.400094e-08,-2.593750e-03
1.404094e-08,-4.187500e-03
1.408094e-08,-5.687500e-03
1.412094e-08,-6.375000e-03
1.416094e-08,-5.625000e-03
1.420094e-08,-3.750000e-03
1.424094e-08,-1.781250e-03
1.428094e-08,-7.812500e-04
1.432094e-08,-1.187500e-03
1.436094e-08,-2.281250e-03
1.440094e-08,-2.937500e-03
1.444094e-08,-2.625000e-03
1.448094e-08,-2.125000e-03
1.452094e-08,-2.875000e-03
1.456094e-08,-5.781250e-03
1.460094e-08,-1.015625e-02
1.464094e-08,-1.396875e-02
1.468094e-08,-1.509375e-02
1.472094e-08,-1.315625e-02
1.476094e-08,-9.875000e-03
1.480094e-08,-8.031250e-03
1.484094e-08,-9.406250e-03
1.488094e-08,-1.328125e-02
1.492094e-08,-1.709375e-02
1.496094e-08,-1.806250e-02
1.500094e-08,-1.550000e-02
1.504094e-08,-1.115625e-02
1.508094e-08,-8.000000e-03
1.512094e-08,-8.031250e-03
1.516094e-08,-1.084375e-02
1.520094e-08,-1.415625e-02
1.524094e-08,-1.581250e-02
1.528094e-08,-1.515625e-02
1.532094e-08,-1.340625e-02
1.536094e-08,-1.218750e-02
1.540094e-08,-1.212500e-02
1.544094e-08,-1.243750e-02
1.548094e-08,-1.203125e-02
1.552094e-08,-1.081250e-02
1.556094e-08,-9.937500e-03
1.560094e-08,-1.100000e-02
1.564094e-08,-1.415625e-02
1.568094e-08,-1.778125e-02
1.572094e-08,-1.934375e-02
1.576094e-08,-1.753125e-02
1.580094e-08,-1.346875e-02
1.584094e-08,-1.006250e-02
1.588094e-08,-9.968750e-03
1.592094e-08,-1.337500e-02
1.596094e-08,-1.762500e-02
1.600094e-08,-1.931250e-02
1.604094e-08,-1.656250e-02
1.608094e-08,-1.078125e-02
1.612094e-08,-5.531250e-03
1.616094e-08,-4.187500e-03
1.620094e-08,-7.312500e-03
1.624094e-08,-1.256250e-02
1.628094e-08,-1.615625e-02
1.632094e-08,-1.587500e-02
1.636094e-08,-1.225000e-02
1.640094e-08,-8.187500e-03
1.644094e-08,-6.718750e-03
1.648094e-08,-8.875000e-03
1.652094e-08,-1.315625e-02
1.656094e-08,-1.696875e-02
1.660094e-08,-1.831250e-02
1.664094e-08,-1.709375e-02
1.668094e-08,-1.481250e-02
1.672094e-08,-1.321875e-02
1.676094e-08,-1.306250e-02
1.680094e-08,-1.396875e-02
1.684094e-08,-1.484375e-02
1.688094e-08,-1.493750e-02
1.692094e-08,-1.412500e-02
1.696094e-08,-1.265625e-02
1.700094e-08,-1.100000e-02
1.704094e-08,-9.343750e-03
1.708094e-08,-8.000000e-03
1.712094e-08,-7.375000e-03
1.716094e-08,-7.750000e-03
1.720094e-08,-8.968750e-03
1.724094e-08,-1.043750e-02
1.728094e-08,-1.131250e-02
1.732094e-08,-1.125000e-02
1.736094e-08,-1.053125e-02
1.740094e-08,-9.656250e-03
1.744094e-08,-8.906250e-03
1.748094e-08,-7.968750e-03
1.752094e-08,-6.437500e-03
1.756094e-08,-4.500000e-03
1.760094e-08,-3.250000e-03
1.764094e-08,-3.875000e-03
1.768094e-08,-6.718750e-03
1.772094e-08,-1.046875e-02
1.776094e-08,-1.309375e-02
1.780094e-08,-1.315625e-02
1.784094e-08,-1.115625e-02
1.788094e-08,-9.000000e-03
1.792094e-08,-8.562500e-03
1.796094e-08,-1.003125e-02
1.800094e-08,-1.159375e-02
1.804094e-08,-1.106250e-02
1.808094e-08,-7.906250e-03
1.812094e-08,-4.031250e-03
1.816094e-08,-2.406250e-03
1.820094e-08,-4.781250e-03
1.824094e-08,-9.968750e-03
1.828094e-08,-1.440625e-02
1.832094e-08,-1.490625e-02
1.836094e-08,-1.106250e-02
1.840094e-08,-5.656250e-03
1.844094e-08,-2.687500e-03
1.848094e-08,-4.250000e-03
1.852094e-08,-9.031250e-03
1.856094e-08,-1.331250e-02
1.860094e-08,-1.400000e-02
1.864094e-08,-1.100000e-02
1.868094e-08,-7.031250e-03
1.872094e-08,-5.343750e-03
1.876094e-08,-7.062500e-03
1.880094e-08,-1.025000e-02
1.884094e-08,-1.171875e-02
1.888094e-08,-9.812500e-03
1.892094e-08,-5.750000e-03
1.896094e-08,-2.718750e-03
1.900094e-08,-3.218750e-03
1.904094e-08,-7.156250e-03
1.908094e-08,-1.181250e-02
1.912094e-08,-1.406250e-02
1.916094e-08,-1.271875e-02
1.920094e-08,-9.031250e-03
1.924094e-08,-5.781250e-03
1.928094e-08,-4.875000e-03
1.932094e-08,-6.218750e-03
1.936094e-08,-8.062500e-03
1.940094e-08,-8.500000e-03
1.944094e-08,-6.593750e-03
1.948094e-08,-2.906250e-03
1.952094e-08,1.187500e-03
1.956094e-08,4.156250e-03
1.960094e-08,5.062500e-03
1.964094e-08,3.562500e-03
1.968094e-08,1.875000e-04
1.972094e-08,-3.875000e-03
1.976094e-08,-7.093750e-03
1.980094e-08,-8.125000e-03
1.984094e-08,-6.906250e-03
1.988094e-08,-4.625000e-03
1.992094e-08,-3.187500e-03
1.996094e-08,-3.843750e-03
2.000094e-08,-6.343750e-03
2.004094e-08,-8.937500e-03
2.008094e-08,-9.656250e-03
2.012094e-08,-7.593750e-03
2.016094e-08,-3.687500e-03
2.020094e-08,9.375000e-05
2.024094e-08,1.812500e-03
2.028094e-08,8.437500e-04
2.032094e-08,-1.906250e-03
2.036094e-08,-4.687500e-03
2.040094e-08,-6.062500e-03
2.044094e-08,-5.750000e-03
2.048094e-08,-4.343750e-03
2.052094e-08,-3.187500e-03
2.056094e-08,-3.187500e-03
2.060094e-08,-4.500000e-03
2.064094e-08,-6.375000e-03
