Measurements-streak-laser-independent/Old-photodiode-on-Tek/SaveOnEvent_ch1_20190613112413393.csv

Model,MSO64
Waveform Type,ANALOG
Horizontal Units,s
Sample Interval,4.000000e-11
Record Length,1000
Zero Index,219.156250
Vertical Units,V

TIME,CH1
-8.766250e-09,-5.656250e-03
-8.726250e-09,-2.000000e-03
-8.686250e-09,-2.343750e-03
-8.646250e-09,-6.656250e-03
-8.606250e-09,-1.250000e-02
-8.566250e-09,-1.650000e-02
-8.526250e-09,-1.665625e-02
-8.486250e-09,-1.343750e-02
-8.446250e-09,-9.281250e-03
-8.406250e-09,-6.562500e-03
-8.366250e-09,-6.312500e-03
-8.326250e-09,-7.562500e-03
-8.286250e-09,-8.656250e-03
-8.246250e-09,-8.375000e-03
-8.206250e-09,-6.812500e-03
-8.166250e-09,-4.968750e-03
-8.126250e-09,-3.968750e-03
-8.086250e-09,-4.375000e-03
-8.046250e-09,-6.093750e-03
-8.006250e-09,-8.562500e-03
-7.966250e-09,-1.096875e-02
-7.926250e-09,-1.240625e-02
-7.886250e-09,-1.218750e-02
-7.846250e-09,-1.021875e-02
-7.806250e-09,-7.375000e-03
-7.766250e-09,-5.250000e-03
-7.726250e-09,-5.218750e-03
-7.686250e-09,-7.343750e-03
-7.646250e-09,-1.021875e-02
-7.606250e-09,-1.168750e-02
-7.566250e-09,-1.040625e-02
-7.526250e-09,-6.937500e-03
-7.486250e-09,-3.437500e-03
-7.446250e-09,-2.281250e-03
-7.406250e-09,-4.437500e-03
-7.366250e-09,-8.906250e-03
-7.326250e-09,-1.334375e-02
-7.286250e-09,-1.565625e-02
-7.246250e-09,-1.512500e-02
-7.206250e-09,-1.246875e-02
-7.166250e-09,-9.312500e-03
-7.126250e-09,-6.968750e-03
-7.086250e-09,-6.062500e-03
-7.046250e-09,-6.250000e-03
-7.006250e-09,-6.531250e-03
-6.966250e-09,-6.062500e-03
-6.926250e-09,-4.281250e-03
-6.886250e-09,-1.562500e-03
-6.846250e-09,8.125000e-04
-6.806250e-09,1.312500e-03
-6.766250e-09,-9.375000e-04
-6.726250e-09,-5.375000e-03
-6.686250e-09,-1.003125e-02
-6.646250e-09,-1.246875e-02
-6.606250e-09,-1.128125e-02
-6.566250e-09,-7.375000e-03
-6.526250e-09,-3.343750e-03
-6.486250e-09,-1.968750e-03
-6.446250e-09,-4.281250e-03
-6.406250e-09,-8.906250e-03
-6.366250e-09,-1.287500e-02
-6.326250e-09,-1.365625e-02
-6.286250e-09,-1.068750e-02
-6.246250e-09,-5.687500e-03
-6.206250e-09,-1.312500e-03
-6.166250e-09,5.625000e-04
-6.126250e-09,-3.125000e-04
-6.086250e-09,-2.625000e-03
-6.046250e-09,-4.875000e-03
-6.006250e-09,-6.375000e-03
-5.966250e-09,-7.281250e-03
-5.926250e-09,-8.125000e-03
-5.886250e-09,-9.093750e-03
-5.846250e-09,-9.593750e-03
-5.806250e-09,-8.906250e-03
-5.766250e-09,-6.781250e-03
-5.726250e-09,-3.906250e-03
-5.686250e-09,-1.531250e-03
-5.646250e-09,-8.750000e-04
-5.606250e-09,-2.187500e-03
-5.566250e-09,-4.531250e-03
-5.526250e-09,-6.437500e-03
-5.486250e-09,-6.718750e-03
-5.446250e-09,-5.281250e-03
-5.406250e-09,-3.312500e-03
-5.366250e-09,-2.500000e-03
-5.326250e-09,-4.000000e-03
-5.286250e-09,-7.687500e-03
-5.246250e-09,-1.221875e-02
-5.206250e-09,-1.562500e-02
-5.166250e-09,-1.659375e-02
-5.126250e-09,-1.484375e-02
-5.086250e-09,-1.118750e-02
-5.046250e-09,-7.000000e-03
-5.006250e-09,-3.437500e-03
-4.966250e-09,-1.312500e-03
-4.926250e-09,-1.062500e-03
-4.886250e-09,-2.937500e-03
-4.846250e-09,-6.750000e-03
-4.806250e-09,-1.153125e-02
-4.766250e-09,-1.540625e-02
-4.726250e-09,-1.643750e-02
-4.686250e-09,-1.359375e-02
-4.646250e-09,-7.875000e-03
-4.606250e-09,-2.093750e-03
-4.566250e-09,5.937500e-04
-4.526250e-09,-1.187500e-03
-4.486250e-09,-6.093750e-03
-4.446250e-09,-1.062500e-02
-4.406250e-09,-1.153125e-02
-4.366250e-09,-8.031250e-03
-4.326250e-09,-2.437500e-03
-4.286250e-09,1.437500e-03
-4.246250e-09,9.375000e-04
-4.206250e-09,-3.718750e-03
-4.166250e-09,-9.750000e-03
-4.126250e-09,-1.396875e-02
-4.086250e-09,-1.481250e-02
-4.046250e-09,-1.303125e-02
-4.006250e-09,-1.056250e-02
-3.966250e-09,-8.843750e-03
-3.926250e-09,-8.031250e-03
-3.886250e-09,-7.312500e-03
-3.846250e-09,-6.218750e-03
-3.806250e-09,-5.187500e-03
-3.766250e-09,-5.281250e-03
-3.726250e-09,-7.031250e-03
-3.686250e-09,-9.687500e-03
-3.646250e-09,-1.165625e-02
-3.606250e-09,-1.156250e-02
-3.566250e-09,-9.343750e-03
-3.526250e-09,-6.406250e-03
-3.486250e-09,-4.562500e-03
-3.446250e-09,-4.875000e-03
-3.406250e-09,-6.937500e-03
-3.366250e-09,-9.343750e-03
-3.326250e-09,-1.078125e-02
-3.286250e-09,-1.096875e-02
-3.246250e-09,-1.065625e-02
-3.206250e-09,-1.087500e-02
-3.166250e-09,-1.196875e-02
-3.126250e-09,-1.303125e-02
-3.086250e-09,-1.271875e-02
-3.046250e-09,-1.043750e-02
-3.006250e-09,-7.031250e-03
-2.966250e-09,-4.406250e-03
-2.926250e-09,-4.250000e-03
-2.886250e-09,-6.593750e-03
-2.846250e-09,-9.812500e-03
-2.806250e-09,-1.168750e-02
-2.766250e-09,-1.109375e-02
-2.726250e-09,-8.937500e-03
-2.686250e-09,-7.406250e-03
-2.646250e-09,-8.312500e-03
-2.606250e-09,-1.146875e-02
-2.566250e-09,-1.481250e-02
-2.526250e-09,-1.587500e-02
-2.486250e-09,-1.340625e-02
-2.446250e-09,-8.500000e-03
-2.406250e-09,-3.625000e-03
-2.366250e-09,-1.187500e-03
-2.326250e-09,-2.000000e-03
-2.286250e-09,-4.937500e-03
-2.246250e-09,-8.000000e-03
-2.206250e-09,-9.343750e-03
-2.166250e-09,-8.375000e-03
-2.126250e-09,-5.750000e-03
-2.086250e-09,-2.781250e-03
-2.046250e-09,-7.812500e-04
-2.006250e-09,-4.375000e-04
-1.966250e-09,-1.531250e-03
-1.926250e-09,-3.093750e-03
-1.886250e-09,-4.000000e-03
-1.846250e-09,-3.562500e-03
-1.806250e-09,-1.906250e-03
-1.766250e-09,1.250000e-04
-1.726250e-09,1.562500e-03
-1.686250e-09,2.062500e-03
-1.646250e-09,2.000000e-03
-1.606250e-09,1.843750e-03
-1.566250e-09,1.875000e-03
-1.526250e-09,1.781250e-03
-1.486250e-09,1.312500e-03
-1.446250e-09,6.562500e-04
-1.406250e-09,7.812500e-04
-1.366250e-09,2.312500e-03
-1.326250e-09,5.343750e-03
-1.286250e-09,8.812500e-03
-1.246250e-09,1.190625e-02
-1.206250e-09,1.453125e-02
-1.166250e-09,1.768750e-02
-1.126250e-09,2.206250e-02
-1.086250e-09,2.712500e-02
-1.046250e-09,3.059375e-02
-1.006250e-09,3.050000e-02
-9.662500e-10,2.687500e-02
-9.262500e-10,2.306250e-02
-8.862500e-10,2.346875e-02
-8.462500e-10,3.109375e-02
-8.062500e-10,4.440625e-02
-7.662500e-10,5.865625e-02
-7.262500e-10,6.834375e-02
-6.862500e-10,7.156250e-02
-6.462500e-10,7.071875e-02
-6.062500e-10,7.137500e-02
-5.662500e-10,7.762500e-02
-5.262500e-10,9.006250e-02
-4.862500e-10,1.050938e-01
-4.462500e-10,1.184063e-01
-4.062500e-10,1.270938e-01
-3.662500e-10,1.319063e-01
-3.262500e-10,1.351875e-01
-2.862500e-10,1.395312e-01
-2.462500e-10,1.456563e-01
-2.062500e-10,1.531250e-01
-1.662500e-10,1.609375e-01
-1.262500e-10,1.689688e-01
-8.625000e-11,1.773125e-01
-4.625000e-11,1.861875e-01
-6.250000e-12,1.948125e-01
3.375000e-11,2.025000e-01
7.375000e-11,2.087500e-01
1.137500e-10,2.144688e-01
1.537500e-10,2.205000e-01
1.937500e-10,2.278750e-01
2.337500e-10,2.360938e-01
2.737500e-10,2.443750e-01
3.137500e-10,2.515312e-01
3.537500e-10,2.573750e-01
3.937500e-10,2.621250e-01
4.337500e-10,2.666250e-01
4.737500e-10,2.711875e-01
5.137500e-10,2.762812e-01
5.537500e-10,2.817500e-01
5.937500e-10,2.876875e-01
6.337500e-10,2.935937e-01
6.737500e-10,2.992500e-01
7.137500e-10,3.041562e-01
7.537500e-10,3.086250e-01
7.937500e-10,3.132500e-01
8.337500e-10,3.188750e-01
8.737500e-10,3.253125e-01
9.137500e-10,3.315312e-01
9.537500e-10,3.358437e-01
9.937500e-10,3.376875e-01
1.033750e-09,3.380000e-01
1.073750e-09,3.393750e-01
1.113750e-09,3.437500e-01
1.153750e-09,3.511250e-01
1.193750e-09,3.590312e-01
1.233750e-09,3.643750e-01
1.273750e-09,3.655312e-01
1.313750e-09,3.639062e-01
1.353750e-09,3.626250e-01
1.393750e-09,3.644375e-01
1.433750e-09,3.693125e-01
1.473750e-09,3.746875e-01
1.513750e-09,3.772187e-01
1.553750e-09,3.755312e-01
1.593750e-09,3.710312e-01
1.633750e-09,3.668125e-01
1.673750e-09,3.652813e-01
1.713750e-09,3.666250e-01
1.753750e-09,3.690937e-01
1.793750e-09,3.706250e-01
1.833750e-09,3.705625e-01
1.873750e-09,3.697187e-01
1.913750e-09,3.693125e-01
1.953750e-09,3.695937e-01
1.993750e-09,3.696250e-01
2.033750e-09,3.683125e-01
2.073750e-09,3.655625e-01
2.113750e-09,3.623750e-01
2.153750e-09,3.600000e-01
2.193750e-09,3.584688e-01
2.233750e-09,3.568125e-01
2.273750e-09,3.535625e-01
2.313750e-09,3.486875e-01
2.353750e-09,3.434062e-01
2.393750e-09,3.396562e-01
2.433750e-09,3.379687e-01
2.473750e-09,3.371562e-01
2.513750e-09,3.347500e-01
2.553750e-09,3.293437e-01
2.593750e-09,3.215312e-01
2.633750e-09,3.138437e-01
2.673750e-09,3.087187e-01
2.713750e-09,3.070937e-01
2.753750e-09,3.071875e-01
2.793750e-09,3.062500e-01
2.833750e-09,3.019062e-01
2.873750e-09,2.939688e-01
2.913750e-09,2.840625e-01
2.953750e-09,2.748437e-01
2.993750e-09,2.680312e-01
3.033750e-09,2.640312e-01
3.073750e-09,2.614063e-01
3.113750e-09,2.583750e-01
3.153750e-09,2.534062e-01
3.193750e-09,2.465313e-01
3.233750e-09,2.386250e-01
3.273750e-09,2.313750e-01
3.313750e-09,2.255313e-01
3.353750e-09,2.210000e-01
3.393750e-09,2.161563e-01
3.433750e-09,2.097188e-01
3.473750e-09,2.007500e-01
3.513750e-09,1.900938e-01
3.553750e-09,1.793438e-01
3.593750e-09,1.704688e-01
3.633750e-09,1.642813e-01
3.673750e-09,1.605625e-01
3.713750e-09,1.575938e-01
3.753750e-09,1.538125e-01
3.793750e-09,1.478125e-01
3.833750e-09,1.398438e-01
3.873750e-09,1.308125e-01
3.913750e-09,1.225000e-01
3.953750e-09,1.159375e-01
3.993750e-09,1.114688e-01
4.033750e-09,1.078750e-01
4.073750e-09,1.036875e-01
4.113750e-09,9.721875e-02
4.153750e-09,8.837500e-02
4.193750e-09,7.790625e-02
4.233750e-09,6.787500e-02
4.273750e-09,5.987500e-02
4.313750e-09,5.475000e-02
4.353750e-09,5.171875e-02
4.393750e-09,4.946875e-02
4.433750e-09,4.640625e-02
4.473750e-09,4.215625e-02
4.513750e-09,3.696875e-02
4.553750e-09,3.190625e-02
4.593750e-09,2.731250e-02
4.633750e-09,2.306250e-02
4.673750e-09,1.800000e-02
4.713750e-09,1.150000e-02
4.753750e-09,3.437500e-03
4.793750e-09,-4.843750e-03
4.833750e-09,-1.190625e-02
4.873750e-09,-1.665625e-02
4.913750e-09,-1.962500e-02
4.953750e-09,-2.206250e-02
4.993750e-09,-2.575000e-02
5.033750e-09,-3.115625e-02
5.073750e-09,-3.765625e-02
5.113750e-09,-4.337500e-02
5.153750e-09,-4.706250e-02
5.193750e-09,-4.831250e-02
5.233750e-09,-4.831250e-02
5.273750e-09,-4.856250e-02
5.313750e-09,-5.046875e-02
5.353750e-09,-5.415625e-02
5.393750e-09,-5.906250e-02
5.433750e-09,-6.409375e-02
5.473750e-09,-6.856250e-02
5.513750e-09,-7.193750e-02
5.553750e-09,-7.428125e-02
5.593750e-09,-7.571875e-02
5.633750e-09,-7.690625e-02
5.673750e-09,-7.840625e-02
5.713750e-09,-8.068750e-02
5.753750e-09,-8.346875e-02
5.793750e-09,-8.606250e-02
5.833750e-09,-8.750000e-02
5.873750e-09,-8.759375e-02
5.913750e-09,-8.725000e-02
5.953750e-09,-8.806250e-02
5.993750e-09,-9.106250e-02
6.033750e-09,-9.603125e-02
6.073750e-09,-1.011250e-01
6.113750e-09,-1.042187e-01
6.153750e-09,-1.040312e-01
6.193750e-09,-1.010937e-01
6.233750e-09,-9.731250e-02
6.273750e-09,-9.475000e-02
6.313750e-09,-9.443750e-02
6.353750e-09,-9.596875e-02
6.393750e-09,-9.812500e-02
6.433750e-09,-9.968750e-02
6.473750e-09,-1.000312e-01
6.513750e-09,-9.925000e-02
6.553750e-09,-9.793750e-02
6.593750e-09,-9.696875e-02
6.633750e-09,-9.725000e-02
6.673750e-09,-9.946875e-02
6.713750e-09,-1.033750e-01
6.753750e-09,-1.076250e-01
6.793750e-09,-1.100937e-01
6.833750e-09,-1.091875e-01
6.873750e-09,-1.050312e-01
6.913750e-09,-9.971875e-02
6.953750e-09,-9.612500e-02
6.993750e-09,-9.584375e-02
7.033750e-09,-9.803125e-02
7.073750e-09,-1.000000e-01
7.113750e-09,-9.915625e-02
7.153750e-09,-9.506250e-02
7.193750e-09,-8.971875e-02
7.233750e-09,-8.603125e-02
7.273750e-09,-8.559375e-02
7.313750e-09,-8.765625e-02
7.353750e-09,-9.009375e-02
7.393750e-09,-9.090625e-02
7.433750e-09,-8.978125e-02
7.473750e-09,-8.750000e-02
7.513750e-09,-8.503125e-02
7.553750e-09,-8.243750e-02
7.593750e-09,-7.937500e-02
7.633750e-09,-7.578125e-02
7.673750e-09,-7.246875e-02
7.713750e-09,-7.040625e-02
7.753750e-09,-6.975000e-02
7.793750e-09,-6.925000e-02
7.833750e-09,-6.734375e-02
7.873750e-09,-6.359375e-02
7.913750e-09,-5.943750e-02
7.953750e-09,-5.715625e-02
7.993750e-09,-5.800000e-02
8.033750e-09,-6.075000e-02
8.073750e-09,-6.259375e-02
8.113750e-09,-6.090625e-02
8.153750e-09,-5.575000e-02
8.193750e-09,-4.953125e-02
8.233750e-09,-4.531250e-02
8.273750e-09,-4.431250e-02
8.313750e-09,-4.512500e-02
8.353750e-09,-4.493750e-02
8.393750e-09,-4.206250e-02
8.433750e-09,-3.725000e-02
8.473750e-09,-3.293750e-02
8.513750e-09,-3.100000e-02
8.553750e-09,-3.137500e-02
8.593750e-09,-3.206250e-02
8.633750e-09,-3.131250e-02
8.673750e-09,-2.893750e-02
8.713750e-09,-2.650000e-02
8.753750e-09,-2.534375e-02
8.793750e-09,-2.534375e-02
8.833750e-09,-2.471875e-02
8.873750e-09,-2.187500e-02
8.913750e-09,-1.703125e-02
8.953750e-09,-1.246875e-02
8.993750e-09,-1.065625e-02
9.033750e-09,-1.212500e-02
9.073750e-09,-1.462500e-02
9.113750e-09,-1.509375e-02
9.153750e-09,-1.190625e-02
9.193750e-09,-6.562500e-03
9.233750e-09,-2.468750e-03
9.273750e-09,-2.312500e-03
9.313750e-09,-5.750000e-03
9.353750e-09,-9.781250e-03
9.393750e-09,-1.078125e-02
9.433750e-09,-7.562500e-03
9.473750e-09,-1.781250e-03
9.513750e-09,3.343750e-03
9.553750e-09,5.750000e-03
9.593750e-09,5.875000e-03
9.633750e-09,6.093750e-03
9.673750e-09,8.500000e-03
9.713750e-09,1.318750e-02
9.753750e-09,1.815625e-02
9.793750e-09,2.100000e-02
9.833750e-09,2.050000e-02
9.873750e-09,1.746875e-02
9.913750e-09,1.362500e-02
9.953750e-09,1.050000e-02
9.993750e-09,8.625000e-03
1.003375e-08,7.781250e-03
1.007375e-08,7.750000e-03
1.011375e-08,8.750000e-03
1.015375e-08,1.100000e-02
1.019375e-08,1.434375e-02
1.023375e-08,1.796875e-02
1.027375e-08,2.103125e-02
1.031375e-08,2.312500e-02
1.035375e-08,2.450000e-02
1.039375e-08,2.571875e-02
1.043375e-08,2.687500e-02
1.047375e-08,2.740625e-02
1.051375e-08,2.675000e-02
1.055375e-08,2.496875e-02
1.059375e-08,2.296875e-02
1.063375e-08,2.200000e-02
1.067375e-08,2.287500e-02
1.071375e-08,2.518750e-02
1.075375e-08,2.756250e-02
1.079375e-08,2.868750e-02
1.083375e-08,2.815625e-02
1.087375e-08,2.671875e-02
1.091375e-08,2.578125e-02
1.095375e-08,2.637500e-02
1.099375e-08,2.846875e-02
1.103375e-08,3.096875e-02
1.107375e-08,3.253125e-02
1.111375e-08,3.225000e-02
1.115375e-08,3.028125e-02
1.119375e-08,2.759375e-02
1.123375e-08,2.537500e-02
1.127375e-08,2.446875e-02
1.131375e-08,2.475000e-02
1.135375e-08,2.565625e-02
1.139375e-08,2.634375e-02
1.143375e-08,2.628125e-02
1.147375e-08,2.543750e-02
1.151375e-08,2.428125e-02
1.155375e-08,2.325000e-02
1.159375e-08,2.281250e-02
1.163375e-08,2.303125e-02
1.167375e-08,2.384375e-02
1.171375e-08,2.484375e-02
1.175375e-08,2.540625e-02
1.179375e-08,2.500000e-02
1.183375e-08,2.334375e-02
1.187375e-08,2.087500e-02
1.191375e-08,1.865625e-02
1.195375e-08,1.790625e-02
1.199375e-08,1.918750e-02
1.203375e-08,2.184375e-02
1.207375e-08,2.428125e-02
1.211375e-08,2.484375e-02
1.215375e-08,2.284375e-02
1.219375e-08,1.912500e-02
1.223375e-08,1.550000e-02
1.227375e-08,1.362500e-02
1.231375e-08,1.412500e-02
1.235375e-08,1.634375e-02
1.239375e-08,1.871875e-02
1.243375e-08,1.981250e-02
1.247375e-08,1.887500e-02
1.251375e-08,1.621875e-02
1.255375e-08,1.300000e-02
1.259375e-08,1.059375e-02
1.263375e-08,9.843750e-03
1.267375e-08,1.053125e-02
1.271375e-08,1.146875e-02
1.275375e-08,1.121875e-02
1.279375e-08,9.093750e-03
1.283375e-08,5.937500e-03
1.287375e-08,3.781250e-03
1.291375e-08,4.343750e-03
1.295375e-08,7.656250e-03
1.299375e-08,1.156250e-02
1.303375e-08,1.309375e-02
1.307375e-08,1.043750e-02
1.311375e-08,4.593750e-03
1.315375e-08,-1.281250e-03
1.319375e-08,-3.875000e-03
1.323375e-08,-2.156250e-03
1.327375e-08,2.031250e-03
1.331375e-08,5.250000e-03
1.335375e-08,5.187500e-03
1.339375e-08,2.187500e-03
1.343375e-08,-1.312500e-03
1.347375e-08,-2.718750e-03
1.351375e-08,-1.218750e-03
1.355375e-08,1.812500e-03
1.359375e-08,4.218750e-03
1.363375e-08,4.656250e-03
1.367375e-08,3.406250e-03
1.371375e-08,1.531250e-03
1.375375e-08,-1.562500e-04
1.379375e-08,-1.687500e-03
1.383375e-08,-3.375000e-03
1.387375e-08,-5.031250e-03
1.391375e-08,-5.906250e-03
1.395375e-08,-5.468750e-03
1.399375e-08,-4.156250e-03
1.403375e-08,-3.312500e-03
1.407375e-08,-3.937500e-03
1.411375e-08,-5.562500e-03
1.415375e-08,-6.437500e-03
1.419375e-08,-4.968750e-03
1.423375e-08,-1.406250e-03
1.427375e-08,1.937500e-03
1.431375e-08,2.468750e-03
1.435375e-08,-6.875000e-04
1.439375e-08,-5.593750e-03
1.443375e-08,-8.968750e-03
1.447375e-08,-8.781250e-03
1.451375e-08,-6.093750e-03
1.455375e-08,-4.093750e-03
1.459375e-08,-5.593750e-03
1.463375e-08,-1.037500e-02
1.467375e-08,-1.534375e-02
1.471375e-08,-1.690625e-02
1.475375e-08,-1.406250e-02
1.479375e-08,-9.156250e-03
1.483375e-08,-6.000000e-03
1.487375e-08,-6.781250e-03
1.491375e-08,-1.034375e-02
1.495375e-08,-1.334375e-02
1.499375e-08,-1.312500e-02
1.503375e-08,-9.968750e-03
1.507375e-08,-6.812500e-03
1.511375e-08,-6.593750e-03
1.515375e-08,-9.875000e-03
1.519375e-08,-1.428125e-02
1.523375e-08,-1.681250e-02
1.527375e-08,-1.612500e-02
1.531375e-08,-1.340625e-02
1.535375e-08,-1.109375e-02
1.539375e-08,-1.053125e-02
1.543375e-08,-1.093750e-02
1.547375e-08,-1.050000e-02
1.551375e-08,-8.500000e-03
1.555375e-08,-6.187500e-03
1.559375e-08,-5.875000e-03
1.563375e-08,-8.750000e-03
1.567375e-08,-1.353125e-02
1.571375e-08,-1.740625e-02
1.575375e-08,-1.815625e-02
1.579375e-08,-1.590625e-02
1.583375e-08,-1.300000e-02
1.587375e-08,-1.190625e-02
1.591375e-08,-1.318750e-02
1.595375e-08,-1.525000e-02
1.599375e-08,-1.578125e-02
1.603375e-08,-1.387500e-02
1.607375e-08,-1.065625e-02
1.611375e-08,-8.281250e-03
1.615375e-08,-8.156250e-03
1.619375e-08,-9.968750e-03
1.623375e-08,-1.218750e-02
1.627375e-08,-1.337500e-02
1.631375e-08,-1.331250e-02
1.635375e-08,-1.265625e-02
1.639375e-08,-1.209375e-02
1.643375e-08,-1.153125e-02
1.647375e-08,-1.037500e-02
1.651375e-08,-8.437500e-03
1.655375e-08,-6.343750e-03
1.659375e-08,-5.406250e-03
1.663375e-08,-6.468750e-03
1.667375e-08,-9.187500e-03
1.671375e-08,-1.218750e-02
1.675375e-08,-1.393750e-02
1.679375e-08,-1.378125e-02
1.683375e-08,-1.221875e-02
1.687375e-08,-1.037500e-02
1.691375e-08,-9.281250e-03
1.695375e-08,-9.312500e-03
1.699375e-08,-1.025000e-02
1.703375e-08,-1.153125e-02
1.707375e-08,-1.259375e-02
1.711375e-08,-1.306250e-02
1.715375e-08,-1.275000e-02
1.719375e-08,-1.165625e-02
1.723375e-08,-1.009375e-02
1.727375e-08,-8.593750e-03
1.731375e-08,-7.593750e-03
1.735375e-08,-7.312500e-03
1.739375e-08,-7.406250e-03
1.743375e-08,-7.375000e-03
1.747375e-08,-6.718750e-03
1.751375e-08,-5.750000e-03
1.755375e-08,-5.312500e-03
1.759375e-08,-6.437500e-03
1.763375e-08,-9.437500e-03
1.767375e-08,-1.343750e-02
1.771375e-08,-1.665625e-02
1.775375e-08,-1.743750e-02
1.779375e-08,-1.537500e-02
1.783375e-08,-1.159375e-02
1.787375e-08,-7.968750e-03
1.791375e-08,-5.875000e-03
1.795375e-08,-5.312500e-03
1.799375e-08,-5.375000e-03
1.803375e-08,-5.156250e-03
1.807375e-08,-4.781250e-03
1.811375e-08,-5.031250e-03
1.815375e-08,-6.406250e-03
1.819375e-08,-8.343750e-03
1.823375e-08,-9.531250e-03
1.827375e-08,-8.875000e-03
1.831375e-08,-6.718750e-03
1.835375e-08,-4.625000e-03
1.839375e-08,-4.031250e-03
1.843375e-08,-5.187500e-03
1.847375e-08,-6.937500e-03
1.851375e-08,-7.812500e-03
1.855375e-08,-7.343750e-03
1.859375e-08,-6.437500e-03
1.863375e-08,-6.187500e-03
1.867375e-08,-6.875000e-03
1.871375e-08,-7.406250e-03
1.875375e-08,-6.500000e-03
1.879375e-08,-3.937500e-03
1.883375e-08,-1.062500e-03
1.887375e-08,1.562500e-04
1.891375e-08,-1.312500e-03
1.895375e-08,-4.531250e-03
1.899375e-08,-7.406250e-03
1.903375e-08,-8.250000e-03
1.907375e-08,-7.093750e-03
1.911375e-08,-5.437500e-03
1.915375e-08,-4.875000e-03
1.919375e-08,-5.625000e-03
1.923375e-08,-6.531250e-03
1.927375e-08,-6.093750e-03
1.931375e-08,-3.968750e-03
1.935375e-08,-1.406250e-03
1.939375e-08,-2.500000e-04
1.943375e-08,-1.375000e-03
1.947375e-08,-4.062500e-03
1.951375e-08,-6.562500e-03
1.955375e-08,-7.468750e-03
1.959375e-08,-6.843750e-03
1.963375e-08,-5.843750e-03
1.967375e-08,-5.656250e-03
1.971375e-08,-6.531250e-03
1.975375e-08,-7.593750e-03
1.979375e-08,-7.843750e-03
1.983375e-08,-7.062500e-03
1.987375e-08,-5.906250e-03
1.991375e-08,-5.187500e-03
1.995375e-08,-5.187500e-03
1.999375e-08,-5.406250e-03
2.003375e-08,-5.125000e-03
2.007375e-08,-4.312500e-03
2.011375e-08,-3.656250e-03
2.015375e-08,-4.000000e-03
2.019375e-08,-5.500000e-03
2.023375e-08,-7.406250e-03
2.027375e-08,-8.593750e-03
2.031375e-08,-8.468750e-03
2.035375e-08,-7.531250e-03
2.039375e-08,-6.875000e-03
2.043375e-08,-7.156250e-03
2.047375e-08,-8.125000e-03
2.051375e-08,-8.625000e-03
2.055375e-08,-7.593750e-03
2.059375e-08,-5.187500e-03
2.063375e-08,-2.562500e-03
2.067375e-08,-1.281250e-03
