Measurements-streak-laser-independent/Old-photodiode-on-Tek/SaveOnEvent_ch1_20190613112418808.csv

Model,MSO64
Waveform Type,ANALOG
Horizontal Units,s
Sample Interval,4.000000e-11
Record Length,1000
Zero Index,219.375000
Vertical Units,V

TIME,CH1
-8.775000e-09,-1.600000e-02
-8.735000e-09,-1.343750e-02
-8.695000e-09,-8.906250e-03
-8.655000e-09,-5.031250e-03
-8.615000e-09,-3.562500e-03
-8.575000e-09,-4.312500e-03
-8.535000e-09,-5.656250e-03
-8.495000e-09,-5.937500e-03
-8.455000e-09,-4.906250e-03
-8.415000e-09,-3.718750e-03
-8.375000e-09,-3.968750e-03
-8.335000e-09,-6.156250e-03
-8.295000e-09,-9.437500e-03
-8.255000e-09,-1.215625e-02
-8.215000e-09,-1.328125e-02
-8.175000e-09,-1.296875e-02
-8.135000e-09,-1.231250e-02
-8.095000e-09,-1.225000e-02
-8.055000e-09,-1.293750e-02
-8.015000e-09,-1.356250e-02
-7.975000e-09,-1.334375e-02
-7.935000e-09,-1.193750e-02
-7.895000e-09,-9.812500e-03
-7.855000e-09,-7.812500e-03
-7.815000e-09,-6.500000e-03
-7.775000e-09,-6.156250e-03
-7.735000e-09,-6.593750e-03
-7.695000e-09,-7.562500e-03
-7.655000e-09,-8.687500e-03
-7.615000e-09,-9.593750e-03
-7.575000e-09,-9.781250e-03
-7.535000e-09,-9.250000e-03
-7.495000e-09,-8.468750e-03
-7.455000e-09,-8.218750e-03
-7.415000e-09,-9.000000e-03
-7.375000e-09,-1.037500e-02
-7.335000e-09,-1.118750e-02
-7.295000e-09,-1.021875e-02
-7.255000e-09,-7.375000e-03
-7.215000e-09,-3.812500e-03
-7.175000e-09,-1.406250e-03
-7.135000e-09,-1.406250e-03
-7.095000e-09,-3.625000e-03
-7.055000e-09,-6.468750e-03
-7.015000e-09,-8.312500e-03
-6.975000e-09,-8.406250e-03
-6.935000e-09,-7.375000e-03
-6.895000e-09,-6.343750e-03
-6.855000e-09,-5.937500e-03
-6.815000e-09,-5.843750e-03
-6.775000e-09,-5.125000e-03
-6.735000e-09,-3.468750e-03
-6.695000e-09,-1.656250e-03
-6.655000e-09,-1.062500e-03
-6.615000e-09,-2.531250e-03
-6.575000e-09,-5.593750e-03
-6.535000e-09,-8.500000e-03
-6.495000e-09,-9.531250e-03
-6.455000e-09,-8.406250e-03
-6.415000e-09,-6.500000e-03
-6.375000e-09,-6.031250e-03
-6.335000e-09,-8.187500e-03
-6.295000e-09,-1.228125e-02
-6.255000e-09,-1.606250e-02
-6.215000e-09,-1.731250e-02
-6.175000e-09,-1.540625e-02
-6.135000e-09,-1.181250e-02
-6.095000e-09,-8.906250e-03
-6.055000e-09,-8.375000e-03
-6.015000e-09,-9.875000e-03
-5.975000e-09,-1.156250e-02
-5.935000e-09,-1.140625e-02
-5.895000e-09,-8.812500e-03
-5.855000e-09,-5.000000e-03
-5.815000e-09,-2.312500e-03
-5.775000e-09,-2.406250e-03
-5.735000e-09,-5.343750e-03
-5.695000e-09,-9.468750e-03
-5.655000e-09,-1.246875e-02
-5.615000e-09,-1.300000e-02
-5.575000e-09,-1.131250e-02
-5.535000e-09,-9.031250e-03
-5.495000e-09,-8.093750e-03
-5.455000e-09,-9.281250e-03
-5.415000e-09,-1.181250e-02
-5.375000e-09,-1.384375e-02
-5.335000e-09,-1.381250e-02
-5.295000e-09,-1.159375e-02
-5.255000e-09,-8.625000e-03
-5.215000e-09,-7.000000e-03
-5.175000e-09,-7.750000e-03
-5.135000e-09,-1.034375e-02
-5.095000e-09,-1.281250e-02
-5.055000e-09,-1.340625e-02
-5.015000e-09,-1.175000e-02
-4.975000e-09,-9.093750e-03
-4.935000e-09,-7.281250e-03
-4.895000e-09,-7.343750e-03
-4.855000e-09,-9.000000e-03
-4.815000e-09,-1.093750e-02
-4.775000e-09,-1.218750e-02
-4.735000e-09,-1.240625e-02
-4.695000e-09,-1.196875e-02
-4.655000e-09,-1.093750e-02
-4.615000e-09,-9.156250e-03
-4.575000e-09,-6.531250e-03
-4.535000e-09,-4.000000e-03
-4.495000e-09,-3.281250e-03
-4.455000e-09,-5.687500e-03
-4.415000e-09,-1.075000e-02
-4.375000e-09,-1.596875e-02
-4.335000e-09,-1.812500e-02
-4.295000e-09,-1.587500e-02
-4.255000e-09,-1.065625e-02
-4.215000e-09,-6.000000e-03
-4.175000e-09,-4.781250e-03
-4.135000e-09,-7.000000e-03
-4.095000e-09,-1.000000e-02
-4.055000e-09,-1.062500e-02
-4.015000e-09,-7.781250e-03
-3.975000e-09,-3.343750e-03
-3.935000e-09,-4.687500e-04
-3.895000e-09,-1.125000e-03
-3.855000e-09,-4.718750e-03
-3.815000e-09,-9.000000e-03
-3.775000e-09,-1.184375e-02
-3.735000e-09,-1.268750e-02
-3.695000e-09,-1.234375e-02
-3.655000e-09,-1.168750e-02
-3.615000e-09,-1.093750e-02
-3.575000e-09,-9.906250e-03
-3.535000e-09,-8.781250e-03
-3.495000e-09,-8.312500e-03
-3.455000e-09,-9.031250e-03
-3.415000e-09,-1.040625e-02
-3.375000e-09,-1.084375e-02
-3.335000e-09,-9.093750e-03
-3.295000e-09,-5.593750e-03
-3.255000e-09,-2.562500e-03
-3.215000e-09,-2.500000e-03
-3.175000e-09,-6.062500e-03
-3.135000e-09,-1.118750e-02
-3.095000e-09,-1.446875e-02
-3.055000e-09,-1.378125e-02
-3.015000e-09,-9.812500e-03
-2.975000e-09,-5.562500e-03
-2.935000e-09,-4.062500e-03
-2.895000e-09,-6.062500e-03
-2.855000e-09,-9.531250e-03
-2.815000e-09,-1.134375e-02
-2.775000e-09,-9.656250e-03
-2.735000e-09,-5.156250e-03
-2.695000e-09,-4.375000e-04
-2.655000e-09,1.843750e-03
-2.615000e-09,8.125000e-04
-2.575000e-09,-2.500000e-03
-2.535000e-09,-6.093750e-03
-2.495000e-09,-8.406250e-03
-2.455000e-09,-9.031250e-03
-2.415000e-09,-8.531250e-03
-2.375000e-09,-7.781250e-03
-2.335000e-09,-7.406250e-03
-2.295000e-09,-7.656250e-03
-2.255000e-09,-8.593750e-03
-2.215000e-09,-9.937500e-03
-2.175000e-09,-1.100000e-02
-2.135000e-09,-1.090625e-02
-2.095000e-09,-8.875000e-03
-2.055000e-09,-5.156250e-03
-2.015000e-09,-1.156250e-03
-1.975000e-09,1.250000e-03
-1.935000e-09,7.187500e-04
-1.895000e-09,-2.437500e-03
-1.855000e-09,-6.250000e-03
-1.815000e-09,-8.406250e-03
-1.775000e-09,-7.437500e-03
-1.735000e-09,-3.750000e-03
-1.695000e-09,1.031250e-03
-1.655000e-09,4.843750e-03
-1.615000e-09,6.781250e-03
-1.575000e-09,6.968750e-03
-1.535000e-09,6.343750e-03
-1.495000e-09,5.750000e-03
-1.455000e-09,5.531250e-03
-1.415000e-09,5.562500e-03
-1.375000e-09,5.843750e-03
-1.335000e-09,6.468750e-03
-1.295000e-09,7.781250e-03
-1.255000e-09,9.656250e-03
-1.215000e-09,1.168750e-02
-1.175000e-09,1.300000e-02
-1.135000e-09,1.334375e-02
-1.095000e-09,1.300000e-02
-1.055000e-09,1.331250e-02
-1.015000e-09,1.543750e-02
-9.750000e-10,1.990625e-02
-9.350000e-10,2.571875e-02
-8.950000e-10,3.137500e-02
-8.550000e-10,3.537500e-02
-8.150000e-10,3.806250e-02
-7.750000e-10,4.081250e-02
-7.350000e-10,4.559375e-02
-6.950000e-10,5.293750e-02
-6.550000e-10,6.193750e-02
-6.150000e-10,7.037500e-02
-5.750000e-10,7.703125e-02
-5.350000e-10,8.203125e-02
-4.950000e-10,8.734375e-02
-4.550000e-10,9.446875e-02
-4.150000e-10,1.037187e-01
-3.750000e-10,1.133125e-01
-3.350000e-10,1.218438e-01
-2.950000e-10,1.290000e-01
-2.550000e-10,1.368125e-01
-2.150000e-10,1.470625e-01
-1.750000e-10,1.603125e-01
-1.350000e-10,1.739688e-01
-9.500000e-11,1.849375e-01
-5.500000e-11,1.913125e-01
-1.500000e-11,1.947500e-01
2.500000e-11,1.986563e-01
6.500000e-11,2.062813e-01
1.050000e-10,2.173438e-01
1.450000e-10,2.292813e-01
1.850000e-10,2.387500e-01
2.250000e-10,2.451563e-01
2.650000e-10,2.502500e-01
3.050000e-10,2.570312e-01
3.450000e-10,2.662500e-01
3.850000e-10,2.763750e-01
4.250000e-10,2.843750e-01
4.650000e-10,2.891875e-01
5.050000e-10,2.919375e-01
5.450000e-10,2.957187e-01
5.850000e-10,3.019688e-01
6.250000e-10,3.100312e-01
6.650000e-10,3.172813e-01
7.050000e-10,3.221562e-01
7.450000e-10,3.251562e-01
7.850000e-10,3.287812e-01
8.250000e-10,3.346875e-01
8.650000e-10,3.424062e-01
9.050000e-10,3.493438e-01
9.450000e-10,3.534687e-01
9.850000e-10,3.549687e-01
1.025000e-09,3.565937e-01
1.065000e-09,3.609375e-01
1.105000e-09,3.685625e-01
1.145000e-09,3.769062e-01
1.185000e-09,3.828125e-01
1.225000e-09,3.846562e-01
1.265000e-09,3.841250e-01
1.305000e-09,3.843750e-01
1.345000e-09,3.878750e-01
1.385000e-09,3.942500e-01
1.425000e-09,4.010000e-01
1.465000e-09,4.054062e-01
1.505000e-09,4.065625e-01
1.545000e-09,4.054062e-01
1.585000e-09,4.038438e-01
1.625000e-09,4.030937e-01
1.665000e-09,4.034687e-01
1.705000e-09,4.046562e-01
1.745000e-09,4.064687e-01
1.785000e-09,4.087187e-01
1.825000e-09,4.108125e-01
1.865000e-09,4.115937e-01
1.905000e-09,4.100000e-01
1.945000e-09,4.060937e-01
1.985000e-09,4.012812e-01
2.025000e-09,3.975000e-01
2.065000e-09,3.958750e-01
2.105000e-09,3.959687e-01
2.145000e-09,3.962812e-01
2.185000e-09,3.957188e-01
2.225000e-09,3.941875e-01
2.265000e-09,3.925625e-01
2.305000e-09,3.914063e-01
2.345000e-09,3.902188e-01
2.385000e-09,3.877188e-01
2.425000e-09,3.832187e-01
2.465000e-09,3.771250e-01
2.505000e-09,3.711250e-01
2.545000e-09,3.664062e-01
2.585000e-09,3.631563e-01
2.625000e-09,3.600937e-01
2.665000e-09,3.560625e-01
2.705000e-09,3.505625e-01
2.745000e-09,3.445000e-01
2.785000e-09,3.386562e-01
2.825000e-09,3.333750e-01
2.865000e-09,3.278750e-01
2.905000e-09,3.216875e-01
2.945000e-09,3.150625e-01
2.985000e-09,3.094375e-01
3.025000e-09,3.057187e-01
3.065000e-09,3.038750e-01
3.105000e-09,3.018125e-01
3.145000e-09,2.973750e-01
3.185000e-09,2.890000e-01
3.225000e-09,2.777188e-01
3.265000e-09,2.657188e-01
3.305000e-09,2.555625e-01
3.345000e-09,2.478438e-01
3.385000e-09,2.419063e-01
3.425000e-09,2.359688e-01
3.465000e-09,2.293125e-01
3.505000e-09,2.222188e-01
3.545000e-09,2.159688e-01
3.585000e-09,2.109375e-01
3.625000e-09,2.067188e-01
3.665000e-09,2.015313e-01
3.705000e-09,1.942813e-01
3.745000e-09,1.847188e-01
3.785000e-09,1.742813e-01
3.825000e-09,1.642500e-01
3.865000e-09,1.555938e-01
3.905000e-09,1.475625e-01
3.945000e-09,1.393750e-01
3.985000e-09,1.302813e-01
4.025000e-09,1.211875e-01
4.065000e-09,1.132812e-01
4.105000e-09,1.077500e-01
4.145000e-09,1.039687e-01
4.185000e-09,1.005313e-01
4.225000e-09,9.546875e-02
4.265000e-09,8.828125e-02
4.305000e-09,7.975000e-02
4.345000e-09,7.178125e-02
4.385000e-09,6.550000e-02
4.425000e-09,6.084375e-02
4.465000e-09,5.600000e-02
4.505000e-09,4.950000e-02
4.545000e-09,4.075000e-02
4.585000e-09,3.125000e-02
4.625000e-09,2.300000e-02
4.665000e-09,1.765625e-02
4.705000e-09,1.465625e-02
4.745000e-09,1.237500e-02
4.785000e-09,8.687500e-03
4.825000e-09,3.281250e-03
4.865000e-09,-2.875000e-03
4.905000e-09,-7.875000e-03
4.945000e-09,-1.125000e-02
4.985000e-09,-1.403125e-02
5.025000e-09,-1.862500e-02
5.065000e-09,-2.618750e-02
5.105000e-09,-3.596875e-02
5.145000e-09,-4.503125e-02
5.185000e-09,-5.062500e-02
5.225000e-09,-5.181250e-02
5.265000e-09,-5.053125e-02
5.305000e-09,-4.978125e-02
5.345000e-09,-5.190625e-02
5.385000e-09,-5.678125e-02
5.425000e-09,-6.259375e-02
5.465000e-09,-6.715625e-02
5.505000e-09,-6.984375e-02
5.545000e-09,-7.146875e-02
5.585000e-09,-7.353125e-02
5.625000e-09,-7.675000e-02
5.665000e-09,-8.081250e-02
5.705000e-09,-8.468750e-02
5.745000e-09,-8.787500e-02
5.785000e-09,-9.043750e-02
5.825000e-09,-9.293750e-02
5.865000e-09,-9.546875e-02
5.905000e-09,-9.781250e-02
5.945000e-09,-9.965625e-02
5.985000e-09,-1.011563e-01
6.025000e-09,-1.027187e-01
6.065000e-09,-1.046250e-01
6.105000e-09,-1.062812e-01
6.145000e-09,-1.068437e-01
6.185000e-09,-1.059062e-01
6.225000e-09,-1.042500e-01
6.265000e-09,-1.034063e-01
6.305000e-09,-1.045937e-01
6.345000e-09,-1.075000e-01
6.385000e-09,-1.104375e-01
6.425000e-09,-1.115000e-01
6.465000e-09,-1.102500e-01
6.505000e-09,-1.080625e-01
6.545000e-09,-1.072188e-01
6.585000e-09,-1.090000e-01
6.625000e-09,-1.126875e-01
6.665000e-09,-1.160625e-01
6.705000e-09,-1.170937e-01
6.745000e-09,-1.153437e-01
6.785000e-09,-1.122812e-01
6.825000e-09,-1.098437e-01
6.865000e-09,-1.090312e-01
6.905000e-09,-1.091875e-01
6.945000e-09,-1.087500e-01
6.985000e-09,-1.069375e-01
7.025000e-09,-1.042500e-01
7.065000e-09,-1.024063e-01
7.105000e-09,-1.027187e-01
7.145000e-09,-1.051250e-01
7.185000e-09,-1.079375e-01
7.225000e-09,-1.092812e-01
7.265000e-09,-1.080625e-01
7.305000e-09,-1.049375e-01
7.345000e-09,-1.013437e-01
7.385000e-09,-9.846875e-02
7.425000e-09,-9.646875e-02
7.465000e-09,-9.468750e-02
7.505000e-09,-9.253125e-02
7.545000e-09,-9.015625e-02
7.585000e-09,-8.821875e-02
7.625000e-09,-8.737500e-02
7.665000e-09,-8.718750e-02
7.705000e-09,-8.659375e-02
7.745000e-09,-8.450000e-02
7.785000e-09,-8.093750e-02
7.825000e-09,-7.684375e-02
7.865000e-09,-7.381250e-02
7.905000e-09,-7.268750e-02
7.945000e-09,-7.328125e-02
7.985000e-09,-7.434375e-02
8.025000e-09,-7.456250e-02
8.065000e-09,-7.300000e-02
8.105000e-09,-6.971875e-02
8.145000e-09,-6.525000e-02
8.185000e-09,-6.062500e-02
8.225000e-09,-5.662500e-02
8.265000e-09,-5.396875e-02
8.305000e-09,-5.281250e-02
8.345000e-09,-5.287500e-02
8.385000e-09,-5.325000e-02
8.425000e-09,-5.293750e-02
8.465000e-09,-5.100000e-02
8.505000e-09,-4.753125e-02
8.545000e-09,-4.325000e-02
8.585000e-09,-3.953125e-02
8.625000e-09,-3.715625e-02
8.665000e-09,-3.618750e-02
8.705000e-09,-3.562500e-02
8.745000e-09,-3.428125e-02
8.785000e-09,-3.128125e-02
8.825000e-09,-2.693750e-02
8.865000e-09,-2.231250e-02
8.905000e-09,-1.881250e-02
8.945000e-09,-1.709375e-02
8.985000e-09,-1.693750e-02
9.025000e-09,-1.750000e-02
9.065000e-09,-1.806250e-02
9.105000e-09,-1.828125e-02
9.145000e-09,-1.803125e-02
9.185000e-09,-1.696875e-02
9.225000e-09,-1.456250e-02
9.265000e-09,-1.021875e-02
9.305000e-09,-4.593750e-03
9.345000e-09,7.187500e-04
9.385000e-09,3.593750e-03
9.425000e-09,3.062500e-03
9.465000e-09,3.125000e-05
9.505000e-09,-3.031250e-03
9.545000e-09,-3.812500e-03
9.585000e-09,-1.812500e-03
9.625000e-09,1.406250e-03
9.665000e-09,3.781250e-03
9.705000e-09,4.250000e-03
9.745000e-09,3.875000e-03
9.785000e-09,4.562500e-03
9.825000e-09,7.531250e-03
9.865000e-09,1.206250e-02
9.905000e-09,1.612500e-02
9.945000e-09,1.793750e-02
9.985000e-09,1.753125e-02
1.002500e-08,1.637500e-02
1.006500e-08,1.615625e-02
1.010500e-08,1.737500e-02
1.014500e-08,1.912500e-02
1.018500e-08,2.009375e-02
1.022500e-08,1.993750e-02
1.026500e-08,1.937500e-02
1.030500e-08,1.965625e-02
1.034500e-08,2.112500e-02
1.038500e-08,2.303125e-02
1.042500e-08,2.415625e-02
1.046500e-08,2.378125e-02
1.050500e-08,2.246875e-02
1.054500e-08,2.159375e-02
1.058500e-08,2.243750e-02
1.062500e-08,2.543750e-02
1.066500e-08,2.971875e-02
1.070500e-08,3.390625e-02
1.074500e-08,3.643750e-02
1.078500e-08,3.646875e-02
1.082500e-08,3.400000e-02
1.086500e-08,3.003125e-02
1.090500e-08,2.609375e-02
1.094500e-08,2.365625e-02
1.098500e-08,2.346875e-02
1.102500e-08,2.525000e-02
1.106500e-08,2.784375e-02
1.110500e-08,3.012500e-02
1.114500e-08,3.143750e-02
1.118500e-08,3.196875e-02
1.122500e-08,3.218750e-02
1.126500e-08,3.243750e-02
1.130500e-08,3.275000e-02
1.134500e-08,3.293750e-02
1.138500e-08,3.318750e-02
1.142500e-08,3.359375e-02
1.146500e-08,3.400000e-02
1.150500e-08,3.375000e-02
1.154500e-08,3.200000e-02
1.158500e-08,2.878125e-02
1.162500e-08,2.528125e-02
1.166500e-08,2.343750e-02
1.170500e-08,2.443750e-02
1.174500e-08,2.759375e-02
1.178500e-08,3.059375e-02
1.182500e-08,3.103125e-02
1.186500e-08,2.843750e-02
1.190500e-08,2.468750e-02
1.194500e-08,2.256250e-02
1.198500e-08,2.356250e-02
1.202500e-08,2.656250e-02
1.206500e-08,2.850000e-02
1.210500e-08,2.687500e-02
1.214500e-08,2.193750e-02
1.218500e-08,1.662500e-02
1.222500e-08,1.443750e-02
1.226500e-08,1.678125e-02
1.230500e-08,2.184375e-02
1.234500e-08,2.593750e-02
1.238500e-08,2.625000e-02
1.242500e-08,2.278125e-02
1.246500e-08,1.825000e-02
1.250500e-08,1.590625e-02
1.254500e-08,1.700000e-02
1.258500e-08,2.018750e-02
1.262500e-08,2.259375e-02
1.266500e-08,2.225000e-02
1.270500e-08,1.928125e-02
1.274500e-08,1.550000e-02
1.278500e-08,1.265625e-02
1.282500e-08,1.125000e-02
1.286500e-08,1.037500e-02
1.290500e-08,9.187500e-03
1.294500e-08,7.875000e-03
1.298500e-08,7.531250e-03
1.302500e-08,8.812500e-03
1.306500e-08,1.103125e-02
1.310500e-08,1.231250e-02
1.314500e-08,1.125000e-02
1.318500e-08,8.468750e-03
1.322500e-08,6.406250e-03
1.326500e-08,7.312500e-03
1.330500e-08,1.125000e-02
1.334500e-08,1.540625e-02
1.338500e-08,1.628125e-02
1.342500e-08,1.240625e-02
1.346500e-08,5.781250e-03
1.350500e-08,6.250000e-04
1.354500e-08,3.125000e-05
1.358500e-08,3.562500e-03
1.362500e-08,7.687500e-03
1.366500e-08,8.468750e-03
1.370500e-08,4.781250e-03
1.374500e-08,-9.375000e-04
1.378500e-08,-4.750000e-03
1.382500e-08,-4.468750e-03
1.386500e-08,-1.312500e-03
1.390500e-08,1.437500e-03
1.394500e-08,1.250000e-03
1.398500e-08,-1.812500e-03
1.402500e-08,-5.343750e-03
1.406500e-08,-7.093750e-03
1.410500e-08,-6.812500e-03
1.414500e-08,-6.312500e-03
1.418500e-08,-7.375000e-03
1.422500e-08,-9.875000e-03
1.426500e-08,-1.162500e-02
1.430500e-08,-1.040625e-02
1.434500e-08,-6.218750e-03
1.438500e-08,-1.781250e-03
1.442500e-08,-5.625000e-04
1.446500e-08,-4.093750e-03
1.450500e-08,-1.040625e-02
1.454500e-08,-1.559375e-02
1.458500e-08,-1.643750e-02
1.462500e-08,-1.306250e-02
1.466500e-08,-8.406250e-03
1.470500e-08,-6.093750e-03
1.474500e-08,-7.625000e-03
1.478500e-08,-1.156250e-02
1.482500e-08,-1.493750e-02
1.486500e-08,-1.581250e-02
1.490500e-08,-1.431250e-02
1.494500e-08,-1.225000e-02
1.498500e-08,-1.131250e-02
1.502500e-08,-1.140625e-02
1.506500e-08,-1.128125e-02
1.510500e-08,-9.625000e-03
1.514500e-08,-6.750000e-03
1.518500e-08,-4.250000e-03
1.522500e-08,-3.906250e-03
1.526500e-08,-6.062500e-03
1.530500e-08,-9.343750e-03
1.534500e-08,-1.168750e-02
1.538500e-08,-1.187500e-02
1.542500e-08,-1.040625e-02
1.546500e-08,-8.750000e-03
1.550500e-08,-8.406250e-03
1.554500e-08,-9.875000e-03
1.558500e-08,-1.262500e-02
1.562500e-08,-1.578125e-02
1.566500e-08,-1.843750e-02
1.570500e-08,-1.984375e-02
1.574500e-08,-1.915625e-02
1.578500e-08,-1.581250e-02
1.582500e-08,-1.021875e-02
1.586500e-08,-4.062500e-03
1.590500e-08,6.250000e-05
1.594500e-08,1.250000e-04
1.598500e-08,-4.062500e-03
1.602500e-08,-1.046875e-02
1.606500e-08,-1.593750e-02
1.610500e-08,-1.825000e-02
1.614500e-08,-1.728125e-02
1.618500e-08,-1.487500e-02
1.622500e-08,-1.325000e-02
1.626500e-08,-1.356250e-02
1.630500e-08,-1.528125e-02
1.634500e-08,-1.678125e-02
1.638500e-08,-1.659375e-02
1.642500e-08,-1.428125e-02
1.646500e-08,-1.037500e-02
1.650500e-08,-6.093750e-03
1.654500e-08,-2.750000e-03
1.658500e-08,-1.593750e-03
1.662500e-08,-3.375000e-03
1.666500e-08,-8.062500e-03
1.670500e-08,-1.412500e-02
1.674500e-08,-1.906250e-02
1.678500e-08,-2.034375e-02
1.682500e-08,-1.715625e-02
1.686500e-08,-1.115625e-02
1.690500e-08,-5.625000e-03
1.694500e-08,-3.437500e-03
1.698500e-08,-5.125000e-03
1.702500e-08,-8.593750e-03
1.706500e-08,-1.084375e-02
1.710500e-08,-1.021875e-02
1.714500e-08,-7.593750e-03
1.718500e-08,-5.593750e-03
1.722500e-08,-6.250000e-03
1.726500e-08,-9.531250e-03
1.730500e-08,-1.334375e-02
1.734500e-08,-1.540625e-02
1.738500e-08,-1.484375e-02
1.742500e-08,-1.271875e-02
1.746500e-08,-1.084375e-02
1.750500e-08,-1.031250e-02
1.754500e-08,-1.087500e-02
1.758500e-08,-1.153125e-02
1.762500e-08,-1.165625e-02
1.766500e-08,-1.134375e-02
1.770500e-08,-1.103125e-02
1.774500e-08,-1.068750e-02
1.778500e-08,-9.656250e-03
1.782500e-08,-7.375000e-03
1.786500e-08,-4.281250e-03
1.790500e-08,-1.781250e-03
1.794500e-08,-1.562500e-03
1.798500e-08,-4.031250e-03
1.802500e-08,-8.031250e-03
1.806500e-08,-1.134375e-02
1.810500e-08,-1.231250e-02
1.814500e-08,-1.078125e-02
1.818500e-08,-8.281250e-03
1.822500e-08,-6.656250e-03
1.826500e-08,-6.843750e-03
1.830500e-08,-8.156250e-03
1.834500e-08,-9.093750e-03
1.838500e-08,-8.375000e-03
1.842500e-08,-5.968750e-03
1.846500e-08,-3.218750e-03
1.850500e-08,-1.718750e-03
1.854500e-08,-2.375000e-03
1.858500e-08,-4.812500e-03
1.862500e-08,-7.562500e-03
1.866500e-08,-9.218750e-03
1.870500e-08,-9.125000e-03
1.874500e-08,-7.687500e-03
1.878500e-08,-6.000000e-03
1.882500e-08,-4.937500e-03
1.886500e-08,-4.781250e-03
1.890500e-08,-5.187500e-03
1.894500e-08,-5.593750e-03
1.898500e-08,-5.500000e-03
1.902500e-08,-4.812500e-03
1.906500e-08,-3.750000e-03
1.910500e-08,-2.812500e-03
1.914500e-08,-2.593750e-03
1.918500e-08,-3.625000e-03
1.922500e-08,-6.031250e-03
1.926500e-08,-9.218750e-03
1.930500e-08,-1.184375e-02
1.934500e-08,-1.256250e-02
1.938500e-08,-1.081250e-02
1.942500e-08,-7.437500e-03
1.946500e-08,-4.375000e-03
1.950500e-08,-3.437500e-03
1.954500e-08,-5.062500e-03
1.958500e-08,-7.906250e-03
1.962500e-08,-9.968750e-03
1.966500e-08,-9.906250e-03
1.970500e-08,-8.093750e-03
1.974500e-08,-6.187500e-03
1.978500e-08,-5.687500e-03
1.982500e-08,-6.812500e-03
1.986500e-08,-8.375000e-03
1.990500e-08,-8.968750e-03
1.994500e-08,-8.281250e-03
1.998500e-08,-7.312500e-03
2.002500e-08,-7.531250e-03
2.006500e-08,-9.593750e-03
2.010500e-08,-1.262500e-02
2.014500e-08,-1.465625e-02
2.018500e-08,-1.409375e-02
2.022500e-08,-1.068750e-02
2.026500e-08,-5.718750e-03
2.030500e-08,-1.250000e-03
2.034500e-08,9.375000e-04
2.038500e-08,6.250000e-05
2.042500e-08,-3.375000e-03
2.046500e-08,-8.000000e-03
2.050500e-08,-1.206250e-02
2.054500e-08,-1.421875e-02
2.058500e-08,-1.387500e-02
2.062500e-08,-1.159375e-02
2.066500e-08,-8.812500e-03
