Measurements-streak-laser-independent/Old-photodiode-on-Tek/SaveOnEvent_ch1_20190613112625372.csv

Model,MSO64
Waveform Type,ANALOG
Horizontal Units,s
Sample Interval,4.000000e-11
Record Length,1000
Zero Index,219.335938
Vertical Units,V

TIME,CH1
-8.773437e-09,-2.421875e-03
-8.733438e-09,-1.156250e-03
-8.693437e-09,-2.156250e-03
-8.653438e-09,-4.875000e-03
-8.613437e-09,-7.468750e-03
-8.573437e-09,-8.062500e-03
-8.533437e-09,-6.187500e-03
-8.493437e-09,-3.171875e-03
-8.453438e-09,-1.250000e-03
-8.413437e-09,-1.921875e-03
-8.373437e-09,-4.875000e-03
-8.333437e-09,-8.156250e-03
-8.293437e-09,-9.640625e-03
-8.253438e-09,-8.484375e-03
-8.213437e-09,-5.656250e-03
-8.173438e-09,-3.062500e-03
-8.133437e-09,-2.203125e-03
-8.093437e-09,-3.078125e-03
-8.053437e-09,-4.546875e-03
-8.013437e-09,-5.234375e-03
-7.973438e-09,-4.671875e-03
-7.933437e-09,-3.406250e-03
-7.893437e-09,-2.468750e-03
-7.853437e-09,-2.484375e-03
-7.813437e-09,-3.312500e-03
-7.773438e-09,-4.296875e-03
-7.733437e-09,-4.921875e-03
-7.693438e-09,-5.156250e-03
-7.653437e-09,-5.234375e-03
-7.613437e-09,-5.375000e-03
-7.573437e-09,-5.390625e-03
-7.533437e-09,-5.000000e-03
-7.493438e-09,-4.109375e-03
-7.453437e-09,-2.968750e-03
-7.413437e-09,-2.062500e-03
-7.373437e-09,-1.765625e-03
-7.333437e-09,-2.109375e-03
-7.293437e-09,-2.906250e-03
-7.253437e-09,-3.968750e-03
-7.213437e-09,-5.156250e-03
-7.173437e-09,-6.281250e-03
-7.133437e-09,-7.046875e-03
-7.093437e-09,-7.140625e-03
-7.053437e-09,-6.484375e-03
-7.013437e-09,-5.484375e-03
-6.973437e-09,-4.781250e-03
-6.933437e-09,-4.828125e-03
-6.893437e-09,-5.437500e-03
-6.853437e-09,-5.843750e-03
-6.813437e-09,-5.281250e-03
-6.773437e-09,-3.656250e-03
-6.733437e-09,-1.734375e-03
-6.693437e-09,-6.718750e-04
-6.653437e-09,-1.109375e-03
-6.613437e-09,-2.734375e-03
-6.573437e-09,-4.406250e-03
-6.533437e-09,-5.093750e-03
-6.493437e-09,-4.562500e-03
-6.453437e-09,-3.593750e-03
-6.413437e-09,-3.250000e-03
-6.373437e-09,-4.015625e-03
-6.333438e-09,-5.359375e-03
-6.293437e-09,-6.250000e-03
-6.253437e-09,-5.984375e-03
-6.213437e-09,-4.843750e-03
-6.173437e-09,-3.828125e-03
-6.133437e-09,-3.796875e-03
-6.093438e-09,-4.718750e-03
-6.053437e-09,-5.718750e-03
-6.013437e-09,-5.734375e-03
-5.973437e-09,-4.468750e-03
-5.933437e-09,-2.625000e-03
-5.893437e-09,-1.390625e-03
-5.853438e-09,-1.500000e-03
-5.813437e-09,-2.625000e-03
-5.773437e-09,-3.750000e-03
-5.733437e-09,-3.890625e-03
-5.693437e-09,-2.890625e-03
-5.653437e-09,-1.421875e-03
-5.613438e-09,-5.312500e-04
-5.573437e-09,-9.062500e-04
-5.533437e-09,-2.500000e-03
-5.493437e-09,-4.593750e-03
-5.453437e-09,-6.296875e-03
-5.413437e-09,-6.937500e-03
-5.373438e-09,-6.281250e-03
-5.333437e-09,-4.703125e-03
-5.293437e-09,-2.953125e-03
-5.253437e-09,-1.984375e-03
-5.213437e-09,-2.421875e-03
-5.173437e-09,-4.296875e-03
-5.133438e-09,-6.890625e-03
-5.093437e-09,-8.968750e-03
-5.053437e-09,-9.531250e-03
-5.013437e-09,-8.281250e-03
-4.973437e-09,-5.906250e-03
-4.933437e-09,-3.656250e-03
-4.893438e-09,-2.593750e-03
-4.853437e-09,-3.046875e-03
-4.813437e-09,-4.390625e-03
-4.773437e-09,-5.546875e-03
-4.733437e-09,-5.734375e-03
-4.693437e-09,-4.890625e-03
-4.653438e-09,-3.703125e-03
-4.613437e-09,-3.046875e-03
-4.573437e-09,-3.468750e-03
-4.533437e-09,-4.828125e-03
-4.493437e-09,-6.421875e-03
-4.453437e-09,-7.390625e-03
-4.413438e-09,-7.296875e-03
-4.373437e-09,-6.328125e-03
-4.333437e-09,-5.140625e-03
-4.293437e-09,-4.500000e-03
-4.253437e-09,-4.687500e-03
-4.213437e-09,-5.437500e-03
-4.173438e-09,-6.031250e-03
-4.133437e-09,-5.906250e-03
-4.093437e-09,-5.000000e-03
-4.053437e-09,-3.890625e-03
-4.013437e-09,-3.296875e-03
-3.973437e-09,-3.578125e-03
-3.933438e-09,-4.375000e-03
-3.893437e-09,-4.921875e-03
-3.853437e-09,-4.593750e-03
-3.813437e-09,-3.484375e-03
-3.773437e-09,-2.343750e-03
-3.733437e-09,-2.093750e-03
-3.693437e-09,-3.093750e-03
-3.653437e-09,-4.859375e-03
-3.613437e-09,-6.437500e-03
-3.573437e-09,-7.015625e-03
-3.533437e-09,-6.406250e-03
-3.493437e-09,-5.078125e-03
-3.453437e-09,-3.750000e-03
-3.413437e-09,-2.984375e-03
-3.373437e-09,-3.000000e-03
-3.333437e-09,-3.718750e-03
-3.293437e-09,-4.843750e-03
-3.253437e-09,-6.031250e-03
-3.213437e-09,-6.765625e-03
-3.173437e-09,-6.671875e-03
-3.133437e-09,-5.703125e-03
-3.093437e-09,-4.328125e-03
-3.053437e-09,-3.375000e-03
-3.013437e-09,-3.453125e-03
-2.973437e-09,-4.484375e-03
-2.933437e-09,-5.703125e-03
-2.893437e-09,-6.250000e-03
-2.853437e-09,-5.750000e-03
-2.813437e-09,-4.718750e-03
-2.773437e-09,-4.046875e-03
-2.733437e-09,-4.250000e-03
-2.693437e-09,-5.062500e-03
-2.653437e-09,-5.671875e-03
-2.613437e-09,-5.484375e-03
-2.573437e-09,-4.656250e-03
-2.533437e-09,-3.968750e-03
-2.493438e-09,-4.062500e-03
-2.453437e-09,-4.890625e-03
-2.413437e-09,-5.671875e-03
-2.373438e-09,-5.562500e-03
-2.333437e-09,-4.437500e-03
-2.293437e-09,-2.953125e-03
-2.253438e-09,-2.078125e-03
-2.213437e-09,-2.281250e-03
-2.173437e-09,-3.234375e-03
-2.133438e-09,-4.156250e-03
-2.093437e-09,-4.468750e-03
-2.053437e-09,-4.187500e-03
-2.013438e-09,-3.781250e-03
-1.973437e-09,-3.687500e-03
-1.933437e-09,-3.828125e-03
-1.893438e-09,-3.828125e-03
-1.853437e-09,-3.343750e-03
-1.813437e-09,-2.453125e-03
-1.773437e-09,-1.546875e-03
-1.733437e-09,-1.109375e-03
-1.693437e-09,-1.171875e-03
-1.653437e-09,-1.421875e-03
-1.613437e-09,-1.343750e-03
-1.573437e-09,-7.187500e-04
-1.533437e-09,3.281250e-04
-1.493437e-09,1.343750e-03
-1.453437e-09,2.031250e-03
-1.413437e-09,2.312500e-03
-1.373437e-09,2.609375e-03
-1.333437e-09,3.343750e-03
-1.293437e-09,4.843750e-03
-1.253437e-09,6.796875e-03
-1.213437e-09,8.750000e-03
-1.173437e-09,1.001563e-02
-1.133437e-09,1.050000e-02
-1.093437e-09,1.053125e-02
-1.053437e-09,1.100000e-02
-1.013437e-09,1.259375e-02
-9.734375e-10,1.575000e-02
-9.334375e-10,2.004688e-02
-8.934375e-10,2.501563e-02
-8.534375e-10,2.998438e-02
-8.134375e-10,3.490625e-02
-7.734375e-10,3.971875e-02
-7.334375e-10,4.465625e-02
-6.934375e-10,4.946875e-02
-6.534375e-10,5.421875e-02
-6.134375e-10,5.887500e-02
-5.734375e-10,6.414063e-02
-5.334375e-10,7.048438e-02
-4.934375e-10,7.835938e-02
-4.534375e-10,8.717188e-02
-4.134375e-10,9.628125e-02
-3.734375e-10,1.048125e-01
-3.334375e-10,1.130938e-01
-2.934375e-10,1.217031e-01
-2.534375e-10,1.317031e-01
-2.134375e-10,1.429375e-01
-1.734375e-10,1.547188e-01
-1.334375e-10,1.654844e-01
-9.343750e-11,1.746094e-01
-5.343750e-11,1.820938e-01
-1.343750e-11,1.893750e-01
2.656250e-11,1.975313e-01
6.656250e-11,2.073750e-01
1.065625e-10,2.182500e-01
1.465625e-10,2.293438e-01
1.865625e-10,2.394688e-01
2.265625e-10,2.484375e-01
2.665625e-10,2.561875e-01
3.065625e-10,2.635156e-01
3.465625e-10,2.707344e-01
3.865625e-10,2.785313e-01
4.265625e-10,2.867969e-01
4.665625e-10,2.956094e-01
5.065625e-10,3.041250e-01
5.465625e-10,3.118594e-01
5.865625e-10,3.181406e-01
6.265625e-10,3.233594e-01
6.665625e-10,3.280938e-01
7.065625e-10,3.335313e-01
7.465625e-10,3.398750e-01
7.865625e-10,3.469688e-01
8.265625e-10,3.537500e-01
8.665625e-10,3.599219e-01
9.065625e-10,3.655781e-01
9.465625e-10,3.718281e-01
9.865625e-10,3.792031e-01
1.026562e-09,3.877656e-01
1.066562e-09,3.961875e-01
1.106562e-09,4.032188e-01
1.146562e-09,4.079531e-01
1.186562e-09,4.109375e-01
1.226562e-09,4.132813e-01
1.266562e-09,4.163125e-01
1.306562e-09,4.204219e-01
1.346562e-09,4.253906e-01
1.386562e-09,4.303281e-01
1.426562e-09,4.347500e-01
1.466562e-09,4.383750e-01
1.506562e-09,4.414531e-01
1.546562e-09,4.440938e-01
1.586562e-09,4.464687e-01
1.626562e-09,4.485000e-01
1.666562e-09,4.502500e-01
1.706562e-09,4.517344e-01
1.746562e-09,4.529688e-01
1.786562e-09,4.538594e-01
1.826562e-09,4.543906e-01
1.866562e-09,4.546094e-01
1.906563e-09,4.548125e-01
1.946562e-09,4.552031e-01
1.986562e-09,4.557500e-01
2.026563e-09,4.560937e-01
2.066562e-09,4.557031e-01
2.106562e-09,4.542656e-01
2.146563e-09,4.518437e-01
2.186562e-09,4.489531e-01
2.226562e-09,4.460312e-01
2.266563e-09,4.434375e-01
2.306562e-09,4.410781e-01
2.346562e-09,4.387813e-01
2.386563e-09,4.362187e-01
2.426562e-09,4.333281e-01
2.466562e-09,4.299219e-01
2.506563e-09,4.260312e-01
2.546562e-09,4.216875e-01
2.586562e-09,4.172813e-01
2.626562e-09,4.130781e-01
2.666562e-09,4.094375e-01
2.706562e-09,4.059375e-01
2.746562e-09,4.020625e-01
2.786562e-09,3.970469e-01
2.826562e-09,3.910938e-01
2.866562e-09,3.847969e-01
2.906562e-09,3.793437e-01
2.946562e-09,3.750000e-01
2.986562e-09,3.712500e-01
3.026562e-09,3.664844e-01
3.066562e-09,3.596719e-01
3.106562e-09,3.505625e-01
3.146562e-09,3.405938e-01
3.186562e-09,3.313281e-01
3.226562e-09,3.240469e-01
3.266562e-09,3.183906e-01
3.306562e-09,3.133906e-01
3.346562e-09,3.075937e-01
3.386562e-09,3.005469e-01
3.426562e-09,2.922344e-01
3.466562e-09,2.834688e-01
3.506562e-09,2.745313e-01
3.546562e-09,2.658594e-01
3.586562e-09,2.573750e-01
3.626562e-09,2.494688e-01
3.666562e-09,2.419844e-01
3.706562e-09,2.349219e-01
3.746562e-09,2.274375e-01
3.786562e-09,2.191094e-01
3.826562e-09,2.095469e-01
3.866562e-09,1.996406e-01
3.906562e-09,1.902344e-01
3.946563e-09,1.823281e-01
3.986562e-09,1.755313e-01
4.026562e-09,1.690938e-01
4.066562e-09,1.617188e-01
4.106562e-09,1.533906e-01
4.146562e-09,1.445781e-01
4.186563e-09,1.366563e-01
4.226562e-09,1.300938e-01
4.266562e-09,1.247188e-01
4.306562e-09,1.191875e-01
4.346562e-09,1.125938e-01
4.386562e-09,1.044531e-01
4.426563e-09,9.565625e-02
4.466562e-09,8.701563e-02
4.506562e-09,7.932813e-02
4.546562e-09,7.212500e-02
4.586562e-09,6.482813e-02
4.626562e-09,5.667188e-02
4.666563e-09,4.820313e-02
4.706562e-09,4.026562e-02
4.746562e-09,3.410937e-02
4.786562e-09,2.973438e-02
4.826562e-09,2.631250e-02
4.866562e-09,2.206250e-02
4.906563e-09,1.603125e-02
4.946562e-09,8.125000e-03
4.986562e-09,-1.093750e-04
5.026562e-09,-7.281250e-03
5.066562e-09,-1.248437e-02
5.106562e-09,-1.639062e-02
5.146563e-09,-2.017187e-02
5.186562e-09,-2.509375e-02
5.226562e-09,-3.100000e-02
5.266562e-09,-3.712500e-02
5.306562e-09,-4.225000e-02
5.346562e-09,-4.617188e-02
5.386563e-09,-4.939062e-02
5.426562e-09,-5.306250e-02
5.466562e-09,-5.760937e-02
5.506562e-09,-6.273437e-02
5.546562e-09,-6.728125e-02
5.586562e-09,-7.051562e-02
5.626563e-09,-7.242187e-02
5.666562e-09,-7.417187e-02
5.706562e-09,-7.692188e-02
5.746562e-09,-8.134375e-02
5.786562e-09,-8.671875e-02
5.826562e-09,-9.175000e-02
5.866563e-09,-9.504688e-02
5.906562e-09,-9.642188e-02
5.946562e-09,-9.670312e-02
5.986562e-09,-9.737500e-02
6.026562e-09,-9.931250e-02
6.066562e-09,-1.024531e-01
6.106563e-09,-1.056562e-01
6.146562e-09,-1.078125e-01
6.186562e-09,-1.084844e-01
6.226562e-09,-1.083437e-01
6.266562e-09,-1.085156e-01
6.306562e-09,-1.098125e-01
6.346563e-09,-1.121094e-01
6.386562e-09,-1.145469e-01
6.426562e-09,-1.160781e-01
6.466562e-09,-1.162344e-01
6.506562e-09,-1.153125e-01
6.546562e-09,-1.140937e-01
6.586562e-09,-1.133594e-01
6.626562e-09,-1.135313e-01
6.666562e-09,-1.145313e-01
6.706562e-09,-1.160313e-01
6.746562e-09,-1.175937e-01
6.786562e-09,-1.187031e-01
6.826562e-09,-1.190156e-01
6.866562e-09,-1.183750e-01
6.906562e-09,-1.170156e-01
6.946562e-09,-1.154531e-01
6.986562e-09,-1.143125e-01
7.026562e-09,-1.138437e-01
7.066562e-09,-1.138750e-01
7.106562e-09,-1.137656e-01
7.146562e-09,-1.129375e-01
7.186562e-09,-1.111719e-01
7.226562e-09,-1.089063e-01
7.266562e-09,-1.068906e-01
7.306562e-09,-1.057812e-01
7.346562e-09,-1.056406e-01
7.386562e-09,-1.059219e-01
7.426562e-09,-1.056562e-01
7.466562e-09,-1.042187e-01
7.506563e-09,-1.015625e-01
7.546562e-09,-9.837500e-02
7.586562e-09,-9.562500e-02
7.626562e-09,-9.409375e-02
7.666562e-09,-9.378125e-02
7.706563e-09,-9.409375e-02
7.746562e-09,-9.409375e-02
7.786563e-09,-9.314063e-02
7.826562e-09,-9.109375e-02
7.866562e-09,-8.843750e-02
7.906562e-09,-8.565625e-02
7.946562e-09,-8.303125e-02
7.986563e-09,-8.032813e-02
8.026562e-09,-7.732812e-02
8.066562e-09,-7.392187e-02
8.106562e-09,-7.057812e-02
8.146562e-09,-6.792187e-02
8.186563e-09,-6.648437e-02
8.226562e-09,-6.604687e-02
8.266563e-09,-6.596875e-02
8.306562e-09,-6.532812e-02
8.346562e-09,-6.376562e-02
8.386562e-09,-6.143750e-02
8.426562e-09,-5.901562e-02
8.466563e-09,-5.692187e-02
8.506562e-09,-5.510937e-02
8.546562e-09,-5.303125e-02
8.586562e-09,-5.026562e-02
8.626562e-09,-4.682812e-02
8.666563e-09,-4.332812e-02
8.706562e-09,-4.039062e-02
8.746563e-09,-3.828125e-02
8.786562e-09,-3.656250e-02
8.826562e-09,-3.475000e-02
8.866562e-09,-3.254688e-02
8.906562e-09,-3.042187e-02
8.946563e-09,-2.901562e-02
8.986562e-09,-2.868750e-02
9.026562e-09,-2.885937e-02
9.066562e-09,-2.845312e-02
9.106562e-09,-2.640625e-02
9.146562e-09,-2.265625e-02
9.186562e-09,-1.801562e-02
9.226563e-09,-1.384375e-02
9.266562e-09,-1.087500e-02
9.306562e-09,-9.078125e-03
9.346562e-09,-7.578125e-03
9.386562e-09,-5.734375e-03
9.426563e-09,-3.484375e-03
9.466562e-09,-1.546875e-03
9.506562e-09,-6.093750e-04
9.546562e-09,-7.187500e-04
9.586562e-09,-9.843750e-04
9.626562e-09,-3.593750e-04
9.666562e-09,1.703125e-03
9.706563e-09,4.609375e-03
9.746562e-09,7.203125e-03
9.786562e-09,8.593750e-03
9.826562e-09,9.031250e-03
9.866562e-09,9.640625e-03
9.906563e-09,1.159375e-02
9.946562e-09,1.504688e-02
9.986562e-09,1.903125e-02
1.002656e-08,2.198438e-02
1.006656e-08,2.301563e-02
1.010656e-08,2.240625e-02
1.014656e-08,2.132813e-02
1.018656e-08,2.078125e-02
1.022656e-08,2.096875e-02
1.026656e-08,2.139063e-02
1.030656e-08,2.170313e-02
1.034656e-08,2.215625e-02
1.038656e-08,2.357813e-02
1.042656e-08,2.639063e-02
1.046656e-08,3.009375e-02
1.050656e-08,3.318750e-02
1.054656e-08,3.440625e-02
1.058656e-08,3.351563e-02
1.062656e-08,3.170312e-02
1.066656e-08,3.057813e-02
1.070656e-08,3.106250e-02
1.074656e-08,3.264063e-02
1.078656e-08,3.387500e-02
1.082656e-08,3.357813e-02
1.086656e-08,3.170312e-02
1.090656e-08,2.939063e-02
1.094656e-08,2.814063e-02
1.098656e-08,2.873438e-02
1.102656e-08,3.085938e-02
1.106656e-08,3.343750e-02
1.110656e-08,3.542188e-02
1.114656e-08,3.639063e-02
1.118656e-08,3.662500e-02
1.122656e-08,3.668750e-02
1.126656e-08,3.695313e-02
1.130656e-08,3.739063e-02
1.134656e-08,3.765625e-02
1.138656e-08,3.739063e-02
1.142656e-08,3.637500e-02
1.146656e-08,3.479688e-02
1.150656e-08,3.312500e-02
1.154656e-08,3.203125e-02
1.158656e-08,3.214063e-02
1.162656e-08,3.365625e-02
1.166656e-08,3.614063e-02
1.170656e-08,3.850000e-02
1.174656e-08,3.954688e-02
1.178656e-08,3.865625e-02
1.182656e-08,3.618750e-02
1.186656e-08,3.331250e-02
1.190656e-08,3.129688e-02
1.194656e-08,3.067188e-02
1.198656e-08,3.103125e-02
1.202656e-08,3.142188e-02
1.206656e-08,3.114063e-02
1.210656e-08,3.018750e-02
1.214656e-08,2.920313e-02
1.218656e-08,2.875000e-02
1.222656e-08,2.884375e-02
1.226656e-08,2.898438e-02
1.230656e-08,2.864063e-02
1.234656e-08,2.779687e-02
1.238656e-08,2.693750e-02
1.242656e-08,2.665625e-02
1.246656e-08,2.700000e-02
1.250656e-08,2.750000e-02
1.254656e-08,2.750000e-02
1.258656e-08,2.675000e-02
1.262656e-08,2.553125e-02
1.266656e-08,2.434375e-02
1.270656e-08,2.334375e-02
1.274656e-08,2.228125e-02
1.278656e-08,2.073437e-02
1.282656e-08,1.870313e-02
1.286656e-08,1.682812e-02
1.290656e-08,1.601563e-02
1.294656e-08,1.668750e-02
1.298656e-08,1.837500e-02
1.302656e-08,1.990625e-02
1.306656e-08,2.017188e-02
1.310656e-08,1.882813e-02
1.314656e-08,1.651563e-02
1.318656e-08,1.429688e-02
1.322656e-08,1.293750e-02
1.326656e-08,1.235938e-02
1.330656e-08,1.187500e-02
1.334656e-08,1.075000e-02
1.338656e-08,8.937500e-03
1.342656e-08,7.125000e-03
1.346656e-08,6.250000e-03
1.350656e-08,6.796875e-03
1.354656e-08,8.328125e-03
1.358656e-08,9.765625e-03
1.362656e-08,1.006250e-02
1.366656e-08,8.937500e-03
1.370656e-08,7.109375e-03
1.374656e-08,5.703125e-03
1.378656e-08,5.500000e-03
1.382656e-08,6.328125e-03
1.386656e-08,7.250000e-03
1.390656e-08,7.187500e-03
1.394656e-08,5.781250e-03
1.398656e-08,3.453125e-03
1.402656e-08,1.203125e-03
1.406656e-08,-2.343750e-04
1.410656e-08,-7.343750e-04
1.414656e-08,-6.875000e-04
1.418656e-08,-6.562500e-04
1.422656e-08,-1.015625e-03
1.426656e-08,-1.781250e-03
1.430656e-08,-2.812500e-03
1.434656e-08,-3.937500e-03
1.438656e-08,-4.875000e-03
1.442656e-08,-5.281250e-03
1.446656e-08,-4.890625e-03
1.450656e-08,-3.703125e-03
1.454656e-08,-2.234375e-03
1.458656e-08,-1.296875e-03
1.462656e-08,-1.531250e-03
1.466656e-08,-2.937500e-03
1.470656e-08,-4.875000e-03
1.474656e-08,-6.500000e-03
1.478656e-08,-7.421875e-03
1.482656e-08,-7.875000e-03
1.486656e-08,-8.593750e-03
1.490656e-08,-9.921875e-03
1.494656e-08,-1.157812e-02
1.498656e-08,-1.257812e-02
1.502656e-08,-1.206250e-02
1.506656e-08,-9.921875e-03
1.510656e-08,-7.000000e-03
1.514656e-08,-4.640625e-03
1.518656e-08,-3.859375e-03
1.522656e-08,-4.734375e-03
1.526656e-08,-6.593750e-03
1.530656e-08,-8.437500e-03
1.534656e-08,-9.656250e-03
1.538656e-08,-1.015625e-02
1.542656e-08,-1.018750e-02
1.546656e-08,-9.968750e-03
1.550656e-08,-9.562500e-03
1.554656e-08,-8.968750e-03
1.558656e-08,-8.312500e-03
1.562656e-08,-7.843750e-03
1.566656e-08,-7.765625e-03
1.570656e-08,-8.078125e-03
1.574656e-08,-8.593750e-03
1.578656e-08,-9.031250e-03
1.582656e-08,-9.375000e-03
1.586656e-08,-9.765625e-03
1.590656e-08,-1.039062e-02
1.594656e-08,-1.125000e-02
1.598656e-08,-1.215625e-02
1.602656e-08,-1.284375e-02
1.606656e-08,-1.321875e-02
1.610656e-08,-1.332812e-02
1.614656e-08,-1.320312e-02
1.618656e-08,-1.276563e-02
1.622656e-08,-1.184375e-02
1.626656e-08,-1.039062e-02
1.630656e-08,-8.703125e-03
1.634656e-08,-7.281250e-03
1.638656e-08,-6.656250e-03
1.642656e-08,-7.109375e-03
1.646656e-08,-8.437500e-03
1.650656e-08,-1.015625e-02
1.654656e-08,-1.167187e-02
1.658656e-08,-1.253125e-02
1.662656e-08,-1.253125e-02
1.666656e-08,-1.179687e-02
1.670656e-08,-1.068750e-02
1.674656e-08,-9.703125e-03
1.678656e-08,-9.328125e-03
1.682656e-08,-9.703125e-03
1.686656e-08,-1.059375e-02
1.690656e-08,-1.146875e-02
1.694656e-08,-1.181250e-02
1.698656e-08,-1.154687e-02
1.702656e-08,-1.093750e-02
1.706656e-08,-1.039062e-02
1.710656e-08,-1.012500e-02
1.714656e-08,-1.007812e-02
1.718656e-08,-1.001563e-02
1.722656e-08,-9.953125e-03
1.726656e-08,-1.004687e-02
1.730656e-08,-1.039062e-02
1.734656e-08,-1.070312e-02
1.738656e-08,-1.042187e-02
1.742656e-08,-9.125000e-03
1.746656e-08,-7.078125e-03
1.750656e-08,-5.203125e-03
1.754656e-08,-4.515625e-03
1.758656e-08,-5.328125e-03
1.762656e-08,-6.953125e-03
1.766656e-08,-8.109375e-03
1.770656e-08,-7.921875e-03
1.774656e-08,-6.546875e-03
1.778656e-08,-5.015625e-03
1.782656e-08,-4.468750e-03
1.786656e-08,-5.281250e-03
1.790656e-08,-6.859375e-03
1.794656e-08,-8.093750e-03
1.798656e-08,-8.250000e-03
1.802656e-08,-7.343750e-03
1.806656e-08,-6.046875e-03
1.810656e-08,-5.125000e-03
1.814656e-08,-4.984375e-03
1.818656e-08,-5.468750e-03
1.822656e-08,-6.062500e-03
1.826656e-08,-6.343750e-03
1.830656e-08,-6.093750e-03
1.834656e-08,-5.515625e-03
1.838656e-08,-5.000000e-03
1.842656e-08,-4.859375e-03
1.846656e-08,-5.234375e-03
1.850656e-08,-5.906250e-03
1.854656e-08,-6.500000e-03
1.858656e-08,-6.718750e-03
1.862656e-08,-6.562500e-03
1.866656e-08,-6.281250e-03
1.870656e-08,-6.125000e-03
1.874656e-08,-6.093750e-03
1.878656e-08,-5.890625e-03
1.882656e-08,-5.203125e-03
1.886656e-08,-3.968750e-03
1.890656e-08,-2.578125e-03
1.894656e-08,-1.625000e-03
1.898656e-08,-1.593750e-03
1.902656e-08,-2.484375e-03
1.906656e-08,-3.921875e-03
1.910656e-08,-5.281250e-03
1.914656e-08,-6.093750e-03
1.918656e-08,-6.187500e-03
1.922656e-08,-5.656250e-03
1.926656e-08,-4.796875e-03
1.930656e-08,-3.968750e-03
1.934656e-08,-3.484375e-03
1.938656e-08,-3.500000e-03
1.942656e-08,-3.937500e-03
1.946656e-08,-4.531250e-03
1.950656e-08,-4.906250e-03
1.954656e-08,-4.718750e-03
1.958656e-08,-3.828125e-03
1.962656e-08,-2.312500e-03
1.966656e-08,-5.312500e-04
1.970656e-08,9.843750e-04
1.974656e-08,1.640625e-03
1.978656e-08,1.078125e-03
1.982656e-08,-5.156250e-04
1.986656e-08,-2.437500e-03
1.990656e-08,-3.703125e-03
1.994656e-08,-3.687500e-03
1.998656e-08,-2.468750e-03
2.002656e-08,-8.750000e-04
2.006656e-08,2.187500e-04
2.010656e-08,4.375000e-04
2.014656e-08,1.562500e-04
2.018656e-08,1.406250e-04
2.022656e-08,7.968750e-04
2.026656e-08,1.734375e-03
2.030656e-08,2.062500e-03
2.034656e-08,1.093750e-03
2.038656e-08,-1.015625e-03
2.042656e-08,-3.343750e-03
2.046656e-08,-4.734375e-03
2.050656e-08,-4.671875e-03
2.054656e-08,-3.531250e-03
2.058656e-08,-2.218750e-03
2.062656e-08,-1.437500e-03
2.066656e-08,-1.187500e-03
