Measurements-streak-laser-independent/Old-photodiode-on-Tek/SaveOnEvent_ch1_20190613112422720.csv

Model,MSO64
Waveform Type,ANALOG
Horizontal Units,s
Sample Interval,4.000000e-11
Record Length,1000
Zero Index,219.632812
Vertical Units,V

TIME,CH1
-8.785312e-09,-4.312500e-03
-8.745313e-09,-3.031250e-03
-8.705312e-09,-3.218750e-03
-8.665312e-09,-4.500000e-03
-8.625312e-09,-5.812500e-03
-8.585312e-09,-6.718750e-03
-8.545313e-09,-7.625000e-03
-8.505312e-09,-9.156250e-03
-8.465312e-09,-1.118750e-02
-8.425312e-09,-1.228125e-02
-8.385312e-09,-1.084375e-02
-8.345312e-09,-6.843750e-03
-8.305312e-09,-2.375000e-03
-8.265313e-09,-4.062500e-04
-8.225312e-09,-2.562500e-03
-8.185312e-09,-7.593750e-03
-8.145312e-09,-1.209375e-02
-8.105312e-09,-1.321875e-02
-8.065313e-09,-1.100000e-02
-8.025312e-09,-8.187500e-03
-7.985312e-09,-7.812500e-03
-7.945312e-09,-1.050000e-02
-7.905312e-09,-1.381250e-02
-7.865312e-09,-1.421875e-02
-7.825312e-09,-1.040625e-02
-7.785313e-09,-4.406250e-03
-7.745312e-09,-3.125000e-04
-7.705312e-09,-8.437500e-04
-7.665312e-09,-5.281250e-03
-7.625312e-09,-1.006250e-02
-7.585313e-09,-1.168750e-02
-7.545312e-09,-9.375000e-03
-7.505312e-09,-5.531250e-03
-7.465312e-09,-3.562500e-03
-7.425312e-09,-5.093750e-03
-7.385312e-09,-8.812500e-03
-7.345312e-09,-1.175000e-02
-7.305312e-09,-1.190625e-02
-7.265312e-09,-9.562500e-03
-7.225312e-09,-7.062500e-03
-7.185312e-09,-6.750000e-03
-7.145312e-09,-9.187500e-03
-7.105312e-09,-1.284375e-02
-7.065312e-09,-1.503125e-02
-7.025312e-09,-1.381250e-02
-6.985312e-09,-9.031250e-03
-6.945312e-09,-2.375000e-03
-6.905312e-09,3.312500e-03
-6.865312e-09,5.531250e-03
-6.825312e-09,3.218750e-03
-6.785312e-09,-2.437500e-03
-6.745312e-09,-8.656250e-03
-6.705312e-09,-1.246875e-02
-6.665312e-09,-1.250000e-02
-6.625312e-09,-9.781250e-03
-6.585312e-09,-7.000000e-03
-6.545312e-09,-6.562500e-03
-6.505312e-09,-8.781250e-03
-6.465312e-09,-1.165625e-02
-6.425312e-09,-1.259375e-02
-6.385312e-09,-1.040625e-02
-6.345312e-09,-6.281250e-03
-6.305312e-09,-2.843750e-03
-6.265312e-09,-1.937500e-03
-6.225312e-09,-3.312500e-03
-6.185312e-09,-5.125000e-03
-6.145312e-09,-5.625000e-03
-6.105312e-09,-4.781250e-03
-6.065312e-09,-4.187500e-03
-6.025312e-09,-5.468750e-03
-5.985312e-09,-8.531250e-03
-5.945312e-09,-1.134375e-02
-5.905312e-09,-1.150000e-02
-5.865312e-09,-8.250000e-03
-5.825312e-09,-3.218750e-03
-5.785312e-09,4.375000e-04
-5.745312e-09,5.937500e-04
-5.705312e-09,-2.500000e-03
-5.665312e-09,-6.343750e-03
-5.625312e-09,-8.281250e-03
-5.585312e-09,-7.281250e-03
-5.545312e-09,-4.656250e-03
-5.505312e-09,-2.781250e-03
-5.465312e-09,-3.312500e-03
-5.425312e-09,-6.031250e-03
-5.385312e-09,-9.281250e-03
-5.345312e-09,-1.134375e-02
-5.305312e-09,-1.165625e-02
-5.265312e-09,-1.100000e-02
-5.225312e-09,-1.046875e-02
-5.185312e-09,-1.046875e-02
-5.145312e-09,-1.037500e-02
-5.105312e-09,-9.281250e-03
-5.065312e-09,-6.875000e-03
-5.025312e-09,-4.000000e-03
-4.985312e-09,-2.125000e-03
-4.945312e-09,-2.250000e-03
-4.905312e-09,-4.218750e-03
-4.865312e-09,-6.750000e-03
-4.825312e-09,-8.562500e-03
-4.785312e-09,-9.093750e-03
-4.745312e-09,-8.875000e-03
-4.705312e-09,-8.875000e-03
-4.665312e-09,-9.562500e-03
-4.625312e-09,-1.062500e-02
-4.585312e-09,-1.112500e-02
-4.545312e-09,-1.037500e-02
-4.505312e-09,-8.531250e-03
-4.465313e-09,-6.437500e-03
-4.425312e-09,-5.156250e-03
-4.385312e-09,-5.093750e-03
-4.345312e-09,-5.906250e-03
-4.305312e-09,-6.687500e-03
-4.265312e-09,-6.625000e-03
-4.225313e-09,-5.750000e-03
-4.185312e-09,-4.750000e-03
-4.145312e-09,-4.781250e-03
-4.105312e-09,-6.406250e-03
-4.065312e-09,-9.218750e-03
-4.025313e-09,-1.196875e-02
-3.985313e-09,-1.343750e-02
-3.945312e-09,-1.328125e-02
-3.905312e-09,-1.218750e-02
-3.865312e-09,-1.125000e-02
-3.825312e-09,-1.106250e-02
-3.785313e-09,-1.112500e-02
-3.745313e-09,-1.025000e-02
-3.705312e-09,-7.781250e-03
-3.665312e-09,-4.437500e-03
-3.625312e-09,-1.937500e-03
-3.585312e-09,-1.937500e-03
-3.545312e-09,-4.562500e-03
-3.505312e-09,-8.281250e-03
-3.465312e-09,-1.103125e-02
-3.425312e-09,-1.159375e-02
-3.385312e-09,-1.043750e-02
-3.345312e-09,-9.031250e-03
-3.305313e-09,-8.687500e-03
-3.265312e-09,-9.500000e-03
-3.225312e-09,-1.059375e-02
-3.185313e-09,-1.115625e-02
-3.145312e-09,-1.106250e-02
-3.105312e-09,-1.096875e-02
-3.065313e-09,-1.125000e-02
-3.025312e-09,-1.156250e-02
-2.985312e-09,-1.081250e-02
-2.945313e-09,-8.500000e-03
-2.905312e-09,-5.312500e-03
-2.865312e-09,-3.218750e-03
-2.825313e-09,-3.843750e-03
-2.785312e-09,-7.312500e-03
-2.745312e-09,-1.175000e-02
-2.705313e-09,-1.462500e-02
-2.665312e-09,-1.440625e-02
-2.625312e-09,-1.165625e-02
-2.585313e-09,-8.687500e-03
-2.545312e-09,-7.593750e-03
-2.505312e-09,-8.875000e-03
-2.465313e-09,-1.112500e-02
-2.425312e-09,-1.221875e-02
-2.385312e-09,-1.100000e-02
-2.345313e-09,-8.281250e-03
-2.305312e-09,-6.093750e-03
-2.265312e-09,-6.375000e-03
-2.225313e-09,-9.218750e-03
-2.185312e-09,-1.300000e-02
-2.145312e-09,-1.515625e-02
-2.105313e-09,-1.409375e-02
-2.065312e-09,-1.015625e-02
-2.025312e-09,-5.375000e-03
-1.985313e-09,-2.250000e-03
-1.945312e-09,-1.968750e-03
-1.905312e-09,-3.750000e-03
-1.865313e-09,-5.500000e-03
-1.825312e-09,-5.281250e-03
-1.785312e-09,-2.875000e-03
-1.745312e-09,3.750000e-04
-1.705312e-09,2.500000e-03
-1.665312e-09,2.593750e-03
-1.625312e-09,1.343750e-03
-1.585312e-09,4.062500e-04
-1.545312e-09,9.375000e-04
-1.505312e-09,2.656250e-03
-1.465312e-09,4.281250e-03
-1.425312e-09,4.718750e-03
-1.385313e-09,4.187500e-03
-1.345312e-09,3.937500e-03
-1.305312e-09,5.156250e-03
-1.265313e-09,7.750000e-03
-1.225312e-09,1.065625e-02
-1.185312e-09,1.265625e-02
-1.145313e-09,1.412500e-02
-1.105312e-09,1.643750e-02
-1.065312e-09,2.115625e-02
-1.025313e-09,2.800000e-02
-9.853125e-10,3.512500e-02
-9.453125e-10,3.993750e-02
-9.053125e-10,4.171875e-02
-8.653125e-10,4.175000e-02
-8.253125e-10,4.287500e-02
-7.853125e-10,4.687500e-02
-7.453125e-10,5.371875e-02
-7.053125e-10,6.131250e-02
-6.653125e-10,6.803125e-02
-6.253125e-10,7.340625e-02
-5.853125e-10,7.906250e-02
-5.453125e-10,8.634375e-02
-5.053125e-10,9.556250e-02
-4.653125e-10,1.051250e-01
-4.253125e-10,1.135000e-01
-3.853125e-10,1.200000e-01
-3.453125e-10,1.260000e-01
-3.053125e-10,1.333438e-01
-2.653125e-10,1.432812e-01
-2.253125e-10,1.549688e-01
-1.853125e-10,1.665625e-01
-1.453125e-10,1.760625e-01
-1.053125e-10,1.829688e-01
-6.531250e-11,1.879688e-01
-2.531250e-11,1.926875e-01
1.468750e-11,1.981250e-01
5.468750e-11,2.049063e-01
9.468750e-11,2.126563e-01
1.346875e-10,2.210938e-01
1.746875e-10,2.295000e-01
2.146875e-10,2.374688e-01
2.546875e-10,2.442500e-01
2.946875e-10,2.497188e-01
3.346875e-10,2.539062e-01
3.746875e-10,2.577187e-01
4.146875e-10,2.616875e-01
4.546875e-10,2.666250e-01
4.946875e-10,2.724375e-01
5.346875e-10,2.793125e-01
5.746875e-10,2.868750e-01
6.146875e-10,2.949062e-01
6.546875e-10,3.025000e-01
6.946875e-10,3.089375e-01
7.346875e-10,3.134687e-01
7.746875e-10,3.168750e-01
8.146875e-10,3.204687e-01
8.546875e-10,3.259687e-01
8.946875e-10,3.334375e-01
9.346875e-10,3.415000e-01
9.746875e-10,3.475625e-01
1.014687e-09,3.502500e-01
1.054688e-09,3.501563e-01
1.094687e-09,3.498750e-01
1.134687e-09,3.518438e-01
1.174687e-09,3.568125e-01
1.214687e-09,3.630000e-01
1.254687e-09,3.681562e-01
1.294687e-09,3.711875e-01
1.334687e-09,3.731250e-01
1.374687e-09,3.759375e-01
1.414687e-09,3.806250e-01
1.454687e-09,3.860000e-01
1.494687e-09,3.895000e-01
1.534687e-09,3.892500e-01
1.574687e-09,3.857500e-01
1.614687e-09,3.815938e-01
1.654687e-09,3.796875e-01
1.694687e-09,3.811250e-01
1.734687e-09,3.847812e-01
1.774687e-09,3.881875e-01
1.814687e-09,3.895000e-01
1.854687e-09,3.884375e-01
1.894687e-09,3.860625e-01
1.934687e-09,3.836250e-01
1.974687e-09,3.816250e-01
2.014687e-09,3.799375e-01
2.054687e-09,3.782813e-01
2.094687e-09,3.767187e-01
2.134687e-09,3.752500e-01
2.174687e-09,3.737500e-01
2.214687e-09,3.714062e-01
2.254687e-09,3.675625e-01
2.294687e-09,3.620937e-01
2.334687e-09,3.561250e-01
2.374687e-09,3.510625e-01
2.414687e-09,3.482187e-01
2.454687e-09,3.473438e-01
2.494687e-09,3.473438e-01
2.534687e-09,3.464687e-01
2.574687e-09,3.438750e-01
2.614687e-09,3.395625e-01
2.654687e-09,3.346250e-01
2.694687e-09,3.298125e-01
2.734687e-09,3.254063e-01
2.774687e-09,3.205625e-01
2.814687e-09,3.144062e-01
2.854687e-09,3.064375e-01
2.894687e-09,2.975000e-01
2.934687e-09,2.888438e-01
2.974687e-09,2.818438e-01
3.014687e-09,2.767188e-01
3.054687e-09,2.729063e-01
3.094687e-09,2.690000e-01
3.134687e-09,2.642813e-01
3.174687e-09,2.584688e-01
3.214687e-09,2.523750e-01
3.254687e-09,2.464063e-01
3.294687e-09,2.409063e-01
3.334687e-09,2.354688e-01
3.374687e-09,2.300000e-01
3.414687e-09,2.242813e-01
3.454687e-09,2.185000e-01
3.494687e-09,2.122500e-01
3.534687e-09,2.050938e-01
3.574687e-09,1.962188e-01
3.614687e-09,1.858125e-01
3.654687e-09,1.747813e-01
3.694687e-09,1.650000e-01
3.734687e-09,1.574688e-01
3.774687e-09,1.525000e-01
3.814687e-09,1.485937e-01
3.854688e-09,1.444063e-01
3.894687e-09,1.388438e-01
3.934687e-09,1.324063e-01
3.974687e-09,1.259062e-01
4.014687e-09,1.201875e-01
4.054687e-09,1.148437e-01
4.094688e-09,1.090000e-01
4.134687e-09,1.015625e-01
4.174687e-09,9.268750e-02
4.214687e-09,8.328125e-02
4.254687e-09,7.506250e-02
4.294687e-09,6.875000e-02
4.334688e-09,6.409375e-02
4.374687e-09,5.953125e-02
4.414687e-09,5.381250e-02
4.454687e-09,4.628125e-02
4.494687e-09,3.803125e-02
4.534687e-09,3.056250e-02
4.574688e-09,2.537500e-02
4.614687e-09,2.231250e-02
4.654687e-09,2.031250e-02
4.694687e-09,1.740625e-02
4.734687e-09,1.256250e-02
4.774687e-09,5.718750e-03
4.814688e-09,-1.906250e-03
4.854687e-09,-9.281250e-03
4.894687e-09,-1.550000e-02
4.934687e-09,-2.081250e-02
4.974687e-09,-2.543750e-02
5.014687e-09,-2.978125e-02
5.054688e-09,-3.381250e-02
5.094687e-09,-3.771875e-02
5.134687e-09,-4.159375e-02
5.174687e-09,-4.575000e-02
5.214687e-09,-4.993750e-02
5.254687e-09,-5.381250e-02
5.294688e-09,-5.653125e-02
5.334687e-09,-5.803125e-02
5.374687e-09,-5.875000e-02
5.414687e-09,-6.006250e-02
5.454687e-09,-6.290625e-02
5.494687e-09,-6.768750e-02
5.534688e-09,-7.334375e-02
5.574687e-09,-7.831250e-02
5.614687e-09,-8.118750e-02
5.654687e-09,-8.187500e-02
5.694687e-09,-8.150000e-02
5.734687e-09,-8.187500e-02
5.774687e-09,-8.406250e-02
5.814687e-09,-8.790625e-02
5.854687e-09,-9.181250e-02
5.894687e-09,-9.412500e-02
5.934687e-09,-9.403125e-02
5.974687e-09,-9.243750e-02
6.014687e-09,-9.131250e-02
6.054687e-09,-9.246875e-02
6.094687e-09,-9.643750e-02
6.134687e-09,-1.019687e-01
6.174687e-09,-1.069688e-01
6.214687e-09,-1.096250e-01
6.254687e-09,-1.096562e-01
6.294687e-09,-1.081562e-01
6.334687e-09,-1.069688e-01
6.374687e-09,-1.072500e-01
6.414687e-09,-1.087812e-01
6.454687e-09,-1.102812e-01
6.494687e-09,-1.100625e-01
6.534687e-09,-1.075312e-01
6.574687e-09,-1.034063e-01
6.614687e-09,-9.975000e-02
6.654687e-09,-9.846875e-02
6.694687e-09,-1.002500e-01
6.734687e-09,-1.040312e-01
6.774687e-09,-1.075937e-01
6.814687e-09,-1.089375e-01
6.854687e-09,-1.075312e-01
6.894687e-09,-1.045625e-01
6.934687e-09,-1.019063e-01
6.974687e-09,-1.008125e-01
7.014687e-09,-1.010000e-01
7.054687e-09,-1.010625e-01
7.094687e-09,-9.962500e-02
7.134687e-09,-9.659375e-02
7.174687e-09,-9.303125e-02
7.214687e-09,-9.037500e-02
7.254687e-09,-8.931250e-02
7.294687e-09,-8.946875e-02
7.334687e-09,-8.990625e-02
7.374687e-09,-9.018750e-02
7.414687e-09,-9.056250e-02
7.454687e-09,-9.143750e-02
7.494687e-09,-9.250000e-02
7.534687e-09,-9.256250e-02
7.574687e-09,-9.009375e-02
7.614688e-09,-8.465625e-02
7.654687e-09,-7.743750e-02
7.694688e-09,-7.078125e-02
7.734687e-09,-6.659375e-02
7.774687e-09,-6.546875e-02
7.814687e-09,-6.625000e-02
7.854687e-09,-6.746875e-02
7.894688e-09,-6.821875e-02
7.934687e-09,-6.859375e-02
7.974687e-09,-6.890625e-02
8.014687e-09,-6.900000e-02
8.054687e-09,-6.781250e-02
8.094688e-09,-6.443750e-02
8.134687e-09,-5.918750e-02
8.174688e-09,-5.393750e-02
8.214687e-09,-5.081250e-02
8.254687e-09,-5.096875e-02
8.294687e-09,-5.306250e-02
8.334687e-09,-5.440625e-02
8.374688e-09,-5.265625e-02
8.414687e-09,-4.762500e-02
8.454687e-09,-4.140625e-02
8.494687e-09,-3.693750e-02
8.534687e-09,-3.575000e-02
8.574687e-09,-3.690625e-02
8.614687e-09,-3.790625e-02
8.654688e-09,-3.656250e-02
8.694687e-09,-3.268750e-02
8.734687e-09,-2.828125e-02
8.774687e-09,-2.571875e-02
8.814687e-09,-2.615625e-02
8.854688e-09,-2.840625e-02
8.894687e-09,-3.000000e-02
8.934687e-09,-2.878125e-02
8.974687e-09,-2.468750e-02
9.014687e-09,-1.928125e-02
9.054687e-09,-1.475000e-02
9.094687e-09,-1.212500e-02
9.134688e-09,-1.093750e-02
9.174687e-09,-9.875000e-03
9.214687e-09,-8.250000e-03
9.254687e-09,-6.406250e-03
9.294687e-09,-5.437500e-03
9.334688e-09,-5.812500e-03
9.374687e-09,-6.750000e-03
9.414687e-09,-6.531250e-03
9.454687e-09,-4.093750e-03
9.494687e-09,1.875000e-04
9.534687e-09,4.406250e-03
9.574687e-09,6.750000e-03
9.614688e-09,6.812500e-03
9.654687e-09,5.968750e-03
9.694687e-09,6.312500e-03
9.734687e-09,9.000000e-03
9.774687e-09,1.331250e-02
9.814688e-09,1.731250e-02
9.854687e-09,1.925000e-02
9.894687e-09,1.893750e-02
9.934687e-09,1.740625e-02
9.974687e-09,1.612500e-02
1.001469e-08,1.568750e-02
1.005469e-08,1.571875e-02
1.009469e-08,1.553125e-02
1.013469e-08,1.487500e-02
1.017469e-08,1.437500e-02
1.021469e-08,1.493750e-02
1.025469e-08,1.690625e-02
1.029469e-08,2.000000e-02
1.033469e-08,2.315625e-02
1.037469e-08,2.553125e-02
1.041469e-08,2.656250e-02
1.045469e-08,2.628125e-02
1.049469e-08,2.500000e-02
1.053469e-08,2.318750e-02
1.057469e-08,2.140625e-02
1.061469e-08,2.040625e-02
1.065469e-08,2.062500e-02
1.069469e-08,2.206250e-02
1.073469e-08,2.403125e-02
1.077469e-08,2.553125e-02
1.081469e-08,2.587500e-02
1.085469e-08,2.537500e-02
1.089469e-08,2.518750e-02
1.093469e-08,2.662500e-02
1.097469e-08,3.003125e-02
1.101469e-08,3.412500e-02
1.105469e-08,3.675000e-02
1.109469e-08,3.587500e-02
1.113469e-08,3.128125e-02
1.117469e-08,2.484375e-02
1.121469e-08,1.946875e-02
1.125469e-08,1.750000e-02
1.129469e-08,1.921875e-02
1.133469e-08,2.287500e-02
1.137469e-08,2.593750e-02
1.141469e-08,2.687500e-02
1.145469e-08,2.584375e-02
1.149469e-08,2.434375e-02
1.153469e-08,2.375000e-02
1.157469e-08,2.443750e-02
1.161469e-08,2.578125e-02
1.165469e-08,2.687500e-02
1.169469e-08,2.737500e-02
1.173469e-08,2.753125e-02
1.177469e-08,2.762500e-02
1.181469e-08,2.737500e-02
1.185469e-08,2.625000e-02
1.189469e-08,2.415625e-02
1.193469e-08,2.178125e-02
1.197469e-08,2.031250e-02
1.201469e-08,2.043750e-02
1.205469e-08,2.162500e-02
1.209469e-08,2.246875e-02
1.213469e-08,2.178125e-02
1.217469e-08,1.984375e-02
1.221469e-08,1.812500e-02
1.225469e-08,1.834375e-02
1.229469e-08,2.084375e-02
1.233469e-08,2.421875e-02
1.237469e-08,2.618750e-02
1.241469e-08,2.518750e-02
1.245469e-08,2.128125e-02
1.249469e-08,1.621875e-02
1.253469e-08,1.209375e-02
1.257469e-08,1.028125e-02
1.261469e-08,1.071875e-02
1.265469e-08,1.259375e-02
1.269469e-08,1.462500e-02
1.273469e-08,1.593750e-02
1.277469e-08,1.612500e-02
1.281469e-08,1.525000e-02
1.285469e-08,1.368750e-02
1.289469e-08,1.225000e-02
1.293469e-08,1.165625e-02
1.297469e-08,1.218750e-02
1.301469e-08,1.328125e-02
1.305469e-08,1.378125e-02
1.309469e-08,1.259375e-02
1.313469e-08,9.375000e-03
1.317469e-08,5.000000e-03
1.321469e-08,8.125000e-04
1.325469e-08,-1.937500e-03
1.329469e-08,-2.906250e-03
1.333469e-08,-2.562500e-03
1.337469e-08,-1.718750e-03
1.341469e-08,-9.375000e-04
1.345469e-08,-2.812500e-04
1.349469e-08,3.125000e-04
1.353469e-08,1.062500e-03
1.357469e-08,1.906250e-03
1.361469e-08,2.625000e-03
1.365469e-08,2.906250e-03
1.369469e-08,2.406250e-03
1.373469e-08,9.062500e-04
1.377469e-08,-1.375000e-03
1.381469e-08,-3.687500e-03
1.385469e-08,-4.875000e-03
1.389469e-08,-4.312500e-03
1.393469e-08,-2.312500e-03
1.397469e-08,-2.500000e-04
1.401469e-08,1.875000e-04
1.405469e-08,-1.718750e-03
1.409469e-08,-5.093750e-03
1.413469e-08,-7.937500e-03
1.417469e-08,-8.406250e-03
1.421469e-08,-6.218750e-03
1.425469e-08,-2.843750e-03
1.429469e-08,-5.937500e-04
1.433469e-08,-1.156250e-03
1.437469e-08,-4.500000e-03
1.441469e-08,-8.906250e-03
1.445469e-08,-1.218750e-02
1.449469e-08,-1.296875e-02
1.453469e-08,-1.156250e-02
1.457469e-08,-9.562500e-03
1.461469e-08,-8.750000e-03
1.465469e-08,-9.906250e-03
1.469469e-08,-1.225000e-02
1.473469e-08,-1.384375e-02
1.477469e-08,-1.306250e-02
1.481469e-08,-9.625000e-03
1.485469e-08,-5.125000e-03
1.489469e-08,-2.250000e-03
1.493469e-08,-3.062500e-03
1.497469e-08,-7.593750e-03
1.501469e-08,-1.362500e-02
1.505469e-08,-1.796875e-02
1.509469e-08,-1.843750e-02
1.513469e-08,-1.534375e-02
1.517469e-08,-1.125000e-02
1.521469e-08,-9.093750e-03
1.525469e-08,-1.025000e-02
1.529469e-08,-1.337500e-02
1.533469e-08,-1.562500e-02
1.537469e-08,-1.468750e-02
1.541469e-08,-1.059375e-02
1.545469e-08,-5.593750e-03
1.549469e-08,-2.500000e-03
1.553469e-08,-2.750000e-03
1.557469e-08,-5.406250e-03
1.561469e-08,-8.312500e-03
1.565469e-08,-9.906250e-03
1.569469e-08,-1.037500e-02
1.573469e-08,-1.121875e-02
1.577469e-08,-1.375000e-02
1.581469e-08,-1.750000e-02
1.585469e-08,-2.046875e-02
1.589469e-08,-2.059375e-02
1.593469e-08,-1.750000e-02
1.597469e-08,-1.300000e-02
1.601469e-08,-9.781250e-03
1.605469e-08,-9.531250e-03
1.609469e-08,-1.178125e-02
1.613469e-08,-1.431250e-02
1.617469e-08,-1.493750e-02
1.621469e-08,-1.303125e-02
1.625469e-08,-9.875000e-03
1.629469e-08,-7.531250e-03
1.633469e-08,-7.218750e-03
1.637469e-08,-8.625000e-03
1.641469e-08,-1.037500e-02
1.645469e-08,-1.140625e-02
1.649469e-08,-1.181250e-02
1.653469e-08,-1.259375e-02
1.657469e-08,-1.462500e-02
1.661469e-08,-1.753125e-02
1.665469e-08,-1.959375e-02
1.669469e-08,-1.893750e-02
1.673469e-08,-1.506250e-02
1.677469e-08,-9.468750e-03
1.681469e-08,-4.937500e-03
1.685469e-08,-3.750000e-03
1.689469e-08,-6.218750e-03
1.693469e-08,-1.040625e-02
1.697469e-08,-1.368750e-02
1.701469e-08,-1.431250e-02
1.705469e-08,-1.253125e-02
1.709469e-08,-1.009375e-02
1.713469e-08,-8.937500e-03
1.717469e-08,-9.968750e-03
1.721469e-08,-1.256250e-02
1.725469e-08,-1.537500e-02
1.729469e-08,-1.721875e-02
1.733469e-08,-1.746875e-02
1.737469e-08,-1.621875e-02
1.741469e-08,-1.387500e-02
1.745469e-08,-1.109375e-02
1.749469e-08,-8.718750e-03
1.753469e-08,-7.500000e-03
1.757469e-08,-7.781250e-03
1.761469e-08,-9.312500e-03
1.765469e-08,-1.109375e-02
1.769469e-08,-1.212500e-02
1.773469e-08,-1.193750e-02
1.777469e-08,-1.068750e-02
1.781469e-08,-8.906250e-03
1.785469e-08,-7.093750e-03
1.789469e-08,-5.468750e-03
1.793469e-08,-4.312500e-03
1.797469e-08,-4.125000e-03
1.801469e-08,-5.343750e-03
1.805469e-08,-7.937500e-03
1.809469e-08,-1.106250e-02
1.813469e-08,-1.334375e-02
1.817469e-08,-1.378125e-02
1.821469e-08,-1.243750e-02
1.825469e-08,-1.056250e-02
1.829469e-08,-9.562500e-03
1.833469e-08,-1.015625e-02
1.837469e-08,-1.187500e-02
1.841469e-08,-1.362500e-02
1.845469e-08,-1.459375e-02
1.849469e-08,-1.450000e-02
1.853469e-08,-1.362500e-02
1.857469e-08,-1.212500e-02
1.861469e-08,-9.937500e-03
1.865469e-08,-7.281250e-03
1.869469e-08,-4.656250e-03
1.873469e-08,-3.031250e-03
1.877469e-08,-2.968750e-03
1.881469e-08,-4.187500e-03
1.885469e-08,-5.718750e-03
1.889469e-08,-6.562500e-03
1.893469e-08,-6.500000e-03
1.897469e-08,-6.218750e-03
1.901469e-08,-6.406250e-03
1.905469e-08,-7.062500e-03
1.909469e-08,-7.437500e-03
1.913469e-08,-6.750000e-03
1.917469e-08,-5.000000e-03
1.921469e-08,-3.031250e-03
1.925469e-08,-1.968750e-03
1.929469e-08,-2.281250e-03
1.933469e-08,-3.437500e-03
1.937469e-08,-4.562500e-03
1.941469e-08,-5.187500e-03
1.945469e-08,-5.593750e-03
1.949469e-08,-6.437500e-03
1.953469e-08,-7.781250e-03
1.957469e-08,-9.031250e-03
1.961469e-08,-9.250000e-03
1.965469e-08,-8.187500e-03
1.969469e-08,-6.625000e-03
1.973469e-08,-5.750000e-03
1.977469e-08,-6.218750e-03
1.981469e-08,-7.437500e-03
1.985469e-08,-7.968750e-03
1.989469e-08,-6.781250e-03
1.993469e-08,-4.125000e-03
1.997469e-08,-1.562500e-03
2.001469e-08,-7.812500e-04
2.005469e-08,-2.406250e-03
2.009469e-08,-5.375000e-03
2.013469e-08,-7.843750e-03
2.017469e-08,-8.468750e-03
2.021469e-08,-7.375000e-03
2.025469e-08,-5.937500e-03
2.029469e-08,-5.500000e-03
2.033469e-08,-6.468750e-03
2.037469e-08,-7.937500e-03
2.041469e-08,-8.500000e-03
2.045469e-08,-7.437500e-03
2.049469e-08,-5.218750e-03
2.053469e-08,-3.218750e-03
2.057469e-08,-2.593750e-03
2.061469e-08,-3.562500e-03
2.065469e-08,-5.125000e-03
