Measurements-streak-laser-independent/Old-photodiode-on-Tek/SaveOnEvent_ch1_20190613112625873.csv

Model,MSO64
Waveform Type,ANALOG
Horizontal Units,s
Sample Interval,4.000000e-11
Record Length,1000
Zero Index,219.046875
Vertical Units,V

TIME,CH1
-8.761875e-09,-8.828125e-03
-8.721875e-09,-9.015625e-03
-8.681875e-09,-6.421875e-03
-8.641875e-09,-2.421875e-03
-8.601875e-09,6.406250e-04
-8.561875e-09,1.046875e-03
-8.521875e-09,-1.171875e-03
-8.481875e-09,-4.437500e-03
-8.441875e-09,-6.875000e-03
-8.401875e-09,-7.578125e-03
-8.361875e-09,-6.968750e-03
-8.321875e-09,-6.140625e-03
-8.281875e-09,-5.875000e-03
-8.241875e-09,-6.031250e-03
-8.201875e-09,-6.015625e-03
-8.161875e-09,-5.390625e-03
-8.121875e-09,-4.390625e-03
-8.081875e-09,-3.656250e-03
-8.041875e-09,-3.578125e-03
-8.001875e-09,-3.953125e-03
-7.961875e-09,-4.125000e-03
-7.921875e-09,-3.609375e-03
-7.881875e-09,-2.546875e-03
-7.841875e-09,-1.562500e-03
-7.801875e-09,-1.250000e-03
-7.761875e-09,-1.703125e-03
-7.721875e-09,-2.531250e-03
-7.681875e-09,-3.281250e-03
-7.641875e-09,-3.796875e-03
-7.601875e-09,-4.250000e-03
-7.561875e-09,-4.812500e-03
-7.521875e-09,-5.343750e-03
-7.481875e-09,-5.421875e-03
-7.441875e-09,-4.796875e-03
-7.401875e-09,-3.750000e-03
-7.361875e-09,-3.000000e-03
-7.321875e-09,-3.203125e-03
-7.281875e-09,-4.406250e-03
-7.241875e-09,-5.875000e-03
-7.201875e-09,-6.515625e-03
-7.161875e-09,-5.703125e-03
-7.121875e-09,-3.703125e-03
-7.081875e-09,-1.578125e-03
-7.041875e-09,-6.093750e-04
-7.001875e-09,-1.500000e-03
-6.961875e-09,-3.984375e-03
-6.921875e-09,-6.906250e-03
-6.881875e-09,-8.859375e-03
-6.841875e-09,-8.906250e-03
-6.801875e-09,-7.046875e-03
-6.761875e-09,-4.281250e-03
-6.721875e-09,-2.015625e-03
-6.681875e-09,-1.375000e-03
-6.641875e-09,-2.484375e-03
-6.601875e-09,-4.390625e-03
-6.561875e-09,-5.703125e-03
-6.521875e-09,-5.500000e-03
-6.481875e-09,-3.953125e-03
-6.441875e-09,-2.218750e-03
-6.401875e-09,-1.609375e-03
-6.361875e-09,-2.703125e-03
-6.321875e-09,-5.000000e-03
-6.281875e-09,-7.328125e-03
-6.241875e-09,-8.703125e-03
-6.201875e-09,-8.906250e-03
-6.161875e-09,-8.453125e-03
-6.121875e-09,-8.015625e-03
-6.081875e-09,-7.781250e-03
-6.041875e-09,-7.390625e-03
-6.001875e-09,-6.312500e-03
-5.961875e-09,-4.468750e-03
-5.921875e-09,-2.421875e-03
-5.881875e-09,-1.093750e-03
-5.841875e-09,-1.140625e-03
-5.801875e-09,-2.546875e-03
-5.761875e-09,-4.609375e-03
-5.721875e-09,-6.453125e-03
-5.681875e-09,-7.421875e-03
-5.641875e-09,-7.312500e-03
-5.601875e-09,-6.390625e-03
-5.561875e-09,-5.109375e-03
-5.521875e-09,-3.953125e-03
-5.481875e-09,-3.312500e-03
-5.441875e-09,-3.421875e-03
-5.401875e-09,-4.234375e-03
-5.361875e-09,-5.390625e-03
-5.321875e-09,-6.343750e-03
-5.281875e-09,-6.578125e-03
-5.241875e-09,-5.921875e-03
-5.201875e-09,-4.703125e-03
-5.161875e-09,-3.562500e-03
-5.121875e-09,-3.187500e-03
-5.081875e-09,-3.906250e-03
-5.041875e-09,-5.437500e-03
-5.001875e-09,-7.078125e-03
-4.961875e-09,-8.015625e-03
-4.921875e-09,-7.781250e-03
-4.881875e-09,-6.593750e-03
-4.841875e-09,-5.281250e-03
-4.801875e-09,-4.703125e-03
-4.761875e-09,-5.296875e-03
-4.721875e-09,-6.609375e-03
-4.681875e-09,-7.625000e-03
-4.641875e-09,-7.453125e-03
-4.601875e-09,-5.906250e-03
-4.561875e-09,-3.765625e-03
-4.521875e-09,-2.203125e-03
-4.481875e-09,-1.984375e-03
-4.441875e-09,-3.031250e-03
-4.401875e-09,-4.531250e-03
-4.361875e-09,-5.609375e-03
-4.321875e-09,-5.937500e-03
-4.281875e-09,-5.843750e-03
-4.241875e-09,-5.734375e-03
-4.201875e-09,-5.734375e-03
-4.161875e-09,-5.484375e-03
-4.121875e-09,-4.609375e-03
-4.081875e-09,-3.218750e-03
-4.041875e-09,-2.062500e-03
-4.001875e-09,-2.015625e-03
-3.961875e-09,-3.328125e-03
-3.921875e-09,-5.328125e-03
-3.881875e-09,-6.843750e-03
-3.841875e-09,-7.015625e-03
-3.801875e-09,-5.937500e-03
-3.761875e-09,-4.625000e-03
-3.721875e-09,-4.156250e-03
-3.681875e-09,-4.875000e-03
-3.641875e-09,-6.109375e-03
-3.601875e-09,-6.718750e-03
-3.561875e-09,-5.984375e-03
-3.521875e-09,-4.046875e-03
-3.481875e-09,-1.859375e-03
-3.441875e-09,-4.218750e-04
-3.401875e-09,-1.875000e-04
-3.361875e-09,-8.906250e-04
-3.321875e-09,-1.937500e-03
-3.281875e-09,-2.843750e-03
-3.241875e-09,-3.359375e-03
-3.201875e-09,-3.515625e-03
-3.161875e-09,-3.390625e-03
-3.121875e-09,-3.062500e-03
-3.081875e-09,-2.687500e-03
-3.041875e-09,-2.484375e-03
-3.001875e-09,-2.671875e-03
-2.961875e-09,-3.187500e-03
-2.921875e-09,-3.671875e-03
-2.881875e-09,-3.703125e-03
-2.841875e-09,-3.093750e-03
-2.801875e-09,-2.125000e-03
-2.761875e-09,-1.281250e-03
-2.721875e-09,-9.531250e-04
-2.681875e-09,-1.140625e-03
-2.641875e-09,-1.484375e-03
-2.601875e-09,-1.703125e-03
-2.561875e-09,-1.859375e-03
-2.521875e-09,-2.281250e-03
-2.481875e-09,-3.265625e-03
-2.441875e-09,-4.562500e-03
-2.401875e-09,-5.437500e-03
-2.361875e-09,-5.093750e-03
-2.321875e-09,-3.343750e-03
-2.281875e-09,-9.062500e-04
-2.241875e-09,9.687500e-04
-2.201875e-09,1.250000e-03
-2.161875e-09,-4.687500e-05
-2.121875e-09,-1.875000e-03
-2.081875e-09,-2.812500e-03
-2.041875e-09,-2.062500e-03
-2.001875e-09,-9.375000e-05
-1.961875e-09,1.703125e-03
-1.921875e-09,2.015625e-03
-1.881875e-09,5.156250e-04
-1.841875e-09,-1.875000e-03
-1.801875e-09,-3.625000e-03
-1.761875e-09,-3.593750e-03
-1.721875e-09,-1.828125e-03
-1.681875e-09,6.718750e-04
-1.641875e-09,2.625000e-03
-1.601875e-09,3.468750e-03
-1.561875e-09,3.531250e-03
-1.521875e-09,3.750000e-03
-1.481875e-09,4.703125e-03
-1.441875e-09,6.343750e-03
-1.401875e-09,7.828125e-03
-1.361875e-09,8.437500e-03
-1.321875e-09,8.031250e-03
-1.281875e-09,7.328125e-03
-1.241875e-09,7.390625e-03
-1.201875e-09,9.078125e-03
-1.161875e-09,1.229688e-02
-1.121875e-09,1.639063e-02
-1.081875e-09,2.021875e-02
-1.041875e-09,2.325000e-02
-1.001875e-09,2.543750e-02
-9.618750e-10,2.750000e-02
-9.218750e-10,3.012500e-02
-8.818750e-10,3.390625e-02
-8.418750e-10,3.870313e-02
-8.018750e-10,4.421875e-02
-7.618750e-10,4.975000e-02
-7.218750e-10,5.506250e-02
-6.818750e-10,5.993750e-02
-6.418750e-10,6.468750e-02
-6.018750e-10,6.940625e-02
-5.618750e-10,7.457813e-02
-5.218750e-10,8.035938e-02
-4.818750e-10,8.726563e-02
-4.418750e-10,9.534375e-02
-4.018750e-10,1.046719e-01
-3.618750e-10,1.146094e-01
-3.218750e-10,1.245781e-01
-2.818750e-10,1.337344e-01
-2.418750e-10,1.421250e-01
-2.018750e-10,1.499531e-01
-1.618750e-10,1.580938e-01
-1.218750e-10,1.667188e-01
-8.187500e-11,1.757656e-01
-4.187500e-11,1.842500e-01
-1.875000e-12,1.916719e-01
3.812500e-11,1.977031e-01
7.812500e-11,2.032656e-01
1.181250e-10,2.092031e-01
1.581250e-10,2.164219e-01
1.981250e-10,2.245781e-01
2.381250e-10,2.330000e-01
2.781250e-10,2.405469e-01
3.181250e-10,2.470313e-01
3.581250e-10,2.526719e-01
3.981250e-10,2.585156e-01
4.381250e-10,2.648594e-01
4.781250e-10,2.716875e-01
5.181250e-10,2.780000e-01
5.581250e-10,2.832344e-01
5.981250e-10,2.871406e-01
6.381250e-10,2.906406e-01
6.781250e-10,2.947344e-01
7.181250e-10,3.003438e-01
7.581250e-10,3.072031e-01
7.981250e-10,3.145313e-01
8.381250e-10,3.210625e-01
8.781250e-10,3.263594e-01
9.181250e-10,3.305000e-01
9.581250e-10,3.344531e-01
9.981250e-10,3.387500e-01
1.038125e-09,3.436406e-01
1.078125e-09,3.485469e-01
1.118125e-09,3.530625e-01
1.158125e-09,3.569219e-01
1.198125e-09,3.605313e-01
1.238125e-09,3.641875e-01
1.278125e-09,3.679844e-01
1.318125e-09,3.712031e-01
1.358125e-09,3.732344e-01
1.398125e-09,3.738906e-01
1.438125e-09,3.739688e-01
1.478125e-09,3.746250e-01
1.518125e-09,3.767344e-01
1.558125e-09,3.799375e-01
1.598125e-09,3.831875e-01
1.638125e-09,3.852969e-01
1.678125e-09,3.860625e-01
1.718125e-09,3.862344e-01
1.758125e-09,3.868438e-01
1.798125e-09,3.880781e-01
1.838125e-09,3.891250e-01
1.878125e-09,3.887031e-01
1.918125e-09,3.863437e-01
1.958125e-09,3.828594e-01
1.998125e-09,3.799219e-01
2.038125e-09,3.787969e-01
2.078125e-09,3.792813e-01
2.118125e-09,3.799688e-01
2.158125e-09,3.792188e-01
2.198125e-09,3.765312e-01
2.238125e-09,3.727344e-01
2.278125e-09,3.693281e-01
2.318125e-09,3.671563e-01
2.358125e-09,3.660469e-01
2.398125e-09,3.648750e-01
2.438125e-09,3.628594e-01
2.478125e-09,3.597813e-01
2.518125e-09,3.561875e-01
2.558125e-09,3.523594e-01
2.598125e-09,3.482969e-01
2.638125e-09,3.434063e-01
2.678125e-09,3.376406e-01
2.718125e-09,3.314063e-01
2.758125e-09,3.257969e-01
2.798125e-09,3.212500e-01
2.838125e-09,3.175313e-01
2.878125e-09,3.133750e-01
2.918125e-09,3.079531e-01
2.958125e-09,3.010938e-01
2.998125e-09,2.940313e-01
3.038125e-09,2.879375e-01
3.078125e-09,2.835938e-01
3.118125e-09,2.800938e-01
3.158125e-09,2.760625e-01
3.198125e-09,2.699531e-01
3.238125e-09,2.617500e-01
3.278125e-09,2.523438e-01
3.318125e-09,2.435625e-01
3.358125e-09,2.363594e-01
3.398125e-09,2.310000e-01
3.438125e-09,2.263594e-01
3.478125e-09,2.213906e-01
3.518125e-09,2.151719e-01
3.558125e-09,2.079531e-01
3.598125e-09,2.002500e-01
3.638125e-09,1.930313e-01
3.678125e-09,1.865625e-01
3.718125e-09,1.808750e-01
3.758125e-09,1.753125e-01
3.798125e-09,1.694688e-01
3.838125e-09,1.628125e-01
3.878125e-09,1.554688e-01
3.918125e-09,1.474844e-01
3.958125e-09,1.394063e-01
3.998125e-09,1.314063e-01
4.038125e-09,1.239375e-01
4.078125e-09,1.168594e-01
4.118125e-09,1.102813e-01
4.158125e-09,1.039531e-01
4.198125e-09,9.806250e-02
4.238125e-09,9.250000e-02
4.278125e-09,8.740625e-02
4.318125e-09,8.234375e-02
4.358125e-09,7.709375e-02
4.398125e-09,7.112500e-02
4.438125e-09,6.462500e-02
4.478125e-09,5.776563e-02
4.518125e-09,5.117188e-02
4.558125e-09,4.484375e-02
4.598125e-09,3.881250e-02
4.638125e-09,3.259375e-02
4.678125e-09,2.635938e-02
4.718125e-09,2.034375e-02
4.758125e-09,1.523438e-02
4.798125e-09,1.098438e-02
4.838125e-09,7.250000e-03
4.878125e-09,3.062500e-03
4.918125e-09,-1.968750e-03
4.958125e-09,-7.734375e-03
4.998125e-09,-1.331250e-02
5.038125e-09,-1.821875e-02
5.078125e-09,-2.231250e-02
5.118125e-09,-2.642187e-02
5.158125e-09,-3.106250e-02
5.198125e-09,-3.634375e-02
5.238125e-09,-4.129687e-02
5.278125e-09,-4.509375e-02
5.318125e-09,-4.732812e-02
5.358125e-09,-4.887500e-02
5.398125e-09,-5.085937e-02
5.438125e-09,-5.423438e-02
5.478125e-09,-5.868750e-02
5.518125e-09,-6.328125e-02
5.558125e-09,-6.676562e-02
5.598125e-09,-6.884375e-02
5.638125e-09,-6.985938e-02
5.678125e-09,-7.079687e-02
5.718125e-09,-7.223437e-02
5.758125e-09,-7.443750e-02
5.798125e-09,-7.712500e-02
5.838125e-09,-8.012500e-02
5.878125e-09,-8.323437e-02
5.918125e-09,-8.642188e-02
5.958125e-09,-8.935937e-02
5.998125e-09,-9.175000e-02
6.038125e-09,-9.332813e-02
6.078125e-09,-9.426562e-02
6.118125e-09,-9.489062e-02
6.158125e-09,-9.562500e-02
6.198125e-09,-9.645313e-02
6.238125e-09,-9.717187e-02
6.278125e-09,-9.753125e-02
6.318125e-09,-9.779687e-02
6.358125e-09,-9.848437e-02
6.398125e-09,-1.000938e-01
6.438125e-09,-1.024531e-01
6.478125e-09,-1.047812e-01
6.518125e-09,-1.059844e-01
6.558125e-09,-1.055312e-01
6.598125e-09,-1.037187e-01
6.638125e-09,-1.015625e-01
6.678125e-09,-1.000156e-01
6.718125e-09,-9.937500e-02
6.758125e-09,-9.925000e-02
6.798125e-09,-9.900000e-02
6.838125e-09,-9.839062e-02
6.878125e-09,-9.767187e-02
6.918125e-09,-9.731250e-02
6.958125e-09,-9.746875e-02
6.998125e-09,-9.775000e-02
7.038125e-09,-9.751562e-02
7.078125e-09,-9.645313e-02
7.118125e-09,-9.468750e-02
7.158125e-09,-9.278125e-02
7.198125e-09,-9.114063e-02
7.238125e-09,-8.984375e-02
7.278125e-09,-8.870312e-02
7.318125e-09,-8.771875e-02
7.358125e-09,-8.693750e-02
7.398125e-09,-8.650000e-02
7.438125e-09,-8.607812e-02
7.478125e-09,-8.515625e-02
7.518125e-09,-8.323437e-02
7.558125e-09,-8.056250e-02
7.598125e-09,-7.801563e-02
7.638125e-09,-7.653125e-02
7.678125e-09,-7.620312e-02
7.718125e-09,-7.621875e-02
7.758125e-09,-7.529687e-02
7.798125e-09,-7.295312e-02
7.838125e-09,-6.978125e-02
7.878125e-09,-6.715625e-02
7.918125e-09,-6.584375e-02
7.958125e-09,-6.542187e-02
7.998125e-09,-6.440625e-02
8.038125e-09,-6.170312e-02
8.078125e-09,-5.753125e-02
8.118125e-09,-5.348438e-02
8.158125e-09,-5.114062e-02
8.198125e-09,-5.095312e-02
8.238125e-09,-5.173437e-02
8.278125e-09,-5.184375e-02
8.318125e-09,-5.039062e-02
8.358125e-09,-4.801562e-02
8.398125e-09,-4.595312e-02
8.438125e-09,-4.501563e-02
8.478125e-09,-4.451563e-02
8.518125e-09,-4.306250e-02
8.558125e-09,-3.959375e-02
8.598125e-09,-3.459375e-02
8.638125e-09,-2.956250e-02
8.678125e-09,-2.617187e-02
8.718125e-09,-2.484375e-02
8.758125e-09,-2.485937e-02
8.798125e-09,-2.482812e-02
8.838125e-09,-2.406250e-02
8.878125e-09,-2.260937e-02
8.918125e-09,-2.109375e-02
8.958125e-09,-1.979687e-02
8.998125e-09,-1.857813e-02
9.038125e-09,-1.700000e-02
9.078125e-09,-1.496875e-02
9.118125e-09,-1.279687e-02
9.158125e-09,-1.098437e-02
9.198125e-09,-9.578125e-03
9.238125e-09,-8.281250e-03
9.278125e-09,-6.640625e-03
9.318125e-09,-4.703125e-03
9.358125e-09,-2.812500e-03
9.398125e-09,-1.437500e-03
9.438125e-09,-5.156250e-04
9.478125e-09,3.750000e-04
9.518125e-09,1.718750e-03
9.558125e-09,3.421875e-03
9.598125e-09,5.046875e-03
9.638125e-09,6.046875e-03
9.678125e-09,6.546875e-03
9.718125e-09,7.078125e-03
9.758125e-09,8.281250e-03
9.798125e-09,1.009375e-02
9.838125e-09,1.193750e-02
9.878125e-09,1.309375e-02
9.918125e-09,1.354688e-02
9.958125e-09,1.395313e-02
9.998125e-09,1.510938e-02
1.003812e-08,1.714063e-02
1.007812e-08,1.934375e-02
1.011813e-08,2.068750e-02
1.015812e-08,2.082813e-02
1.019812e-08,2.026563e-02
1.023812e-08,2.009375e-02
1.027812e-08,2.098437e-02
1.031812e-08,2.267188e-02
1.035812e-08,2.415625e-02
1.039813e-08,2.467188e-02
1.043812e-08,2.431250e-02
1.047812e-08,2.393750e-02
1.051812e-08,2.437500e-02
1.055812e-08,2.571875e-02
1.059813e-08,2.712500e-02
1.063812e-08,2.764063e-02
1.067812e-08,2.695313e-02
1.071812e-08,2.579688e-02
1.075812e-08,2.531250e-02
1.079812e-08,2.625000e-02
1.083812e-08,2.818750e-02
1.087813e-08,2.996875e-02
1.091812e-08,3.039063e-02
1.095812e-08,2.921875e-02
1.099812e-08,2.728125e-02
1.103812e-08,2.581250e-02
1.107813e-08,2.564063e-02
1.111812e-08,2.654687e-02
1.115812e-08,2.764063e-02
1.119812e-08,2.814063e-02
1.123812e-08,2.798438e-02
1.127812e-08,2.775000e-02
1.131812e-08,2.814063e-02
1.135813e-08,2.921875e-02
1.139812e-08,3.032813e-02
1.143812e-08,3.062500e-02
1.147812e-08,2.973438e-02
1.151812e-08,2.812500e-02
1.155812e-08,2.679687e-02
1.159812e-08,2.645313e-02
1.163812e-08,2.704687e-02
1.167812e-08,2.775000e-02
1.171812e-08,2.767188e-02
1.175812e-08,2.645313e-02
1.179812e-08,2.459375e-02
1.183813e-08,2.303125e-02
1.187812e-08,2.257813e-02
1.191812e-08,2.331250e-02
1.195812e-08,2.465625e-02
1.199812e-08,2.568750e-02
1.203812e-08,2.575000e-02
1.207812e-08,2.473438e-02
1.211812e-08,2.307813e-02
1.215812e-08,2.145313e-02
1.219812e-08,2.034375e-02
1.223812e-08,1.989063e-02
1.227812e-08,1.984375e-02
1.231812e-08,1.975000e-02
1.235812e-08,1.934375e-02
1.239812e-08,1.860938e-02
1.243812e-08,1.787500e-02
1.247812e-08,1.746875e-02
1.251812e-08,1.762500e-02
1.255812e-08,1.818750e-02
1.259812e-08,1.881250e-02
1.263812e-08,1.903125e-02
1.267812e-08,1.860938e-02
1.271812e-08,1.754688e-02
1.275812e-08,1.610938e-02
1.279812e-08,1.462500e-02
1.283812e-08,1.334375e-02
1.287812e-08,1.232813e-02
1.291812e-08,1.160938e-02
1.295812e-08,1.118750e-02
1.299812e-08,1.110938e-02
1.303812e-08,1.140625e-02
1.307812e-08,1.193750e-02
1.311812e-08,1.235938e-02
1.315812e-08,1.229688e-02
1.319812e-08,1.142187e-02
1.323812e-08,9.890625e-03
1.327812e-08,8.187500e-03
1.331812e-08,6.984375e-03
1.335812e-08,6.656250e-03
1.339812e-08,6.968750e-03
1.343812e-08,7.250000e-03
1.347812e-08,6.859375e-03
1.351812e-08,5.656250e-03
1.355812e-08,4.218750e-03
1.359812e-08,3.421875e-03
1.363812e-08,3.796875e-03
1.367812e-08,5.000000e-03
1.371812e-08,6.093750e-03
1.375812e-08,6.078125e-03
1.379812e-08,4.734375e-03
1.383812e-08,2.687500e-03
1.387812e-08,1.031250e-03
1.391812e-08,4.843750e-04
1.395812e-08,1.031250e-03
1.399812e-08,1.921875e-03
1.403812e-08,2.265625e-03
1.407812e-08,1.609375e-03
1.411812e-08,1.718750e-04
1.415812e-08,-1.500000e-03
1.419812e-08,-2.812500e-03
1.423812e-08,-3.531250e-03
1.427812e-08,-3.656250e-03
1.431812e-08,-3.421875e-03
1.435812e-08,-3.093750e-03
1.439812e-08,-2.875000e-03
1.443812e-08,-2.859375e-03
1.447812e-08,-3.078125e-03
1.451812e-08,-3.421875e-03
1.455812e-08,-3.796875e-03
1.459812e-08,-4.125000e-03
1.463812e-08,-4.453125e-03
1.467812e-08,-4.859375e-03
1.471812e-08,-5.328125e-03
1.475812e-08,-5.703125e-03
1.479812e-08,-5.796875e-03
1.483812e-08,-5.531250e-03
1.487812e-08,-5.062500e-03
1.491812e-08,-4.671875e-03
1.495812e-08,-4.578125e-03
1.499812e-08,-4.750000e-03
1.503812e-08,-4.968750e-03
1.507812e-08,-5.046875e-03
1.511813e-08,-5.062500e-03
1.515812e-08,-5.281250e-03
1.519812e-08,-5.968750e-03
1.523813e-08,-7.046875e-03
1.527812e-08,-8.125000e-03
1.531812e-08,-8.687500e-03
1.535812e-08,-8.593750e-03
1.539813e-08,-8.062500e-03
1.543812e-08,-7.640625e-03
1.547812e-08,-7.703125e-03
1.551813e-08,-8.218750e-03
1.555812e-08,-8.781250e-03
1.559812e-08,-9.000000e-03
1.563812e-08,-8.718750e-03
1.567812e-08,-8.218750e-03
1.571812e-08,-7.812500e-03
1.575812e-08,-7.703125e-03
1.579813e-08,-7.890625e-03
1.583812e-08,-8.156250e-03
1.587812e-08,-8.343750e-03
1.591812e-08,-8.343750e-03
1.595812e-08,-8.093750e-03
1.599812e-08,-7.671875e-03
1.603812e-08,-7.281250e-03
1.607813e-08,-7.234375e-03
1.611812e-08,-7.796875e-03
1.615812e-08,-8.906250e-03
1.619813e-08,-1.000000e-02
1.623812e-08,-1.026563e-02
1.627812e-08,-9.187500e-03
1.631812e-08,-7.015625e-03
1.635813e-08,-4.765625e-03
1.639812e-08,-3.640625e-03
1.643812e-08,-4.234375e-03
1.647813e-08,-6.125000e-03
1.651812e-08,-8.203125e-03
1.655812e-08,-9.421875e-03
1.659812e-08,-9.421875e-03
1.663812e-08,-8.750000e-03
1.667812e-08,-8.250000e-03
1.671812e-08,-8.562500e-03
1.675813e-08,-9.578125e-03
1.679812e-08,-1.073437e-02
1.683812e-08,-1.137500e-02
1.687812e-08,-1.117187e-02
1.691812e-08,-1.023437e-02
1.695812e-08,-8.953125e-03
1.699812e-08,-7.718750e-03
1.703813e-08,-6.796875e-03
1.707812e-08,-6.312500e-03
1.711812e-08,-6.328125e-03
1.715812e-08,-6.796875e-03
1.719812e-08,-7.453125e-03
1.723812e-08,-7.937500e-03
1.727812e-08,-7.937500e-03
1.731813e-08,-7.343750e-03
1.735812e-08,-6.484375e-03
1.739812e-08,-5.921875e-03
1.743813e-08,-6.093750e-03
1.747812e-08,-6.984375e-03
1.751812e-08,-8.078125e-03
1.755812e-08,-8.718750e-03
1.759812e-08,-8.484375e-03
1.763812e-08,-7.562500e-03
1.767812e-08,-6.531250e-03
1.771813e-08,-5.937500e-03
1.775812e-08,-5.921875e-03
1.779812e-08,-6.203125e-03
1.783812e-08,-6.406250e-03
1.787812e-08,-6.468750e-03
1.791812e-08,-6.562500e-03
1.795812e-08,-6.984375e-03
1.799813e-08,-7.656250e-03
1.803812e-08,-8.171875e-03
1.807812e-08,-7.984375e-03
1.811812e-08,-6.921875e-03
1.815812e-08,-5.421875e-03
1.819812e-08,-4.281250e-03
1.823812e-08,-4.046875e-03
1.827813e-08,-4.625000e-03
1.831812e-08,-5.296875e-03
1.835812e-08,-5.234375e-03
1.839813e-08,-4.140625e-03
1.843812e-08,-2.562500e-03
1.847812e-08,-1.515625e-03
1.851812e-08,-1.718750e-03
1.855812e-08,-2.984375e-03
1.859812e-08,-4.312500e-03
1.863812e-08,-4.593750e-03
1.867813e-08,-3.484375e-03
1.871812e-08,-1.734375e-03
1.875812e-08,-6.093750e-04
1.879812e-08,-8.750000e-04
1.883812e-08,-2.156250e-03
1.887812e-08,-3.171875e-03
1.891812e-08,-2.734375e-03
1.895813e-08,-8.125000e-04
1.899812e-08,1.343750e-03
1.903812e-08,2.187500e-03
1.907812e-08,1.046875e-03
1.911812e-08,-1.234375e-03
1.915812e-08,-3.093750e-03
1.919812e-08,-3.453125e-03
1.923813e-08,-2.609375e-03
1.927812e-08,-1.843750e-03
1.931812e-08,-2.296875e-03
1.935812e-08,-3.921875e-03
1.939812e-08,-5.515625e-03
1.943812e-08,-5.718750e-03
1.947812e-08,-4.187500e-03
1.951812e-08,-1.750000e-03
1.955812e-08,2.968750e-04
1.959812e-08,1.187500e-03
1.963813e-08,1.078125e-03
1.967812e-08,6.875000e-04
1.971812e-08,4.062500e-04
1.975812e-08,1.250000e-04
1.979812e-08,-4.687500e-04
1.983812e-08,-1.375000e-03
1.987812e-08,-2.015625e-03
1.991813e-08,-1.828125e-03
1.995812e-08,-7.968750e-04
1.999812e-08,4.375000e-04
2.003812e-08,1.062500e-03
2.007812e-08,8.593750e-04
2.011812e-08,3.593750e-04
2.015812e-08,4.062500e-04
2.019813e-08,1.359375e-03
2.023812e-08,2.906250e-03
2.027812e-08,4.250000e-03
2.031812e-08,4.843750e-03
2.035812e-08,4.671875e-03
2.039812e-08,4.140625e-03
2.043812e-08,3.500000e-03
2.047812e-08,2.671875e-03
2.051812e-08,1.484375e-03
2.055812e-08,4.687500e-05
2.059813e-08,-1.015625e-03
2.063812e-08,-1.015625e-03
2.067812e-08,1.875000e-04
2.071812e-08,1.890625e-03
